%!PS-Adobe-3.0 EPSF-3.0
%%DocumentNeededResources: font Helvetica
%%+ font Helvetica-Bold
%%+ font Helvetica-Oblique
%%+ font Helvetica-BoldOblique
%%+ font Symbol
%%Title: R Graphics Output
%%Creator: R Software
%%Pages: (atend)
%%BoundingBox: 0 0 432 576
%%EndComments
%%BeginProlog
/bp  { gs sRGB gs } def
% begin .ps.prolog
/gs  { gsave } bind def
/gr  { grestore } bind def
/ep  { showpage gr gr } bind def
/m   { moveto } bind def
/l  { rlineto } bind def
/np  { newpath } bind def
/cp  { closepath } bind def
/f   { fill } bind def
/o   { stroke } bind def
/c   { newpath 0 360 arc } bind def
/r   { 4 2 roll moveto 1 copy 3 -1 roll exch 0 exch rlineto 0 rlineto -1 mul 0 exch rlineto closepath } bind def
/p1  { stroke } bind def
/p2  { gsave bg fill grestore newpath } bind def
/p3  { gsave bg fill grestore stroke } bind def
/p6  { gsave bg eofill grestore newpath } bind def
/p7  { gsave bg eofill grestore stroke } bind def
/t   { 5 -2 roll moveto gsave rotate
       1 index stringwidth pop
       mul neg 0 rmoveto show grestore } bind def
/ta  { 4 -2 roll moveto gsave rotate show } bind def
/tb  { 2 -1 roll 0 rmoveto show } bind def
/cl  { grestore gsave newpath 3 index 3 index moveto 1 index
       4 -1 roll lineto  exch 1 index lineto lineto
       closepath clip newpath } bind def
/rgb { setrgbcolor } bind def
/s   { scalefont setfont } bind def
% end   .ps.prolog
/sRGB { [ /CIEBasedABC
          << /DecodeLMN
               [ { dup 0.03928 le
                        {12.92321 div}
                        {0.055 add 1.055 div 2.4 exp }
                     ifelse
                 } bind dup dup
               ]
             /MatrixLMN [0.412457 0.212673 0.019334
                         0.357576 0.715152 0.119192
                         0.180437 0.072175 0.950301]
             /WhitePoint [0.9505 1.0 1.0890]
           >>
         ] setcolorspace } bind def
/srgb { setcolor } bind def
%%IncludeResource: font Helvetica
/Helvetica findfont
dup length dict begin
  {1 index /FID ne {def} {pop pop} ifelse} forall
  /Encoding ISOLatin1Encoding def
  currentdict
  end
/Font1 exch definefont pop
%%IncludeResource: font Helvetica-Bold
/Helvetica-Bold findfont
dup length dict begin
  {1 index /FID ne {def} {pop pop} ifelse} forall
  /Encoding ISOLatin1Encoding def
  currentdict
  end
/Font2 exch definefont pop
%%IncludeResource: font Helvetica-Oblique
/Helvetica-Oblique findfont
dup length dict begin
  {1 index /FID ne {def} {pop pop} ifelse} forall
  /Encoding ISOLatin1Encoding def
  currentdict
  end
/Font3 exch definefont pop
%%IncludeResource: font Helvetica-BoldOblique
/Helvetica-BoldOblique findfont
dup length dict begin
  {1 index /FID ne {def} {pop pop} ifelse} forall
  /Encoding ISOLatin1Encoding def
  currentdict
  end
/Font4 exch definefont pop
%%IncludeResource: font Symbol
/Symbol findfont
dup length dict begin
  {1 index /FID ne {def} {pop pop} ifelse} forall
  currentdict
  end
/Font5 exch definefont pop
%%EndProlog
%%Page: 1 1
bp
0.00 0.00 432.00 576.00 cl
0.00 0.00 432.00 576.00 cl
0.00 0.00 432.00 576.00 cl
/Font1 findfont 12 s
0 0 0 srgb
48.00 508.72 (PCP-ETH) 0 0 t
48.00 494.89 (Blitzlicht-Photolyse) 0 0 t
/Font1 findfont 9 s
48.00 457.54 (File: Dy) 0 ta
-0.180 (e_0_1_V3_900V_20.dat) tb gr
48.00 334.87 (T) 0 ta
-1.080 (ue Apr  9 22:06:04 2019) tb gr
48.00 430.87 (Fitfunktion:  a + b * e) 0 ta
-0.270 (xp\(-c * t\)) tb gr
48.00 420.50 (t-Inter) 0 ta
0.270 (v) tb
-0.225 (all: 18.000 ... 471.000 ms) tb gr
48.00 410.14 (P) 0 ta
-0.360 (ar) tb
-0.090 (ameter \(Standardabw) tb
-0.090 (eichung\):) tb gr
48.00 399.77 (  a = 0.01321 \(0.00029\)) 0 0 t
48.00 389.40 (  b = 0.19903 \(0.00033\)) 0 0 t
48.00 379.03 (  c = 6.409e+00 \(3.364e-02\) s^-1) 0 0 t
48.00 368.66 (  tau = 1.560e-01 \(8.192e-04\) s) 0 0 t
216.00 345.60 388.80 518.40 cl
0 0 0 srgb
0.75 setlinewidth
[] 0 setdash
1 setlinecap
1 setlinejoin
10.00 setmiterlimit
np
222.40 510.72 m
0.15 0.16 l
0.14 0.41 l
0.15 0 l
0.14 -0.29 l
0.15 0 l
0.14 -0.28 l
0.15 0.16 l
0.14 -0.16 l
0.15 0.16 l
0.15 -0.45 l
0.14 0 l
0.15 0.29 l
0.14 -0.42 l
0.15 0.58 l
0.14 -0.87 l
0.15 0.99 l
0.14 0 l
0.15 -0.41 l
0.15 1.28 l
0.14 -0.42 l
0.15 -0.86 l
0.14 0.86 l
0.15 -0.16 l
0.14 0.58 l
0.15 -0.29 l
0.15 -0.58 l
0.14 0.45 l
0.15 0.55 l
0.14 -0.13 l
0.15 -0.13 l
0.14 -0.45 l
0.15 -0.70 l
0.14 0.13 l
0.15 0 l
0.15 -0.13 l
0.14 0.29 l
0.15 -0.74 l
0.14 0.74 l
0.15 -0.16 l
0.14 0.86 l
0.15 -0.99 l
0.14 -0.16 l
0.15 0.16 l
0.15 0.29 l
0.14 0 l
0.15 -0.16 l
0.14 -0.58 l
0.15 -0.13 l
0.14 0.13 l
0.15 0.29 l
0.14 0 l
0.15 0 l
0.15 -0.58 l
0.14 0.45 l
0.15 -0.45 l
0.14 0.29 l
0.15 0.58 l
0.14 -0.13 l
0.15 0 l
0.15 -0.29 l
0.14 0.70 l
0.15 -0.28 l
0.14 0.16 l
0.15 0.28 l
0.14 0.42 l
0.15 -0.99 l
0.14 0.29 l
0.15 -0.16 l
0.15 1.02 l
0.14 -1.44 l
0.15 -0.16 l
0.14 0.16 l
0.15 0.29 l
0.14 0.29 l
0.15 -0.16 l
0.14 -0.71 l
0.15 0.71 l
0.15 -0.13 l
0.14 0.29 l
0.15 -0.29 l
0.14 0.70 l
0.15 -0.86 l
0.14 0 l
0.15 0.57 l
0.14 -0.41 l
0.15 0.57 l
0.15 -0.73 l
0.14 0.73 l
0.15 -1.02 l
0.14 1.02 l
0.15 -0.57 l
0.14 0 l
0.15 -0.58 l
0.15 0.71 l
0.14 0.73 l
0.15 -0.45 l
0.14 0.29 l
0.15 0.29 l
0.14 -0.58 l
236.96 443.85 lineto
0.14 3.29 l
0.15 2.17 l
0.15 0.74 l
0.14 0.29 l
0.15 0.54 l
0.14 0.74 l
0.15 0 l
0.14 0.71 l
0.15 -0.13 l
0.14 0.13 l
0.15 0 l
0.15 -0.13 l
0.14 0.87 l
0.15 1.44 l
0.14 -0.16 l
0.15 0.29 l
0.14 0.29 l
0.15 -0.42 l
0.14 0.42 l
0.15 0 l
0.15 0.87 l
0.14 0 l
0.15 0.99 l
0.14 -0.70 l
0.15 0.70 l
0.14 -0.25 l
0.15 0.99 l
0.15 0.58 l
0.14 0 l
0.15 0.58 l
0.14 0.13 l
0.15 0.16 l
0.14 -0.58 l
0.15 -0.45 l
0.14 0.87 l
0.15 0.57 l
0.15 0.17 l
0.14 0.28 l
0.15 0.29 l
0.14 0.87 l
0.15 -0.45 l
0.14 1.03 l
0.15 -0.74 l
0.14 0.29 l
0.15 0 l
0.15 0.87 l
0.14 -0.29 l
0.15 -0.29 l
0.14 0.16 l
0.15 0.29 l
0.14 -0.16 l
0.15 0.86 l
0.14 0.71 l
0.15 0.74 l
0.15 0.42 l
0.14 -0.42 l
0.15 0.99 l
0.14 -1.44 l
0.15 0.74 l
0.14 0.13 l
0.15 0.16 l
0.15 0.41 l
0.14 0.17 l
0.15 0.70 l
0.14 0.29 l
0.15 0.45 l
0.14 0.29 l
0.15 -0.58 l
0.14 0.71 l
0.15 0 l
0.15 0 l
0.14 -0.13 l
0.15 1.28 l
0.14 0.16 l
0.15 -0.57 l
0.14 0.70 l
0.15 -0.29 l
0.14 0.45 l
0.15 0.84 l
0.15 -0.13 l
0.14 0.42 l
0.15 0.29 l
0.14 -0.42 l
0.15 0 l
0.14 0.29 l
0.15 0.42 l
0.14 -0.29 l
0.15 0.29 l
0.15 0.29 l
0.14 0.16 l
0.15 0.41 l
0.14 0.58 l
0.15 0.74 l
0.14 0.13 l
0.15 -0.13 l
0.15 0 l
0.14 0 l
0.15 0.29 l
0.14 0.58 l
251.52 472.53 lineto
0.14 1.16 l
0.15 -0.45 l
0.14 0.57 l
0.15 -0.12 l
0.15 0.86 l
0.14 0.71 l
0.15 -0.16 l
0.14 -0.13 l
0.15 0.58 l
0.14 -1.16 l
0.15 0.71 l
0.14 -0.13 l
0.15 0.58 l
0.15 -0.16 l
0.14 0.58 l
0.15 -0.58 l
0.14 1.03 l
0.15 0 l
0.14 0.57 l
0.15 -0.29 l
0.14 0.71 l
0.15 -0.58 l
0.15 0.29 l
0.14 0.45 l
0.15 -0.58 l
0.14 0.29 l
0.15 0.29 l
0.14 -0.45 l
0.15 0.29 l
0.14 0.45 l
0.15 1.74 l
0.15 -0.74 l
0.14 0.29 l
0.15 -0.13 l
0.14 -0.29 l
0.15 0.29 l
0.14 -0.45 l
0.15 0.45 l
0.15 0.86 l
0.14 -0.28 l
0.15 0 l
0.14 0.57 l
0.15 0.29 l
0.14 0.13 l
0.15 -0.58 l
0.14 1.29 l
0.15 -0.55 l
0.15 0.55 l
0.14 -0.42 l
0.15 0.29 l
0.14 0 l
0.15 0.13 l
0.14 -0.13 l
0.15 -0.29 l
0.14 0.71 l
0.15 0.16 l
0.15 0.99 l
0.14 0 l
0.15 0 l
0.14 0.45 l
0.15 -0.45 l
0.14 1.03 l
0.15 -0.74 l
0.14 0.58 l
0.15 -0.13 l
0.15 0 l
0.14 0.58 l
0.15 -0.58 l
0.14 0.29 l
0.15 -0.16 l
0.14 0.58 l
0.15 0.74 l
0.15 -0.74 l
0.14 0.45 l
0.15 0.13 l
0.14 0 l
0.15 0.28 l
0.14 0.58 l
0.15 -0.70 l
0.14 0.12 l
0.15 0.29 l
0.15 0.74 l
0.14 0.58 l
0.15 0 l
0.14 0.29 l
0.15 -0.29 l
0.14 0 l
0.15 0 l
0.14 0.42 l
0.15 -0.13 l
0.15 0 l
0.14 -0.58 l
0.15 0.87 l
0.14 -0.45 l
0.15 0.16 l
0.14 1.28 l
0.15 -0.45 l
0.14 0.45 l
0.15 0.29 l
266.08 487.95 lineto
0.14 0.28 l
0.15 0.42 l
0.14 -0.42 l
0.15 -0.73 l
0.14 1.15 l
0.15 -0.29 l
0.15 -0.58 l
0.14 0.29 l
0.15 0.74 l
0.14 0.58 l
0.15 -0.29 l
0.14 -0.74 l
0.15 1.03 l
0.14 0.42 l
0.15 -0.87 l
0.15 0.16 l
0.14 0.42 l
0.15 -0.13 l
0.14 -0.58 l
0.15 1.00 l
0.14 -0.87 l
0.15 0.45 l
0.14 1.45 l
0.15 0 l
0.15 -0.16 l
0.14 0.28 l
0.15 -0.99 l
0.14 -0.58 l
0.15 1.16 l
0.14 -0.16 l
0.15 0 l
0.14 -0.13 l
0.15 0 l
0.15 0.58 l
0.14 0.57 l
0.15 -0.73 l
0.14 0.28 l
0.15 0.74 l
0.14 0.29 l
0.15 0 l
0.15 0 l
0.14 -0.16 l
0.15 0 l
0.14 0.45 l
0.15 0.29 l
0.14 -0.16 l
0.15 -0.58 l
0.14 0.45 l
0.15 0.42 l
0.15 0.29 l
0.14 -0.13 l
0.15 0.58 l
0.14 -1.16 l
0.15 0.29 l
0.14 0.42 l
0.15 0 l
0.14 -0.13 l
0.15 -0.16 l
0.15 0.16 l
0.14 0.13 l
0.15 0.29 l
0.14 0.16 l
0.15 0.25 l
0.14 1.03 l
0.15 -0.16 l
0.14 -0.87 l
0.15 1.03 l
0.15 -0.45 l
0.14 0 l
0.15 -0.29 l
0.14 0 l
0.15 0 l
0.14 0.45 l
0.15 0.42 l
0.15 -0.13 l
0.14 0.71 l
0.15 -0.13 l
0.14 -0.29 l
0.15 0.87 l
0.14 0 l
0.15 -1.03 l
0.14 0.58 l
0.15 0.74 l
0.15 -1.32 l
0.14 0.74 l
0.15 -0.45 l
0.14 0.16 l
0.15 -0.16 l
0.14 0.58 l
0.15 0.29 l
0.14 0 l
0.15 0.73 l
0.15 -1.44 l
0.14 0.13 l
0.15 0.45 l
0.14 0 l
0.15 -0.16 l
0.14 -0.13 l
0.15 0 l
280.63 495.14 lineto
0.15 0.58 l
0.15 0.29 l
0.14 0.45 l
0.15 0.70 l
0.14 -0.58 l
0.15 0 l
0.14 -0.70 l
0.15 0.86 l
0.15 -0.44 l
0.14 0 l
0.15 -0.29 l
0.14 0.29 l
0.15 0.16 l
0.14 -0.87 l
0.15 2.02 l
0.14 -0.58 l
0.15 0.29 l
0.15 -0.29 l
0.14 0.87 l
0.15 -0.29 l
0.14 -0.87 l
0.15 0.29 l
0.14 0 l
0.15 -0.16 l
0.14 0.45 l
0.15 -0.58 l
0.15 0.87 l
0.14 0.58 l
0.15 -0.58 l
0.14 0.71 l
0.15 0.16 l
0.14 -0.16 l
0.15 -0.58 l
0.14 -0.13 l
0.15 0 l
0.15 0.42 l
0.14 -0.13 l
0.15 -0.45 l
0.14 0.58 l
0.15 -0.13 l
0.14 1.00 l
0.15 0.45 l
0.14 -0.16 l
0.15 0.28 l
0.15 -0.41 l
0.14 -0.45 l
0.15 0.16 l
0.14 -0.74 l
0.15 1.32 l
0.14 -0.45 l
0.15 -0.13 l
0.15 -0.16 l
0.14 0.74 l
0.15 0 l
0.14 -0.16 l
0.15 0.70 l
0.14 -0.54 l
0.15 -0.29 l
0.14 0.41 l
0.15 0.58 l
0.15 -0.58 l
0.14 -0.12 l
0.15 -0.29 l
0.14 0.29 l
0.15 0.25 l
0.14 0.16 l
0.15 -0.41 l
0.14 0.41 l
0.15 0.13 l
0.15 0.29 l
0.14 -0.71 l
0.15 0.29 l
0.14 -0.70 l
0.15 0.83 l
0.14 -0.29 l
0.15 0.45 l
0.14 -0.29 l
0.15 0.29 l
0.15 0.29 l
0.14 -0.45 l
0.15 0.74 l
0.14 -0.74 l
0.15 1.03 l
0.14 -0.58 l
0.15 0.58 l
0.15 -0.74 l
0.14 -0.58 l
0.15 0.45 l
0.14 -0.99 l
0.15 1.12 l
0.14 0 l
0.15 0.16 l
0.14 -0.29 l
0.15 0 l
0.15 0.13 l
0.14 0.74 l
0.15 -0.16 l
0.14 0.45 l
0.15 -0.74 l
295.19 500.92 lineto
0.15 -0.58 l
0.14 0.13 l
0.15 0.45 l
0.15 -0.74 l
0.14 0.58 l
0.15 -0.42 l
0.14 1.00 l
0.15 -0.29 l
0.14 1.15 l
0.15 -0.70 l
0.14 -0.45 l
0.15 -0.71 l
0.15 0.29 l
0.14 0 l
0.15 0.87 l
0.14 -0.74 l
0.15 -0.42 l
0.14 1.00 l
0.15 0.16 l
0.15 -0.58 l
0.14 0.58 l
0.15 0 l
0.14 1.28 l
0.15 -0.41 l
0.14 -0.58 l
0.15 -0.16 l
0.14 0 l
0.15 -0.87 l
0.15 0 l
0.14 0.29 l
0.15 0.45 l
0.14 -0.45 l
0.15 0.16 l
0.14 -0.16 l
0.15 0.45 l
0.14 0.87 l
0.15 0.57 l
0.15 -1.60 l
0.14 0.45 l
0.15 0 l
0.14 0.13 l
0.15 0.28 l
0.14 -0.99 l
0.15 0.58 l
0.14 0.29 l
0.15 -0.45 l
0.15 0 l
0.14 0.57 l
0.15 0 l
0.14 0 l
0.15 -0.28 l
0.14 0.57 l
0.15 -0.70 l
0.15 0 l
0.14 -0.16 l
0.15 0.29 l
0.14 -0.13 l
0.15 -0.58 l
0.14 0.13 l
0.15 0.86 l
0.14 0.45 l
0.15 -0.45 l
0.15 0.87 l
0.14 0 l
0.15 -0.29 l
0.14 -0.41 l
0.15 0.41 l
0.14 0.16 l
0.15 -0.16 l
0.14 -0.41 l
0.15 -0.74 l
0.15 0.45 l
0.14 -0.45 l
0.15 0.57 l
0.14 0.29 l
0.15 0.74 l
0.14 -0.45 l
0.15 0 l
0.14 0.16 l
0.15 -0.57 l
0.15 0.12 l
0.14 0.16 l
0.15 -0.16 l
0.14 0.29 l
0.15 0.16 l
0.14 0.42 l
0.15 0 l
0.15 -0.58 l
0.14 0.45 l
0.15 0.58 l
0.14 -0.58 l
0.15 0 l
0.14 -0.16 l
0.15 0.29 l
0.14 -1.28 l
0.15 0.41 l
0.15 0.45 l
0.14 0 l
0.15 0 l
309.75 502.94 lineto
0.15 0.29 l
0.14 0.13 l
0.15 -0.13 l
0.14 0.71 l
0.15 -1.45 l
0.15 0.74 l
0.14 -0.16 l
0.15 0 l
0.14 -0.99 l
0.15 0.70 l
0.14 -0.29 l
0.15 -0.12 l
0.14 0.86 l
0.15 0 l
0.15 0.87 l
0.14 -0.45 l
0.15 -0.58 l
0.14 0 l
0.15 -0.13 l
0.14 0.29 l
0.15 -0.16 l
0.15 -0.29 l
0.14 0.87 l
0.15 -0.29 l
0.14 -0.87 l
0.15 1.03 l
0.14 0.29 l
0.15 0 l
0.14 0 l
0.15 0.29 l
0.15 -0.45 l
0.14 -0.13 l
0.15 0.71 l
0.14 -0.87 l
0.15 0.16 l
0.14 0 l
0.15 -0.45 l
0.14 0.58 l
0.15 -0.13 l
0.15 0.13 l
0.14 0.45 l
0.15 0.29 l
0.14 0 l
0.15 -0.87 l
0.14 0.87 l
0.15 -0.16 l
0.14 -0.13 l
0.15 -0.29 l
0.15 0 l
0.14 -0.29 l
0.15 0.42 l
0.14 0.29 l
0.15 0.58 l
0.14 -1.00 l
0.15 -0.16 l
0.15 -0.29 l
0.14 0.29 l
0.15 0.16 l
0.14 -0.58 l
0.15 0.42 l
0.14 -0.42 l
0.15 0.58 l
0.14 0.58 l
0.15 -0.74 l
0.15 0.74 l
0.14 0.29 l
0.15 -0.16 l
0.14 -0.42 l
0.15 -0.29 l
0.14 0 l
0.15 0 l
0.14 -1.03 l
0.15 0.29 l
0.15 0.16 l
0.14 0.58 l
0.15 0.29 l
0.14 0.13 l
0.15 0.29 l
0.14 -0.13 l
0.15 0.87 l
0.14 -1.74 l
0.15 1.00 l
0.15 0.16 l
0.14 -0.58 l
0.15 0.42 l
0.14 -0.71 l
0.15 -0.29 l
0.14 0.58 l
0.15 0.13 l
0.14 0.29 l
0.15 0.16 l
0.15 -0.58 l
0.14 -0.29 l
0.15 0.29 l
0.14 0 l
0.15 0 l
0.14 0 l
0.15 0 l
0.15 -0.16 l
324.31 503.81 lineto
0.15 0.13 l
0.14 0.29 l
0.15 0.74 l
0.14 0.41 l
0.15 -0.99 l
0.14 -0.16 l
0.15 0 l
0.15 0.87 l
0.14 -0.87 l
0.15 0.74 l
0.14 -1.03 l
0.15 -0.71 l
0.14 1.00 l
0.15 0 l
0.14 0.45 l
0.15 0.13 l
0.15 0.45 l
0.14 0 l
0.15 0 l
0.14 -0.16 l
0.15 -0.87 l
0.14 0.58 l
0.15 -0.13 l
0.14 -0.29 l
0.15 0 l
0.15 0 l
0.14 0.58 l
0.15 0.41 l
0.14 0.16 l
0.15 -0.28 l
0.14 -0.29 l
0.15 -0.87 l
0.15 0.87 l
0.14 0 l
0.15 0.13 l
0.14 -0.71 l
0.15 0 l
0.14 0 l
0.15 -0.29 l
0.14 1.00 l
0.15 0.44 l
0.15 -0.44 l
0.14 0.44 l
0.15 -0.73 l
0.14 -0.13 l
0.15 -0.16 l
0.14 -0.58 l
0.15 1.03 l
0.14 -0.58 l
0.15 -0.29 l
0.15 0.29 l
0.14 -0.29 l
0.15 0.29 l
0.14 0 l
0.15 0.58 l
0.14 0.13 l
0.15 -0.87 l
0.14 0.74 l
0.15 -0.58 l
0.15 1.41 l
0.14 -2.15 l
0.15 0.74 l
0.14 0.29 l
0.15 -0.29 l
0.14 0.58 l
0.15 0.83 l
0.15 -0.70 l
0.14 0.57 l
0.15 -0.29 l
0.14 -0.99 l
0.15 0.58 l
0.14 0 l
0.15 -0.45 l
0.14 0.16 l
0.15 0.13 l
0.15 -0.29 l
0.14 -0.42 l
0.15 1.16 l
0.14 0 l
0.15 -0.29 l
0.14 0.57 l
0.15 -0.28 l
0.14 0 l
0.15 -0.16 l
0.15 0.70 l
0.14 -0.70 l
0.15 -0.29 l
0.14 0.29 l
0.15 0 l
0.14 -0.29 l
0.15 0.57 l
0.14 0.16 l
0.15 -0.28 l
0.15 -0.16 l
0.14 -0.58 l
0.15 0.58 l
0.14 0.44 l
0.15 -0.44 l
0.14 0.16 l
338.87 505.26 lineto
0.15 -0.45 l
0.14 -0.13 l
0.15 0.29 l
0.14 0.57 l
0.15 -0.28 l
0.14 1.12 l
0.15 -0.84 l
0.14 -0.28 l
0.15 -0.45 l
0.15 0.45 l
0.14 0.12 l
0.15 -0.12 l
0.14 -0.74 l
0.15 0.16 l
0.14 -0.16 l
0.15 1.02 l
0.14 -0.57 l
0.15 0.41 l
0.15 0 l
0.14 0 l
0.15 -0.70 l
0.14 0.70 l
0.15 -0.41 l
0.14 0.70 l
0.15 0.42 l
0.14 -1.12 l
0.15 -0.74 l
0.15 0.29 l
0.14 1.02 l
0.15 0.42 l
0.14 0.42 l
0.15 -1.00 l
0.14 -0.12 l
0.15 -0.16 l
0.15 -0.42 l
0.14 0.42 l
0.15 0.44 l
0.14 -1.31 l
0.15 0.16 l
0.14 1.28 l
0.15 -0.29 l
0.14 0.42 l
0.15 0.29 l
0.15 0 l
0.14 -0.42 l
0.15 -0.13 l
0.14 0.13 l
0.15 0.13 l
0.14 -0.42 l
0.15 -0.28 l
0.14 0 l
0.15 -0.29 l
0.15 -0.13 l
0.14 0.42 l
0.15 0.44 l
0.14 0.26 l
0.15 0.87 l
0.14 -1.29 l
0.15 0.87 l
0.14 -0.58 l
0.15 -0.41 l
0.15 0.70 l
0.14 0.42 l
0.15 -1.28 l
0.14 -0.13 l
0.15 0.70 l
0.14 0.29 l
0.15 -0.29 l
0.15 -0.29 l
0.14 0.58 l
0.15 -0.70 l
0.14 -0.29 l
0.15 1.12 l
0.14 0 l
0.15 -0.13 l
0.14 -0.70 l
0.15 0.70 l
0.15 -0.58 l
0.14 -0.70 l
0.15 0.86 l
0.14 0.13 l
0.15 0 l
0.14 0.58 l
0.15 0.29 l
0.14 -0.45 l
0.15 0 l
0.15 -0.71 l
0.14 -0.28 l
0.15 0 l
0.14 0 l
0.15 -0.42 l
0.14 0.42 l
0.15 0.28 l
0.14 0.71 l
0.15 -0.71 l
0.15 -0.41 l
0.14 0.70 l
0.15 0 l
0.14 -0.41 l
353.43 506.09 lineto
0.14 -0.99 l
0.15 0.44 l
0.14 -0.16 l
0.15 -0.28 l
0.15 0.16 l
0.14 0.54 l
0.15 -0.13 l
0.14 0.87 l
0.15 -0.87 l
0.14 0.71 l
0.15 -1.28 l
0.15 0.44 l
0.14 -0.16 l
0.15 0.29 l
0.14 -0.13 l
0.15 0 l
0.14 -0.57 l
0.15 0.41 l
0.14 0.58 l
0.15 0.13 l
0.15 -0.29 l
0.14 0.45 l
0.15 0.42 l
0.14 -1.13 l
0.15 1.00 l
0.14 -0.58 l
0.15 0 l
0.14 -0.99 l
0.15 0.57 l
0.15 -0.28 l
0.14 0.28 l
0.15 0.42 l
0.14 -0.42 l
0.15 -0.28 l
0.14 0.41 l
0.15 0.42 l
0.14 -0.42 l
0.15 0.58 l
0.15 -0.58 l
0.14 0.71 l
0.15 0 l
0.14 -1.28 l
0.15 0.57 l
0.14 0.29 l
0.15 0 l
0.15 0.13 l
0.14 0.16 l
0.15 0.29 l
0.14 -0.58 l
0.15 -0.42 l
0.14 0.26 l
0.15 0.16 l
0.14 -0.86 l
0.15 0.44 l
0.15 0.42 l
0.14 -0.58 l
0.15 -0.41 l
0.14 0.99 l
0.15 -0.99 l
0.14 0.99 l
0.15 0.42 l
0.14 -0.13 l
0.15 0.13 l
0.15 -0.58 l
0.14 0.29 l
0.15 -0.55 l
0.14 0.42 l
0.15 -0.58 l
0.14 0.29 l
0.15 -0.41 l
0.14 -0.29 l
0.15 0.57 l
0.15 0.55 l
0.14 -0.55 l
0.15 0 l
0.14 1.00 l
0.15 -0.29 l
0.14 -0.58 l
0.15 0.71 l
0.15 -0.29 l
0.14 -0.29 l
0.15 0.16 l
0.14 -0.58 l
0.15 -0.12 l
0.14 0.83 l
0.15 0.29 l
0.14 -0.29 l
0.15 0.29 l
0.15 0.29 l
0.14 -1.00 l
0.15 0.42 l
0.14 0.45 l
0.15 -0.58 l
0.14 -0.16 l
0.15 -0.54 l
0.14 0.28 l
0.15 0.13 l
0.15 -0.13 l
0.14 1.29 l
currentpoint o m
367.99 506.25 lineto
0.14 0.58 l
0.15 -0.45 l
0.14 0.16 l
0.15 -0.29 l
0.14 -0.45 l
0.15 0.16 l
0.15 0.58 l
0.14 -0.74 l
0.15 0.16 l
0.14 0.13 l
0.15 0 l
0.14 -0.13 l
0.15 0.87 l
0.15 -0.16 l
0.14 -0.13 l
0.15 -0.74 l
0.14 0.29 l
0.15 0.29 l
0.14 -0.13 l
0.15 -0.45 l
0.14 -0.13 l
0.15 0 l
0.15 0.13 l
0.14 0.74 l
0.15 0 l
0.14 0.42 l
0.15 -1.00 l
0.14 0.13 l
0.15 -0.29 l
0.14 0 l
0.15 -0.13 l
0.15 0.29 l
0.14 -0.16 l
0.15 0.29 l
0.14 0 l
0.15 0 l
0.14 0.58 l
0.15 0.29 l
0.14 -0.71 l
0.15 -0.16 l
0.15 0.29 l
0.14 0.29 l
0.15 -0.29 l
0.14 -0.29 l
0.15 -0.29 l
0.14 0 l
0.15 0.29 l
0.15 0 l
0.14 0.16 l
0.15 0.58 l
0.14 0.29 l
0.15 -0.74 l
0.14 -0.13 l
0.15 -0.71 l
0.14 0.71 l
0.15 -0.16 l
0.15 0.16 l
0.14 -0.16 l
0.15 0.16 l
0.14 0 l
0.15 0 l
0.14 -0.16 l
0.15 0.58 l
0.14 -0.42 l
0.15 0 l
0.15 0.58 l
0.14 -0.16 l
0.15 -0.13 l
0.14 -0.16 l
0.15 0.16 l
0.14 -0.45 l
0.15 -0.55 l
0.14 0 l
0.15 0.71 l
0.15 0.13 l
0.14 0.45 l
0.15 -0.16 l
0.14 0 l
0.15 -0.58 l
0.14 0 l
0.15 0.87 l
0.15 0.45 l
0.14 -1.16 l
0.15 0.42 l
0.14 0 l
0.15 -1.00 l
0.14 -0.13 l
0.15 0.71 l
0.14 0.29 l
0.15 0.13 l
0.15 -0.13 l
0.14 -0.74 l
0.15 -0.26 l
0.14 1.13 l
0.15 -0.58 l
0.14 -0.42 l
0.15 -0.29 l
0.14 1.00 l
0.15 0.45 l
o
/bg { 1 1 1 srgb } def
222.40 510.72 0.43 c p3
222.55 510.88 0.43 c p3
222.69 511.29 0.43 c p3
222.84 511.29 0.43 c p3
222.98 511.00 0.43 c p3
223.13 511.00 0.43 c p3
223.27 510.72 0.43 c p3
223.42 510.88 0.43 c p3
223.56 510.72 0.43 c p3
223.71 510.88 0.43 c p3
223.86 510.43 0.43 c p3
224.00 510.43 0.43 c p3
224.15 510.72 0.43 c p3
224.29 510.30 0.43 c p3
224.44 510.88 0.43 c p3
224.58 510.01 0.43 c p3
224.73 511.00 0.43 c p3
224.87 511.00 0.43 c p3
225.02 510.59 0.43 c p3
225.17 511.87 0.43 c p3
225.31 511.45 0.43 c p3
225.46 510.59 0.43 c p3
225.60 511.45 0.43 c p3
225.75 511.29 0.43 c p3
225.89 511.87 0.43 c p3
226.04 511.58 0.43 c p3
226.19 511.00 0.43 c p3
226.33 511.45 0.43 c p3
226.48 512.00 0.43 c p3
226.62 511.87 0.43 c p3
226.77 511.74 0.43 c p3
226.91 511.29 0.43 c p3
227.06 510.59 0.43 c p3
227.20 510.72 0.43 c p3
227.35 510.72 0.43 c p3
227.50 510.59 0.43 c p3
227.64 510.88 0.43 c p3
227.79 510.14 0.43 c p3
227.93 510.88 0.43 c p3
228.08 510.72 0.43 c p3
228.22 511.58 0.43 c p3
228.37 510.59 0.43 c p3
228.51 510.43 0.43 c p3
228.66 510.59 0.43 c p3
228.81 510.88 0.43 c p3
228.95 510.88 0.43 c p3
229.10 510.72 0.43 c p3
229.24 510.14 0.43 c p3
229.39 510.01 0.43 c p3
229.53 510.14 0.43 c p3
229.68 510.43 0.43 c p3
229.82 510.43 0.43 c p3
229.97 510.43 0.43 c p3
230.12 509.85 0.43 c p3
230.26 510.30 0.43 c p3
230.41 509.85 0.43 c p3
230.55 510.14 0.43 c p3
230.70 510.72 0.43 c p3
230.84 510.59 0.43 c p3
230.99 510.59 0.43 c p3
231.14 510.30 0.43 c p3
231.28 511.00 0.43 c p3
231.43 510.72 0.43 c p3
231.57 510.88 0.43 c p3
231.72 511.16 0.43 c p3
231.86 511.58 0.43 c p3
232.01 510.59 0.43 c p3
232.15 510.88 0.43 c p3
232.30 510.72 0.43 c p3
232.45 511.74 0.43 c p3
232.59 510.30 0.43 c p3
232.74 510.14 0.43 c p3
232.88 510.30 0.43 c p3
233.03 510.59 0.43 c p3
233.17 510.88 0.43 c p3
233.32 510.72 0.43 c p3
233.46 510.01 0.43 c p3
233.61 510.72 0.43 c p3
233.76 510.59 0.43 c p3
233.90 510.88 0.43 c p3
234.05 510.59 0.43 c p3
234.19 511.29 0.43 c p3
234.34 510.43 0.43 c p3
234.48 510.43 0.43 c p3
234.63 511.00 0.43 c p3
234.77 510.59 0.43 c p3
234.92 511.16 0.43 c p3
235.07 510.43 0.43 c p3
235.21 511.16 0.43 c p3
235.36 510.14 0.43 c p3
235.50 511.16 0.43 c p3
235.65 510.59 0.43 c p3
235.79 510.59 0.43 c p3
235.94 510.01 0.43 c p3
236.09 510.72 0.43 c p3
236.23 511.45 0.43 c p3
236.38 511.00 0.43 c p3
236.52 511.29 0.43 c p3
236.67 511.58 0.43 c p3
236.81 511.00 0.43 c p3
236.96 443.85 0.43 c p3
237.10 447.14 0.43 c p3
237.25 449.31 0.43 c p3
237.40 450.05 0.43 c p3
237.54 450.34 0.43 c p3
237.69 450.88 0.43 c p3
237.83 451.62 0.43 c p3
237.98 451.62 0.43 c p3
238.12 452.33 0.43 c p3
238.27 452.20 0.43 c p3
238.41 452.33 0.43 c p3
238.56 452.33 0.43 c p3
238.71 452.20 0.43 c p3
238.85 453.07 0.43 c p3
239.00 454.51 0.43 c p3
239.14 454.35 0.43 c p3
239.29 454.64 0.43 c p3
239.43 454.93 0.43 c p3
239.58 454.51 0.43 c p3
239.72 454.93 0.43 c p3
239.87 454.93 0.43 c p3
240.02 455.80 0.43 c p3
240.16 455.80 0.43 c p3
240.31 456.79 0.43 c p3
240.45 456.09 0.43 c p3
240.60 456.79 0.43 c p3
240.74 456.54 0.43 c p3
240.89 457.53 0.43 c p3
241.04 458.11 0.43 c p3
241.18 458.11 0.43 c p3
241.33 458.69 0.43 c p3
241.47 458.82 0.43 c p3
241.62 458.98 0.43 c p3
241.76 458.40 0.43 c p3
241.91 457.95 0.43 c p3
242.05 458.82 0.43 c p3
242.20 459.39 0.43 c p3
242.35 459.56 0.43 c p3
242.49 459.84 0.43 c p3
242.64 460.13 0.43 c p3
242.78 461.00 0.43 c p3
242.93 460.55 0.43 c p3
243.07 461.58 0.43 c p3
243.22 460.84 0.43 c p3
243.36 461.13 0.43 c p3
243.51 461.13 0.43 c p3
243.66 462.00 0.43 c p3
243.80 461.71 0.43 c p3
243.95 461.42 0.43 c p3
244.09 461.58 0.43 c p3
244.24 461.87 0.43 c p3
244.38 461.71 0.43 c p3
244.53 462.57 0.43 c p3
244.67 463.28 0.43 c p3
244.82 464.02 0.43 c p3
244.97 464.44 0.43 c p3
245.11 464.02 0.43 c p3
245.26 465.01 0.43 c p3
245.40 463.57 0.43 c p3
245.55 464.31 0.43 c p3
245.69 464.44 0.43 c p3
245.84 464.60 0.43 c p3
245.99 465.01 0.43 c p3
246.13 465.18 0.43 c p3
246.28 465.88 0.43 c p3
246.42 466.17 0.43 c p3
246.57 466.62 0.43 c p3
246.71 466.91 0.43 c p3
246.86 466.33 0.43 c p3
247.00 467.04 0.43 c p3
247.15 467.04 0.43 c p3
247.30 467.04 0.43 c p3
247.44 466.91 0.43 c p3
247.59 468.19 0.43 c p3
247.73 468.35 0.43 c p3
247.88 467.78 0.43 c p3
248.02 468.48 0.43 c p3
248.17 468.19 0.43 c p3
248.31 468.64 0.43 c p3
248.46 469.48 0.43 c p3
248.61 469.35 0.43 c p3
248.75 469.77 0.43 c p3
248.90 470.06 0.43 c p3
249.04 469.64 0.43 c p3
249.19 469.64 0.43 c p3
249.33 469.93 0.43 c p3
249.48 470.35 0.43 c p3
249.62 470.06 0.43 c p3
249.77 470.35 0.43 c p3
249.92 470.64 0.43 c p3
250.06 470.80 0.43 c p3
250.21 471.21 0.43 c p3
250.35 471.79 0.43 c p3
250.50 472.53 0.43 c p3
250.64 472.66 0.43 c p3
250.79 472.53 0.43 c p3
250.94 472.53 0.43 c p3
251.08 472.53 0.43 c p3
251.23 472.82 0.43 c p3
251.37 473.40 0.43 c p3
251.52 472.53 0.43 c p3
251.66 473.69 0.43 c p3
251.81 473.24 0.43 c p3
251.95 473.81 0.43 c p3
252.10 473.69 0.43 c p3
252.25 474.55 0.43 c p3
252.39 475.26 0.43 c p3
252.54 475.10 0.43 c p3
252.68 474.97 0.43 c p3
252.83 475.55 0.43 c p3
252.97 474.39 0.43 c p3
253.12 475.10 0.43 c p3
253.26 474.97 0.43 c p3
253.41 475.55 0.43 c p3
253.56 475.39 0.43 c p3
253.70 475.97 0.43 c p3
253.85 475.39 0.43 c p3
253.99 476.42 0.43 c p3
254.14 476.42 0.43 c p3
254.28 476.99 0.43 c p3
254.43 476.70 0.43 c p3
254.57 477.41 0.43 c p3
254.72 476.83 0.43 c p3
254.87 477.12 0.43 c p3
255.01 477.57 0.43 c p3
255.16 476.99 0.43 c p3
255.30 477.28 0.43 c p3
255.45 477.57 0.43 c p3
255.59 477.12 0.43 c p3
255.74 477.41 0.43 c p3
255.88 477.86 0.43 c p3
256.03 479.60 0.43 c p3
256.18 478.86 0.43 c p3
256.32 479.15 0.43 c p3
256.47 479.02 0.43 c p3
256.61 478.73 0.43 c p3
256.76 479.02 0.43 c p3
256.90 478.57 0.43 c p3
257.05 479.02 0.43 c p3
257.20 479.88 0.43 c p3
257.34 479.60 0.43 c p3
257.49 479.60 0.43 c p3
257.63 480.17 0.43 c p3
257.78 480.46 0.43 c p3
257.92 480.59 0.43 c p3
258.07 480.01 0.43 c p3
258.21 481.30 0.43 c p3
258.36 480.75 0.43 c p3
258.51 481.30 0.43 c p3
258.65 480.88 0.43 c p3
258.80 481.17 0.43 c p3
258.94 481.17 0.43 c p3
259.09 481.30 0.43 c p3
259.23 481.17 0.43 c p3
259.38 480.88 0.43 c p3
259.52 481.59 0.43 c p3
259.67 481.75 0.43 c p3
259.82 482.74 0.43 c p3
259.96 482.74 0.43 c p3
260.11 482.74 0.43 c p3
260.25 483.19 0.43 c p3
260.40 482.74 0.43 c p3
260.54 483.77 0.43 c p3
260.69 483.03 0.43 c p3
260.83 483.61 0.43 c p3
260.98 483.48 0.43 c p3
261.13 483.48 0.43 c p3
261.27 484.06 0.43 c p3
261.42 483.48 0.43 c p3
261.56 483.77 0.43 c p3
261.71 483.61 0.43 c p3
261.85 484.19 0.43 c p3
262.00 484.93 0.43 c p3
262.15 484.19 0.43 c p3
262.29 484.64 0.43 c p3
262.44 484.77 0.43 c p3
262.58 484.77 0.43 c p3
262.73 485.05 0.43 c p3
262.87 485.63 0.43 c p3
263.02 484.93 0.43 c p3
263.16 485.05 0.43 c p3
263.31 485.34 0.43 c p3
263.46 486.08 0.43 c p3
263.60 486.66 0.43 c p3
263.75 486.66 0.43 c p3
263.89 486.95 0.43 c p3
264.04 486.66 0.43 c p3
264.18 486.66 0.43 c p3
264.33 486.66 0.43 c p3
264.47 487.08 0.43 c p3
264.62 486.95 0.43 c p3
264.77 486.95 0.43 c p3
264.91 486.37 0.43 c p3
265.06 487.24 0.43 c p3
265.20 486.79 0.43 c p3
265.35 486.95 0.43 c p3
265.49 488.23 0.43 c p3
265.64 487.78 0.43 c p3
265.78 488.23 0.43 c p3
265.93 488.52 0.43 c p3
266.08 487.95 0.43 c p3
266.22 488.23 0.43 c p3
266.37 488.65 0.43 c p3
266.51 488.23 0.43 c p3
266.66 487.50 0.43 c p3
266.80 488.65 0.43 c p3
266.95 488.36 0.43 c p3
267.10 487.78 0.43 c p3
267.24 488.07 0.43 c p3
267.39 488.81 0.43 c p3
267.53 489.39 0.43 c p3
267.68 489.10 0.43 c p3
267.82 488.36 0.43 c p3
267.97 489.39 0.43 c p3
268.11 489.81 0.43 c p3
268.26 488.94 0.43 c p3
268.41 489.10 0.43 c p3
268.55 489.52 0.43 c p3
268.70 489.39 0.43 c p3
268.84 488.81 0.43 c p3
268.99 489.81 0.43 c p3
269.13 488.94 0.43 c p3
269.28 489.39 0.43 c p3
269.42 490.84 0.43 c p3
269.57 490.84 0.43 c p3
269.72 490.68 0.43 c p3
269.86 490.96 0.43 c p3
270.01 489.97 0.43 c p3
270.15 489.39 0.43 c p3
270.30 490.55 0.43 c p3
270.44 490.39 0.43 c p3
270.59 490.39 0.43 c p3
270.73 490.26 0.43 c p3
270.88 490.26 0.43 c p3
271.03 490.84 0.43 c p3
271.17 491.41 0.43 c p3
271.32 490.68 0.43 c p3
271.46 490.96 0.43 c p3
271.61 491.70 0.43 c p3
271.75 491.99 0.43 c p3
271.90 491.99 0.43 c p3
272.05 491.99 0.43 c p3
272.19 491.83 0.43 c p3
272.34 491.83 0.43 c p3
272.48 492.28 0.43 c p3
272.63 492.57 0.43 c p3
272.77 492.41 0.43 c p3
272.92 491.83 0.43 c p3
273.06 492.28 0.43 c p3
273.21 492.70 0.43 c p3
273.36 492.99 0.43 c p3
273.50 492.86 0.43 c p3
273.65 493.44 0.43 c p3
273.79 492.28 0.43 c p3
273.94 492.57 0.43 c p3
274.08 492.99 0.43 c p3
274.23 492.99 0.43 c p3
274.37 492.86 0.43 c p3
274.52 492.70 0.43 c p3
274.67 492.86 0.43 c p3
274.81 492.99 0.43 c p3
274.96 493.28 0.43 c p3
275.10 493.44 0.43 c p3
275.25 493.69 0.43 c p3
275.39 494.72 0.43 c p3
275.54 494.56 0.43 c p3
275.68 493.69 0.43 c p3
275.83 494.72 0.43 c p3
275.98 494.27 0.43 c p3
276.12 494.27 0.43 c p3
276.27 493.98 0.43 c p3
276.41 493.98 0.43 c p3
276.56 493.98 0.43 c p3
276.70 494.43 0.43 c p3
276.85 494.85 0.43 c p3
277.00 494.72 0.43 c p3
277.14 495.43 0.43 c p3
277.29 495.30 0.43 c p3
277.43 495.01 0.43 c p3
277.58 495.88 0.43 c p3
277.72 495.88 0.43 c p3
277.87 494.85 0.43 c p3
278.01 495.43 0.43 c p3
278.16 496.17 0.43 c p3
278.31 494.85 0.43 c p3
278.45 495.59 0.43 c p3
278.60 495.14 0.43 c p3
278.74 495.30 0.43 c p3
278.89 495.14 0.43 c p3
279.03 495.72 0.43 c p3
279.18 496.01 0.43 c p3
279.32 496.01 0.43 c p3
279.47 496.74 0.43 c p3
279.62 495.30 0.43 c p3
279.76 495.43 0.43 c p3
279.91 495.88 0.43 c p3
280.05 495.88 0.43 c p3
280.20 495.72 0.43 c p3
280.34 495.59 0.43 c p3
280.49 495.59 0.43 c p3
280.63 495.14 0.43 c p3
280.78 495.72 0.43 c p3
280.93 496.01 0.43 c p3
281.07 496.46 0.43 c p3
281.22 497.16 0.43 c p3
281.36 496.58 0.43 c p3
281.51 496.58 0.43 c p3
281.65 495.88 0.43 c p3
281.80 496.74 0.43 c p3
281.95 496.30 0.43 c p3
282.09 496.30 0.43 c p3
282.24 496.01 0.43 c p3
282.38 496.30 0.43 c p3
282.53 496.46 0.43 c p3
282.67 495.59 0.43 c p3
282.82 497.61 0.43 c p3
282.96 497.03 0.43 c p3
283.11 497.32 0.43 c p3
283.26 497.03 0.43 c p3
283.40 497.90 0.43 c p3
283.55 497.61 0.43 c p3
283.69 496.74 0.43 c p3
283.84 497.03 0.43 c p3
283.98 497.03 0.43 c p3
284.13 496.87 0.43 c p3
284.27 497.32 0.43 c p3
284.42 496.74 0.43 c p3
284.57 497.61 0.43 c p3
284.71 498.19 0.43 c p3
284.86 497.61 0.43 c p3
285.00 498.32 0.43 c p3
285.15 498.48 0.43 c p3
285.29 498.32 0.43 c p3
285.44 497.74 0.43 c p3
285.58 497.61 0.43 c p3
285.73 497.61 0.43 c p3
285.88 498.03 0.43 c p3
286.02 497.90 0.43 c p3
286.17 497.45 0.43 c p3
286.31 498.03 0.43 c p3
286.46 497.90 0.43 c p3
286.60 498.90 0.43 c p3
286.75 499.35 0.43 c p3
286.89 499.19 0.43 c p3
287.04 499.47 0.43 c p3
287.19 499.06 0.43 c p3
287.33 498.61 0.43 c p3
287.48 498.77 0.43 c p3
287.62 498.03 0.43 c p3
287.77 499.35 0.43 c p3
287.91 498.90 0.43 c p3
288.06 498.77 0.43 c p3
288.21 498.61 0.43 c p3
288.35 499.35 0.43 c p3
288.50 499.35 0.43 c p3
288.64 499.19 0.43 c p3
288.79 499.89 0.43 c p3
288.93 499.35 0.43 c p3
289.08 499.06 0.43 c p3
289.22 499.47 0.43 c p3
289.37 500.05 0.43 c p3
289.52 499.47 0.43 c p3
289.66 499.35 0.43 c p3
289.81 499.06 0.43 c p3
289.95 499.35 0.43 c p3
290.10 499.60 0.43 c p3
290.24 499.76 0.43 c p3
290.39 499.35 0.43 c p3
290.53 499.76 0.43 c p3
290.68 499.89 0.43 c p3
290.83 500.18 0.43 c p3
290.97 499.47 0.43 c p3
291.12 499.76 0.43 c p3
291.26 499.06 0.43 c p3
291.41 499.89 0.43 c p3
291.55 499.60 0.43 c p3
291.70 500.05 0.43 c p3
291.84 499.76 0.43 c p3
291.99 500.05 0.43 c p3
292.14 500.34 0.43 c p3
292.28 499.89 0.43 c p3
292.43 500.63 0.43 c p3
292.57 499.89 0.43 c p3
292.72 500.92 0.43 c p3
292.86 500.34 0.43 c p3
293.01 500.92 0.43 c p3
293.16 500.18 0.43 c p3
293.30 499.60 0.43 c p3
293.45 500.05 0.43 c p3
293.59 499.06 0.43 c p3
293.74 500.18 0.43 c p3
293.88 500.18 0.43 c p3
294.03 500.34 0.43 c p3
294.17 500.05 0.43 c p3
294.32 500.05 0.43 c p3
294.47 500.18 0.43 c p3
294.61 500.92 0.43 c p3
294.76 500.76 0.43 c p3
294.90 501.21 0.43 c p3
295.05 500.47 0.43 c p3
295.19 500.92 0.43 c p3
295.34 500.34 0.43 c p3
295.48 500.47 0.43 c p3
295.63 500.92 0.43 c p3
295.78 500.18 0.43 c p3
295.92 500.76 0.43 c p3
296.07 500.34 0.43 c p3
296.21 501.34 0.43 c p3
296.36 501.05 0.43 c p3
296.50 502.20 0.43 c p3
296.65 501.50 0.43 c p3
296.79 501.05 0.43 c p3
296.94 500.34 0.43 c p3
297.09 500.63 0.43 c p3
297.23 500.63 0.43 c p3
297.38 501.50 0.43 c p3
297.52 500.76 0.43 c p3
297.67 500.34 0.43 c p3
297.81 501.34 0.43 c p3
297.96 501.50 0.43 c p3
298.11 500.92 0.43 c p3
298.25 501.50 0.43 c p3
298.40 501.50 0.43 c p3
298.54 502.78 0.43 c p3
298.69 502.37 0.43 c p3
298.83 501.79 0.43 c p3
298.98 501.63 0.43 c p3
299.12 501.63 0.43 c p3
299.27 500.76 0.43 c p3
299.42 500.76 0.43 c p3
299.56 501.05 0.43 c p3
299.71 501.50 0.43 c p3
299.85 501.05 0.43 c p3
300.00 501.21 0.43 c p3
300.14 501.05 0.43 c p3
300.29 501.50 0.43 c p3
300.43 502.37 0.43 c p3
300.58 502.94 0.43 c p3
300.73 501.34 0.43 c p3
300.87 501.79 0.43 c p3
301.02 501.79 0.43 c p3
301.16 501.92 0.43 c p3
301.31 502.20 0.43 c p3
301.45 501.21 0.43 c p3
301.60 501.79 0.43 c p3
301.74 502.08 0.43 c p3
301.89 501.63 0.43 c p3
302.04 501.63 0.43 c p3
302.18 502.20 0.43 c p3
302.33 502.20 0.43 c p3
302.47 502.20 0.43 c p3
302.62 501.92 0.43 c p3
302.76 502.49 0.43 c p3
302.91 501.79 0.43 c p3
303.06 501.79 0.43 c p3
303.20 501.63 0.43 c p3
303.35 501.92 0.43 c p3
303.49 501.79 0.43 c p3
303.64 501.21 0.43 c p3
303.78 501.34 0.43 c p3
303.93 502.20 0.43 c p3
304.07 502.65 0.43 c p3
304.22 502.20 0.43 c p3
304.37 503.07 0.43 c p3
304.51 503.07 0.43 c p3
304.66 502.78 0.43 c p3
304.80 502.37 0.43 c p3
304.95 502.78 0.43 c p3
305.09 502.94 0.43 c p3
305.24 502.78 0.43 c p3
305.38 502.37 0.43 c p3
305.53 501.63 0.43 c p3
305.68 502.08 0.43 c p3
305.82 501.63 0.43 c p3
305.97 502.20 0.43 c p3
306.11 502.49 0.43 c p3
306.26 503.23 0.43 c p3
306.40 502.78 0.43 c p3
306.55 502.78 0.43 c p3
306.69 502.94 0.43 c p3
306.84 502.37 0.43 c p3
306.99 502.49 0.43 c p3
307.13 502.65 0.43 c p3
307.28 502.49 0.43 c p3
307.42 502.78 0.43 c p3
307.57 502.94 0.43 c p3
307.71 503.36 0.43 c p3
307.86 503.36 0.43 c p3
308.01 502.78 0.43 c p3
308.15 503.23 0.43 c p3
308.30 503.81 0.43 c p3
308.44 503.23 0.43 c p3
308.59 503.23 0.43 c p3
308.73 503.07 0.43 c p3
308.88 503.36 0.43 c p3
309.02 502.08 0.43 c p3
309.17 502.49 0.43 c p3
309.32 502.94 0.43 c p3
309.46 502.94 0.43 c p3
309.61 502.94 0.43 c p3
309.75 502.94 0.43 c p3
309.90 503.23 0.43 c p3
310.04 503.36 0.43 c p3
310.19 503.23 0.43 c p3
310.33 503.94 0.43 c p3
310.48 502.49 0.43 c p3
310.63 503.23 0.43 c p3
310.77 503.07 0.43 c p3
310.92 503.07 0.43 c p3
311.06 502.08 0.43 c p3
311.21 502.78 0.43 c p3
311.35 502.49 0.43 c p3
311.50 502.37 0.43 c p3
311.64 503.23 0.43 c p3
311.79 503.23 0.43 c p3
311.94 504.10 0.43 c p3
312.08 503.65 0.43 c p3
312.23 503.07 0.43 c p3
312.37 503.07 0.43 c p3
312.52 502.94 0.43 c p3
312.66 503.23 0.43 c p3
312.81 503.07 0.43 c p3
312.96 502.78 0.43 c p3
313.10 503.65 0.43 c p3
313.25 503.36 0.43 c p3
313.39 502.49 0.43 c p3
313.54 503.52 0.43 c p3
313.68 503.81 0.43 c p3
313.83 503.81 0.43 c p3
313.97 503.81 0.43 c p3
314.12 504.10 0.43 c p3
314.27 503.65 0.43 c p3
314.41 503.52 0.43 c p3
314.56 504.23 0.43 c p3
314.70 503.36 0.43 c p3
314.85 503.52 0.43 c p3
314.99 503.52 0.43 c p3
315.14 503.07 0.43 c p3
315.28 503.65 0.43 c p3
315.43 503.52 0.43 c p3
315.58 503.65 0.43 c p3
315.72 504.10 0.43 c p3
315.87 504.39 0.43 c p3
316.01 504.39 0.43 c p3
316.16 503.52 0.43 c p3
316.30 504.39 0.43 c p3
316.45 504.23 0.43 c p3
316.59 504.10 0.43 c p3
316.74 503.81 0.43 c p3
316.89 503.81 0.43 c p3
317.03 503.52 0.43 c p3
317.18 503.94 0.43 c p3
317.32 504.23 0.43 c p3
317.47 504.81 0.43 c p3
317.61 503.81 0.43 c p3
317.76 503.65 0.43 c p3
317.91 503.36 0.43 c p3
318.05 503.65 0.43 c p3
318.20 503.81 0.43 c p3
318.34 503.23 0.43 c p3
318.49 503.65 0.43 c p3
318.63 503.23 0.43 c p3
318.78 503.81 0.43 c p3
318.92 504.39 0.43 c p3
319.07 503.65 0.43 c p3
319.22 504.39 0.43 c p3
319.36 504.68 0.43 c p3
319.51 504.52 0.43 c p3
319.65 504.10 0.43 c p3
319.80 503.81 0.43 c p3
319.94 503.81 0.43 c p3
320.09 503.81 0.43 c p3
320.23 502.78 0.43 c p3
320.38 503.07 0.43 c p3
320.53 503.23 0.43 c p3
320.67 503.81 0.43 c p3
320.82 504.10 0.43 c p3
320.96 504.23 0.43 c p3
321.11 504.52 0.43 c p3
321.25 504.39 0.43 c p3
321.40 505.26 0.43 c p3
321.54 503.52 0.43 c p3
321.69 504.52 0.43 c p3
321.84 504.68 0.43 c p3
321.98 504.10 0.43 c p3
322.13 504.52 0.43 c p3
322.27 503.81 0.43 c p3
322.42 503.52 0.43 c p3
322.56 504.10 0.43 c p3
322.71 504.23 0.43 c p3
322.85 504.52 0.43 c p3
323.00 504.68 0.43 c p3
323.15 504.10 0.43 c p3
323.29 503.81 0.43 c p3
323.44 504.10 0.43 c p3
323.58 504.10 0.43 c p3
323.73 504.10 0.43 c p3
323.87 504.10 0.43 c p3
324.02 504.10 0.43 c p3
324.17 503.94 0.43 c p3
324.31 503.81 0.43 c p3
324.46 503.94 0.43 c p3
324.60 504.23 0.43 c p3
324.75 504.97 0.43 c p3
324.89 505.38 0.43 c p3
325.04 504.39 0.43 c p3
325.18 504.23 0.43 c p3
325.33 504.23 0.43 c p3
325.48 505.10 0.43 c p3
325.62 504.23 0.43 c p3
325.77 504.97 0.43 c p3
325.91 503.94 0.43 c p3
326.06 503.23 0.43 c p3
326.20 504.23 0.43 c p3
326.35 504.23 0.43 c p3
326.49 504.68 0.43 c p3
326.64 504.81 0.43 c p3
326.79 505.26 0.43 c p3
326.93 505.26 0.43 c p3
327.08 505.26 0.43 c p3
327.22 505.10 0.43 c p3
327.37 504.23 0.43 c p3
327.51 504.81 0.43 c p3
327.66 504.68 0.43 c p3
327.80 504.39 0.43 c p3
327.95 504.39 0.43 c p3
328.10 504.39 0.43 c p3
328.24 504.97 0.43 c p3
328.39 505.38 0.43 c p3
328.53 505.54 0.43 c p3
328.68 505.26 0.43 c p3
328.82 504.97 0.43 c p3
328.97 504.10 0.43 c p3
329.12 504.97 0.43 c p3
329.26 504.97 0.43 c p3
329.41 505.10 0.43 c p3
329.55 504.39 0.43 c p3
329.70 504.39 0.43 c p3
329.84 504.39 0.43 c p3
329.99 504.10 0.43 c p3
330.13 505.10 0.43 c p3
330.28 505.54 0.43 c p3
330.43 505.10 0.43 c p3
330.57 505.54 0.43 c p3
330.72 504.81 0.43 c p3
330.86 504.68 0.43 c p3
331.01 504.52 0.43 c p3
331.15 503.94 0.43 c p3
331.30 504.97 0.43 c p3
331.44 504.39 0.43 c p3
331.59 504.10 0.43 c p3
331.74 504.39 0.43 c p3
331.88 504.10 0.43 c p3
332.03 504.39 0.43 c p3
332.17 504.39 0.43 c p3
332.32 504.97 0.43 c p3
332.46 505.10 0.43 c p3
332.61 504.23 0.43 c p3
332.75 504.97 0.43 c p3
332.90 504.39 0.43 c p3
333.05 505.80 0.43 c p3
333.19 503.65 0.43 c p3
333.34 504.39 0.43 c p3
333.48 504.68 0.43 c p3
333.63 504.39 0.43 c p3
333.77 504.97 0.43 c p3
333.92 505.80 0.43 c p3
334.07 505.10 0.43 c p3
334.21 505.67 0.43 c p3
334.36 505.38 0.43 c p3
334.50 504.39 0.43 c p3
334.65 504.97 0.43 c p3
334.79 504.97 0.43 c p3
334.94 504.52 0.43 c p3
335.08 504.68 0.43 c p3
335.23 504.81 0.43 c p3
335.38 504.52 0.43 c p3
335.52 504.10 0.43 c p3
335.67 505.26 0.43 c p3
335.81 505.26 0.43 c p3
335.96 504.97 0.43 c p3
336.10 505.54 0.43 c p3
336.25 505.26 0.43 c p3
336.39 505.26 0.43 c p3
336.54 505.10 0.43 c p3
336.69 505.80 0.43 c p3
336.83 505.10 0.43 c p3
336.98 504.81 0.43 c p3
337.12 505.10 0.43 c p3
337.27 505.10 0.43 c p3
337.41 504.81 0.43 c p3
337.56 505.38 0.43 c p3
337.70 505.54 0.43 c p3
337.85 505.26 0.43 c p3
338.00 505.10 0.43 c p3
338.14 504.52 0.43 c p3
338.29 505.10 0.43 c p3
338.43 505.54 0.43 c p3
338.58 505.10 0.43 c p3
338.72 505.26 0.43 c p3
338.87 505.26 0.43 c p3
339.02 504.81 0.43 c p3
339.16 504.68 0.43 c p3
339.31 504.97 0.43 c p3
339.45 505.54 0.43 c p3
339.60 505.26 0.43 c p3
339.74 506.38 0.43 c p3
339.89 505.54 0.43 c p3
340.03 505.26 0.43 c p3
340.18 504.81 0.43 c p3
340.33 505.26 0.43 c p3
340.47 505.38 0.43 c p3
340.62 505.26 0.43 c p3
340.76 504.52 0.43 c p3
340.91 504.68 0.43 c p3
341.05 504.52 0.43 c p3
341.20 505.54 0.43 c p3
341.34 504.97 0.43 c p3
341.49 505.38 0.43 c p3
341.64 505.38 0.43 c p3
341.78 505.38 0.43 c p3
341.93 504.68 0.43 c p3
342.07 505.38 0.43 c p3
342.22 504.97 0.43 c p3
342.36 505.67 0.43 c p3
342.51 506.09 0.43 c p3
342.65 504.97 0.43 c p3
342.80 504.23 0.43 c p3
342.95 504.52 0.43 c p3
343.09 505.54 0.43 c p3
343.24 505.96 0.43 c p3
343.38 506.38 0.43 c p3
343.53 505.38 0.43 c p3
343.67 505.26 0.43 c p3
343.82 505.10 0.43 c p3
343.97 504.68 0.43 c p3
344.11 505.10 0.43 c p3
344.26 505.54 0.43 c p3
344.40 504.23 0.43 c p3
344.55 504.39 0.43 c p3
344.69 505.67 0.43 c p3
344.84 505.38 0.43 c p3
344.98 505.80 0.43 c p3
345.13 506.09 0.43 c p3
345.28 506.09 0.43 c p3
345.42 505.67 0.43 c p3
345.57 505.54 0.43 c p3
345.71 505.67 0.43 c p3
345.86 505.80 0.43 c p3
346.00 505.38 0.43 c p3
346.15 505.10 0.43 c p3
346.29 505.10 0.43 c p3
346.44 504.81 0.43 c p3
346.59 504.68 0.43 c p3
346.73 505.10 0.43 c p3
346.88 505.54 0.43 c p3
347.02 505.80 0.43 c p3
347.17 506.67 0.43 c p3
347.31 505.38 0.43 c p3
347.46 506.25 0.43 c p3
347.60 505.67 0.43 c p3
347.75 505.26 0.43 c p3
347.90 505.96 0.43 c p3
348.04 506.38 0.43 c p3
348.19 505.10 0.43 c p3
348.33 504.97 0.43 c p3
348.48 505.67 0.43 c p3
348.62 505.96 0.43 c p3
348.77 505.67 0.43 c p3
348.92 505.38 0.43 c p3
349.06 505.96 0.43 c p3
349.21 505.26 0.43 c p3
349.35 504.97 0.43 c p3
349.50 506.09 0.43 c p3
349.64 506.09 0.43 c p3
349.79 505.96 0.43 c p3
349.93 505.26 0.43 c p3
350.08 505.96 0.43 c p3
350.23 505.38 0.43 c p3
350.37 504.68 0.43 c p3
350.52 505.54 0.43 c p3
350.66 505.67 0.43 c p3
350.81 505.67 0.43 c p3
350.95 506.25 0.43 c p3
351.10 506.54 0.43 c p3
351.24 506.09 0.43 c p3
351.39 506.09 0.43 c p3
351.54 505.38 0.43 c p3
351.68 505.10 0.43 c p3
351.83 505.10 0.43 c p3
351.97 505.10 0.43 c p3
352.12 504.68 0.43 c p3
352.26 505.10 0.43 c p3
352.41 505.38 0.43 c p3
352.55 506.09 0.43 c p3
352.70 505.38 0.43 c p3
352.85 504.97 0.43 c p3
352.99 505.67 0.43 c p3
353.14 505.67 0.43 c p3
353.28 505.26 0.43 c p3
353.43 506.09 0.43 c p3
353.57 505.10 0.43 c p3
353.72 505.54 0.43 c p3
353.86 505.38 0.43 c p3
354.01 505.10 0.43 c p3
354.16 505.26 0.43 c p3
354.30 505.80 0.43 c p3
354.45 505.67 0.43 c p3
354.59 506.54 0.43 c p3
354.74 505.67 0.43 c p3
354.88 506.38 0.43 c p3
355.03 505.10 0.43 c p3
355.18 505.54 0.43 c p3
355.32 505.38 0.43 c p3
355.47 505.67 0.43 c p3
355.61 505.54 0.43 c p3
355.76 505.54 0.43 c p3
355.90 504.97 0.43 c p3
356.05 505.38 0.43 c p3
356.19 505.96 0.43 c p3
356.34 506.09 0.43 c p3
356.49 505.80 0.43 c p3
356.63 506.25 0.43 c p3
356.78 506.67 0.43 c p3
356.92 505.54 0.43 c p3
357.07 506.54 0.43 c p3
357.21 505.96 0.43 c p3
357.36 505.96 0.43 c p3
357.50 504.97 0.43 c p3
357.65 505.54 0.43 c p3
357.80 505.26 0.43 c p3
357.94 505.54 0.43 c p3
358.09 505.96 0.43 c p3
358.23 505.54 0.43 c p3
358.38 505.26 0.43 c p3
358.52 505.67 0.43 c p3
358.67 506.09 0.43 c p3
358.81 505.67 0.43 c p3
358.96 506.25 0.43 c p3
359.11 505.67 0.43 c p3
359.25 506.38 0.43 c p3
359.40 506.38 0.43 c p3
359.54 505.10 0.43 c p3
359.69 505.67 0.43 c p3
359.83 505.96 0.43 c p3
359.98 505.96 0.43 c p3
360.13 506.09 0.43 c p3
360.27 506.25 0.43 c p3
360.42 506.54 0.43 c p3
360.56 505.96 0.43 c p3
360.71 505.54 0.43 c p3
360.85 505.80 0.43 c p3
361.00 505.96 0.43 c p3
361.14 505.10 0.43 c p3
361.29 505.54 0.43 c p3
361.44 505.96 0.43 c p3
361.58 505.38 0.43 c p3
361.73 504.97 0.43 c p3
361.87 505.96 0.43 c p3
362.02 504.97 0.43 c p3
362.16 505.96 0.43 c p3
362.31 506.38 0.43 c p3
362.45 506.25 0.43 c p3
362.60 506.38 0.43 c p3
362.75 505.80 0.43 c p3
362.89 506.09 0.43 c p3
363.04 505.54 0.43 c p3
363.18 505.96 0.43 c p3
363.33 505.38 0.43 c p3
363.47 505.67 0.43 c p3
363.62 505.26 0.43 c p3
363.76 504.97 0.43 c p3
363.91 505.54 0.43 c p3
364.06 506.09 0.43 c p3
364.20 505.54 0.43 c p3
364.35 505.54 0.43 c p3
364.49 506.54 0.43 c p3
364.64 506.25 0.43 c p3
364.78 505.67 0.43 c p3
364.93 506.38 0.43 c p3
365.08 506.09 0.43 c p3
365.22 505.80 0.43 c p3
365.37 505.96 0.43 c p3
365.51 505.38 0.43 c p3
365.66 505.26 0.43 c p3
365.80 506.09 0.43 c p3
365.95 506.38 0.43 c p3
366.09 506.09 0.43 c p3
366.24 506.38 0.43 c p3
366.39 506.67 0.43 c p3
366.53 505.67 0.43 c p3
366.68 506.09 0.43 c p3
366.82 506.54 0.43 c p3
366.97 505.96 0.43 c p3
367.11 505.80 0.43 c p3
367.26 505.26 0.43 c p3
367.40 505.54 0.43 c p3
367.55 505.67 0.43 c p3
367.70 505.54 0.43 c p3
367.84 506.83 0.43 c p3
367.99 506.25 0.43 c p3
368.13 506.83 0.43 c p3
368.28 506.38 0.43 c p3
368.42 506.54 0.43 c p3
368.57 506.25 0.43 c p3
368.71 505.80 0.43 c p3
368.86 505.96 0.43 c p3
369.01 506.54 0.43 c p3
369.15 505.80 0.43 c p3
369.30 505.96 0.43 c p3
369.44 506.09 0.43 c p3
369.59 506.09 0.43 c p3
369.73 505.96 0.43 c p3
369.88 506.83 0.43 c p3
370.03 506.67 0.43 c p3
370.17 506.54 0.43 c p3
370.32 505.80 0.43 c p3
370.46 506.09 0.43 c p3
370.61 506.38 0.43 c p3
370.75 506.25 0.43 c p3
370.90 505.80 0.43 c p3
371.04 505.67 0.43 c p3
371.19 505.67 0.43 c p3
371.34 505.80 0.43 c p3
371.48 506.54 0.43 c p3
371.63 506.54 0.43 c p3
371.77 506.96 0.43 c p3
371.92 505.96 0.43 c p3
372.06 506.09 0.43 c p3
372.21 505.80 0.43 c p3
372.35 505.80 0.43 c p3
372.50 505.67 0.43 c p3
372.65 505.96 0.43 c p3
372.79 505.80 0.43 c p3
372.94 506.09 0.43 c p3
373.08 506.09 0.43 c p3
373.23 506.09 0.43 c p3
373.37 506.67 0.43 c p3
373.52 506.96 0.43 c p3
373.66 506.25 0.43 c p3
373.81 506.09 0.43 c p3
373.96 506.38 0.43 c p3
374.10 506.67 0.43 c p3
374.25 506.38 0.43 c p3
374.39 506.09 0.43 c p3
374.54 505.80 0.43 c p3
374.68 505.80 0.43 c p3
374.83 506.09 0.43 c p3
374.98 506.09 0.43 c p3
375.12 506.25 0.43 c p3
375.27 506.83 0.43 c p3
375.41 507.12 0.43 c p3
375.56 506.38 0.43 c p3
375.70 506.25 0.43 c p3
375.85 505.54 0.43 c p3
375.99 506.25 0.43 c p3
376.14 506.09 0.43 c p3
376.29 506.25 0.43 c p3
376.43 506.09 0.43 c p3
376.58 506.25 0.43 c p3
376.72 506.25 0.43 c p3
376.87 506.25 0.43 c p3
377.01 506.09 0.43 c p3
377.16 506.67 0.43 c p3
377.30 506.25 0.43 c p3
377.45 506.25 0.43 c p3
377.60 506.83 0.43 c p3
377.74 506.67 0.43 c p3
377.89 506.54 0.43 c p3
378.03 506.38 0.43 c p3
378.18 506.54 0.43 c p3
378.32 506.09 0.43 c p3
378.47 505.54 0.43 c p3
378.61 505.54 0.43 c p3
378.76 506.25 0.43 c p3
378.91 506.38 0.43 c p3
379.05 506.83 0.43 c p3
379.20 506.67 0.43 c p3
379.34 506.67 0.43 c p3
379.49 506.09 0.43 c p3
379.63 506.09 0.43 c p3
379.78 506.96 0.43 c p3
379.93 507.41 0.43 c p3
380.07 506.25 0.43 c p3
380.22 506.67 0.43 c p3
380.36 506.67 0.43 c p3
380.51 505.67 0.43 c p3
380.65 505.54 0.43 c p3
380.80 506.25 0.43 c p3
380.94 506.54 0.43 c p3
381.09 506.67 0.43 c p3
381.24 506.54 0.43 c p3
381.38 505.80 0.43 c p3
381.53 505.54 0.43 c p3
381.67 506.67 0.43 c p3
381.82 506.09 0.43 c p3
381.96 505.67 0.43 c p3
382.11 505.38 0.43 c p3
382.25 506.38 0.43 c p3
382.40 506.83 0.43 c p3
0.00 0.00 432.00 576.00 cl
0 0 0 srgb
0.75 setlinewidth
[] 0 setdash
1 setlinecap
1 setlinejoin
10.00 setmiterlimit
np
236.96 345.60 m
145.59 0 l
o
np
236.96 345.60 m
0 -5.76 l
o
np
266.08 345.60 m
0 -5.76 l
o
np
295.19 345.60 m
0 -5.76 l
o
np
324.31 345.60 m
0 -5.76 l
o
np
353.43 345.60 m
0 -5.76 l
o
np
382.55 345.60 m
0 -5.76 l
o
/Font1 findfont 10 s
236.96 329.47 (0) .5 0 t
266.08 329.47 (200) .5 0 t
295.19 329.47 (400) .5 0 t
324.31 329.47 (600) .5 0 t
353.43 329.47 (800) .5 0 t
382.55 329.47 (1000) .5 0 t
np
216.00 352.00 m
0 157.85 l
o
np
216.00 352.00 m
-5.76 0 l
o
np
216.00 378.31 m
-5.76 0 l
o
np
216.00 404.62 m
-5.76 0 l
o
np
216.00 430.92 m
-5.76 0 l
o
np
216.00 457.23 m
-5.76 0 l
o
np
216.00 483.54 m
-5.76 0 l
o
np
216.00 509.85 m
-5.76 0 l
o
209.09 348.41 (0.0) 1 0 t
209.09 374.72 (0.2) 1 0 t
209.09 401.03 (0.4) 1 0 t
209.09 427.33 (0.6) 1 0 t
209.09 453.64 (0.8) 1 0 t
209.09 479.95 (1.0) 1 0 t
209.09 506.26 (1.2) 1 0 t
np
216.00 345.60 m
172.80 0 l
0 172.80 l
-172.80 0 l
0 -172.80 l
o
0.00 0.00 432.00 576.00 cl
/Font1 findfont 10 s
0 0 0 srgb
302.40 313.34 (Zeit / ms \(total\)) .5 0 t
190.66 432.00 (U / V) .5 90 t
216.00 345.60 388.80 518.40 cl
0 0 0 srgb
0.38 setlinewidth
[ 1.12 1.88] 0 setdash
1 setlinecap
1 setlinejoin
10.00 setmiterlimit
np
223.71 345.60 m
0 172.80 l
o
np
235.50 345.60 m
0 172.80 l
o
np
239.58 345.60 m
0 172.80 l
o
np
305.53 345.60 m
0 172.80 l
o
86.40 57.60 388.80 288.00 cl
1 0 0 srgb
1.50 setlinewidth
[] 0 setdash
1 setlinecap
1 setlinejoin
10.00 setmiterlimit
np
97.60 279.47 m
1.41 -6.34 l
1.40 -6.14 l
1.41 -5.95 l
1.41 -5.75 l
1.41 -5.58 l
1.40 -5.39 l
1.41 -5.23 l
1.41 -5.06 l
1.40 -4.90 l
1.41 -4.74 l
1.41 -4.60 l
1.40 -4.45 l
1.41 -4.31 l
1.41 -4.17 l
1.41 -4.04 l
1.40 -3.91 l
1.41 -3.78 l
1.41 -3.67 l
1.40 -3.55 l
1.41 -3.44 l
1.41 -3.33 l
1.40 -3.22 l
1.41 -3.12 l
1.41 -3.03 l
1.41 -2.92 l
1.40 -2.84 l
1.41 -2.74 l
1.41 -2.66 l
1.40 -2.57 l
1.41 -2.50 l
1.41 -2.41 l
1.41 -2.33 l
1.40 -2.27 l
1.41 -2.19 l
1.41 -2.12 l
1.40 -2.05 l
1.41 -1.99 l
1.41 -1.93 l
1.40 -1.86 l
1.41 -1.81 l
1.41 -1.75 l
1.41 -1.69 l
1.40 -1.64 l
1.41 -1.59 l
1.41 -1.53 l
1.40 -1.49 l
1.41 -1.44 l
1.41 -1.40 l
1.40 -1.35 l
1.41 -1.31 l
1.41 -1.26 l
1.41 -1.23 l
1.40 -1.19 l
1.41 -1.15 l
1.41 -1.11 l
1.40 -1.08 l
1.41 -1.05 l
1.41 -1.01 l
1.41 -0.98 l
1.40 -0.94 l
1.41 -0.92 l
1.41 -0.89 l
1.40 -0.86 l
1.41 -0.84 l
1.41 -0.80 l
1.40 -0.79 l
1.41 -0.75 l
1.41 -0.74 l
1.41 -0.70 l
1.40 -0.69 l
1.41 -0.67 l
1.41 -0.64 l
1.40 -0.63 l
1.41 -0.60 l
1.41 -0.58 l
1.40 -0.57 l
1.41 -0.55 l
1.41 -0.53 l
1.41 -0.51 l
1.40 -0.50 l
1.41 -0.48 l
1.41 -0.47 l
1.40 -0.45 l
1.41 -0.44 l
1.41 -0.43 l
1.41 -0.41 l
1.40 -0.39 l
1.41 -0.39 l
1.41 -0.37 l
1.40 -0.36 l
1.41 -0.35 l
1.41 -0.34 l
1.40 -0.33 l
1.41 -0.31 l
1.41 -0.31 l
1.41 -0.30 l
1.40 -0.29 l
1.41 -0.28 l
1.41 -0.27 l
238.30 87.40 lineto
1.41 -0.25 l
1.41 -0.25 l
1.40 -0.23 l
1.41 -0.23 l
1.41 -0.23 l
1.41 -0.21 l
1.40 -0.21 l
1.41 -0.20 l
1.41 -0.20 l
1.40 -0.19 l
1.41 -0.18 l
1.41 -0.18 l
1.40 -0.17 l
1.41 -0.17 l
1.41 -0.16 l
1.41 -0.15 l
1.40 -0.16 l
1.41 -0.14 l
1.41 -0.14 l
1.40 -0.14 l
1.41 -0.13 l
1.41 -0.13 l
1.41 -0.13 l
1.40 -0.12 l
1.41 -0.12 l
1.41 -0.11 l
1.40 -0.11 l
1.41 -0.10 l
1.41 -0.11 l
1.40 -0.10 l
1.41 -0.09 l
1.41 -0.10 l
1.41 -0.09 l
1.40 -0.08 l
1.41 -0.09 l
1.41 -0.08 l
1.40 -0.08 l
1.41 -0.08 l
1.41 -0.07 l
1.40 -0.07 l
1.41 -0.07 l
1.41 -0.07 l
1.41 -0.07 l
1.40 -0.06 l
1.41 -0.06 l
1.41 -0.06 l
1.40 -0.06 l
1.41 -0.05 l
1.41 -0.06 l
1.41 -0.05 l
1.40 -0.05 l
1.41 -0.05 l
1.41 -0.05 l
1.40 -0.04 l
1.41 -0.05 l
1.41 -0.04 l
1.40 -0.04 l
1.41 -0.04 l
1.41 -0.04 l
1.41 -0.04 l
1.40 -0.04 l
1.41 -0.03 l
1.41 -0.04 l
1.40 -0.03 l
1.41 -0.03 l
1.41 -0.03 l
1.40 -0.03 l
1.41 -0.03 l
1.41 -0.03 l
1.41 -0.03 l
1.40 -0.03 l
1.41 -0.02 l
1.41 -0.03 l
1.40 -0.02 l
1.41 -0.02 l
1.41 -0.03 l
1.41 -0.02 l
1.40 -0.02 l
1.41 -0.02 l
1.41 -0.02 l
1.40 -0.02 l
1.41 -0.02 l
1.41 -0.02 l
1.40 -0.01 l
1.41 -0.02 l
1.41 -0.02 l
1.41 -0.01 l
1.40 -0.02 l
1.41 -0.01 l
1.41 -0.02 l
1.40 -0.01 l
1.41 -0.01 l
1.41 -0.02 l
1.40 -0.01 l
1.41 -0.01 l
1.41 -0.01 l
1.41 -0.02 l
1.40 -0.01 l
1.41 -0.01 l
o
0.00 0.00 432.00 576.00 cl
0 0 0 srgb
0.75 setlinewidth
[] 0 setdash
1 setlinecap
1 setlinejoin
10.00 setmiterlimit
np
97.60 57.60 m
280.00 0 l
o
np
97.60 57.60 m
0 -5.76 l
o
np
153.60 57.60 m
0 -5.76 l
o
np
209.60 57.60 m
0 -5.76 l
o
np
265.60 57.60 m
0 -5.76 l
o
np
321.60 57.60 m
0 -5.76 l
o
np
377.60 57.60 m
0 -5.76 l
o
/Font1 findfont 10 s
97.60 41.47 (0) .5 0 t
153.60 41.47 (200) .5 0 t
209.60 41.47 (400) .5 0 t
265.60 41.47 (600) .5 0 t
321.60 41.47 (800) .5 0 t
377.60 41.47 (1000) .5 0 t
np
86.40 66.13 m
0 201.03 l
o
np
86.40 66.13 m
-5.76 0 l
o
np
86.40 116.39 m
-5.76 0 l
o
np
86.40 166.65 m
-5.76 0 l
o
np
86.40 216.91 m
-5.76 0 l
o
np
86.40 267.16 m
-5.76 0 l
o
79.49 62.54 (0.00) 1 0 t
79.49 112.80 (0.05) 1 0 t
79.49 163.06 (0.10) 1 0 t
79.49 213.32 (0.15) 1 0 t
79.49 263.57 (0.20) 1 0 t
np
86.40 57.60 m
302.40 0 l
0 230.40 l
-302.40 0 l
0 -230.40 l
o
0.00 0.00 432.00 576.00 cl
/Font1 findfont 10 s
0 0 0 srgb
237.60 13.82 (Zeit / ms \(nach Puls\)) .5 0 t
49.54 172.80 (Absorbanz A) .5 90 t
86.40 57.60 388.80 288.00 cl
/bg { 1 1 1 srgb } def
0 0 0 srgb
0.75 setlinewidth
[] 0 setdash
1 setlinecap
1 setlinejoin
10.00 setmiterlimit
102.92 257.10 0.65 c p3
103.20 255.33 0.65 c p3
103.48 255.33 0.65 c p3
103.76 251.67 0.65 c p3
104.04 251.67 0.65 c p3
104.32 247.50 0.65 c p3
104.60 250.45 0.65 c p3
104.88 247.50 0.65 c p3
105.16 248.57 0.65 c p3
105.44 244.43 0.65 c p3
105.72 242.05 0.65 c p3
106.00 242.05 0.65 c p3
106.28 239.68 0.65 c p3
106.56 239.15 0.65 c p3
106.84 238.50 0.65 c p3
107.12 240.86 0.65 c p3
107.40 242.71 0.65 c p3
107.68 239.15 0.65 c p3
107.96 236.80 0.65 c p3
108.24 236.14 0.65 c p3
108.52 234.97 0.65 c p3
108.80 233.80 0.65 c p3
109.08 230.32 0.65 c p3
109.36 232.12 0.65 c p3
109.64 228.01 0.65 c p3
109.92 230.96 0.65 c p3
110.20 229.80 0.65 c p3
110.48 229.80 0.65 c p3
110.76 226.35 0.65 c p3
111.04 227.50 0.65 c p3
111.32 228.65 0.65 c p3
111.60 228.01 0.65 c p3
111.88 226.86 0.65 c p3
112.16 227.50 0.65 c p3
112.44 224.06 0.65 c p3
112.72 221.28 0.65 c p3
113.00 218.39 0.65 c p3
113.28 216.77 0.65 c p3
113.56 218.39 0.65 c p3
113.84 214.53 0.65 c p3
114.12 220.15 0.65 c p3
114.40 217.27 0.65 c p3
114.68 216.77 0.65 c p3
114.96 216.14 0.65 c p3
115.24 214.53 0.65 c p3
115.52 213.91 0.65 c p3
115.80 211.19 0.65 c p3
116.08 210.09 0.65 c p3
116.36 208.37 0.65 c p3
116.64 207.27 0.65 c p3
116.92 209.47 0.65 c p3
117.20 206.78 0.65 c p3
117.48 206.78 0.65 c p3
117.76 206.78 0.65 c p3
118.04 207.27 0.65 c p3
118.32 202.42 0.65 c p3
118.60 201.81 0.65 c p3
118.88 203.99 0.65 c p3
119.16 201.33 0.65 c p3
119.44 202.42 0.65 c p3
119.72 200.73 0.65 c p3
120.00 197.62 0.65 c p3
120.28 198.10 0.65 c p3
120.56 196.55 0.65 c p3
120.84 195.48 0.65 c p3
121.12 197.02 0.65 c p3
121.40 197.02 0.65 c p3
121.68 195.95 0.65 c p3
121.96 194.41 0.65 c p3
122.24 195.48 0.65 c p3
122.52 194.41 0.65 c p3
122.80 193.34 0.65 c p3
123.08 192.75 0.65 c p3
123.36 191.22 0.65 c p3
123.64 189.11 0.65 c p3
123.92 186.43 0.65 c p3
124.20 185.96 0.65 c p3
124.48 186.43 0.65 c p3
124.76 186.43 0.65 c p3
125.04 186.43 0.65 c p3
125.32 185.38 0.65 c p3
125.60 183.30 0.65 c p3
125.88 186.43 0.65 c p3
126.16 182.26 0.65 c p3
126.44 183.87 0.65 c p3
126.72 181.80 0.65 c p3
127.00 182.26 0.65 c p3
127.28 179.16 0.65 c p3
127.56 176.65 0.65 c p3
127.84 177.22 0.65 c p3
128.12 177.67 0.65 c p3
128.40 175.63 0.65 c p3
128.68 179.73 0.65 c p3
128.96 177.22 0.65 c p3
129.24 177.67 0.65 c p3
129.52 175.63 0.65 c p3
129.80 176.19 0.65 c p3
130.08 174.15 0.65 c p3
130.36 176.19 0.65 c p3
130.64 172.57 0.65 c p3
130.92 172.57 0.65 c p3
131.20 170.55 0.65 c p3
131.48 171.56 0.65 c p3
131.76 169.09 0.65 c p3
132.04 171.11 0.65 c p3
132.32 170.10 0.65 c p3
132.60 168.54 0.65 c p3
132.88 170.55 0.65 c p3
133.16 169.54 0.65 c p3
133.44 168.54 0.65 c p3
133.72 170.10 0.65 c p3
134.00 169.09 0.65 c p3
134.28 167.53 0.65 c p3
134.56 161.56 0.65 c p3
134.84 164.09 0.65 c p3
135.12 163.10 0.65 c p3
135.40 163.54 0.65 c p3
135.68 164.53 0.65 c p3
135.96 163.54 0.65 c p3
136.24 165.09 0.65 c p3
136.52 163.54 0.65 c p3
136.80 160.57 0.65 c p3
137.08 161.56 0.65 c p3
137.36 161.56 0.65 c p3
137.64 159.58 0.65 c p3
137.92 158.60 0.65 c p3
138.20 158.17 0.65 c p3
138.48 160.13 0.65 c p3
138.76 155.77 0.65 c p3
139.04 157.62 0.65 c p3
139.32 155.77 0.65 c p3
139.60 157.19 0.65 c p3
139.88 156.21 0.65 c p3
140.16 156.21 0.65 c p3
140.44 155.77 0.65 c p3
140.72 156.21 0.65 c p3
141.00 157.19 0.65 c p3
141.28 154.80 0.65 c p3
141.56 154.26 0.65 c p3
141.84 150.92 0.65 c p3
142.12 150.92 0.65 c p3
142.40 150.92 0.65 c p3
142.68 149.42 0.65 c p3
142.96 150.92 0.65 c p3
143.24 147.50 0.65 c p3
143.52 149.96 0.65 c p3
143.80 148.04 0.65 c p3
144.08 148.46 0.65 c p3
144.36 148.46 0.65 c p3
144.64 146.55 0.65 c p3
144.92 148.46 0.65 c p3
145.20 147.50 0.65 c p3
145.48 148.04 0.65 c p3
145.76 146.12 0.65 c p3
146.04 143.69 0.65 c p3
146.32 146.12 0.65 c p3
146.60 144.64 0.65 c p3
146.88 144.22 0.65 c p3
147.16 144.22 0.65 c p3
147.44 143.27 0.65 c p3
147.72 141.38 0.65 c p3
148.00 143.69 0.65 c p3
148.28 143.27 0.65 c p3
148.56 142.32 0.65 c p3
148.84 139.91 0.65 c p3
149.12 138.03 0.65 c p3
149.40 138.03 0.65 c p3
149.68 137.10 0.65 c p3
149.96 138.03 0.65 c p3
150.24 138.03 0.65 c p3
150.52 138.03 0.65 c p3
150.80 136.68 0.65 c p3
151.08 137.10 0.65 c p3
151.36 137.10 0.65 c p3
151.64 138.97 0.65 c p3
151.92 136.16 0.65 c p3
152.20 137.61 0.65 c p3
152.48 137.10 0.65 c p3
152.76 132.96 0.65 c p3
153.04 134.40 0.65 c p3
153.32 132.96 0.65 c p3
153.60 132.03 0.65 c p3
153.88 133.89 0.65 c p3
154.16 132.96 0.65 c p3
154.44 131.62 0.65 c p3
154.72 132.96 0.65 c p3
155.00 135.33 0.65 c p3
155.28 131.62 0.65 c p3
155.56 132.55 0.65 c p3
155.84 134.40 0.65 c p3
156.12 133.47 0.65 c p3
156.40 131.11 0.65 c p3
156.68 129.27 0.65 c p3
156.96 130.19 0.65 c p3
157.24 132.55 0.65 c p3
157.52 129.27 0.65 c p3
157.80 127.95 0.65 c p3
158.08 130.70 0.65 c p3
158.36 130.19 0.65 c p3
158.64 128.86 0.65 c p3
158.92 129.27 0.65 c p3
159.20 131.11 0.65 c p3
159.48 127.95 0.65 c p3
159.76 130.70 0.65 c p3
160.04 129.27 0.65 c p3
160.32 124.70 0.65 c p3
160.60 124.70 0.65 c p3
160.88 125.21 0.65 c p3
161.16 124.30 0.65 c p3
161.44 127.44 0.65 c p3
161.72 129.27 0.65 c p3
162.00 125.61 0.65 c p3
162.28 126.12 0.65 c p3
162.56 126.12 0.65 c p3
162.84 126.52 0.65 c p3
163.12 126.52 0.65 c p3
163.40 124.70 0.65 c p3
163.68 122.89 0.65 c p3
163.96 125.21 0.65 c p3
164.24 124.30 0.65 c p3
164.52 121.98 0.65 c p3
164.80 121.08 0.65 c p3
165.08 121.08 0.65 c p3
165.36 121.08 0.65 c p3
165.64 121.58 0.65 c p3
165.92 121.58 0.65 c p3
166.20 120.18 0.65 c p3
166.48 119.28 0.65 c p3
166.76 119.78 0.65 c p3
167.04 121.58 0.65 c p3
167.32 120.18 0.65 c p3
167.60 118.88 0.65 c p3
167.88 117.99 0.65 c p3
168.16 118.39 0.65 c p3
168.44 116.60 0.65 c p3
168.72 120.18 0.65 c p3
169.00 119.28 0.65 c p3
169.28 117.99 0.65 c p3
169.56 117.99 0.65 c p3
169.84 118.39 0.65 c p3
170.12 118.88 0.65 c p3
170.40 118.39 0.65 c p3
170.68 117.99 0.65 c p3
170.96 117.09 0.65 c p3
171.24 116.60 0.65 c p3
171.52 115.81 0.65 c p3
171.80 112.65 0.65 c p3
172.08 113.14 0.65 c p3
172.36 115.81 0.65 c p3
172.64 112.65 0.65 c p3
172.92 114.03 0.65 c p3
173.20 114.03 0.65 c p3
173.48 114.92 0.65 c p3
173.76 114.92 0.65 c p3
174.04 114.92 0.65 c p3
174.32 113.54 0.65 c p3
174.60 112.26 0.65 c p3
174.88 112.65 0.65 c p3
175.16 110.50 0.65 c p3
175.44 110.89 0.65 c p3
175.72 111.77 0.65 c p3
176.00 109.13 0.65 c p3
176.28 109.13 0.65 c p3
176.56 112.26 0.65 c p3
176.84 110.50 0.65 c p3
177.12 108.25 0.65 c p3
177.40 112.26 0.65 c p3
177.68 110.01 0.65 c p3
177.96 111.38 0.65 c p3
178.24 110.89 0.65 c p3
178.52 111.38 0.65 c p3
178.80 109.62 0.65 c p3
179.08 108.74 0.65 c p3
179.36 108.74 0.65 c p3
179.64 106.51 0.65 c p3
179.92 110.89 0.65 c p3
180.20 110.50 0.65 c p3
180.48 109.13 0.65 c p3
180.76 109.13 0.65 c p3
181.04 109.62 0.65 c p3
181.32 110.01 0.65 c p3
181.60 110.01 0.65 c p3
181.88 111.38 0.65 c p3
182.16 109.62 0.65 c p3
182.44 108.74 0.65 c p3
182.72 107.38 0.65 c p3
183.00 105.25 0.65 c p3
183.28 106.99 0.65 c p3
183.56 106.99 0.65 c p3
183.84 109.13 0.65 c p3
184.12 106.51 0.65 c p3
184.40 107.86 0.65 c p3
184.68 107.86 0.65 c p3
184.96 108.74 0.65 c p3
185.24 107.86 0.65 c p3
185.52 107.38 0.65 c p3
185.80 110.01 0.65 c p3
186.08 103.90 0.65 c p3
186.36 105.64 0.65 c p3
186.64 104.77 0.65 c p3
186.92 105.64 0.65 c p3
187.20 103.03 0.65 c p3
187.48 103.90 0.65 c p3
187.76 106.51 0.65 c p3
188.04 105.64 0.65 c p3
188.32 105.64 0.65 c p3
188.60 106.12 0.65 c p3
188.88 104.77 0.65 c p3
189.16 106.51 0.65 c p3
189.44 103.90 0.65 c p3
189.72 102.17 0.65 c p3
190.00 103.90 0.65 c p3
190.28 101.79 0.65 c p3
190.56 101.31 0.65 c p3
190.84 101.79 0.65 c p3
191.12 103.51 0.65 c p3
191.40 103.90 0.65 c p3
191.68 103.90 0.65 c p3
191.96 102.65 0.65 c p3
192.24 103.03 0.65 c p3
192.52 104.38 0.65 c p3
192.80 102.65 0.65 c p3
193.08 103.03 0.65 c p3
193.36 100.07 0.65 c p3
193.64 98.73 0.65 c p3
193.92 99.21 0.65 c p3
194.20 98.35 0.65 c p3
194.48 99.59 0.65 c p3
194.76 100.92 0.65 c p3
195.04 100.45 0.65 c p3
195.32 102.65 0.65 c p3
195.60 98.73 0.65 c p3
195.88 100.07 0.65 c p3
196.16 100.45 0.65 c p3
196.44 100.92 0.65 c p3
196.72 98.73 0.65 c p3
197.00 98.73 0.65 c p3
197.28 99.21 0.65 c p3
197.56 97.12 0.65 c p3
197.84 98.73 0.65 c p3
198.12 99.59 0.65 c p3
198.40 98.35 0.65 c p3
198.68 96.64 0.65 c p3
198.96 98.35 0.65 c p3
199.24 98.73 0.65 c p3
199.52 99.59 0.65 c p3
199.80 98.73 0.65 c p3
200.08 97.97 0.65 c p3
200.36 97.50 0.65 c p3
200.64 98.73 0.65 c p3
200.92 97.50 0.65 c p3
201.20 97.12 0.65 c p3
201.48 96.26 0.65 c p3
201.76 98.35 0.65 c p3
202.04 97.50 0.65 c p3
202.32 99.59 0.65 c p3
202.60 97.12 0.65 c p3
202.88 97.97 0.65 c p3
203.16 96.64 0.65 c p3
203.44 97.50 0.65 c p3
203.72 96.64 0.65 c p3
204.00 95.79 0.65 c p3
204.28 97.12 0.65 c p3
204.56 94.94 0.65 c p3
204.84 97.12 0.65 c p3
205.12 94.09 0.65 c p3
205.40 95.79 0.65 c p3
205.68 94.09 0.65 c p3
205.96 96.26 0.65 c p3
206.24 97.97 0.65 c p3
206.52 96.64 0.65 c p3
206.80 99.59 0.65 c p3
207.08 96.26 0.65 c p3
207.36 96.26 0.65 c p3
207.64 95.79 0.65 c p3
207.92 96.64 0.65 c p3
208.20 96.64 0.65 c p3
208.48 96.26 0.65 c p3
208.76 94.09 0.65 c p3
209.04 94.56 0.65 c p3
209.32 93.25 0.65 c p3
209.60 95.41 0.65 c p3
209.88 94.09 0.65 c p3
210.16 95.79 0.65 c p3
210.44 95.41 0.65 c p3
210.72 94.09 0.65 c p3
211.00 96.26 0.65 c p3
211.28 94.56 0.65 c p3
211.56 95.79 0.65 c p3
211.84 92.87 0.65 c p3
212.12 93.72 0.65 c p3
212.40 90.34 0.65 c p3
212.68 92.40 0.65 c p3
212.96 93.72 0.65 c p3
213.24 95.79 0.65 c p3
213.52 94.94 0.65 c p3
213.80 94.94 0.65 c p3
214.08 92.40 0.65 c p3
214.36 94.56 0.65 c p3
214.64 95.79 0.65 c p3
214.92 92.87 0.65 c p3
215.20 92.40 0.65 c p3
215.48 94.09 0.65 c p3
215.76 92.40 0.65 c p3
216.04 92.40 0.65 c p3
216.32 88.67 0.65 c p3
216.60 89.88 0.65 c p3
216.88 91.56 0.65 c p3
217.16 92.03 0.65 c p3
217.44 92.03 0.65 c p3
217.72 94.56 0.65 c p3
218.00 94.56 0.65 c p3
218.28 93.72 0.65 c p3
218.56 92.40 0.65 c p3
218.84 93.72 0.65 c p3
219.12 93.25 0.65 c p3
219.40 93.72 0.65 c p3
219.68 92.40 0.65 c p3
219.96 89.88 0.65 c p3
220.24 88.20 0.65 c p3
220.52 92.87 0.65 c p3
220.80 91.56 0.65 c p3
221.08 91.56 0.65 c p3
221.36 91.18 0.65 c p3
221.64 90.34 0.65 c p3
221.92 93.25 0.65 c p3
222.20 91.56 0.65 c p3
222.48 90.72 0.65 c p3
222.76 92.03 0.65 c p3
223.04 92.03 0.65 c p3
223.32 90.34 0.65 c p3
223.60 90.34 0.65 c p3
223.88 90.34 0.65 c p3
224.16 91.18 0.65 c p3
224.44 89.50 0.65 c p3
224.72 91.56 0.65 c p3
225.00 91.56 0.65 c p3
225.28 92.03 0.65 c p3
225.56 91.18 0.65 c p3
225.84 91.56 0.65 c p3
226.12 93.25 0.65 c p3
226.40 92.87 0.65 c p3
226.68 90.34 0.65 c p3
226.96 89.04 0.65 c p3
227.24 90.34 0.65 c p3
227.52 87.83 0.65 c p3
227.80 87.83 0.65 c p3
228.08 88.67 0.65 c p3
228.36 89.88 0.65 c p3
228.64 88.67 0.65 c p3
228.92 88.20 0.65 c p3
229.20 88.67 0.65 c p3
229.48 89.88 0.65 c p3
229.76 92.03 0.65 c p3
216.00 201.60 367.20 247.68 cl
0 0 0 srgb
0.75 setlinewidth
[] 0 setdash
1 setlinecap
1 setlinejoin
10.00 setmiterlimit
221.60 226.36 0.43 c p1
221.91 224.43 0.43 c p1
222.22 227.81 0.43 c p1
222.53 220.15 0.43 c p1
222.84 223.49 0.43 c p1
223.15 214.27 0.43 c p1
223.45 226.45 0.43 c p1
223.76 220.84 0.43 c p1
224.07 227.32 0.43 c p1
224.38 218.11 0.43 c p1
224.69 214.15 0.43 c p1
225.00 217.34 0.43 c p1
225.31 213.38 0.43 c p1
225.62 214.95 0.43 c p1
225.93 216.11 0.43 c p1
226.24 226.33 0.43 c p1
226.54 234.99 0.43 c p1
226.85 227.36 0.43 c p1
227.16 223.32 0.43 c p1
227.47 224.39 0.43 c p1
227.78 223.88 0.43 c p1
228.09 223.36 0.43 c p1
228.40 215.84 0.43 c p1
228.71 224.23 0.43 c p1
229.02 214.79 0.43 c p1
229.33 226.59 0.43 c p1
229.64 226.01 0.43 c p1
229.94 228.89 0.43 c p1
230.25 221.36 0.43 c p1
230.56 227.66 0.43 c p1
230.87 233.96 0.43 c p1
231.18 234.84 0.43 c p1
231.49 234.17 0.43 c p1
231.80 238.86 0.43 c p1
232.11 231.28 0.43 c p1
232.42 225.65 0.43 c p1
232.73 219.68 0.43 c p1
233.03 217.50 0.43 c p1
233.34 225.07 0.43 c p1
233.65 216.12 0.43 c p1
233.96 235.67 0.43 c p1
234.27 229.64 0.43 c p1
234.58 230.76 0.43 c p1
234.89 231.48 0.43 c p1
235.20 229.20 0.43 c p1
235.51 229.91 0.43 c p1
235.82 224.28 0.43 c p1
236.13 223.49 0.43 c p1
236.43 220.85 0.43 c p1
236.74 220.04 0.43 c p1
237.05 229.15 0.43 c p1
237.36 223.53 0.43 c p1
237.67 225.99 0.43 c p1
237.98 228.43 0.43 c p1
238.29 232.32 0.43 c p1
238.60 220.12 0.43 c p1
238.91 220.70 0.43 c p1
239.22 229.62 0.43 c p1
239.52 224.00 0.43 c p1
239.83 229.61 0.43 c p1
240.14 226.87 0.43 c p1
240.45 219.81 0.43 c p1
240.76 223.55 0.43 c p1
241.07 221.18 0.43 c p1
241.38 220.23 0.43 c p1
241.69 227.14 0.43 c p1
242.00 229.39 0.43 c p1
242.31 228.39 0.43 c p1
242.62 225.97 0.43 c p1
242.92 231.38 0.43 c p1
243.23 230.36 0.43 c p1
243.54 229.33 0.43 c p1
243.85 229.71 0.43 c p1
244.16 227.25 0.43 c p1
244.47 223.03 0.43 c p1
244.78 217.07 0.43 c p1
245.09 217.78 0.43 c p1
245.40 221.27 0.43 c p1
245.71 223.35 0.43 c p1
246.02 225.41 0.43 c p1
246.32 224.32 0.43 c p1
246.63 220.09 0.43 c p1
246.94 231.53 0.43 c p1
247.25 221.00 0.43 c p1
247.56 227.87 0.43 c p1
247.87 223.60 0.43 c p1
248.18 226.97 0.43 c p1
248.49 219.60 0.43 c p1
248.80 214.00 0.43 c p1
249.11 217.65 0.43 c p1
249.41 220.95 0.43 c p1
249.72 216.70 0.43 c p1
250.03 230.95 0.43 c p1
250.34 225.27 0.43 c p1
250.65 228.52 0.43 c p1
250.96 224.22 0.43 c p1
251.27 227.78 0.43 c p1
251.58 223.49 0.43 c p1
251.89 231.45 0.43 c p1
252.20 222.38 0.43 c p1
252.51 224.18 0.43 c p1
252.81 219.89 0.43 c p1
253.12 224.71 0.43 c p1
253.43 219.06 0.43 c p1
253.74 226.89 0.43 c p1
254.05 225.60 0.43 c p1
254.36 222.62 0.43 c p1
254.67 230.41 0.43 c p1
254.98 229.09 0.43 c p1
255.29 227.77 0.43 c p1
255.60 234.17 0.43 c p1
255.90 232.82 0.43 c p1
256.21 229.79 0.43 c p1
256.52 213.48 0.43 c p1
256.83 222.76 0.43 c p1
257.14 221.41 0.43 c p1
257.45 224.36 0.43 c p1
257.76 228.98 0.43 c p1
258.07 227.59 0.43 c p1
258.38 233.85 0.43 c p1
258.69 230.78 0.43 c p1
259.00 223.42 0.43 c p1
259.30 227.96 0.43 c p1
259.61 229.52 0.43 c p1
259.92 225.13 0.43 c p1
260.23 223.71 0.43 c p1
260.54 223.92 0.43 c p1
260.85 231.36 0.43 c p1
261.16 219.75 0.43 c p1
261.47 226.81 0.43 c p1
261.78 222.74 0.43 c p1
262.09 228.47 0.43 c p1
262.39 226.99 0.43 c p1
262.70 228.46 0.43 c p1
263.01 228.60 0.43 c p1
263.32 231.35 0.43 c p1
263.63 235.73 0.43 c p1
263.94 229.97 0.43 c p1
264.25 229.76 0.43 c p1
264.56 221.12 0.43 c p1
264.87 222.52 0.43 c p1
265.18 223.91 0.43 c p1
265.49 220.78 0.43 c p1
265.79 226.66 0.43 c p1
266.10 217.73 0.43 c p1
266.41 226.47 0.43 c p1
266.72 222.03 0.43 c p1
267.03 224.65 0.43 c p1
267.34 225.98 0.43 c p1
267.65 221.54 0.43 c p1
267.96 228.61 0.43 c p1
268.27 227.02 0.43 c p1
268.58 229.92 0.43 c p1
268.88 225.45 0.43 c p1
269.19 219.41 0.43 c p1
269.50 228.00 0.43 c p1
269.81 224.80 0.43 c p1
270.12 224.78 0.43 c p1
270.43 226.02 0.43 c p1
270.74 224.40 0.43 c p1
271.05 219.94 0.43 c p1
271.36 228.12 0.43 c p1
271.67 228.07 0.43 c p1
271.98 226.42 0.43 c p1
272.28 220.36 0.43 c p1
272.59 215.90 0.43 c p1
272.90 217.08 0.43 c p1
273.21 215.44 0.43 c p1
273.52 219.43 0.43 c p1
273.83 220.59 0.43 c p1
274.14 221.74 0.43 c p1
274.45 218.82 0.43 c p1
274.76 221.21 0.43 c p1
275.07 222.34 0.43 c p1
275.37 229.10 0.43 c p1
275.68 221.77 0.43 c p1
275.99 227.25 0.43 c p1
276.30 226.79 0.43 c p1
276.61 215.44 0.43 c p1
276.92 220.87 0.43 c p1
277.23 217.61 0.43 c p1
277.54 215.90 0.43 c p1
277.85 222.54 0.43 c p1
278.16 220.81 0.43 c p1
278.47 217.84 0.43 c p1
278.77 222.91 0.43 c p1
279.08 231.09 0.43 c p1
279.39 220.96 0.43 c p1
279.70 224.77 0.43 c p1
280.01 231.37 0.43 c p1
280.32 229.59 0.43 c p1
280.63 223.49 0.43 c p1
280.94 218.95 0.43 c p1
281.25 222.71 0.43 c p1
281.56 230.80 0.43 c p1
281.86 221.92 0.43 c p1
282.17 218.91 0.43 c p1
282.48 228.17 0.43 c p1
282.79 227.59 0.43 c p1
283.10 224.56 0.43 c p1
283.41 226.74 0.43 c p1
283.72 233.22 0.43 c p1
284.03 224.63 0.43 c p1
284.34 233.86 0.43 c p1
284.65 230.48 0.43 c p1
284.96 217.66 0.43 c p1
285.26 218.57 0.43 c p1
285.57 221.00 0.43 c p1
285.88 219.17 0.43 c p1
286.19 229.51 0.43 c p1
286.50 235.92 0.43 c p1
286.81 225.80 0.43 c p1
287.12 228.20 0.43 c p1
287.43 229.08 0.43 c p1
287.74 231.17 0.43 c p1
288.05 232.03 0.43 c p1
288.35 227.41 0.43 c p1
288.66 222.80 0.43 c p1
288.97 230.63 0.43 c p1
289.28 228.73 0.43 c p1
289.59 222.61 0.43 c p1
289.90 220.72 0.43 c p1
290.21 221.55 0.43 c p1
290.52 222.37 0.43 c p1
290.83 224.69 0.43 c p1
291.14 225.50 0.43 c p1
291.45 222.09 0.43 c p1
291.75 220.19 0.43 c p1
292.06 222.49 0.43 c p1
292.37 228.69 0.43 c p1
292.68 225.26 0.43 c p1
292.99 222.14 0.43 c p1
293.30 220.22 0.43 c p1
293.61 222.18 0.43 c p1
293.92 217.57 0.43 c p1
294.23 229.11 0.43 c p1
294.54 227.16 0.43 c p1
294.85 224.02 0.43 c p1
295.15 224.76 0.43 c p1
295.46 226.70 0.43 c p1
295.77 228.93 0.43 c p1
296.08 228.17 0.43 c p1
296.39 227.70 0.43 c p1
296.70 225.73 0.43 c p1
297.01 224.95 0.43 c p1
297.32 223.28 0.43 c p1
297.63 214.50 0.43 c p1
297.94 216.68 0.43 c p1
298.24 225.39 0.43 c p1
298.55 216.60 0.43 c p1
298.86 221.43 0.43 c p1
299.17 222.12 0.43 c p1
299.48 225.47 0.43 c p1
299.79 226.15 0.43 c p1
300.10 226.82 0.43 c p1
300.41 223.33 0.43 c p1
300.72 220.15 0.43 c p1
301.03 222.00 0.43 c p1
301.34 216.17 0.43 c p1
301.64 217.99 0.43 c p1
301.95 221.29 0.43 c p1
302.26 214.00 0.43 c p1
302.57 214.64 0.43 c p1
302.88 224.69 0.43 c p1
303.19 220.01 0.43 c p1
303.50 213.89 0.43 c p1
303.81 226.57 0.43 c p1
304.12 220.41 0.43 c p1
304.43 225.15 0.43 c p1
304.73 224.29 0.43 c p1
305.04 226.37 0.43 c p1
305.35 221.67 0.43 c p1
305.66 219.64 0.43 c p1
305.97 220.23 0.43 c p1
306.28 214.10 0.43 c p1
306.59 227.87 0.43 c p1
306.90 227.28 0.43 c p1
307.21 223.75 0.43 c p1
307.52 224.33 0.43 c p1
307.83 226.36 0.43 c p1
308.13 228.11 0.43 c p1
308.44 228.68 0.43 c p1
308.75 233.36 0.43 c p1
309.06 228.62 0.43 c p1
309.37 226.54 0.43 c p1
309.68 222.99 0.43 c p1
309.99 217.13 0.43 c p1
310.30 222.92 0.43 c p1
310.61 223.46 0.43 c p1
310.92 230.43 0.43 c p1
311.22 223.08 0.43 c p1
311.53 227.69 0.43 c p1
311.84 228.22 0.43 c p1
312.15 231.38 0.43 c p1
312.46 229.26 0.43 c p1
312.77 228.32 0.43 c p1
313.08 236.74 0.43 c p1
313.39 218.88 0.43 c p1
313.70 224.61 0.43 c p1
314.01 222.50 0.43 c p1
314.32 225.61 0.43 c p1
314.62 218.28 0.43 c p1
314.93 221.38 0.43 c p1
315.24 229.72 0.43 c p1
315.55 227.58 0.43 c p1
315.86 228.07 0.43 c p1
316.17 230.01 0.43 c p1
316.48 226.42 0.43 c p1
316.79 232.13 0.43 c p1
317.10 224.76 0.43 c p1
317.41 220.02 0.43 c p1
317.71 225.69 0.43 c p1
318.02 219.80 0.43 c p1
318.33 218.82 0.43 c p1
318.64 220.72 0.43 c p1
318.95 226.37 0.43 c p1
319.26 227.98 0.43 c p1
319.57 228.43 0.43 c p1
319.88 225.12 0.43 c p1
320.19 226.72 0.43 c p1
320.50 231.21 0.43 c p1
320.81 226.44 0.43 c p1
321.11 228.03 0.43 c p1
321.42 219.53 0.43 c p1
321.73 215.95 0.43 c p1
322.04 217.80 0.43 c p1
322.35 215.65 0.43 c p1
322.66 219.80 0.43 c p1
322.97 224.24 0.43 c p1
323.28 223.22 0.43 c p1
323.59 230.26 0.43 c p1
323.90 218.88 0.43 c p1
324.20 223.30 0.43 c p1
324.51 224.85 0.43 c p1
324.82 226.70 0.43 c p1
325.13 220.49 0.43 c p1
325.44 220.89 0.43 c p1
325.75 222.72 0.43 c p1
326.06 216.82 0.43 c p1
326.37 222.07 0.43 c p1
326.68 225.04 0.43 c p1
326.99 221.70 0.43 c p1
327.30 216.94 0.43 c p1
327.60 222.46 0.43 c p1
327.91 223.98 0.43 c p1
328.22 226.94 0.43 c p1
328.53 224.73 0.43 c p1
328.84 222.81 0.43 c p1
329.15 221.76 0.43 c p1
329.46 225.84 0.43 c p1
329.77 222.49 0.43 c p1
330.08 221.71 0.43 c p1
330.39 219.50 0.43 c p1
330.69 226.13 0.43 c p1
331.00 223.92 0.43 c p1
331.31 230.56 0.43 c p1
331.62 223.48 0.43 c p1
331.93 226.39 0.43 c p1
332.24 222.75 0.43 c p1
332.55 225.66 0.43 c p1
332.86 223.43 0.43 c p1
333.17 221.21 0.43 c p1
333.48 225.53 0.43 c p1
333.79 219.32 0.43 c p1
334.09 226.20 0.43 c p1
334.40 217.43 0.43 c p1
334.71 222.87 0.43 c p1
335.02 218.09 0.43 c p1
335.33 224.94 0.43 c p1
335.64 230.40 0.43 c p1
335.95 226.72 0.43 c p1
336.26 235.90 0.43 c p1
336.57 226.22 0.43 c p1
336.88 226.53 0.43 c p1
337.18 225.42 0.43 c p1
337.49 228.29 0.43 c p1
337.80 228.60 0.43 c p1
338.11 227.77 0.43 c p1
338.42 221.54 0.43 c p1
338.73 223.26 0.43 c p1
339.04 219.59 0.43 c p1
339.35 226.41 0.43 c p1
339.66 222.74 0.43 c p1
339.97 228.14 0.43 c p1
340.28 227.29 0.43 c p1
340.58 223.61 0.43 c p1
340.89 230.43 0.43 c p1
341.20 225.61 0.43 c p1
341.51 229.58 0.43 c p1
341.82 221.08 0.43 c p1
342.13 223.91 0.43 c p1
342.44 214.04 0.43 c p1
342.75 220.51 0.43 c p1
343.06 224.74 0.43 c p1
343.37 231.25 0.43 c p1
343.68 228.97 0.43 c p1
343.98 229.24 0.43 c p1
344.29 221.87 0.43 c p1
344.60 228.64 0.43 c p1
344.91 232.60 0.43 c p1
345.22 224.08 0.43 c p1
345.53 222.93 0.43 c p1
345.84 228.28 0.43 c p1
346.15 223.45 0.43 c p1
346.46 223.71 0.43 c p1
346.77 212.72 0.43 c p1
347.07 216.62 0.43 c p1
347.38 221.93 0.43 c p1
347.69 223.59 0.43 c p1
348.00 223.84 0.43 c p1
348.31 231.72 0.43 c p1
348.62 231.97 0.43 c p1
348.93 229.66 0.43 c p1
349.24 225.95 0.43 c p1
349.55 230.15 0.43 c p1
349.86 228.97 0.43 c p1
350.17 230.62 0.43 c p1
350.47 226.91 0.43 c p1
350.78 219.54 0.43 c p1
351.09 214.74 0.43 c p1
351.40 229.02 0.43 c p1
351.71 225.30 0.43 c p1
352.02 225.53 0.43 c p1
352.33 224.63 0.43 c p1
352.64 222.33 0.43 c p1
352.95 231.29 0.43 c p1
353.26 226.43 0.43 c p1
353.56 224.12 0.43 c p1
353.87 228.28 0.43 c p1
354.18 228.50 0.43 c p1
354.49 223.65 0.43 c p1
354.80 223.87 0.43 c p1
355.11 224.09 0.43 c p1
355.42 226.83 0.43 c p1
355.73 221.99 0.43 c p1
356.04 228.38 0.43 c p1
356.35 228.59 0.43 c p1
356.66 230.21 0.43 c p1
356.96 227.88 0.43 c p1
357.27 229.21 0.43 c p1
357.58 234.49 0.43 c p1
357.89 233.56 0.43 c p1
358.20 226.16 0.43 c p1
358.51 222.44 0.43 c p1
358.82 226.56 0.43 c p1
359.13 219.20 0.43 c p1
359.44 219.40 0.43 c p1
359.75 222.11 0.43 c p1
360.05 225.94 0.43 c p1
360.36 222.49 0.43 c p1
360.67 221.29 0.43 c p1
360.98 222.88 0.43 c p1
361.29 226.71 0.43 c p1
361.60 233.36 0.43 c p1
0.00 0.00 432.00 576.00 cl
0 0 0 srgb
0.75 setlinewidth
[] 0 setdash
1 setlinecap
1 setlinejoin
10.00 setmiterlimit
np
246.63 201.60 m
92.72 0 l
o
np
246.63 201.60 m
0 -5.76 l
o
np
277.54 201.60 m
0 -5.76 l
o
np
308.44 201.60 m
0 -5.76 l
o
np
339.35 201.60 m
0 -5.76 l
o
/Font1 findfont 6 s
246.63 185.47 (100) .5 0 t
277.54 185.47 (200) .5 0 t
308.44 185.47 (300) .5 0 t
339.35 185.47 (400) .5 0 t
np
216.00 206.49 m
0 36.30 l
o
np
216.00 206.49 m
-5.76 0 l
o
np
216.00 212.54 m
-5.76 0 l
o
np
216.00 218.59 m
-5.76 0 l
o
np
216.00 224.64 m
-5.76 0 l
o
np
216.00 230.69 m
-5.76 0 l
o
np
216.00 236.74 m
-5.76 0 l
o
np
216.00 242.79 m
-5.76 0 l
o
209.09 204.34 (-0.006) 1 0 t
209.09 210.39 (-0.004) 1 0 t
209.09 216.44 (-0.002) 1 0 t
209.09 222.49 (0.000) 1 0 t
209.09 228.53 (0.002) 1 0 t
209.09 234.58 (0.004) 1 0 t
209.09 240.63 (0.006) 1 0 t
np
216.00 201.60 m
151.20 0 l
0 46.08 l
-151.20 0 l
0 -46.08 l
o
0.00 0.00 432.00 576.00 cl
/Font1 findfont 9 s
0 0 0 srgb
291.60 262.88 (Residuen) .5 0 t
59.04 73.44 401.76 516.96 cl
ep
%%Trailer
%%Pages: 1
%%EOF
