%!PS-Adobe-3.0 EPSF-3.0
%%DocumentNeededResources: font Helvetica
%%+ font Helvetica-Bold
%%+ font Helvetica-Oblique
%%+ font Helvetica-BoldOblique
%%+ font Symbol
%%Title: R Graphics Output
%%Creator: R Software
%%Pages: (atend)
%%BoundingBox: 0 0 432 576
%%EndComments
%%BeginProlog
/bp  { gs sRGB gs } def
% begin .ps.prolog
/gs  { gsave } bind def
/gr  { grestore } bind def
/ep  { showpage gr gr } bind def
/m   { moveto } bind def
/l  { rlineto } bind def
/np  { newpath } bind def
/cp  { closepath } bind def
/f   { fill } bind def
/o   { stroke } bind def
/c   { newpath 0 360 arc } bind def
/r   { 4 2 roll moveto 1 copy 3 -1 roll exch 0 exch rlineto 0 rlineto -1 mul 0 exch rlineto closepath } bind def
/p1  { stroke } bind def
/p2  { gsave bg fill grestore newpath } bind def
/p3  { gsave bg fill grestore stroke } bind def
/p6  { gsave bg eofill grestore newpath } bind def
/p7  { gsave bg eofill grestore stroke } bind def
/t   { 5 -2 roll moveto gsave rotate
       1 index stringwidth pop
       mul neg 0 rmoveto show grestore } bind def
/ta  { 4 -2 roll moveto gsave rotate show } bind def
/tb  { 2 -1 roll 0 rmoveto show } bind def
/cl  { grestore gsave newpath 3 index 3 index moveto 1 index
       4 -1 roll lineto  exch 1 index lineto lineto
       closepath clip newpath } bind def
/rgb { setrgbcolor } bind def
/s   { scalefont setfont } bind def
% end   .ps.prolog
/sRGB { [ /CIEBasedABC
          << /DecodeLMN
               [ { dup 0.03928 le
                        {12.92321 div}
                        {0.055 add 1.055 div 2.4 exp }
                     ifelse
                 } bind dup dup
               ]
             /MatrixLMN [0.412457 0.212673 0.019334
                         0.357576 0.715152 0.119192
                         0.180437 0.072175 0.950301]
             /WhitePoint [0.9505 1.0 1.0890]
           >>
         ] setcolorspace } bind def
/srgb { setcolor } bind def
%%IncludeResource: font Helvetica
/Helvetica findfont
dup length dict begin
  {1 index /FID ne {def} {pop pop} ifelse} forall
  /Encoding ISOLatin1Encoding def
  currentdict
  end
/Font1 exch definefont pop
%%IncludeResource: font Helvetica-Bold
/Helvetica-Bold findfont
dup length dict begin
  {1 index /FID ne {def} {pop pop} ifelse} forall
  /Encoding ISOLatin1Encoding def
  currentdict
  end
/Font2 exch definefont pop
%%IncludeResource: font Helvetica-Oblique
/Helvetica-Oblique findfont
dup length dict begin
  {1 index /FID ne {def} {pop pop} ifelse} forall
  /Encoding ISOLatin1Encoding def
  currentdict
  end
/Font3 exch definefont pop
%%IncludeResource: font Helvetica-BoldOblique
/Helvetica-BoldOblique findfont
dup length dict begin
  {1 index /FID ne {def} {pop pop} ifelse} forall
  /Encoding ISOLatin1Encoding def
  currentdict
  end
/Font4 exch definefont pop
%%IncludeResource: font Symbol
/Symbol findfont
dup length dict begin
  {1 index /FID ne {def} {pop pop} ifelse} forall
  currentdict
  end
/Font5 exch definefont pop
%%EndProlog
%%Page: 1 1
bp
0.00 0.00 432.00 576.00 cl
0.00 0.00 432.00 576.00 cl
0.00 0.00 432.00 576.00 cl
/Font1 findfont 12 s
0 0 0 srgb
48.00 508.72 (PCP-ETH) 0 0 t
48.00 494.89 (Blitzlicht-Photolyse) 0 0 t
/Font1 findfont 9 s
48.00 457.54 (File: Dy) 0 ta
-0.180 (e_1_1_V3_900V) tb
-1.125 (.dat) tb gr
48.00 334.87 (T) 0 ta
-1.080 (ue Apr  9 22:07:51 2019) tb gr
48.00 430.87 (Fitfunktion:  a + b * e) 0 ta
-0.270 (xp\(-c * t\)) tb gr
48.00 420.50 (t-Inter) 0 ta
0.270 (v) tb
-0.225 (all: 270.000 ... 9000.000 ms) tb gr
48.00 410.14 (P) 0 ta
-0.360 (ar) tb
-0.090 (ameter \(Standardabw) tb
-0.090 (eichung\):) tb gr
48.00 399.77 (  a = -0.01487 \(0.00020\)) 0 0 t
48.00 389.40 (  b = 0.38566 \(0.00083\)) 0 0 t
48.00 379.03 (  c = 6.739e-01 \(2.316e-03\) s^-1) 0 0 t
48.00 368.66 (  tau = 1.484e+00 \(5.099e-03\) s) 0 0 t
216.00 345.60 388.80 518.40 cl
0 0 0 srgb
0.75 setlinewidth
[] 0 setdash
1 setlinecap
1 setlinejoin
10.00 setmiterlimit
np
222.40 503.78 m
0.15 0.27 l
0.14 0.12 l
0.15 0.40 l
0.14 -1.07 l
0.15 0.80 l
0.14 -0.95 l
0.15 0.95 l
0.14 -1.07 l
0.15 0.67 l
0.15 0.15 l
0.14 0 l
0.15 -1.10 l
0.14 0.67 l
0.15 -0.27 l
0.14 0.82 l
0.15 -0.39 l
0.14 -0.16 l
0.15 -0.12 l
0.15 0.40 l
0.14 -0.40 l
0.15 0.40 l
0.14 -0.12 l
0.15 0 l
0.14 -0.28 l
0.15 1.22 l
0.15 -1.65 l
0.14 0.71 l
0.15 -0.55 l
0.14 0.94 l
0.15 -0.67 l
0.14 -0.27 l
0.15 0.12 l
0.14 0.43 l
0.15 -0.16 l
0.15 0.68 l
0.14 -0.40 l
0.15 -0.28 l
0.14 0.16 l
0.15 0.39 l
0.14 -0.82 l
0.15 0.55 l
0.14 0 l
0.15 -0.28 l
0.15 -0.82 l
0.14 0.98 l
0.15 0.27 l
0.14 -0.15 l
0.15 -0.95 l
0.14 0.83 l
0.15 -0.55 l
0.14 0.82 l
0.15 -0.15 l
0.15 0.67 l
0.14 -0.95 l
0.15 0.68 l
0.14 -0.40 l
0.15 0.67 l
0.14 -1.62 l
0.15 0.55 l
0.15 0 l
0.14 0.55 l
0.15 -0.15 l
0.14 -0.40 l
0.15 0.28 l
0.14 0 l
0.15 -0.16 l
0.14 0.16 l
0.15 -0.43 l
0.15 -0.12 l
0.14 1.22 l
0.15 -0.15 l
0.14 -0.25 l
0.15 0.12 l
0.14 -0.94 l
0.15 1.07 l
0.14 -0.68 l
0.15 -0.12 l
0.15 0.55 l
0.14 0 l
0.15 0.25 l
0.14 0.27 l
0.15 -1.22 l
0.14 0.43 l
0.15 0.12 l
0.14 0.15 l
0.15 -0.55 l
0.15 0 l
0.14 0 l
0.15 0.28 l
0.14 -0.16 l
0.15 -0.27 l
0.14 0.43 l
0.15 0.12 l
0.15 -0.28 l
0.14 -0.27 l
0.15 0.43 l
0.14 0.67 l
0.15 -1.10 l
0.14 0.15 l
236.96 406.47 lineto
0.14 0.26 l
0.15 1.55 l
0.15 0.55 l
0.14 0.82 l
0.15 0.13 l
0.14 1.49 l
0.15 1.38 l
0.14 0.43 l
0.15 0.67 l
0.14 0.28 l
0.15 1.25 l
0.15 0.82 l
0.14 0.80 l
0.15 0.70 l
0.14 1.10 l
0.15 0.40 l
0.14 -0.12 l
0.15 0.39 l
0.14 1.93 l
0.15 -0.40 l
0.15 0.28 l
0.14 1.22 l
0.15 0.83 l
0.14 -0.43 l
0.15 0.98 l
0.14 0.82 l
0.15 0.28 l
0.15 0.39 l
0.14 0.83 l
0.15 0.28 l
0.14 0 l
0.15 0.82 l
0.14 0.55 l
0.15 0.15 l
0.14 0.40 l
0.15 0.83 l
0.15 0.39 l
0.14 0.43 l
0.15 0.95 l
0.14 -0.12 l
0.15 0.82 l
0.14 -0.55 l
0.15 1.23 l
0.14 0 l
0.15 1.10 l
0.15 -0.13 l
0.14 0.40 l
0.15 0.55 l
0.14 0.40 l
0.15 0.43 l
0.14 0.55 l
0.15 0 l
0.14 0.82 l
0.15 0.40 l
0.15 0.82 l
0.14 0.16 l
0.15 0.82 l
0.14 -0.27 l
0.15 -0.28 l
0.14 1.10 l
0.15 0.80 l
0.15 -0.80 l
0.14 1.50 l
0.15 -0.27 l
0.14 0.55 l
0.15 0.39 l
0.14 0.98 l
0.15 0 l
0.14 0.40 l
0.15 -0.28 l
0.15 1.10 l
0.14 0.43 l
0.15 0.28 l
0.14 0.12 l
0.15 0 l
0.14 1.65 l
0.15 -0.55 l
0.14 0.15 l
0.15 0.68 l
0.15 0.27 l
0.14 -0.15 l
0.15 0.98 l
0.14 -0.43 l
0.15 1.10 l
0.14 0.15 l
0.15 0.12 l
0.14 0.28 l
0.15 1.37 l
0.15 -0.55 l
0.14 0.98 l
0.15 0.28 l
0.14 0.27 l
0.15 -0.27 l
0.14 -0.28 l
0.15 0.95 l
0.15 0.55 l
0.14 0.67 l
0.15 -0.39 l
0.14 1.49 l
251.52 452.85 lineto
0.14 0.98 l
0.15 0.27 l
0.14 0 l
0.15 -0.15 l
0.15 0.43 l
0.14 0.82 l
0.15 0.55 l
0.14 -0.15 l
0.15 0.70 l
0.14 -0.15 l
0.15 0.43 l
0.14 0.27 l
0.15 0.52 l
0.15 0.16 l
0.14 0.12 l
0.15 -0.12 l
0.14 0.67 l
0.15 0.70 l
0.14 -0.27 l
0.15 0.12 l
0.14 0.27 l
0.15 0.43 l
0.15 0.40 l
0.14 0.15 l
0.15 0.40 l
0.14 0.55 l
0.15 0.27 l
0.14 0 l
0.15 0.98 l
0.14 0.12 l
0.15 0.16 l
0.15 -0.71 l
0.14 1.78 l
0.15 -0.80 l
0.14 0.13 l
0.15 1.22 l
0.14 0.15 l
0.15 -0.43 l
0.15 0.83 l
0.14 -0.40 l
0.15 0.28 l
0.14 1.10 l
0.15 -0.16 l
0.14 -0.55 l
0.15 0.98 l
0.14 0.55 l
0.15 0.67 l
0.15 -0.94 l
0.14 0.82 l
0.15 0.12 l
0.14 -0.12 l
0.15 0 l
0.14 1.38 l
0.15 0.12 l
0.14 -0.28 l
0.15 0.43 l
0.15 0.52 l
0.14 -0.79 l
0.15 0.79 l
0.14 0.43 l
0.15 -0.27 l
0.14 0.82 l
0.15 0 l
0.14 0.40 l
0.15 0.15 l
0.15 0.28 l
0.14 0.12 l
0.15 0.27 l
0.14 0 l
0.15 0.55 l
0.14 0.16 l
0.15 -0.16 l
0.15 -0.39 l
0.14 0.82 l
0.15 1.38 l
0.14 -1.26 l
0.15 0.71 l
0.14 -0.16 l
0.15 0.71 l
0.14 0 l
0.15 0 l
0.15 0.27 l
0.14 0.28 l
0.15 0.12 l
0.14 0.67 l
0.15 -0.12 l
0.14 0.55 l
0.15 -0.83 l
0.14 1.38 l
0.15 -0.82 l
0.15 0.55 l
0.14 -0.16 l
0.15 0.83 l
0.14 -0.95 l
0.15 1.22 l
0.14 0.71 l
0.15 -0.55 l
0.14 0.12 l
0.15 0.43 l
266.08 477.43 lineto
0.14 0.27 l
0.15 -0.55 l
0.14 0.95 l
0.15 -0.40 l
0.14 0.55 l
0.15 -0.15 l
0.15 0.70 l
0.14 -0.82 l
0.15 1.10 l
0.14 0.12 l
0.15 -0.28 l
0.14 0.28 l
0.15 0.43 l
0.14 -0.16 l
0.15 0.28 l
0.15 0.43 l
0.14 0 l
0.15 0.55 l
0.14 -0.16 l
0.15 0.55 l
0.14 -0.55 l
0.15 0.55 l
0.14 0.56 l
0.15 -0.16 l
0.15 -0.40 l
0.14 1.38 l
0.15 -0.82 l
0.14 0.55 l
0.15 0.27 l
0.14 -0.27 l
0.15 0.12 l
0.14 0.27 l
0.15 0.28 l
0.15 -0.67 l
0.14 0.39 l
0.15 0.71 l
0.14 -0.28 l
0.15 0.12 l
0.14 0.83 l
0.15 0.15 l
0.15 -0.43 l
0.14 0 l
0.15 0.71 l
0.14 -0.43 l
0.15 0 l
0.14 1.25 l
0.15 0 l
0.14 -0.82 l
0.15 0.82 l
0.15 -0.70 l
0.14 1.53 l
0.15 -0.43 l
0.14 0.55 l
0.15 -1.10 l
0.14 1.10 l
0.15 0 l
0.14 -0.40 l
0.15 0.67 l
0.15 0 l
0.14 0 l
0.15 0.16 l
0.14 -0.43 l
0.15 1.10 l
0.14 -1.10 l
0.15 1.10 l
0.14 -0.67 l
0.15 0.79 l
0.15 -0.40 l
0.14 0.13 l
0.15 0.43 l
0.14 0 l
0.15 -0.16 l
0.14 0.98 l
0.15 -0.55 l
0.15 0.40 l
0.14 0.15 l
0.15 0 l
0.14 -0.82 l
0.15 0.82 l
0.14 0.12 l
0.15 0.83 l
0.14 -0.12 l
0.15 0.39 l
0.15 -0.55 l
0.14 0.55 l
0.15 -0.27 l
0.14 0.15 l
0.15 0.55 l
0.14 0.28 l
0.15 -0.83 l
0.14 0.40 l
0.15 -0.95 l
0.15 1.38 l
0.14 -0.28 l
0.15 0.55 l
0.14 -0.70 l
0.15 1.10 l
0.14 -0.40 l
0.15 0.40 l
280.63 490.45 lineto
0.15 0.82 l
0.15 -0.12 l
0.14 1.22 l
0.15 -0.94 l
0.14 0.27 l
0.15 0 l
0.14 0.12 l
0.15 -0.39 l
0.15 0.82 l
0.14 -0.70 l
0.15 0.82 l
0.14 -0.67 l
0.15 0.28 l
0.14 0.39 l
0.15 0.83 l
0.14 -0.28 l
0.15 -0.27 l
0.15 0.82 l
0.14 0 l
0.15 -0.97 l
0.14 0.42 l
0.15 -0.15 l
0.14 0.15 l
0.15 0 l
0.14 0.55 l
0.15 -0.55 l
0.15 1.50 l
0.14 -1.37 l
0.15 0.27 l
0.14 0.15 l
0.15 0 l
0.14 0 l
0.15 1.11 l
0.14 -0.71 l
0.15 0.43 l
0.15 0.12 l
0.14 -0.12 l
0.15 0.12 l
0.14 0.71 l
0.15 -0.71 l
0.14 0.55 l
0.15 -0.67 l
0.14 0.83 l
0.15 -0.55 l
0.15 0.55 l
0.14 -0.28 l
0.15 0.95 l
0.14 -0.28 l
0.15 -0.55 l
0.14 -0.12 l
0.15 0.55 l
0.15 0.67 l
0.14 0 l
0.15 -0.55 l
0.14 0.55 l
0.15 -0.27 l
0.14 0.27 l
0.15 -0.55 l
0.14 0.16 l
0.15 -0.16 l
0.15 0.55 l
0.14 -0.12 l
0.15 0.12 l
0.14 0 l
0.15 0.55 l
0.14 -0.12 l
0.15 0.12 l
0.14 0.16 l
0.15 0 l
0.15 0 l
0.14 0.27 l
0.15 -0.15 l
0.14 0.43 l
0.15 -0.28 l
0.14 0.12 l
0.15 0.16 l
0.14 0.39 l
0.15 -0.27 l
0.15 0.27 l
0.14 -0.27 l
0.15 -0.12 l
0.14 0.12 l
0.15 0.82 l
0.14 -0.55 l
0.15 0.16 l
0.15 -0.98 l
0.14 1.50 l
0.15 0.15 l
0.14 0 l
0.15 -0.83 l
0.14 0.83 l
0.15 -0.28 l
0.14 0.28 l
0.15 -0.67 l
0.15 0.52 l
0.14 0.42 l
0.15 -0.15 l
0.14 -0.27 l
0.15 0.27 l
295.19 498.82 lineto
0.15 0.55 l
0.14 -0.42 l
0.15 0.55 l
0.15 -0.13 l
0.14 0.40 l
0.15 -0.55 l
0.14 0.43 l
0.15 -0.43 l
0.14 -0.12 l
0.15 -0.15 l
0.14 0.55 l
0.15 -0.28 l
0.15 0.43 l
0.14 -0.70 l
0.15 0.98 l
0.14 0.12 l
0.15 -0.12 l
0.14 -0.28 l
0.15 0.95 l
0.15 -0.83 l
0.14 0.43 l
0.15 -0.27 l
0.14 -0.16 l
0.15 0.55 l
0.14 0.28 l
0.15 -0.40 l
0.14 0.67 l
0.15 -1.10 l
0.15 1.10 l
0.14 -0.55 l
0.15 -0.39 l
0.14 0.55 l
0.15 0.39 l
0.14 -0.12 l
0.15 0.55 l
0.14 -0.82 l
0.15 0.39 l
0.15 -0.12 l
0.14 0.28 l
0.15 -0.83 l
0.14 0.83 l
0.15 0.12 l
0.14 0.27 l
0.15 -1.10 l
0.14 0.98 l
0.15 -0.27 l
0.15 -0.71 l
0.14 1.26 l
0.15 0.67 l
0.14 -1.10 l
0.15 -0.12 l
0.14 0.39 l
0.15 0.55 l
0.15 -0.82 l
0.14 0.27 l
0.15 0.71 l
0.14 -0.16 l
0.15 -0.12 l
0.14 0.40 l
0.15 -0.95 l
0.14 0.28 l
0.15 0.39 l
0.15 0.43 l
0.14 -0.15 l
0.15 0 l
0.14 -0.28 l
0.15 -0.27 l
0.14 0.55 l
0.15 -0.12 l
0.14 -0.28 l
0.15 0.28 l
0.15 -0.43 l
0.14 0.27 l
0.15 0.28 l
0.14 0.98 l
0.15 -1.26 l
0.14 0 l
0.15 1.10 l
0.14 -0.27 l
0.15 -0.12 l
0.15 0.12 l
0.14 -0.40 l
0.15 0.83 l
0.14 -0.83 l
0.15 1.22 l
0.14 -0.55 l
0.15 -0.39 l
0.15 -0.43 l
0.14 0.70 l
0.15 0.55 l
0.14 -0.27 l
0.15 -0.28 l
0.14 0.28 l
0.15 0 l
0.14 0.39 l
0.15 -1.22 l
0.15 1.22 l
0.14 -1.49 l
0.15 0.82 l
309.75 504.05 lineto
0.15 -1.10 l
0.14 -0.55 l
0.15 1.50 l
0.14 -0.67 l
0.15 0.39 l
0.15 -0.67 l
0.14 1.10 l
0.15 -0.55 l
0.14 0.28 l
0.15 0.12 l
0.14 0.40 l
0.15 -0.25 l
0.14 -0.43 l
0.15 0.55 l
0.15 -0.12 l
0.14 -0.27 l
0.15 0.52 l
0.14 0.82 l
0.15 -1.77 l
0.14 1.10 l
0.15 0.12 l
0.15 -1.07 l
0.14 0.12 l
0.15 0.95 l
0.14 -0.27 l
0.15 -0.52 l
0.14 0.94 l
0.15 -0.55 l
0.14 0.55 l
0.15 -0.15 l
0.15 0.43 l
0.14 -1.50 l
0.15 1.22 l
0.14 -0.15 l
0.15 0 l
0.14 -0.67 l
0.15 1.50 l
0.14 -0.68 l
0.15 0.68 l
0.15 -1.35 l
0.14 1.35 l
0.15 -0.68 l
0.14 0 l
0.15 -0.42 l
0.14 0.97 l
0.15 -0.55 l
0.14 -0.27 l
0.15 0.27 l
0.15 0.55 l
0.14 -0.70 l
0.15 1.25 l
0.14 -1.52 l
0.15 0.55 l
0.14 -0.13 l
0.15 0 l
0.15 0.55 l
0.14 0.28 l
0.15 -0.55 l
0.14 0.82 l
0.15 -0.55 l
0.14 0 l
0.15 -0.27 l
0.14 0.55 l
0.15 -0.70 l
0.15 0.82 l
0.14 -0.27 l
0.15 0.27 l
0.14 -0.55 l
0.15 0.55 l
0.14 0.15 l
0.15 -0.42 l
0.14 -0.40 l
0.15 1.10 l
0.15 -0.98 l
0.14 0 l
0.15 0.43 l
0.14 0.40 l
0.15 -0.28 l
0.14 0.43 l
0.15 -0.98 l
0.14 0.55 l
0.15 -0.67 l
0.15 1.10 l
0.14 -0.43 l
0.15 -0.27 l
0.14 0.42 l
0.15 0 l
0.14 -0.15 l
0.15 0.55 l
0.14 -0.67 l
0.15 0.40 l
0.15 -0.68 l
0.14 0.95 l
0.15 -0.27 l
0.14 -0.13 l
0.15 0.56 l
0.14 -0.43 l
0.15 -0.28 l
0.15 0.55 l
324.31 505.82 lineto
0.15 0.28 l
0.14 0.40 l
0.15 0.15 l
0.14 -0.55 l
0.15 0.83 l
0.14 -0.55 l
0.15 -0.71 l
0.15 0.55 l
0.14 0.71 l
0.15 -0.55 l
0.14 0.67 l
0.15 -0.67 l
0.14 0.39 l
0.15 -0.82 l
0.14 0.70 l
0.15 -0.55 l
0.15 0.95 l
0.14 -0.55 l
0.15 -0.28 l
0.14 0.16 l
0.15 0.27 l
0.14 0.12 l
0.15 -0.27 l
0.14 0.70 l
0.15 0.12 l
0.15 -0.82 l
0.14 0.55 l
0.15 -0.67 l
0.14 0.67 l
0.15 -0.55 l
0.14 0.27 l
0.15 0 l
0.15 0.83 l
0.14 -0.67 l
0.15 0.39 l
0.14 -0.39 l
0.15 -0.28 l
0.14 -0.27 l
0.15 0.39 l
0.14 0.28 l
0.15 0.27 l
0.15 -0.67 l
0.14 1.10 l
0.15 -0.82 l
0.14 0.27 l
0.15 -0.55 l
0.14 0.55 l
0.15 -0.15 l
0.14 0.15 l
0.15 0.40 l
0.15 -0.67 l
0.14 0.12 l
0.15 0.27 l
0.14 -0.27 l
0.15 0.70 l
0.14 -0.98 l
0.15 1.10 l
0.14 -0.55 l
0.15 -0.39 l
0.15 0.55 l
0.14 0.39 l
0.15 -1.10 l
0.14 0.83 l
0.15 0.27 l
0.14 -0.12 l
0.15 -0.82 l
0.15 0.12 l
0.14 0.15 l
0.15 0.12 l
0.14 0 l
0.15 0.55 l
0.14 -0.82 l
0.15 0.43 l
0.14 -0.43 l
0.15 1.53 l
0.15 -1.26 l
0.14 0.55 l
0.15 0.16 l
0.14 -0.16 l
0.15 0 l
0.14 -0.27 l
0.15 -0.40 l
0.14 0.12 l
0.15 0.16 l
0.15 0.39 l
0.14 -0.82 l
0.15 1.80 l
0.14 -0.82 l
0.15 0.55 l
0.14 -0.55 l
0.15 -0.43 l
0.14 -0.12 l
0.15 0.82 l
0.15 -0.82 l
0.14 0.94 l
0.15 -0.82 l
0.14 0.55 l
0.15 -0.28 l
0.14 0.28 l
338.87 508.42 lineto
0.15 0 l
0.14 -0.39 l
0.15 0.12 l
0.14 -0.12 l
0.15 -0.16 l
0.14 -0.27 l
0.15 0.70 l
0.14 -0.27 l
0.15 0.39 l
0.15 -0.55 l
0.14 0.83 l
0.15 -0.40 l
0.14 -0.27 l
0.15 0 l
0.14 0.94 l
0.15 -0.55 l
0.14 -0.12 l
0.15 0 l
0.15 0.28 l
0.14 -0.43 l
0.15 1.10 l
0.14 -1.38 l
0.15 1.26 l
0.14 -0.71 l
0.15 0.28 l
0.14 -0.40 l
0.15 1.22 l
0.15 -1.22 l
0.14 0.12 l
0.15 -0.12 l
0.14 0.12 l
0.15 -0.94 l
0.14 1.10 l
0.15 -0.43 l
0.15 0.55 l
0.14 0 l
0.15 -0.28 l
0.14 0.55 l
0.15 -0.39 l
0.14 0.27 l
0.15 0.28 l
0.14 -0.71 l
0.15 0.43 l
0.15 -0.70 l
0.14 0.70 l
0.15 -0.43 l
0.14 0.28 l
0.15 -0.12 l
0.14 0.82 l
0.15 -0.43 l
0.14 0.28 l
0.15 -0.83 l
0.15 0.43 l
0.14 -0.15 l
0.15 0.43 l
0.14 0.27 l
0.15 -0.43 l
0.14 -0.39 l
0.15 0.27 l
0.14 0.40 l
0.15 0.82 l
0.15 -1.10 l
0.14 0.16 l
0.15 -0.43 l
0.14 0.70 l
0.15 -0.15 l
0.14 0.15 l
0.15 -0.55 l
0.15 0.40 l
0.14 -0.28 l
0.15 0.98 l
0.14 -0.82 l
0.15 0.55 l
0.14 -0.55 l
0.15 -0.16 l
0.14 0 l
0.15 0.71 l
0.15 -0.43 l
0.14 0 l
0.15 0.15 l
0.14 -0.70 l
0.15 0.43 l
0.14 0.39 l
0.15 -0.39 l
0.14 0.27 l
0.15 -0.43 l
0.15 0.28 l
0.14 -0.12 l
0.15 1.07 l
0.14 -1.23 l
0.15 0.98 l
0.14 -0.27 l
0.15 -0.43 l
0.14 0.15 l
0.15 -0.15 l
0.15 0.27 l
0.14 0.43 l
0.15 -0.43 l
0.14 -0.39 l
353.43 509.95 lineto
0.14 -0.27 l
0.15 -0.83 l
0.14 1.22 l
0.15 -0.82 l
0.15 0.27 l
0.14 0.16 l
0.15 0.27 l
0.14 -0.70 l
0.15 0.43 l
0.14 -0.16 l
0.15 0.28 l
0.15 -0.28 l
0.14 0.28 l
0.15 -0.55 l
0.14 0.43 l
0.15 0 l
0.14 -0.43 l
0.15 0.82 l
0.14 0.83 l
0.15 -1.50 l
0.15 0.80 l
0.14 -0.95 l
0.15 0.55 l
0.14 -0.28 l
0.15 0.16 l
0.14 -0.16 l
0.15 -0.27 l
0.14 0.55 l
0.15 0.27 l
0.15 -0.12 l
0.14 -0.15 l
0.15 0 l
0.14 0.55 l
0.15 -1.50 l
0.14 1.62 l
0.15 -0.52 l
0.14 0.95 l
0.15 -1.50 l
0.15 1.07 l
0.14 -0.67 l
0.15 0.55 l
0.14 -0.95 l
0.15 0.80 l
0.14 -0.80 l
0.15 0.28 l
0.15 0.39 l
0.14 -0.12 l
0.15 0.40 l
0.14 0.12 l
0.15 -1.22 l
0.14 0.82 l
0.15 0 l
0.14 0.13 l
0.15 -0.40 l
0.15 0.27 l
0.14 -0.27 l
0.15 0.55 l
0.14 -0.67 l
0.15 0.94 l
0.14 -0.27 l
0.15 0 l
0.14 0.40 l
0.15 -0.28 l
0.15 -0.79 l
0.14 1.22 l
0.15 -0.70 l
0.14 1.10 l
0.15 -0.68 l
0.14 -0.15 l
0.15 -0.12 l
0.14 0.67 l
0.15 -0.40 l
0.15 0.13 l
0.14 -0.55 l
0.15 0.82 l
0.14 -0.82 l
0.15 0.70 l
0.14 0 l
0.15 -0.28 l
0.15 -0.42 l
0.14 0.82 l
0.15 -0.12 l
0.14 -0.15 l
0.15 0.15 l
0.14 0.55 l
0.15 -1.50 l
0.14 1.07 l
0.15 -0.67 l
0.15 -0.15 l
0.14 0.27 l
0.15 0.15 l
0.14 -0.67 l
0.15 1.07 l
0.14 -0.40 l
0.15 -0.15 l
0.14 0.55 l
0.15 -0.55 l
0.15 -0.40 l
0.14 1.10 l
currentpoint o m
367.99 510.47 lineto
0.14 0.43 l
0.15 -0.15 l
0.14 -0.13 l
0.15 -0.15 l
0.14 0.28 l
0.15 -0.13 l
0.15 -0.15 l
0.14 0.28 l
0.15 0.42 l
0.14 -0.97 l
0.15 0.97 l
0.14 -0.42 l
0.15 0.82 l
0.15 -1.22 l
0.14 1.10 l
0.15 -1.38 l
0.14 1.10 l
0.15 -0.82 l
0.14 1.10 l
0.15 -0.43 l
0.14 -0.82 l
0.15 0.55 l
0.15 0.82 l
0.14 -0.67 l
0.15 0.82 l
0.14 -0.97 l
0.15 0.55 l
0.14 -0.55 l
0.15 0.27 l
0.14 -0.12 l
0.15 0.12 l
0.15 -0.12 l
0.14 0.27 l
0.15 -0.82 l
0.14 0.82 l
0.15 0.13 l
0.14 0 l
0.15 -0.55 l
0.14 0.55 l
0.15 -1.10 l
0.15 1.65 l
0.14 -0.95 l
0.15 0 l
0.14 0.55 l
0.15 0 l
0.14 -0.43 l
0.15 0.28 l
0.15 -0.28 l
0.14 0 l
0.15 0.43 l
0.14 -0.15 l
0.15 -0.55 l
0.14 0.42 l
0.15 0.13 l
0.14 0 l
0.15 -0.13 l
0.15 0.68 l
0.14 -1.38 l
0.15 0.98 l
0.14 -0.28 l
0.15 0.28 l
0.14 -0.43 l
0.15 0 l
0.14 0.43 l
0.15 0.40 l
0.15 -0.55 l
0.14 0.42 l
0.15 -0.27 l
0.14 0 l
0.15 -0.28 l
0.14 0.68 l
0.15 -1.50 l
0.14 1.10 l
0.15 -0.15 l
0.15 0.15 l
0.14 -0.28 l
0.15 0.40 l
0.14 0.15 l
0.15 0.28 l
0.14 -0.98 l
0.15 0.98 l
0.15 -0.70 l
0.14 0.42 l
0.15 -0.82 l
0.14 0.55 l
0.15 -0.28 l
0.14 0.55 l
0.15 0.13 l
0.14 -0.28 l
0.15 -0.82 l
0.15 0.82 l
0.14 -0.67 l
0.15 0.82 l
0.14 -0.42 l
0.15 0.27 l
0.14 -0.40 l
0.15 0.40 l
0.14 0 l
0.15 -0.55 l
o
/bg { 1 1 1 srgb } def
222.40 503.78 0.43 c p3
222.55 504.05 0.43 c p3
222.69 504.17 0.43 c p3
222.84 504.57 0.43 c p3
222.98 503.50 0.43 c p3
223.13 504.30 0.43 c p3
223.27 503.35 0.43 c p3
223.42 504.30 0.43 c p3
223.56 503.23 0.43 c p3
223.71 503.90 0.43 c p3
223.86 504.05 0.43 c p3
224.00 504.05 0.43 c p3
224.15 502.95 0.43 c p3
224.29 503.62 0.43 c p3
224.44 503.35 0.43 c p3
224.58 504.17 0.43 c p3
224.73 503.78 0.43 c p3
224.87 503.62 0.43 c p3
225.02 503.50 0.43 c p3
225.17 503.90 0.43 c p3
225.31 503.50 0.43 c p3
225.46 503.90 0.43 c p3
225.60 503.78 0.43 c p3
225.75 503.78 0.43 c p3
225.89 503.50 0.43 c p3
226.04 504.72 0.43 c p3
226.19 503.07 0.43 c p3
226.33 503.78 0.43 c p3
226.48 503.23 0.43 c p3
226.62 504.17 0.43 c p3
226.77 503.50 0.43 c p3
226.91 503.23 0.43 c p3
227.06 503.35 0.43 c p3
227.20 503.78 0.43 c p3
227.35 503.62 0.43 c p3
227.50 504.30 0.43 c p3
227.64 503.90 0.43 c p3
227.79 503.62 0.43 c p3
227.93 503.78 0.43 c p3
228.08 504.17 0.43 c p3
228.22 503.35 0.43 c p3
228.37 503.90 0.43 c p3
228.51 503.90 0.43 c p3
228.66 503.62 0.43 c p3
228.81 502.80 0.43 c p3
228.95 503.78 0.43 c p3
229.10 504.05 0.43 c p3
229.24 503.90 0.43 c p3
229.39 502.95 0.43 c p3
229.53 503.78 0.43 c p3
229.68 503.23 0.43 c p3
229.82 504.05 0.43 c p3
229.97 503.90 0.43 c p3
230.12 504.57 0.43 c p3
230.26 503.62 0.43 c p3
230.41 504.30 0.43 c p3
230.55 503.90 0.43 c p3
230.70 504.57 0.43 c p3
230.84 502.95 0.43 c p3
230.99 503.50 0.43 c p3
231.14 503.50 0.43 c p3
231.28 504.05 0.43 c p3
231.43 503.90 0.43 c p3
231.57 503.50 0.43 c p3
231.72 503.78 0.43 c p3
231.86 503.78 0.43 c p3
232.01 503.62 0.43 c p3
232.15 503.78 0.43 c p3
232.30 503.35 0.43 c p3
232.45 503.23 0.43 c p3
232.59 504.45 0.43 c p3
232.74 504.30 0.43 c p3
232.88 504.05 0.43 c p3
233.03 504.17 0.43 c p3
233.17 503.23 0.43 c p3
233.32 504.30 0.43 c p3
233.46 503.62 0.43 c p3
233.61 503.50 0.43 c p3
233.76 504.05 0.43 c p3
233.90 504.05 0.43 c p3
234.05 504.30 0.43 c p3
234.19 504.57 0.43 c p3
234.34 503.35 0.43 c p3
234.48 503.78 0.43 c p3
234.63 503.90 0.43 c p3
234.77 504.05 0.43 c p3
234.92 503.50 0.43 c p3
235.07 503.50 0.43 c p3
235.21 503.50 0.43 c p3
235.36 503.78 0.43 c p3
235.50 503.62 0.43 c p3
235.65 503.35 0.43 c p3
235.79 503.78 0.43 c p3
235.94 503.90 0.43 c p3
236.09 503.62 0.43 c p3
236.23 503.35 0.43 c p3
236.38 503.78 0.43 c p3
236.52 504.45 0.43 c p3
236.67 503.35 0.43 c p3
236.81 503.50 0.43 c p3
236.96 406.47 0.43 c p3
237.10 406.73 0.43 c p3
237.25 408.28 0.43 c p3
237.40 408.83 0.43 c p3
237.54 409.65 0.43 c p3
237.69 409.78 0.43 c p3
237.83 411.27 0.43 c p3
237.98 412.65 0.43 c p3
238.12 413.08 0.43 c p3
238.27 413.75 0.43 c p3
238.41 414.03 0.43 c p3
238.56 415.28 0.43 c p3
238.71 416.10 0.43 c p3
238.85 416.90 0.43 c p3
239.00 417.60 0.43 c p3
239.14 418.70 0.43 c p3
239.29 419.10 0.43 c p3
239.43 418.98 0.43 c p3
239.58 419.37 0.43 c p3
239.72 421.30 0.43 c p3
239.87 420.90 0.43 c p3
240.02 421.18 0.43 c p3
240.16 422.40 0.43 c p3
240.31 423.23 0.43 c p3
240.45 422.80 0.43 c p3
240.60 423.78 0.43 c p3
240.74 424.60 0.43 c p3
240.89 424.88 0.43 c p3
241.04 425.27 0.43 c p3
241.18 426.10 0.43 c p3
241.33 426.38 0.43 c p3
241.47 426.38 0.43 c p3
241.62 427.20 0.43 c p3
241.76 427.75 0.43 c p3
241.91 427.90 0.43 c p3
242.05 428.30 0.43 c p3
242.20 429.13 0.43 c p3
242.35 429.52 0.43 c p3
242.49 429.95 0.43 c p3
242.64 430.90 0.43 c p3
242.78 430.78 0.43 c p3
242.93 431.60 0.43 c p3
243.07 431.05 0.43 c p3
243.22 432.28 0.43 c p3
243.36 432.28 0.43 c p3
243.51 433.38 0.43 c p3
243.66 433.25 0.43 c p3
243.80 433.65 0.43 c p3
243.95 434.20 0.43 c p3
244.09 434.60 0.43 c p3
244.24 435.03 0.43 c p3
244.38 435.58 0.43 c p3
244.53 435.58 0.43 c p3
244.67 436.40 0.43 c p3
244.82 436.80 0.43 c p3
244.97 437.62 0.43 c p3
245.11 437.78 0.43 c p3
245.26 438.60 0.43 c p3
245.40 438.33 0.43 c p3
245.55 438.05 0.43 c p3
245.69 439.15 0.43 c p3
245.84 439.95 0.43 c p3
245.99 439.15 0.43 c p3
246.13 440.65 0.43 c p3
246.28 440.38 0.43 c p3
246.42 440.93 0.43 c p3
246.57 441.32 0.43 c p3
246.71 442.30 0.43 c p3
246.86 442.30 0.43 c p3
247.00 442.70 0.43 c p3
247.15 442.42 0.43 c p3
247.30 443.52 0.43 c p3
247.44 443.95 0.43 c p3
247.59 444.23 0.43 c p3
247.73 444.35 0.43 c p3
247.88 444.35 0.43 c p3
248.02 446.00 0.43 c p3
248.17 445.45 0.43 c p3
248.31 445.60 0.43 c p3
248.46 446.28 0.43 c p3
248.61 446.55 0.43 c p3
248.75 446.40 0.43 c p3
248.90 447.38 0.43 c p3
249.04 446.95 0.43 c p3
249.19 448.05 0.43 c p3
249.33 448.20 0.43 c p3
249.48 448.32 0.43 c p3
249.62 448.60 0.43 c p3
249.77 449.97 0.43 c p3
249.92 449.42 0.43 c p3
250.06 450.40 0.43 c p3
250.21 450.68 0.43 c p3
250.35 450.95 0.43 c p3
250.50 450.68 0.43 c p3
250.64 450.40 0.43 c p3
250.79 451.35 0.43 c p3
250.94 451.90 0.43 c p3
251.08 452.57 0.43 c p3
251.23 452.18 0.43 c p3
251.37 453.67 0.43 c p3
251.52 452.85 0.43 c p3
251.66 453.83 0.43 c p3
251.81 454.10 0.43 c p3
251.95 454.10 0.43 c p3
252.10 453.95 0.43 c p3
252.25 454.38 0.43 c p3
252.39 455.20 0.43 c p3
252.54 455.75 0.43 c p3
252.68 455.60 0.43 c p3
252.83 456.30 0.43 c p3
252.97 456.15 0.43 c p3
253.12 456.58 0.43 c p3
253.26 456.85 0.43 c p3
253.41 457.37 0.43 c p3
253.56 457.53 0.43 c p3
253.70 457.65 0.43 c p3
253.85 457.53 0.43 c p3
253.99 458.20 0.43 c p3
254.14 458.90 0.43 c p3
254.28 458.63 0.43 c p3
254.43 458.75 0.43 c p3
254.57 459.02 0.43 c p3
254.72 459.45 0.43 c p3
254.87 459.85 0.43 c p3
255.01 460.00 0.43 c p3
255.16 460.40 0.43 c p3
255.30 460.95 0.43 c p3
255.45 461.22 0.43 c p3
255.59 461.22 0.43 c p3
255.74 462.20 0.43 c p3
255.88 462.32 0.43 c p3
256.03 462.48 0.43 c p3
256.18 461.77 0.43 c p3
256.32 463.55 0.43 c p3
256.47 462.75 0.43 c p3
256.61 462.88 0.43 c p3
256.76 464.10 0.43 c p3
256.90 464.25 0.43 c p3
257.05 463.82 0.43 c p3
257.20 464.65 0.43 c p3
257.34 464.25 0.43 c p3
257.49 464.53 0.43 c p3
257.63 465.63 0.43 c p3
257.78 465.47 0.43 c p3
257.92 464.92 0.43 c p3
258.07 465.90 0.43 c p3
258.21 466.45 0.43 c p3
258.36 467.12 0.43 c p3
258.51 466.18 0.43 c p3
258.65 467.00 0.43 c p3
258.80 467.12 0.43 c p3
258.94 467.00 0.43 c p3
259.09 467.00 0.43 c p3
259.23 468.38 0.43 c p3
259.38 468.50 0.43 c p3
259.52 468.22 0.43 c p3
259.67 468.65 0.43 c p3
259.82 469.17 0.43 c p3
259.96 468.38 0.43 c p3
260.11 469.17 0.43 c p3
260.25 469.60 0.43 c p3
260.40 469.33 0.43 c p3
260.54 470.15 0.43 c p3
260.69 470.15 0.43 c p3
260.83 470.55 0.43 c p3
260.98 470.70 0.43 c p3
261.13 470.98 0.43 c p3
261.27 471.10 0.43 c p3
261.42 471.37 0.43 c p3
261.56 471.37 0.43 c p3
261.71 471.92 0.43 c p3
261.85 472.08 0.43 c p3
262.00 471.92 0.43 c p3
262.15 471.53 0.43 c p3
262.29 472.35 0.43 c p3
262.44 473.73 0.43 c p3
262.58 472.47 0.43 c p3
262.73 473.18 0.43 c p3
262.87 473.02 0.43 c p3
263.02 473.73 0.43 c p3
263.16 473.73 0.43 c p3
263.31 473.73 0.43 c p3
263.46 474.00 0.43 c p3
263.60 474.28 0.43 c p3
263.75 474.40 0.43 c p3
263.89 475.07 0.43 c p3
264.04 474.95 0.43 c p3
264.18 475.50 0.43 c p3
264.33 474.67 0.43 c p3
264.47 476.05 0.43 c p3
264.62 475.23 0.43 c p3
264.77 475.78 0.43 c p3
264.91 475.62 0.43 c p3
265.06 476.45 0.43 c p3
265.20 475.50 0.43 c p3
265.35 476.72 0.43 c p3
265.49 477.43 0.43 c p3
265.64 476.88 0.43 c p3
265.78 477.00 0.43 c p3
265.93 477.43 0.43 c p3
266.08 477.43 0.43 c p3
266.22 477.70 0.43 c p3
266.37 477.15 0.43 c p3
266.51 478.10 0.43 c p3
266.66 477.70 0.43 c p3
266.80 478.25 0.43 c p3
266.95 478.10 0.43 c p3
267.10 478.80 0.43 c p3
267.24 477.98 0.43 c p3
267.39 479.08 0.43 c p3
267.53 479.20 0.43 c p3
267.68 478.92 0.43 c p3
267.82 479.20 0.43 c p3
267.97 479.63 0.43 c p3
268.11 479.47 0.43 c p3
268.26 479.75 0.43 c p3
268.41 480.18 0.43 c p3
268.55 480.18 0.43 c p3
268.70 480.73 0.43 c p3
268.84 480.57 0.43 c p3
268.99 481.12 0.43 c p3
269.13 480.57 0.43 c p3
269.28 481.12 0.43 c p3
269.42 481.68 0.43 c p3
269.57 481.52 0.43 c p3
269.72 481.12 0.43 c p3
269.86 482.50 0.43 c p3
270.01 481.68 0.43 c p3
270.15 482.23 0.43 c p3
270.30 482.50 0.43 c p3
270.44 482.23 0.43 c p3
270.59 482.35 0.43 c p3
270.73 482.62 0.43 c p3
270.88 482.90 0.43 c p3
271.03 482.23 0.43 c p3
271.17 482.62 0.43 c p3
271.32 483.33 0.43 c p3
271.46 483.05 0.43 c p3
271.61 483.17 0.43 c p3
271.75 484.00 0.43 c p3
271.90 484.15 0.43 c p3
272.05 483.72 0.43 c p3
272.19 483.72 0.43 c p3
272.34 484.43 0.43 c p3
272.48 484.00 0.43 c p3
272.63 484.00 0.43 c p3
272.77 485.25 0.43 c p3
272.92 485.25 0.43 c p3
273.06 484.43 0.43 c p3
273.21 485.25 0.43 c p3
273.36 484.55 0.43 c p3
273.50 486.08 0.43 c p3
273.65 485.65 0.43 c p3
273.79 486.20 0.43 c p3
273.94 485.10 0.43 c p3
274.08 486.20 0.43 c p3
274.23 486.20 0.43 c p3
274.37 485.80 0.43 c p3
274.52 486.47 0.43 c p3
274.67 486.47 0.43 c p3
274.81 486.47 0.43 c p3
274.96 486.63 0.43 c p3
275.10 486.20 0.43 c p3
275.25 487.30 0.43 c p3
275.39 486.20 0.43 c p3
275.54 487.30 0.43 c p3
275.68 486.63 0.43 c p3
275.83 487.42 0.43 c p3
275.98 487.02 0.43 c p3
276.12 487.15 0.43 c p3
276.27 487.58 0.43 c p3
276.41 487.58 0.43 c p3
276.56 487.42 0.43 c p3
276.70 488.40 0.43 c p3
276.85 487.85 0.43 c p3
277.00 488.25 0.43 c p3
277.14 488.40 0.43 c p3
277.29 488.40 0.43 c p3
277.43 487.58 0.43 c p3
277.58 488.40 0.43 c p3
277.72 488.52 0.43 c p3
277.87 489.35 0.43 c p3
278.01 489.23 0.43 c p3
278.16 489.62 0.43 c p3
278.31 489.07 0.43 c p3
278.45 489.62 0.43 c p3
278.60 489.35 0.43 c p3
278.74 489.50 0.43 c p3
278.89 490.05 0.43 c p3
279.03 490.33 0.43 c p3
279.18 489.50 0.43 c p3
279.32 489.90 0.43 c p3
279.47 488.95 0.43 c p3
279.62 490.33 0.43 c p3
279.76 490.05 0.43 c p3
279.91 490.60 0.43 c p3
280.05 489.90 0.43 c p3
280.20 491.00 0.43 c p3
280.34 490.60 0.43 c p3
280.49 491.00 0.43 c p3
280.63 490.45 0.43 c p3
280.78 491.27 0.43 c p3
280.93 491.15 0.43 c p3
281.07 492.37 0.43 c p3
281.22 491.43 0.43 c p3
281.36 491.70 0.43 c p3
281.51 491.70 0.43 c p3
281.65 491.82 0.43 c p3
281.80 491.43 0.43 c p3
281.95 492.25 0.43 c p3
282.09 491.55 0.43 c p3
282.24 492.37 0.43 c p3
282.38 491.70 0.43 c p3
282.53 491.98 0.43 c p3
282.67 492.37 0.43 c p3
282.82 493.20 0.43 c p3
282.96 492.92 0.43 c p3
283.11 492.65 0.43 c p3
283.26 493.47 0.43 c p3
283.40 493.47 0.43 c p3
283.55 492.50 0.43 c p3
283.69 492.92 0.43 c p3
283.84 492.77 0.43 c p3
283.98 492.92 0.43 c p3
284.13 492.92 0.43 c p3
284.27 493.47 0.43 c p3
284.42 492.92 0.43 c p3
284.57 494.42 0.43 c p3
284.71 493.05 0.43 c p3
284.86 493.32 0.43 c p3
285.00 493.47 0.43 c p3
285.15 493.47 0.43 c p3
285.29 493.47 0.43 c p3
285.44 494.58 0.43 c p3
285.58 493.87 0.43 c p3
285.73 494.30 0.43 c p3
285.88 494.42 0.43 c p3
286.02 494.30 0.43 c p3
286.17 494.42 0.43 c p3
286.31 495.13 0.43 c p3
286.46 494.42 0.43 c p3
286.60 494.97 0.43 c p3
286.75 494.30 0.43 c p3
286.89 495.13 0.43 c p3
287.04 494.58 0.43 c p3
287.19 495.13 0.43 c p3
287.33 494.85 0.43 c p3
287.48 495.80 0.43 c p3
287.62 495.52 0.43 c p3
287.77 494.97 0.43 c p3
287.91 494.85 0.43 c p3
288.06 495.40 0.43 c p3
288.21 496.07 0.43 c p3
288.35 496.07 0.43 c p3
288.50 495.52 0.43 c p3
288.64 496.07 0.43 c p3
288.79 495.80 0.43 c p3
288.93 496.07 0.43 c p3
289.08 495.52 0.43 c p3
289.22 495.68 0.43 c p3
289.37 495.52 0.43 c p3
289.52 496.07 0.43 c p3
289.66 495.95 0.43 c p3
289.81 496.07 0.43 c p3
289.95 496.07 0.43 c p3
290.10 496.62 0.43 c p3
290.24 496.50 0.43 c p3
290.39 496.62 0.43 c p3
290.53 496.78 0.43 c p3
290.68 496.78 0.43 c p3
290.83 496.78 0.43 c p3
290.97 497.05 0.43 c p3
291.12 496.90 0.43 c p3
291.26 497.33 0.43 c p3
291.41 497.05 0.43 c p3
291.55 497.17 0.43 c p3
291.70 497.33 0.43 c p3
291.84 497.72 0.43 c p3
291.99 497.45 0.43 c p3
292.14 497.72 0.43 c p3
292.28 497.45 0.43 c p3
292.43 497.33 0.43 c p3
292.57 497.45 0.43 c p3
292.72 498.27 0.43 c p3
292.86 497.72 0.43 c p3
293.01 497.88 0.43 c p3
293.16 496.90 0.43 c p3
293.30 498.40 0.43 c p3
293.45 498.55 0.43 c p3
293.59 498.55 0.43 c p3
293.74 497.72 0.43 c p3
293.88 498.55 0.43 c p3
294.03 498.27 0.43 c p3
294.17 498.55 0.43 c p3
294.32 497.88 0.43 c p3
294.47 498.40 0.43 c p3
294.61 498.82 0.43 c p3
294.76 498.67 0.43 c p3
294.90 498.40 0.43 c p3
295.05 498.67 0.43 c p3
295.19 498.82 0.43 c p3
295.34 499.37 0.43 c p3
295.48 498.95 0.43 c p3
295.63 499.50 0.43 c p3
295.78 499.37 0.43 c p3
295.92 499.77 0.43 c p3
296.07 499.22 0.43 c p3
296.21 499.65 0.43 c p3
296.36 499.22 0.43 c p3
296.50 499.10 0.43 c p3
296.65 498.95 0.43 c p3
296.79 499.50 0.43 c p3
296.94 499.22 0.43 c p3
297.09 499.65 0.43 c p3
297.23 498.95 0.43 c p3
297.38 499.93 0.43 c p3
297.52 500.05 0.43 c p3
297.67 499.93 0.43 c p3
297.81 499.65 0.43 c p3
297.96 500.60 0.43 c p3
298.11 499.77 0.43 c p3
298.25 500.20 0.43 c p3
298.40 499.93 0.43 c p3
298.54 499.77 0.43 c p3
298.69 500.32 0.43 c p3
298.83 500.60 0.43 c p3
298.98 500.20 0.43 c p3
299.12 500.87 0.43 c p3
299.27 499.77 0.43 c p3
299.42 500.87 0.43 c p3
299.56 500.32 0.43 c p3
299.71 499.93 0.43 c p3
299.85 500.48 0.43 c p3
300.00 500.87 0.43 c p3
300.14 500.75 0.43 c p3
300.29 501.30 0.43 c p3
300.43 500.48 0.43 c p3
300.58 500.87 0.43 c p3
300.73 500.75 0.43 c p3
300.87 501.03 0.43 c p3
301.02 500.20 0.43 c p3
301.16 501.03 0.43 c p3
301.31 501.15 0.43 c p3
301.45 501.42 0.43 c p3
301.60 500.32 0.43 c p3
301.74 501.30 0.43 c p3
301.89 501.03 0.43 c p3
302.04 500.32 0.43 c p3
302.18 501.58 0.43 c p3
302.33 502.25 0.43 c p3
302.47 501.15 0.43 c p3
302.62 501.03 0.43 c p3
302.76 501.42 0.43 c p3
302.91 501.97 0.43 c p3
303.06 501.15 0.43 c p3
303.20 501.42 0.43 c p3
303.35 502.13 0.43 c p3
303.49 501.97 0.43 c p3
303.64 501.85 0.43 c p3
303.78 502.25 0.43 c p3
303.93 501.30 0.43 c p3
304.07 501.58 0.43 c p3
304.22 501.97 0.43 c p3
304.37 502.40 0.43 c p3
304.51 502.25 0.43 c p3
304.66 502.25 0.43 c p3
304.80 501.97 0.43 c p3
304.95 501.70 0.43 c p3
305.09 502.25 0.43 c p3
305.24 502.13 0.43 c p3
305.38 501.85 0.43 c p3
305.53 502.13 0.43 c p3
305.68 501.70 0.43 c p3
305.82 501.97 0.43 c p3
305.97 502.25 0.43 c p3
306.11 503.23 0.43 c p3
306.26 501.97 0.43 c p3
306.40 501.97 0.43 c p3
306.55 503.07 0.43 c p3
306.69 502.80 0.43 c p3
306.84 502.68 0.43 c p3
306.99 502.80 0.43 c p3
307.13 502.40 0.43 c p3
307.28 503.23 0.43 c p3
307.42 502.40 0.43 c p3
307.57 503.62 0.43 c p3
307.71 503.07 0.43 c p3
307.86 502.68 0.43 c p3
308.01 502.25 0.43 c p3
308.15 502.95 0.43 c p3
308.30 503.50 0.43 c p3
308.44 503.23 0.43 c p3
308.59 502.95 0.43 c p3
308.73 503.23 0.43 c p3
308.88 503.23 0.43 c p3
309.02 503.62 0.43 c p3
309.17 502.40 0.43 c p3
309.32 503.62 0.43 c p3
309.46 502.13 0.43 c p3
309.61 502.95 0.43 c p3
309.75 504.05 0.43 c p3
309.90 502.95 0.43 c p3
310.04 502.40 0.43 c p3
310.19 503.90 0.43 c p3
310.33 503.23 0.43 c p3
310.48 503.62 0.43 c p3
310.63 502.95 0.43 c p3
310.77 504.05 0.43 c p3
310.92 503.50 0.43 c p3
311.06 503.78 0.43 c p3
311.21 503.90 0.43 c p3
311.35 504.30 0.43 c p3
311.50 504.05 0.43 c p3
311.64 503.62 0.43 c p3
311.79 504.17 0.43 c p3
311.94 504.05 0.43 c p3
312.08 503.78 0.43 c p3
312.23 504.30 0.43 c p3
312.37 505.12 0.43 c p3
312.52 503.35 0.43 c p3
312.66 504.45 0.43 c p3
312.81 504.57 0.43 c p3
312.96 503.50 0.43 c p3
313.10 503.62 0.43 c p3
313.25 504.57 0.43 c p3
313.39 504.30 0.43 c p3
313.54 503.78 0.43 c p3
313.68 504.72 0.43 c p3
313.83 504.17 0.43 c p3
313.97 504.72 0.43 c p3
314.12 504.57 0.43 c p3
314.27 505.00 0.43 c p3
314.41 503.50 0.43 c p3
314.56 504.72 0.43 c p3
314.70 504.57 0.43 c p3
314.85 504.57 0.43 c p3
314.99 503.90 0.43 c p3
315.14 505.40 0.43 c p3
315.28 504.72 0.43 c p3
315.43 505.40 0.43 c p3
315.58 504.05 0.43 c p3
315.72 505.40 0.43 c p3
315.87 504.72 0.43 c p3
316.01 504.72 0.43 c p3
316.16 504.30 0.43 c p3
316.30 505.27 0.43 c p3
316.45 504.72 0.43 c p3
316.59 504.45 0.43 c p3
316.74 504.72 0.43 c p3
316.89 505.27 0.43 c p3
317.03 504.57 0.43 c p3
317.18 505.82 0.43 c p3
317.32 504.30 0.43 c p3
317.47 504.85 0.43 c p3
317.61 504.72 0.43 c p3
317.76 504.72 0.43 c p3
317.91 505.27 0.43 c p3
318.05 505.55 0.43 c p3
318.20 505.00 0.43 c p3
318.34 505.82 0.43 c p3
318.49 505.27 0.43 c p3
318.63 505.27 0.43 c p3
318.78 505.00 0.43 c p3
318.92 505.55 0.43 c p3
319.07 504.85 0.43 c p3
319.22 505.67 0.43 c p3
319.36 505.40 0.43 c p3
319.51 505.67 0.43 c p3
319.65 505.12 0.43 c p3
319.80 505.67 0.43 c p3
319.94 505.82 0.43 c p3
320.09 505.40 0.43 c p3
320.23 505.00 0.43 c p3
320.38 506.10 0.43 c p3
320.53 505.12 0.43 c p3
320.67 505.12 0.43 c p3
320.82 505.55 0.43 c p3
320.96 505.95 0.43 c p3
321.11 505.67 0.43 c p3
321.25 506.10 0.43 c p3
321.40 505.12 0.43 c p3
321.54 505.67 0.43 c p3
321.69 505.00 0.43 c p3
321.84 506.10 0.43 c p3
321.98 505.67 0.43 c p3
322.13 505.40 0.43 c p3
322.27 505.82 0.43 c p3
322.42 505.82 0.43 c p3
322.56 505.67 0.43 c p3
322.71 506.22 0.43 c p3
322.85 505.55 0.43 c p3
323.00 505.95 0.43 c p3
323.15 505.27 0.43 c p3
323.29 506.22 0.43 c p3
323.44 505.95 0.43 c p3
323.58 505.82 0.43 c p3
323.73 506.38 0.43 c p3
323.87 505.95 0.43 c p3
324.02 505.67 0.43 c p3
324.17 506.22 0.43 c p3
324.31 505.82 0.43 c p3
324.46 506.10 0.43 c p3
324.60 506.50 0.43 c p3
324.75 506.65 0.43 c p3
324.89 506.10 0.43 c p3
325.04 506.93 0.43 c p3
325.18 506.38 0.43 c p3
325.33 505.67 0.43 c p3
325.48 506.22 0.43 c p3
325.62 506.93 0.43 c p3
325.77 506.38 0.43 c p3
325.91 507.05 0.43 c p3
326.06 506.38 0.43 c p3
326.20 506.77 0.43 c p3
326.35 505.95 0.43 c p3
326.49 506.65 0.43 c p3
326.64 506.10 0.43 c p3
326.79 507.05 0.43 c p3
326.93 506.50 0.43 c p3
327.08 506.22 0.43 c p3
327.22 506.38 0.43 c p3
327.37 506.65 0.43 c p3
327.51 506.77 0.43 c p3
327.66 506.50 0.43 c p3
327.80 507.20 0.43 c p3
327.95 507.32 0.43 c p3
328.10 506.50 0.43 c p3
328.24 507.05 0.43 c p3
328.39 506.38 0.43 c p3
328.53 507.05 0.43 c p3
328.68 506.50 0.43 c p3
328.82 506.77 0.43 c p3
328.97 506.77 0.43 c p3
329.12 507.60 0.43 c p3
329.26 506.93 0.43 c p3
329.41 507.32 0.43 c p3
329.55 506.93 0.43 c p3
329.70 506.65 0.43 c p3
329.84 506.38 0.43 c p3
329.99 506.77 0.43 c p3
330.13 507.05 0.43 c p3
330.28 507.32 0.43 c p3
330.43 506.65 0.43 c p3
330.57 507.75 0.43 c p3
330.72 506.93 0.43 c p3
330.86 507.20 0.43 c p3
331.01 506.65 0.43 c p3
331.15 507.20 0.43 c p3
331.30 507.05 0.43 c p3
331.44 507.20 0.43 c p3
331.59 507.60 0.43 c p3
331.74 506.93 0.43 c p3
331.88 507.05 0.43 c p3
332.03 507.32 0.43 c p3
332.17 507.05 0.43 c p3
332.32 507.75 0.43 c p3
332.46 506.77 0.43 c p3
332.61 507.87 0.43 c p3
332.75 507.32 0.43 c p3
332.90 506.93 0.43 c p3
333.05 507.48 0.43 c p3
333.19 507.87 0.43 c p3
333.34 506.77 0.43 c p3
333.48 507.60 0.43 c p3
333.63 507.87 0.43 c p3
333.77 507.75 0.43 c p3
333.92 506.93 0.43 c p3
334.07 507.05 0.43 c p3
334.21 507.20 0.43 c p3
334.36 507.32 0.43 c p3
334.50 507.32 0.43 c p3
334.65 507.87 0.43 c p3
334.79 507.05 0.43 c p3
334.94 507.48 0.43 c p3
335.08 507.05 0.43 c p3
335.23 508.58 0.43 c p3
335.38 507.32 0.43 c p3
335.52 507.87 0.43 c p3
335.67 508.03 0.43 c p3
335.81 507.87 0.43 c p3
335.96 507.87 0.43 c p3
336.10 507.60 0.43 c p3
336.25 507.20 0.43 c p3
336.39 507.32 0.43 c p3
336.54 507.48 0.43 c p3
336.69 507.87 0.43 c p3
336.83 507.05 0.43 c p3
336.98 508.85 0.43 c p3
337.12 508.03 0.43 c p3
337.27 508.58 0.43 c p3
337.41 508.03 0.43 c p3
337.56 507.60 0.43 c p3
337.70 507.48 0.43 c p3
337.85 508.30 0.43 c p3
338.00 507.48 0.43 c p3
338.14 508.42 0.43 c p3
338.29 507.60 0.43 c p3
338.43 508.15 0.43 c p3
338.58 507.87 0.43 c p3
338.72 508.15 0.43 c p3
338.87 508.42 0.43 c p3
339.02 508.42 0.43 c p3
339.16 508.03 0.43 c p3
339.31 508.15 0.43 c p3
339.45 508.03 0.43 c p3
339.60 507.87 0.43 c p3
339.74 507.60 0.43 c p3
339.89 508.30 0.43 c p3
340.03 508.03 0.43 c p3
340.18 508.42 0.43 c p3
340.33 507.87 0.43 c p3
340.47 508.70 0.43 c p3
340.62 508.30 0.43 c p3
340.76 508.03 0.43 c p3
340.91 508.03 0.43 c p3
341.05 508.97 0.43 c p3
341.20 508.42 0.43 c p3
341.34 508.30 0.43 c p3
341.49 508.30 0.43 c p3
341.64 508.58 0.43 c p3
341.78 508.15 0.43 c p3
341.93 509.25 0.43 c p3
342.07 507.87 0.43 c p3
342.22 509.13 0.43 c p3
342.36 508.42 0.43 c p3
342.51 508.70 0.43 c p3
342.65 508.30 0.43 c p3
342.80 509.52 0.43 c p3
342.95 508.30 0.43 c p3
343.09 508.42 0.43 c p3
343.24 508.30 0.43 c p3
343.38 508.42 0.43 c p3
343.53 507.48 0.43 c p3
343.67 508.58 0.43 c p3
343.82 508.15 0.43 c p3
343.97 508.70 0.43 c p3
344.11 508.70 0.43 c p3
344.26 508.42 0.43 c p3
344.40 508.97 0.43 c p3
344.55 508.58 0.43 c p3
344.69 508.85 0.43 c p3
344.84 509.13 0.43 c p3
344.98 508.42 0.43 c p3
345.13 508.85 0.43 c p3
345.28 508.15 0.43 c p3
345.42 508.85 0.43 c p3
345.57 508.42 0.43 c p3
345.71 508.70 0.43 c p3
345.86 508.58 0.43 c p3
346.00 509.40 0.43 c p3
346.15 508.97 0.43 c p3
346.29 509.25 0.43 c p3
346.44 508.42 0.43 c p3
346.59 508.85 0.43 c p3
346.73 508.70 0.43 c p3
346.88 509.13 0.43 c p3
347.02 509.40 0.43 c p3
347.17 508.97 0.43 c p3
347.31 508.58 0.43 c p3
347.46 508.85 0.43 c p3
347.60 509.25 0.43 c p3
347.75 510.07 0.43 c p3
347.90 508.97 0.43 c p3
348.04 509.13 0.43 c p3
348.19 508.70 0.43 c p3
348.33 509.40 0.43 c p3
348.48 509.25 0.43 c p3
348.62 509.40 0.43 c p3
348.77 508.85 0.43 c p3
348.92 509.25 0.43 c p3
349.06 508.97 0.43 c p3
349.21 509.95 0.43 c p3
349.35 509.13 0.43 c p3
349.50 509.68 0.43 c p3
349.64 509.13 0.43 c p3
349.79 508.97 0.43 c p3
349.93 508.97 0.43 c p3
350.08 509.68 0.43 c p3
350.23 509.25 0.43 c p3
350.37 509.25 0.43 c p3
350.52 509.40 0.43 c p3
350.66 508.70 0.43 c p3
350.81 509.13 0.43 c p3
350.95 509.52 0.43 c p3
351.10 509.13 0.43 c p3
351.24 509.40 0.43 c p3
351.39 508.97 0.43 c p3
351.54 509.25 0.43 c p3
351.68 509.13 0.43 c p3
351.83 510.20 0.43 c p3
351.97 508.97 0.43 c p3
352.12 509.95 0.43 c p3
352.26 509.68 0.43 c p3
352.41 509.25 0.43 c p3
352.55 509.40 0.43 c p3
352.70 509.25 0.43 c p3
352.85 509.52 0.43 c p3
352.99 509.95 0.43 c p3
353.14 509.52 0.43 c p3
353.28 509.13 0.43 c p3
353.43 509.95 0.43 c p3
353.57 509.68 0.43 c p3
353.72 508.85 0.43 c p3
353.86 510.07 0.43 c p3
354.01 509.25 0.43 c p3
354.16 509.52 0.43 c p3
354.30 509.68 0.43 c p3
354.45 509.95 0.43 c p3
354.59 509.25 0.43 c p3
354.74 509.68 0.43 c p3
354.88 509.52 0.43 c p3
355.03 509.80 0.43 c p3
355.18 509.52 0.43 c p3
355.32 509.80 0.43 c p3
355.47 509.25 0.43 c p3
355.61 509.68 0.43 c p3
355.76 509.68 0.43 c p3
355.90 509.25 0.43 c p3
356.05 510.07 0.43 c p3
356.19 510.90 0.43 c p3
356.34 509.40 0.43 c p3
356.49 510.20 0.43 c p3
356.63 509.25 0.43 c p3
356.78 509.80 0.43 c p3
356.92 509.52 0.43 c p3
357.07 509.68 0.43 c p3
357.21 509.52 0.43 c p3
357.36 509.25 0.43 c p3
357.50 509.80 0.43 c p3
357.65 510.07 0.43 c p3
357.80 509.95 0.43 c p3
357.94 509.80 0.43 c p3
358.09 509.80 0.43 c p3
358.23 510.35 0.43 c p3
358.38 508.85 0.43 c p3
358.52 510.47 0.43 c p3
358.67 509.95 0.43 c p3
358.81 510.90 0.43 c p3
358.96 509.40 0.43 c p3
359.11 510.47 0.43 c p3
359.25 509.80 0.43 c p3
359.40 510.35 0.43 c p3
359.54 509.40 0.43 c p3
359.69 510.20 0.43 c p3
359.83 509.40 0.43 c p3
359.98 509.68 0.43 c p3
360.13 510.07 0.43 c p3
360.27 509.95 0.43 c p3
360.42 510.35 0.43 c p3
360.56 510.47 0.43 c p3
360.71 509.25 0.43 c p3
360.85 510.07 0.43 c p3
361.00 510.07 0.43 c p3
361.14 510.20 0.43 c p3
361.29 509.80 0.43 c p3
361.44 510.07 0.43 c p3
361.58 509.80 0.43 c p3
361.73 510.35 0.43 c p3
361.87 509.68 0.43 c p3
362.02 510.62 0.43 c p3
362.16 510.35 0.43 c p3
362.31 510.35 0.43 c p3
362.45 510.75 0.43 c p3
362.60 510.47 0.43 c p3
362.75 509.68 0.43 c p3
362.89 510.90 0.43 c p3
363.04 510.20 0.43 c p3
363.18 511.30 0.43 c p3
363.33 510.62 0.43 c p3
363.47 510.47 0.43 c p3
363.62 510.35 0.43 c p3
363.76 511.02 0.43 c p3
363.91 510.62 0.43 c p3
364.06 510.75 0.43 c p3
364.20 510.20 0.43 c p3
364.35 511.02 0.43 c p3
364.49 510.20 0.43 c p3
364.64 510.90 0.43 c p3
364.78 510.90 0.43 c p3
364.93 510.62 0.43 c p3
365.08 510.20 0.43 c p3
365.22 511.02 0.43 c p3
365.37 510.90 0.43 c p3
365.51 510.75 0.43 c p3
365.66 510.90 0.43 c p3
365.80 511.45 0.43 c p3
365.95 509.95 0.43 c p3
366.09 511.02 0.43 c p3
366.24 510.35 0.43 c p3
366.39 510.20 0.43 c p3
366.53 510.47 0.43 c p3
366.68 510.62 0.43 c p3
366.82 509.95 0.43 c p3
366.97 511.02 0.43 c p3
367.11 510.62 0.43 c p3
367.26 510.47 0.43 c p3
367.40 511.02 0.43 c p3
367.55 510.47 0.43 c p3
367.70 510.07 0.43 c p3
367.84 511.17 0.43 c p3
367.99 510.47 0.43 c p3
368.13 510.90 0.43 c p3
368.28 510.75 0.43 c p3
368.42 510.62 0.43 c p3
368.57 510.47 0.43 c p3
368.71 510.75 0.43 c p3
368.86 510.62 0.43 c p3
369.01 510.47 0.43 c p3
369.15 510.75 0.43 c p3
369.30 511.17 0.43 c p3
369.44 510.20 0.43 c p3
369.59 511.17 0.43 c p3
369.73 510.75 0.43 c p3
369.88 511.57 0.43 c p3
370.03 510.35 0.43 c p3
370.17 511.45 0.43 c p3
370.32 510.07 0.43 c p3
370.46 511.17 0.43 c p3
370.61 510.35 0.43 c p3
370.75 511.45 0.43 c p3
370.90 511.02 0.43 c p3
371.04 510.20 0.43 c p3
371.19 510.75 0.43 c p3
371.34 511.57 0.43 c p3
371.48 510.90 0.43 c p3
371.63 511.72 0.43 c p3
371.77 510.75 0.43 c p3
371.92 511.30 0.43 c p3
372.06 510.75 0.43 c p3
372.21 511.02 0.43 c p3
372.35 510.90 0.43 c p3
372.50 511.02 0.43 c p3
372.65 510.90 0.43 c p3
372.79 511.17 0.43 c p3
372.94 510.35 0.43 c p3
373.08 511.17 0.43 c p3
373.23 511.30 0.43 c p3
373.37 511.30 0.43 c p3
373.52 510.75 0.43 c p3
373.66 511.30 0.43 c p3
373.81 510.20 0.43 c p3
373.96 511.85 0.43 c p3
374.10 510.90 0.43 c p3
374.25 510.90 0.43 c p3
374.39 511.45 0.43 c p3
374.54 511.45 0.43 c p3
374.68 511.02 0.43 c p3
374.83 511.30 0.43 c p3
374.98 511.02 0.43 c p3
375.12 511.02 0.43 c p3
375.27 511.45 0.43 c p3
375.41 511.30 0.43 c p3
375.56 510.75 0.43 c p3
375.70 511.17 0.43 c p3
375.85 511.30 0.43 c p3
375.99 511.30 0.43 c p3
376.14 511.17 0.43 c p3
376.29 511.85 0.43 c p3
376.43 510.47 0.43 c p3
376.58 511.45 0.43 c p3
376.72 511.17 0.43 c p3
376.87 511.45 0.43 c p3
377.01 511.02 0.43 c p3
377.16 511.02 0.43 c p3
377.30 511.45 0.43 c p3
377.45 511.85 0.43 c p3
377.60 511.30 0.43 c p3
377.74 511.72 0.43 c p3
377.89 511.45 0.43 c p3
378.03 511.45 0.43 c p3
378.18 511.17 0.43 c p3
378.32 511.85 0.43 c p3
378.47 510.35 0.43 c p3
378.61 511.45 0.43 c p3
378.76 511.30 0.43 c p3
378.91 511.45 0.43 c p3
379.05 511.17 0.43 c p3
379.20 511.57 0.43 c p3
379.34 511.72 0.43 c p3
379.49 512.00 0.43 c p3
379.63 511.02 0.43 c p3
379.78 512.00 0.43 c p3
379.93 511.30 0.43 c p3
380.07 511.72 0.43 c p3
380.22 510.90 0.43 c p3
380.36 511.45 0.43 c p3
380.51 511.17 0.43 c p3
380.65 511.72 0.43 c p3
380.80 511.85 0.43 c p3
380.94 511.57 0.43 c p3
381.09 510.75 0.43 c p3
381.24 511.57 0.43 c p3
381.38 510.90 0.43 c p3
381.53 511.72 0.43 c p3
381.67 511.30 0.43 c p3
381.82 511.57 0.43 c p3
381.96 511.17 0.43 c p3
382.11 511.57 0.43 c p3
382.25 511.57 0.43 c p3
382.40 511.02 0.43 c p3
0.00 0.00 432.00 576.00 cl
0 0 0 srgb
0.75 setlinewidth
[] 0 setdash
1 setlinecap
1 setlinejoin
10.00 setmiterlimit
np
236.96 345.60 m
145.59 0 l
o
np
236.96 345.60 m
0 -5.76 l
o
np
266.08 345.60 m
0 -5.76 l
o
np
295.19 345.60 m
0 -5.76 l
o
np
324.31 345.60 m
0 -5.76 l
o
np
353.43 345.60 m
0 -5.76 l
o
np
382.55 345.60 m
0 -5.76 l
o
/Font1 findfont 10 s
236.96 329.47 (0) .5 0 t
266.08 329.47 (2000) .5 0 t
324.31 329.47 (6000) .5 0 t
382.55 329.47 (10000) .5 0 t
np
216.00 352.00 m
0 150.25 l
o
np
216.00 352.00 m
-5.76 0 l
o
np
216.00 377.04 m
-5.76 0 l
o
np
216.00 402.08 m
-5.76 0 l
o
np
216.00 427.12 m
-5.76 0 l
o
np
216.00 452.17 m
-5.76 0 l
o
np
216.00 477.21 m
-5.76 0 l
o
np
216.00 502.25 m
-5.76 0 l
o
209.09 348.41 (0.0) 1 0 t
209.09 373.45 (0.2) 1 0 t
209.09 398.49 (0.4) 1 0 t
209.09 423.53 (0.6) 1 0 t
209.09 448.58 (0.8) 1 0 t
209.09 473.62 (1.0) 1 0 t
209.09 498.66 (1.2) 1 0 t
np
216.00 345.60 m
172.80 0 l
0 172.80 l
-172.80 0 l
0 -172.80 l
o
0.00 0.00 432.00 576.00 cl
/Font1 findfont 10 s
0 0 0 srgb
302.40 313.34 (Zeit / ms \(total\)) .5 0 t
190.66 432.00 (U / V) .5 90 t
216.00 345.60 388.80 518.40 cl
0 0 0 srgb
0.38 setlinewidth
[ 1.12 1.88] 0 setdash
1 setlinecap
1 setlinejoin
10.00 setmiterlimit
np
223.71 345.60 m
0 172.80 l
o
np
233.90 345.60 m
0 172.80 l
o
np
240.89 345.60 m
0 172.80 l
o
np
367.99 345.60 m
0 172.80 l
o
86.40 57.60 388.80 288.00 cl
1 0 0 srgb
1.50 setlinewidth
[] 0 setdash
1 setlinecap
1 setlinejoin
10.00 setmiterlimit
np
97.60 279.47 m
1.41 -7.12 l
1.40 -6.87 l
1.41 -6.65 l
1.41 -6.42 l
1.41 -6.21 l
1.40 -6.01 l
1.41 -5.80 l
1.41 -5.61 l
1.40 -5.43 l
1.41 -5.24 l
1.41 -5.07 l
1.40 -4.90 l
1.41 -4.74 l
1.41 -4.58 l
1.41 -4.42 l
1.40 -4.28 l
1.41 -4.14 l
1.41 -4.00 l
1.40 -3.87 l
1.41 -3.73 l
1.41 -3.62 l
1.40 -3.49 l
1.41 -3.37 l
1.41 -3.27 l
1.41 -3.15 l
1.40 -3.05 l
1.41 -2.95 l
1.41 -2.85 l
1.40 -2.76 l
1.41 -2.66 l
1.41 -2.58 l
1.41 -2.49 l
1.40 -2.40 l
1.41 -2.33 l
1.41 -2.25 l
1.40 -2.17 l
1.41 -2.10 l
1.41 -2.03 l
1.40 -1.97 l
1.41 -1.90 l
1.41 -1.83 l
1.41 -1.77 l
1.40 -1.72 l
1.41 -1.66 l
1.41 -1.60 l
1.40 -1.55 l
1.41 -1.50 l
1.41 -1.45 l
1.40 -1.40 l
1.41 -1.35 l
1.41 -1.31 l
1.41 -1.26 l
1.40 -1.22 l
1.41 -1.18 l
1.41 -1.15 l
1.40 -1.10 l
1.41 -1.07 l
1.41 -1.03 l
1.41 -1.00 l
1.40 -0.96 l
1.41 -0.94 l
1.41 -0.90 l
1.40 -0.87 l
1.41 -0.84 l
1.41 -0.81 l
1.40 -0.79 l
1.41 -0.76 l
1.41 -0.74 l
1.41 -0.71 l
1.40 -0.69 l
1.41 -0.66 l
1.41 -0.64 l
1.40 -0.62 l
1.41 -0.60 l
1.41 -0.58 l
1.40 -0.56 l
1.41 -0.55 l
1.41 -0.52 l
1.41 -0.51 l
1.40 -0.49 l
1.41 -0.47 l
1.41 -0.46 l
1.40 -0.44 l
1.41 -0.43 l
1.41 -0.41 l
1.41 -0.40 l
1.40 -0.39 l
1.41 -0.37 l
1.41 -0.36 l
1.40 -0.35 l
1.41 -0.34 l
1.41 -0.33 l
1.40 -0.31 l
1.41 -0.31 l
1.41 -0.29 l
1.41 -0.29 l
1.40 -0.27 l
1.41 -0.27 l
1.41 -0.26 l
238.30 73.10 lineto
1.41 -0.24 l
1.41 -0.23 l
1.40 -0.22 l
1.41 -0.22 l
1.41 -0.21 l
1.41 -0.20 l
1.40 -0.20 l
1.41 -0.19 l
1.41 -0.18 l
1.40 -0.18 l
1.41 -0.17 l
1.41 -0.17 l
1.40 -0.16 l
1.41 -0.15 l
1.41 -0.15 l
1.41 -0.15 l
1.40 -0.14 l
1.41 -0.13 l
1.41 -0.13 l
1.40 -0.13 l
1.41 -0.12 l
1.41 -0.12 l
1.41 -0.11 l
1.40 -0.11 l
1.41 -0.11 l
1.41 -0.10 l
1.40 -0.10 l
1.41 -0.10 l
1.41 -0.09 l
1.40 -0.09 l
1.41 -0.09 l
1.41 -0.09 l
1.41 -0.08 l
1.40 -0.08 l
1.41 -0.07 l
1.41 -0.07 l
1.40 -0.08 l
1.41 -0.06 l
1.41 -0.07 l
1.40 -0.07 l
1.41 -0.06 l
1.41 -0.06 l
1.41 -0.06 l
1.40 -0.05 l
1.41 -0.06 l
1.41 -0.05 l
1.40 -0.05 l
1.41 -0.05 l
1.41 -0.05 l
1.41 -0.04 l
1.40 -0.05 l
1.41 -0.04 l
1.41 -0.04 l
1.40 -0.04 l
1.41 -0.04 l
1.41 -0.04 l
1.40 -0.03 l
1.41 -0.04 l
1.41 -0.03 l
1.41 -0.03 l
1.40 -0.03 l
1.41 -0.03 l
1.41 -0.03 l
1.40 -0.03 l
1.41 -0.03 l
1.41 -0.03 l
1.40 -0.02 l
1.41 -0.03 l
1.41 -0.02 l
1.41 -0.02 l
1.40 -0.03 l
1.41 -0.02 l
1.41 -0.02 l
1.40 -0.02 l
1.41 -0.02 l
1.41 -0.02 l
1.41 -0.02 l
1.40 -0.01 l
1.41 -0.02 l
1.41 -0.02 l
1.40 -0.01 l
1.41 -0.02 l
1.41 -0.01 l
1.40 -0.02 l
1.41 -0.01 l
1.41 -0.02 l
1.41 -0.01 l
1.40 -0.01 l
1.41 -0.01 l
1.41 -0.02 l
1.40 -0.01 l
1.41 -0.01 l
1.41 -0.01 l
1.40 -0.01 l
1.41 -0.01 l
1.41 -0.01 l
1.41 -0.01 l
1.40 -0.01 l
1.41 -0.01 l
o
0.00 0.00 432.00 576.00 cl
0 0 0 srgb
0.75 setlinewidth
[] 0 setdash
1 setlinecap
1 setlinejoin
10.00 setmiterlimit
np
97.60 57.60 m
280.00 0 l
o
np
97.60 57.60 m
0 -5.76 l
o
np
153.60 57.60 m
0 -5.76 l
o
np
209.60 57.60 m
0 -5.76 l
o
np
265.60 57.60 m
0 -5.76 l
o
np
321.60 57.60 m
0 -5.76 l
o
np
377.60 57.60 m
0 -5.76 l
o
/Font1 findfont 10 s
97.60 41.47 (0) .5 0 t
153.60 41.47 (2000) .5 0 t
209.60 41.47 (4000) .5 0 t
265.60 41.47 (6000) .5 0 t
321.60 41.47 (8000) .5 0 t
377.60 41.47 (10000) .5 0 t
np
86.40 74.12 m
0 166.14 l
o
np
86.40 74.12 m
-5.76 0 l
o
np
86.40 129.50 m
-5.76 0 l
o
np
86.40 184.88 m
-5.76 0 l
o
np
86.40 240.26 m
-5.76 0 l
o
79.49 70.53 (0.0) 1 0 t
79.49 125.91 (0.1) 1 0 t
79.49 181.29 (0.2) 1 0 t
79.49 236.67 (0.3) 1 0 t
np
86.40 57.60 m
302.40 0 l
0 230.40 l
-302.40 0 l
0 -230.40 l
o
0.00 0.00 432.00 576.00 cl
/Font1 findfont 10 s
0 0 0 srgb
237.60 13.82 (Zeit / ms \(nach Puls\)) .5 0 t
49.54 172.80 (Absorbanz A) .5 90 t
86.40 57.60 388.80 288.00 cl
/bg { 1 1 1 srgb } def
0 0 0 srgb
0.75 setlinewidth
[] 0 setdash
1 setlinecap
1 setlinejoin
10.00 setmiterlimit
105.44 250.53 0.65 c p3
105.72 249.22 0.65 c p3
106.00 246.53 0.65 c p3
106.28 245.64 0.65 c p3
106.56 245.64 0.65 c p3
106.84 242.98 0.65 c p3
107.12 241.23 0.65 c p3
107.40 240.74 0.65 c p3
107.68 239.49 0.65 c p3
107.96 236.90 0.65 c p3
108.24 235.66 0.65 c p3
108.52 234.34 0.65 c p3
108.80 231.43 0.65 c p3
109.08 231.81 0.65 c p3
109.36 229.30 0.65 c p3
109.64 230.97 0.65 c p3
109.92 227.28 0.65 c p3
110.20 227.28 0.65 c p3
110.48 224.00 0.65 c p3
110.76 224.36 0.65 c p3
111.04 223.19 0.65 c p3
111.32 221.57 0.65 c p3
111.60 220.41 0.65 c p3
111.88 219.17 0.65 c p3
112.16 217.58 0.65 c p3
112.44 217.58 0.65 c p3
112.72 215.22 0.65 c p3
113.00 214.09 0.65 c p3
113.28 211.76 0.65 c p3
113.56 211.33 0.65 c p3
113.84 209.03 0.65 c p3
114.12 209.79 0.65 c p3
114.40 210.56 0.65 c p3
114.68 207.50 0.65 c p3
114.96 205.32 0.65 c p3
115.24 207.50 0.65 c p3
115.52 203.40 0.65 c p3
115.80 204.15 0.65 c p3
116.08 202.66 0.65 c p3
116.36 201.59 0.65 c p3
116.64 198.97 0.65 c p3
116.92 198.97 0.65 c p3
117.20 197.91 0.65 c p3
117.48 198.64 0.65 c p3
117.76 195.73 0.65 c p3
118.04 194.61 0.65 c p3
118.32 193.89 0.65 c p3
118.60 193.57 0.65 c p3
118.88 193.57 0.65 c p3
119.16 189.31 0.65 c p3
119.44 190.72 0.65 c p3
119.72 190.33 0.65 c p3
120.00 188.61 0.65 c p3
120.28 187.91 0.65 c p3
120.56 188.30 0.65 c p3
120.84 185.82 0.65 c p3
121.12 186.90 0.65 c p3
121.40 184.13 0.65 c p3
121.68 183.74 0.65 c p3
121.96 183.44 0.65 c p3
122.24 182.75 0.65 c p3
122.52 179.35 0.65 c p3
122.80 180.71 0.65 c p3
123.08 178.30 0.65 c p3
123.36 177.63 0.65 c p3
123.64 176.96 0.65 c p3
123.92 177.63 0.65 c p3
124.20 178.30 0.65 c p3
124.48 176.00 0.65 c p3
124.76 174.67 0.65 c p3
125.04 173.06 0.65 c p3
125.32 174.01 0.65 c p3
125.60 170.44 0.65 c p3
125.88 172.40 0.65 c p3
126.16 170.08 0.65 c p3
126.44 169.43 0.65 c p3
126.72 169.43 0.65 c p3
127.00 169.79 0.65 c p3
127.28 168.78 0.65 c p3
127.56 166.85 0.65 c p3
127.84 165.57 0.65 c p3
128.12 165.93 0.65 c p3
128.40 164.30 0.65 c p3
128.68 164.65 0.65 c p3
128.96 163.67 0.65 c p3
129.24 163.03 0.65 c p3
129.52 161.84 0.65 c p3
129.80 161.50 0.65 c p3
130.08 161.22 0.65 c p3
130.36 161.50 0.65 c p3
130.64 159.97 0.65 c p3
130.92 158.38 0.65 c p3
131.20 159.00 0.65 c p3
131.48 158.72 0.65 c p3
131.76 158.11 0.65 c p3
132.04 157.15 0.65 c p3
132.32 156.26 0.65 c p3
132.60 155.92 0.65 c p3
132.88 155.03 0.65 c p3
133.16 153.82 0.65 c p3
133.44 153.21 0.65 c p3
133.72 153.21 0.65 c p3
134.00 151.06 0.65 c p3
134.28 150.80 0.65 c p3
134.56 150.46 0.65 c p3
134.84 152.00 0.65 c p3
135.12 148.15 0.65 c p3
135.40 149.87 0.65 c p3
135.68 149.60 0.65 c p3
135.96 146.96 0.65 c p3
136.24 146.64 0.65 c p3
136.52 147.55 0.65 c p3
136.80 145.79 0.65 c p3
137.08 146.64 0.65 c p3
137.36 146.05 0.65 c p3
137.64 143.71 0.65 c p3
137.92 144.03 0.65 c p3
138.20 145.20 0.65 c p3
138.48 143.12 0.65 c p3
138.76 141.97 0.65 c p3
139.04 140.56 0.65 c p3
139.32 142.54 0.65 c p3
139.60 140.81 0.65 c p3
139.88 140.56 0.65 c p3
140.16 140.81 0.65 c p3
140.44 140.81 0.65 c p3
140.72 137.95 0.65 c p3
141.00 137.70 0.65 c p3
141.28 138.27 0.65 c p3
141.56 137.38 0.65 c p3
141.84 136.31 0.65 c p3
142.12 137.95 0.65 c p3
142.40 136.31 0.65 c p3
142.68 135.44 0.65 c p3
142.96 136.00 0.65 c p3
143.24 134.32 0.65 c p3
143.52 134.32 0.65 c p3
143.80 133.51 0.65 c p3
144.08 133.20 0.65 c p3
144.36 132.64 0.65 c p3
144.64 132.39 0.65 c p3
144.92 131.84 0.65 c p3
145.20 131.84 0.65 c p3
145.48 130.73 0.65 c p3
145.76 130.43 0.65 c p3
146.04 130.73 0.65 c p3
146.32 131.53 0.65 c p3
146.60 129.88 0.65 c p3
146.88 127.14 0.65 c p3
147.16 129.63 0.65 c p3
147.44 128.23 0.65 c p3
147.72 128.54 0.65 c p3
148.00 127.14 0.65 c p3
148.28 127.14 0.65 c p3
148.56 127.14 0.65 c p3
148.84 126.60 0.65 c p3
149.12 126.06 0.65 c p3
149.40 125.82 0.65 c p3
149.68 124.50 0.65 c p3
149.96 124.74 0.65 c p3
150.24 123.66 0.65 c p3
150.52 125.28 0.65 c p3
150.80 122.59 0.65 c p3
151.08 124.20 0.65 c p3
151.36 123.13 0.65 c p3
151.64 123.43 0.65 c p3
151.92 121.83 0.65 c p3
152.20 123.66 0.65 c p3
152.48 121.29 0.65 c p3
152.76 119.94 0.65 c p3
153.04 121.00 0.65 c p3
153.32 120.76 0.65 c p3
153.60 119.94 0.65 c p3
153.88 119.94 0.65 c p3
154.16 119.42 0.65 c p3
154.44 120.47 0.65 c p3
154.72 118.66 0.65 c p3
155.00 119.42 0.65 c p3
155.28 118.36 0.65 c p3
155.56 118.66 0.65 c p3
155.84 117.32 0.65 c p3
156.12 118.89 0.65 c p3
156.40 116.80 0.65 c p3
156.68 116.57 0.65 c p3
156.96 117.09 0.65 c p3
157.24 116.57 0.65 c p3
157.52 115.76 0.65 c p3
157.80 116.05 0.65 c p3
158.08 115.53 0.65 c p3
158.36 114.72 0.65 c p3
158.64 114.72 0.65 c p3
158.92 113.69 0.65 c p3
159.20 113.98 0.65 c p3
159.48 112.95 0.65 c p3
159.76 113.98 0.65 c p3
160.04 112.95 0.65 c p3
160.32 111.93 0.65 c p3
160.60 112.21 0.65 c p3
160.88 112.95 0.65 c p3
161.16 110.40 0.65 c p3
161.44 111.93 0.65 c p3
161.72 110.91 0.65 c p3
162.00 110.40 0.65 c p3
162.28 110.91 0.65 c p3
162.56 110.68 0.65 c p3
162.84 110.18 0.65 c p3
163.12 109.67 0.65 c p3
163.40 110.91 0.65 c p3
163.68 110.18 0.65 c p3
163.96 108.89 0.65 c p3
164.24 109.39 0.65 c p3
164.52 109.17 0.65 c p3
164.80 107.66 0.65 c p3
165.08 107.38 0.65 c p3
165.36 108.16 0.65 c p3
165.64 108.16 0.65 c p3
165.92 106.88 0.65 c p3
166.20 107.66 0.65 c p3
166.48 107.66 0.65 c p3
166.76 105.39 0.65 c p3
167.04 105.39 0.65 c p3
167.32 106.88 0.65 c p3
167.60 105.39 0.65 c p3
167.88 106.66 0.65 c p3
168.16 103.90 0.65 c p3
168.44 104.67 0.65 c p3
168.72 103.68 0.65 c p3
169.00 105.66 0.65 c p3
169.28 103.68 0.65 c p3
169.56 103.68 0.65 c p3
169.84 104.39 0.65 c p3
170.12 103.19 0.65 c p3
170.40 103.19 0.65 c p3
170.68 103.19 0.65 c p3
170.96 102.91 0.65 c p3
171.24 103.68 0.65 c p3
171.52 101.72 0.65 c p3
171.80 103.68 0.65 c p3
172.08 101.72 0.65 c p3
172.36 102.91 0.65 c p3
172.64 101.50 0.65 c p3
172.92 102.21 0.65 c p3
173.20 101.99 0.65 c p3
173.48 101.23 0.65 c p3
173.76 101.23 0.65 c p3
174.04 101.50 0.65 c p3
174.32 99.77 0.65 c p3
174.60 100.74 0.65 c p3
174.88 100.04 0.65 c p3
175.16 99.77 0.65 c p3
175.44 99.77 0.65 c p3
175.72 101.23 0.65 c p3
176.00 99.77 0.65 c p3
176.28 99.55 0.65 c p3
176.56 98.10 0.65 c p3
176.84 98.32 0.65 c p3
177.12 97.62 0.65 c p3
177.40 98.58 0.65 c p3
177.68 97.62 0.65 c p3
177.96 98.10 0.65 c p3
178.24 97.84 0.65 c p3
178.52 96.87 0.65 c p3
178.80 96.40 0.65 c p3
179.08 97.84 0.65 c p3
179.36 97.14 0.65 c p3
179.64 98.80 0.65 c p3
179.92 96.40 0.65 c p3
180.20 96.87 0.65 c p3
180.48 95.92 0.65 c p3
180.76 97.14 0.65 c p3
181.04 95.23 0.65 c p3
181.32 95.92 0.65 c p3
181.60 95.23 0.65 c p3
181.88 96.18 0.65 c p3
182.16 94.75 0.65 c p3
182.44 94.96 0.65 c p3
182.72 92.86 0.65 c p3
183.00 94.49 0.65 c p3
183.28 94.02 0.65 c p3
183.56 94.02 0.65 c p3
183.84 93.81 0.65 c p3
184.12 94.49 0.65 c p3
184.40 93.07 0.65 c p3
184.68 94.28 0.65 c p3
184.96 92.86 0.65 c p3
185.24 94.02 0.65 c p3
185.52 93.54 0.65 c p3
185.80 92.86 0.65 c p3
186.08 91.45 0.65 c p3
186.36 91.92 0.65 c p3
186.64 92.39 0.65 c p3
186.92 90.98 0.65 c p3
187.20 90.98 0.65 c p3
187.48 92.65 0.65 c p3
187.76 91.92 0.65 c p3
188.04 92.18 0.65 c p3
188.32 91.92 0.65 c p3
188.60 91.92 0.65 c p3
188.88 90.98 0.65 c p3
189.16 91.92 0.65 c p3
189.44 89.38 0.65 c p3
189.72 91.71 0.65 c p3
190.00 91.24 0.65 c p3
190.28 90.98 0.65 c p3
190.56 90.98 0.65 c p3
190.84 90.98 0.65 c p3
191.12 89.12 0.65 c p3
191.40 90.31 0.65 c p3
191.68 89.58 0.65 c p3
191.96 89.38 0.65 c p3
192.24 89.58 0.65 c p3
192.52 89.38 0.65 c p3
192.80 88.19 0.65 c p3
193.08 89.38 0.65 c p3
193.36 88.45 0.65 c p3
193.64 89.58 0.65 c p3
193.92 88.19 0.65 c p3
194.20 89.12 0.65 c p3
194.48 88.19 0.65 c p3
194.76 88.65 0.65 c p3
195.04 87.06 0.65 c p3
195.32 87.53 0.65 c p3
195.60 88.45 0.65 c p3
195.88 88.65 0.65 c p3
196.16 87.73 0.65 c p3
196.44 86.60 0.65 c p3
196.72 86.60 0.65 c p3
197.00 87.53 0.65 c p3
197.28 86.60 0.65 c p3
197.56 87.06 0.65 c p3
197.84 86.60 0.65 c p3
198.12 87.53 0.65 c p3
198.40 87.27 0.65 c p3
198.68 87.53 0.65 c p3
198.96 86.60 0.65 c p3
199.24 86.81 0.65 c p3
199.52 86.60 0.65 c p3
199.80 86.60 0.65 c p3
200.08 85.69 0.65 c p3
200.36 85.89 0.65 c p3
200.64 85.69 0.65 c p3
200.92 85.43 0.65 c p3
201.20 85.43 0.65 c p3
201.48 85.43 0.65 c p3
201.76 84.98 0.65 c p3
202.04 85.23 0.65 c p3
202.32 84.52 0.65 c p3
202.60 84.98 0.65 c p3
202.88 84.77 0.65 c p3
203.16 84.52 0.65 c p3
203.44 83.86 0.65 c p3
203.72 84.32 0.65 c p3
204.00 83.86 0.65 c p3
204.28 84.32 0.65 c p3
204.56 84.52 0.65 c p3
204.84 84.32 0.65 c p3
205.12 82.96 0.65 c p3
205.40 83.86 0.65 c p3
205.68 83.61 0.65 c p3
205.96 85.23 0.65 c p3
206.24 82.76 0.65 c p3
206.52 82.51 0.65 c p3
206.80 82.51 0.65 c p3
207.08 83.86 0.65 c p3
207.36 82.51 0.65 c p3
207.64 82.96 0.65 c p3
207.92 82.51 0.65 c p3
208.20 83.61 0.65 c p3
208.48 82.76 0.65 c p3
208.76 82.06 0.65 c p3
209.04 82.31 0.65 c p3
209.32 82.76 0.65 c p3
209.60 82.31 0.65 c p3
209.88 82.06 0.65 c p3
210.16 81.16 0.65 c p3
210.44 81.85 0.65 c p3
210.72 80.96 0.65 c p3
211.00 81.16 0.65 c p3
211.28 80.51 0.65 c p3
211.56 81.41 0.65 c p3
211.84 80.71 0.65 c p3
212.12 81.41 0.65 c p3
212.40 81.60 0.65 c p3
212.68 81.85 0.65 c p3
212.96 80.96 0.65 c p3
213.24 81.41 0.65 c p3
213.52 80.71 0.65 c p3
213.80 81.85 0.65 c p3
214.08 80.26 0.65 c p3
214.36 80.06 0.65 c p3
214.64 80.26 0.65 c p3
214.92 80.71 0.65 c p3
215.20 79.17 0.65 c p3
215.48 80.51 0.65 c p3
215.76 79.81 0.65 c p3
216.04 80.26 0.65 c p3
216.32 80.51 0.65 c p3
216.60 79.61 0.65 c p3
216.88 79.17 0.65 c p3
217.16 79.81 0.65 c p3
217.44 78.72 0.65 c p3
217.72 80.51 0.65 c p3
218.00 78.72 0.65 c p3
218.28 79.61 0.65 c p3
218.56 80.26 0.65 c p3
218.84 79.37 0.65 c p3
219.12 78.72 0.65 c p3
219.40 78.92 0.65 c p3
219.68 78.03 0.65 c p3
219.96 79.37 0.65 c p3
220.24 78.72 0.65 c p3
220.52 78.92 0.65 c p3
220.80 78.48 0.65 c p3
221.08 79.81 0.65 c p3
221.36 78.48 0.65 c p3
221.64 78.28 0.65 c p3
221.92 77.84 0.65 c p3
222.20 79.61 0.65 c p3
222.48 78.03 0.65 c p3
222.76 78.48 0.65 c p3
223.04 79.61 0.65 c p3
223.32 77.59 0.65 c p3
223.60 76.51 0.65 c p3
223.88 78.28 0.65 c p3
224.16 78.48 0.65 c p3
224.44 77.84 0.65 c p3
224.72 76.95 0.65 c p3
225.00 78.28 0.65 c p3
225.28 77.84 0.65 c p3
225.56 76.71 0.65 c p3
225.84 76.95 0.65 c p3
226.12 77.15 0.65 c p3
226.40 76.51 0.65 c p3
226.68 78.03 0.65 c p3
226.96 77.59 0.65 c p3
227.24 76.95 0.65 c p3
227.52 76.27 0.65 c p3
227.80 76.51 0.65 c p3
228.08 76.51 0.65 c p3
228.36 76.95 0.65 c p3
228.64 77.39 0.65 c p3
228.92 76.51 0.65 c p3
229.20 76.71 0.65 c p3
229.48 77.15 0.65 c p3
229.76 76.71 0.65 c p3
230.04 77.39 0.65 c p3
230.32 76.95 0.65 c p3
230.60 76.51 0.65 c p3
230.88 74.95 0.65 c p3
231.16 76.95 0.65 c p3
231.44 76.95 0.65 c p3
231.72 75.19 0.65 c p3
232.00 75.63 0.65 c p3
232.28 75.83 0.65 c p3
232.56 75.63 0.65 c p3
232.84 76.27 0.65 c p3
233.12 74.95 0.65 c p3
233.40 76.27 0.65 c p3
233.68 74.32 0.65 c p3
233.96 75.19 0.65 c p3
234.24 75.83 0.65 c p3
234.52 76.51 0.65 c p3
234.80 75.39 0.65 c p3
235.08 74.51 0.65 c p3
235.36 74.95 0.65 c p3
235.64 75.39 0.65 c p3
235.92 74.95 0.65 c p3
236.20 74.95 0.65 c p3
236.48 74.32 0.65 c p3
236.76 76.27 0.65 c p3
237.04 74.32 0.65 c p3
237.32 76.71 0.65 c p3
237.60 75.39 0.65 c p3
237.88 73.64 0.65 c p3
238.16 75.39 0.65 c p3
238.44 76.27 0.65 c p3
238.72 73.88 0.65 c p3
239.00 74.95 0.65 c p3
239.28 74.32 0.65 c p3
239.56 75.39 0.65 c p3
239.84 73.64 0.65 c p3
240.12 74.51 0.65 c p3
240.40 74.08 0.65 c p3
240.68 73.88 0.65 c p3
240.96 73.25 0.65 c p3
241.24 73.64 0.65 c p3
241.52 74.32 0.65 c p3
241.80 73.45 0.65 c p3
242.08 73.64 0.65 c p3
242.36 74.08 0.65 c p3
242.64 73.25 0.65 c p3
242.92 71.95 0.65 c p3
243.20 74.76 0.65 c p3
243.48 73.01 0.65 c p3
243.76 72.82 0.65 c p3
244.04 74.51 0.65 c p3
244.32 74.32 0.65 c p3
244.60 72.82 0.65 c p3
244.88 73.25 0.65 c p3
245.16 74.08 0.65 c p3
245.44 72.58 0.65 c p3
245.72 73.45 0.65 c p3
246.00 72.58 0.65 c p3
246.28 72.82 0.65 c p3
246.56 72.15 0.65 c p3
246.84 74.51 0.65 c p3
247.12 72.58 0.65 c p3
247.40 72.82 0.65 c p3
247.68 72.82 0.65 c p3
247.96 73.88 0.65 c p3
248.24 71.52 0.65 c p3
248.52 72.58 0.65 c p3
248.80 71.52 0.65 c p3
249.08 73.64 0.65 c p3
249.36 71.52 0.65 c p3
249.64 72.58 0.65 c p3
249.92 72.58 0.65 c p3
250.20 73.25 0.65 c p3
250.48 71.71 0.65 c p3
250.76 72.58 0.65 c p3
251.04 73.01 0.65 c p3
251.32 72.58 0.65 c p3
251.60 71.71 0.65 c p3
251.88 72.82 0.65 c p3
252.16 70.85 0.65 c p3
252.44 73.25 0.65 c p3
252.72 72.39 0.65 c p3
253.00 72.58 0.65 c p3
253.28 72.58 0.65 c p3
253.56 71.71 0.65 c p3
253.84 71.28 0.65 c p3
254.12 72.15 0.65 c p3
254.40 70.85 0.65 c p3
254.68 71.71 0.65 c p3
254.96 71.71 0.65 c p3
255.24 72.15 0.65 c p3
255.52 71.28 0.65 c p3
255.80 72.39 0.65 c p3
256.08 71.09 0.65 c p3
256.36 71.52 0.65 c p3
256.64 71.09 0.65 c p3
256.92 71.95 0.65 c p3
257.20 71.09 0.65 c p3
257.48 70.85 0.65 c p3
257.76 71.52 0.65 c p3
258.04 72.15 0.65 c p3
258.32 70.42 0.65 c p3
258.60 71.95 0.65 c p3
258.88 71.95 0.65 c p3
259.16 71.28 0.65 c p3
259.44 70.66 0.65 c p3
259.72 71.09 0.65 c p3
260.00 70.42 0.65 c p3
260.28 71.95 0.65 c p3
260.56 71.09 0.65 c p3
260.84 72.15 0.65 c p3
261.12 70.42 0.65 c p3
261.40 71.09 0.65 c p3
261.68 71.52 0.65 c p3
261.96 70.85 0.65 c p3
262.24 70.85 0.65 c p3
262.52 71.09 0.65 c p3
262.80 70.23 0.65 c p3
263.08 71.28 0.65 c p3
263.36 70.66 0.65 c p3
263.64 71.71 0.65 c p3
263.92 70.23 0.65 c p3
264.20 70.66 0.65 c p3
264.48 70.85 0.65 c p3
264.76 69.99 0.65 c p3
265.04 70.66 0.65 c p3
265.32 71.09 0.65 c p3
265.60 70.23 0.65 c p3
265.88 70.85 0.65 c p3
266.16 70.42 0.65 c p3
266.44 69.80 0.65 c p3
266.72 69.57 0.65 c p3
267.00 70.42 0.65 c p3
267.28 69.14 0.65 c p3
267.56 69.99 0.65 c p3
267.84 71.09 0.65 c p3
268.12 70.23 0.65 c p3
268.40 69.14 0.65 c p3
268.68 69.99 0.65 c p3
268.96 68.95 0.65 c p3
269.24 69.99 0.65 c p3
269.52 69.38 0.65 c p3
269.80 70.66 0.65 c p3
270.08 69.57 0.65 c p3
270.36 70.42 0.65 c p3
270.64 68.95 0.65 c p3
270.92 69.80 0.65 c p3
271.20 70.23 0.65 c p3
271.48 69.99 0.65 c p3
271.76 69.57 0.65 c p3
272.04 69.38 0.65 c p3
272.32 69.80 0.65 c p3
272.60 68.71 0.65 c p3
272.88 68.52 0.65 c p3
273.16 69.80 0.65 c p3
273.44 68.95 0.65 c p3
273.72 69.99 0.65 c p3
274.00 68.95 0.65 c p3
274.28 69.80 0.65 c p3
274.56 69.38 0.65 c p3
274.84 69.38 0.65 c p3
275.12 68.10 0.65 c p3
275.40 69.14 0.65 c p3
275.68 68.52 0.65 c p3
275.96 69.14 0.65 c p3
276.24 69.57 0.65 c p3
276.52 69.99 0.65 c p3
276.80 69.38 0.65 c p3
277.08 68.95 0.65 c p3
277.36 68.52 0.65 c p3
277.64 69.57 0.65 c p3
277.92 67.86 0.65 c p3
278.20 69.14 0.65 c p3
278.48 68.71 0.65 c p3
278.76 69.57 0.65 c p3
279.04 68.71 0.65 c p3
279.32 68.95 0.65 c p3
279.60 68.71 0.65 c p3
279.88 68.10 0.65 c p3
280.16 69.14 0.65 c p3
280.44 68.95 0.65 c p3
280.72 68.52 0.65 c p3
281.00 68.95 0.65 c p3
281.28 67.86 0.65 c p3
281.56 69.38 0.65 c p3
281.84 67.67 0.65 c p3
282.12 68.52 0.65 c p3
282.40 69.14 0.65 c p3
282.68 68.29 0.65 c p3
282.96 67.67 0.65 c p3
283.24 69.38 0.65 c p3
283.52 68.10 0.65 c p3
283.80 67.67 0.65 c p3
284.08 67.86 0.65 c p3
284.36 69.14 0.65 c p3
284.64 68.95 0.65 c p3
284.92 68.71 0.65 c p3
285.20 68.52 0.65 c p3
285.48 68.52 0.65 c p3
285.76 67.67 0.65 c p3
286.04 68.95 0.65 c p3
286.32 68.29 0.65 c p3
286.60 68.95 0.65 c p3
286.88 66.59 0.65 c p3
287.16 68.52 0.65 c p3
287.44 67.67 0.65 c p3
287.72 67.44 0.65 c p3
288.00 67.67 0.65 c p3
288.28 67.67 0.65 c p3
288.56 68.10 0.65 c p3
288.84 68.71 0.65 c p3
289.12 68.52 0.65 c p3
289.40 68.29 0.65 c p3
289.68 67.67 0.65 c p3
289.96 68.95 0.65 c p3
290.24 66.17 0.65 c p3
290.52 67.44 0.65 c p3
290.80 66.59 0.65 c p3
291.08 67.44 0.65 c p3
291.36 68.10 0.65 c p3
291.64 68.29 0.65 c p3
291.92 67.01 0.65 c p3
292.20 68.29 0.65 c p3
292.48 66.82 0.65 c p3
292.76 68.10 0.65 c p3
293.04 67.25 0.65 c p3
293.32 67.67 0.65 c p3
293.60 67.25 0.65 c p3
293.88 66.82 0.65 c p3
294.16 66.82 0.65 c p3
294.44 67.44 0.65 c p3
294.72 67.25 0.65 c p3
295.00 67.44 0.65 c p3
295.28 67.67 0.65 c p3
295.56 68.10 0.65 c p3
295.84 67.01 0.65 c p3
296.12 67.44 0.65 c p3
296.40 66.82 0.65 c p3
296.68 67.67 0.65 c p3
296.96 66.40 0.65 c p3
297.24 67.01 0.65 c p3
297.52 67.44 0.65 c p3
297.80 67.44 0.65 c p3
298.08 65.98 0.65 c p3
298.36 66.82 0.65 c p3
298.64 67.01 0.65 c p3
298.92 67.01 0.65 c p3
299.20 66.59 0.65 c p3
299.48 67.25 0.65 c p3
299.76 65.56 0.65 c p3
300.04 67.67 0.65 c p3
300.32 65.75 0.65 c p3
300.60 66.82 0.65 c p3
300.88 66.40 0.65 c p3
301.16 67.01 0.65 c p3
301.44 65.14 0.65 c p3
301.72 67.01 0.65 c p3
302.00 66.82 0.65 c p3
302.28 67.01 0.65 c p3
302.56 66.82 0.65 c p3
302.84 68.29 0.65 c p3
303.12 66.59 0.65 c p3
303.40 67.25 0.65 c p3
303.68 66.40 0.65 c p3
303.96 66.40 0.65 c p3
304.24 66.82 0.65 c p3
304.52 65.98 0.65 c p3
304.80 66.59 0.65 c p3
305.08 66.17 0.65 c p3
305.36 65.75 0.65 c p3
305.64 66.82 0.65 c p3
305.92 66.17 0.65 c p3
306.20 67.25 0.65 c p3
306.48 66.17 0.65 c p3
306.76 66.82 0.65 c p3
307.04 66.40 0.65 c p3
307.32 66.59 0.65 c p3
307.60 65.32 0.65 c p3
307.88 65.98 0.65 c p3
308.16 65.56 0.65 c p3
308.44 66.82 0.65 c p3
308.72 66.17 0.65 c p3
309.00 66.40 0.65 c p3
309.28 65.75 0.65 c p3
309.56 65.32 0.65 c p3
309.84 65.98 0.65 c p3
310.12 66.59 0.65 c p3
310.40 66.17 0.65 c p3
310.68 65.56 0.65 c p3
310.96 64.30 0.65 c p3
311.24 65.98 0.65 c p3
311.52 65.75 0.65 c p3
311.80 66.40 0.65 c p3
312.08 65.32 0.65 c p3
312.36 65.56 0.65 c p3
312.64 65.32 0.65 c p3
312.92 66.17 0.65 c p3
313.20 65.56 0.65 c p3
313.48 65.98 0.65 c p3
313.76 64.48 0.65 c p3
314.04 65.75 0.65 c p3
314.32 64.90 0.65 c p3
314.60 65.75 0.65 c p3
314.88 65.98 0.65 c p3
315.16 65.98 0.65 c p3
315.44 64.90 0.65 c p3
315.72 65.56 0.65 c p3
316.00 65.56 0.65 c p3
316.28 65.32 0.65 c p3
316.56 66.40 0.65 c p3
316.84 65.75 0.65 c p3
317.12 65.14 0.65 c p3
317.40 65.75 0.65 c p3
317.68 65.32 0.65 c p3
317.96 65.98 0.65 c p3
318.24 65.56 0.65 c p3
318.52 65.75 0.65 c p3
318.80 64.11 0.65 c p3
319.08 65.98 0.65 c p3
319.36 64.48 0.65 c p3
319.64 64.90 0.65 c p3
319.92 65.56 0.65 c p3
320.20 65.32 0.65 c p3
320.48 65.56 0.65 c p3
320.76 65.14 0.65 c p3
321.04 64.48 0.65 c p3
321.32 65.14 0.65 c p3
321.60 65.75 0.65 c p3
321.88 64.48 0.65 c p3
322.16 64.90 0.65 c p3
322.44 66.17 0.65 c p3
322.72 64.30 0.65 c p3
323.00 65.56 0.65 c p3
323.28 65.14 0.65 c p3
323.56 64.90 0.65 c p3
323.84 64.48 0.65 c p3
324.12 65.56 0.65 c p3
324.40 64.90 0.65 c p3
324.68 65.14 0.65 c p3
324.96 64.72 0.65 c p3
325.24 65.14 0.65 c p3
325.52 64.72 0.65 c p3
325.80 65.56 0.65 c p3
326.08 64.90 0.65 c p3
326.36 64.90 0.65 c p3
326.64 65.56 0.65 c p3
326.92 64.30 0.65 c p3
327.20 63.05 0.65 c p3
327.48 65.32 0.65 c p3
327.76 64.11 0.65 c p3
328.04 65.56 0.65 c p3
328.32 64.72 0.65 c p3
328.60 65.14 0.65 c p3
328.88 64.90 0.65 c p3
329.16 65.14 0.65 c p3
329.44 65.56 0.65 c p3
329.72 64.72 0.65 c p3
330.00 64.30 0.65 c p3
330.28 64.48 0.65 c p3
330.56 64.72 0.65 c p3
330.84 64.72 0.65 c p3
331.12 63.88 0.65 c p3
331.40 66.17 0.65 c p3
331.68 63.69 0.65 c p3
331.96 64.48 0.65 c p3
332.24 63.05 0.65 c p3
332.52 65.32 0.65 c p3
332.80 63.69 0.65 c p3
333.08 64.72 0.65 c p3
333.36 63.88 0.65 c p3
333.64 65.32 0.65 c p3
333.92 64.11 0.65 c p3
334.20 65.32 0.65 c p3
334.48 64.90 0.65 c p3
334.76 64.30 0.65 c p3
335.04 64.48 0.65 c p3
335.32 63.88 0.65 c p3
335.60 63.69 0.65 c p3
335.88 65.56 0.65 c p3
336.16 64.30 0.65 c p3
336.44 64.30 0.65 c p3
336.72 64.11 0.65 c p3
337.00 64.72 0.65 c p3
337.28 64.30 0.65 c p3
337.56 64.72 0.65 c p3
337.84 63.88 0.65 c p3
338.12 64.90 0.65 c p3
338.40 63.46 0.65 c p3
338.68 63.88 0.65 c p3
338.96 63.88 0.65 c p3
339.24 63.28 0.65 c p3
339.52 63.69 0.65 c p3
339.80 64.90 0.65 c p3
340.08 63.05 0.65 c p3
340.36 64.11 0.65 c p3
340.64 62.45 0.65 c p3
340.92 63.46 0.65 c p3
341.20 63.69 0.65 c p3
341.48 63.88 0.65 c p3
341.76 62.86 0.65 c p3
342.04 63.46 0.65 c p3
342.32 63.28 0.65 c p3
342.60 64.11 0.65 c p3
342.88 62.86 0.65 c p3
343.16 64.11 0.65 c p3
343.44 63.05 0.65 c p3
343.72 63.05 0.65 c p3
344.00 63.46 0.65 c p3
344.28 64.11 0.65 c p3
344.56 62.86 0.65 c p3
344.84 63.05 0.65 c p3
345.12 63.28 0.65 c p3
345.40 63.05 0.65 c p3
345.68 62.21 0.65 c p3
345.96 64.48 0.65 c p3
346.24 62.86 0.65 c p3
346.52 63.88 0.65 c p3
346.80 64.11 0.65 c p3
347.08 63.69 0.65 c p3
347.36 63.46 0.65 c p3
347.64 64.48 0.65 c p3
347.92 62.86 0.65 c p3
348.20 63.46 0.65 c p3
348.48 63.69 0.65 c p3
348.76 62.86 0.65 c p3
349.04 63.69 0.65 c p3
349.32 64.30 0.65 c p3
349.60 62.63 0.65 c p3
349.88 63.69 0.65 c p3
216.00 201.60 367.20 247.68 cl
0 0 0 srgb
0.75 setlinewidth
[] 0 setdash
1 setlinecap
1 setlinejoin
10.00 setmiterlimit
221.60 238.86 0.43 c p1
221.76 238.64 0.43 c p1
221.92 235.88 0.43 c p1
222.08 236.39 0.43 c p1
222.24 238.52 0.43 c p1
222.40 235.78 0.43 c p1
222.56 234.68 0.43 c p1
222.72 235.87 0.43 c p1
222.88 235.65 0.43 c p1
223.04 232.98 0.43 c p1
223.20 232.77 0.43 c p1
223.36 232.38 0.43 c p1
223.52 229.09 0.43 c p1
223.68 231.77 0.43 c p1
223.85 229.18 0.43 c p1
224.01 234.19 0.43 c p1
224.17 229.42 0.43 c p1
224.33 231.36 0.43 c p1
224.49 227.32 0.43 c p1
224.65 229.90 0.43 c p1
224.81 229.66 0.43 c p1
224.97 228.61 0.43 c p1
225.13 228.38 0.43 c p1
225.29 227.98 0.43 c p1
225.45 226.93 0.43 c p1
225.61 228.78 0.43 c p1
225.77 226.30 0.43 c p1
225.93 226.05 0.43 c p1
226.09 223.61 0.43 c p1
226.25 224.62 0.43 c p1
226.41 222.20 0.43 c p1
226.57 225.37 0.43 c p1
226.73 228.53 0.43 c p1
226.89 224.70 0.43 c p1
227.05 222.45 0.43 c p1
227.21 228.16 0.43 c p1
227.37 222.39 0.43 c p1
227.53 225.45 0.43 c p1
227.69 224.42 0.43 c p1
227.85 224.14 0.43 c p1
228.01 221.03 0.43 c p1
228.18 222.68 0.43 c p1
228.34 222.40 0.43 c p1
228.50 225.37 0.43 c p1
228.66 221.68 0.43 c p1
228.82 221.24 0.43 c p1
228.98 221.53 0.43 c p1
229.14 222.54 0.43 c p1
229.30 224.12 0.43 c p1
229.46 217.91 0.43 c p1
229.62 222.05 0.43 c p1
229.78 222.88 0.43 c p1
229.94 221.27 0.43 c p1
230.10 221.52 0.43 c p1
230.26 223.75 0.43 c p1
230.42 220.73 0.43 c p1
230.58 224.20 0.43 c p1
230.74 220.63 0.43 c p1
230.90 221.40 0.43 c p1
231.06 222.31 0.43 c p1
231.22 222.52 0.43 c p1
231.38 217.76 0.43 c p1
231.54 221.67 0.43 c p1
231.70 218.71 0.43 c p1
231.86 218.90 0.43 c p1
232.02 219.09 0.43 c p1
232.18 221.71 0.43 c p1
232.34 224.32 0.43 c p1
232.50 221.50 0.43 c p1
232.67 220.44 0.43 c p1
232.83 218.86 0.43 c p1
232.99 221.95 0.43 c p1
233.15 216.78 0.43 c p1
233.31 221.69 0.43 c p1
233.47 218.78 0.43 c p1
233.63 218.91 0.43 c p1
233.79 220.22 0.43 c p1
233.95 222.18 0.43 c p1
234.11 221.63 0.43 c p1
234.27 219.39 0.43 c p1
234.43 218.32 0.43 c p1
234.59 220.24 0.43 c p1
234.75 218.52 0.43 c p1
234.91 220.41 0.43 c p1
235.07 219.85 0.43 c p1
235.23 219.93 0.43 c p1
235.39 218.98 0.43 c p1
235.55 219.56 0.43 c p1
235.71 220.26 0.43 c p1
235.87 221.97 0.43 c p1
236.03 220.37 0.43 c p1
236.19 218.65 0.43 c p1
236.35 220.96 0.43 c p1
236.51 221.62 0.43 c p1
236.67 221.65 0.43 c p1
236.83 221.05 0.43 c p1
237.00 220.57 0.43 c p1
237.16 221.08 0.43 c p1
237.32 220.60 0.43 c p1
237.48 219.50 0.43 c p1
237.64 219.50 0.43 c p1
237.80 220.61 0.43 c p1
237.96 217.79 0.43 c p1
238.12 218.39 0.43 c p1
238.28 218.87 0.43 c p1
238.44 222.75 0.43 c p1
238.60 216.78 0.43 c p1
238.76 220.98 0.43 c p1
238.92 221.55 0.43 c p1
239.08 217.78 0.43 c p1
239.24 218.23 0.43 c p1
239.40 220.94 0.43 c p1
239.56 218.73 0.43 c p1
239.72 221.30 0.43 c p1
239.88 221.24 0.43 c p1
240.04 217.98 0.43 c p1
240.20 219.57 0.43 c p1
240.36 222.69 0.43 c p1
240.52 219.89 0.43 c p1
240.68 218.75 0.43 c p1
240.84 217.15 0.43 c p1
241.00 221.75 0.43 c p1
241.16 219.55 0.43 c p1
241.33 220.03 0.43 c p1
241.49 221.44 0.43 c p1
241.65 222.38 0.43 c p1
241.81 218.10 0.43 c p1
241.97 218.57 0.43 c p1
242.13 220.52 0.43 c p1
242.29 219.83 0.43 c p1
242.45 218.78 0.43 c p1
242.61 222.67 0.43 c p1
242.77 220.58 0.43 c p1
242.93 219.87 0.43 c p1
243.09 221.79 0.43 c p1
243.25 219.59 0.43 c p1
243.41 220.46 0.43 c p1
243.57 219.85 0.43 c p1
243.73 220.15 0.43 c p1
243.89 219.99 0.43 c p1
244.05 220.39 0.43 c p1
244.21 220.22 0.43 c p1
244.37 221.06 0.43 c p1
244.53 219.87 0.43 c p1
244.69 220.14 0.43 c p1
244.85 221.52 0.43 c p1
245.01 223.79 0.43 c p1
245.17 221.58 0.43 c p1
245.33 217.40 0.43 c p1
245.49 222.74 0.43 c p1
245.65 220.98 0.43 c p1
245.82 222.32 0.43 c p1
245.98 220.56 0.43 c p1
246.14 221.34 0.43 c p1
246.30 222.11 0.43 c p1
246.46 221.89 0.43 c p1
246.62 221.67 0.43 c p1
246.78 221.98 0.43 c p1
246.94 220.33 0.43 c p1
247.10 221.52 0.43 c p1
247.26 220.30 0.43 c p1
247.42 223.98 0.43 c p1
247.58 219.82 0.43 c p1
247.74 223.47 0.43 c p1
247.90 222.24 0.43 c p1
248.06 223.50 0.43 c p1
248.22 221.29 0.43 c p1
248.38 225.36 0.43 c p1
248.54 221.74 0.43 c p1
248.70 219.97 0.43 c p1
248.86 222.59 0.43 c p1
249.02 222.85 0.43 c p1
249.18 222.04 0.43 c p1
249.34 222.72 0.43 c p1
249.50 222.43 0.43 c p1
249.66 225.03 0.43 c p1
249.82 222.38 0.43 c p1
249.98 224.43 0.43 c p1
250.15 223.17 0.43 c p1
250.31 224.35 0.43 c p1
250.47 222.56 0.43 c p1
250.63 226.07 0.43 c p1
250.79 222.90 0.43 c p1
250.95 223.11 0.43 c p1
251.11 224.69 0.43 c p1
251.27 224.37 0.43 c p1
251.43 223.52 0.43 c p1
251.59 224.66 0.43 c p1
251.75 224.33 0.43 c p1
251.91 223.47 0.43 c p1
252.07 224.08 0.43 c p1
252.23 222.80 0.43 c p1
252.39 223.92 0.43 c p1
252.55 222.64 0.43 c p1
252.71 225.11 0.43 c p1
252.87 223.82 0.43 c p1
253.03 222.53 0.43 c p1
253.19 223.63 0.43 c p1
253.35 225.56 0.43 c p1
253.51 221.47 0.43 c p1
253.67 224.83 0.43 c p1
253.83 223.53 0.43 c p1
253.99 223.16 0.43 c p1
254.15 224.65 0.43 c p1
254.31 224.79 0.43 c p1
254.48 224.41 0.43 c p1
254.64 224.03 0.43 c p1
254.80 226.83 0.43 c p1
254.96 226.03 0.43 c p1
255.12 224.21 0.43 c p1
255.28 225.66 0.43 c p1
255.44 225.78 0.43 c p1
255.60 223.55 0.43 c p1
255.76 223.56 0.43 c p1
255.92 225.50 0.43 c p1
256.08 226.01 0.43 c p1
256.24 224.18 0.43 c p1
256.40 226.11 0.43 c p1
256.56 226.61 0.43 c p1
256.72 222.96 0.43 c p1
256.88 223.46 0.43 c p1
257.04 226.68 0.43 c p1
257.20 224.44 0.43 c p1
257.36 227.25 0.43 c p1
257.52 222.70 0.43 c p1
257.68 224.58 0.43 c p1
257.84 223.25 0.43 c p1
258.00 227.34 0.43 c p1
258.16 224.19 0.43 c p1
258.32 224.66 0.43 c p1
258.48 226.42 0.43 c p1
258.64 224.68 0.43 c p1
258.81 225.14 0.43 c p1
258.97 225.59 0.43 c p1
259.13 225.55 0.43 c p1
259.29 227.39 0.43 c p1
259.45 224.25 0.43 c p1
259.61 228.28 0.43 c p1
259.77 225.13 0.43 c p1
259.93 227.76 0.43 c p1
260.09 225.61 0.43 c p1
260.25 227.33 0.43 c p1
260.41 227.36 0.43 c p1
260.57 226.39 0.43 c p1
260.73 226.81 0.43 c p1
260.89 227.73 0.43 c p1
261.05 224.98 0.43 c p1
261.21 227.17 0.43 c p1
261.37 226.30 0.43 c p1
261.53 226.21 0.43 c p1
261.69 226.62 0.43 c p1
261.85 229.69 0.43 c p1
262.01 227.42 0.43 c p1
262.17 227.42 0.43 c p1
262.33 225.17 0.43 c p1
262.49 225.95 0.43 c p1
262.65 225.07 0.43 c p1
262.81 227.22 0.43 c p1
262.97 225.84 0.43 c p1
263.13 227.10 0.43 c p1
263.30 226.99 0.43 c p1
263.46 225.62 0.43 c p1
263.62 225.12 0.43 c p1
263.78 228.11 0.43 c p1
263.94 227.22 0.43 c p1
264.10 230.61 0.43 c p1
264.26 226.58 0.43 c p1
264.42 227.82 0.43 c p1
264.58 226.43 0.43 c p1
264.74 229.02 0.43 c p1
264.90 225.89 0.43 c p1
265.06 227.49 0.43 c p1
265.22 226.59 0.43 c p1
265.38 228.67 0.43 c p1
265.54 226.41 0.43 c p1
265.70 227.14 0.43 c p1
265.86 223.64 0.43 c p1
266.02 226.95 0.43 c p1
266.18 226.42 0.43 c p1
266.34 226.75 0.43 c p1
266.50 226.70 0.43 c p1
266.66 228.27 0.43 c p1
266.82 226.01 0.43 c p1
266.98 228.54 0.43 c p1
267.14 226.27 0.43 c p1
267.30 228.70 0.43 c p1
267.46 228.15 0.43 c p1
267.63 227.23 0.43 c p1
267.79 224.97 0.43 c p1
267.95 226.13 0.43 c p1
268.11 227.30 0.43 c p1
268.27 225.04 0.43 c p1
268.43 225.34 0.43 c p1
268.59 228.69 0.43 c p1
268.75 227.66 0.43 c p1
268.91 228.43 0.43 c p1
269.07 228.25 0.43 c p1
269.23 228.55 0.43 c p1
269.39 227.13 0.43 c p1
269.55 229.13 0.43 c p1
269.71 224.78 0.43 c p1
269.87 229.33 0.43 c p1
270.03 228.76 0.43 c p1
270.19 228.57 0.43 c p1
270.35 228.85 0.43 c p1
270.51 229.13 0.43 c p1
270.67 226.00 0.43 c p1
270.83 228.45 0.43 c p1
270.99 227.40 0.43 c p1
271.15 227.30 0.43 c p1
271.31 227.94 0.43 c p1
271.47 227.83 0.43 c p1
271.63 225.94 0.43 c p1
271.79 228.37 0.43 c p1
271.96 226.94 0.43 c p1
272.12 229.27 0.43 c p1
272.28 226.99 0.43 c p1
272.44 228.94 0.43 c p1
272.60 227.50 0.43 c p1
272.76 228.60 0.43 c p1
272.92 225.95 0.43 c p1
273.08 227.04 0.43 c p1
273.24 228.98 0.43 c p1
273.40 229.60 0.43 c p1
273.56 228.16 0.43 c p1
273.72 226.35 0.43 c p1
273.88 226.59 0.43 c p1
274.04 228.51 0.43 c p1
274.20 227.07 0.43 c p1
274.36 228.15 0.43 c p1
274.52 227.55 0.43 c p1
274.68 229.46 0.43 c p1
274.84 229.23 0.43 c p1
275.00 229.92 0.43 c p1
275.16 228.47 0.43 c p1
275.32 229.08 0.43 c p1
275.48 228.93 0.43 c p1
275.64 229.16 0.43 c p1
275.80 227.71 0.43 c p1
275.96 228.30 0.43 c p1
276.12 228.15 0.43 c p1
276.28 227.90 0.43 c p1
276.45 228.12 0.43 c p1
276.61 228.34 0.43 c p1
276.77 227.72 0.43 c p1
276.93 228.40 0.43 c p1
277.09 227.31 0.43 c p1
277.25 228.36 0.43 c p1
277.41 228.19 0.43 c p1
277.57 227.94 0.43 c p1
277.73 226.95 0.43 c p1
277.89 227.98 0.43 c p1
278.05 227.36 0.43 c p1
278.21 228.39 0.43 c p1
278.37 228.96 0.43 c p1
278.53 228.79 0.43 c p1
278.69 226.50 0.43 c p1
278.85 228.35 0.43 c p1
279.01 228.09 0.43 c p1
279.17 231.24 0.43 c p1
279.33 226.92 0.43 c p1
279.49 226.65 0.43 c p1
279.65 226.84 0.43 c p1
279.81 229.51 0.43 c p1
279.97 227.22 0.43 c p1
280.13 228.23 0.43 c p1
280.29 227.59 0.43 c p1
280.45 229.79 0.43 c p1
280.61 228.41 0.43 c p1
280.78 227.31 0.43 c p1
280.94 227.95 0.43 c p1
281.10 228.95 0.43 c p1
281.26 228.31 0.43 c p1
281.42 228.03 0.43 c p1
281.58 226.56 0.43 c p1
281.74 228.01 0.43 c p1
281.90 226.54 0.43 c p1
282.06 227.08 0.43 c p1
282.22 226.07 0.43 c p1
282.38 227.88 0.43 c p1
282.54 226.77 0.43 c p1
282.70 228.21 0.43 c p1
282.86 228.74 0.43 c p1
283.02 229.36 0.43 c p1
283.18 227.89 0.43 c p1
283.34 228.87 0.43 c p1
283.50 227.76 0.43 c p1
283.66 230.01 0.43 c p1
283.82 227.26 0.43 c p1
283.98 227.06 0.43 c p1
284.14 227.58 0.43 c p1
284.30 228.55 0.43 c p1
284.46 225.90 0.43 c p1
284.62 228.50 0.43 c p1
284.78 227.38 0.43 c p1
284.94 228.35 0.43 c p1
285.11 228.96 0.43 c p1
285.27 227.47 0.43 c p1
285.43 226.81 0.43 c p1
285.59 228.13 0.43 c p1
285.75 226.29 0.43 c p1
285.91 229.70 0.43 c p1
286.07 226.59 0.43 c p1
286.23 228.36 0.43 c p1
286.39 229.68 0.43 c p1
286.55 228.19 0.43 c p1
286.71 227.16 0.43 c p1
286.87 227.66 0.43 c p1
287.03 226.18 0.43 c p1
287.19 228.75 0.43 c p1
287.35 227.71 0.43 c p1
287.51 228.21 0.43 c p1
287.67 227.54 0.43 c p1
287.83 230.11 0.43 c p1
287.99 227.80 0.43 c p1
288.15 227.58 0.43 c p1
288.31 226.90 0.43 c p1
288.47 230.28 0.43 c p1
288.63 227.52 0.43 c p1
288.79 228.46 0.43 c p1
288.95 230.67 0.43 c p1
289.11 227.10 0.43 c p1
289.27 225.26 0.43 c p1
289.44 228.61 0.43 c p1
289.60 229.10 0.43 c p1
289.76 228.05 0.43 c p1
289.92 226.56 0.43 c p1
290.08 229.11 0.43 c p1
290.24 228.42 0.43 c p1
290.40 226.48 0.43 c p1
290.56 227.05 0.43 c p1
290.72 227.53 0.43 c p1
290.88 226.48 0.43 c p1
291.04 229.38 0.43 c p1
291.20 228.69 0.43 c p1
291.36 227.64 0.43 c p1
291.52 226.50 0.43 c p1
291.68 227.06 0.43 c p1
291.84 227.18 0.43 c p1
292.00 228.10 0.43 c p1
292.16 229.01 0.43 c p1
292.32 227.52 0.43 c p1
292.48 227.98 0.43 c p1
292.64 228.90 0.43 c p1
292.80 228.20 0.43 c p1
292.96 229.57 0.43 c p1
293.12 228.87 0.43 c p1
293.28 228.17 0.43 c p1
293.44 225.43 0.43 c p1
293.60 229.19 0.43 c p1
293.76 229.29 0.43 c p1
293.93 226.19 0.43 c p1
294.09 227.09 0.43 c p1
294.25 227.55 0.43 c p1
294.41 227.30 0.43 c p1
294.57 228.56 0.43 c p1
294.73 226.26 0.43 c p1
294.89 228.76 0.43 c p1
295.05 225.30 0.43 c p1
295.21 227.00 0.43 c p1
295.37 228.25 0.43 c p1
295.53 229.60 0.43 c p1
295.69 227.65 0.43 c p1
295.85 226.15 0.43 c p1
296.01 227.04 0.43 c p1
296.17 227.93 0.43 c p1
296.33 227.23 0.43 c p1
296.49 227.32 0.43 c p1
296.65 226.26 0.43 c p1
296.81 229.91 0.43 c p1
296.97 226.45 0.43 c p1
297.13 230.90 0.43 c p1
297.29 228.58 0.43 c p1
297.45 225.48 0.43 c p1
297.61 228.76 0.43 c p1
297.77 230.45 0.43 c p1
297.93 226.19 0.43 c p1
298.09 228.23 0.43 c p1
298.26 227.16 0.43 c p1
298.42 229.20 0.43 c p1
298.58 226.10 0.43 c p1
298.74 227.77 0.43 c p1
298.90 227.06 0.43 c p1
299.06 226.79 0.43 c p1
299.22 225.73 0.43 c p1
299.38 226.52 0.43 c p1
299.54 227.84 0.43 c p1
299.70 226.33 0.43 c p1
299.86 226.76 0.43 c p1
300.02 227.64 0.43 c p1
300.18 226.22 0.43 c p1
300.34 223.93 0.43 c p1
300.50 229.12 0.43 c p1
300.66 226.02 0.43 c p1
300.82 225.74 0.43 c p1
300.98 228.91 0.43 c p1
301.14 228.63 0.43 c p1
301.30 225.97 0.43 c p1
301.46 226.84 0.43 c p1
301.62 228.42 0.43 c p1
301.78 225.76 0.43 c p1
301.94 227.42 0.43 c p1
302.10 225.91 0.43 c p1
302.26 226.42 0.43 c p1
302.42 225.27 0.43 c p1
302.59 229.66 0.43 c p1
302.75 226.20 0.43 c p1
302.91 226.71 0.43 c p1
303.07 226.78 0.43 c p1
303.23 228.79 0.43 c p1
303.39 224.56 0.43 c p1
303.55 226.56 0.43 c p1
303.71 224.70 0.43 c p1
303.87 228.63 0.43 c p1
304.03 224.83 0.43 c p1
304.19 226.83 0.43 c p1
304.35 226.90 0.43 c p1
304.51 228.20 0.43 c p1
304.67 225.45 0.43 c p1
304.83 227.10 0.43 c p1
304.99 227.95 0.43 c p1
305.15 227.23 0.43 c p1
305.31 225.71 0.43 c p1
305.47 227.80 0.43 c p1
305.63 224.27 0.43 c p1
305.79 228.72 0.43 c p1
305.95 227.20 0.43 c p1
306.11 227.61 0.43 c p1
306.27 227.67 0.43 c p1
306.43 226.15 0.43 c p1
306.59 225.43 0.43 c p1
306.75 227.07 0.43 c p1
306.92 224.76 0.43 c p1
307.08 226.40 0.43 c p1
307.24 226.46 0.43 c p1
307.40 227.31 0.43 c p1
307.56 225.79 0.43 c p1
307.72 227.86 0.43 c p1
307.88 225.56 0.43 c p1
308.04 226.40 0.43 c p1
308.20 225.67 0.43 c p1
308.36 227.30 0.43 c p1
308.52 225.78 0.43 c p1
308.68 225.40 0.43 c p1
308.84 226.68 0.43 c p1
309.00 227.88 0.43 c p1
309.16 224.79 0.43 c p1
309.32 227.64 0.43 c p1
309.48 227.69 0.43 c p1
309.64 226.52 0.43 c p1
309.80 225.44 0.43 c p1
309.96 226.28 0.43 c p1
310.12 225.11 0.43 c p1
310.28 227.96 0.43 c p1
310.44 226.43 0.43 c p1
310.60 228.41 0.43 c p1
310.76 225.32 0.43 c p1
310.92 226.59 0.43 c p1
311.08 227.43 0.43 c p1
311.24 226.25 0.43 c p1
311.41 226.30 0.43 c p1
311.57 226.79 0.43 c p1
311.73 225.27 0.43 c p1
311.89 227.24 0.43 c p1
312.05 226.15 0.43 c p1
312.21 228.12 0.43 c p1
312.37 225.46 0.43 c p1
312.53 226.30 0.43 c p1
312.69 226.69 0.43 c p1
312.85 225.17 0.43 c p1
313.01 226.44 0.43 c p1
313.17 227.27 0.43 c p1
313.33 225.75 0.43 c p1
313.49 226.93 0.43 c p1
313.65 226.19 0.43 c p1
313.81 225.10 0.43 c p1
313.97 224.71 0.43 c p1
314.13 226.32 0.43 c p1
314.29 224.02 0.43 c p1
314.45 225.63 0.43 c p1
314.61 227.67 0.43 c p1
314.77 226.15 0.43 c p1
314.93 224.20 0.43 c p1
315.09 225.80 0.43 c p1
315.25 223.93 0.43 c p1
315.41 225.89 0.43 c p1
315.57 224.80 0.43 c p1
315.74 227.19 0.43 c p1
315.90 225.23 0.43 c p1
316.06 226.83 0.43 c p1
316.22 224.18 0.43 c p1
316.38 225.79 0.43 c p1
316.54 226.61 0.43 c p1
316.70 226.21 0.43 c p1
316.86 225.47 0.43 c p1
317.02 225.16 0.43 c p1
317.18 225.99 0.43 c p1
317.34 224.03 0.43 c p1
317.50 223.72 0.43 c p1
317.66 226.10 0.43 c p1
317.82 224.58 0.43 c p1
317.98 226.53 0.43 c p1
318.14 224.65 0.43 c p1
318.30 226.25 0.43 c p1
318.46 225.51 0.43 c p1
318.62 225.55 0.43 c p1
318.78 223.25 0.43 c p1
318.94 225.19 0.43 c p1
319.10 224.10 0.43 c p1
319.26 225.26 0.43 c p1
319.42 226.07 0.43 c p1
319.58 226.89 0.43 c p1
319.74 225.80 0.43 c p1
319.90 225.05 0.43 c p1
320.07 224.31 0.43 c p1
320.23 226.25 0.43 c p1
320.39 223.17 0.43 c p1
320.55 225.54 0.43 c p1
320.71 224.79 0.43 c p1
320.87 226.39 0.43 c p1
321.03 224.86 0.43 c p1
321.19 225.33 0.43 c p1
321.35 224.93 0.43 c p1
321.51 223.84 0.43 c p1
321.67 225.77 0.43 c p1
321.83 225.46 0.43 c p1
321.99 224.71 0.43 c p1
322.15 225.52 0.43 c p1
322.31 223.57 0.43 c p1
322.47 226.36 0.43 c p1
322.63 223.28 0.43 c p1
322.79 224.87 0.43 c p1
322.95 226.02 0.43 c p1
323.11 224.50 0.43 c p1
323.27 223.41 0.43 c p1
323.43 226.55 0.43 c p1
323.59 224.24 0.43 c p1
323.75 223.50 0.43 c p1
323.91 223.87 0.43 c p1
324.07 226.23 0.43 c p1
324.23 225.92 0.43 c p1
324.39 225.51 0.43 c p1
324.56 225.20 0.43 c p1
324.72 225.22 0.43 c p1
324.88 223.70 0.43 c p1
325.04 226.06 0.43 c p1
325.20 224.88 0.43 c p1
325.36 226.12 0.43 c p1
325.52 221.84 0.43 c p1
325.68 225.39 0.43 c p1
325.84 223.87 0.43 c p1
326.00 223.46 0.43 c p1
326.16 223.92 0.43 c p1
326.32 223.95 0.43 c p1
326.48 224.75 0.43 c p1
326.64 225.90 0.43 c p1
326.80 225.58 0.43 c p1
326.96 225.17 0.43 c p1
327.12 224.08 0.43 c p1
327.28 226.44 0.43 c p1
327.44 221.38 0.43 c p1
327.60 223.73 0.43 c p1
327.76 222.21 0.43 c p1
327.92 223.78 0.43 c p1
328.08 225.01 0.43 c p1
328.24 225.38 0.43 c p1
328.40 223.08 0.43 c p1
328.56 225.43 0.43 c p1
328.72 222.78 0.43 c p1
328.89 225.13 0.43 c p1
329.05 223.60 0.43 c p1
329.21 224.40 0.43 c p1
329.37 223.65 0.43 c p1
329.53 222.90 0.43 c p1
329.69 222.92 0.43 c p1
329.85 224.06 0.43 c p1
330.01 223.74 0.43 c p1
330.17 224.11 0.43 c p1
330.33 224.56 0.43 c p1
330.49 225.36 0.43 c p1
330.65 223.40 0.43 c p1
330.81 224.20 0.43 c p1
330.97 223.10 0.43 c p1
331.13 224.67 0.43 c p1
331.29 222.38 0.43 c p1
331.45 223.51 0.43 c p1
331.61 224.31 0.43 c p1
331.77 224.33 0.43 c p1
331.93 221.69 0.43 c p1
332.09 223.25 0.43 c p1
332.25 223.62 0.43 c p1
332.41 223.64 0.43 c p1
332.57 222.89 0.43 c p1
332.73 224.11 0.43 c p1
332.89 221.05 0.43 c p1
333.05 224.92 0.43 c p1
333.22 221.43 0.43 c p1
333.38 223.42 0.43 c p1
333.54 222.67 0.43 c p1
333.70 223.80 0.43 c p1
333.86 220.40 0.43 c p1
334.02 223.84 0.43 c p1
334.18 223.51 0.43 c p1
334.34 223.88 0.43 c p1
334.50 223.55 0.43 c p1
334.66 226.24 0.43 c p1
334.82 223.16 0.43 c p1
334.98 224.38 0.43 c p1
335.14 222.86 0.43 c p1
335.30 222.87 0.43 c p1
335.46 223.66 0.43 c p1
335.62 222.14 0.43 c p1
335.78 223.27 0.43 c p1
335.94 222.52 0.43 c p1
336.10 221.77 0.43 c p1
336.26 223.75 0.43 c p1
336.42 222.57 0.43 c p1
336.58 224.56 0.43 c p1
336.74 222.61 0.43 c p1
336.90 223.82 0.43 c p1
337.06 223.07 0.43 c p1
337.22 223.43 0.43 c p1
337.38 221.14 0.43 c p1
337.55 222.35 0.43 c p1
337.71 221.60 0.43 c p1
337.87 223.92 0.43 c p1
338.03 222.74 0.43 c p1
338.19 223.18 0.43 c p1
338.35 222.00 0.43 c p1
338.51 221.25 0.43 c p1
338.67 222.46 0.43 c p1
338.83 223.59 0.43 c p1
338.99 222.84 0.43 c p1
339.15 221.74 0.43 c p1
339.31 219.46 0.43 c p1
339.47 222.54 0.43 c p1
339.63 222.13 0.43 c p1
339.79 223.34 0.43 c p1
339.95 221.39 0.43 c p1
340.11 221.83 0.43 c p1
340.27 221.42 0.43 c p1
340.43 222.97 0.43 c p1
340.59 221.88 0.43 c p1
340.75 222.66 0.43 c p1
340.91 219.95 0.43 c p1
341.07 222.26 0.43 c p1
341.23 220.74 0.43 c p1
341.39 222.29 0.43 c p1
341.55 222.73 0.43 c p1
341.71 222.75 0.43 c p1
341.87 220.80 0.43 c p1
342.04 222.01 0.43 c p1
342.20 222.02 0.43 c p1
342.36 221.61 0.43 c p1
342.52 223.59 0.43 c p1
342.68 222.40 0.43 c p1
342.84 221.31 0.43 c p1
343.00 222.43 0.43 c p1
343.16 221.67 0.43 c p1
343.32 222.88 0.43 c p1
343.48 222.13 0.43 c p1
343.64 222.48 0.43 c p1
343.80 219.51 0.43 c p1
343.96 222.93 0.43 c p1
344.12 220.22 0.43 c p1
344.28 221.00 0.43 c p1
344.44 222.20 0.43 c p1
344.60 221.79 0.43 c p1
344.76 222.23 0.43 c p1
344.92 221.47 0.43 c p1
345.08 220.29 0.43 c p1
345.24 221.50 0.43 c p1
345.40 222.62 0.43 c p1
345.56 220.33 0.43 c p1
345.72 221.11 0.43 c p1
345.88 223.42 0.43 c p1
346.04 220.02 0.43 c p1
346.20 222.33 0.43 c p1
346.37 221.58 0.43 c p1
346.53 221.16 0.43 c p1
346.69 220.41 0.43 c p1
346.85 222.38 0.43 c p1
347.01 221.20 0.43 c p1
347.17 221.63 0.43 c p1
347.33 220.88 0.43 c p1
347.49 221.66 0.43 c p1
347.65 220.90 0.43 c p1
347.81 222.45 0.43 c p1
347.97 221.26 0.43 c p1
348.13 221.27 0.43 c p1
348.29 222.48 0.43 c p1
348.45 220.19 0.43 c p1
348.61 217.91 0.43 c p1
348.77 222.08 0.43 c p1
348.93 219.88 0.43 c p1
349.09 222.53 0.43 c p1
349.25 221.01 0.43 c p1
349.41 221.78 0.43 c p1
349.57 221.37 0.43 c p1
349.73 221.80 0.43 c p1
349.89 222.58 0.43 c p1
350.05 221.06 0.43 c p1
350.21 220.30 0.43 c p1
350.37 220.65 0.43 c p1
350.53 221.09 0.43 c p1
350.70 221.10 0.43 c p1
350.86 219.58 0.43 c p1
351.02 223.76 0.43 c p1
351.18 219.26 0.43 c p1
351.34 220.71 0.43 c p1
351.50 218.09 0.43 c p1
351.66 222.26 0.43 c p1
351.82 219.29 0.43 c p1
351.98 221.17 0.43 c p1
352.14 219.65 0.43 c p1
352.30 222.30 0.43 c p1
352.46 220.09 0.43 c p1
352.62 222.31 0.43 c p1
352.78 221.56 0.43 c p1
352.94 220.46 0.43 c p1
353.10 220.81 0.43 c p1
353.26 219.71 0.43 c p1
353.42 219.38 0.43 c p1
353.58 222.79 0.43 c p1
353.74 220.50 0.43 c p1
353.90 220.51 0.43 c p1
354.06 220.18 0.43 c p1
354.22 221.29 0.43 c p1
354.38 220.54 0.43 c p1
354.54 221.31 0.43 c p1
354.70 219.79 0.43 c p1
354.86 221.66 0.43 c p1
355.02 219.04 0.43 c p1
355.19 219.81 0.43 c p1
355.35 219.82 0.43 c p1
355.51 218.73 0.43 c p1
355.67 219.50 0.43 c p1
355.83 221.71 0.43 c p1
355.99 218.33 0.43 c p1
356.15 220.28 0.43 c p1
356.31 217.25 0.43 c p1
356.47 219.11 0.43 c p1
356.63 219.54 0.43 c p1
356.79 219.89 0.43 c p1
356.95 218.04 0.43 c p1
357.11 219.14 0.43 c p1
357.27 218.81 0.43 c p1
357.43 220.34 0.43 c p1
357.59 218.07 0.43 c p1
357.75 220.36 0.43 c p1
357.91 218.42 0.43 c p1
358.07 218.42 0.43 c p1
358.23 219.19 0.43 c p1
358.39 220.38 0.43 c p1
358.55 218.11 0.43 c p1
358.71 218.45 0.43 c p1
358.87 218.88 0.43 c p1
359.03 218.47 0.43 c p1
359.19 216.95 0.43 c p1
359.35 221.10 0.43 c p1
359.52 218.15 0.43 c p1
359.68 220.01 0.43 c p1
359.84 220.45 0.43 c p1
360.00 219.69 0.43 c p1
360.16 219.27 0.43 c p1
360.32 221.14 0.43 c p1
360.48 218.19 0.43 c p1
360.64 219.29 0.43 c p1
360.80 219.72 0.43 c p1
360.96 218.21 0.43 c p1
361.12 219.73 0.43 c p1
361.28 220.84 0.43 c p1
361.44 217.80 0.43 c p1
361.60 219.75 0.43 c p1
0.00 0.00 432.00 576.00 cl
0 0 0 srgb
0.75 setlinewidth
[] 0 setdash
1 setlinecap
1 setlinejoin
10.00 setmiterlimit
np
217.11 201.60 m
128.29 0 l
o
np
217.11 201.60 m
0 -5.76 l
o
np
249.18 201.60 m
0 -5.76 l
o
np
281.26 201.60 m
0 -5.76 l
o
np
313.33 201.60 m
0 -5.76 l
o
np
345.40 201.60 m
0 -5.76 l
o
/Font1 findfont 6 s
217.11 185.47 (0) .5 0 t
249.18 185.47 (2000) .5 0 t
281.26 185.47 (4000) .5 0 t
313.33 185.47 (6000) .5 0 t
345.40 185.47 (8000) .5 0 t
np
216.00 204.42 m
0 40.44 l
o
np
216.00 204.42 m
-5.76 0 l
o
np
216.00 214.53 m
-5.76 0 l
o
np
216.00 224.64 m
-5.76 0 l
o
np
216.00 234.75 m
-5.76 0 l
o
np
216.00 244.86 m
-5.76 0 l
o
209.09 202.27 (-0.02) 1 0 t
209.09 212.38 (-0.01) 1 0 t
209.09 222.49 (0.00) 1 0 t
209.09 232.59 (0.01) 1 0 t
209.09 242.70 (0.02) 1 0 t
np
216.00 201.60 m
151.20 0 l
0 46.08 l
-151.20 0 l
0 -46.08 l
o
0.00 0.00 432.00 576.00 cl
/Font1 findfont 9 s
0 0 0 srgb
291.60 262.88 (Residuen) .5 0 t
59.04 73.44 401.76 516.96 cl
ep
%%Trailer
%%Pages: 1
%%EOF
