%!PS-Adobe-3.0 EPSF-3.0
%%DocumentNeededResources: font Helvetica
%%+ font Helvetica-Bold
%%+ font Helvetica-Oblique
%%+ font Helvetica-BoldOblique
%%+ font Symbol
%%Title: R Graphics Output
%%Creator: R Software
%%Pages: (atend)
%%BoundingBox: 0 0 432 576
%%EndComments
%%BeginProlog
/bp  { gs sRGB gs } def
% begin .ps.prolog
/gs  { gsave } bind def
/gr  { grestore } bind def
/ep  { showpage gr gr } bind def
/m   { moveto } bind def
/l  { rlineto } bind def
/np  { newpath } bind def
/cp  { closepath } bind def
/f   { fill } bind def
/o   { stroke } bind def
/c   { newpath 0 360 arc } bind def
/r   { 4 2 roll moveto 1 copy 3 -1 roll exch 0 exch rlineto 0 rlineto -1 mul 0 exch rlineto closepath } bind def
/p1  { stroke } bind def
/p2  { gsave bg fill grestore newpath } bind def
/p3  { gsave bg fill grestore stroke } bind def
/p6  { gsave bg eofill grestore newpath } bind def
/p7  { gsave bg eofill grestore stroke } bind def
/t   { 5 -2 roll moveto gsave rotate
       1 index stringwidth pop
       mul neg 0 rmoveto show grestore } bind def
/ta  { 4 -2 roll moveto gsave rotate show } bind def
/tb  { 2 -1 roll 0 rmoveto show } bind def
/cl  { grestore gsave newpath 3 index 3 index moveto 1 index
       4 -1 roll lineto  exch 1 index lineto lineto
       closepath clip newpath } bind def
/rgb { setrgbcolor } bind def
/s   { scalefont setfont } bind def
% end   .ps.prolog
/sRGB { [ /CIEBasedABC
          << /DecodeLMN
               [ { dup 0.03928 le
                        {12.92321 div}
                        {0.055 add 1.055 div 2.4 exp }
                     ifelse
                 } bind dup dup
               ]
             /MatrixLMN [0.412457 0.212673 0.019334
                         0.357576 0.715152 0.119192
                         0.180437 0.072175 0.950301]
             /WhitePoint [0.9505 1.0 1.0890]
           >>
         ] setcolorspace } bind def
/srgb { setcolor } bind def
%%IncludeResource: font Helvetica
/Helvetica findfont
dup length dict begin
  {1 index /FID ne {def} {pop pop} ifelse} forall
  /Encoding ISOLatin1Encoding def
  currentdict
  end
/Font1 exch definefont pop
%%IncludeResource: font Helvetica-Bold
/Helvetica-Bold findfont
dup length dict begin
  {1 index /FID ne {def} {pop pop} ifelse} forall
  /Encoding ISOLatin1Encoding def
  currentdict
  end
/Font2 exch definefont pop
%%IncludeResource: font Helvetica-Oblique
/Helvetica-Oblique findfont
dup length dict begin
  {1 index /FID ne {def} {pop pop} ifelse} forall
  /Encoding ISOLatin1Encoding def
  currentdict
  end
/Font3 exch definefont pop
%%IncludeResource: font Helvetica-BoldOblique
/Helvetica-BoldOblique findfont
dup length dict begin
  {1 index /FID ne {def} {pop pop} ifelse} forall
  /Encoding ISOLatin1Encoding def
  currentdict
  end
/Font4 exch definefont pop
%%IncludeResource: font Symbol
/Symbol findfont
dup length dict begin
  {1 index /FID ne {def} {pop pop} ifelse} forall
  currentdict
  end
/Font5 exch definefont pop
%%EndProlog
%%Page: 1 1
bp
0.00 0.00 432.00 576.00 cl
0.00 0.00 432.00 576.00 cl
0.00 0.00 432.00 576.00 cl
/Font1 findfont 12 s
0 0 0 srgb
48.00 508.72 (PCP-ETH) 0 0 t
48.00 494.89 (Blitzlicht-Photolyse) 0 0 t
/Font1 findfont 9 s
48.00 457.54 (File: Dy) 0 ta
-0.180 (e_0_1_V2_900V_25.2.dat) tb gr
48.00 334.87 (T) 0 ta
-1.080 (ue Apr  9 22:04:34 2019) tb gr
48.00 430.87 (Fitfunktion:  a + b * e) 0 ta
-0.270 (xp\(-c * t\)) tb gr
48.00 420.50 (t-Inter) 0 ta
0.270 (v) tb
-0.225 (all: 90.000 ... 550.000 ms) tb gr
48.00 410.14 (P) 0 ta
-0.360 (ar) tb
-0.090 (ameter \(Standardabw) tb
-0.090 (eichung\):) tb gr
48.00 399.77 (  a = 0.01284 \(0.00064\)) 0 0 t
48.00 389.40 (  b = 0.26850 \(0.00536\)) 0 0 t
48.00 379.03 (  c = 8.277e+00 \(1.732e-01\) s^-1) 0 0 t
48.00 368.66 (  tau = 1.208e-01 \(2.529e-03\) s) 0 0 t
216.00 345.60 388.80 518.40 cl
0 0 0 srgb
0.75 setlinewidth
[] 0 setdash
1 setlinecap
1 setlinejoin
10.00 setmiterlimit
np
222.40 505.81 m
0.15 0.54 l
0.14 -0.20 l
0.15 0 l
0.14 -0.99 l
0.15 0.15 l
0.14 0.69 l
0.15 0.69 l
0.14 -0.34 l
0.15 -0.54 l
0.15 1.22 l
0.14 -0.34 l
0.15 -1.38 l
0.14 -0.15 l
0.15 0.84 l
0.14 -0.49 l
0.15 -0.20 l
0.14 0.35 l
0.15 0.49 l
0.15 0 l
0.14 1.04 l
0.15 -0.69 l
0.14 -0.99 l
0.15 -0.20 l
0.14 1.04 l
0.15 -0.20 l
0.15 1.04 l
0.14 -0.16 l
0.15 0.69 l
0.14 -2.06 l
0.15 -0.15 l
0.14 0.84 l
0.15 -0.20 l
0.14 -0.49 l
0.15 1.53 l
0.15 -1.53 l
0.14 0.34 l
0.15 0 l
0.14 -0.19 l
0.15 -0.84 l
0.14 1.38 l
0.15 -0.35 l
0.14 0.69 l
0.15 -0.54 l
0.15 0 l
0.14 -0.64 l
0.15 0.15 l
0.14 -0.35 l
0.15 1.38 l
0.14 -0.69 l
0.15 0.84 l
0.14 -1.53 l
0.15 1.38 l
0.15 -0.69 l
0.14 1.03 l
0.15 0 l
0.14 -0.19 l
0.15 -0.69 l
0.14 0 l
0.15 -1.18 l
0.15 0.34 l
0.14 0.20 l
0.15 0.49 l
0.14 -0.84 l
0.15 0.50 l
0.14 0 l
0.15 -0.15 l
0.14 0.64 l
0.15 0.35 l
0.15 -0.50 l
0.14 1.19 l
0.15 -0.16 l
0.14 -0.68 l
0.15 -0.54 l
0.14 0.69 l
0.15 -0.69 l
0.14 0.34 l
0.15 0 l
0.15 -0.64 l
0.14 -0.69 l
0.15 0.84 l
0.14 0 l
0.15 1.18 l
0.14 0.54 l
0.15 -1.57 l
0.14 -0.65 l
0.15 -0.34 l
0.15 0.84 l
0.14 1.03 l
0.15 -0.19 l
0.14 0.34 l
0.15 -1.03 l
0.14 0 l
0.15 -1.87 l
0.15 2.06 l
0.14 -0.84 l
0.15 1.19 l
0.14 -0.35 l
0.15 0.84 l
0.14 -0.69 l
236.96 438.80 lineto
0.14 2.69 l
0.15 5.03 l
0.15 3.25 l
0.14 3.09 l
0.15 2.90 l
0.14 2.56 l
0.15 2.07 l
0.14 2.75 l
0.15 2.56 l
0.14 3.43 l
0.15 2.41 l
0.15 1.72 l
0.14 1.53 l
0.15 1.72 l
0.14 2.56 l
0.15 1.37 l
0.14 1.38 l
0.15 1.72 l
0.14 1.03 l
0.15 1.87 l
0.15 0.88 l
0.14 1.18 l
0.15 1.38 l
0.14 1.38 l
0.15 0 l
0.14 1.18 l
0.15 -1.18 l
0.15 1.71 l
0.14 0.69 l
0.15 1.19 l
0.14 -0.16 l
0.15 1.72 l
0.14 -0.53 l
0.15 1.22 l
0.14 0.34 l
0.15 -0.53 l
0.15 1.22 l
0.14 0 l
0.15 0.31 l
0.14 0.53 l
0.15 -0.19 l
0.14 0 l
0.15 -0.34 l
0.14 0.88 l
0.15 0.15 l
0.15 0.53 l
0.14 -0.68 l
0.15 -0.54 l
0.14 0.54 l
0.15 0.84 l
0.14 0.53 l
0.15 1.03 l
0.14 -1.72 l
0.15 1.19 l
0.15 -0.50 l
0.14 0.50 l
0.15 -1.03 l
0.14 0.34 l
0.15 -0.50 l
0.14 0.50 l
0.15 0 l
0.15 0.34 l
0.14 0.35 l
0.15 0.53 l
0.14 -0.34 l
0.15 -0.34 l
0.14 -0.69 l
0.15 1.03 l
0.14 -0.34 l
0.15 -0.35 l
0.15 0 l
0.14 0.84 l
0.15 -0.49 l
0.14 0.34 l
0.15 -0.69 l
0.14 -0.19 l
0.15 -0.50 l
0.14 0 l
0.15 1.72 l
0.15 -0.34 l
0.14 0.69 l
0.15 1.18 l
0.14 -1.87 l
0.15 -0.34 l
0.14 -0.69 l
0.15 -0.88 l
0.14 0 l
0.15 -0.69 l
0.15 1.91 l
0.14 -0.19 l
0.15 0.69 l
0.14 0.88 l
0.15 -1.38 l
0.14 -0.53 l
0.15 0 l
0.15 0.53 l
0.14 1.38 l
0.15 0.34 l
0.14 0 l
251.52 503.10 lineto
0.14 -1.03 l
0.15 -1.38 l
0.14 0.15 l
0.15 -0.34 l
0.15 0 l
0.14 -0.84 l
0.15 1.03 l
0.14 0 l
0.15 1.19 l
0.14 -0.35 l
0.15 0.69 l
0.14 1.57 l
0.15 0.15 l
0.15 -0.84 l
0.14 -0.88 l
0.15 -0.50 l
0.14 -0.19 l
0.15 -0.34 l
0.14 0.53 l
0.15 0 l
0.14 0.35 l
0.15 0 l
0.15 -0.35 l
0.14 0 l
0.15 -0.34 l
0.14 0.69 l
0.15 -0.19 l
0.14 0.68 l
0.15 -0.15 l
0.14 0.69 l
0.15 -0.69 l
0.15 0.34 l
0.14 -0.87 l
0.15 0.68 l
0.14 -1.03 l
0.15 0.54 l
0.14 0 l
0.15 0.34 l
0.15 -0.53 l
0.14 0.53 l
0.15 -0.34 l
0.14 0.68 l
0.15 0.16 l
0.14 -0.84 l
0.15 0 l
0.14 0.34 l
0.15 0.50 l
0.15 0.34 l
0.14 -0.69 l
0.15 1.23 l
0.14 -1.23 l
0.15 -0.34 l
0.14 0 l
0.15 0.19 l
0.14 -0.34 l
0.15 1.03 l
0.15 -0.19 l
0.14 0.34 l
0.15 -0.50 l
0.14 -0.68 l
0.15 0.49 l
0.14 0.19 l
0.15 0.50 l
0.14 -0.34 l
0.15 0.34 l
0.15 0 l
0.14 -0.34 l
0.15 -0.69 l
0.14 0.34 l
0.15 -0.15 l
0.14 1.03 l
0.15 -0.53 l
0.15 -0.16 l
0.14 0.35 l
0.15 -0.54 l
0.14 0.35 l
0.15 0.69 l
0.14 0.19 l
0.15 0 l
0.14 -0.19 l
0.15 0 l
0.15 -0.16 l
0.14 0.16 l
0.15 -0.35 l
0.14 1.03 l
0.15 -0.34 l
0.14 0.53 l
0.15 -0.87 l
0.14 0 l
0.15 -0.35 l
0.15 0.35 l
0.14 0.53 l
0.15 0.50 l
0.14 0 l
0.15 -1.19 l
0.14 0.50 l
0.15 -1.38 l
0.14 1.57 l
0.15 -0.69 l
266.08 504.63 lineto
0.14 0 l
0.15 0.34 l
0.14 -2.22 l
0.15 0.69 l
0.14 1.19 l
0.15 -0.16 l
0.15 0.16 l
0.14 -0.35 l
0.15 0.35 l
0.14 0.19 l
0.15 -1.03 l
0.14 0 l
0.15 0.68 l
0.14 0.35 l
0.15 0 l
0.15 0 l
0.14 0 l
0.15 -0.54 l
0.14 -0.15 l
0.15 1.53 l
0.14 -0.69 l
0.15 0.34 l
0.14 -0.68 l
0.15 0.53 l
0.15 -0.88 l
0.14 0.88 l
0.15 -0.69 l
0.14 0.84 l
0.15 -0.84 l
0.14 1.19 l
0.15 -1.19 l
0.14 -0.19 l
0.15 -0.15 l
0.15 0.84 l
0.14 0 l
0.15 0.19 l
0.14 0 l
0.15 -1.03 l
0.14 1.03 l
0.15 1.34 l
0.15 -1.68 l
0.14 0 l
0.15 0.84 l
0.14 -0.50 l
0.15 -0.19 l
0.14 0.54 l
0.15 -0.88 l
0.14 1.03 l
0.15 -0.69 l
0.15 0.54 l
0.14 0 l
0.15 -0.54 l
0.14 -0.34 l
0.15 0.68 l
0.14 0.50 l
0.15 -0.30 l
0.14 -0.20 l
0.15 0.35 l
0.15 -0.35 l
0.14 0.35 l
0.15 -0.15 l
0.14 0 l
0.15 0 l
0.14 0.15 l
0.15 0.49 l
0.14 -0.15 l
0.15 0 l
0.15 -1.53 l
0.14 1.04 l
0.15 0.99 l
0.14 -1.19 l
0.15 0.84 l
0.14 -1.18 l
0.15 1.38 l
0.15 -0.35 l
0.14 0.35 l
0.15 -1.04 l
0.14 1.19 l
0.15 -0.50 l
0.14 0 l
0.15 -0.49 l
0.14 -0.20 l
0.15 1.38 l
0.15 -0.19 l
0.14 -0.84 l
0.15 0.69 l
0.14 0 l
0.15 0.34 l
0.14 -0.34 l
0.15 0.34 l
0.14 -0.69 l
0.15 0.50 l
0.15 -0.84 l
0.14 1.37 l
0.15 -0.19 l
0.14 -0.69 l
0.15 -0.15 l
0.14 0.50 l
0.15 -0.50 l
280.63 506.69 lineto
0.15 0.69 l
0.15 0 l
0.14 -0.54 l
0.15 0.19 l
0.14 -0.68 l
0.15 0.15 l
0.14 -0.35 l
0.15 1.38 l
0.15 -1.03 l
0.14 1.22 l
0.15 -1.03 l
0.14 0.34 l
0.15 -0.53 l
0.14 0.69 l
0.15 -1.53 l
0.14 1.53 l
0.15 -0.84 l
0.15 1.52 l
0.14 -0.49 l
0.15 -0.35 l
0.14 0.16 l
0.15 -0.35 l
0.14 -0.34 l
0.15 1.22 l
0.14 -0.69 l
0.15 0.84 l
0.15 -1.03 l
0.14 0.54 l
0.15 0.15 l
0.14 0.19 l
0.15 -0.53 l
0.14 0.87 l
0.15 -0.34 l
0.14 0 l
0.15 -0.19 l
0.15 0.34 l
0.14 -0.68 l
0.15 0.34 l
0.14 -0.15 l
0.15 -0.19 l
0.14 0.87 l
0.15 -0.19 l
0.14 -0.34 l
0.15 0.69 l
0.15 -0.84 l
0.14 0.34 l
0.15 0.50 l
0.14 -0.16 l
0.15 -0.19 l
0.14 0.35 l
0.15 -0.50 l
0.15 0.69 l
0.14 -0.69 l
0.15 0.15 l
0.14 0.19 l
0.15 -0.34 l
0.14 0.34 l
0.15 -0.34 l
0.14 0.50 l
0.15 -0.35 l
0.15 0.54 l
0.14 -0.35 l
0.15 0.16 l
0.14 0.19 l
0.15 0 l
0.14 -0.35 l
0.15 0.35 l
0.14 1.03 l
0.15 -1.91 l
0.15 1.03 l
0.14 -0.84 l
0.15 0.69 l
0.14 -0.35 l
0.15 0.16 l
0.14 0.19 l
0.15 0.69 l
0.14 -0.88 l
0.15 0 l
0.15 0.53 l
0.14 0.16 l
0.15 0.19 l
0.14 -0.54 l
0.15 -0.50 l
0.14 0.69 l
0.15 -0.19 l
0.15 0.69 l
0.14 -0.69 l
0.15 0.54 l
0.14 -0.69 l
0.15 0.50 l
0.14 -0.16 l
0.15 0.16 l
0.14 -0.35 l
0.15 0.19 l
0.15 1.03 l
0.14 0.16 l
0.15 -1.03 l
0.14 0.68 l
0.15 -0.84 l
295.19 509.10 lineto
0.15 0 l
0.14 -1.04 l
0.15 1.04 l
0.15 0 l
0.14 -0.54 l
0.15 0.19 l
0.14 0.16 l
0.15 0.19 l
0.14 -0.69 l
0.15 0.69 l
0.14 0.15 l
0.15 -0.15 l
0.15 0 l
0.14 -0.35 l
0.15 0 l
0.14 0.50 l
0.15 -0.15 l
0.14 0.68 l
0.15 -0.19 l
0.15 0.19 l
0.14 0 l
0.15 -0.68 l
0.14 0.15 l
0.15 0.19 l
0.14 -0.34 l
0.15 0.34 l
0.14 -0.34 l
0.15 1.37 l
0.15 -1.22 l
0.14 0.69 l
0.15 -1.03 l
0.14 1.03 l
0.15 -1.88 l
0.14 1.72 l
0.15 -0.34 l
0.14 0.34 l
0.15 -0.87 l
0.15 0.34 l
0.14 -0.34 l
0.15 1.37 l
0.14 -0.84 l
0.15 0.15 l
0.14 0.35 l
0.15 0.53 l
0.14 -2.06 l
0.15 1.18 l
0.15 1.03 l
0.14 0.35 l
0.15 -0.84 l
0.14 0.34 l
0.15 -0.53 l
0.14 0.53 l
0.15 -1.22 l
0.15 1.22 l
0.14 -0.69 l
0.15 0.35 l
0.14 -0.88 l
0.15 0.34 l
0.14 0.19 l
0.15 0.50 l
0.14 -1.03 l
0.15 0.34 l
0.15 0.54 l
0.14 -0.35 l
0.15 0.16 l
0.14 -0.84 l
0.15 0.15 l
0.14 1.57 l
0.15 -1.04 l
0.14 0.84 l
0.15 -0.84 l
0.15 0 l
0.14 -0.19 l
0.15 0.69 l
0.14 -0.84 l
0.15 0.69 l
0.14 0 l
0.15 0.15 l
0.14 -0.15 l
0.15 0.49 l
0.15 -0.49 l
0.14 0.69 l
0.15 -1.57 l
0.14 1.03 l
0.15 -0.50 l
0.14 0.35 l
0.15 -0.69 l
0.15 1.18 l
0.14 -0.68 l
0.15 0.34 l
0.14 -0.50 l
0.15 0.50 l
0.14 0 l
0.15 0.54 l
0.14 -0.88 l
0.15 0.88 l
0.15 -1.04 l
0.14 0.69 l
0.15 -0.88 l
309.75 510.62 lineto
0.15 -0.68 l
0.14 0.19 l
0.15 0.34 l
0.14 -0.34 l
0.15 -0.19 l
0.15 -0.16 l
0.14 0.50 l
0.15 1.22 l
0.14 -1.22 l
0.15 0.69 l
0.14 0 l
0.15 -0.35 l
0.14 0.35 l
0.15 -0.15 l
0.15 -1.04 l
0.14 0.69 l
0.15 -0.34 l
0.14 -0.19 l
0.15 0 l
0.14 0.68 l
0.15 0.20 l
0.15 0 l
0.14 -0.54 l
0.15 0.34 l
0.14 -1.03 l
0.15 0.88 l
0.14 -0.19 l
0.15 0.88 l
0.14 -1.38 l
0.15 1.72 l
0.15 -1.22 l
0.14 1.22 l
0.15 -2.25 l
0.14 1.22 l
0.15 -0.19 l
0.14 1.22 l
0.15 -1.03 l
0.14 0.69 l
0.15 -1.57 l
0.15 1.38 l
0.14 -0.35 l
0.15 0.69 l
0.14 -1.53 l
0.15 1.72 l
0.14 -1.22 l
0.15 0.88 l
0.14 -1.03 l
0.15 0 l
0.15 1.03 l
0.14 -0.19 l
0.15 -1.03 l
0.14 1.03 l
0.15 -0.84 l
0.14 0.49 l
0.15 -0.84 l
0.15 1.72 l
0.14 -0.88 l
0.15 0.54 l
0.14 0 l
0.15 -0.34 l
0.14 -0.35 l
0.15 0.35 l
0.14 0.15 l
0.15 0.34 l
0.15 -0.49 l
0.14 -0.69 l
0.15 0.49 l
0.14 -0.15 l
0.15 0.15 l
0.14 0.88 l
0.15 0 l
0.14 -1.56 l
0.15 0.53 l
0.15 0.69 l
0.14 -0.19 l
0.15 -1.03 l
0.14 0.68 l
0.15 0 l
0.14 0 l
0.15 0 l
0.14 -0.49 l
0.15 0.84 l
0.15 0 l
0.14 -0.50 l
0.15 1.03 l
0.14 -0.68 l
0.15 -0.69 l
0.14 0.69 l
0.15 -0.54 l
0.14 0.88 l
0.15 -0.34 l
0.15 -0.35 l
0.14 -0.53 l
0.15 1.03 l
0.14 -1.03 l
0.15 0.53 l
0.14 0.69 l
0.15 -0.34 l
0.15 -0.88 l
324.31 510.82 lineto
0.15 -0.54 l
0.14 1.38 l
0.15 -1.19 l
0.14 0 l
0.15 0 l
0.14 0.50 l
0.15 -0.50 l
0.15 0.35 l
0.14 0.34 l
0.15 -0.54 l
0.14 0.20 l
0.15 0.34 l
0.14 -0.34 l
0.15 -0.54 l
0.14 -0.15 l
0.15 0.49 l
0.15 -0.84 l
0.14 1.53 l
0.15 -0.15 l
0.14 0.15 l
0.15 0.19 l
0.14 -0.19 l
0.15 -1.03 l
0.14 0.69 l
0.15 -0.50 l
0.15 0.50 l
0.14 -0.15 l
0.15 -0.20 l
0.14 0 l
0.15 0.69 l
0.14 -0.49 l
0.15 0.15 l
0.15 0 l
0.14 0.69 l
0.15 -0.84 l
0.14 -0.20 l
0.15 -0.34 l
0.14 0.88 l
0.15 -1.03 l
0.14 0.15 l
0.15 -0.15 l
0.15 1.03 l
0.14 -0.69 l
0.15 1.38 l
0.14 -1.91 l
0.15 0.88 l
0.14 0 l
0.15 0.15 l
0.14 0.19 l
0.15 0.34 l
0.15 -0.34 l
0.14 -0.54 l
0.15 -0.15 l
0.14 0.35 l
0.15 0 l
0.14 -0.88 l
0.15 1.03 l
0.14 -0.50 l
0.15 0.35 l
0.15 0.68 l
0.14 -1.03 l
0.15 1.19 l
0.14 -1.19 l
0.15 0.35 l
0.14 0.15 l
0.15 0.34 l
0.15 -0.69 l
0.14 0.20 l
0.15 0.15 l
0.14 0.34 l
0.15 0.19 l
0.14 -0.88 l
0.15 0.20 l
0.14 -0.35 l
0.15 0.84 l
0.15 -0.69 l
0.14 0.54 l
0.15 -0.69 l
0.14 0.50 l
0.15 0.34 l
0.14 -0.84 l
0.15 0.50 l
0.14 0.19 l
0.15 -0.19 l
0.15 -0.35 l
0.14 0.20 l
0.15 -0.20 l
0.14 0.20 l
0.15 0.34 l
0.14 0 l
0.15 -0.19 l
0.14 -0.15 l
0.15 -0.35 l
0.15 -0.19 l
0.14 -0.50 l
0.15 0.50 l
0.14 1.03 l
0.15 -0.49 l
0.14 -0.35 l
338.87 510.82 lineto
0.15 -0.35 l
0.14 0.35 l
0.15 0 l
0.14 0.34 l
0.15 0 l
0.14 -0.19 l
0.15 -0.50 l
0.14 0.35 l
0.15 -0.69 l
0.15 0 l
0.14 0.84 l
0.15 -0.84 l
0.14 0.34 l
0.15 0.50 l
0.14 1.03 l
0.15 -0.50 l
0.14 -1.37 l
0.15 0.49 l
0.15 -0.15 l
0.14 0.69 l
0.15 -0.54 l
0.14 -0.34 l
0.15 0.88 l
0.14 0.15 l
0.15 -1.03 l
0.14 1.03 l
0.15 -0.49 l
0.15 -0.69 l
0.14 0.69 l
0.15 0.34 l
0.14 -0.69 l
0.15 0.69 l
0.14 -1.03 l
0.15 0.15 l
0.15 0.88 l
0.14 -0.54 l
0.15 -0.15 l
0.14 0 l
0.15 0.69 l
0.14 0.15 l
0.15 -0.49 l
0.14 -0.20 l
0.15 -0.34 l
0.15 0.54 l
0.14 -0.54 l
0.15 1.22 l
0.14 -1.37 l
0.15 0.15 l
0.14 0.54 l
0.15 -1.04 l
0.14 1.19 l
0.15 0 l
0.15 -1.03 l
0.14 1.03 l
0.15 0.19 l
0.14 -0.88 l
0.15 0.19 l
0.14 0.35 l
0.15 0 l
0.14 0 l
0.15 -0.88 l
0.15 1.22 l
0.14 -0.88 l
0.15 0.69 l
0.14 -0.50 l
0.15 0.50 l
0.14 0.34 l
0.15 -0.69 l
0.15 -0.15 l
0.14 -0.19 l
0.15 0.34 l
0.14 1.04 l
0.15 -1.19 l
0.14 0.84 l
0.15 -1.03 l
0.14 0.54 l
0.15 -0.35 l
0.15 0.35 l
0.14 -0.69 l
0.15 1.37 l
0.14 -0.34 l
0.15 -0.54 l
0.14 -1.03 l
0.15 2.07 l
0.14 -1.53 l
0.15 0.69 l
0.15 -0.20 l
0.14 -0.15 l
0.15 -0.19 l
0.14 0.19 l
0.15 0.15 l
0.14 0.35 l
0.15 -0.35 l
0.14 0.35 l
0.15 -0.50 l
0.15 0.35 l
0.14 0.49 l
0.15 -0.34 l
0.14 -0.84 l
353.43 510.97 lineto
0.14 -1.03 l
0.15 0.53 l
0.14 -0.19 l
0.15 1.03 l
0.15 -0.34 l
0.14 -0.84 l
0.15 -0.19 l
0.14 0.53 l
0.15 -0.19 l
0.14 0.54 l
0.15 -0.88 l
0.15 0.34 l
0.14 0.69 l
0.15 0.34 l
0.14 -0.69 l
0.15 -0.68 l
0.14 0.68 l
0.15 -0.68 l
0.14 0.19 l
0.15 0.84 l
0.15 -0.35 l
0.14 0.35 l
0.15 -0.50 l
0.14 -0.53 l
0.15 0.68 l
0.14 -0.15 l
0.15 -0.19 l
0.14 0 l
0.15 0 l
0.15 0.34 l
0.14 0.20 l
0.15 -0.35 l
0.14 -0.34 l
0.15 0.49 l
0.14 -0.68 l
0.15 0.19 l
0.14 0.69 l
0.15 0 l
0.15 -0.20 l
0.14 -0.34 l
0.15 0.19 l
0.14 0 l
0.15 -0.88 l
0.14 1.03 l
0.15 -0.68 l
0.15 1.22 l
0.14 -1.57 l
0.15 0.88 l
0.14 -0.53 l
0.15 0.19 l
0.14 0.34 l
0.15 0.15 l
0.14 -0.84 l
0.15 1.04 l
0.15 -0.54 l
0.14 0.34 l
0.15 -1.18 l
0.14 1.38 l
0.15 -0.20 l
0.14 0.69 l
0.15 -0.84 l
0.14 -0.69 l
0.15 0.50 l
0.15 0.69 l
0.14 -0.50 l
0.15 0 l
0.14 -0.53 l
0.15 0.53 l
0.14 -0.69 l
0.15 -0.34 l
0.14 0.84 l
0.15 0.34 l
0.15 -1.03 l
0.14 0.54 l
0.15 -0.19 l
0.14 0.68 l
0.15 -1.03 l
0.14 0.88 l
0.15 -0.53 l
0.15 0.88 l
0.14 -0.54 l
0.15 0.19 l
0.14 -0.34 l
0.15 0.15 l
0.14 -0.15 l
0.15 0.34 l
0.14 0.15 l
0.15 -0.68 l
0.15 0.68 l
0.14 -0.49 l
0.15 0.15 l
0.14 0 l
0.15 -0.34 l
0.14 0.34 l
0.15 -0.15 l
0.14 0.34 l
0.15 -0.53 l
0.15 0 l
0.14 0.53 l
currentpoint o m
367.99 510.13 lineto
0.14 0 l
0.15 0.34 l
0.14 -0.19 l
0.15 0.19 l
0.14 -0.34 l
0.15 1.37 l
0.15 -1.03 l
0.14 0 l
0.15 0.35 l
0.14 -0.35 l
0.15 -0.69 l
0.14 0 l
0.15 -0.68 l
0.15 1.18 l
0.14 -0.50 l
0.15 0.50 l
0.14 -0.34 l
0.15 0.88 l
0.14 -1.91 l
0.15 1.22 l
0.14 0.34 l
0.15 0.50 l
0.15 -0.69 l
0.14 -0.15 l
0.15 -0.54 l
0.14 0.69 l
0.15 -0.69 l
0.14 0.69 l
0.15 0 l
0.14 0 l
0.15 0.34 l
0.15 -0.15 l
0.14 -0.53 l
0.15 0.68 l
0.14 0 l
0.15 0.69 l
0.14 -1.53 l
0.15 0.50 l
0.14 0.19 l
0.15 -0.34 l
0.15 0.34 l
0.14 0.15 l
0.15 -0.68 l
0.14 0.19 l
0.15 -0.19 l
0.14 -0.16 l
0.15 0.84 l
0.15 -0.49 l
0.14 0 l
0.15 0.15 l
0.14 -0.34 l
0.15 -0.69 l
0.14 0.88 l
0.15 0.49 l
0.14 -1.03 l
0.15 1.23 l
0.15 -0.69 l
0.14 1.03 l
0.15 -0.69 l
0.14 -0.88 l
0.15 -0.68 l
0.14 0.87 l
0.15 0.69 l
0.14 -0.34 l
0.15 0 l
0.15 1.18 l
0.14 -0.49 l
0.15 0.15 l
0.14 -0.35 l
0.15 0.20 l
0.14 -0.69 l
0.15 -0.19 l
0.14 0.88 l
0.15 -0.54 l
0.15 -0.69 l
0.14 1.72 l
0.15 -0.84 l
0.14 -0.88 l
0.15 -0.15 l
0.14 0.15 l
0.15 0 l
0.15 0.88 l
0.14 0 l
0.15 -0.53 l
0.14 0.34 l
0.15 0 l
0.14 -0.84 l
0.15 0.15 l
0.14 0.54 l
0.15 0.84 l
0.15 -0.15 l
0.14 -0.88 l
0.15 -1.03 l
0.14 0.87 l
0.15 0.16 l
0.14 -0.50 l
0.15 0.69 l
0.14 0 l
0.15 0.34 l
o
/bg { 1 1 1 srgb } def
222.40 505.81 0.43 c p3
222.55 506.35 0.43 c p3
222.69 506.15 0.43 c p3
222.84 506.15 0.43 c p3
222.98 505.16 0.43 c p3
223.13 505.31 0.43 c p3
223.27 506.00 0.43 c p3
223.42 506.69 0.43 c p3
223.56 506.35 0.43 c p3
223.71 505.81 0.43 c p3
223.86 507.03 0.43 c p3
224.00 506.69 0.43 c p3
224.15 505.31 0.43 c p3
224.29 505.16 0.43 c p3
224.44 506.00 0.43 c p3
224.58 505.51 0.43 c p3
224.73 505.31 0.43 c p3
224.87 505.66 0.43 c p3
225.02 506.15 0.43 c p3
225.17 506.15 0.43 c p3
225.31 507.19 0.43 c p3
225.46 506.50 0.43 c p3
225.60 505.51 0.43 c p3
225.75 505.31 0.43 c p3
225.89 506.35 0.43 c p3
226.04 506.15 0.43 c p3
226.19 507.19 0.43 c p3
226.33 507.03 0.43 c p3
226.48 507.72 0.43 c p3
226.62 505.66 0.43 c p3
226.77 505.51 0.43 c p3
226.91 506.35 0.43 c p3
227.06 506.15 0.43 c p3
227.20 505.66 0.43 c p3
227.35 507.19 0.43 c p3
227.50 505.66 0.43 c p3
227.64 506.00 0.43 c p3
227.79 506.00 0.43 c p3
227.93 505.81 0.43 c p3
228.08 504.97 0.43 c p3
228.22 506.35 0.43 c p3
228.37 506.00 0.43 c p3
228.51 506.69 0.43 c p3
228.66 506.15 0.43 c p3
228.81 506.15 0.43 c p3
228.95 505.51 0.43 c p3
229.10 505.66 0.43 c p3
229.24 505.31 0.43 c p3
229.39 506.69 0.43 c p3
229.53 506.00 0.43 c p3
229.68 506.84 0.43 c p3
229.82 505.31 0.43 c p3
229.97 506.69 0.43 c p3
230.12 506.00 0.43 c p3
230.26 507.03 0.43 c p3
230.41 507.03 0.43 c p3
230.55 506.84 0.43 c p3
230.70 506.15 0.43 c p3
230.84 506.15 0.43 c p3
230.99 504.97 0.43 c p3
231.14 505.31 0.43 c p3
231.28 505.51 0.43 c p3
231.43 506.00 0.43 c p3
231.57 505.16 0.43 c p3
231.72 505.66 0.43 c p3
231.86 505.66 0.43 c p3
232.01 505.51 0.43 c p3
232.15 506.15 0.43 c p3
232.30 506.50 0.43 c p3
232.45 506.00 0.43 c p3
232.59 507.19 0.43 c p3
232.74 507.03 0.43 c p3
232.88 506.35 0.43 c p3
233.03 505.81 0.43 c p3
233.17 506.50 0.43 c p3
233.32 505.81 0.43 c p3
233.46 506.15 0.43 c p3
233.61 506.15 0.43 c p3
233.76 505.51 0.43 c p3
233.90 504.82 0.43 c p3
234.05 505.66 0.43 c p3
234.19 505.66 0.43 c p3
234.34 506.84 0.43 c p3
234.48 507.38 0.43 c p3
234.63 505.81 0.43 c p3
234.77 505.16 0.43 c p3
234.92 504.82 0.43 c p3
235.07 505.66 0.43 c p3
235.21 506.69 0.43 c p3
235.36 506.50 0.43 c p3
235.50 506.84 0.43 c p3
235.65 505.81 0.43 c p3
235.79 505.81 0.43 c p3
235.94 503.94 0.43 c p3
236.09 506.00 0.43 c p3
236.23 505.16 0.43 c p3
236.38 506.35 0.43 c p3
236.52 506.00 0.43 c p3
236.67 506.84 0.43 c p3
236.81 506.15 0.43 c p3
236.96 438.80 0.43 c p3
237.10 441.49 0.43 c p3
237.25 446.52 0.43 c p3
237.40 449.77 0.43 c p3
237.54 452.86 0.43 c p3
237.69 455.76 0.43 c p3
237.83 458.32 0.43 c p3
237.98 460.39 0.43 c p3
238.12 463.14 0.43 c p3
238.27 465.70 0.43 c p3
238.41 469.13 0.43 c p3
238.56 471.54 0.43 c p3
238.71 473.26 0.43 c p3
238.85 474.79 0.43 c p3
239.00 476.51 0.43 c p3
239.14 479.07 0.43 c p3
239.29 480.44 0.43 c p3
239.43 481.82 0.43 c p3
239.58 483.54 0.43 c p3
239.72 484.57 0.43 c p3
239.87 486.44 0.43 c p3
240.02 487.32 0.43 c p3
240.16 488.50 0.43 c p3
240.31 489.88 0.43 c p3
240.45 491.26 0.43 c p3
240.60 491.26 0.43 c p3
240.74 492.44 0.43 c p3
240.89 491.26 0.43 c p3
241.04 492.97 0.43 c p3
241.18 493.66 0.43 c p3
241.33 494.85 0.43 c p3
241.47 494.69 0.43 c p3
241.62 496.41 0.43 c p3
241.76 495.88 0.43 c p3
241.91 497.10 0.43 c p3
242.05 497.44 0.43 c p3
242.20 496.91 0.43 c p3
242.35 498.13 0.43 c p3
242.49 498.13 0.43 c p3
242.64 498.44 0.43 c p3
242.78 498.97 0.43 c p3
242.93 498.78 0.43 c p3
243.07 498.78 0.43 c p3
243.22 498.44 0.43 c p3
243.36 499.32 0.43 c p3
243.51 499.47 0.43 c p3
243.66 500.00 0.43 c p3
243.80 499.32 0.43 c p3
243.95 498.78 0.43 c p3
244.09 499.32 0.43 c p3
244.24 500.16 0.43 c p3
244.38 500.69 0.43 c p3
244.53 501.72 0.43 c p3
244.67 500.00 0.43 c p3
244.82 501.19 0.43 c p3
244.97 500.69 0.43 c p3
245.11 501.19 0.43 c p3
245.26 500.16 0.43 c p3
245.40 500.50 0.43 c p3
245.55 500.00 0.43 c p3
245.69 500.50 0.43 c p3
245.84 500.50 0.43 c p3
245.99 500.84 0.43 c p3
246.13 501.19 0.43 c p3
246.28 501.72 0.43 c p3
246.42 501.38 0.43 c p3
246.57 501.04 0.43 c p3
246.71 500.35 0.43 c p3
246.86 501.38 0.43 c p3
247.00 501.04 0.43 c p3
247.15 500.69 0.43 c p3
247.30 500.69 0.43 c p3
247.44 501.53 0.43 c p3
247.59 501.04 0.43 c p3
247.73 501.38 0.43 c p3
247.88 500.69 0.43 c p3
248.02 500.50 0.43 c p3
248.17 500.00 0.43 c p3
248.31 500.00 0.43 c p3
248.46 501.72 0.43 c p3
248.61 501.38 0.43 c p3
248.75 502.07 0.43 c p3
248.90 503.25 0.43 c p3
249.04 501.38 0.43 c p3
249.19 501.04 0.43 c p3
249.33 500.35 0.43 c p3
249.48 499.47 0.43 c p3
249.62 499.47 0.43 c p3
249.77 498.78 0.43 c p3
249.92 500.69 0.43 c p3
250.06 500.50 0.43 c p3
250.21 501.19 0.43 c p3
250.35 502.07 0.43 c p3
250.50 500.69 0.43 c p3
250.64 500.16 0.43 c p3
250.79 500.16 0.43 c p3
250.94 500.69 0.43 c p3
251.08 502.07 0.43 c p3
251.23 502.41 0.43 c p3
251.37 502.41 0.43 c p3
251.52 503.10 0.43 c p3
251.66 502.07 0.43 c p3
251.81 500.69 0.43 c p3
251.95 500.84 0.43 c p3
252.10 500.50 0.43 c p3
252.25 500.50 0.43 c p3
252.39 499.66 0.43 c p3
252.54 500.69 0.43 c p3
252.68 500.69 0.43 c p3
252.83 501.88 0.43 c p3
252.97 501.53 0.43 c p3
253.12 502.22 0.43 c p3
253.26 503.79 0.43 c p3
253.41 503.94 0.43 c p3
253.56 503.10 0.43 c p3
253.70 502.22 0.43 c p3
253.85 501.72 0.43 c p3
253.99 501.53 0.43 c p3
254.14 501.19 0.43 c p3
254.28 501.72 0.43 c p3
254.43 501.72 0.43 c p3
254.57 502.07 0.43 c p3
254.72 502.07 0.43 c p3
254.87 501.72 0.43 c p3
255.01 501.72 0.43 c p3
255.16 501.38 0.43 c p3
255.30 502.07 0.43 c p3
255.45 501.88 0.43 c p3
255.59 502.56 0.43 c p3
255.74 502.41 0.43 c p3
255.88 503.10 0.43 c p3
256.03 502.41 0.43 c p3
256.18 502.75 0.43 c p3
256.32 501.88 0.43 c p3
256.47 502.56 0.43 c p3
256.61 501.53 0.43 c p3
256.76 502.07 0.43 c p3
256.90 502.07 0.43 c p3
257.05 502.41 0.43 c p3
257.20 501.88 0.43 c p3
257.34 502.41 0.43 c p3
257.49 502.07 0.43 c p3
257.63 502.75 0.43 c p3
257.78 502.91 0.43 c p3
257.92 502.07 0.43 c p3
258.07 502.07 0.43 c p3
258.21 502.41 0.43 c p3
258.36 502.91 0.43 c p3
258.51 503.25 0.43 c p3
258.65 502.56 0.43 c p3
258.80 503.79 0.43 c p3
258.94 502.56 0.43 c p3
259.09 502.22 0.43 c p3
259.23 502.22 0.43 c p3
259.38 502.41 0.43 c p3
259.52 502.07 0.43 c p3
259.67 503.10 0.43 c p3
259.82 502.91 0.43 c p3
259.96 503.25 0.43 c p3
260.11 502.75 0.43 c p3
260.25 502.07 0.43 c p3
260.40 502.56 0.43 c p3
260.54 502.75 0.43 c p3
260.69 503.25 0.43 c p3
260.83 502.91 0.43 c p3
260.98 503.25 0.43 c p3
261.13 503.25 0.43 c p3
261.27 502.91 0.43 c p3
261.42 502.22 0.43 c p3
261.56 502.56 0.43 c p3
261.71 502.41 0.43 c p3
261.85 503.44 0.43 c p3
262.00 502.91 0.43 c p3
262.15 502.75 0.43 c p3
262.29 503.10 0.43 c p3
262.44 502.56 0.43 c p3
262.58 502.91 0.43 c p3
262.73 503.60 0.43 c p3
262.87 503.79 0.43 c p3
263.02 503.79 0.43 c p3
263.16 503.60 0.43 c p3
263.31 503.60 0.43 c p3
263.46 503.44 0.43 c p3
263.60 503.60 0.43 c p3
263.75 503.25 0.43 c p3
263.89 504.28 0.43 c p3
264.04 503.94 0.43 c p3
264.18 504.47 0.43 c p3
264.33 503.60 0.43 c p3
264.47 503.60 0.43 c p3
264.62 503.25 0.43 c p3
264.77 503.60 0.43 c p3
264.91 504.13 0.43 c p3
265.06 504.63 0.43 c p3
265.20 504.63 0.43 c p3
265.35 503.44 0.43 c p3
265.49 503.94 0.43 c p3
265.64 502.56 0.43 c p3
265.78 504.13 0.43 c p3
265.93 503.44 0.43 c p3
266.08 504.63 0.43 c p3
266.22 504.63 0.43 c p3
266.37 504.97 0.43 c p3
266.51 502.75 0.43 c p3
266.66 503.44 0.43 c p3
266.80 504.63 0.43 c p3
266.95 504.47 0.43 c p3
267.10 504.63 0.43 c p3
267.24 504.28 0.43 c p3
267.39 504.63 0.43 c p3
267.53 504.82 0.43 c p3
267.68 503.79 0.43 c p3
267.82 503.79 0.43 c p3
267.97 504.47 0.43 c p3
268.11 504.82 0.43 c p3
268.26 504.82 0.43 c p3
268.41 504.82 0.43 c p3
268.55 504.82 0.43 c p3
268.70 504.28 0.43 c p3
268.84 504.13 0.43 c p3
268.99 505.66 0.43 c p3
269.13 504.97 0.43 c p3
269.28 505.31 0.43 c p3
269.42 504.63 0.43 c p3
269.57 505.16 0.43 c p3
269.72 504.28 0.43 c p3
269.86 505.16 0.43 c p3
270.01 504.47 0.43 c p3
270.15 505.31 0.43 c p3
270.30 504.47 0.43 c p3
270.44 505.66 0.43 c p3
270.59 504.47 0.43 c p3
270.73 504.28 0.43 c p3
270.88 504.13 0.43 c p3
271.03 504.97 0.43 c p3
271.17 504.97 0.43 c p3
271.32 505.16 0.43 c p3
271.46 505.16 0.43 c p3
271.61 504.13 0.43 c p3
271.75 505.16 0.43 c p3
271.90 506.50 0.43 c p3
272.05 504.82 0.43 c p3
272.19 504.82 0.43 c p3
272.34 505.66 0.43 c p3
272.48 505.16 0.43 c p3
272.63 504.97 0.43 c p3
272.77 505.51 0.43 c p3
272.92 504.63 0.43 c p3
273.06 505.66 0.43 c p3
273.21 504.97 0.43 c p3
273.36 505.51 0.43 c p3
273.50 505.51 0.43 c p3
273.65 504.97 0.43 c p3
273.79 504.63 0.43 c p3
273.94 505.31 0.43 c p3
274.08 505.81 0.43 c p3
274.23 505.51 0.43 c p3
274.37 505.31 0.43 c p3
274.52 505.66 0.43 c p3
274.67 505.31 0.43 c p3
274.81 505.66 0.43 c p3
274.96 505.51 0.43 c p3
275.10 505.51 0.43 c p3
275.25 505.51 0.43 c p3
275.39 505.66 0.43 c p3
275.54 506.15 0.43 c p3
275.68 506.00 0.43 c p3
275.83 506.00 0.43 c p3
275.98 504.47 0.43 c p3
276.12 505.51 0.43 c p3
276.27 506.50 0.43 c p3
276.41 505.31 0.43 c p3
276.56 506.15 0.43 c p3
276.70 504.97 0.43 c p3
276.85 506.35 0.43 c p3
277.00 506.00 0.43 c p3
277.14 506.35 0.43 c p3
277.29 505.31 0.43 c p3
277.43 506.50 0.43 c p3
277.58 506.00 0.43 c p3
277.72 506.00 0.43 c p3
277.87 505.51 0.43 c p3
278.01 505.31 0.43 c p3
278.16 506.69 0.43 c p3
278.31 506.50 0.43 c p3
278.45 505.66 0.43 c p3
278.60 506.35 0.43 c p3
278.74 506.35 0.43 c p3
278.89 506.69 0.43 c p3
279.03 506.35 0.43 c p3
279.18 506.69 0.43 c p3
279.32 506.00 0.43 c p3
279.47 506.50 0.43 c p3
279.62 505.66 0.43 c p3
279.76 507.03 0.43 c p3
279.91 506.84 0.43 c p3
280.05 506.15 0.43 c p3
280.20 506.00 0.43 c p3
280.34 506.50 0.43 c p3
280.49 506.00 0.43 c p3
280.63 506.69 0.43 c p3
280.78 507.38 0.43 c p3
280.93 507.38 0.43 c p3
281.07 506.84 0.43 c p3
281.22 507.03 0.43 c p3
281.36 506.35 0.43 c p3
281.51 506.50 0.43 c p3
281.65 506.15 0.43 c p3
281.80 507.53 0.43 c p3
281.95 506.50 0.43 c p3
282.09 507.72 0.43 c p3
282.24 506.69 0.43 c p3
282.38 507.03 0.43 c p3
282.53 506.50 0.43 c p3
282.67 507.19 0.43 c p3
282.82 505.66 0.43 c p3
282.96 507.19 0.43 c p3
283.11 506.35 0.43 c p3
283.26 507.87 0.43 c p3
283.40 507.38 0.43 c p3
283.55 507.03 0.43 c p3
283.69 507.19 0.43 c p3
283.84 506.84 0.43 c p3
283.98 506.50 0.43 c p3
284.13 507.72 0.43 c p3
284.27 507.03 0.43 c p3
284.42 507.87 0.43 c p3
284.57 506.84 0.43 c p3
284.71 507.38 0.43 c p3
284.86 507.53 0.43 c p3
285.00 507.72 0.43 c p3
285.15 507.19 0.43 c p3
285.29 508.06 0.43 c p3
285.44 507.72 0.43 c p3
285.58 507.72 0.43 c p3
285.73 507.53 0.43 c p3
285.88 507.87 0.43 c p3
286.02 507.19 0.43 c p3
286.17 507.53 0.43 c p3
286.31 507.38 0.43 c p3
286.46 507.19 0.43 c p3
286.60 508.06 0.43 c p3
286.75 507.87 0.43 c p3
286.89 507.53 0.43 c p3
287.04 508.22 0.43 c p3
287.19 507.38 0.43 c p3
287.33 507.72 0.43 c p3
287.48 508.22 0.43 c p3
287.62 508.06 0.43 c p3
287.77 507.87 0.43 c p3
287.91 508.22 0.43 c p3
288.06 507.72 0.43 c p3
288.21 508.41 0.43 c p3
288.35 507.72 0.43 c p3
288.50 507.87 0.43 c p3
288.64 508.06 0.43 c p3
288.79 507.72 0.43 c p3
288.93 508.06 0.43 c p3
289.08 507.72 0.43 c p3
289.22 508.22 0.43 c p3
289.37 507.87 0.43 c p3
289.52 508.41 0.43 c p3
289.66 508.06 0.43 c p3
289.81 508.22 0.43 c p3
289.95 508.41 0.43 c p3
290.10 508.41 0.43 c p3
290.24 508.06 0.43 c p3
290.39 508.41 0.43 c p3
290.53 509.44 0.43 c p3
290.68 507.53 0.43 c p3
290.83 508.56 0.43 c p3
290.97 507.72 0.43 c p3
291.12 508.41 0.43 c p3
291.26 508.06 0.43 c p3
291.41 508.22 0.43 c p3
291.55 508.41 0.43 c p3
291.70 509.10 0.43 c p3
291.84 508.22 0.43 c p3
291.99 508.22 0.43 c p3
292.14 508.75 0.43 c p3
292.28 508.91 0.43 c p3
292.43 509.10 0.43 c p3
292.57 508.56 0.43 c p3
292.72 508.06 0.43 c p3
292.86 508.75 0.43 c p3
293.01 508.56 0.43 c p3
293.16 509.25 0.43 c p3
293.30 508.56 0.43 c p3
293.45 509.10 0.43 c p3
293.59 508.41 0.43 c p3
293.74 508.91 0.43 c p3
293.88 508.75 0.43 c p3
294.03 508.91 0.43 c p3
294.17 508.56 0.43 c p3
294.32 508.75 0.43 c p3
294.47 509.78 0.43 c p3
294.61 509.94 0.43 c p3
294.76 508.91 0.43 c p3
294.90 509.59 0.43 c p3
295.05 508.75 0.43 c p3
295.19 509.10 0.43 c p3
295.34 509.10 0.43 c p3
295.48 508.06 0.43 c p3
295.63 509.10 0.43 c p3
295.78 509.10 0.43 c p3
295.92 508.56 0.43 c p3
296.07 508.75 0.43 c p3
296.21 508.91 0.43 c p3
296.36 509.10 0.43 c p3
296.50 508.41 0.43 c p3
296.65 509.10 0.43 c p3
296.79 509.25 0.43 c p3
296.94 509.10 0.43 c p3
297.09 509.10 0.43 c p3
297.23 508.75 0.43 c p3
297.38 508.75 0.43 c p3
297.52 509.25 0.43 c p3
297.67 509.10 0.43 c p3
297.81 509.78 0.43 c p3
297.96 509.59 0.43 c p3
298.11 509.78 0.43 c p3
298.25 509.78 0.43 c p3
298.40 509.10 0.43 c p3
298.54 509.25 0.43 c p3
298.69 509.44 0.43 c p3
298.83 509.10 0.43 c p3
298.98 509.44 0.43 c p3
299.12 509.10 0.43 c p3
299.27 510.47 0.43 c p3
299.42 509.25 0.43 c p3
299.56 509.94 0.43 c p3
299.71 508.91 0.43 c p3
299.85 509.94 0.43 c p3
300.00 508.06 0.43 c p3
300.14 509.78 0.43 c p3
300.29 509.44 0.43 c p3
300.43 509.78 0.43 c p3
300.58 508.91 0.43 c p3
300.73 509.25 0.43 c p3
300.87 508.91 0.43 c p3
301.02 510.28 0.43 c p3
301.16 509.44 0.43 c p3
301.31 509.59 0.43 c p3
301.45 509.94 0.43 c p3
301.60 510.47 0.43 c p3
301.74 508.41 0.43 c p3
301.89 509.59 0.43 c p3
302.04 510.62 0.43 c p3
302.18 510.97 0.43 c p3
302.33 510.13 0.43 c p3
302.47 510.47 0.43 c p3
302.62 509.94 0.43 c p3
302.76 510.47 0.43 c p3
302.91 509.25 0.43 c p3
303.06 510.47 0.43 c p3
303.20 509.78 0.43 c p3
303.35 510.13 0.43 c p3
303.49 509.25 0.43 c p3
303.64 509.59 0.43 c p3
303.78 509.78 0.43 c p3
303.93 510.28 0.43 c p3
304.07 509.25 0.43 c p3
304.22 509.59 0.43 c p3
304.37 510.13 0.43 c p3
304.51 509.78 0.43 c p3
304.66 509.94 0.43 c p3
304.80 509.10 0.43 c p3
304.95 509.25 0.43 c p3
305.09 510.82 0.43 c p3
305.24 509.78 0.43 c p3
305.38 510.62 0.43 c p3
305.53 509.78 0.43 c p3
305.68 509.78 0.43 c p3
305.82 509.59 0.43 c p3
305.97 510.28 0.43 c p3
306.11 509.44 0.43 c p3
306.26 510.13 0.43 c p3
306.40 510.13 0.43 c p3
306.55 510.28 0.43 c p3
306.69 510.13 0.43 c p3
306.84 510.62 0.43 c p3
306.99 510.13 0.43 c p3
307.13 510.82 0.43 c p3
307.28 509.25 0.43 c p3
307.42 510.28 0.43 c p3
307.57 509.78 0.43 c p3
307.71 510.13 0.43 c p3
307.86 509.44 0.43 c p3
308.01 510.62 0.43 c p3
308.15 509.94 0.43 c p3
308.30 510.28 0.43 c p3
308.44 509.78 0.43 c p3
308.59 510.28 0.43 c p3
308.73 510.28 0.43 c p3
308.88 510.82 0.43 c p3
309.02 509.94 0.43 c p3
309.17 510.82 0.43 c p3
309.32 509.78 0.43 c p3
309.46 510.47 0.43 c p3
309.61 509.59 0.43 c p3
309.75 510.62 0.43 c p3
309.90 509.94 0.43 c p3
310.04 510.13 0.43 c p3
310.19 510.47 0.43 c p3
310.33 510.13 0.43 c p3
310.48 509.94 0.43 c p3
310.63 509.78 0.43 c p3
310.77 510.28 0.43 c p3
310.92 511.50 0.43 c p3
311.06 510.28 0.43 c p3
311.21 510.97 0.43 c p3
311.35 510.97 0.43 c p3
311.50 510.62 0.43 c p3
311.64 510.97 0.43 c p3
311.79 510.82 0.43 c p3
311.94 509.78 0.43 c p3
312.08 510.47 0.43 c p3
312.23 510.13 0.43 c p3
312.37 509.94 0.43 c p3
312.52 509.94 0.43 c p3
312.66 510.62 0.43 c p3
312.81 510.82 0.43 c p3
312.96 510.82 0.43 c p3
313.10 510.28 0.43 c p3
313.25 510.62 0.43 c p3
313.39 509.59 0.43 c p3
313.54 510.47 0.43 c p3
313.68 510.28 0.43 c p3
313.83 511.16 0.43 c p3
313.97 509.78 0.43 c p3
314.12 511.50 0.43 c p3
314.27 510.28 0.43 c p3
314.41 511.50 0.43 c p3
314.56 509.25 0.43 c p3
314.70 510.47 0.43 c p3
314.85 510.28 0.43 c p3
314.99 511.50 0.43 c p3
315.14 510.47 0.43 c p3
315.28 511.16 0.43 c p3
315.43 509.59 0.43 c p3
315.58 510.97 0.43 c p3
315.72 510.62 0.43 c p3
315.87 511.31 0.43 c p3
316.01 509.78 0.43 c p3
316.16 511.50 0.43 c p3
316.30 510.28 0.43 c p3
316.45 511.16 0.43 c p3
316.59 510.13 0.43 c p3
316.74 510.13 0.43 c p3
316.89 511.16 0.43 c p3
317.03 510.97 0.43 c p3
317.18 509.94 0.43 c p3
317.32 510.97 0.43 c p3
317.47 510.13 0.43 c p3
317.61 510.62 0.43 c p3
317.76 509.78 0.43 c p3
317.91 511.50 0.43 c p3
318.05 510.62 0.43 c p3
318.20 511.16 0.43 c p3
318.34 511.16 0.43 c p3
318.49 510.82 0.43 c p3
318.63 510.47 0.43 c p3
318.78 510.82 0.43 c p3
318.92 510.97 0.43 c p3
319.07 511.31 0.43 c p3
319.22 510.82 0.43 c p3
319.36 510.13 0.43 c p3
319.51 510.62 0.43 c p3
319.65 510.47 0.43 c p3
319.80 510.62 0.43 c p3
319.94 511.50 0.43 c p3
320.09 511.50 0.43 c p3
320.23 509.94 0.43 c p3
320.38 510.47 0.43 c p3
320.53 511.16 0.43 c p3
320.67 510.97 0.43 c p3
320.82 509.94 0.43 c p3
320.96 510.62 0.43 c p3
321.11 510.62 0.43 c p3
321.25 510.62 0.43 c p3
321.40 510.62 0.43 c p3
321.54 510.13 0.43 c p3
321.69 510.97 0.43 c p3
321.84 510.97 0.43 c p3
321.98 510.47 0.43 c p3
322.13 511.50 0.43 c p3
322.27 510.82 0.43 c p3
322.42 510.13 0.43 c p3
322.56 510.82 0.43 c p3
322.71 510.28 0.43 c p3
322.85 511.16 0.43 c p3
323.00 510.82 0.43 c p3
323.15 510.47 0.43 c p3
323.29 509.94 0.43 c p3
323.44 510.97 0.43 c p3
323.58 509.94 0.43 c p3
323.73 510.47 0.43 c p3
323.87 511.16 0.43 c p3
324.02 510.82 0.43 c p3
324.17 509.94 0.43 c p3
324.31 510.82 0.43 c p3
324.46 510.28 0.43 c p3
324.60 511.66 0.43 c p3
324.75 510.47 0.43 c p3
324.89 510.47 0.43 c p3
325.04 510.47 0.43 c p3
325.18 510.97 0.43 c p3
325.33 510.47 0.43 c p3
325.48 510.82 0.43 c p3
325.62 511.16 0.43 c p3
325.77 510.62 0.43 c p3
325.91 510.82 0.43 c p3
326.06 511.16 0.43 c p3
326.20 510.82 0.43 c p3
326.35 510.28 0.43 c p3
326.49 510.13 0.43 c p3
326.64 510.62 0.43 c p3
326.79 509.78 0.43 c p3
326.93 511.31 0.43 c p3
327.08 511.16 0.43 c p3
327.22 511.31 0.43 c p3
327.37 511.50 0.43 c p3
327.51 511.31 0.43 c p3
327.66 510.28 0.43 c p3
327.80 510.97 0.43 c p3
327.95 510.47 0.43 c p3
328.10 510.97 0.43 c p3
328.24 510.82 0.43 c p3
328.39 510.62 0.43 c p3
328.53 510.62 0.43 c p3
328.68 511.31 0.43 c p3
328.82 510.82 0.43 c p3
328.97 510.97 0.43 c p3
329.12 510.97 0.43 c p3
329.26 511.66 0.43 c p3
329.41 510.82 0.43 c p3
329.55 510.62 0.43 c p3
329.70 510.28 0.43 c p3
329.84 511.16 0.43 c p3
329.99 510.13 0.43 c p3
330.13 510.28 0.43 c p3
330.28 510.13 0.43 c p3
330.43 511.16 0.43 c p3
330.57 510.47 0.43 c p3
330.72 511.85 0.43 c p3
330.86 509.94 0.43 c p3
331.01 510.82 0.43 c p3
331.15 510.82 0.43 c p3
331.30 510.97 0.43 c p3
331.44 511.16 0.43 c p3
331.59 511.50 0.43 c p3
331.74 511.16 0.43 c p3
331.88 510.62 0.43 c p3
332.03 510.47 0.43 c p3
332.17 510.82 0.43 c p3
332.32 510.82 0.43 c p3
332.46 509.94 0.43 c p3
332.61 510.97 0.43 c p3
332.75 510.47 0.43 c p3
332.90 510.82 0.43 c p3
333.05 511.50 0.43 c p3
333.19 510.47 0.43 c p3
333.34 511.66 0.43 c p3
333.48 510.47 0.43 c p3
333.63 510.82 0.43 c p3
333.77 510.97 0.43 c p3
333.92 511.31 0.43 c p3
334.07 510.62 0.43 c p3
334.21 510.82 0.43 c p3
334.36 510.97 0.43 c p3
334.50 511.31 0.43 c p3
334.65 511.50 0.43 c p3
334.79 510.62 0.43 c p3
334.94 510.82 0.43 c p3
335.08 510.47 0.43 c p3
335.23 511.31 0.43 c p3
335.38 510.62 0.43 c p3
335.52 511.16 0.43 c p3
335.67 510.47 0.43 c p3
335.81 510.97 0.43 c p3
335.96 511.31 0.43 c p3
336.10 510.47 0.43 c p3
336.25 510.97 0.43 c p3
336.39 511.16 0.43 c p3
336.54 510.97 0.43 c p3
336.69 510.62 0.43 c p3
336.83 510.82 0.43 c p3
336.98 510.62 0.43 c p3
337.12 510.82 0.43 c p3
337.27 511.16 0.43 c p3
337.41 511.16 0.43 c p3
337.56 510.97 0.43 c p3
337.70 510.82 0.43 c p3
337.85 510.47 0.43 c p3
338.00 510.28 0.43 c p3
338.14 509.78 0.43 c p3
338.29 510.28 0.43 c p3
338.43 511.31 0.43 c p3
338.58 510.82 0.43 c p3
338.72 510.47 0.43 c p3
338.87 510.82 0.43 c p3
339.02 510.47 0.43 c p3
339.16 510.82 0.43 c p3
339.31 510.82 0.43 c p3
339.45 511.16 0.43 c p3
339.60 511.16 0.43 c p3
339.74 510.97 0.43 c p3
339.89 510.47 0.43 c p3
340.03 510.82 0.43 c p3
340.18 510.13 0.43 c p3
340.33 510.13 0.43 c p3
340.47 510.97 0.43 c p3
340.62 510.13 0.43 c p3
340.76 510.47 0.43 c p3
340.91 510.97 0.43 c p3
341.05 512.00 0.43 c p3
341.20 511.50 0.43 c p3
341.34 510.13 0.43 c p3
341.49 510.62 0.43 c p3
341.64 510.47 0.43 c p3
341.78 511.16 0.43 c p3
341.93 510.62 0.43 c p3
342.07 510.28 0.43 c p3
342.22 511.16 0.43 c p3
342.36 511.31 0.43 c p3
342.51 510.28 0.43 c p3
342.65 511.31 0.43 c p3
342.80 510.82 0.43 c p3
342.95 510.13 0.43 c p3
343.09 510.82 0.43 c p3
343.24 511.16 0.43 c p3
343.38 510.47 0.43 c p3
343.53 511.16 0.43 c p3
343.67 510.13 0.43 c p3
343.82 510.28 0.43 c p3
343.97 511.16 0.43 c p3
344.11 510.62 0.43 c p3
344.26 510.47 0.43 c p3
344.40 510.47 0.43 c p3
344.55 511.16 0.43 c p3
344.69 511.31 0.43 c p3
344.84 510.82 0.43 c p3
344.98 510.62 0.43 c p3
345.13 510.28 0.43 c p3
345.28 510.82 0.43 c p3
345.42 510.28 0.43 c p3
345.57 511.50 0.43 c p3
345.71 510.13 0.43 c p3
345.86 510.28 0.43 c p3
346.00 510.82 0.43 c p3
346.15 509.78 0.43 c p3
346.29 510.97 0.43 c p3
346.44 510.97 0.43 c p3
346.59 509.94 0.43 c p3
346.73 510.97 0.43 c p3
346.88 511.16 0.43 c p3
347.02 510.28 0.43 c p3
347.17 510.47 0.43 c p3
347.31 510.82 0.43 c p3
347.46 510.82 0.43 c p3
347.60 510.82 0.43 c p3
347.75 509.94 0.43 c p3
347.90 511.16 0.43 c p3
348.04 510.28 0.43 c p3
348.19 510.97 0.43 c p3
348.33 510.47 0.43 c p3
348.48 510.97 0.43 c p3
348.62 511.31 0.43 c p3
348.77 510.62 0.43 c p3
348.92 510.47 0.43 c p3
349.06 510.28 0.43 c p3
349.21 510.62 0.43 c p3
349.35 511.66 0.43 c p3
349.50 510.47 0.43 c p3
349.64 511.31 0.43 c p3
349.79 510.28 0.43 c p3
349.93 510.82 0.43 c p3
350.08 510.47 0.43 c p3
350.23 510.82 0.43 c p3
350.37 510.13 0.43 c p3
350.52 511.50 0.43 c p3
350.66 511.16 0.43 c p3
350.81 510.62 0.43 c p3
350.95 509.59 0.43 c p3
351.10 511.66 0.43 c p3
351.24 510.13 0.43 c p3
351.39 510.82 0.43 c p3
351.54 510.62 0.43 c p3
351.68 510.47 0.43 c p3
351.83 510.28 0.43 c p3
351.97 510.47 0.43 c p3
352.12 510.62 0.43 c p3
352.26 510.97 0.43 c p3
352.41 510.62 0.43 c p3
352.55 510.97 0.43 c p3
352.70 510.47 0.43 c p3
352.85 510.82 0.43 c p3
352.99 511.31 0.43 c p3
353.14 510.97 0.43 c p3
353.28 510.13 0.43 c p3
353.43 510.97 0.43 c p3
353.57 509.94 0.43 c p3
353.72 510.47 0.43 c p3
353.86 510.28 0.43 c p3
354.01 511.31 0.43 c p3
354.16 510.97 0.43 c p3
354.30 510.13 0.43 c p3
354.45 509.94 0.43 c p3
354.59 510.47 0.43 c p3
354.74 510.28 0.43 c p3
354.88 510.82 0.43 c p3
355.03 509.94 0.43 c p3
355.18 510.28 0.43 c p3
355.32 510.97 0.43 c p3
355.47 511.31 0.43 c p3
355.61 510.62 0.43 c p3
355.76 509.94 0.43 c p3
355.90 510.62 0.43 c p3
356.05 509.94 0.43 c p3
356.19 510.13 0.43 c p3
356.34 510.97 0.43 c p3
356.49 510.62 0.43 c p3
356.63 510.97 0.43 c p3
356.78 510.47 0.43 c p3
356.92 509.94 0.43 c p3
357.07 510.62 0.43 c p3
357.21 510.47 0.43 c p3
357.36 510.28 0.43 c p3
357.50 510.28 0.43 c p3
357.65 510.28 0.43 c p3
357.80 510.62 0.43 c p3
357.94 510.82 0.43 c p3
358.09 510.47 0.43 c p3
358.23 510.13 0.43 c p3
358.38 510.62 0.43 c p3
358.52 509.94 0.43 c p3
358.67 510.13 0.43 c p3
358.81 510.82 0.43 c p3
358.96 510.82 0.43 c p3
359.11 510.62 0.43 c p3
359.25 510.28 0.43 c p3
359.40 510.47 0.43 c p3
359.54 510.47 0.43 c p3
359.69 509.59 0.43 c p3
359.83 510.62 0.43 c p3
359.98 509.94 0.43 c p3
360.13 511.16 0.43 c p3
360.27 509.59 0.43 c p3
360.42 510.47 0.43 c p3
360.56 509.94 0.43 c p3
360.71 510.13 0.43 c p3
360.85 510.47 0.43 c p3
361.00 510.62 0.43 c p3
361.14 509.78 0.43 c p3
361.29 510.82 0.43 c p3
361.44 510.28 0.43 c p3
361.58 510.62 0.43 c p3
361.73 509.44 0.43 c p3
361.87 510.82 0.43 c p3
362.02 510.62 0.43 c p3
362.16 511.31 0.43 c p3
362.31 510.47 0.43 c p3
362.45 509.78 0.43 c p3
362.60 510.28 0.43 c p3
362.75 510.97 0.43 c p3
362.89 510.47 0.43 c p3
363.04 510.47 0.43 c p3
363.18 509.94 0.43 c p3
363.33 510.47 0.43 c p3
363.47 509.78 0.43 c p3
363.62 509.44 0.43 c p3
363.76 510.28 0.43 c p3
363.91 510.62 0.43 c p3
364.06 509.59 0.43 c p3
364.20 510.13 0.43 c p3
364.35 509.94 0.43 c p3
364.49 510.62 0.43 c p3
364.64 509.59 0.43 c p3
364.78 510.47 0.43 c p3
364.93 509.94 0.43 c p3
365.08 510.82 0.43 c p3
365.22 510.28 0.43 c p3
365.37 510.47 0.43 c p3
365.51 510.13 0.43 c p3
365.66 510.28 0.43 c p3
365.80 510.13 0.43 c p3
365.95 510.47 0.43 c p3
366.09 510.62 0.43 c p3
366.24 509.94 0.43 c p3
366.39 510.62 0.43 c p3
366.53 510.13 0.43 c p3
366.68 510.28 0.43 c p3
366.82 510.28 0.43 c p3
366.97 509.94 0.43 c p3
367.11 510.28 0.43 c p3
367.26 510.13 0.43 c p3
367.40 510.47 0.43 c p3
367.55 509.94 0.43 c p3
367.70 509.94 0.43 c p3
367.84 510.47 0.43 c p3
367.99 510.13 0.43 c p3
368.13 510.13 0.43 c p3
368.28 510.47 0.43 c p3
368.42 510.28 0.43 c p3
368.57 510.47 0.43 c p3
368.71 510.13 0.43 c p3
368.86 511.50 0.43 c p3
369.01 510.47 0.43 c p3
369.15 510.47 0.43 c p3
369.30 510.82 0.43 c p3
369.44 510.47 0.43 c p3
369.59 509.78 0.43 c p3
369.73 509.78 0.43 c p3
369.88 509.10 0.43 c p3
370.03 510.28 0.43 c p3
370.17 509.78 0.43 c p3
370.32 510.28 0.43 c p3
370.46 509.94 0.43 c p3
370.61 510.82 0.43 c p3
370.75 508.91 0.43 c p3
370.90 510.13 0.43 c p3
371.04 510.47 0.43 c p3
371.19 510.97 0.43 c p3
371.34 510.28 0.43 c p3
371.48 510.13 0.43 c p3
371.63 509.59 0.43 c p3
371.77 510.28 0.43 c p3
371.92 509.59 0.43 c p3
372.06 510.28 0.43 c p3
372.21 510.28 0.43 c p3
372.35 510.28 0.43 c p3
372.50 510.62 0.43 c p3
372.65 510.47 0.43 c p3
372.79 509.94 0.43 c p3
372.94 510.62 0.43 c p3
373.08 510.62 0.43 c p3
373.23 511.31 0.43 c p3
373.37 509.78 0.43 c p3
373.52 510.28 0.43 c p3
373.66 510.47 0.43 c p3
373.81 510.13 0.43 c p3
373.96 510.47 0.43 c p3
374.10 510.62 0.43 c p3
374.25 509.94 0.43 c p3
374.39 510.13 0.43 c p3
374.54 509.94 0.43 c p3
374.68 509.78 0.43 c p3
374.83 510.62 0.43 c p3
374.98 510.13 0.43 c p3
375.12 510.13 0.43 c p3
375.27 510.28 0.43 c p3
375.41 509.94 0.43 c p3
375.56 509.25 0.43 c p3
375.70 510.13 0.43 c p3
375.85 510.62 0.43 c p3
375.99 509.59 0.43 c p3
376.14 510.82 0.43 c p3
376.29 510.13 0.43 c p3
376.43 511.16 0.43 c p3
376.58 510.47 0.43 c p3
376.72 509.59 0.43 c p3
376.87 508.91 0.43 c p3
377.01 509.78 0.43 c p3
377.16 510.47 0.43 c p3
377.30 510.13 0.43 c p3
377.45 510.13 0.43 c p3
377.60 511.31 0.43 c p3
377.74 510.82 0.43 c p3
377.89 510.97 0.43 c p3
378.03 510.62 0.43 c p3
378.18 510.82 0.43 c p3
378.32 510.13 0.43 c p3
378.47 509.94 0.43 c p3
378.61 510.82 0.43 c p3
378.76 510.28 0.43 c p3
378.91 509.59 0.43 c p3
379.05 511.31 0.43 c p3
379.20 510.47 0.43 c p3
379.34 509.59 0.43 c p3
379.49 509.44 0.43 c p3
379.63 509.59 0.43 c p3
379.78 509.59 0.43 c p3
379.93 510.47 0.43 c p3
380.07 510.47 0.43 c p3
380.22 509.94 0.43 c p3
380.36 510.28 0.43 c p3
380.51 510.28 0.43 c p3
380.65 509.44 0.43 c p3
380.80 509.59 0.43 c p3
380.94 510.13 0.43 c p3
381.09 510.97 0.43 c p3
381.24 510.82 0.43 c p3
381.38 509.94 0.43 c p3
381.53 508.91 0.43 c p3
381.67 509.78 0.43 c p3
381.82 509.94 0.43 c p3
381.96 509.44 0.43 c p3
382.11 510.13 0.43 c p3
382.25 510.13 0.43 c p3
382.40 510.47 0.43 c p3
0.00 0.00 432.00 576.00 cl
0 0 0 srgb
0.75 setlinewidth
[] 0 setdash
1 setlinecap
1 setlinejoin
10.00 setmiterlimit
np
236.96 345.60 m
145.59 0 l
o
np
236.96 345.60 m
0 -5.76 l
o
np
266.08 345.60 m
0 -5.76 l
o
np
295.19 345.60 m
0 -5.76 l
o
np
324.31 345.60 m
0 -5.76 l
o
np
353.43 345.60 m
0 -5.76 l
o
np
382.55 345.60 m
0 -5.76 l
o
/Font1 findfont 10 s
236.96 329.47 (0) .5 0 t
266.08 329.47 (2000) .5 0 t
324.31 329.47 (6000) .5 0 t
382.55 329.47 (10000) .5 0 t
np
216.00 352.00 m
0 156.48 l
o
np
216.00 352.00 m
-5.76 0 l
o
np
216.00 383.30 m
-5.76 0 l
o
np
216.00 414.59 m
-5.76 0 l
o
np
216.00 445.89 m
-5.76 0 l
o
np
216.00 477.18 m
-5.76 0 l
o
np
216.00 508.48 m
-5.76 0 l
o
209.09 348.41 (0.0) 1 0 t
209.09 379.71 (0.2) 1 0 t
209.09 411.00 (0.4) 1 0 t
209.09 442.30 (0.6) 1 0 t
209.09 473.59 (0.8) 1 0 t
209.09 504.89 (1.0) 1 0 t
np
216.00 345.60 m
172.80 0 l
0 172.80 l
-172.80 0 l
0 -172.80 l
o
0.00 0.00 432.00 576.00 cl
/Font1 findfont 10 s
0 0 0 srgb
302.40 313.34 (Zeit / ms \(total\)) .5 0 t
190.66 432.00 (U / V) .5 90 t
216.00 345.60 388.80 518.40 cl
0 0 0 srgb
0.38 setlinewidth
[ 1.12 1.88] 0 setdash
1 setlinecap
1 setlinejoin
10.00 setmiterlimit
np
224.15 345.60 m
0 172.80 l
o
np
234.77 345.60 m
0 172.80 l
o
np
238.27 345.60 m
0 172.80 l
o
np
244.97 345.60 m
0 172.80 l
o
86.40 57.60 388.80 288.00 cl
1 0 0 srgb
1.50 setlinewidth
[] 0 setdash
1 setlinecap
1 setlinejoin
10.00 setmiterlimit
np
97.60 279.47 m
1.41 -69.28 l
1.40 -45.71 l
1.41 -30.15 l
1.41 -19.89 l
1.41 -13.13 l
1.40 -8.66 l
1.41 -5.71 l
1.41 -3.76 l
1.40 -2.49 l
1.41 -1.64 l
1.41 -1.08 l
1.40 -0.72 l
1.41 -0.47 l
1.41 -0.31 l
1.41 -0.20 l
1.40 -0.14 l
1.41 -0.09 l
1.41 -0.06 l
1.40 -0.04 l
1.41 -0.02 l
1.41 -0.02 l
1.40 -0.01 l
1.41 -0.01 l
1.41 0 l
1.41 0 l
1.40 -0.01 l
1.41 0 l
1.41 0 l
1.40 0 l
1.41 0 l
1.41 0 l
1.41 0 l
1.40 0 l
1.41 0 l
1.41 0 l
1.40 0 l
1.41 0 l
1.41 0 l
1.40 0 l
1.41 0 l
1.41 0 l
1.41 0 l
1.40 0 l
1.41 0 l
1.41 0 l
1.40 0 l
1.41 0 l
1.41 0 l
1.40 0 l
1.41 0 l
1.41 0 l
1.41 0 l
1.40 0 l
1.41 0 l
1.41 0 l
1.40 0 l
1.41 0 l
1.41 0 l
1.41 0 l
1.40 0 l
1.41 0 l
1.41 0 l
1.40 0 l
1.41 0 l
1.41 0 l
1.40 0 l
1.41 0 l
1.41 0 l
1.41 0 l
1.40 0 l
1.41 0 l
1.41 0 l
1.40 0 l
1.41 0 l
1.41 0 l
1.40 0 l
1.41 0 l
1.41 0 l
1.41 0 l
1.40 0 l
1.41 0 l
1.41 0 l
1.40 0 l
1.41 0 l
1.41 0 l
1.41 0 l
1.40 0 l
1.41 0 l
1.41 0 l
1.40 0 l
1.41 0 l
1.41 0 l
1.40 0 l
1.41 0 l
1.41 0 l
1.41 0 l
1.40 0 l
1.41 0 l
1.41 0 l
238.30 75.87 lineto
1.41 0 l
1.41 0 l
1.40 0 l
1.41 0 l
1.41 0 l
1.41 0 l
1.40 0 l
1.41 0 l
1.41 0 l
1.40 0 l
1.41 0 l
1.41 0 l
1.40 0 l
1.41 0 l
1.41 0 l
1.41 0 l
1.40 0 l
1.41 0 l
1.41 0 l
1.40 0 l
1.41 0 l
1.41 0 l
1.41 0 l
1.40 0 l
1.41 0 l
1.41 0 l
1.40 0 l
1.41 0 l
1.41 0 l
1.40 0 l
1.41 0 l
1.41 0 l
1.41 0 l
1.40 0 l
1.41 0 l
1.41 0 l
1.40 0 l
1.41 0 l
1.41 0 l
1.40 0 l
1.41 0 l
1.41 0 l
1.41 0 l
1.40 0 l
1.41 0 l
1.41 0 l
1.40 0 l
1.41 0 l
1.41 0 l
1.41 0 l
1.40 0 l
1.41 0 l
1.41 0 l
1.40 0 l
1.41 0 l
1.41 0 l
1.40 0 l
1.41 0 l
1.41 0 l
1.41 0 l
1.40 0 l
1.41 0 l
1.41 0 l
1.40 0 l
1.41 0 l
1.41 0 l
1.40 0 l
1.41 0 l
1.41 0 l
1.41 0 l
1.40 0 l
1.41 0 l
1.41 0 l
1.40 0 l
1.41 0 l
1.41 0 l
1.41 0 l
1.40 0 l
1.41 0 l
1.41 0 l
1.40 0 l
1.41 0 l
1.41 0 l
1.40 0 l
1.41 0 l
1.41 0 l
1.41 0 l
1.40 0 l
1.41 0 l
1.41 0 l
1.40 0 l
1.41 0 l
1.41 0 l
1.40 0 l
1.41 0 l
1.41 0 l
1.41 0 l
1.40 0 l
1.41 0 l
o
0.00 0.00 432.00 576.00 cl
0 0 0 srgb
0.75 setlinewidth
[] 0 setdash
1 setlinecap
1 setlinejoin
10.00 setmiterlimit
np
97.60 57.60 m
280.00 0 l
o
np
97.60 57.60 m
0 -5.76 l
o
np
153.60 57.60 m
0 -5.76 l
o
np
209.60 57.60 m
0 -5.76 l
o
np
265.60 57.60 m
0 -5.76 l
o
np
321.60 57.60 m
0 -5.76 l
o
np
377.60 57.60 m
0 -5.76 l
o
/Font1 findfont 10 s
97.60 41.47 (0) .5 0 t
153.60 41.47 (2000) .5 0 t
209.60 41.47 (4000) .5 0 t
265.60 41.47 (6000) .5 0 t
321.60 41.47 (8000) .5 0 t
377.60 41.47 (10000) .5 0 t
np
86.40 66.13 m
0 189.57 l
o
np
86.40 66.13 m
-5.76 0 l
o
np
86.40 104.05 m
-5.76 0 l
o
np
86.40 141.96 m
-5.76 0 l
o
np
86.40 179.87 m
-5.76 0 l
o
np
86.40 217.79 m
-5.76 0 l
o
np
86.40 255.70 m
-5.76 0 l
o
79.49 62.54 (0.00) 1 0 t
79.49 100.46 (0.05) 1 0 t
79.49 138.37 (0.10) 1 0 t
79.49 176.28 (0.15) 1 0 t
79.49 214.20 (0.20) 1 0 t
79.49 252.11 (0.25) 1 0 t
np
86.40 57.60 m
302.40 0 l
0 230.40 l
-302.40 0 l
0 -230.40 l
o
0.00 0.00 432.00 576.00 cl
/Font1 findfont 10 s
0 0 0 srgb
237.60 13.82 (Zeit / ms \(nach Puls\)) .5 0 t
49.54 172.80 (Absorbanz A) .5 90 t
86.40 57.60 388.80 288.00 cl
/bg { 1 1 1 srgb } def
0 0 0 srgb
0.75 setlinewidth
[] 0 setdash
1 setlinecap
1 setlinejoin
10.00 setmiterlimit
100.40 166.17 0.65 c p3
100.68 156.36 0.65 c p3
100.96 149.66 0.65 c p3
101.24 144.96 0.65 c p3
101.52 140.83 0.65 c p3
101.80 136.25 0.65 c p3
102.08 129.55 0.65 c p3
102.36 126.01 0.65 c p3
102.64 122.50 0.65 c p3
102.92 118.17 0.65 c p3
103.20 115.60 0.65 c p3
103.48 110.98 0.65 c p3
103.76 108.83 0.65 c p3
104.04 105.96 0.65 c p3
104.32 102.66 0.65 c p3
104.60 99.39 0.65 c p3
104.88 99.39 0.65 c p3
105.16 96.60 0.65 c p3
105.44 99.39 0.65 c p3
105.72 95.35 0.65 c p3
106.00 93.75 0.65 c p3
106.28 91.01 0.65 c p3
106.56 91.36 0.65 c p3
106.84 87.42 0.65 c p3
107.12 88.64 0.65 c p3
107.40 85.85 0.65 c p3
107.68 85.07 0.65 c p3
107.96 86.29 0.65 c p3
108.24 83.52 0.65 c p3
108.52 83.52 0.65 c p3
108.80 82.83 0.65 c p3
109.08 81.63 0.65 c p3
109.36 82.06 0.65 c p3
109.64 82.06 0.65 c p3
109.92 82.83 0.65 c p3
110.20 80.86 0.65 c p3
110.48 80.52 0.65 c p3
110.76 79.33 0.65 c p3
111.04 80.86 0.65 c p3
111.32 82.06 0.65 c p3
111.60 80.86 0.65 c p3
111.88 78.99 0.65 c p3
112.16 77.80 0.65 c p3
112.44 75.52 0.65 c p3
112.72 79.33 0.65 c p3
113.00 76.70 0.65 c p3
113.28 77.80 0.65 c p3
216.00 201.60 367.20 247.68 cl
0 0 0 srgb
0.75 setlinewidth
[] 0 setdash
1 setlinecap
1 setlinejoin
10.00 setmiterlimit
221.60 230.05 0.43 c p1
224.64 218.80 0.43 c p1
227.69 218.02 0.43 c p1
230.73 223.30 0.43 c p1
233.77 229.00 0.43 c p1
236.82 231.04 0.43 c p1
239.86 222.72 0.43 c p1
242.90 225.82 0.43 c p1
245.95 227.68 0.43 c p1
248.99 224.86 0.43 c p1
252.03 228.07 0.43 c p1
255.08 221.81 0.43 c p1
258.12 224.67 0.43 c p1
261.17 223.64 0.43 c p1
264.21 219.98 0.43 c p1
267.25 215.67 0.43 c p1
270.30 224.05 0.43 c p1
273.34 220.32 0.43 c p1
276.38 238.86 0.43 c p1
279.43 228.82 0.43 c p1
282.47 228.27 0.43 c p1
285.51 222.56 0.43 c p1
288.56 229.10 0.43 c p1
291.60 217.62 0.43 c p1
294.64 226.95 0.43 c p1
297.69 219.50 0.43 c p1
300.73 219.96 0.43 c p1
303.77 228.31 0.43 c p1
306.82 220.06 0.43 c p1
309.86 222.92 0.43 c p1
312.90 222.73 0.43 c p1
315.95 220.22 0.43 c p1
318.99 224.21 0.43 c p1
322.03 226.26 0.43 c p1
325.08 231.31 0.43 c p1
328.12 224.97 0.43 c p1
331.17 225.17 0.43 c p1
334.21 221.75 0.43 c p1
337.25 229.40 0.43 c p1
340.30 235.56 0.43 c p1
343.34 231.80 0.43 c p1
346.38 225.17 0.43 c p1
349.43 221.28 0.43 c p1
352.47 212.84 0.43 c p1
355.51 229.26 0.43 c p1
358.56 219.25 0.43 c p1
361.60 224.46 0.43 c p1
0.00 0.00 432.00 576.00 cl
0 0 0 srgb
0.75 setlinewidth
[] 0 setdash
1 setlinecap
1 setlinejoin
10.00 setmiterlimit
np
221.60 201.60 m
121.74 0 l
o
np
221.60 201.60 m
0 -5.76 l
o
np
252.03 201.60 m
0 -5.76 l
o
np
282.47 201.60 m
0 -5.76 l
o
np
312.90 201.60 m
0 -5.76 l
o
np
343.34 201.60 m
0 -5.76 l
o
/Font1 findfont 6 s
221.60 185.47 (100) .5 0 t
252.03 185.47 (200) .5 0 t
282.47 185.47 (300) .5 0 t
312.90 185.47 (400) .5 0 t
343.34 185.47 (500) .5 0 t
np
216.00 205.98 m
0 37.32 l
o
np
216.00 205.98 m
-5.76 0 l
o
np
216.00 212.20 m
-5.76 0 l
o
np
216.00 218.42 m
-5.76 0 l
o
np
216.00 224.64 m
-5.76 0 l
o
np
216.00 230.86 m
-5.76 0 l
o
np
216.00 237.08 m
-5.76 0 l
o
np
216.00 243.30 m
-5.76 0 l
o
209.09 203.82 (-0.006) 1 0 t
209.09 210.04 (-0.004) 1 0 t
209.09 216.27 (-0.002) 1 0 t
209.09 222.49 (0.000) 1 0 t
209.09 228.71 (0.002) 1 0 t
209.09 234.93 (0.004) 1 0 t
209.09 241.15 (0.006) 1 0 t
np
216.00 201.60 m
151.20 0 l
0 46.08 l
-151.20 0 l
0 -46.08 l
o
0.00 0.00 432.00 576.00 cl
/Font1 findfont 9 s
0 0 0 srgb
291.60 262.88 (Residuen) .5 0 t
59.04 73.44 401.76 516.96 cl
ep
%%Trailer
%%Pages: 1
%%EOF
