%!PS-Adobe-3.0 EPSF-3.0
%%DocumentNeededResources: font Helvetica
%%+ font Helvetica-Bold
%%+ font Helvetica-Oblique
%%+ font Helvetica-BoldOblique
%%+ font Symbol
%%Title: R Graphics Output
%%Creator: R Software
%%Pages: (atend)
%%BoundingBox: 0 0 432 576
%%EndComments
%%BeginProlog
/bp  { gs sRGB gs } def
% begin .ps.prolog
/gs  { gsave } bind def
/gr  { grestore } bind def
/ep  { showpage gr gr } bind def
/m   { moveto } bind def
/l  { rlineto } bind def
/np  { newpath } bind def
/cp  { closepath } bind def
/f   { fill } bind def
/o   { stroke } bind def
/c   { newpath 0 360 arc } bind def
/r   { 4 2 roll moveto 1 copy 3 -1 roll exch 0 exch rlineto 0 rlineto -1 mul 0 exch rlineto closepath } bind def
/p1  { stroke } bind def
/p2  { gsave bg fill grestore newpath } bind def
/p3  { gsave bg fill grestore stroke } bind def
/p6  { gsave bg eofill grestore newpath } bind def
/p7  { gsave bg eofill grestore stroke } bind def
/t   { 5 -2 roll moveto gsave rotate
       1 index stringwidth pop
       mul neg 0 rmoveto show grestore } bind def
/ta  { 4 -2 roll moveto gsave rotate show } bind def
/tb  { 2 -1 roll 0 rmoveto show } bind def
/cl  { grestore gsave newpath 3 index 3 index moveto 1 index
       4 -1 roll lineto  exch 1 index lineto lineto
       closepath clip newpath } bind def
/rgb { setrgbcolor } bind def
/s   { scalefont setfont } bind def
% end   .ps.prolog
/sRGB { [ /CIEBasedABC
          << /DecodeLMN
               [ { dup 0.03928 le
                        {12.92321 div}
                        {0.055 add 1.055 div 2.4 exp }
                     ifelse
                 } bind dup dup
               ]
             /MatrixLMN [0.412457 0.212673 0.019334
                         0.357576 0.715152 0.119192
                         0.180437 0.072175 0.950301]
             /WhitePoint [0.9505 1.0 1.0890]
           >>
         ] setcolorspace } bind def
/srgb { setcolor } bind def
%%IncludeResource: font Helvetica
/Helvetica findfont
dup length dict begin
  {1 index /FID ne {def} {pop pop} ifelse} forall
  /Encoding ISOLatin1Encoding def
  currentdict
  end
/Font1 exch definefont pop
%%IncludeResource: font Helvetica-Bold
/Helvetica-Bold findfont
dup length dict begin
  {1 index /FID ne {def} {pop pop} ifelse} forall
  /Encoding ISOLatin1Encoding def
  currentdict
  end
/Font2 exch definefont pop
%%IncludeResource: font Helvetica-Oblique
/Helvetica-Oblique findfont
dup length dict begin
  {1 index /FID ne {def} {pop pop} ifelse} forall
  /Encoding ISOLatin1Encoding def
  currentdict
  end
/Font3 exch definefont pop
%%IncludeResource: font Helvetica-BoldOblique
/Helvetica-BoldOblique findfont
dup length dict begin
  {1 index /FID ne {def} {pop pop} ifelse} forall
  /Encoding ISOLatin1Encoding def
  currentdict
  end
/Font4 exch definefont pop
%%IncludeResource: font Symbol
/Symbol findfont
dup length dict begin
  {1 index /FID ne {def} {pop pop} ifelse} forall
  currentdict
  end
/Font5 exch definefont pop
%%EndProlog
%%Page: 1 1
bp
0.00 0.00 432.00 576.00 cl
0.00 0.00 432.00 576.00 cl
0.00 0.00 432.00 576.00 cl
/Font1 findfont 12 s
0 0 0 srgb
48.00 508.72 (PCP-ETH) 0 0 t
48.00 494.89 (Blitzlicht-Photolyse) 0 0 t
/Font1 findfont 9 s
48.00 457.54 (File: Dy) 0 ta
-0.180 (e_0_1_V3_900V_40.dat) tb gr
48.00 334.87 (T) 0 ta
-1.080 (ue Apr  9 22:06:59 2019) tb gr
48.00 430.87 (Fitfunktion:  a + b * e) 0 ta
-0.270 (xp\(-c * t\)) tb gr
48.00 420.50 (t-Inter) 0 ta
0.270 (v) tb
-0.225 (all: 8.500 ... 153.000 ms) tb gr
48.00 410.14 (P) 0 ta
-0.360 (ar) tb
-0.090 (ameter \(Standardabw) tb
-0.090 (eichung\):) tb gr
48.00 399.77 (  a = 0.00285 \(0.00023\)) 0 0 t
48.00 389.40 (  b = 0.22764 \(0.00061\)) 0 0 t
48.00 379.03 (  c = 2.746e+01 \(1.434e-01\) s^-1) 0 0 t
48.00 368.66 (  tau = 3.641e-02 \(1.902e-04\) s) 0 0 t
216.00 345.60 388.80 518.40 cl
0 0 0 srgb
0.75 setlinewidth
[] 0 setdash
1 setlinecap
1 setlinejoin
10.00 setmiterlimit
np
222.40 511.17 m
0.15 0.24 l
0.14 -0.11 l
0.15 -0.24 l
0.14 0.24 l
0.15 0.46 l
0.14 -0.22 l
0.15 -0.37 l
0.14 -0.35 l
0.15 0.24 l
0.15 -0.14 l
0.14 -0.48 l
0.15 0.48 l
0.14 0.14 l
0.15 -0.24 l
0.14 0.10 l
0.15 -0.10 l
0.14 -0.14 l
0.15 0.38 l
0.15 0 l
0.14 0.35 l
0.15 0.13 l
0.14 -0.37 l
0.15 -0.11 l
0.14 0.48 l
0.15 -0.48 l
0.15 0.24 l
0.14 0.24 l
0.15 -0.13 l
0.14 -0.84 l
0.15 1.08 l
0.14 -0.48 l
0.15 0.48 l
0.14 -0.11 l
0.15 0.46 l
0.15 -0.94 l
0.14 0.35 l
0.15 0.24 l
0.14 -0.59 l
0.15 0.11 l
0.14 0.48 l
0.15 -0.24 l
0.14 -0.24 l
0.15 0.13 l
0.15 0.11 l
0.14 -0.49 l
0.15 -0.35 l
0.14 0.49 l
0.15 -0.24 l
0.14 0.35 l
0.15 0.48 l
0.14 -0.83 l
0.15 0.35 l
0.15 -0.35 l
0.14 -0.14 l
0.15 0.49 l
0.14 -0.11 l
0.15 0.24 l
0.14 -0.48 l
0.15 -0.14 l
0.15 0 l
0.14 0.24 l
0.15 0.38 l
0.14 0 l
0.15 -0.48 l
0.14 0.35 l
0.15 0.83 l
0.14 -1.08 l
0.15 0.62 l
0.15 -0.37 l
0.14 0.59 l
0.15 -0.46 l
0.14 0.11 l
0.15 -0.73 l
0.14 0.73 l
0.15 -0.35 l
0.14 -0.14 l
0.15 0.49 l
0.15 -0.35 l
0.14 0.48 l
0.15 -0.13 l
0.14 0 l
0.15 -0.59 l
0.14 0.59 l
0.15 -0.49 l
0.14 -0.10 l
0.15 0.24 l
0.15 0.11 l
0.14 -0.11 l
0.15 -0.14 l
0.14 0.25 l
0.15 0.13 l
0.14 0.35 l
0.15 -1.21 l
0.15 0.24 l
0.14 0.62 l
0.15 -0.24 l
0.14 -0.38 l
0.15 0.38 l
0.14 0.35 l
236.96 492.09 lineto
0.14 -49.52 l
0.15 2.55 l
0.15 2.04 l
0.14 1.21 l
0.15 1.56 l
0.14 -0.21 l
0.15 0.70 l
0.14 0.72 l
0.15 0.73 l
0.14 0.86 l
0.15 0.73 l
0.15 0.59 l
0.14 0.37 l
0.15 0.60 l
0.14 0.97 l
0.15 0.59 l
0.14 0.97 l
0.15 -0.11 l
0.14 0.59 l
0.15 -0.11 l
0.15 0.73 l
0.14 0.83 l
0.15 0.97 l
0.14 0.73 l
0.15 0.59 l
0.14 0.48 l
0.15 1.59 l
0.15 -0.24 l
0.14 0.59 l
0.15 0.24 l
0.14 1.46 l
0.15 -0.25 l
0.14 0.49 l
0.15 -0.14 l
0.14 0.25 l
0.15 0.37 l
0.15 0.11 l
0.14 1.35 l
0.15 0.59 l
0.14 1.45 l
0.15 0 l
0.14 1.08 l
0.15 0.37 l
0.14 1.46 l
0.15 -0.62 l
0.15 0 l
0.14 0.48 l
0.15 0.62 l
0.14 -0.24 l
0.15 0.11 l
0.14 1.10 l
0.15 -0.49 l
0.14 0.25 l
0.15 0.83 l
0.15 0.59 l
0.14 0.49 l
0.15 0.72 l
0.14 0.86 l
0.15 -0.13 l
0.14 1.10 l
0.15 -0.24 l
0.15 0.59 l
0.14 0 l
0.15 0.49 l
0.14 0.62 l
0.15 0 l
0.14 0.34 l
0.15 -1.07 l
0.14 1.42 l
0.15 0.25 l
0.15 0.13 l
0.14 0.73 l
0.15 0.48 l
0.14 0.24 l
0.15 0.84 l
0.14 -0.24 l
0.15 1.21 l
0.14 0.62 l
0.15 -0.14 l
0.15 0.24 l
0.14 -0.24 l
0.15 0.73 l
0.14 -0.24 l
0.15 0.37 l
0.14 0.59 l
0.15 -0.48 l
0.14 0.11 l
0.15 1.34 l
0.15 0.49 l
0.14 0.24 l
0.15 1.08 l
0.14 0.37 l
0.15 0 l
0.14 0.11 l
0.15 0.24 l
0.15 0.38 l
0.14 -0.38 l
0.15 0 l
0.14 0.49 l
251.52 489.80 lineto
0.14 0.11 l
0.15 0.38 l
0.14 0.83 l
0.15 -0.59 l
0.15 1.08 l
0.14 0 l
0.15 0.72 l
0.14 0.59 l
0.15 0.25 l
0.14 0.24 l
0.15 0.48 l
0.14 -0.48 l
0.15 0.24 l
0.15 0.24 l
0.14 -0.24 l
0.15 0.14 l
0.14 0.10 l
0.15 -0.10 l
0.14 0.72 l
0.15 0.24 l
0.14 0.11 l
0.15 0.97 l
0.15 0.24 l
0.14 -0.11 l
0.15 0.84 l
0.14 0.24 l
0.15 0 l
0.14 -0.13 l
0.15 0.13 l
0.14 -0.24 l
0.15 0.24 l
0.15 -0.13 l
0.14 0.48 l
0.15 0 l
0.14 0 l
0.15 0.49 l
0.14 0.13 l
0.15 0.83 l
0.15 -0.24 l
0.14 0.73 l
0.15 -0.49 l
0.14 0.97 l
0.15 -0.24 l
0.14 0.13 l
0.15 -0.37 l
0.14 -0.24 l
0.15 0.72 l
0.15 0.24 l
0.14 -0.24 l
0.15 -0.11 l
0.14 0.35 l
0.15 -0.10 l
0.14 0.10 l
0.15 0.38 l
0.14 0 l
0.15 0.11 l
0.15 0.97 l
0.14 -0.24 l
0.15 0.48 l
0.14 -0.24 l
0.15 0.59 l
0.14 0 l
0.15 -0.11 l
0.14 0.11 l
0.15 -0.11 l
0.15 -0.13 l
0.14 0 l
0.15 0.24 l
0.14 0.48 l
0.15 0.14 l
0.14 0 l
0.15 0.59 l
0.15 0 l
0.14 0.13 l
0.15 0.11 l
0.14 0.14 l
0.15 -0.14 l
0.14 0.38 l
0.15 -0.62 l
0.14 0.38 l
0.15 -0.49 l
0.15 0.24 l
0.14 0.49 l
0.15 -0.62 l
0.14 -0.11 l
0.15 0.84 l
0.14 -0.25 l
0.15 0.97 l
0.14 -0.48 l
0.15 1.10 l
0.15 -0.48 l
0.14 -0.49 l
0.15 0.84 l
0.14 -0.49 l
0.15 -0.59 l
0.14 0.49 l
0.15 0.24 l
0.14 -0.86 l
0.15 0 l
266.08 504.76 lineto
0.14 0.49 l
0.15 0.48 l
0.14 -0.11 l
0.15 0.25 l
0.14 -0.25 l
0.15 0.25 l
0.15 0 l
0.14 0.35 l
0.15 0 l
0.14 -0.11 l
0.15 0.35 l
0.14 -0.35 l
0.15 -0.24 l
0.14 0.10 l
0.15 0.25 l
0.15 0.35 l
0.14 0.13 l
0.15 -0.59 l
0.14 0.46 l
0.15 -0.46 l
0.14 0.59 l
0.15 0 l
0.14 0.11 l
0.15 -0.35 l
0.15 -0.11 l
0.14 0.35 l
0.15 0 l
0.14 -0.48 l
0.15 0.59 l
0.14 -0.46 l
0.15 0 l
0.14 0.59 l
0.15 -0.59 l
0.15 0.70 l
0.14 -0.24 l
0.15 0.13 l
0.14 0.35 l
0.15 -0.11 l
0.14 -0.37 l
0.15 0.62 l
0.15 -0.38 l
0.14 0 l
0.15 0.24 l
0.14 0.24 l
0.15 -0.48 l
0.14 0.62 l
0.15 -0.24 l
0.14 0.35 l
0.15 -0.35 l
0.15 0.10 l
0.14 0 l
0.15 0.62 l
0.14 -0.37 l
0.15 0.13 l
0.14 -0.24 l
0.15 -0.24 l
0.14 -0.14 l
0.15 0.38 l
0.15 -0.38 l
0.14 0.24 l
0.15 0 l
0.14 0.49 l
0.15 0 l
0.14 -0.35 l
0.15 0.35 l
0.14 -0.59 l
0.15 0.10 l
0.15 0.49 l
0.14 -0.24 l
0.15 0 l
0.14 0.37 l
0.15 -0.72 l
0.14 0.10 l
0.15 0.25 l
0.15 -0.25 l
0.14 0.86 l
0.15 -0.48 l
0.14 0.24 l
0.15 0 l
0.14 0.24 l
0.15 0.11 l
0.14 -0.11 l
0.15 0 l
0.15 0.35 l
0.14 -0.24 l
0.15 -0.24 l
0.14 -0.24 l
0.15 0.13 l
0.14 0.24 l
0.15 0 l
0.14 -0.24 l
0.15 -0.13 l
0.15 0.86 l
0.14 0 l
0.15 -0.24 l
0.14 0.35 l
0.15 -0.25 l
0.14 -0.48 l
0.15 0.24 l
280.63 508.50 lineto
0.15 0 l
0.15 -0.11 l
0.14 0 l
0.15 0.25 l
0.14 -0.38 l
0.15 0 l
0.14 -1.21 l
0.15 1.10 l
0.15 -0.24 l
0.14 0.73 l
0.15 -0.14 l
0.14 0.38 l
0.15 0.11 l
0.14 -0.25 l
0.15 -0.24 l
0.14 0 l
0.15 0.38 l
0.15 0 l
0.14 -0.38 l
0.15 -0.24 l
0.14 0.24 l
0.15 0.14 l
0.14 -0.73 l
0.15 0.48 l
0.14 0.35 l
0.15 0.14 l
0.15 0 l
0.14 0.11 l
0.15 -0.35 l
0.14 0.72 l
0.15 -0.48 l
0.14 0.24 l
0.15 -0.73 l
0.14 0.25 l
0.15 0.48 l
0.15 -0.62 l
0.14 0.14 l
0.15 -0.25 l
0.14 -0.24 l
0.15 0.73 l
0.14 -0.24 l
0.15 -0.38 l
0.14 -0.24 l
0.15 1.34 l
0.15 -0.24 l
0.14 0.24 l
0.15 -0.62 l
0.14 0 l
0.15 -0.24 l
0.14 0.62 l
0.15 0.49 l
0.15 -0.49 l
0.14 -0.73 l
0.15 0.97 l
0.14 -1.10 l
0.15 -0.11 l
0.14 0 l
0.15 -0.24 l
0.14 0.73 l
0.15 -0.14 l
0.15 -0.35 l
0.14 0.59 l
0.15 0.38 l
0.14 -0.38 l
0.15 0.25 l
0.14 0.13 l
0.15 -0.38 l
0.14 0.49 l
0.15 0.24 l
0.15 -0.59 l
0.14 0 l
0.15 0 l
0.14 -0.38 l
0.15 -0.11 l
0.14 0.11 l
0.15 0.14 l
0.14 0.24 l
0.15 0.24 l
0.15 -0.38 l
0.14 0.14 l
0.15 -0.49 l
0.14 0.49 l
0.15 -0.38 l
0.14 0.24 l
0.15 -0.59 l
0.15 0.24 l
0.14 0.25 l
0.15 -0.38 l
0.14 -0.48 l
0.15 0.24 l
0.14 0.48 l
0.15 -0.59 l
0.14 0.24 l
0.15 0.24 l
0.15 0.49 l
0.14 -0.24 l
0.15 0.10 l
0.14 0 l
0.15 0.14 l
295.19 508.88 lineto
0.15 0.11 l
0.14 -0.11 l
0.15 -0.38 l
0.15 0.24 l
0.14 0.14 l
0.15 -0.14 l
0.14 -0.10 l
0.15 -0.14 l
0.14 0 l
0.15 0.14 l
0.14 -0.49 l
0.15 0.24 l
0.15 0.84 l
0.14 -0.24 l
0.15 0 l
0.14 0 l
0.15 0.13 l
0.14 -0.24 l
0.15 -0.49 l
0.15 0.49 l
0.14 -0.38 l
0.15 0.24 l
0.14 -0.35 l
0.15 0 l
0.14 -0.37 l
0.15 0.37 l
0.14 0 l
0.15 -0.24 l
0.15 0.59 l
0.14 -0.72 l
0.15 -0.24 l
0.14 0 l
0.15 0.13 l
0.14 0.11 l
0.15 0.72 l
0.14 -0.35 l
0.15 0.49 l
0.15 -0.38 l
0.14 0.38 l
0.15 0 l
0.14 -0.38 l
0.15 0.24 l
0.14 0.38 l
0.15 -0.13 l
0.14 -0.73 l
0.15 -0.11 l
0.15 0 l
0.14 0.11 l
0.15 0.13 l
0.14 -0.24 l
0.15 0.59 l
0.14 -0.83 l
0.15 0.73 l
0.15 -0.25 l
0.14 0.35 l
0.15 0.14 l
0.14 0.11 l
0.15 -0.25 l
0.14 0 l
0.15 -0.10 l
0.14 -0.62 l
0.15 0.72 l
0.15 -0.48 l
0.14 -0.11 l
0.15 0.11 l
0.14 -0.11 l
0.15 0 l
0.14 -0.62 l
0.15 -0.48 l
0.14 1.21 l
0.15 0.13 l
0.15 0 l
0.14 0.60 l
0.15 -0.35 l
0.14 0.24 l
0.15 -0.24 l
0.14 0 l
0.15 -0.73 l
0.14 0.24 l
0.15 0.24 l
0.15 -0.24 l
0.14 -0.13 l
0.15 0.24 l
0.14 -0.24 l
0.15 0.37 l
0.14 0 l
0.15 -0.24 l
0.15 0.35 l
0.14 -0.24 l
0.15 0.97 l
0.14 -0.49 l
0.15 -0.10 l
0.14 -0.14 l
0.15 -0.11 l
0.14 -0.48 l
0.15 -0.13 l
0.15 0.37 l
0.14 -0.13 l
0.15 -0.24 l
309.75 507.91 lineto
0.15 0.24 l
0.14 -0.13 l
0.15 -0.24 l
0.14 0.72 l
0.15 -0.24 l
0.15 -0.24 l
0.14 0.48 l
0.15 0.14 l
0.14 -0.25 l
0.15 0.35 l
0.14 -0.72 l
0.15 0.24 l
0.14 -0.83 l
0.15 0.10 l
0.15 0.14 l
0.14 0.48 l
0.15 0 l
0.14 -0.72 l
0.15 0.96 l
0.14 -0.72 l
0.15 0.72 l
0.15 -0.24 l
0.14 0.11 l
0.15 0.24 l
0.14 0.62 l
0.15 -0.73 l
0.14 -0.48 l
0.15 0.11 l
0.14 0.13 l
0.15 0 l
0.15 -0.24 l
0.14 0 l
0.15 -0.13 l
0.14 0.86 l
0.15 -0.86 l
0.14 0.24 l
0.15 -0.11 l
0.14 0.48 l
0.15 0.73 l
0.15 -0.62 l
0.14 -0.48 l
0.15 0.13 l
0.14 -0.48 l
0.15 0.11 l
0.14 0.24 l
0.15 0 l
0.14 -0.59 l
0.15 0.59 l
0.15 -0.49 l
0.14 0 l
0.15 0.14 l
0.14 0.24 l
0.15 -0.24 l
0.14 0.11 l
0.15 0.72 l
0.15 -0.48 l
0.14 0.62 l
0.15 0 l
0.14 -0.62 l
0.15 -0.24 l
0.14 0.48 l
0.15 -0.11 l
0.14 -0.13 l
0.15 0 l
0.15 -0.59 l
0.14 -0.14 l
0.15 -0.11 l
0.14 0.35 l
0.15 0.62 l
0.14 0 l
0.15 -0.13 l
0.14 0.13 l
0.15 0 l
0.15 -0.24 l
0.14 0.11 l
0.15 -0.24 l
0.14 0.13 l
0.15 -0.24 l
0.14 0.11 l
0.15 -0.11 l
0.14 0 l
0.15 0 l
0.15 -0.38 l
0.14 0.38 l
0.15 0.11 l
0.14 -0.25 l
0.15 0.73 l
0.14 -0.59 l
0.15 0.35 l
0.14 -0.35 l
0.15 0.59 l
0.15 -0.48 l
0.14 0 l
0.15 0.48 l
0.14 -0.97 l
0.15 0.49 l
0.14 -0.73 l
0.15 0.24 l
0.15 0.24 l
324.31 507.18 lineto
0.15 0.49 l
0.14 0 l
0.15 0.24 l
0.14 0.11 l
0.15 -0.24 l
0.14 1.10 l
0.15 -0.73 l
0.15 -0.13 l
0.14 0.13 l
0.15 -0.24 l
0.14 -0.13 l
0.15 -0.11 l
0.14 -0.24 l
0.15 0.48 l
0.14 -0.13 l
0.15 0 l
0.15 -0.84 l
0.14 0.49 l
0.15 0 l
0.14 0.72 l
0.15 -0.24 l
0.14 0.35 l
0.15 0.13 l
0.14 -0.13 l
0.15 -0.48 l
0.15 -0.35 l
0.14 -0.14 l
0.15 0.14 l
0.14 0.59 l
0.15 -0.73 l
0.14 -0.24 l
0.15 0.13 l
0.15 -0.24 l
0.14 0.59 l
0.15 -0.10 l
0.14 0.72 l
0.15 -0.48 l
0.14 0 l
0.15 0.48 l
0.14 -0.24 l
0.15 -0.13 l
0.15 -0.35 l
0.14 0.24 l
0.15 0.11 l
0.14 0.24 l
0.15 -0.35 l
0.14 -0.38 l
0.15 -0.11 l
0.14 0.35 l
0.15 -0.10 l
0.15 0 l
0.14 0.10 l
0.15 0.14 l
0.14 0.48 l
0.15 -0.24 l
0.14 0.11 l
0.15 0 l
0.14 -0.73 l
0.15 0.49 l
0.15 -0.35 l
0.14 -0.25 l
0.15 0.25 l
0.14 -0.14 l
0.15 0.14 l
0.14 -0.25 l
0.15 -0.13 l
0.15 0.38 l
0.14 -0.14 l
0.15 0.38 l
0.14 0.11 l
0.15 0.13 l
0.14 0 l
0.15 0.11 l
0.14 -0.11 l
0.15 0 l
0.15 -0.48 l
0.14 -0.38 l
0.15 0.24 l
0.14 0 l
0.15 -0.11 l
0.14 0 l
0.15 -0.24 l
0.14 0.24 l
0.15 0.35 l
0.15 -0.24 l
0.14 0.73 l
0.15 -0.24 l
0.14 -0.35 l
0.15 0.35 l
0.14 -0.11 l
0.15 0.24 l
0.14 -0.62 l
0.15 0.24 l
0.15 0 l
0.14 0 l
0.15 -0.35 l
0.14 0.60 l
0.15 -0.73 l
0.14 0.38 l
338.87 507.29 lineto
0.15 -0.24 l
0.14 0.73 l
0.15 -0.35 l
0.14 0.83 l
0.15 -0.83 l
0.14 0.24 l
0.15 -0.49 l
0.14 0.60 l
0.15 -0.73 l
0.15 0.24 l
0.14 0.14 l
0.15 -0.38 l
0.14 0.13 l
0.15 -0.61 l
0.14 0.13 l
0.15 0.83 l
0.14 0.25 l
0.15 -0.35 l
0.15 0 l
0.14 0 l
0.15 0.72 l
0.14 -0.37 l
0.15 0.37 l
0.14 -0.13 l
0.15 -0.24 l
0.14 -0.60 l
0.15 0.11 l
0.15 0.14 l
0.14 -0.25 l
0.15 0.11 l
0.14 0 l
0.15 0.24 l
0.14 0.14 l
0.15 -0.24 l
0.15 0.72 l
0.14 -0.62 l
0.15 0.14 l
0.14 0.11 l
0.15 -0.11 l
0.14 0 l
0.15 -0.73 l
0.14 0.49 l
0.15 -0.38 l
0.15 0.38 l
0.14 -0.49 l
0.15 0.24 l
0.14 -0.61 l
0.15 0.13 l
0.14 0.48 l
0.15 -0.37 l
0.14 0.62 l
0.15 0 l
0.15 0.10 l
0.14 0.49 l
0.15 -0.49 l
0.14 -0.35 l
0.15 0.11 l
0.14 -0.11 l
0.15 0.11 l
0.14 0 l
0.15 -0.11 l
0.15 -0.61 l
0.14 0.13 l
0.15 0.11 l
0.14 0.62 l
0.15 -0.14 l
0.14 0.24 l
0.15 0.49 l
0.15 0 l
0.14 0.13 l
0.15 -0.48 l
0.14 0 l
0.15 -0.49 l
0.14 0.73 l
0.15 -1.21 l
0.14 0.59 l
0.15 0 l
0.15 -0.11 l
0.14 0.49 l
0.15 0 l
0.14 -0.86 l
0.15 -0.24 l
0.14 0.48 l
0.15 0.24 l
0.14 0.38 l
0.15 -0.14 l
0.15 -0.59 l
0.14 0.11 l
0.15 0.13 l
0.14 0.25 l
0.15 -0.38 l
0.14 -0.48 l
0.15 0.86 l
0.14 -0.62 l
0.15 -0.24 l
0.15 0.61 l
0.14 -0.24 l
0.15 0 l
0.14 -0.24 l
353.43 507.05 lineto
0.14 0.73 l
0.15 -0.25 l
0.14 0 l
0.15 -0.24 l
0.15 0 l
0.14 0.24 l
0.15 -0.96 l
0.14 0.48 l
0.15 0.24 l
0.14 -0.59 l
0.15 0.48 l
0.15 -0.37 l
0.14 0.13 l
0.15 0 l
0.14 0.35 l
0.15 0.24 l
0.14 0.25 l
0.15 -0.97 l
0.14 0.97 l
0.15 -0.35 l
0.15 0.10 l
0.14 -0.48 l
0.15 -0.24 l
0.14 0 l
0.15 -0.24 l
0.14 0.13 l
0.15 -0.35 l
0.14 0.22 l
0.15 0.37 l
0.15 -0.13 l
0.14 0 l
0.15 0.37 l
0.14 0.11 l
0.15 0.38 l
0.14 0.35 l
0.15 -0.97 l
0.14 0 l
0.15 0.13 l
0.15 -0.24 l
0.14 0.35 l
0.15 -0.24 l
0.14 -0.48 l
0.15 0.24 l
0.14 0 l
0.15 0 l
0.15 0.37 l
0.14 -0.96 l
0.15 0.83 l
0.14 0 l
0.15 0.38 l
0.14 0.35 l
0.15 0 l
0.14 -0.11 l
0.15 0.35 l
0.15 -0.35 l
0.14 -0.38 l
0.15 0 l
0.14 -0.11 l
0.15 0.11 l
0.14 -0.59 l
0.15 0.24 l
0.14 0 l
0.15 -0.24 l
0.15 0.48 l
0.14 -0.13 l
0.15 -0.35 l
0.14 0.59 l
0.15 -0.48 l
0.14 0.48 l
0.15 0.14 l
0.14 0.10 l
0.15 -0.24 l
0.15 0.24 l
0.14 -0.48 l
0.15 -0.35 l
0.14 0.11 l
0.15 0 l
0.14 0.97 l
0.15 -0.84 l
0.15 0.11 l
0.14 0.13 l
0.15 -0.48 l
0.14 0.59 l
0.15 -0.24 l
0.14 0.38 l
0.15 0.10 l
0.14 0.14 l
0.15 0.11 l
0.15 0.13 l
0.14 -0.24 l
0.15 -0.14 l
0.14 -0.35 l
0.15 -0.13 l
0.14 0.38 l
0.15 -0.38 l
0.14 0.13 l
0.15 -0.61 l
0.15 -0.35 l
0.14 0.59 l
currentpoint o m
367.99 507.29 lineto
0.14 -0.59 l
0.15 0.83 l
0.14 -0.48 l
0.15 -0.11 l
0.14 0.11 l
0.15 0.62 l
0.15 -0.73 l
0.14 0.24 l
0.15 -0.13 l
0.14 -0.24 l
0.15 0.62 l
0.14 -0.49 l
0.15 -0.24 l
0.15 0.35 l
0.14 0.24 l
0.15 -0.48 l
0.14 0.48 l
0.15 -0.48 l
0.14 -0.11 l
0.15 0.35 l
0.14 -0.24 l
0.15 0.48 l
0.15 0.24 l
0.14 0.14 l
0.15 -0.49 l
0.14 -0.24 l
0.15 0.49 l
0.14 -0.14 l
0.15 -0.48 l
0.14 0.37 l
0.15 -0.48 l
0.15 0.11 l
0.14 0.24 l
0.15 -0.48 l
0.14 0.37 l
0.15 0 l
0.14 0.49 l
0.15 -0.25 l
0.14 0.60 l
0.15 -0.73 l
0.15 0.38 l
0.14 0.10 l
0.15 0 l
0.14 -0.48 l
0.15 0 l
0.14 0.38 l
0.15 -0.25 l
0.15 -0.72 l
0.14 0.97 l
0.15 -0.38 l
0.14 -0.11 l
0.15 -0.13 l
0.14 -0.35 l
0.15 0.48 l
0.14 0 l
0.15 0.35 l
0.15 -0.59 l
0.14 0.48 l
0.15 0 l
0.14 0.49 l
0.15 -0.38 l
0.14 0.49 l
0.15 -0.60 l
0.14 -0.37 l
0.15 0.37 l
0.15 0.25 l
0.14 -0.25 l
0.15 -0.37 l
0.14 0.13 l
0.15 0.35 l
0.14 -0.24 l
0.15 -0.24 l
0.14 -0.24 l
0.15 0.61 l
0.15 0.35 l
0.14 -0.10 l
0.15 0.10 l
0.14 -0.24 l
0.15 0.14 l
0.14 -0.38 l
0.15 0.13 l
0.15 0.11 l
0.14 -0.11 l
0.15 0.25 l
0.14 -0.49 l
0.15 -0.24 l
0.14 0 l
0.15 0.35 l
0.14 0 l
0.15 -0.59 l
0.15 0.48 l
0.14 -0.48 l
0.15 0.35 l
0.14 0.37 l
0.15 0.11 l
0.14 -0.11 l
0.15 -0.72 l
0.14 0.72 l
0.15 -0.37 l
o
/bg { 1 1 1 srgb } def
222.40 511.17 0.43 c p3
222.55 511.41 0.43 c p3
222.69 511.30 0.43 c p3
222.84 511.06 0.43 c p3
222.98 511.30 0.43 c p3
223.13 511.76 0.43 c p3
223.27 511.54 0.43 c p3
223.42 511.17 0.43 c p3
223.56 510.82 0.43 c p3
223.71 511.06 0.43 c p3
223.86 510.92 0.43 c p3
224.00 510.44 0.43 c p3
224.15 510.92 0.43 c p3
224.29 511.06 0.43 c p3
224.44 510.82 0.43 c p3
224.58 510.92 0.43 c p3
224.73 510.82 0.43 c p3
224.87 510.68 0.43 c p3
225.02 511.06 0.43 c p3
225.17 511.06 0.43 c p3
225.31 511.41 0.43 c p3
225.46 511.54 0.43 c p3
225.60 511.17 0.43 c p3
225.75 511.06 0.43 c p3
225.89 511.54 0.43 c p3
226.04 511.06 0.43 c p3
226.19 511.30 0.43 c p3
226.33 511.54 0.43 c p3
226.48 511.41 0.43 c p3
226.62 510.57 0.43 c p3
226.77 511.65 0.43 c p3
226.91 511.17 0.43 c p3
227.06 511.65 0.43 c p3
227.20 511.54 0.43 c p3
227.35 512.00 0.43 c p3
227.50 511.06 0.43 c p3
227.64 511.41 0.43 c p3
227.79 511.65 0.43 c p3
227.93 511.06 0.43 c p3
228.08 511.17 0.43 c p3
228.22 511.65 0.43 c p3
228.37 511.41 0.43 c p3
228.51 511.17 0.43 c p3
228.66 511.30 0.43 c p3
228.81 511.41 0.43 c p3
228.95 510.92 0.43 c p3
229.10 510.57 0.43 c p3
229.24 511.06 0.43 c p3
229.39 510.82 0.43 c p3
229.53 511.17 0.43 c p3
229.68 511.65 0.43 c p3
229.82 510.82 0.43 c p3
229.97 511.17 0.43 c p3
230.12 510.82 0.43 c p3
230.26 510.68 0.43 c p3
230.41 511.17 0.43 c p3
230.55 511.06 0.43 c p3
230.70 511.30 0.43 c p3
230.84 510.82 0.43 c p3
230.99 510.68 0.43 c p3
231.14 510.68 0.43 c p3
231.28 510.92 0.43 c p3
231.43 511.30 0.43 c p3
231.57 511.30 0.43 c p3
231.72 510.82 0.43 c p3
231.86 511.17 0.43 c p3
232.01 512.00 0.43 c p3
232.15 510.92 0.43 c p3
232.30 511.54 0.43 c p3
232.45 511.17 0.43 c p3
232.59 511.76 0.43 c p3
232.74 511.30 0.43 c p3
232.88 511.41 0.43 c p3
233.03 510.68 0.43 c p3
233.17 511.41 0.43 c p3
233.32 511.06 0.43 c p3
233.46 510.92 0.43 c p3
233.61 511.41 0.43 c p3
233.76 511.06 0.43 c p3
233.90 511.54 0.43 c p3
234.05 511.41 0.43 c p3
234.19 511.41 0.43 c p3
234.34 510.82 0.43 c p3
234.48 511.41 0.43 c p3
234.63 510.92 0.43 c p3
234.77 510.82 0.43 c p3
234.92 511.06 0.43 c p3
235.07 511.17 0.43 c p3
235.21 511.06 0.43 c p3
235.36 510.92 0.43 c p3
235.50 511.17 0.43 c p3
235.65 511.30 0.43 c p3
235.79 511.65 0.43 c p3
235.94 510.44 0.43 c p3
236.09 510.68 0.43 c p3
236.23 511.30 0.43 c p3
236.38 511.06 0.43 c p3
236.52 510.68 0.43 c p3
236.67 511.06 0.43 c p3
236.81 511.41 0.43 c p3
236.96 492.09 0.43 c p3
237.10 442.57 0.43 c p3
237.25 445.12 0.43 c p3
237.40 447.16 0.43 c p3
237.54 448.37 0.43 c p3
237.69 449.93 0.43 c p3
237.83 449.72 0.43 c p3
237.98 450.42 0.43 c p3
238.12 451.14 0.43 c p3
238.27 451.87 0.43 c p3
238.41 452.73 0.43 c p3
238.56 453.46 0.43 c p3
238.71 454.05 0.43 c p3
238.85 454.42 0.43 c p3
239.00 455.02 0.43 c p3
239.14 455.99 0.43 c p3
239.29 456.58 0.43 c p3
239.43 457.55 0.43 c p3
239.58 457.44 0.43 c p3
239.72 458.03 0.43 c p3
239.87 457.92 0.43 c p3
240.02 458.65 0.43 c p3
240.16 459.48 0.43 c p3
240.31 460.45 0.43 c p3
240.45 461.18 0.43 c p3
240.60 461.77 0.43 c p3
240.74 462.25 0.43 c p3
240.89 463.84 0.43 c p3
241.04 463.60 0.43 c p3
241.18 464.19 0.43 c p3
241.33 464.43 0.43 c p3
241.47 465.89 0.43 c p3
241.62 465.64 0.43 c p3
241.76 466.13 0.43 c p3
241.91 465.99 0.43 c p3
242.05 466.24 0.43 c p3
242.20 466.61 0.43 c p3
242.35 466.72 0.43 c p3
242.49 468.07 0.43 c p3
242.64 468.66 0.43 c p3
242.78 470.11 0.43 c p3
242.93 470.11 0.43 c p3
243.07 471.19 0.43 c p3
243.22 471.56 0.43 c p3
243.36 473.02 0.43 c p3
243.51 472.40 0.43 c p3
243.66 472.40 0.43 c p3
243.80 472.88 0.43 c p3
243.95 473.50 0.43 c p3
244.09 473.26 0.43 c p3
244.24 473.37 0.43 c p3
244.38 474.47 0.43 c p3
244.53 473.98 0.43 c p3
244.67 474.23 0.43 c p3
244.82 475.06 0.43 c p3
244.97 475.65 0.43 c p3
245.11 476.14 0.43 c p3
245.26 476.86 0.43 c p3
245.40 477.72 0.43 c p3
245.55 477.59 0.43 c p3
245.69 478.69 0.43 c p3
245.84 478.45 0.43 c p3
245.99 479.04 0.43 c p3
246.13 479.04 0.43 c p3
246.28 479.53 0.43 c p3
246.42 480.15 0.43 c p3
246.57 480.15 0.43 c p3
246.71 480.49 0.43 c p3
246.86 479.42 0.43 c p3
247.00 480.84 0.43 c p3
247.15 481.09 0.43 c p3
247.30 481.22 0.43 c p3
247.44 481.95 0.43 c p3
247.59 482.43 0.43 c p3
247.73 482.67 0.43 c p3
247.88 483.51 0.43 c p3
248.02 483.27 0.43 c p3
248.17 484.48 0.43 c p3
248.31 485.10 0.43 c p3
248.46 484.96 0.43 c p3
248.61 485.20 0.43 c p3
248.75 484.96 0.43 c p3
248.90 485.69 0.43 c p3
249.04 485.45 0.43 c p3
249.19 485.82 0.43 c p3
249.33 486.41 0.43 c p3
249.48 485.93 0.43 c p3
249.62 486.04 0.43 c p3
249.77 487.38 0.43 c p3
249.92 487.87 0.43 c p3
250.06 488.11 0.43 c p3
250.21 489.19 0.43 c p3
250.35 489.56 0.43 c p3
250.50 489.56 0.43 c p3
250.64 489.67 0.43 c p3
250.79 489.91 0.43 c p3
250.94 490.29 0.43 c p3
251.08 489.91 0.43 c p3
251.23 489.91 0.43 c p3
251.37 490.40 0.43 c p3
251.52 489.80 0.43 c p3
251.66 489.91 0.43 c p3
251.81 490.29 0.43 c p3
251.95 491.12 0.43 c p3
252.10 490.53 0.43 c p3
252.25 491.61 0.43 c p3
252.39 491.61 0.43 c p3
252.54 492.33 0.43 c p3
252.68 492.92 0.43 c p3
252.83 493.17 0.43 c p3
252.97 493.41 0.43 c p3
253.12 493.89 0.43 c p3
253.26 493.41 0.43 c p3
253.41 493.65 0.43 c p3
253.56 493.89 0.43 c p3
253.70 493.65 0.43 c p3
253.85 493.79 0.43 c p3
253.99 493.89 0.43 c p3
254.14 493.79 0.43 c p3
254.28 494.51 0.43 c p3
254.43 494.75 0.43 c p3
254.57 494.86 0.43 c p3
254.72 495.83 0.43 c p3
254.87 496.07 0.43 c p3
255.01 495.96 0.43 c p3
255.16 496.80 0.43 c p3
255.30 497.04 0.43 c p3
255.45 497.04 0.43 c p3
255.59 496.91 0.43 c p3
255.74 497.04 0.43 c p3
255.88 496.80 0.43 c p3
256.03 497.04 0.43 c p3
256.18 496.91 0.43 c p3
256.32 497.39 0.43 c p3
256.47 497.39 0.43 c p3
256.61 497.39 0.43 c p3
256.76 497.88 0.43 c p3
256.90 498.01 0.43 c p3
257.05 498.84 0.43 c p3
257.20 498.60 0.43 c p3
257.34 499.33 0.43 c p3
257.49 498.84 0.43 c p3
257.63 499.81 0.43 c p3
257.78 499.57 0.43 c p3
257.92 499.70 0.43 c p3
258.07 499.33 0.43 c p3
258.21 499.09 0.43 c p3
258.36 499.81 0.43 c p3
258.51 500.05 0.43 c p3
258.65 499.81 0.43 c p3
258.80 499.70 0.43 c p3
258.94 500.05 0.43 c p3
259.09 499.95 0.43 c p3
259.23 500.05 0.43 c p3
259.38 500.43 0.43 c p3
259.52 500.43 0.43 c p3
259.67 500.54 0.43 c p3
259.82 501.51 0.43 c p3
259.96 501.27 0.43 c p3
260.11 501.75 0.43 c p3
260.25 501.51 0.43 c p3
260.40 502.10 0.43 c p3
260.54 502.10 0.43 c p3
260.69 501.99 0.43 c p3
260.83 502.10 0.43 c p3
260.98 501.99 0.43 c p3
261.13 501.86 0.43 c p3
261.27 501.86 0.43 c p3
261.42 502.10 0.43 c p3
261.56 502.58 0.43 c p3
261.71 502.72 0.43 c p3
261.85 502.72 0.43 c p3
262.00 503.31 0.43 c p3
262.15 503.31 0.43 c p3
262.29 503.44 0.43 c p3
262.44 503.55 0.43 c p3
262.58 503.69 0.43 c p3
262.73 503.55 0.43 c p3
262.87 503.93 0.43 c p3
263.02 503.31 0.43 c p3
263.16 503.69 0.43 c p3
263.31 503.20 0.43 c p3
263.46 503.44 0.43 c p3
263.60 503.93 0.43 c p3
263.75 503.31 0.43 c p3
263.89 503.20 0.43 c p3
264.04 504.04 0.43 c p3
264.18 503.79 0.43 c p3
264.33 504.76 0.43 c p3
264.47 504.28 0.43 c p3
264.62 505.38 0.43 c p3
264.77 504.90 0.43 c p3
264.91 504.41 0.43 c p3
265.06 505.25 0.43 c p3
265.20 504.76 0.43 c p3
265.35 504.17 0.43 c p3
265.49 504.66 0.43 c p3
265.64 504.90 0.43 c p3
265.78 504.04 0.43 c p3
265.93 504.04 0.43 c p3
266.08 504.76 0.43 c p3
266.22 505.25 0.43 c p3
266.37 505.73 0.43 c p3
266.51 505.62 0.43 c p3
266.66 505.87 0.43 c p3
266.80 505.62 0.43 c p3
266.95 505.87 0.43 c p3
267.10 505.87 0.43 c p3
267.24 506.22 0.43 c p3
267.39 506.22 0.43 c p3
267.53 506.11 0.43 c p3
267.68 506.46 0.43 c p3
267.82 506.11 0.43 c p3
267.97 505.87 0.43 c p3
268.11 505.97 0.43 c p3
268.26 506.22 0.43 c p3
268.41 506.57 0.43 c p3
268.55 506.70 0.43 c p3
268.70 506.11 0.43 c p3
268.84 506.57 0.43 c p3
268.99 506.11 0.43 c p3
269.13 506.70 0.43 c p3
269.28 506.70 0.43 c p3
269.42 506.81 0.43 c p3
269.57 506.46 0.43 c p3
269.72 506.35 0.43 c p3
269.86 506.70 0.43 c p3
270.01 506.70 0.43 c p3
270.15 506.22 0.43 c p3
270.30 506.81 0.43 c p3
270.44 506.35 0.43 c p3
270.59 506.35 0.43 c p3
270.73 506.94 0.43 c p3
270.88 506.35 0.43 c p3
271.03 507.05 0.43 c p3
271.17 506.81 0.43 c p3
271.32 506.94 0.43 c p3
271.46 507.29 0.43 c p3
271.61 507.18 0.43 c p3
271.75 506.81 0.43 c p3
271.90 507.43 0.43 c p3
272.05 507.05 0.43 c p3
272.19 507.05 0.43 c p3
272.34 507.29 0.43 c p3
272.48 507.53 0.43 c p3
272.63 507.05 0.43 c p3
272.77 507.67 0.43 c p3
272.92 507.43 0.43 c p3
273.06 507.78 0.43 c p3
273.21 507.43 0.43 c p3
273.36 507.53 0.43 c p3
273.50 507.53 0.43 c p3
273.65 508.15 0.43 c p3
273.79 507.78 0.43 c p3
273.94 507.91 0.43 c p3
274.08 507.67 0.43 c p3
274.23 507.43 0.43 c p3
274.37 507.29 0.43 c p3
274.52 507.67 0.43 c p3
274.67 507.29 0.43 c p3
274.81 507.53 0.43 c p3
274.96 507.53 0.43 c p3
275.10 508.02 0.43 c p3
275.25 508.02 0.43 c p3
275.39 507.67 0.43 c p3
275.54 508.02 0.43 c p3
275.68 507.43 0.43 c p3
275.83 507.53 0.43 c p3
275.98 508.02 0.43 c p3
276.12 507.78 0.43 c p3
276.27 507.78 0.43 c p3
276.41 508.15 0.43 c p3
276.56 507.43 0.43 c p3
276.70 507.53 0.43 c p3
276.85 507.78 0.43 c p3
277.00 507.53 0.43 c p3
277.14 508.39 0.43 c p3
277.29 507.91 0.43 c p3
277.43 508.15 0.43 c p3
277.58 508.15 0.43 c p3
277.72 508.39 0.43 c p3
277.87 508.50 0.43 c p3
278.01 508.39 0.43 c p3
278.16 508.39 0.43 c p3
278.31 508.74 0.43 c p3
278.45 508.50 0.43 c p3
278.60 508.26 0.43 c p3
278.74 508.02 0.43 c p3
278.89 508.15 0.43 c p3
279.03 508.39 0.43 c p3
279.18 508.39 0.43 c p3
279.32 508.15 0.43 c p3
279.47 508.02 0.43 c p3
279.62 508.88 0.43 c p3
279.76 508.88 0.43 c p3
279.91 508.64 0.43 c p3
280.05 508.99 0.43 c p3
280.20 508.74 0.43 c p3
280.34 508.26 0.43 c p3
280.49 508.50 0.43 c p3
280.63 508.50 0.43 c p3
280.78 508.50 0.43 c p3
280.93 508.39 0.43 c p3
281.07 508.39 0.43 c p3
281.22 508.64 0.43 c p3
281.36 508.26 0.43 c p3
281.51 508.26 0.43 c p3
281.65 507.05 0.43 c p3
281.80 508.15 0.43 c p3
281.95 507.91 0.43 c p3
282.09 508.64 0.43 c p3
282.24 508.50 0.43 c p3
282.38 508.88 0.43 c p3
282.53 508.99 0.43 c p3
282.67 508.74 0.43 c p3
282.82 508.50 0.43 c p3
282.96 508.50 0.43 c p3
283.11 508.88 0.43 c p3
283.26 508.88 0.43 c p3
283.40 508.50 0.43 c p3
283.55 508.26 0.43 c p3
283.69 508.50 0.43 c p3
283.84 508.64 0.43 c p3
283.98 507.91 0.43 c p3
284.13 508.39 0.43 c p3
284.27 508.74 0.43 c p3
284.42 508.88 0.43 c p3
284.57 508.88 0.43 c p3
284.71 508.99 0.43 c p3
284.86 508.64 0.43 c p3
285.00 509.36 0.43 c p3
285.15 508.88 0.43 c p3
285.29 509.12 0.43 c p3
285.44 508.39 0.43 c p3
285.58 508.64 0.43 c p3
285.73 509.12 0.43 c p3
285.88 508.50 0.43 c p3
286.02 508.64 0.43 c p3
286.17 508.39 0.43 c p3
286.31 508.15 0.43 c p3
286.46 508.88 0.43 c p3
286.60 508.64 0.43 c p3
286.75 508.26 0.43 c p3
286.89 508.02 0.43 c p3
287.04 509.36 0.43 c p3
287.19 509.12 0.43 c p3
287.33 509.36 0.43 c p3
287.48 508.74 0.43 c p3
287.62 508.74 0.43 c p3
287.77 508.50 0.43 c p3
287.91 509.12 0.43 c p3
288.06 509.61 0.43 c p3
288.21 509.12 0.43 c p3
288.35 508.39 0.43 c p3
288.50 509.36 0.43 c p3
288.64 508.26 0.43 c p3
288.79 508.15 0.43 c p3
288.93 508.15 0.43 c p3
289.08 507.91 0.43 c p3
289.22 508.64 0.43 c p3
289.37 508.50 0.43 c p3
289.52 508.15 0.43 c p3
289.66 508.74 0.43 c p3
289.81 509.12 0.43 c p3
289.95 508.74 0.43 c p3
290.10 508.99 0.43 c p3
290.24 509.12 0.43 c p3
290.39 508.74 0.43 c p3
290.53 509.23 0.43 c p3
290.68 509.47 0.43 c p3
290.83 508.88 0.43 c p3
290.97 508.88 0.43 c p3
291.12 508.88 0.43 c p3
291.26 508.50 0.43 c p3
291.41 508.39 0.43 c p3
291.55 508.50 0.43 c p3
291.70 508.64 0.43 c p3
291.84 508.88 0.43 c p3
291.99 509.12 0.43 c p3
292.14 508.74 0.43 c p3
292.28 508.88 0.43 c p3
292.43 508.39 0.43 c p3
292.57 508.88 0.43 c p3
292.72 508.50 0.43 c p3
292.86 508.74 0.43 c p3
293.01 508.15 0.43 c p3
293.16 508.39 0.43 c p3
293.30 508.64 0.43 c p3
293.45 508.26 0.43 c p3
293.59 507.78 0.43 c p3
293.74 508.02 0.43 c p3
293.88 508.50 0.43 c p3
294.03 507.91 0.43 c p3
294.17 508.15 0.43 c p3
294.32 508.39 0.43 c p3
294.47 508.88 0.43 c p3
294.61 508.64 0.43 c p3
294.76 508.74 0.43 c p3
294.90 508.74 0.43 c p3
295.05 508.88 0.43 c p3
295.19 508.88 0.43 c p3
295.34 508.99 0.43 c p3
295.48 508.88 0.43 c p3
295.63 508.50 0.43 c p3
295.78 508.74 0.43 c p3
295.92 508.88 0.43 c p3
296.07 508.74 0.43 c p3
296.21 508.64 0.43 c p3
296.36 508.50 0.43 c p3
296.50 508.50 0.43 c p3
296.65 508.64 0.43 c p3
296.79 508.15 0.43 c p3
296.94 508.39 0.43 c p3
297.09 509.23 0.43 c p3
297.23 508.99 0.43 c p3
297.38 508.99 0.43 c p3
297.52 508.99 0.43 c p3
297.67 509.12 0.43 c p3
297.81 508.88 0.43 c p3
297.96 508.39 0.43 c p3
298.11 508.88 0.43 c p3
298.25 508.50 0.43 c p3
298.40 508.74 0.43 c p3
298.54 508.39 0.43 c p3
298.69 508.39 0.43 c p3
298.83 508.02 0.43 c p3
298.98 508.39 0.43 c p3
299.12 508.39 0.43 c p3
299.27 508.15 0.43 c p3
299.42 508.74 0.43 c p3
299.56 508.02 0.43 c p3
299.71 507.78 0.43 c p3
299.85 507.78 0.43 c p3
300.00 507.91 0.43 c p3
300.14 508.02 0.43 c p3
300.29 508.74 0.43 c p3
300.43 508.39 0.43 c p3
300.58 508.88 0.43 c p3
300.73 508.50 0.43 c p3
300.87 508.88 0.43 c p3
301.02 508.88 0.43 c p3
301.16 508.50 0.43 c p3
301.31 508.74 0.43 c p3
301.45 509.12 0.43 c p3
301.60 508.99 0.43 c p3
301.74 508.26 0.43 c p3
301.89 508.15 0.43 c p3
302.04 508.15 0.43 c p3
302.18 508.26 0.43 c p3
302.33 508.39 0.43 c p3
302.47 508.15 0.43 c p3
302.62 508.74 0.43 c p3
302.76 507.91 0.43 c p3
302.91 508.64 0.43 c p3
303.06 508.39 0.43 c p3
303.20 508.74 0.43 c p3
303.35 508.88 0.43 c p3
303.49 508.99 0.43 c p3
303.64 508.74 0.43 c p3
303.78 508.74 0.43 c p3
303.93 508.64 0.43 c p3
304.07 508.02 0.43 c p3
304.22 508.74 0.43 c p3
304.37 508.26 0.43 c p3
304.51 508.15 0.43 c p3
304.66 508.26 0.43 c p3
304.80 508.15 0.43 c p3
304.95 508.15 0.43 c p3
305.09 507.53 0.43 c p3
305.24 507.05 0.43 c p3
305.38 508.26 0.43 c p3
305.53 508.39 0.43 c p3
305.68 508.39 0.43 c p3
305.82 508.99 0.43 c p3
305.97 508.64 0.43 c p3
306.11 508.88 0.43 c p3
306.26 508.64 0.43 c p3
306.40 508.64 0.43 c p3
306.55 507.91 0.43 c p3
306.69 508.15 0.43 c p3
306.84 508.39 0.43 c p3
306.99 508.15 0.43 c p3
307.13 508.02 0.43 c p3
307.28 508.26 0.43 c p3
307.42 508.02 0.43 c p3
307.57 508.39 0.43 c p3
307.71 508.39 0.43 c p3
307.86 508.15 0.43 c p3
308.01 508.50 0.43 c p3
308.15 508.26 0.43 c p3
308.30 509.23 0.43 c p3
308.44 508.74 0.43 c p3
308.59 508.64 0.43 c p3
308.73 508.50 0.43 c p3
308.88 508.39 0.43 c p3
309.02 507.91 0.43 c p3
309.17 507.78 0.43 c p3
309.32 508.15 0.43 c p3
309.46 508.02 0.43 c p3
309.61 507.78 0.43 c p3
309.75 507.91 0.43 c p3
309.90 508.15 0.43 c p3
310.04 508.02 0.43 c p3
310.19 507.78 0.43 c p3
310.33 508.50 0.43 c p3
310.48 508.26 0.43 c p3
310.63 508.02 0.43 c p3
310.77 508.50 0.43 c p3
310.92 508.64 0.43 c p3
311.06 508.39 0.43 c p3
311.21 508.74 0.43 c p3
311.35 508.02 0.43 c p3
311.50 508.26 0.43 c p3
311.64 507.43 0.43 c p3
311.79 507.53 0.43 c p3
311.94 507.67 0.43 c p3
312.08 508.15 0.43 c p3
312.23 508.15 0.43 c p3
312.37 507.43 0.43 c p3
312.52 508.39 0.43 c p3
312.66 507.67 0.43 c p3
312.81 508.39 0.43 c p3
312.96 508.15 0.43 c p3
313.10 508.26 0.43 c p3
313.25 508.50 0.43 c p3
313.39 509.12 0.43 c p3
313.54 508.39 0.43 c p3
313.68 507.91 0.43 c p3
313.83 508.02 0.43 c p3
313.97 508.15 0.43 c p3
314.12 508.15 0.43 c p3
314.27 507.91 0.43 c p3
314.41 507.91 0.43 c p3
314.56 507.78 0.43 c p3
314.70 508.64 0.43 c p3
314.85 507.78 0.43 c p3
314.99 508.02 0.43 c p3
315.14 507.91 0.43 c p3
315.28 508.39 0.43 c p3
315.43 509.12 0.43 c p3
315.58 508.50 0.43 c p3
315.72 508.02 0.43 c p3
315.87 508.15 0.43 c p3
316.01 507.67 0.43 c p3
316.16 507.78 0.43 c p3
316.30 508.02 0.43 c p3
316.45 508.02 0.43 c p3
316.59 507.43 0.43 c p3
316.74 508.02 0.43 c p3
316.89 507.53 0.43 c p3
317.03 507.53 0.43 c p3
317.18 507.67 0.43 c p3
317.32 507.91 0.43 c p3
317.47 507.67 0.43 c p3
317.61 507.78 0.43 c p3
317.76 508.50 0.43 c p3
317.91 508.02 0.43 c p3
318.05 508.64 0.43 c p3
318.20 508.64 0.43 c p3
318.34 508.02 0.43 c p3
318.49 507.78 0.43 c p3
318.63 508.26 0.43 c p3
318.78 508.15 0.43 c p3
318.92 508.02 0.43 c p3
319.07 508.02 0.43 c p3
319.22 507.43 0.43 c p3
319.36 507.29 0.43 c p3
319.51 507.18 0.43 c p3
319.65 507.53 0.43 c p3
319.80 508.15 0.43 c p3
319.94 508.15 0.43 c p3
320.09 508.02 0.43 c p3
320.23 508.15 0.43 c p3
320.38 508.15 0.43 c p3
320.53 507.91 0.43 c p3
320.67 508.02 0.43 c p3
320.82 507.78 0.43 c p3
320.96 507.91 0.43 c p3
321.11 507.67 0.43 c p3
321.25 507.78 0.43 c p3
321.40 507.67 0.43 c p3
321.54 507.67 0.43 c p3
321.69 507.67 0.43 c p3
321.84 507.29 0.43 c p3
321.98 507.67 0.43 c p3
322.13 507.78 0.43 c p3
322.27 507.53 0.43 c p3
322.42 508.26 0.43 c p3
322.56 507.67 0.43 c p3
322.71 508.02 0.43 c p3
322.85 507.67 0.43 c p3
323.00 508.26 0.43 c p3
323.15 507.78 0.43 c p3
323.29 507.78 0.43 c p3
323.44 508.26 0.43 c p3
323.58 507.29 0.43 c p3
323.73 507.78 0.43 c p3
323.87 507.05 0.43 c p3
324.02 507.29 0.43 c p3
324.17 507.53 0.43 c p3
324.31 507.18 0.43 c p3
324.46 507.67 0.43 c p3
324.60 507.67 0.43 c p3
324.75 507.91 0.43 c p3
324.89 508.02 0.43 c p3
325.04 507.78 0.43 c p3
325.18 508.88 0.43 c p3
325.33 508.15 0.43 c p3
325.48 508.02 0.43 c p3
325.62 508.15 0.43 c p3
325.77 507.91 0.43 c p3
325.91 507.78 0.43 c p3
326.06 507.67 0.43 c p3
326.20 507.43 0.43 c p3
326.35 507.91 0.43 c p3
326.49 507.78 0.43 c p3
326.64 507.78 0.43 c p3
326.79 506.94 0.43 c p3
326.93 507.43 0.43 c p3
327.08 507.43 0.43 c p3
327.22 508.15 0.43 c p3
327.37 507.91 0.43 c p3
327.51 508.26 0.43 c p3
327.66 508.39 0.43 c p3
327.80 508.26 0.43 c p3
327.95 507.78 0.43 c p3
328.10 507.43 0.43 c p3
328.24 507.29 0.43 c p3
328.39 507.43 0.43 c p3
328.53 508.02 0.43 c p3
328.68 507.29 0.43 c p3
328.82 507.05 0.43 c p3
328.97 507.18 0.43 c p3
329.12 506.94 0.43 c p3
329.26 507.53 0.43 c p3
329.41 507.43 0.43 c p3
329.55 508.15 0.43 c p3
329.70 507.67 0.43 c p3
329.84 507.67 0.43 c p3
329.99 508.15 0.43 c p3
330.13 507.91 0.43 c p3
330.28 507.78 0.43 c p3
330.43 507.43 0.43 c p3
330.57 507.67 0.43 c p3
330.72 507.78 0.43 c p3
330.86 508.02 0.43 c p3
331.01 507.67 0.43 c p3
331.15 507.29 0.43 c p3
331.30 507.18 0.43 c p3
331.44 507.53 0.43 c p3
331.59 507.43 0.43 c p3
331.74 507.43 0.43 c p3
331.88 507.53 0.43 c p3
332.03 507.67 0.43 c p3
332.17 508.15 0.43 c p3
332.32 507.91 0.43 c p3
332.46 508.02 0.43 c p3
332.61 508.02 0.43 c p3
332.75 507.29 0.43 c p3
332.90 507.78 0.43 c p3
333.05 507.43 0.43 c p3
333.19 507.18 0.43 c p3
333.34 507.43 0.43 c p3
333.48 507.29 0.43 c p3
333.63 507.43 0.43 c p3
333.77 507.18 0.43 c p3
333.92 507.05 0.43 c p3
334.07 507.43 0.43 c p3
334.21 507.29 0.43 c p3
334.36 507.67 0.43 c p3
334.50 507.78 0.43 c p3
334.65 507.91 0.43 c p3
334.79 507.91 0.43 c p3
334.94 508.02 0.43 c p3
335.08 507.91 0.43 c p3
335.23 507.91 0.43 c p3
335.38 507.43 0.43 c p3
335.52 507.05 0.43 c p3
335.67 507.29 0.43 c p3
335.81 507.29 0.43 c p3
335.96 507.18 0.43 c p3
336.10 507.18 0.43 c p3
336.25 506.94 0.43 c p3
336.39 507.18 0.43 c p3
336.54 507.53 0.43 c p3
336.69 507.29 0.43 c p3
336.83 508.02 0.43 c p3
336.98 507.78 0.43 c p3
337.12 507.43 0.43 c p3
337.27 507.78 0.43 c p3
337.41 507.67 0.43 c p3
337.56 507.91 0.43 c p3
337.70 507.29 0.43 c p3
337.85 507.53 0.43 c p3
338.00 507.53 0.43 c p3
338.14 507.53 0.43 c p3
338.29 507.18 0.43 c p3
338.43 507.78 0.43 c p3
338.58 507.05 0.43 c p3
338.72 507.43 0.43 c p3
338.87 507.29 0.43 c p3
339.02 507.05 0.43 c p3
339.16 507.78 0.43 c p3
339.31 507.43 0.43 c p3
339.45 508.26 0.43 c p3
339.60 507.43 0.43 c p3
339.74 507.67 0.43 c p3
339.89 507.18 0.43 c p3
340.03 507.78 0.43 c p3
340.18 507.05 0.43 c p3
340.33 507.29 0.43 c p3
340.47 507.43 0.43 c p3
340.62 507.05 0.43 c p3
340.76 507.18 0.43 c p3
340.91 506.57 0.43 c p3
341.05 506.70 0.43 c p3
341.20 507.53 0.43 c p3
341.34 507.78 0.43 c p3
341.49 507.43 0.43 c p3
341.64 507.43 0.43 c p3
341.78 507.43 0.43 c p3
341.93 508.15 0.43 c p3
342.07 507.78 0.43 c p3
342.22 508.15 0.43 c p3
342.36 508.02 0.43 c p3
342.51 507.78 0.43 c p3
342.65 507.18 0.43 c p3
342.80 507.29 0.43 c p3
342.95 507.43 0.43 c p3
343.09 507.18 0.43 c p3
343.24 507.29 0.43 c p3
343.38 507.29 0.43 c p3
343.53 507.53 0.43 c p3
343.67 507.67 0.43 c p3
343.82 507.43 0.43 c p3
343.97 508.15 0.43 c p3
344.11 507.53 0.43 c p3
344.26 507.67 0.43 c p3
344.40 507.78 0.43 c p3
344.55 507.67 0.43 c p3
344.69 507.67 0.43 c p3
344.84 506.94 0.43 c p3
344.98 507.43 0.43 c p3
345.13 507.05 0.43 c p3
345.28 507.43 0.43 c p3
345.42 506.94 0.43 c p3
345.57 507.18 0.43 c p3
345.71 506.57 0.43 c p3
345.86 506.70 0.43 c p3
346.00 507.18 0.43 c p3
346.15 506.81 0.43 c p3
346.29 507.43 0.43 c p3
346.44 507.43 0.43 c p3
346.59 507.53 0.43 c p3
346.73 508.02 0.43 c p3
346.88 507.53 0.43 c p3
347.02 507.18 0.43 c p3
347.17 507.29 0.43 c p3
347.31 507.18 0.43 c p3
347.46 507.29 0.43 c p3
347.60 507.29 0.43 c p3
347.75 507.18 0.43 c p3
347.90 506.57 0.43 c p3
348.04 506.70 0.43 c p3
348.19 506.81 0.43 c p3
348.33 507.43 0.43 c p3
348.48 507.29 0.43 c p3
348.62 507.53 0.43 c p3
348.77 508.02 0.43 c p3
348.92 508.02 0.43 c p3
349.06 508.15 0.43 c p3
349.21 507.67 0.43 c p3
349.35 507.67 0.43 c p3
349.50 507.18 0.43 c p3
349.64 507.91 0.43 c p3
349.79 506.70 0.43 c p3
349.93 507.29 0.43 c p3
350.08 507.29 0.43 c p3
350.23 507.18 0.43 c p3
350.37 507.67 0.43 c p3
350.52 507.67 0.43 c p3
350.66 506.81 0.43 c p3
350.81 506.57 0.43 c p3
350.95 507.05 0.43 c p3
351.10 507.29 0.43 c p3
351.24 507.67 0.43 c p3
351.39 507.53 0.43 c p3
351.54 506.94 0.43 c p3
351.68 507.05 0.43 c p3
351.83 507.18 0.43 c p3
351.97 507.43 0.43 c p3
352.12 507.05 0.43 c p3
352.26 506.57 0.43 c p3
352.41 507.43 0.43 c p3
352.55 506.81 0.43 c p3
352.70 506.57 0.43 c p3
352.85 507.18 0.43 c p3
352.99 506.94 0.43 c p3
353.14 506.94 0.43 c p3
353.28 506.70 0.43 c p3
353.43 507.05 0.43 c p3
353.57 507.78 0.43 c p3
353.72 507.53 0.43 c p3
353.86 507.53 0.43 c p3
354.01 507.29 0.43 c p3
354.16 507.29 0.43 c p3
354.30 507.53 0.43 c p3
354.45 506.57 0.43 c p3
354.59 507.05 0.43 c p3
354.74 507.29 0.43 c p3
354.88 506.70 0.43 c p3
355.03 507.18 0.43 c p3
355.18 506.81 0.43 c p3
355.32 506.94 0.43 c p3
355.47 506.94 0.43 c p3
355.61 507.29 0.43 c p3
355.76 507.53 0.43 c p3
355.90 507.78 0.43 c p3
356.05 506.81 0.43 c p3
356.19 507.78 0.43 c p3
356.34 507.43 0.43 c p3
356.49 507.53 0.43 c p3
356.63 507.05 0.43 c p3
356.78 506.81 0.43 c p3
356.92 506.81 0.43 c p3
357.07 506.57 0.43 c p3
357.21 506.70 0.43 c p3
357.36 506.35 0.43 c p3
357.50 506.57 0.43 c p3
357.65 506.94 0.43 c p3
357.80 506.81 0.43 c p3
357.94 506.81 0.43 c p3
358.09 507.18 0.43 c p3
358.23 507.29 0.43 c p3
358.38 507.67 0.43 c p3
358.52 508.02 0.43 c p3
358.67 507.05 0.43 c p3
358.81 507.05 0.43 c p3
358.96 507.18 0.43 c p3
359.11 506.94 0.43 c p3
359.25 507.29 0.43 c p3
359.40 507.05 0.43 c p3
359.54 506.57 0.43 c p3
359.69 506.81 0.43 c p3
359.83 506.81 0.43 c p3
359.98 506.81 0.43 c p3
360.13 507.18 0.43 c p3
360.27 506.22 0.43 c p3
360.42 507.05 0.43 c p3
360.56 507.05 0.43 c p3
360.71 507.43 0.43 c p3
360.85 507.78 0.43 c p3
361.00 507.78 0.43 c p3
361.14 507.67 0.43 c p3
361.29 508.02 0.43 c p3
361.44 507.67 0.43 c p3
361.58 507.29 0.43 c p3
361.73 507.29 0.43 c p3
361.87 507.18 0.43 c p3
362.02 507.29 0.43 c p3
362.16 506.70 0.43 c p3
362.31 506.94 0.43 c p3
362.45 506.94 0.43 c p3
362.60 506.70 0.43 c p3
362.75 507.18 0.43 c p3
362.89 507.05 0.43 c p3
363.04 506.70 0.43 c p3
363.18 507.29 0.43 c p3
363.33 506.81 0.43 c p3
363.47 507.29 0.43 c p3
363.62 507.43 0.43 c p3
363.76 507.53 0.43 c p3
363.91 507.29 0.43 c p3
364.06 507.53 0.43 c p3
364.20 507.05 0.43 c p3
364.35 506.70 0.43 c p3
364.49 506.81 0.43 c p3
364.64 506.81 0.43 c p3
364.78 507.78 0.43 c p3
364.93 506.94 0.43 c p3
365.08 507.05 0.43 c p3
365.22 507.18 0.43 c p3
365.37 506.70 0.43 c p3
365.51 507.29 0.43 c p3
365.66 507.05 0.43 c p3
365.80 507.43 0.43 c p3
365.95 507.53 0.43 c p3
366.09 507.67 0.43 c p3
366.24 507.78 0.43 c p3
366.39 507.91 0.43 c p3
366.53 507.67 0.43 c p3
366.68 507.53 0.43 c p3
366.82 507.18 0.43 c p3
366.97 507.05 0.43 c p3
367.11 507.43 0.43 c p3
367.26 507.05 0.43 c p3
367.40 507.18 0.43 c p3
367.55 506.57 0.43 c p3
367.70 506.22 0.43 c p3
367.84 506.81 0.43 c p3
367.99 507.29 0.43 c p3
368.13 506.70 0.43 c p3
368.28 507.53 0.43 c p3
368.42 507.05 0.43 c p3
368.57 506.94 0.43 c p3
368.71 507.05 0.43 c p3
368.86 507.67 0.43 c p3
369.01 506.94 0.43 c p3
369.15 507.18 0.43 c p3
369.30 507.05 0.43 c p3
369.44 506.81 0.43 c p3
369.59 507.43 0.43 c p3
369.73 506.94 0.43 c p3
369.88 506.70 0.43 c p3
370.03 507.05 0.43 c p3
370.17 507.29 0.43 c p3
370.32 506.81 0.43 c p3
370.46 507.29 0.43 c p3
370.61 506.81 0.43 c p3
370.75 506.70 0.43 c p3
370.90 507.05 0.43 c p3
371.04 506.81 0.43 c p3
371.19 507.29 0.43 c p3
371.34 507.53 0.43 c p3
371.48 507.67 0.43 c p3
371.63 507.18 0.43 c p3
371.77 506.94 0.43 c p3
371.92 507.43 0.43 c p3
372.06 507.29 0.43 c p3
372.21 506.81 0.43 c p3
372.35 507.18 0.43 c p3
372.50 506.70 0.43 c p3
372.65 506.81 0.43 c p3
372.79 507.05 0.43 c p3
372.94 506.57 0.43 c p3
373.08 506.94 0.43 c p3
373.23 506.94 0.43 c p3
373.37 507.43 0.43 c p3
373.52 507.18 0.43 c p3
373.66 507.78 0.43 c p3
373.81 507.05 0.43 c p3
373.96 507.43 0.43 c p3
374.10 507.53 0.43 c p3
374.25 507.53 0.43 c p3
374.39 507.05 0.43 c p3
374.54 507.05 0.43 c p3
374.68 507.43 0.43 c p3
374.83 507.18 0.43 c p3
374.98 506.46 0.43 c p3
375.12 507.43 0.43 c p3
375.27 507.05 0.43 c p3
375.41 506.94 0.43 c p3
375.56 506.81 0.43 c p3
375.70 506.46 0.43 c p3
375.85 506.94 0.43 c p3
375.99 506.94 0.43 c p3
376.14 507.29 0.43 c p3
376.29 506.70 0.43 c p3
376.43 507.18 0.43 c p3
376.58 507.18 0.43 c p3
376.72 507.67 0.43 c p3
376.87 507.29 0.43 c p3
377.01 507.78 0.43 c p3
377.16 507.18 0.43 c p3
377.30 506.81 0.43 c p3
377.45 507.18 0.43 c p3
377.60 507.43 0.43 c p3
377.74 507.18 0.43 c p3
377.89 506.81 0.43 c p3
378.03 506.94 0.43 c p3
378.18 507.29 0.43 c p3
378.32 507.05 0.43 c p3
378.47 506.81 0.43 c p3
378.61 506.57 0.43 c p3
378.76 507.18 0.43 c p3
378.91 507.53 0.43 c p3
379.05 507.43 0.43 c p3
379.20 507.53 0.43 c p3
379.34 507.29 0.43 c p3
379.49 507.43 0.43 c p3
379.63 507.05 0.43 c p3
379.78 507.18 0.43 c p3
379.93 507.29 0.43 c p3
380.07 507.18 0.43 c p3
380.22 507.43 0.43 c p3
380.36 506.94 0.43 c p3
380.51 506.70 0.43 c p3
380.65 506.70 0.43 c p3
380.80 507.05 0.43 c p3
380.94 507.05 0.43 c p3
381.09 506.46 0.43 c p3
381.24 506.94 0.43 c p3
381.38 506.46 0.43 c p3
381.53 506.81 0.43 c p3
381.67 507.18 0.43 c p3
381.82 507.29 0.43 c p3
381.96 507.18 0.43 c p3
382.11 506.46 0.43 c p3
382.25 507.18 0.43 c p3
382.40 506.81 0.43 c p3
0.00 0.00 432.00 576.00 cl
0 0 0 srgb
0.75 setlinewidth
[] 0 setdash
1 setlinecap
1 setlinejoin
10.00 setmiterlimit
np
236.96 345.60 m
145.59 0 l
o
np
236.96 345.60 m
0 -5.76 l
o
np
266.08 345.60 m
0 -5.76 l
o
np
295.19 345.60 m
0 -5.76 l
o
np
324.31 345.60 m
0 -5.76 l
o
np
353.43 345.60 m
0 -5.76 l
o
np
382.55 345.60 m
0 -5.76 l
o
/Font1 findfont 10 s
236.96 329.47 (0) .5 0 t
266.08 329.47 (100) .5 0 t
295.19 329.47 (200) .5 0 t
324.31 329.47 (300) .5 0 t
353.43 329.47 (400) .5 0 t
382.55 329.47 (500) .5 0 t
np
216.00 352.00 m
0 165.30 l
o
np
216.00 352.00 m
-5.76 0 l
o
np
216.00 407.10 m
-5.76 0 l
o
np
216.00 462.20 m
-5.76 0 l
o
np
216.00 517.30 m
-5.76 0 l
o
209.09 348.41 (0.0) 1 0 t
209.09 403.51 (0.5) 1 0 t
209.09 458.61 (1.0) 1 0 t
209.09 513.71 (1.5) 1 0 t
np
216.00 345.60 m
172.80 0 l
0 172.80 l
-172.80 0 l
0 -172.80 l
o
0.00 0.00 432.00 576.00 cl
/Font1 findfont 10 s
0 0 0 srgb
302.40 313.34 (Zeit / ms \(total\)) .5 0 t
190.66 432.00 (U / V) .5 90 t
216.00 345.60 388.80 518.40 cl
0 0 0 srgb
0.38 setlinewidth
[ 1.12 1.88] 0 setdash
1 setlinecap
1 setlinejoin
10.00 setmiterlimit
np
224.15 345.60 m
0 172.80 l
o
np
235.50 345.60 m
0 172.80 l
o
np
239.43 345.60 m
0 172.80 l
o
np
281.51 345.60 m
0 172.80 l
o
86.40 57.60 388.80 288.00 cl
1 0 0 srgb
1.50 setlinewidth
[] 0 setdash
1 setlinecap
1 setlinejoin
10.00 setmiterlimit
np
97.60 279.47 m
1.41 -14.05 l
1.40 -13.11 l
1.41 -12.24 l
1.41 -11.42 l
1.41 -10.66 l
1.40 -9.95 l
1.41 -9.28 l
1.41 -8.67 l
1.40 -8.09 l
1.41 -7.55 l
1.41 -7.04 l
1.40 -6.58 l
1.41 -6.14 l
1.41 -5.73 l
1.41 -5.34 l
1.40 -4.99 l
1.41 -4.66 l
1.41 -4.35 l
1.40 -4.05 l
1.41 -3.79 l
1.41 -3.53 l
1.40 -3.30 l
1.41 -3.08 l
1.41 -2.87 l
1.41 -2.69 l
1.40 -2.50 l
1.41 -2.33 l
1.41 -2.18 l
1.40 -2.04 l
1.41 -1.90 l
1.41 -1.77 l
1.41 -1.66 l
1.40 -1.54 l
1.41 -1.44 l
1.41 -1.35 l
1.40 -1.25 l
1.41 -1.17 l
1.41 -1.10 l
1.40 -1.02 l
1.41 -0.95 l
1.41 -0.89 l
1.41 -0.83 l
1.40 -0.77 l
1.41 -0.73 l
1.41 -0.67 l
1.40 -0.63 l
1.41 -0.59 l
1.41 -0.55 l
1.40 -0.51 l
1.41 -0.48 l
1.41 -0.44 l
1.41 -0.42 l
1.40 -0.39 l
1.41 -0.36 l
1.41 -0.34 l
1.40 -0.31 l
1.41 -0.30 l
1.41 -0.27 l
1.41 -0.26 l
1.40 -0.24 l
1.41 -0.22 l
1.41 -0.21 l
1.40 -0.20 l
1.41 -0.18 l
1.41 -0.17 l
1.40 -0.16 l
1.41 -0.14 l
1.41 -0.14 l
1.41 -0.13 l
1.40 -0.12 l
1.41 -0.11 l
1.41 -0.11 l
1.40 -0.10 l
1.41 -0.09 l
1.41 -0.08 l
1.40 -0.08 l
1.41 -0.08 l
1.41 -0.07 l
1.41 -0.06 l
1.40 -0.06 l
1.41 -0.06 l
1.41 -0.05 l
1.40 -0.05 l
1.41 -0.04 l
1.41 -0.05 l
1.41 -0.04 l
1.40 -0.03 l
1.41 -0.04 l
1.41 -0.03 l
1.40 -0.03 l
1.41 -0.03 l
1.41 -0.03 l
1.40 -0.02 l
1.41 -0.02 l
1.41 -0.02 l
1.41 -0.02 l
1.40 -0.02 l
1.41 -0.02 l
1.41 -0.02 l
238.30 68.99 lineto
1.41 -0.02 l
1.41 -0.01 l
1.40 -0.01 l
1.41 -0.01 l
1.41 -0.01 l
1.41 -0.01 l
1.40 -0.01 l
1.41 -0.01 l
1.41 -0.01 l
1.40 -0.01 l
1.41 0 l
1.41 -0.01 l
1.40 -0.01 l
1.41 0 l
1.41 -0.01 l
1.41 0 l
1.40 -0.01 l
1.41 0 l
1.41 -0.01 l
1.40 0 l
1.41 0 l
1.41 -0.01 l
1.41 0 l
1.40 0 l
1.41 -0.01 l
1.41 0 l
1.40 0 l
1.41 0 l
1.41 -0.01 l
1.40 0 l
1.41 0 l
1.41 0 l
1.41 0 l
1.40 0 l
1.41 -0.01 l
1.41 0 l
1.40 0 l
1.41 0 l
1.41 0 l
1.40 0 l
1.41 0 l
1.41 0 l
1.41 0 l
1.40 0 l
1.41 0 l
1.41 -0.01 l
1.40 0 l
1.41 0 l
1.41 0 l
1.41 0 l
1.40 0 l
1.41 0 l
1.41 0 l
1.40 0 l
1.41 0 l
1.41 0 l
1.40 0 l
1.41 0 l
1.41 0 l
1.41 0 l
1.40 0 l
1.41 0 l
1.41 0 l
1.40 0 l
1.41 0 l
1.41 0 l
1.40 0 l
1.41 0 l
1.41 0 l
1.41 0 l
1.40 0 l
1.41 0 l
1.41 0 l
1.40 0 l
1.41 0 l
1.41 0 l
1.41 0 l
1.40 0 l
1.41 0 l
1.41 0 l
1.40 0 l
1.41 0 l
1.41 0 l
1.40 0 l
1.41 0 l
1.41 0 l
1.41 0 l
1.40 0 l
1.41 0 l
1.41 0 l
1.40 0 l
1.41 0 l
1.41 0 l
1.40 0 l
1.41 0 l
1.41 0 l
1.41 0 l
1.40 0 l
1.41 0 l
o
0.00 0.00 432.00 576.00 cl
0 0 0 srgb
0.75 setlinewidth
[] 0 setdash
1 setlinecap
1 setlinejoin
10.00 setmiterlimit
np
97.60 57.60 m
280.00 0 l
o
np
97.60 57.60 m
0 -5.76 l
o
np
153.60 57.60 m
0 -5.76 l
o
np
209.60 57.60 m
0 -5.76 l
o
np
265.60 57.60 m
0 -5.76 l
o
np
321.60 57.60 m
0 -5.76 l
o
np
377.60 57.60 m
0 -5.76 l
o
/Font1 findfont 10 s
97.60 41.47 (0) .5 0 t
153.60 41.47 (100) .5 0 t
209.60 41.47 (200) .5 0 t
265.60 41.47 (300) .5 0 t
321.60 41.47 (400) .5 0 t
377.60 41.47 (500) .5 0 t
np
86.40 66.13 m
0 185.12 l
o
np
86.40 66.13 m
-5.76 0 l
o
np
86.40 112.41 m
-5.76 0 l
o
np
86.40 158.69 m
-5.76 0 l
o
np
86.40 204.97 m
-5.76 0 l
o
np
86.40 251.25 m
-5.76 0 l
o
79.49 62.54 (0.00) 1 0 t
79.49 108.82 (0.05) 1 0 t
79.49 155.10 (0.10) 1 0 t
79.49 201.38 (0.15) 1 0 t
79.49 247.66 (0.20) 1 0 t
np
86.40 57.60 m
302.40 0 l
0 230.40 l
-302.40 0 l
0 -230.40 l
o
0.00 0.00 432.00 576.00 cl
/Font1 findfont 10 s
0 0 0 srgb
237.60 13.82 (Zeit / ms \(nach Puls\)) .5 0 t
49.54 172.80 (Absorbanz A) .5 90 t
86.40 57.60 388.80 288.00 cl
/bg { 1 1 1 srgb } def
0 0 0 srgb
0.75 setlinewidth
[] 0 setdash
1 setlinecap
1 setlinejoin
10.00 setmiterlimit
102.64 231.27 0.65 c p3
102.92 231.68 0.65 c p3
103.20 229.43 0.65 c p3
103.48 229.84 0.65 c p3
103.76 227.09 0.65 c p3
104.04 223.96 0.65 c p3
104.32 220.36 0.65 c p3
104.60 217.67 0.65 c p3
104.88 215.50 0.65 c p3
105.16 213.73 0.65 c p3
105.44 207.98 0.65 c p3
105.72 208.86 0.65 c p3
106.00 206.73 0.65 c p3
106.28 205.86 0.65 c p3
106.56 200.70 0.65 c p3
106.84 201.56 0.65 c p3
107.12 199.85 0.65 c p3
107.40 200.32 0.65 c p3
107.68 199.47 0.65 c p3
107.96 198.15 0.65 c p3
108.24 197.77 0.65 c p3
108.52 193.08 0.65 c p3
108.80 191.04 0.65 c p3
109.08 186.06 0.65 c p3
109.36 186.06 0.65 c p3
109.64 182.42 0.65 c p3
109.92 181.15 0.65 c p3
110.20 176.29 0.65 c p3
110.48 178.35 0.65 c p3
110.76 178.35 0.65 c p3
111.04 176.74 0.65 c p3
111.32 174.69 0.65 c p3
111.60 175.49 0.65 c p3
111.88 175.13 0.65 c p3
112.16 171.50 0.65 c p3
112.44 173.09 0.65 c p3
112.72 172.29 0.65 c p3
113.00 169.56 0.65 c p3
113.28 167.63 0.65 c p3
113.56 166.06 0.65 c p3
113.84 163.71 0.65 c p3
114.12 160.95 0.65 c p3
114.40 161.38 0.65 c p3
114.68 157.87 0.65 c p3
114.96 158.64 0.65 c p3
115.24 156.76 0.65 c p3
115.52 156.76 0.65 c p3
115.80 155.23 0.65 c p3
116.08 153.28 0.65 c p3
116.36 153.28 0.65 c p3
116.64 152.19 0.65 c p3
116.92 155.57 0.65 c p3
117.20 151.09 0.65 c p3
117.48 150.34 0.65 c p3
117.76 149.92 0.65 c p3
118.04 147.67 0.65 c p3
118.32 146.17 0.65 c p3
118.60 145.43 0.65 c p3
118.88 142.87 0.65 c p3
119.16 143.61 0.65 c p3
119.44 139.92 0.65 c p3
119.72 138.05 0.65 c p3
120.00 138.45 0.65 c p3
120.28 137.72 0.65 c p3
120.56 138.45 0.65 c p3
120.84 136.26 0.65 c p3
121.12 136.99 0.65 c p3
121.40 135.86 0.65 c p3
121.68 134.09 0.65 c p3
121.96 135.54 0.65 c p3
122.24 135.21 0.65 c p3
122.52 131.20 0.65 c p3
122.80 129.76 0.65 c p3
123.08 129.05 0.65 c p3
123.36 125.88 0.65 c p3
123.64 124.78 0.65 c p3
123.92 124.78 0.65 c p3
124.20 124.47 0.65 c p3
124.48 123.76 0.65 c p3
124.76 122.66 0.65 c p3
125.04 123.76 0.65 c p3
125.32 123.76 0.65 c p3
125.60 122.35 0.65 c p3
125.88 124.07 0.65 c p3
126.16 123.76 0.65 c p3
126.44 122.66 0.65 c p3
126.72 120.25 0.65 c p3
127.00 121.96 0.65 c p3
127.28 118.85 0.65 c p3
127.56 118.85 0.65 c p3
127.84 116.76 0.65 c p3
128.12 115.07 0.65 c p3
128.40 114.38 0.65 c p3
128.68 113.69 0.65 c p3
128.96 112.32 0.65 c p3
129.24 113.69 0.65 c p3
129.52 113.00 0.65 c p3
129.80 112.32 0.65 c p3
130.08 113.00 0.65 c p3
130.36 112.62 0.65 c p3
130.64 112.32 0.65 c p3
130.92 112.62 0.65 c p3
131.20 110.57 0.65 c p3
131.48 109.89 0.65 c p3
131.76 109.58 0.65 c p3
132.04 106.87 0.65 c p3
132.32 106.19 0.65 c p3
132.60 106.49 0.65 c p3
132.88 104.17 0.65 c p3
133.16 103.50 0.65 c p3
133.44 103.50 0.65 c p3
133.72 103.87 0.65 c p3
134.00 103.50 0.65 c p3
134.28 104.17 0.65 c p3
134.56 103.50 0.65 c p3
134.84 103.87 0.65 c p3
135.12 102.53 0.65 c p3
135.40 102.53 0.65 c p3
135.68 102.53 0.65 c p3
135.96 101.19 0.65 c p3
136.24 100.82 0.65 c p3
136.52 98.53 0.65 c p3
136.80 99.20 0.65 c p3
137.08 97.21 0.65 c p3
137.36 98.53 0.65 c p3
137.64 95.89 0.65 c p3
137.92 96.55 0.65 c p3
138.20 96.18 0.65 c p3
138.48 97.21 0.65 c p3
138.76 97.87 0.65 c p3
139.04 95.89 0.65 c p3
139.32 95.23 0.65 c p3
139.60 95.89 0.65 c p3
139.88 96.18 0.65 c p3
140.16 95.23 0.65 c p3
140.44 95.53 0.65 c p3
140.72 95.23 0.65 c p3
141.00 94.21 0.65 c p3
141.28 94.21 0.65 c p3
141.56 93.92 0.65 c p3
141.84 91.31 0.65 c p3
142.12 91.96 0.65 c p3
142.40 90.66 0.65 c p3
142.68 91.31 0.65 c p3
142.96 89.72 0.65 c p3
143.24 89.72 0.65 c p3
143.52 90.01 0.65 c p3
143.80 89.72 0.65 c p3
144.08 90.01 0.65 c p3
144.36 90.37 0.65 c p3
144.64 90.37 0.65 c p3
144.92 89.72 0.65 c p3
145.20 88.42 0.65 c p3
145.48 88.07 0.65 c p3
145.76 88.07 0.65 c p3
146.04 86.49 0.65 c p3
146.32 86.49 0.65 c p3
146.60 86.13 0.65 c p3
146.88 85.85 0.65 c p3
147.16 85.49 0.65 c p3
147.44 85.85 0.65 c p3
147.72 84.85 0.65 c p3
148.00 86.49 0.65 c p3
148.28 85.49 0.65 c p3
148.56 86.78 0.65 c p3
148.84 86.13 0.65 c p3
149.12 84.85 0.65 c p3
149.40 86.49 0.65 c p3
149.68 86.78 0.65 c p3
149.96 84.56 0.65 c p3
150.24 85.21 0.65 c p3
150.52 82.65 0.65 c p3
150.80 83.93 0.65 c p3
151.08 81.02 0.65 c p3
151.36 82.30 0.65 c p3
151.64 83.57 0.65 c p3
151.92 81.38 0.65 c p3
152.20 82.65 0.65 c p3
152.48 84.21 0.65 c p3
152.76 82.93 0.65 c p3
153.04 82.30 0.65 c p3
153.32 84.56 0.65 c p3
153.60 84.56 0.65 c p3
153.88 82.65 0.65 c p3
154.16 81.38 0.65 c p3
154.44 80.11 0.65 c p3
154.72 80.39 0.65 c p3
155.00 79.76 0.65 c p3
155.28 80.39 0.65 c p3
155.56 79.76 0.65 c p3
155.84 79.76 0.65 c p3
156.12 78.84 0.65 c p3
156.40 78.84 0.65 c p3
156.68 79.12 0.65 c p3
156.96 78.21 0.65 c p3
157.24 79.12 0.65 c p3
157.52 79.76 0.65 c p3
157.80 79.48 0.65 c p3
158.08 78.84 0.65 c p3
158.36 77.93 0.65 c p3
158.64 77.58 0.65 c p3
158.92 79.12 0.65 c p3
159.20 77.93 0.65 c p3
159.48 79.12 0.65 c p3
159.76 77.58 0.65 c p3
160.04 77.58 0.65 c p3
160.32 77.30 0.65 c p3
160.60 78.21 0.65 c p3
160.88 78.49 0.65 c p3
161.16 77.58 0.65 c p3
161.44 77.58 0.65 c p3
161.72 78.84 0.65 c p3
162.00 77.30 0.65 c p3
162.28 78.49 0.65 c p3
162.56 78.49 0.65 c p3
162.84 76.96 0.65 c p3
163.12 78.49 0.65 c p3
163.40 76.68 0.65 c p3
163.68 77.30 0.65 c p3
163.96 76.96 0.65 c p3
164.24 76.05 0.65 c p3
164.52 76.33 0.65 c p3
164.80 77.30 0.65 c p3
165.08 75.70 0.65 c p3
165.36 76.68 0.65 c p3
165.64 76.68 0.65 c p3
165.92 76.05 0.65 c p3
166.20 75.42 0.65 c p3
166.48 76.68 0.65 c p3
166.76 75.07 0.65 c p3
167.04 75.70 0.65 c p3
167.32 74.80 0.65 c p3
167.60 75.70 0.65 c p3
167.88 75.42 0.65 c p3
168.16 75.42 0.65 c p3
168.44 73.83 0.65 c p3
168.72 74.80 0.65 c p3
169.00 74.45 0.65 c p3
169.28 75.07 0.65 c p3
169.56 75.70 0.65 c p3
169.84 76.05 0.65 c p3
170.12 75.07 0.65 c p3
170.40 76.05 0.65 c p3
170.68 75.42 0.65 c p3
170.96 75.42 0.65 c p3
171.24 74.17 0.65 c p3
171.52 74.17 0.65 c p3
171.80 75.07 0.65 c p3
172.08 74.17 0.65 c p3
172.36 75.70 0.65 c p3
172.64 75.42 0.65 c p3
172.92 74.17 0.65 c p3
173.20 74.80 0.65 c p3
173.48 74.80 0.65 c p3
173.76 73.83 0.65 c p3
174.04 75.70 0.65 c p3
174.32 75.42 0.65 c p3
174.60 74.80 0.65 c p3
174.88 75.42 0.65 c p3
175.16 73.20 0.65 c p3
175.44 74.45 0.65 c p3
175.72 73.83 0.65 c p3
176.00 73.83 0.65 c p3
176.28 73.20 0.65 c p3
176.56 72.93 0.65 c p3
176.84 73.20 0.65 c p3
177.12 73.20 0.65 c p3
177.40 72.31 0.65 c p3
177.68 72.93 0.65 c p3
177.96 73.55 0.65 c p3
178.24 74.17 0.65 c p3
178.52 73.83 0.65 c p3
178.80 73.20 0.65 c p3
179.08 73.20 0.65 c p3
179.36 73.83 0.65 c p3
179.64 74.17 0.65 c p3
179.92 71.96 0.65 c p3
180.20 71.96 0.65 c p3
180.48 72.58 0.65 c p3
180.76 71.69 0.65 c p3
181.04 72.31 0.65 c p3
181.32 73.55 0.65 c p3
181.60 72.93 0.65 c p3
181.88 72.93 0.65 c p3
182.16 72.93 0.65 c p3
182.44 73.20 0.65 c p3
182.72 73.20 0.65 c p3
183.00 72.58 0.65 c p3
183.28 73.55 0.65 c p3
183.56 73.55 0.65 c p3
216.00 201.60 367.20 247.68 cl
0 0 0 srgb
0.75 setlinewidth
[] 0 setdash
1 setlinecap
1 setlinejoin
10.00 setmiterlimit
221.60 219.82 0.43 c p1
222.08 226.05 0.43 c p1
222.57 225.96 0.43 c p1
223.05 232.04 0.43 c p1
223.54 230.65 0.43 c p1
224.02 228.28 0.43 c p1
224.51 224.74 0.43 c p1
224.99 223.29 0.43 c p1
225.48 222.97 0.43 c p1
225.96 223.54 0.43 c p1
226.44 214.71 0.43 c p1
226.93 221.34 0.43 c p1
227.41 220.88 0.43 c p1
227.90 223.31 0.43 c p1
228.38 215.61 0.43 c p1
228.87 221.96 0.43 c p1
229.35 222.24 0.43 c p1
229.84 227.58 0.43 c p1
230.32 229.74 0.43 c p1
230.80 230.75 0.43 c p1
231.29 233.93 0.43 c p1
231.77 226.93 0.43 c p1
232.26 226.08 0.43 c p1
232.74 218.30 0.43 c p1
233.23 222.14 0.43 c p1
233.71 217.37 0.43 c p1
234.20 218.13 0.43 c p1
234.68 210.42 0.43 c p1
235.16 218.89 0.43 c p1
235.65 222.47 0.43 c p1
236.13 222.22 0.43 c p1
236.62 220.90 0.43 c p1
237.10 226.22 0.43 c p1
237.59 228.78 0.43 c p1
238.07 223.59 0.43 c p1
238.56 230.63 0.43 c p1
239.04 232.01 0.43 c p1
239.52 228.81 0.43 c p1
240.01 227.45 0.43 c p1
240.49 226.89 0.43 c p1
240.98 224.47 0.43 c p1
241.46 221.03 0.43 c p1
241.95 225.04 0.43 c p1
242.43 219.75 0.43 c p1
242.91 224.47 0.43 c p1
243.40 222.94 0.43 c p1
243.88 225.78 0.43 c p1
244.37 224.99 0.43 c p1
244.85 223.19 0.43 c p1
245.34 225.91 0.43 c p1
245.82 226.03 0.43 c p1
246.31 236.61 0.43 c p1
246.79 228.73 0.43 c p1
247.27 229.54 0.43 c p1
247.76 231.10 0.43 c p1
248.24 228.32 0.43 c p1
248.73 227.28 0.43 c p1
249.21 227.98 0.43 c p1
249.70 224.38 0.43 c p1
250.18 228.50 0.43 c p1
250.67 222.18 0.43 c p1
251.15 220.09 0.43 c p1
251.63 223.32 0.43 c p1
252.12 223.86 0.43 c p1
252.60 227.79 0.43 c p1
253.09 224.84 0.43 c p1
253.57 228.70 0.43 c p1
254.06 228.17 0.43 c p1
254.54 226.11 0.43 c p1
255.03 231.58 0.43 c p1
255.51 232.87 0.43 c p1
255.99 225.46 0.43 c p1
256.48 224.08 0.43 c p1
256.96 224.36 0.43 c p1
257.45 218.86 0.43 c p1
257.93 218.18 0.43 c p1
258.42 220.06 0.43 c p1
258.90 221.18 0.43 c p1
259.39 221.35 0.43 c p1
259.87 220.58 0.43 c p1
260.35 224.94 0.43 c p1
260.84 226.69 0.43 c p1
261.32 225.12 0.43 c p1
261.81 230.87 0.43 c p1
262.29 231.82 0.43 c p1
262.78 230.91 0.43 c p1
263.26 226.87 0.43 c p1
263.75 232.51 0.43 c p1
264.23 226.81 0.43 c p1
264.71 228.38 0.43 c p1
265.20 225.04 0.43 c p1
265.68 222.59 0.43 c p1
266.17 222.49 0.43 c p1
266.65 222.36 0.43 c p1
267.14 220.60 0.43 c p1
267.62 225.27 0.43 c p1
268.11 225.09 0.43 c p1
268.59 224.89 0.43 c p1
269.07 227.89 0.43 c p1
269.56 228.37 0.43 c p1
270.04 229.00 0.43 c p1
270.53 231.05 0.43 c p1
271.01 227.55 0.43 c p1
271.50 227.24 0.43 c p1
271.98 227.81 0.43 c p1
272.47 222.70 0.43 c p1
272.95 222.36 0.43 c p1
273.43 224.29 0.43 c p1
273.92 220.06 0.43 c p1
274.40 219.68 0.43 c p1
274.89 220.85 0.43 c p1
275.37 222.89 0.43 c p1
275.86 223.16 0.43 c p1
276.34 225.87 0.43 c p1
276.82 225.41 0.43 c p1
277.31 227.39 0.43 c p1
277.79 225.33 0.43 c p1
278.28 226.40 0.43 c p1
278.76 227.45 0.43 c p1
279.25 225.36 0.43 c p1
279.73 225.52 0.43 c p1
280.22 221.16 0.43 c p1
280.70 223.71 0.43 c p1
281.18 220.04 0.43 c p1
281.67 224.12 0.43 c p1
282.15 218.87 0.43 c p1
282.64 221.37 0.43 c p1
283.12 221.44 0.43 c p1
283.61 224.77 0.43 c p1
284.09 227.23 0.43 c p1
284.58 223.48 0.43 c p1
285.06 222.82 0.43 c p1
285.54 225.23 0.43 c p1
286.03 226.78 0.43 c p1
286.51 225.40 0.43 c p1
287.00 226.92 0.43 c p1
287.48 227.06 0.43 c p1
287.97 225.48 0.43 c p1
288.45 226.28 0.43 c p1
288.94 226.39 0.43 c p1
289.42 221.04 0.43 c p1
289.90 223.33 0.43 c p1
290.39 221.04 0.43 c p1
290.87 223.32 0.43 c p1
291.36 220.33 0.43 c p1
291.84 221.06 0.43 c p1
292.33 222.45 0.43 c p1
292.81 222.48 0.43 c p1
293.30 223.86 0.43 c p1
293.78 225.40 0.43 c p1
294.26 226.08 0.43 c p1
294.75 225.23 0.43 c p1
295.23 222.85 0.43 c p1
295.72 222.66 0.43 c p1
296.20 223.31 0.43 c p1
296.69 220.24 0.43 c p1
297.17 220.87 0.43 c p1
297.66 220.65 0.43 c p1
298.14 220.59 0.43 c p1
298.62 220.36 0.43 c p1
299.11 221.79 0.43 c p1
299.59 220.03 0.43 c p1
300.08 224.46 0.43 c p1
300.56 222.68 0.43 c p1
301.05 226.26 0.43 c p1
301.53 225.30 0.43 c p1
302.02 222.84 0.43 c p1
302.50 227.23 0.43 c p1
302.98 228.43 0.43 c p1
303.47 223.77 0.43 c p1
303.95 225.79 0.43 c p1
304.44 220.30 0.43 c p1
304.92 223.79 0.43 c p1
305.41 217.48 0.43 c p1
305.89 220.95 0.43 c p1
306.38 224.43 0.43 c p1
306.86 219.76 0.43 c p1
307.34 223.21 0.43 c p1
307.83 227.34 0.43 c p1
308.31 224.80 0.43 c p1
308.80 223.76 0.43 c p1
309.28 229.53 0.43 c p1
309.77 229.97 0.43 c p1
310.25 225.90 0.43 c p1
310.73 223.34 0.43 c p1
311.22 220.79 0.43 c p1
311.70 221.86 0.43 c p1
312.19 220.79 0.43 c p1
312.67 222.68 0.43 c p1
313.16 221.59 0.43 c p1
313.64 221.98 0.43 c p1
314.13 220.23 0.43 c p1
314.61 220.61 0.43 c p1
315.09 221.65 0.43 c p1
315.58 219.88 0.43 c p1
316.06 222.39 0.43 c p1
316.55 224.23 0.43 c p1
317.03 223.93 0.43 c p1
317.52 222.80 0.43 c p1
318.00 221.01 0.43 c p1
318.49 220.53 0.43 c p1
318.97 224.48 0.43 c p1
319.45 222.02 0.43 c p1
319.94 225.15 0.43 c p1
320.42 221.86 0.43 c p1
320.91 222.18 0.43 c p1
321.39 221.83 0.43 c p1
321.88 224.28 0.43 c p1
322.36 225.24 0.43 c p1
322.85 223.41 0.43 c p1
323.33 223.71 0.43 c p1
323.81 226.96 0.43 c p1
324.30 223.64 0.43 c p1
324.78 226.72 0.43 c p1
325.27 227.00 0.43 c p1
325.75 223.67 0.43 c p1
326.24 227.55 0.43 c p1
326.72 223.56 0.43 c p1
327.21 225.30 0.43 c p1
327.69 224.75 0.43 c p1
328.17 222.88 0.43 c p1
328.66 223.79 0.43 c p1
329.14 226.34 0.43 c p1
329.63 222.82 0.43 c p1
330.11 225.36 0.43 c p1
330.60 225.60 0.43 c p1
331.08 224.37 0.43 c p1
331.57 223.13 0.43 c p1
332.05 226.31 0.43 c p1
332.53 222.78 0.43 c p1
333.02 224.48 0.43 c p1
333.50 222.58 0.43 c p1
333.99 224.92 0.43 c p1
334.47 224.49 0.43 c p1
334.96 224.70 0.43 c p1
335.44 221.17 0.43 c p1
335.93 223.66 0.43 c p1
336.41 223.05 0.43 c p1
336.89 224.72 0.43 c p1
337.38 226.39 0.43 c p1
337.86 227.40 0.43 c p1
338.35 225.31 0.43 c p1
338.83 227.79 0.43 c p1
339.32 226.51 0.43 c p1
339.80 226.70 0.43 c p1
340.29 223.95 0.43 c p1
340.77 224.13 0.43 c p1
341.25 226.43 0.43 c p1
341.74 224.49 0.43 c p1
342.22 228.25 0.43 c p1
342.71 227.77 0.43 c p1
343.19 225.00 0.43 c p1
343.68 226.64 0.43 c p1
344.16 226.80 0.43 c p1
344.64 224.69 0.43 c p1
345.13 229.25 0.43 c p1
345.61 228.75 0.43 c p1
346.10 227.44 0.43 c p1
346.58 229.06 0.43 c p1
347.07 224.01 0.43 c p1
347.55 227.09 0.43 c p1
348.04 225.77 0.43 c p1
348.52 225.92 0.43 c p1
349.00 224.60 0.43 c p1
349.49 224.09 0.43 c p1
349.97 224.88 0.43 c p1
350.46 225.02 0.43 c p1
350.94 223.05 0.43 c p1
351.43 224.64 0.43 c p1
351.91 226.24 0.43 c p1
352.40 227.83 0.43 c p1
352.88 227.15 0.43 c p1
353.36 225.81 0.43 c p1
353.85 225.94 0.43 c p1
354.33 227.52 0.43 c p1
354.82 228.46 0.43 c p1
355.30 223.39 0.43 c p1
355.79 223.51 0.43 c p1
356.27 225.08 0.43 c p1
356.76 223.09 0.43 c p1
357.24 224.66 0.43 c p1
357.72 227.69 0.43 c p1
358.21 226.35 0.43 c p1
358.69 226.46 0.43 c p1
359.18 226.56 0.43 c p1
359.66 227.32 0.43 c p1
360.15 227.42 0.43 c p1
360.63 226.07 0.43 c p1
361.12 228.44 0.43 c p1
361.60 228.54 0.43 c p1
0.00 0.00 432.00 576.00 cl
0 0 0 srgb
0.75 setlinewidth
[] 0 setdash
1 setlinecap
1 setlinejoin
10.00 setmiterlimit
np
261.32 201.60 m
96.89 0 l
o
np
261.32 201.60 m
0 -5.76 l
o
np
309.77 201.60 m
0 -5.76 l
o
np
358.21 201.60 m
0 -5.76 l
o
/Font1 findfont 6 s
261.32 185.47 (50) .5 0 t
309.77 185.47 (100) .5 0 t
358.21 185.47 (150) .5 0 t
np
216.00 202.92 m
0 43.44 l
o
np
216.00 202.92 m
-5.76 0 l
o
np
216.00 213.78 m
-5.76 0 l
o
np
216.00 224.64 m
-5.76 0 l
o
np
216.00 235.50 m
-5.76 0 l
o
np
216.00 246.36 m
-5.76 0 l
o
209.09 200.76 (-0.010) 1 0 t
209.09 211.63 (-0.005) 1 0 t
209.09 222.49 (0.000) 1 0 t
209.09 233.35 (0.005) 1 0 t
209.09 244.21 (0.010) 1 0 t
np
216.00 201.60 m
151.20 0 l
0 46.08 l
-151.20 0 l
0 -46.08 l
o
0.00 0.00 432.00 576.00 cl
/Font1 findfont 9 s
0 0 0 srgb
291.60 262.88 (Residuen) .5 0 t
59.04 73.44 401.76 516.96 cl
ep
%%Trailer
%%Pages: 1
%%EOF
