%!PS-Adobe-3.0 EPSF-3.0
%%DocumentNeededResources: font Helvetica
%%+ font Helvetica-Bold
%%+ font Helvetica-Oblique
%%+ font Helvetica-BoldOblique
%%+ font Symbol
%%Title: R Graphics Output
%%Creator: R Software
%%Pages: (atend)
%%BoundingBox: 0 0 432 576
%%EndComments
%%BeginProlog
/bp  { gs sRGB gs } def
% begin .ps.prolog
/gs  { gsave } bind def
/gr  { grestore } bind def
/ep  { showpage gr gr } bind def
/m   { moveto } bind def
/l  { rlineto } bind def
/np  { newpath } bind def
/cp  { closepath } bind def
/f   { fill } bind def
/o   { stroke } bind def
/c   { newpath 0 360 arc } bind def
/r   { 4 2 roll moveto 1 copy 3 -1 roll exch 0 exch rlineto 0 rlineto -1 mul 0 exch rlineto closepath } bind def
/p1  { stroke } bind def
/p2  { gsave bg fill grestore newpath } bind def
/p3  { gsave bg fill grestore stroke } bind def
/p6  { gsave bg eofill grestore newpath } bind def
/p7  { gsave bg eofill grestore stroke } bind def
/t   { 5 -2 roll moveto gsave rotate
       1 index stringwidth pop
       mul neg 0 rmoveto show grestore } bind def
/ta  { 4 -2 roll moveto gsave rotate show } bind def
/tb  { 2 -1 roll 0 rmoveto show } bind def
/cl  { grestore gsave newpath 3 index 3 index moveto 1 index
       4 -1 roll lineto  exch 1 index lineto lineto
       closepath clip newpath } bind def
/rgb { setrgbcolor } bind def
/s   { scalefont setfont } bind def
% end   .ps.prolog
/sRGB { [ /CIEBasedABC
          << /DecodeLMN
               [ { dup 0.03928 le
                        {12.92321 div}
                        {0.055 add 1.055 div 2.4 exp }
                     ifelse
                 } bind dup dup
               ]
             /MatrixLMN [0.412457 0.212673 0.019334
                         0.357576 0.715152 0.119192
                         0.180437 0.072175 0.950301]
             /WhitePoint [0.9505 1.0 1.0890]
           >>
         ] setcolorspace } bind def
/srgb { setcolor } bind def
%%IncludeResource: font Helvetica
/Helvetica findfont
dup length dict begin
  {1 index /FID ne {def} {pop pop} ifelse} forall
  /Encoding ISOLatin1Encoding def
  currentdict
  end
/Font1 exch definefont pop
%%IncludeResource: font Helvetica-Bold
/Helvetica-Bold findfont
dup length dict begin
  {1 index /FID ne {def} {pop pop} ifelse} forall
  /Encoding ISOLatin1Encoding def
  currentdict
  end
/Font2 exch definefont pop
%%IncludeResource: font Helvetica-Oblique
/Helvetica-Oblique findfont
dup length dict begin
  {1 index /FID ne {def} {pop pop} ifelse} forall
  /Encoding ISOLatin1Encoding def
  currentdict
  end
/Font3 exch definefont pop
%%IncludeResource: font Helvetica-BoldOblique
/Helvetica-BoldOblique findfont
dup length dict begin
  {1 index /FID ne {def} {pop pop} ifelse} forall
  /Encoding ISOLatin1Encoding def
  currentdict
  end
/Font4 exch definefont pop
%%IncludeResource: font Symbol
/Symbol findfont
dup length dict begin
  {1 index /FID ne {def} {pop pop} ifelse} forall
  currentdict
  end
/Font5 exch definefont pop
%%EndProlog
%%Page: 1 1
bp
0.00 0.00 432.00 576.00 cl
0.00 0.00 432.00 576.00 cl
0.00 0.00 432.00 576.00 cl
/Font1 findfont 12 s
0 0 0 srgb
48.00 508.72 (PCP-ETH) 0 0 t
48.00 494.89 (Blitzlicht-Photolyse) 0 0 t
/Font1 findfont 9 s
48.00 457.54 (File: Dy) 0 ta
-0.180 (e_0_1_V1_900V_45.dat) tb gr
48.00 334.87 (T) 0 ta
-1.080 (ue Apr  9 22:03:51 2019) tb gr
48.00 430.87 (Fitfunktion:  a + b * e) 0 ta
-0.270 (xp\(-c * t\)) tb gr
48.00 420.50 (t-Inter) 0 ta
0.270 (v) tb
-0.225 (all: 9.000 ... 125.500 ms) tb gr
48.00 410.14 (P) 0 ta
-0.360 (ar) tb
-0.090 (ameter \(Standardabw) tb
-0.090 (eichung\):) tb gr
48.00 399.77 (  a = 0.00529 \(0.00017\)) 0 0 t
48.00 389.40 (  b = 0.18704 \(0.00068\)) 0 0 t
48.00 379.03 (  c = 3.742e+01 \(2.150e-01\) s^-1) 0 0 t
48.00 368.66 (  tau = 2.672e-02 \(1.535e-04\) s) 0 0 t
216.00 345.60 388.80 518.40 cl
0 0 0 srgb
0.75 setlinewidth
[] 0 setdash
1 setlinecap
1 setlinejoin
10.00 setmiterlimit
np
222.40 510.92 m
0.15 -0.13 l
0.14 0.38 l
0.15 -0.25 l
0.14 0.25 l
0.15 0.10 l
0.14 0.49 l
0.15 -0.49 l
0.14 -0.24 l
0.15 -0.48 l
0.15 0.48 l
0.14 0.38 l
0.15 0 l
0.14 0.21 l
0.15 -0.21 l
0.14 -0.38 l
0.15 0 l
0.14 0.49 l
0.15 -0.35 l
0.15 0.45 l
0.14 -0.21 l
0.15 0.11 l
0.14 -0.35 l
0.15 0 l
0.14 0 l
0.15 0.24 l
0.15 -0.49 l
0.14 0.35 l
0.15 -0.10 l
0.14 -0.25 l
0.15 0.25 l
0.14 -0.14 l
0.15 0.14 l
0.14 -0.14 l
0.15 0.14 l
0.15 0.24 l
0.14 -0.24 l
0.15 -0.49 l
0.14 0.73 l
0.15 -0.73 l
0.14 0.24 l
0.15 0.70 l
0.14 -0.45 l
0.15 -0.14 l
0.15 -0.11 l
0.14 -0.37 l
0.15 0.37 l
0.14 -0.24 l
0.15 0.24 l
0.14 0.35 l
0.15 0 l
0.14 0.14 l
0.15 -0.14 l
0.15 0.35 l
0.14 -0.70 l
0.15 0.60 l
0.14 -0.11 l
0.15 0.11 l
0.14 0 l
0.15 0.10 l
0.15 -0.45 l
0.14 0.35 l
0.15 0.10 l
0.14 -0.10 l
0.15 0.24 l
0.14 -0.35 l
0.15 0 l
0.14 0 l
0.15 0.46 l
0.15 -1.08 l
0.14 0.62 l
0.15 0.11 l
0.14 -0.49 l
0.15 -0.35 l
0.14 0.84 l
0.15 -0.60 l
0.14 0.11 l
0.15 0.14 l
0.15 -0.14 l
0.14 0.24 l
0.15 0 l
0.14 -0.59 l
0.15 0.35 l
0.14 -0.59 l
0.15 0.48 l
0.14 -0.24 l
0.15 0.84 l
0.15 0.10 l
0.14 -0.10 l
0.15 -0.25 l
0.14 0 l
0.15 0.14 l
0.14 0.11 l
0.15 0 l
0.15 -0.11 l
0.14 0.59 l
0.15 -0.73 l
0.14 0.25 l
0.15 -0.25 l
0.14 0.35 l
236.96 453.37 lineto
0.14 -1.46 l
0.15 2.05 l
0.15 1.32 l
0.14 1.69 l
0.15 0.62 l
0.14 1.21 l
0.15 1.32 l
0.14 0.83 l
0.15 0 l
0.14 1.83 l
0.15 0.35 l
0.15 1.21 l
0.14 0.72 l
0.15 0.73 l
0.14 0.97 l
0.15 1.32 l
0.14 0 l
0.15 0.61 l
0.14 -0.13 l
0.15 0.48 l
0.15 0.62 l
0.14 1.43 l
0.15 -0.11 l
0.14 0.59 l
0.15 1.10 l
0.14 0.35 l
0.15 0.62 l
0.15 1.45 l
0.14 0.59 l
0.15 0.73 l
0.14 0.72 l
0.15 0.73 l
0.14 -0.48 l
0.15 0.35 l
0.14 0.86 l
0.15 -0.14 l
0.15 0.49 l
0.14 0.86 l
0.15 0.94 l
0.14 0.13 l
0.15 0 l
0.14 0.48 l
0.15 1.46 l
0.14 -0.25 l
0.15 0.25 l
0.15 0.72 l
0.14 0.59 l
0.15 0.49 l
0.14 -0.11 l
0.15 1.08 l
0.14 0 l
0.15 0.13 l
0.14 0.46 l
0.15 0 l
0.15 1.34 l
0.14 -0.24 l
0.15 1.56 l
0.14 -0.49 l
0.15 0.25 l
0.14 -0.49 l
0.15 1.35 l
0.15 0.24 l
0.14 0.11 l
0.15 0.61 l
0.14 0.70 l
0.15 0.24 l
0.14 0.25 l
0.15 0.37 l
0.14 -0.24 l
0.15 0.73 l
0.15 0 l
0.14 0.35 l
0.15 0.86 l
0.14 -0.14 l
0.15 0.14 l
0.14 0.96 l
0.15 -0.48 l
0.14 0.11 l
0.15 0.24 l
0.15 0.86 l
0.14 0 l
0.15 0.24 l
0.14 0.49 l
0.15 -0.38 l
0.14 1.08 l
0.15 -0.60 l
0.14 0.49 l
0.15 -0.14 l
0.15 0.38 l
0.14 0.97 l
0.15 0.24 l
0.14 -0.48 l
0.15 -0.14 l
0.14 -0.24 l
0.15 0.72 l
0.15 -0.24 l
0.14 0.38 l
0.15 1.32 l
0.14 -0.35 l
251.52 499.82 lineto
0.14 -0.13 l
0.15 -0.24 l
0.14 0.24 l
0.15 0.72 l
0.15 -0.24 l
0.14 0.38 l
0.15 -0.14 l
0.14 0.49 l
0.15 0.13 l
0.14 0.11 l
0.15 -0.24 l
0.14 0.37 l
0.15 0.11 l
0.15 -0.24 l
0.14 0.35 l
0.15 0.48 l
0.14 0.86 l
0.15 -0.61 l
0.14 0.37 l
0.15 0.59 l
0.14 -0.48 l
0.15 -0.11 l
0.15 0.49 l
0.14 0.83 l
0.15 -0.49 l
0.14 -0.59 l
0.15 0.73 l
0.14 0.11 l
0.15 -0.35 l
0.14 0 l
0.15 0.35 l
0.15 -0.59 l
0.14 0.59 l
0.15 -0.59 l
0.14 0.96 l
0.15 -0.24 l
0.14 0.11 l
0.15 0.37 l
0.15 0.60 l
0.14 -0.49 l
0.15 0.38 l
0.14 0.24 l
0.15 0 l
0.14 0.48 l
0.15 -0.24 l
0.14 -0.24 l
0.15 0.35 l
0.15 0 l
0.14 -0.11 l
0.15 0.24 l
0.14 -0.13 l
0.15 -0.24 l
0.14 0.24 l
0.15 0.24 l
0.14 0.24 l
0.15 -0.10 l
0.15 0.48 l
0.14 0 l
0.15 0 l
0.14 0 l
0.15 0.22 l
0.14 0.13 l
0.15 0.24 l
0.14 -0.37 l
0.15 -0.11 l
0.15 -0.11 l
0.14 0 l
0.15 -0.24 l
0.14 0.35 l
0.15 0 l
0.14 0.48 l
0.15 -0.48 l
0.15 0.24 l
0.14 0 l
0.15 0 l
0.14 0.73 l
0.15 0.24 l
0.14 -0.73 l
0.15 0 l
0.14 0.24 l
0.15 0.35 l
0.15 -0.83 l
0.14 0.59 l
0.15 -0.48 l
0.14 0.48 l
0.15 -0.11 l
0.14 0.60 l
0.15 -0.25 l
0.14 -0.35 l
0.15 0.11 l
0.15 0.24 l
0.14 -0.24 l
0.15 0.24 l
0.14 0.49 l
0.15 -0.35 l
0.14 0.24 l
0.15 1.07 l
0.14 -0.96 l
0.15 -0.24 l
266.08 508.13 lineto
0.14 -0.11 l
0.15 -0.24 l
0.14 0.48 l
0.15 0.25 l
0.14 -0.97 l
0.15 0.24 l
0.15 -0.38 l
0.14 0.38 l
0.15 -0.48 l
0.14 -0.14 l
0.15 0.97 l
0.14 -0.35 l
0.15 0.35 l
0.14 0 l
0.15 0.24 l
0.15 -0.11 l
0.14 -0.24 l
0.15 0 l
0.14 -0.24 l
0.15 0.11 l
0.14 0 l
0.15 -0.24 l
0.14 0.24 l
0.15 0.48 l
0.15 -0.72 l
0.14 0.61 l
0.15 0 l
0.14 0.25 l
0.15 0.59 l
0.14 -0.11 l
0.15 -0.14 l
0.14 -0.24 l
0.15 0 l
0.15 0.14 l
0.14 -0.38 l
0.15 0.24 l
0.14 0.38 l
0.15 -0.73 l
0.14 0 l
0.15 -0.13 l
0.15 0 l
0.14 0 l
0.15 0.38 l
0.14 0.24 l
0.15 0.24 l
0.14 -0.14 l
0.15 -0.10 l
0.14 -0.24 l
0.15 0.24 l
0.15 -0.38 l
0.14 0.24 l
0.15 0 l
0.14 -0.10 l
0.15 -0.49 l
0.14 -0.13 l
0.15 0.13 l
0.14 0 l
0.15 0.11 l
0.15 -0.11 l
0.14 0.49 l
0.15 0.10 l
0.14 0 l
0.15 -0.35 l
0.14 0.11 l
0.15 0 l
0.14 0.73 l
0.15 -0.25 l
0.15 -0.24 l
0.14 0.14 l
0.15 -0.24 l
0.14 0.10 l
0.15 0.24 l
0.14 -0.59 l
0.15 0.25 l
0.15 -0.25 l
0.14 0.25 l
0.15 0.10 l
0.14 0.62 l
0.15 -0.24 l
0.14 0.35 l
0.15 -0.24 l
0.14 -0.25 l
0.15 0.73 l
0.15 -1.07 l
0.14 -0.14 l
0.15 0.24 l
0.14 -0.10 l
0.15 -0.25 l
0.14 0.25 l
0.15 0 l
0.14 -0.25 l
0.15 0.73 l
0.15 -0.73 l
0.14 0.59 l
0.15 -0.24 l
0.14 0.86 l
0.15 -0.62 l
0.14 -0.48 l
0.15 -0.24 l
280.63 508.75 lineto
0.15 -0.49 l
0.15 0.25 l
0.14 -0.14 l
0.15 0.86 l
0.14 -0.62 l
0.15 -1.07 l
0.14 0.97 l
0.15 0 l
0.15 -0.49 l
0.14 0.59 l
0.15 0.49 l
0.14 -0.25 l
0.15 0.25 l
0.14 0 l
0.15 -0.84 l
0.14 0.84 l
0.15 -0.35 l
0.15 0.48 l
0.14 -0.24 l
0.15 -0.38 l
0.14 -0.35 l
0.15 0.25 l
0.14 -0.38 l
0.15 0.13 l
0.14 0.73 l
0.15 0.11 l
0.15 -0.59 l
0.14 0.72 l
0.15 -0.38 l
0.14 -0.72 l
0.15 0.38 l
0.14 -0.25 l
0.15 0.25 l
0.14 0.24 l
0.15 -0.38 l
0.15 -0.35 l
0.14 0.35 l
0.15 -0.11 l
0.14 -0.72 l
0.15 0.35 l
0.14 0.96 l
0.15 -1.20 l
0.14 0.72 l
0.15 -0.35 l
0.15 0.59 l
0.14 0.24 l
0.15 0.38 l
0.14 -0.72 l
0.15 0 l
0.14 0 l
0.15 0.10 l
0.15 -0.59 l
0.14 0.49 l
0.15 -0.25 l
0.14 -0.24 l
0.15 0 l
0.14 0.24 l
0.15 -0.13 l
0.14 0.13 l
0.15 0 l
0.15 0.25 l
0.14 0.10 l
0.15 0.62 l
0.14 -0.24 l
0.15 0.11 l
0.14 -0.97 l
0.15 0.48 l
0.14 -0.24 l
0.15 -0.35 l
0.15 0.24 l
0.14 0.25 l
0.15 -0.86 l
0.14 0.24 l
0.15 -0.11 l
0.14 0 l
0.15 0.59 l
0.14 0.14 l
0.15 -0.14 l
0.15 0.14 l
0.14 0.48 l
0.15 -0.86 l
0.14 0.62 l
0.15 -0.14 l
0.14 -0.35 l
0.15 0 l
0.15 0 l
0.14 -0.13 l
0.15 -0.35 l
0.14 0.48 l
0.15 -0.13 l
0.14 0 l
0.15 -0.11 l
0.14 0 l
0.15 0.49 l
0.15 0.10 l
0.14 0 l
0.15 0.14 l
0.14 0 l
0.15 -0.14 l
295.19 508.75 lineto
0.15 -0.24 l
0.14 -0.14 l
0.15 -0.48 l
0.15 0 l
0.14 0.37 l
0.15 -0.37 l
0.14 -0.49 l
0.15 0.25 l
0.14 0.37 l
0.15 0.11 l
0.14 0.48 l
0.15 -0.24 l
0.15 0.48 l
0.14 -0.34 l
0.15 0.24 l
0.14 -0.62 l
0.15 0.13 l
0.14 -0.37 l
0.15 0.48 l
0.15 -0.35 l
0.14 -0.37 l
0.15 0 l
0.14 0.72 l
0.15 -0.59 l
0.14 -0.13 l
0.15 0.72 l
0.14 0.24 l
0.15 -0.24 l
0.15 0.24 l
0.14 -0.10 l
0.15 -0.14 l
0.14 0.48 l
0.15 -0.59 l
0.14 0 l
0.15 0.11 l
0.14 -0.35 l
0.15 0.49 l
0.15 0.24 l
0.14 -0.86 l
0.15 -0.35 l
0.14 0.72 l
0.15 -0.24 l
0.14 0.11 l
0.15 0.24 l
0.14 0 l
0.15 -0.24 l
0.15 0.24 l
0.14 -0.48 l
0.15 0.37 l
0.14 0.11 l
0.15 -0.24 l
0.14 -0.48 l
0.15 0.61 l
0.15 0.11 l
0.14 -0.24 l
0.15 -0.73 l
0.14 -0.24 l
0.15 0.24 l
0.14 0.49 l
0.15 0.24 l
0.14 0.48 l
0.15 -0.24 l
0.15 -0.48 l
0.14 0.37 l
0.15 0.25 l
0.14 -0.14 l
0.15 -0.24 l
0.14 -0.11 l
0.15 0.35 l
0.14 -0.72 l
0.15 0.37 l
0.15 0.24 l
0.14 0.25 l
0.15 -0.62 l
0.14 -0.24 l
0.15 0 l
0.14 0.24 l
0.15 0.72 l
0.14 -0.10 l
0.15 0 l
0.15 0 l
0.14 -0.38 l
0.15 0 l
0.14 0 l
0.15 0.13 l
0.14 -0.24 l
0.15 0 l
0.15 -0.37 l
0.14 0.13 l
0.15 0.35 l
0.14 -0.35 l
0.15 -0.48 l
0.14 0.59 l
0.15 0 l
0.14 0.13 l
0.15 0.11 l
0.15 0.38 l
0.14 -0.25 l
0.15 0.35 l
309.75 508.26 lineto
0.15 -0.37 l
0.14 0.37 l
0.15 -0.37 l
0.14 0.13 l
0.15 -0.13 l
0.15 -0.59 l
0.14 0.35 l
0.15 0 l
0.14 0 l
0.15 0.48 l
0.14 -0.24 l
0.15 -0.11 l
0.14 0.48 l
0.15 -0.37 l
0.15 0.62 l
0.14 0.10 l
0.15 0 l
0.14 0.14 l
0.15 -0.38 l
0.14 -0.35 l
0.15 -0.13 l
0.15 -0.11 l
0.14 0.11 l
0.15 -0.35 l
0.14 0.97 l
0.15 -0.73 l
0.14 -0.13 l
0.15 0.37 l
0.14 0 l
0.15 0.24 l
0.15 -0.24 l
0.14 0.49 l
0.15 -0.25 l
0.14 0 l
0.15 -0.96 l
0.14 0.96 l
0.15 -0.86 l
0.14 0.38 l
0.15 0 l
0.15 0.11 l
0.14 -0.35 l
0.15 -0.14 l
0.14 0.38 l
0.15 -0.73 l
0.14 0.84 l
0.15 -0.11 l
0.14 0.24 l
0.15 0 l
0.15 0.83 l
0.14 -0.48 l
0.15 0.24 l
0.14 -0.10 l
0.15 -0.49 l
0.14 0 l
0.15 -0.48 l
0.15 0.59 l
0.14 0 l
0.15 -0.35 l
0.14 0.11 l
0.15 -0.24 l
0.14 -0.49 l
0.15 0.62 l
0.14 0.35 l
0.15 -0.11 l
0.15 0.73 l
0.14 -0.38 l
0.15 0.14 l
0.14 -0.62 l
0.15 0 l
0.14 -0.11 l
0.15 0.24 l
0.14 -0.24 l
0.15 0 l
0.15 0.11 l
0.14 -0.11 l
0.15 -0.24 l
0.14 -0.24 l
0.15 0.48 l
0.14 -0.24 l
0.15 -0.38 l
0.14 0.86 l
0.15 0.35 l
0.15 -0.11 l
0.14 -0.48 l
0.15 0.59 l
0.14 0.14 l
0.15 -0.73 l
0.14 0 l
0.15 -0.24 l
0.14 1.07 l
0.15 -0.83 l
0.15 0.11 l
0.14 -0.49 l
0.15 0 l
0.14 0.62 l
0.15 -0.72 l
0.14 0.48 l
0.15 0.83 l
0.15 -0.59 l
324.31 508.51 lineto
0.15 -0.49 l
0.14 -0.13 l
0.15 -0.24 l
0.14 0.37 l
0.15 0.35 l
0.14 -0.48 l
0.15 -0.11 l
0.15 -0.24 l
0.14 0.11 l
0.15 -0.49 l
0.14 0.62 l
0.15 -0.24 l
0.14 0 l
0.15 0.48 l
0.14 -0.13 l
0.15 -0.24 l
0.15 0.13 l
0.14 0.73 l
0.15 0.10 l
0.14 -0.83 l
0.15 -0.48 l
0.14 0.83 l
0.15 -0.35 l
0.14 0.48 l
0.15 -0.96 l
0.15 0.59 l
0.14 0.13 l
0.15 -0.86 l
0.14 0.62 l
0.15 -0.24 l
0.14 0.24 l
0.15 -0.24 l
0.15 0.83 l
0.14 -0.48 l
0.15 0.24 l
0.14 0.13 l
0.15 0.49 l
0.14 -0.38 l
0.15 -0.35 l
0.14 -0.37 l
0.15 0.24 l
0.15 0.24 l
0.14 -0.83 l
0.15 0.72 l
0.14 -0.48 l
0.15 -0.14 l
0.14 0.14 l
0.15 -0.14 l
0.14 0.86 l
0.15 -0.48 l
0.15 0.35 l
0.14 0.24 l
0.15 -0.35 l
0.14 -0.24 l
0.15 0.11 l
0.14 0.13 l
0.15 -0.24 l
0.14 -0.13 l
0.15 -0.11 l
0.15 -0.62 l
0.14 0.24 l
0.15 -0.24 l
0.14 0.62 l
0.15 -0.14 l
0.14 0.49 l
0.15 0.13 l
0.15 0.11 l
0.14 -0.24 l
0.15 0.24 l
0.14 -0.35 l
0.15 0.48 l
0.14 -0.37 l
0.15 -0.24 l
0.14 -0.25 l
0.15 0.62 l
0.15 -0.37 l
0.14 -0.11 l
0.15 -0.14 l
0.14 0.14 l
0.15 -0.86 l
0.14 0.72 l
0.15 0.14 l
0.14 0.35 l
0.15 0 l
0.15 -0.35 l
0.14 0.48 l
0.15 -0.48 l
0.14 0.11 l
0.15 -0.11 l
0.14 0.11 l
0.15 -0.11 l
0.14 -0.14 l
0.15 0.25 l
0.15 0.24 l
0.14 -0.84 l
0.15 -0.13 l
0.14 0.13 l
0.15 0.35 l
0.14 -0.48 l
338.87 507.78 lineto
0.15 0.35 l
0.14 0.24 l
0.15 -0.48 l
0.14 -0.49 l
0.15 0.62 l
0.14 -0.24 l
0.15 0 l
0.14 -0.24 l
0.15 0.11 l
0.15 0.37 l
0.14 -0.62 l
0.15 0.14 l
0.14 -0.14 l
0.15 0 l
0.14 0.14 l
0.15 0.48 l
0.14 0.59 l
0.15 -0.72 l
0.15 0.24 l
0.14 0.48 l
0.15 -0.59 l
0.14 -0.13 l
0.15 -0.24 l
0.14 -0.11 l
0.15 -0.14 l
0.14 0.49 l
0.15 -0.24 l
0.15 -0.35 l
0.14 0.10 l
0.15 0.38 l
0.14 -0.38 l
0.15 -0.24 l
0.14 0.49 l
0.15 0 l
0.15 0.61 l
0.14 -0.48 l
0.15 -0.48 l
0.14 0.59 l
0.15 -0.59 l
0.14 0.10 l
0.15 0.25 l
0.14 0 l
0.15 0.24 l
0.15 -0.35 l
0.14 0 l
0.15 0.11 l
0.14 -0.35 l
0.15 -0.14 l
0.14 0 l
0.15 -0.11 l
0.14 0.25 l
0.15 0.72 l
0.15 0.11 l
0.14 -0.11 l
0.15 -0.37 l
0.14 0.86 l
0.15 -0.49 l
0.14 0.24 l
0.15 -0.24 l
0.14 -0.37 l
0.15 -0.35 l
0.15 0.10 l
0.14 -0.24 l
0.15 0.49 l
0.14 0.37 l
0.15 -0.72 l
0.14 -0.14 l
0.15 0.24 l
0.15 0.49 l
0.14 0.13 l
0.15 -0.13 l
0.14 0.13 l
0.15 -0.13 l
0.14 0 l
0.15 0.24 l
0.14 -0.11 l
0.15 -0.37 l
0.15 -0.49 l
0.14 0.38 l
0.15 -0.49 l
0.14 0.84 l
0.15 -0.11 l
0.14 -0.38 l
0.15 0.25 l
0.14 0 l
0.15 -0.73 l
0.15 0.38 l
0.14 0.72 l
0.15 0 l
0.14 0.49 l
0.15 -0.38 l
0.14 0 l
0.15 -0.11 l
0.14 -0.48 l
0.15 0.11 l
0.15 0 l
0.14 -0.35 l
0.15 0.10 l
0.14 -0.10 l
353.43 507.40 lineto
0.14 -0.24 l
0.15 0.14 l
0.14 0.35 l
0.15 0 l
0.15 0.37 l
0.14 -0.24 l
0.15 0 l
0.14 0.11 l
0.15 -0.73 l
0.14 0 l
0.15 0 l
0.15 0 l
0.14 0.49 l
0.15 0.13 l
0.14 -0.38 l
0.15 -0.59 l
0.14 0.59 l
0.15 -0.24 l
0.14 0.24 l
0.15 0.73 l
0.15 -0.24 l
0.14 -0.35 l
0.15 0.72 l
0.14 -0.24 l
0.15 -0.72 l
0.14 0.59 l
0.15 -0.24 l
0.14 -0.11 l
0.15 0 l
0.15 -0.38 l
0.14 -0.24 l
0.15 0.13 l
0.14 0.60 l
0.15 -0.11 l
0.14 0.35 l
0.15 0.13 l
0.14 0 l
0.15 0.24 l
0.15 -0.37 l
0.14 -0.11 l
0.15 -0.13 l
0.14 0.24 l
0.15 -0.35 l
0.14 -0.24 l
0.15 0.24 l
0.15 0 l
0.14 0 l
0.15 -0.38 l
0.14 -0.11 l
0.15 0.35 l
0.14 -0.24 l
0.15 1.10 l
0.14 -0.86 l
0.15 0.14 l
0.15 0.24 l
0.14 -0.38 l
0.15 0.38 l
0.14 0.11 l
0.15 -0.24 l
0.14 -0.11 l
0.15 0.35 l
0.14 -0.73 l
0.15 0.24 l
0.15 0 l
0.14 -0.24 l
0.15 0.49 l
0.14 -0.60 l
0.15 0.35 l
0.14 0 l
0.15 0 l
0.14 0.62 l
0.15 0.11 l
0.15 -0.35 l
0.14 0.59 l
0.15 -0.24 l
0.14 -0.48 l
0.15 0.13 l
0.14 -0.13 l
0.15 -0.25 l
0.15 0.38 l
0.14 -0.48 l
0.15 -0.14 l
0.14 0.14 l
0.15 0 l
0.14 0.10 l
0.15 0.14 l
0.14 0.83 l
0.15 0 l
0.15 -0.59 l
0.14 0.11 l
0.15 -0.11 l
0.14 -0.24 l
0.15 0 l
0.14 -0.14 l
0.15 0.14 l
0.14 -0.14 l
0.15 -0.10 l
0.15 -0.25 l
0.14 0.25 l
currentpoint o m
367.99 507.05 lineto
0.14 0.35 l
0.15 -0.10 l
0.14 1.21 l
0.15 -0.38 l
0.14 -0.11 l
0.15 0 l
0.15 -0.97 l
0.14 0.84 l
0.15 0 l
0.14 -0.24 l
0.15 -0.35 l
0.14 0.10 l
0.15 0.25 l
0.15 -0.35 l
0.14 0.24 l
0.15 -0.24 l
0.14 0.10 l
0.15 0.14 l
0.14 0.35 l
0.15 0.13 l
0.14 -0.24 l
0.15 0.24 l
0.15 0.73 l
0.14 -0.97 l
0.15 0.11 l
0.14 0 l
0.15 -0.59 l
0.14 0 l
0.15 -0.14 l
0.14 0.38 l
0.15 -0.49 l
0.15 -0.13 l
0.14 0.13 l
0.15 -0.13 l
0.14 0.62 l
0.15 0.35 l
0.14 -0.49 l
0.15 0.73 l
0.14 -0.59 l
0.15 0.72 l
0.15 -1.45 l
0.14 0.35 l
0.15 0.38 l
0.14 -0.14 l
0.15 0.25 l
0.14 0.24 l
0.15 -0.73 l
0.15 -0.24 l
0.14 0.13 l
0.15 0.11 l
0.14 0.24 l
0.15 0.25 l
0.14 0.72 l
0.15 0.24 l
0.14 -0.72 l
0.15 0.13 l
0.15 -0.37 l
0.14 0.48 l
0.15 -0.59 l
0.14 0.11 l
0.15 -0.35 l
0.14 0.48 l
0.15 -0.13 l
0.14 -0.49 l
0.15 0.14 l
0.15 -0.25 l
0.14 -0.24 l
0.15 0.73 l
0.14 0.72 l
0.15 -0.37 l
0.14 0 l
0.15 0.13 l
0.14 -0.37 l
0.15 0.24 l
0.15 -0.24 l
0.14 -0.25 l
0.15 -0.35 l
0.14 0.25 l
0.15 0.10 l
0.14 0 l
0.15 -0.10 l
0.15 -0.38 l
0.14 0.13 l
0.15 0.49 l
0.14 0.11 l
0.15 -0.11 l
0.14 0.72 l
0.15 -0.24 l
0.14 0.35 l
0.15 -0.24 l
0.15 0 l
0.14 -0.11 l
0.15 -0.24 l
0.14 -0.24 l
0.15 -0.38 l
0.14 0.38 l
0.15 -0.14 l
0.14 -0.10 l
0.15 0.10 l
o
/bg { 1 1 1 srgb } def
222.40 510.92 0.43 c p3
222.55 510.79 0.43 c p3
222.69 511.17 0.43 c p3
222.84 510.92 0.43 c p3
222.98 511.17 0.43 c p3
223.13 511.27 0.43 c p3
223.27 511.76 0.43 c p3
223.42 511.27 0.43 c p3
223.56 511.03 0.43 c p3
223.71 510.55 0.43 c p3
223.86 511.03 0.43 c p3
224.00 511.41 0.43 c p3
224.15 511.41 0.43 c p3
224.29 511.62 0.43 c p3
224.44 511.41 0.43 c p3
224.58 511.03 0.43 c p3
224.73 511.03 0.43 c p3
224.87 511.52 0.43 c p3
225.02 511.17 0.43 c p3
225.17 511.62 0.43 c p3
225.31 511.41 0.43 c p3
225.46 511.52 0.43 c p3
225.60 511.17 0.43 c p3
225.75 511.17 0.43 c p3
225.89 511.17 0.43 c p3
226.04 511.41 0.43 c p3
226.19 510.92 0.43 c p3
226.33 511.27 0.43 c p3
226.48 511.17 0.43 c p3
226.62 510.92 0.43 c p3
226.77 511.17 0.43 c p3
226.91 511.03 0.43 c p3
227.06 511.17 0.43 c p3
227.20 511.03 0.43 c p3
227.35 511.17 0.43 c p3
227.50 511.41 0.43 c p3
227.64 511.17 0.43 c p3
227.79 510.68 0.43 c p3
227.93 511.41 0.43 c p3
228.08 510.68 0.43 c p3
228.22 510.92 0.43 c p3
228.37 511.62 0.43 c p3
228.51 511.17 0.43 c p3
228.66 511.03 0.43 c p3
228.81 510.92 0.43 c p3
228.95 510.55 0.43 c p3
229.10 510.92 0.43 c p3
229.24 510.68 0.43 c p3
229.39 510.92 0.43 c p3
229.53 511.27 0.43 c p3
229.68 511.27 0.43 c p3
229.82 511.41 0.43 c p3
229.97 511.27 0.43 c p3
230.12 511.62 0.43 c p3
230.26 510.92 0.43 c p3
230.41 511.52 0.43 c p3
230.55 511.41 0.43 c p3
230.70 511.52 0.43 c p3
230.84 511.52 0.43 c p3
230.99 511.62 0.43 c p3
231.14 511.17 0.43 c p3
231.28 511.52 0.43 c p3
231.43 511.62 0.43 c p3
231.57 511.52 0.43 c p3
231.72 511.76 0.43 c p3
231.86 511.41 0.43 c p3
232.01 511.41 0.43 c p3
232.15 511.41 0.43 c p3
232.30 511.87 0.43 c p3
232.45 510.79 0.43 c p3
232.59 511.41 0.43 c p3
232.74 511.52 0.43 c p3
232.88 511.03 0.43 c p3
233.03 510.68 0.43 c p3
233.17 511.52 0.43 c p3
233.32 510.92 0.43 c p3
233.46 511.03 0.43 c p3
233.61 511.17 0.43 c p3
233.76 511.03 0.43 c p3
233.90 511.27 0.43 c p3
234.05 511.27 0.43 c p3
234.19 510.68 0.43 c p3
234.34 511.03 0.43 c p3
234.48 510.44 0.43 c p3
234.63 510.92 0.43 c p3
234.77 510.68 0.43 c p3
234.92 511.52 0.43 c p3
235.07 511.62 0.43 c p3
235.21 511.52 0.43 c p3
235.36 511.27 0.43 c p3
235.50 511.27 0.43 c p3
235.65 511.41 0.43 c p3
235.79 511.52 0.43 c p3
235.94 511.52 0.43 c p3
236.09 511.41 0.43 c p3
236.23 512.00 0.43 c p3
236.38 511.27 0.43 c p3
236.52 511.52 0.43 c p3
236.67 511.27 0.43 c p3
236.81 511.62 0.43 c p3
236.96 453.37 0.43 c p3
237.10 451.91 0.43 c p3
237.25 453.96 0.43 c p3
237.40 455.28 0.43 c p3
237.54 456.97 0.43 c p3
237.69 457.59 0.43 c p3
237.83 458.80 0.43 c p3
237.98 460.12 0.43 c p3
238.12 460.95 0.43 c p3
238.27 460.95 0.43 c p3
238.41 462.78 0.43 c p3
238.56 463.13 0.43 c p3
238.71 464.34 0.43 c p3
238.85 465.06 0.43 c p3
239.00 465.79 0.43 c p3
239.14 466.76 0.43 c p3
239.29 468.08 0.43 c p3
239.43 468.08 0.43 c p3
239.58 468.69 0.43 c p3
239.72 468.56 0.43 c p3
239.87 469.04 0.43 c p3
240.02 469.66 0.43 c p3
240.16 471.09 0.43 c p3
240.31 470.98 0.43 c p3
240.45 471.57 0.43 c p3
240.60 472.67 0.43 c p3
240.74 473.02 0.43 c p3
240.89 473.64 0.43 c p3
241.04 475.09 0.43 c p3
241.18 475.68 0.43 c p3
241.33 476.41 0.43 c p3
241.47 477.13 0.43 c p3
241.62 477.86 0.43 c p3
241.76 477.38 0.43 c p3
241.91 477.73 0.43 c p3
242.05 478.59 0.43 c p3
242.20 478.45 0.43 c p3
242.35 478.94 0.43 c p3
242.49 479.80 0.43 c p3
242.64 480.74 0.43 c p3
242.78 480.87 0.43 c p3
242.93 480.87 0.43 c p3
243.07 481.35 0.43 c p3
243.22 482.81 0.43 c p3
243.36 482.56 0.43 c p3
243.51 482.81 0.43 c p3
243.66 483.53 0.43 c p3
243.80 484.12 0.43 c p3
243.95 484.61 0.43 c p3
244.09 484.50 0.43 c p3
244.24 485.58 0.43 c p3
244.38 485.58 0.43 c p3
244.53 485.71 0.43 c p3
244.67 486.17 0.43 c p3
244.82 486.17 0.43 c p3
244.97 487.51 0.43 c p3
245.11 487.27 0.43 c p3
245.26 488.83 0.43 c p3
245.40 488.34 0.43 c p3
245.55 488.59 0.43 c p3
245.69 488.10 0.43 c p3
245.84 489.45 0.43 c p3
245.99 489.69 0.43 c p3
246.13 489.80 0.43 c p3
246.28 490.41 0.43 c p3
246.42 491.11 0.43 c p3
246.57 491.35 0.43 c p3
246.71 491.60 0.43 c p3
246.86 491.97 0.43 c p3
247.00 491.73 0.43 c p3
247.15 492.46 0.43 c p3
247.30 492.46 0.43 c p3
247.44 492.81 0.43 c p3
247.59 493.67 0.43 c p3
247.73 493.53 0.43 c p3
247.88 493.67 0.43 c p3
248.02 494.63 0.43 c p3
248.17 494.15 0.43 c p3
248.31 494.26 0.43 c p3
248.46 494.50 0.43 c p3
248.61 495.36 0.43 c p3
248.75 495.36 0.43 c p3
248.90 495.60 0.43 c p3
249.04 496.09 0.43 c p3
249.19 495.71 0.43 c p3
249.33 496.79 0.43 c p3
249.48 496.19 0.43 c p3
249.62 496.68 0.43 c p3
249.77 496.54 0.43 c p3
249.92 496.92 0.43 c p3
250.06 497.89 0.43 c p3
250.21 498.13 0.43 c p3
250.35 497.65 0.43 c p3
250.50 497.51 0.43 c p3
250.64 497.27 0.43 c p3
250.79 497.99 0.43 c p3
250.94 497.75 0.43 c p3
251.08 498.13 0.43 c p3
251.23 499.45 0.43 c p3
251.37 499.10 0.43 c p3
251.52 499.82 0.43 c p3
251.66 499.69 0.43 c p3
251.81 499.45 0.43 c p3
251.95 499.69 0.43 c p3
252.10 500.41 0.43 c p3
252.25 500.17 0.43 c p3
252.39 500.55 0.43 c p3
252.54 500.41 0.43 c p3
252.68 500.90 0.43 c p3
252.83 501.03 0.43 c p3
252.97 501.14 0.43 c p3
253.12 500.90 0.43 c p3
253.26 501.27 0.43 c p3
253.41 501.38 0.43 c p3
253.56 501.14 0.43 c p3
253.70 501.49 0.43 c p3
253.85 501.97 0.43 c p3
253.99 502.83 0.43 c p3
254.14 502.22 0.43 c p3
254.28 502.59 0.43 c p3
254.43 503.18 0.43 c p3
254.57 502.70 0.43 c p3
254.72 502.59 0.43 c p3
254.87 503.08 0.43 c p3
255.01 503.91 0.43 c p3
255.16 503.42 0.43 c p3
255.30 502.83 0.43 c p3
255.45 503.56 0.43 c p3
255.59 503.67 0.43 c p3
255.74 503.32 0.43 c p3
255.88 503.32 0.43 c p3
256.03 503.67 0.43 c p3
256.18 503.08 0.43 c p3
256.32 503.67 0.43 c p3
256.47 503.08 0.43 c p3
256.61 504.04 0.43 c p3
256.76 503.80 0.43 c p3
256.90 503.91 0.43 c p3
257.05 504.28 0.43 c p3
257.20 504.88 0.43 c p3
257.34 504.39 0.43 c p3
257.49 504.77 0.43 c p3
257.63 505.01 0.43 c p3
257.78 505.01 0.43 c p3
257.92 505.49 0.43 c p3
258.07 505.25 0.43 c p3
258.21 505.01 0.43 c p3
258.36 505.36 0.43 c p3
258.51 505.36 0.43 c p3
258.65 505.25 0.43 c p3
258.80 505.49 0.43 c p3
258.94 505.36 0.43 c p3
259.09 505.12 0.43 c p3
259.23 505.36 0.43 c p3
259.38 505.60 0.43 c p3
259.52 505.84 0.43 c p3
259.67 505.74 0.43 c p3
259.82 506.22 0.43 c p3
259.96 506.22 0.43 c p3
260.11 506.22 0.43 c p3
260.25 506.22 0.43 c p3
260.40 506.44 0.43 c p3
260.54 506.57 0.43 c p3
260.69 506.81 0.43 c p3
260.83 506.44 0.43 c p3
260.98 506.33 0.43 c p3
261.13 506.22 0.43 c p3
261.27 506.22 0.43 c p3
261.42 505.98 0.43 c p3
261.56 506.33 0.43 c p3
261.71 506.33 0.43 c p3
261.85 506.81 0.43 c p3
262.00 506.33 0.43 c p3
262.15 506.57 0.43 c p3
262.29 506.57 0.43 c p3
262.44 506.57 0.43 c p3
262.58 507.30 0.43 c p3
262.73 507.54 0.43 c p3
262.87 506.81 0.43 c p3
263.02 506.81 0.43 c p3
263.16 507.05 0.43 c p3
263.31 507.40 0.43 c p3
263.46 506.57 0.43 c p3
263.60 507.16 0.43 c p3
263.75 506.68 0.43 c p3
263.89 507.16 0.43 c p3
264.04 507.05 0.43 c p3
264.18 507.65 0.43 c p3
264.33 507.40 0.43 c p3
264.47 507.05 0.43 c p3
264.62 507.16 0.43 c p3
264.77 507.40 0.43 c p3
264.91 507.16 0.43 c p3
265.06 507.40 0.43 c p3
265.20 507.89 0.43 c p3
265.35 507.54 0.43 c p3
265.49 507.78 0.43 c p3
265.64 508.85 0.43 c p3
265.78 507.89 0.43 c p3
265.93 507.65 0.43 c p3
266.08 508.13 0.43 c p3
266.22 508.02 0.43 c p3
266.37 507.78 0.43 c p3
266.51 508.26 0.43 c p3
266.66 508.51 0.43 c p3
266.80 507.54 0.43 c p3
266.95 507.78 0.43 c p3
267.10 507.40 0.43 c p3
267.24 507.78 0.43 c p3
267.39 507.30 0.43 c p3
267.53 507.16 0.43 c p3
267.68 508.13 0.43 c p3
267.82 507.78 0.43 c p3
267.97 508.13 0.43 c p3
268.11 508.13 0.43 c p3
268.26 508.37 0.43 c p3
268.41 508.26 0.43 c p3
268.55 508.02 0.43 c p3
268.70 508.02 0.43 c p3
268.84 507.78 0.43 c p3
268.99 507.89 0.43 c p3
269.13 507.89 0.43 c p3
269.28 507.65 0.43 c p3
269.42 507.89 0.43 c p3
269.57 508.37 0.43 c p3
269.72 507.65 0.43 c p3
269.86 508.26 0.43 c p3
270.01 508.26 0.43 c p3
270.15 508.51 0.43 c p3
270.30 509.10 0.43 c p3
270.44 508.99 0.43 c p3
270.59 508.85 0.43 c p3
270.73 508.61 0.43 c p3
270.88 508.61 0.43 c p3
271.03 508.75 0.43 c p3
271.17 508.37 0.43 c p3
271.32 508.61 0.43 c p3
271.46 508.99 0.43 c p3
271.61 508.26 0.43 c p3
271.75 508.26 0.43 c p3
271.90 508.13 0.43 c p3
272.05 508.13 0.43 c p3
272.19 508.13 0.43 c p3
272.34 508.51 0.43 c p3
272.48 508.75 0.43 c p3
272.63 508.99 0.43 c p3
272.77 508.85 0.43 c p3
272.92 508.75 0.43 c p3
273.06 508.51 0.43 c p3
273.21 508.75 0.43 c p3
273.36 508.37 0.43 c p3
273.50 508.61 0.43 c p3
273.65 508.61 0.43 c p3
273.79 508.51 0.43 c p3
273.94 508.02 0.43 c p3
274.08 507.89 0.43 c p3
274.23 508.02 0.43 c p3
274.37 508.02 0.43 c p3
274.52 508.13 0.43 c p3
274.67 508.02 0.43 c p3
274.81 508.51 0.43 c p3
274.96 508.61 0.43 c p3
275.10 508.61 0.43 c p3
275.25 508.26 0.43 c p3
275.39 508.37 0.43 c p3
275.54 508.37 0.43 c p3
275.68 509.10 0.43 c p3
275.83 508.85 0.43 c p3
275.98 508.61 0.43 c p3
276.12 508.75 0.43 c p3
276.27 508.51 0.43 c p3
276.41 508.61 0.43 c p3
276.56 508.85 0.43 c p3
276.70 508.26 0.43 c p3
276.85 508.51 0.43 c p3
277.00 508.26 0.43 c p3
277.14 508.51 0.43 c p3
277.29 508.61 0.43 c p3
277.43 509.23 0.43 c p3
277.58 508.99 0.43 c p3
277.72 509.34 0.43 c p3
277.87 509.10 0.43 c p3
278.01 508.85 0.43 c p3
278.16 509.58 0.43 c p3
278.31 508.51 0.43 c p3
278.45 508.37 0.43 c p3
278.60 508.61 0.43 c p3
278.74 508.51 0.43 c p3
278.89 508.26 0.43 c p3
279.03 508.51 0.43 c p3
279.18 508.51 0.43 c p3
279.32 508.26 0.43 c p3
279.47 508.99 0.43 c p3
279.62 508.26 0.43 c p3
279.76 508.85 0.43 c p3
279.91 508.61 0.43 c p3
280.05 509.47 0.43 c p3
280.20 508.85 0.43 c p3
280.34 508.37 0.43 c p3
280.49 508.13 0.43 c p3
280.63 508.75 0.43 c p3
280.78 508.26 0.43 c p3
280.93 508.51 0.43 c p3
281.07 508.37 0.43 c p3
281.22 509.23 0.43 c p3
281.36 508.61 0.43 c p3
281.51 507.54 0.43 c p3
281.65 508.51 0.43 c p3
281.80 508.51 0.43 c p3
281.95 508.02 0.43 c p3
282.09 508.61 0.43 c p3
282.24 509.10 0.43 c p3
282.38 508.85 0.43 c p3
282.53 509.10 0.43 c p3
282.67 509.10 0.43 c p3
282.82 508.26 0.43 c p3
282.96 509.10 0.43 c p3
283.11 508.75 0.43 c p3
283.26 509.23 0.43 c p3
283.40 508.99 0.43 c p3
283.55 508.61 0.43 c p3
283.69 508.26 0.43 c p3
283.84 508.51 0.43 c p3
283.98 508.13 0.43 c p3
284.13 508.26 0.43 c p3
284.27 508.99 0.43 c p3
284.42 509.10 0.43 c p3
284.57 508.51 0.43 c p3
284.71 509.23 0.43 c p3
284.86 508.85 0.43 c p3
285.00 508.13 0.43 c p3
285.15 508.51 0.43 c p3
285.29 508.26 0.43 c p3
285.44 508.51 0.43 c p3
285.58 508.75 0.43 c p3
285.73 508.37 0.43 c p3
285.88 508.02 0.43 c p3
286.02 508.37 0.43 c p3
286.17 508.26 0.43 c p3
286.31 507.54 0.43 c p3
286.46 507.89 0.43 c p3
286.60 508.85 0.43 c p3
286.75 507.65 0.43 c p3
286.89 508.37 0.43 c p3
287.04 508.02 0.43 c p3
287.19 508.61 0.43 c p3
287.33 508.85 0.43 c p3
287.48 509.23 0.43 c p3
287.62 508.51 0.43 c p3
287.77 508.51 0.43 c p3
287.91 508.51 0.43 c p3
288.06 508.61 0.43 c p3
288.21 508.02 0.43 c p3
288.35 508.51 0.43 c p3
288.50 508.26 0.43 c p3
288.64 508.02 0.43 c p3
288.79 508.02 0.43 c p3
288.93 508.26 0.43 c p3
289.08 508.13 0.43 c p3
289.22 508.26 0.43 c p3
289.37 508.26 0.43 c p3
289.52 508.51 0.43 c p3
289.66 508.61 0.43 c p3
289.81 509.23 0.43 c p3
289.95 508.99 0.43 c p3
290.10 509.10 0.43 c p3
290.24 508.13 0.43 c p3
290.39 508.61 0.43 c p3
290.53 508.37 0.43 c p3
290.68 508.02 0.43 c p3
290.83 508.26 0.43 c p3
290.97 508.51 0.43 c p3
291.12 507.65 0.43 c p3
291.26 507.89 0.43 c p3
291.41 507.78 0.43 c p3
291.55 507.78 0.43 c p3
291.70 508.37 0.43 c p3
291.84 508.51 0.43 c p3
291.99 508.37 0.43 c p3
292.14 508.51 0.43 c p3
292.28 508.99 0.43 c p3
292.43 508.13 0.43 c p3
292.57 508.75 0.43 c p3
292.72 508.61 0.43 c p3
292.86 508.26 0.43 c p3
293.01 508.26 0.43 c p3
293.16 508.26 0.43 c p3
293.30 508.13 0.43 c p3
293.45 507.78 0.43 c p3
293.59 508.26 0.43 c p3
293.74 508.13 0.43 c p3
293.88 508.13 0.43 c p3
294.03 508.02 0.43 c p3
294.17 508.02 0.43 c p3
294.32 508.51 0.43 c p3
294.47 508.61 0.43 c p3
294.61 508.61 0.43 c p3
294.76 508.75 0.43 c p3
294.90 508.75 0.43 c p3
295.05 508.61 0.43 c p3
295.19 508.75 0.43 c p3
295.34 508.51 0.43 c p3
295.48 508.37 0.43 c p3
295.63 507.89 0.43 c p3
295.78 507.89 0.43 c p3
295.92 508.26 0.43 c p3
296.07 507.89 0.43 c p3
296.21 507.40 0.43 c p3
296.36 507.65 0.43 c p3
296.50 508.02 0.43 c p3
296.65 508.13 0.43 c p3
296.79 508.61 0.43 c p3
296.94 508.37 0.43 c p3
297.09 508.85 0.43 c p3
297.23 508.51 0.43 c p3
297.38 508.75 0.43 c p3
297.52 508.13 0.43 c p3
297.67 508.26 0.43 c p3
297.81 507.89 0.43 c p3
297.96 508.37 0.43 c p3
298.11 508.02 0.43 c p3
298.25 507.65 0.43 c p3
298.40 507.65 0.43 c p3
298.54 508.37 0.43 c p3
298.69 507.78 0.43 c p3
298.83 507.65 0.43 c p3
298.98 508.37 0.43 c p3
299.12 508.61 0.43 c p3
299.27 508.37 0.43 c p3
299.42 508.61 0.43 c p3
299.56 508.51 0.43 c p3
299.71 508.37 0.43 c p3
299.85 508.85 0.43 c p3
300.00 508.26 0.43 c p3
300.14 508.26 0.43 c p3
300.29 508.37 0.43 c p3
300.43 508.02 0.43 c p3
300.58 508.51 0.43 c p3
300.73 508.75 0.43 c p3
300.87 507.89 0.43 c p3
301.02 507.54 0.43 c p3
301.16 508.26 0.43 c p3
301.31 508.02 0.43 c p3
301.45 508.13 0.43 c p3
301.60 508.37 0.43 c p3
301.74 508.37 0.43 c p3
301.89 508.13 0.43 c p3
302.04 508.37 0.43 c p3
302.18 507.89 0.43 c p3
302.33 508.26 0.43 c p3
302.47 508.37 0.43 c p3
302.62 508.13 0.43 c p3
302.76 507.65 0.43 c p3
302.91 508.26 0.43 c p3
303.06 508.37 0.43 c p3
303.20 508.13 0.43 c p3
303.35 507.40 0.43 c p3
303.49 507.16 0.43 c p3
303.64 507.40 0.43 c p3
303.78 507.89 0.43 c p3
303.93 508.13 0.43 c p3
304.07 508.61 0.43 c p3
304.22 508.37 0.43 c p3
304.37 507.89 0.43 c p3
304.51 508.26 0.43 c p3
304.66 508.51 0.43 c p3
304.80 508.37 0.43 c p3
304.95 508.13 0.43 c p3
305.09 508.02 0.43 c p3
305.24 508.37 0.43 c p3
305.38 507.65 0.43 c p3
305.53 508.02 0.43 c p3
305.68 508.26 0.43 c p3
305.82 508.51 0.43 c p3
305.97 507.89 0.43 c p3
306.11 507.65 0.43 c p3
306.26 507.65 0.43 c p3
306.40 507.89 0.43 c p3
306.55 508.61 0.43 c p3
306.69 508.51 0.43 c p3
306.84 508.51 0.43 c p3
306.99 508.51 0.43 c p3
307.13 508.13 0.43 c p3
307.28 508.13 0.43 c p3
307.42 508.13 0.43 c p3
307.57 508.26 0.43 c p3
307.71 508.02 0.43 c p3
307.86 508.02 0.43 c p3
308.01 507.65 0.43 c p3
308.15 507.78 0.43 c p3
308.30 508.13 0.43 c p3
308.44 507.78 0.43 c p3
308.59 507.30 0.43 c p3
308.73 507.89 0.43 c p3
308.88 507.89 0.43 c p3
309.02 508.02 0.43 c p3
309.17 508.13 0.43 c p3
309.32 508.51 0.43 c p3
309.46 508.26 0.43 c p3
309.61 508.61 0.43 c p3
309.75 508.26 0.43 c p3
309.90 507.89 0.43 c p3
310.04 508.26 0.43 c p3
310.19 507.89 0.43 c p3
310.33 508.02 0.43 c p3
310.48 507.89 0.43 c p3
310.63 507.30 0.43 c p3
310.77 507.65 0.43 c p3
310.92 507.65 0.43 c p3
311.06 507.65 0.43 c p3
311.21 508.13 0.43 c p3
311.35 507.89 0.43 c p3
311.50 507.78 0.43 c p3
311.64 508.26 0.43 c p3
311.79 507.89 0.43 c p3
311.94 508.51 0.43 c p3
312.08 508.61 0.43 c p3
312.23 508.61 0.43 c p3
312.37 508.75 0.43 c p3
312.52 508.37 0.43 c p3
312.66 508.02 0.43 c p3
312.81 507.89 0.43 c p3
312.96 507.78 0.43 c p3
313.10 507.89 0.43 c p3
313.25 507.54 0.43 c p3
313.39 508.51 0.43 c p3
313.54 507.78 0.43 c p3
313.68 507.65 0.43 c p3
313.83 508.02 0.43 c p3
313.97 508.02 0.43 c p3
314.12 508.26 0.43 c p3
314.27 508.02 0.43 c p3
314.41 508.51 0.43 c p3
314.56 508.26 0.43 c p3
314.70 508.26 0.43 c p3
314.85 507.30 0.43 c p3
314.99 508.26 0.43 c p3
315.14 507.40 0.43 c p3
315.28 507.78 0.43 c p3
315.43 507.78 0.43 c p3
315.58 507.89 0.43 c p3
315.72 507.54 0.43 c p3
315.87 507.40 0.43 c p3
316.01 507.78 0.43 c p3
316.16 507.05 0.43 c p3
316.30 507.89 0.43 c p3
316.45 507.78 0.43 c p3
316.59 508.02 0.43 c p3
316.74 508.02 0.43 c p3
316.89 508.85 0.43 c p3
317.03 508.37 0.43 c p3
317.18 508.61 0.43 c p3
317.32 508.51 0.43 c p3
317.47 508.02 0.43 c p3
317.61 508.02 0.43 c p3
317.76 507.54 0.43 c p3
317.91 508.13 0.43 c p3
318.05 508.13 0.43 c p3
318.20 507.78 0.43 c p3
318.34 507.89 0.43 c p3
318.49 507.65 0.43 c p3
318.63 507.16 0.43 c p3
318.78 507.78 0.43 c p3
318.92 508.13 0.43 c p3
319.07 508.02 0.43 c p3
319.22 508.75 0.43 c p3
319.36 508.37 0.43 c p3
319.51 508.51 0.43 c p3
319.65 507.89 0.43 c p3
319.80 507.89 0.43 c p3
319.94 507.78 0.43 c p3
320.09 508.02 0.43 c p3
320.23 507.78 0.43 c p3
320.38 507.78 0.43 c p3
320.53 507.89 0.43 c p3
320.67 507.78 0.43 c p3
320.82 507.54 0.43 c p3
320.96 507.30 0.43 c p3
321.11 507.78 0.43 c p3
321.25 507.54 0.43 c p3
321.40 507.16 0.43 c p3
321.54 508.02 0.43 c p3
321.69 508.37 0.43 c p3
321.84 508.26 0.43 c p3
321.98 507.78 0.43 c p3
322.13 508.37 0.43 c p3
322.27 508.51 0.43 c p3
322.42 507.78 0.43 c p3
322.56 507.78 0.43 c p3
322.71 507.54 0.43 c p3
322.85 508.61 0.43 c p3
323.00 507.78 0.43 c p3
323.15 507.89 0.43 c p3
323.29 507.40 0.43 c p3
323.44 507.40 0.43 c p3
323.58 508.02 0.43 c p3
323.73 507.30 0.43 c p3
323.87 507.78 0.43 c p3
324.02 508.61 0.43 c p3
324.17 508.02 0.43 c p3
324.31 508.51 0.43 c p3
324.46 508.02 0.43 c p3
324.60 507.89 0.43 c p3
324.75 507.65 0.43 c p3
324.89 508.02 0.43 c p3
325.04 508.37 0.43 c p3
325.18 507.89 0.43 c p3
325.33 507.78 0.43 c p3
325.48 507.54 0.43 c p3
325.62 507.65 0.43 c p3
325.77 507.16 0.43 c p3
325.91 507.78 0.43 c p3
326.06 507.54 0.43 c p3
326.20 507.54 0.43 c p3
326.35 508.02 0.43 c p3
326.49 507.89 0.43 c p3
326.64 507.65 0.43 c p3
326.79 507.78 0.43 c p3
326.93 508.51 0.43 c p3
327.08 508.61 0.43 c p3
327.22 507.78 0.43 c p3
327.37 507.30 0.43 c p3
327.51 508.13 0.43 c p3
327.66 507.78 0.43 c p3
327.80 508.26 0.43 c p3
327.95 507.30 0.43 c p3
328.10 507.89 0.43 c p3
328.24 508.02 0.43 c p3
328.39 507.16 0.43 c p3
328.53 507.78 0.43 c p3
328.68 507.54 0.43 c p3
328.82 507.78 0.43 c p3
328.97 507.54 0.43 c p3
329.12 508.37 0.43 c p3
329.26 507.89 0.43 c p3
329.41 508.13 0.43 c p3
329.55 508.26 0.43 c p3
329.70 508.75 0.43 c p3
329.84 508.37 0.43 c p3
329.99 508.02 0.43 c p3
330.13 507.65 0.43 c p3
330.28 507.89 0.43 c p3
330.43 508.13 0.43 c p3
330.57 507.30 0.43 c p3
330.72 508.02 0.43 c p3
330.86 507.54 0.43 c p3
331.01 507.40 0.43 c p3
331.15 507.54 0.43 c p3
331.30 507.40 0.43 c p3
331.44 508.26 0.43 c p3
331.59 507.78 0.43 c p3
331.74 508.13 0.43 c p3
331.88 508.37 0.43 c p3
332.03 508.02 0.43 c p3
332.17 507.78 0.43 c p3
332.32 507.89 0.43 c p3
332.46 508.02 0.43 c p3
332.61 507.78 0.43 c p3
332.75 507.65 0.43 c p3
332.90 507.54 0.43 c p3
333.05 506.92 0.43 c p3
333.19 507.16 0.43 c p3
333.34 506.92 0.43 c p3
333.48 507.54 0.43 c p3
333.63 507.40 0.43 c p3
333.77 507.89 0.43 c p3
333.92 508.02 0.43 c p3
334.07 508.13 0.43 c p3
334.21 507.89 0.43 c p3
334.36 508.13 0.43 c p3
334.50 507.78 0.43 c p3
334.65 508.26 0.43 c p3
334.79 507.89 0.43 c p3
334.94 507.65 0.43 c p3
335.08 507.40 0.43 c p3
335.23 508.02 0.43 c p3
335.38 507.65 0.43 c p3
335.52 507.54 0.43 c p3
335.67 507.40 0.43 c p3
335.81 507.54 0.43 c p3
335.96 506.68 0.43 c p3
336.10 507.40 0.43 c p3
336.25 507.54 0.43 c p3
336.39 507.89 0.43 c p3
336.54 507.89 0.43 c p3
336.69 507.54 0.43 c p3
336.83 508.02 0.43 c p3
336.98 507.54 0.43 c p3
337.12 507.65 0.43 c p3
337.27 507.54 0.43 c p3
337.41 507.65 0.43 c p3
337.56 507.54 0.43 c p3
337.70 507.40 0.43 c p3
337.85 507.65 0.43 c p3
338.00 507.89 0.43 c p3
338.14 507.05 0.43 c p3
338.29 506.92 0.43 c p3
338.43 507.05 0.43 c p3
338.58 507.40 0.43 c p3
338.72 506.92 0.43 c p3
338.87 507.78 0.43 c p3
339.02 508.13 0.43 c p3
339.16 508.37 0.43 c p3
339.31 507.89 0.43 c p3
339.45 507.40 0.43 c p3
339.60 508.02 0.43 c p3
339.74 507.78 0.43 c p3
339.89 507.78 0.43 c p3
340.03 507.54 0.43 c p3
340.18 507.65 0.43 c p3
340.33 508.02 0.43 c p3
340.47 507.40 0.43 c p3
340.62 507.54 0.43 c p3
340.76 507.40 0.43 c p3
340.91 507.40 0.43 c p3
341.05 507.54 0.43 c p3
341.20 508.02 0.43 c p3
341.34 508.61 0.43 c p3
341.49 507.89 0.43 c p3
341.64 508.13 0.43 c p3
341.78 508.61 0.43 c p3
341.93 508.02 0.43 c p3
342.07 507.89 0.43 c p3
342.22 507.65 0.43 c p3
342.36 507.54 0.43 c p3
342.51 507.40 0.43 c p3
342.65 507.89 0.43 c p3
342.80 507.65 0.43 c p3
342.95 507.30 0.43 c p3
343.09 507.40 0.43 c p3
343.24 507.78 0.43 c p3
343.38 507.40 0.43 c p3
343.53 507.16 0.43 c p3
343.67 507.65 0.43 c p3
343.82 507.65 0.43 c p3
343.97 508.26 0.43 c p3
344.11 507.78 0.43 c p3
344.26 507.30 0.43 c p3
344.40 507.89 0.43 c p3
344.55 507.30 0.43 c p3
344.69 507.40 0.43 c p3
344.84 507.65 0.43 c p3
344.98 507.65 0.43 c p3
345.13 507.89 0.43 c p3
345.28 507.54 0.43 c p3
345.42 507.54 0.43 c p3
345.57 507.65 0.43 c p3
345.71 507.30 0.43 c p3
345.86 507.16 0.43 c p3
346.00 507.16 0.43 c p3
346.15 507.05 0.43 c p3
346.29 507.30 0.43 c p3
346.44 508.02 0.43 c p3
346.59 508.13 0.43 c p3
346.73 508.02 0.43 c p3
346.88 507.65 0.43 c p3
347.02 508.51 0.43 c p3
347.17 508.02 0.43 c p3
347.31 508.26 0.43 c p3
347.46 508.02 0.43 c p3
347.60 507.65 0.43 c p3
347.75 507.30 0.43 c p3
347.90 507.40 0.43 c p3
348.04 507.16 0.43 c p3
348.19 507.65 0.43 c p3
348.33 508.02 0.43 c p3
348.48 507.30 0.43 c p3
348.62 507.16 0.43 c p3
348.77 507.40 0.43 c p3
348.92 507.89 0.43 c p3
349.06 508.02 0.43 c p3
349.21 507.89 0.43 c p3
349.35 508.02 0.43 c p3
349.50 507.89 0.43 c p3
349.64 507.89 0.43 c p3
349.79 508.13 0.43 c p3
349.93 508.02 0.43 c p3
350.08 507.65 0.43 c p3
350.23 507.16 0.43 c p3
350.37 507.54 0.43 c p3
350.52 507.05 0.43 c p3
350.66 507.89 0.43 c p3
350.81 507.78 0.43 c p3
350.95 507.40 0.43 c p3
351.10 507.65 0.43 c p3
351.24 507.65 0.43 c p3
351.39 506.92 0.43 c p3
351.54 507.30 0.43 c p3
351.68 508.02 0.43 c p3
351.83 508.02 0.43 c p3
351.97 508.51 0.43 c p3
352.12 508.13 0.43 c p3
352.26 508.13 0.43 c p3
352.41 508.02 0.43 c p3
352.55 507.54 0.43 c p3
352.70 507.65 0.43 c p3
352.85 507.65 0.43 c p3
352.99 507.30 0.43 c p3
353.14 507.40 0.43 c p3
353.28 507.30 0.43 c p3
353.43 507.40 0.43 c p3
353.57 507.16 0.43 c p3
353.72 507.30 0.43 c p3
353.86 507.65 0.43 c p3
354.01 507.65 0.43 c p3
354.16 508.02 0.43 c p3
354.30 507.78 0.43 c p3
354.45 507.78 0.43 c p3
354.59 507.89 0.43 c p3
354.74 507.16 0.43 c p3
354.88 507.16 0.43 c p3
355.03 507.16 0.43 c p3
355.18 507.16 0.43 c p3
355.32 507.65 0.43 c p3
355.47 507.78 0.43 c p3
355.61 507.40 0.43 c p3
355.76 506.81 0.43 c p3
355.90 507.40 0.43 c p3
356.05 507.16 0.43 c p3
356.19 507.40 0.43 c p3
356.34 508.13 0.43 c p3
356.49 507.89 0.43 c p3
356.63 507.54 0.43 c p3
356.78 508.26 0.43 c p3
356.92 508.02 0.43 c p3
357.07 507.30 0.43 c p3
357.21 507.89 0.43 c p3
357.36 507.65 0.43 c p3
357.50 507.54 0.43 c p3
357.65 507.54 0.43 c p3
357.80 507.16 0.43 c p3
357.94 506.92 0.43 c p3
358.09 507.05 0.43 c p3
358.23 507.65 0.43 c p3
358.38 507.54 0.43 c p3
358.52 507.89 0.43 c p3
358.67 508.02 0.43 c p3
358.81 508.02 0.43 c p3
358.96 508.26 0.43 c p3
359.11 507.89 0.43 c p3
359.25 507.78 0.43 c p3
359.40 507.65 0.43 c p3
359.54 507.89 0.43 c p3
359.69 507.54 0.43 c p3
359.83 507.30 0.43 c p3
359.98 507.54 0.43 c p3
360.13 507.54 0.43 c p3
360.27 507.54 0.43 c p3
360.42 507.16 0.43 c p3
360.56 507.05 0.43 c p3
360.71 507.40 0.43 c p3
360.85 507.16 0.43 c p3
361.00 508.26 0.43 c p3
361.14 507.40 0.43 c p3
361.29 507.54 0.43 c p3
361.44 507.78 0.43 c p3
361.58 507.40 0.43 c p3
361.73 507.78 0.43 c p3
361.87 507.89 0.43 c p3
362.02 507.65 0.43 c p3
362.16 507.54 0.43 c p3
362.31 507.89 0.43 c p3
362.45 507.16 0.43 c p3
362.60 507.40 0.43 c p3
362.75 507.40 0.43 c p3
362.89 507.16 0.43 c p3
363.04 507.65 0.43 c p3
363.18 507.05 0.43 c p3
363.33 507.40 0.43 c p3
363.47 507.40 0.43 c p3
363.62 507.40 0.43 c p3
363.76 508.02 0.43 c p3
363.91 508.13 0.43 c p3
364.06 507.78 0.43 c p3
364.20 508.37 0.43 c p3
364.35 508.13 0.43 c p3
364.49 507.65 0.43 c p3
364.64 507.78 0.43 c p3
364.78 507.65 0.43 c p3
364.93 507.40 0.43 c p3
365.08 507.78 0.43 c p3
365.22 507.30 0.43 c p3
365.37 507.16 0.43 c p3
365.51 507.30 0.43 c p3
365.66 507.30 0.43 c p3
365.80 507.40 0.43 c p3
365.95 507.54 0.43 c p3
366.09 508.37 0.43 c p3
366.24 508.37 0.43 c p3
366.39 507.78 0.43 c p3
366.53 507.89 0.43 c p3
366.68 507.78 0.43 c p3
366.82 507.54 0.43 c p3
366.97 507.54 0.43 c p3
367.11 507.40 0.43 c p3
367.26 507.54 0.43 c p3
367.40 507.40 0.43 c p3
367.55 507.30 0.43 c p3
367.70 507.05 0.43 c p3
367.84 507.30 0.43 c p3
367.99 507.05 0.43 c p3
368.13 507.40 0.43 c p3
368.28 507.30 0.43 c p3
368.42 508.51 0.43 c p3
368.57 508.13 0.43 c p3
368.71 508.02 0.43 c p3
368.86 508.02 0.43 c p3
369.01 507.05 0.43 c p3
369.15 507.89 0.43 c p3
369.30 507.89 0.43 c p3
369.44 507.65 0.43 c p3
369.59 507.30 0.43 c p3
369.73 507.40 0.43 c p3
369.88 507.65 0.43 c p3
370.03 507.30 0.43 c p3
370.17 507.54 0.43 c p3
370.32 507.30 0.43 c p3
370.46 507.40 0.43 c p3
370.61 507.54 0.43 c p3
370.75 507.89 0.43 c p3
370.90 508.02 0.43 c p3
371.04 507.78 0.43 c p3
371.19 508.02 0.43 c p3
371.34 508.75 0.43 c p3
371.48 507.78 0.43 c p3
371.63 507.89 0.43 c p3
371.77 507.89 0.43 c p3
371.92 507.30 0.43 c p3
372.06 507.30 0.43 c p3
372.21 507.16 0.43 c p3
372.35 507.54 0.43 c p3
372.50 507.05 0.43 c p3
372.65 506.92 0.43 c p3
372.79 507.05 0.43 c p3
372.94 506.92 0.43 c p3
373.08 507.54 0.43 c p3
373.23 507.89 0.43 c p3
373.37 507.40 0.43 c p3
373.52 508.13 0.43 c p3
373.66 507.54 0.43 c p3
373.81 508.26 0.43 c p3
373.96 506.81 0.43 c p3
374.10 507.16 0.43 c p3
374.25 507.54 0.43 c p3
374.39 507.40 0.43 c p3
374.54 507.65 0.43 c p3
374.68 507.89 0.43 c p3
374.83 507.16 0.43 c p3
374.98 506.92 0.43 c p3
375.12 507.05 0.43 c p3
375.27 507.16 0.43 c p3
375.41 507.40 0.43 c p3
375.56 507.65 0.43 c p3
375.70 508.37 0.43 c p3
375.85 508.61 0.43 c p3
375.99 507.89 0.43 c p3
376.14 508.02 0.43 c p3
376.29 507.65 0.43 c p3
376.43 508.13 0.43 c p3
376.58 507.54 0.43 c p3
376.72 507.65 0.43 c p3
376.87 507.30 0.43 c p3
377.01 507.78 0.43 c p3
377.16 507.65 0.43 c p3
377.30 507.16 0.43 c p3
377.45 507.30 0.43 c p3
377.60 507.05 0.43 c p3
377.74 506.81 0.43 c p3
377.89 507.54 0.43 c p3
378.03 508.26 0.43 c p3
378.18 507.89 0.43 c p3
378.32 507.89 0.43 c p3
378.47 508.02 0.43 c p3
378.61 507.65 0.43 c p3
378.76 507.89 0.43 c p3
378.91 507.65 0.43 c p3
379.05 507.40 0.43 c p3
379.20 507.05 0.43 c p3
379.34 507.30 0.43 c p3
379.49 507.40 0.43 c p3
379.63 507.40 0.43 c p3
379.78 507.30 0.43 c p3
379.93 506.92 0.43 c p3
380.07 507.05 0.43 c p3
380.22 507.54 0.43 c p3
380.36 507.65 0.43 c p3
380.51 507.54 0.43 c p3
380.65 508.26 0.43 c p3
380.80 508.02 0.43 c p3
380.94 508.37 0.43 c p3
381.09 508.13 0.43 c p3
381.24 508.13 0.43 c p3
381.38 508.02 0.43 c p3
381.53 507.78 0.43 c p3
381.67 507.54 0.43 c p3
381.82 507.16 0.43 c p3
381.96 507.54 0.43 c p3
382.11 507.40 0.43 c p3
382.25 507.30 0.43 c p3
382.40 507.40 0.43 c p3
0.00 0.00 432.00 576.00 cl
0 0 0 srgb
0.75 setlinewidth
[] 0 setdash
1 setlinecap
1 setlinejoin
10.00 setmiterlimit
np
236.96 345.60 m
145.59 0 l
o
np
236.96 345.60 m
0 -5.76 l
o
np
266.08 345.60 m
0 -5.76 l
o
np
295.19 345.60 m
0 -5.76 l
o
np
324.31 345.60 m
0 -5.76 l
o
np
353.43 345.60 m
0 -5.76 l
o
np
382.55 345.60 m
0 -5.76 l
o
/Font1 findfont 10 s
236.96 329.47 (0) .5 0 t
266.08 329.47 (100) .5 0 t
295.19 329.47 (200) .5 0 t
324.31 329.47 (300) .5 0 t
353.43 329.47 (400) .5 0 t
382.55 329.47 (500) .5 0 t
np
216.00 352.00 m
0 165.16 l
o
np
216.00 352.00 m
-5.76 0 l
o
np
216.00 407.05 m
-5.76 0 l
o
np
216.00 462.10 m
-5.76 0 l
o
np
216.00 517.16 m
-5.76 0 l
o
209.09 348.41 (0.0) 1 0 t
209.09 403.46 (0.5) 1 0 t
209.09 458.51 (1.0) 1 0 t
209.09 513.57 (1.5) 1 0 t
np
216.00 345.60 m
172.80 0 l
0 172.80 l
-172.80 0 l
0 -172.80 l
o
0.00 0.00 432.00 576.00 cl
/Font1 findfont 10 s
0 0 0 srgb
302.40 313.34 (Zeit / ms \(total\)) .5 0 t
190.66 432.00 (U / V) .5 90 t
216.00 345.60 388.80 518.40 cl
0 0 0 srgb
0.38 setlinewidth
[ 1.12 1.88] 0 setdash
1 setlinecap
1 setlinejoin
10.00 setmiterlimit
np
222.98 345.60 m
0 172.80 l
o
np
234.34 345.60 m
0 172.80 l
o
np
239.58 345.60 m
0 172.80 l
o
np
273.50 345.60 m
0 172.80 l
o
86.40 57.60 388.80 288.00 cl
1 0 0 srgb
1.50 setlinewidth
[] 0 setdash
1 setlinecap
1 setlinejoin
10.00 setmiterlimit
np
97.60 279.47 m
1.41 -18.62 l
1.40 -16.95 l
1.41 -15.42 l
1.41 -14.05 l
1.41 -12.78 l
1.40 -11.63 l
1.41 -10.59 l
1.41 -9.64 l
1.40 -8.78 l
1.41 -7.99 l
1.41 -7.27 l
1.40 -6.62 l
1.41 -6.02 l
1.41 -5.49 l
1.41 -4.99 l
1.40 -4.54 l
1.41 -4.14 l
1.41 -3.76 l
1.40 -3.43 l
1.41 -3.12 l
1.41 -2.84 l
1.40 -2.58 l
1.41 -2.36 l
1.41 -2.14 l
1.41 -1.95 l
1.40 -1.77 l
1.41 -1.62 l
1.41 -1.47 l
1.40 -1.34 l
1.41 -1.22 l
1.41 -1.10 l
1.41 -1.01 l
1.40 -0.92 l
1.41 -0.84 l
1.41 -0.76 l
1.40 -0.69 l
1.41 -0.63 l
1.41 -0.58 l
1.40 -0.52 l
1.41 -0.48 l
1.41 -0.43 l
1.41 -0.39 l
1.40 -0.36 l
1.41 -0.33 l
1.41 -0.30 l
1.40 -0.27 l
1.41 -0.24 l
1.41 -0.23 l
1.40 -0.20 l
1.41 -0.19 l
1.41 -0.17 l
1.41 -0.15 l
1.40 -0.14 l
1.41 -0.13 l
1.41 -0.12 l
1.40 -0.10 l
1.41 -0.10 l
1.41 -0.09 l
1.41 -0.08 l
1.40 -0.07 l
1.41 -0.06 l
1.41 -0.06 l
1.40 -0.06 l
1.41 -0.05 l
1.41 -0.04 l
1.40 -0.05 l
1.41 -0.03 l
1.41 -0.04 l
1.41 -0.03 l
1.40 -0.03 l
1.41 -0.02 l
1.41 -0.03 l
1.40 -0.02 l
1.41 -0.02 l
1.41 -0.01 l
1.40 -0.02 l
1.41 -0.02 l
1.41 -0.01 l
1.41 -0.01 l
1.40 -0.01 l
1.41 -0.01 l
1.41 -0.01 l
1.40 -0.01 l
1.41 -0.01 l
1.41 0 l
1.41 -0.01 l
1.40 -0.01 l
1.41 0 l
1.41 -0.01 l
1.40 0 l
1.41 0 l
1.41 -0.01 l
1.40 0 l
1.41 0 l
1.41 -0.01 l
1.41 0 l
1.40 0 l
1.41 0 l
1.41 -0.01 l
238.30 72.01 lineto
1.41 0 l
1.41 0 l
1.40 0 l
1.41 0 l
1.41 0 l
1.41 0 l
1.40 -0.01 l
1.41 0 l
1.41 0 l
1.40 0 l
1.41 0 l
1.41 0 l
1.40 0 l
1.41 0 l
1.41 0 l
1.41 0 l
1.40 0 l
1.41 0 l
1.41 0 l
1.40 0 l
1.41 0 l
1.41 0 l
1.41 0 l
1.40 0 l
1.41 0 l
1.41 0 l
1.40 0 l
1.41 0 l
1.41 0 l
1.40 0 l
1.41 0 l
1.41 0 l
1.41 0 l
1.40 0 l
1.41 0 l
1.41 0 l
1.40 0 l
1.41 0 l
1.41 0 l
1.40 0 l
1.41 0 l
1.41 0 l
1.41 0 l
1.40 0 l
1.41 0 l
1.41 0 l
1.40 0 l
1.41 0 l
1.41 0 l
1.41 0 l
1.40 0 l
1.41 0 l
1.41 0 l
1.40 0 l
1.41 0 l
1.41 0 l
1.40 0 l
1.41 0 l
1.41 0 l
1.41 0 l
1.40 0 l
1.41 0 l
1.41 0 l
1.40 0 l
1.41 0 l
1.41 0 l
1.40 0 l
1.41 0 l
1.41 0 l
1.41 0 l
1.40 0 l
1.41 0 l
1.41 0 l
1.40 0 l
1.41 0 l
1.41 0 l
1.41 0 l
1.40 0 l
1.41 0 l
1.41 0 l
1.40 0 l
1.41 0 l
1.41 0 l
1.40 0 l
1.41 0 l
1.41 0 l
1.41 0 l
1.40 0 l
1.41 0 l
1.41 0 l
1.40 0 l
1.41 0 l
1.41 0 l
1.40 0 l
1.41 0 l
1.41 0 l
1.41 0 l
1.40 0 l
1.41 0 l
o
0.00 0.00 432.00 576.00 cl
0 0 0 srgb
0.75 setlinewidth
[] 0 setdash
1 setlinecap
1 setlinejoin
10.00 setmiterlimit
np
97.60 57.60 m
280.00 0 l
o
np
97.60 57.60 m
0 -5.76 l
o
np
153.60 57.60 m
0 -5.76 l
o
np
209.60 57.60 m
0 -5.76 l
o
np
265.60 57.60 m
0 -5.76 l
o
np
321.60 57.60 m
0 -5.76 l
o
np
377.60 57.60 m
0 -5.76 l
o
/Font1 findfont 10 s
97.60 41.47 (0) .5 0 t
153.60 41.47 (100) .5 0 t
209.60 41.47 (200) .5 0 t
265.60 41.47 (300) .5 0 t
321.60 41.47 (400) .5 0 t
377.60 41.47 (500) .5 0 t
np
86.40 66.13 m
0 221.85 l
o
np
86.40 66.13 m
-5.76 0 l
o
np
86.40 121.59 m
-5.76 0 l
o
np
86.40 177.05 m
-5.76 0 l
o
np
86.40 232.51 m
-5.76 0 l
o
np
86.40 287.98 m
-5.76 0 l
o
79.49 62.54 (0.00) 1 0 t
79.49 118.00 (0.05) 1 0 t
79.49 173.46 (0.10) 1 0 t
79.49 228.92 (0.15) 1 0 t
79.49 284.39 (0.20) 1 0 t
np
86.40 57.60 m
302.40 0 l
0 230.40 l
-302.40 0 l
0 -230.40 l
o
0.00 0.00 432.00 576.00 cl
/Font1 findfont 10 s
0 0 0 srgb
237.60 13.82 (Zeit / ms \(nach Puls\)) .5 0 t
49.54 172.80 (Absorbanz A) .5 90 t
86.40 57.60 388.80 288.00 cl
/bg { 1 1 1 srgb } def
0 0 0 srgb
0.75 setlinewidth
[] 0 setdash
1 setlinecap
1 setlinejoin
10.00 setmiterlimit
102.92 215.83 0.65 c p3
103.20 216.38 0.65 c p3
103.48 214.39 0.65 c p3
103.76 211.85 0.65 c p3
104.04 206.05 0.65 c p3
104.32 206.49 0.65 c p3
104.60 204.10 0.65 c p3
104.88 199.68 0.65 c p3
105.16 198.28 0.65 c p3
105.44 195.83 0.65 c p3
105.72 190.11 0.65 c p3
106.00 187.81 0.65 c p3
106.28 184.99 0.65 c p3
106.56 182.18 0.65 c p3
106.84 179.40 0.65 c p3
107.12 181.25 0.65 c p3
107.40 179.91 0.65 c p3
107.68 176.63 0.65 c p3
107.96 177.14 0.65 c p3
108.24 175.30 0.65 c p3
108.52 172.05 0.65 c p3
108.80 168.51 0.65 c p3
109.08 168.01 0.65 c p3
109.36 168.01 0.65 c p3
109.64 166.20 0.65 c p3
109.92 160.83 0.65 c p3
110.20 161.72 0.65 c p3
110.48 160.83 0.65 c p3
110.76 158.16 0.65 c p3
111.04 156.00 0.65 c p3
111.32 154.24 0.65 c p3
111.60 154.63 0.65 c p3
111.88 150.74 0.65 c p3
112.16 150.74 0.65 c p3
112.44 150.25 0.65 c p3
112.72 148.61 0.65 c p3
113.00 148.61 0.65 c p3
113.28 143.81 0.65 c p3
113.56 144.67 0.65 c p3
113.84 139.15 0.65 c p3
114.12 140.86 0.65 c p3
114.40 140.00 0.65 c p3
114.68 141.71 0.65 c p3
114.96 136.98 0.65 c p3
115.24 136.13 0.65 c p3
115.52 135.75 0.65 c p3
115.80 133.60 0.65 c p3
116.08 131.17 0.65 c p3
116.36 130.33 0.65 c p3
116.64 129.50 0.65 c p3
116.92 128.20 0.65 c p3
117.20 129.03 0.65 c p3
117.48 126.54 0.65 c p3
117.76 126.54 0.65 c p3
118.04 125.34 0.65 c p3
118.32 122.41 0.65 c p3
118.60 122.86 0.65 c p3
118.88 122.41 0.65 c p3
119.16 119.13 0.65 c p3
119.44 120.77 0.65 c p3
119.72 120.40 0.65 c p3
120.00 119.58 0.65 c p3
120.28 116.68 0.65 c p3
120.56 116.68 0.65 c p3
120.84 115.87 0.65 c p3
121.12 114.25 0.65 c p3
121.40 115.51 0.65 c p3
121.68 111.92 0.65 c p3
121.96 113.89 0.65 c p3
122.24 112.28 0.65 c p3
122.52 112.73 0.65 c p3
122.80 111.47 0.65 c p3
123.08 108.27 0.65 c p3
123.36 107.47 0.65 c p3
123.64 109.07 0.65 c p3
123.92 109.51 0.65 c p3
124.20 110.31 0.65 c p3
124.48 107.91 0.65 c p3
124.76 108.71 0.65 c p3
125.04 107.47 0.65 c p3
125.32 103.15 0.65 c p3
125.60 104.29 0.65 c p3
125.88 101.92 0.65 c p3
126.16 102.36 0.65 c p3
126.44 103.15 0.65 c p3
126.72 102.36 0.65 c p3
127.00 99.99 0.65 c p3
127.28 100.78 0.65 c p3
127.56 99.56 0.65 c p3
127.84 99.99 0.65 c p3
128.12 98.43 0.65 c p3
128.40 97.99 0.65 c p3
128.68 97.64 0.65 c p3
128.96 98.43 0.65 c p3
129.24 97.21 0.65 c p3
129.52 96.86 0.65 c p3
129.80 97.64 0.65 c p3
130.08 96.52 0.65 c p3
130.36 94.96 0.65 c p3
130.64 92.20 0.65 c p3
130.92 94.18 0.65 c p3
131.20 92.98 0.65 c p3
131.48 91.09 0.65 c p3
131.76 92.63 0.65 c p3
132.04 92.98 0.65 c p3
132.32 91.43 0.65 c p3
132.60 88.78 0.65 c p3
132.88 90.32 0.65 c p3
133.16 92.20 0.65 c p3
133.44 89.89 0.65 c p3
133.72 89.55 0.65 c p3
134.00 90.66 0.65 c p3
134.28 90.66 0.65 c p3
134.56 89.55 0.65 c p3
134.84 91.43 0.65 c p3
135.12 89.55 0.65 c p3
135.40 91.43 0.65 c p3
135.68 88.36 0.65 c p3
135.96 89.12 0.65 c p3
136.24 88.78 0.65 c p3
136.52 87.59 0.65 c p3
136.80 85.72 0.65 c p3
137.08 87.25 0.65 c p3
137.36 86.06 0.65 c p3
137.64 85.30 0.65 c p3
137.92 85.30 0.65 c p3
138.20 83.78 0.65 c p3
138.48 84.54 0.65 c p3
138.76 85.30 0.65 c p3
139.04 84.20 0.65 c p3
139.32 84.20 0.65 c p3
139.60 84.54 0.65 c p3
139.88 83.78 0.65 c p3
140.16 84.20 0.65 c p3
140.44 84.96 0.65 c p3
140.72 84.20 0.65 c p3
141.00 83.44 0.65 c p3
141.28 82.68 0.65 c p3
141.56 83.02 0.65 c p3
141.84 81.51 0.65 c p3
142.12 81.51 0.65 c p3
142.40 81.51 0.65 c p3
142.68 81.51 0.65 c p3
142.96 80.84 0.65 c p3
143.24 80.42 0.65 c p3
143.52 79.66 0.65 c p3
143.80 80.84 0.65 c p3
144.08 81.17 0.65 c p3
144.36 81.51 0.65 c p3
144.64 81.51 0.65 c p3
144.92 82.26 0.65 c p3
145.20 81.17 0.65 c p3
145.48 81.17 0.65 c p3
145.76 79.66 0.65 c p3
146.04 81.17 0.65 c p3
146.32 80.42 0.65 c p3
146.60 80.42 0.65 c p3
146.88 80.42 0.65 c p3
147.16 78.16 0.65 c p3
147.44 77.41 0.65 c p3
147.72 79.66 0.65 c p3
148.00 79.66 0.65 c p3
148.28 78.91 0.65 c p3
148.56 77.83 0.65 c p3
148.84 80.42 0.65 c p3
149.12 78.58 0.65 c p3
149.40 80.08 0.65 c p3
149.68 78.58 0.65 c p3
149.96 78.91 0.65 c p3
150.24 77.08 0.65 c p3
150.52 77.83 0.65 c p3
150.80 78.91 0.65 c p3
151.08 78.58 0.65 c p3
151.36 77.83 0.65 c p3
151.64 78.58 0.65 c p3
151.92 77.83 0.65 c p3
152.20 76.33 0.65 c p3
152.48 77.41 0.65 c p3
152.76 76.66 0.65 c p3
153.04 73.35 0.65 c p3
153.32 76.33 0.65 c p3
153.60 77.08 0.65 c p3
153.88 75.58 0.65 c p3
154.16 75.91 0.65 c p3
154.44 76.66 0.65 c p3
154.72 75.17 0.65 c p3
155.00 74.42 0.65 c p3
155.28 77.41 0.65 c p3
155.56 76.66 0.65 c p3
155.84 77.83 0.65 c p3
156.12 76.66 0.65 c p3
156.40 78.16 0.65 c p3
156.68 78.58 0.65 c p3
156.96 75.58 0.65 c p3
157.24 76.66 0.65 c p3
157.52 75.58 0.65 c p3
157.80 75.58 0.65 c p3
158.08 74.84 0.65 c p3
158.36 75.17 0.65 c p3
158.64 75.91 0.65 c p3
158.92 75.91 0.65 c p3
159.20 76.66 0.65 c p3
159.48 76.33 0.65 c p3
159.76 76.33 0.65 c p3
160.04 77.08 0.65 c p3
160.32 76.33 0.65 c p3
160.60 74.84 0.65 c p3
160.88 77.08 0.65 c p3
161.16 75.17 0.65 c p3
161.44 75.17 0.65 c p3
161.72 74.42 0.65 c p3
162.00 72.60 0.65 c p3
162.28 72.93 0.65 c p3
162.56 73.35 0.65 c p3
162.84 74.09 0.65 c p3
163.12 74.09 0.65 c p3
163.40 73.68 0.65 c p3
163.68 74.84 0.65 c p3
163.96 74.09 0.65 c p3
164.24 72.93 0.65 c p3
164.52 75.17 0.65 c p3
164.80 75.17 0.65 c p3
165.08 75.58 0.65 c p3
165.36 75.58 0.65 c p3
165.64 75.58 0.65 c p3
165.92 74.42 0.65 c p3
166.20 73.68 0.65 c p3
166.48 72.93 0.65 c p3
166.76 73.35 0.65 c p3
167.04 73.68 0.65 c p3
167.32 74.42 0.65 c p3
167.60 73.68 0.65 c p3
167.88 74.84 0.65 c p3
168.16 74.09 0.65 c p3
216.00 201.60 367.20 247.68 cl
0 0 0 srgb
0.75 setlinewidth
[] 0 setdash
1 setlinecap
1 setlinejoin
10.00 setmiterlimit
221.60 219.67 0.43 c p1
222.20 229.96 0.43 c p1
222.80 232.02 0.43 c p1
223.40 232.20 0.43 c p1
224.00 221.91 0.43 c p1
224.60 231.21 0.43 c p1
225.21 231.41 0.43 c p1
225.81 225.05 0.43 c p1
226.41 228.12 0.43 c p1
227.01 227.70 0.43 c p1
227.61 216.81 0.43 c p1
228.21 216.58 0.43 c p1
228.81 214.60 0.43 c p1
229.41 212.55 0.43 c p1
230.01 210.42 0.43 c p1
230.61 222.86 0.43 c p1
231.21 225.06 0.43 c p1
231.81 220.99 0.43 c p1
232.42 228.81 0.43 c p1
233.02 229.08 0.43 c p1
233.62 224.76 0.43 c p1
234.22 219.44 0.43 c p1
234.82 223.61 0.43 c p1
235.42 229.27 0.43 c p1
236.02 229.10 0.43 c p1
236.62 217.53 0.43 c p1
237.22 225.70 0.43 c p1
237.82 228.12 0.43 c p1
238.42 224.83 0.43 c p1
239.02 223.04 0.43 c p1
239.63 222.42 0.43 c p1
240.23 228.53 0.43 c p1
240.83 220.98 0.43 c p1
241.43 225.67 0.43 c p1
242.03 228.74 0.43 c p1
242.63 228.05 0.43 c p1
243.23 232.48 0.43 c p1
243.83 221.63 0.43 c p1
244.43 228.63 0.43 c p1
245.03 215.34 0.43 c p1
245.63 224.85 0.43 c p1
246.24 226.19 0.43 c p1
246.84 235.56 0.43 c p1
247.44 224.46 0.43 c p1
248.04 225.60 0.43 c p1
248.64 228.15 0.43 c p1
249.24 225.00 0.43 c p1
249.84 220.93 0.43 c p1
250.44 221.82 0.43 c p1
251.04 222.65 0.43 c p1
251.64 221.96 0.43 c p1
252.24 227.94 0.43 c p1
252.84 223.33 0.43 c p1
253.45 226.55 0.43 c p1
254.05 225.93 0.43 c p1
254.65 219.75 0.43 c p1
255.25 224.24 0.43 c p1
255.85 225.79 0.43 c p1
256.45 218.34 0.43 c p1
257.05 226.41 0.43 c p1
257.65 228.08 0.43 c p1
258.25 228.27 0.43 c p1
258.85 221.81 0.43 c p1
259.45 224.49 0.43 c p1
260.05 224.54 0.43 c p1
260.66 221.99 0.43 c p1
261.26 228.51 0.43 c p1
261.86 219.62 0.43 c p1
262.46 228.30 0.43 c p1
263.06 225.58 0.43 c p1
263.66 229.35 0.43 c p1
264.26 227.68 0.43 c p1
264.86 219.79 0.43 c p1
265.46 219.48 0.43 c p1
266.06 226.72 0.43 c p1
266.66 230.26 0.43 c p1
267.27 234.90 0.43 c p1
267.87 229.36 0.43 c p1
268.47 233.91 0.43 c p1
269.07 231.96 0.43 c p1
269.67 220.22 0.43 c p1
270.27 225.75 0.43 c p1
270.87 220.11 0.43 c p1
271.47 223.34 0.43 c p1
272.07 227.65 0.43 c p1
272.67 226.92 0.43 c p1
273.27 221.18 0.43 c p1
273.87 225.38 0.43 c p1
274.48 223.18 0.43 c p1
275.08 226.21 0.43 c p1
275.68 222.86 0.43 c p1
276.28 223.07 0.43 c p1
276.88 223.52 0.43 c p1
277.48 227.52 0.43 c p1
278.08 225.17 0.43 c p1
278.68 225.54 0.43 c p1
279.28 229.46 0.43 c p1
279.88 227.30 0.43 c p1
280.48 223.76 0.43 c p1
281.08 216.40 0.43 c p1
281.69 224.01 0.43 c p1
282.29 221.50 0.43 c p1
282.89 216.82 0.43 c p1
283.49 222.97 0.43 c p1
284.09 225.30 0.43 c p1
284.69 221.63 0.43 c p1
285.29 214.43 0.43 c p1
285.89 220.48 0.43 c p1
286.49 227.60 0.43 c p1
287.09 221.41 0.43 c p1
287.69 221.44 0.43 c p1
288.30 226.04 0.43 c p1
288.90 227.11 0.43 c p1
289.50 224.64 0.43 c p1
290.10 231.63 0.43 c p1
290.70 226.69 0.43 c p1
291.30 233.64 0.43 c p1
291.90 224.87 0.43 c p1
292.50 228.26 0.43 c p1
293.10 228.11 0.43 c p1
293.70 225.26 0.43 c p1
294.30 220.25 0.43 c p1
294.90 225.98 0.43 c p1
295.51 223.08 0.43 c p1
296.11 221.52 0.43 c p1
296.71 222.36 0.43 c p1
297.31 218.37 0.43 c p1
297.91 221.58 0.43 c p1
298.51 224.79 0.43 c p1
299.11 222.09 0.43 c p1
299.71 222.85 0.43 c p1
300.31 224.67 0.43 c p1
300.91 223.00 0.43 c p1
301.51 225.06 0.43 c p1
302.12 228.17 0.43 c p1
302.72 226.46 0.43 c p1
303.32 224.74 0.43 c p1
303.92 223.01 0.43 c p1
304.52 224.73 0.43 c p1
305.12 220.58 0.43 c p1
305.72 221.22 0.43 c p1
306.32 221.84 0.43 c p1
306.92 222.45 0.43 c p1
307.52 220.92 0.43 c p1
308.12 220.18 0.43 c p1
308.72 218.37 0.43 c p1
309.33 222.65 0.43 c p1
309.93 224.27 0.43 c p1
310.53 225.88 0.43 c p1
311.13 226.41 0.43 c p1
311.73 229.34 0.43 c p1
312.33 226.39 0.43 c p1
312.93 226.90 0.43 c p1
313.53 222.62 0.43 c p1
314.13 227.88 0.43 c p1
314.73 225.97 0.43 c p1
315.33 226.44 0.43 c p1
315.93 226.90 0.43 c p1
316.54 220.21 0.43 c p1
317.14 218.28 0.43 c p1
317.74 225.85 0.43 c p1
318.34 226.28 0.43 c p1
318.94 224.31 0.43 c p1
319.54 221.29 0.43 c p1
320.14 229.90 0.43 c p1
320.74 224.47 0.43 c p1
321.34 229.62 0.43 c p1
321.94 225.24 0.43 c p1
322.54 226.67 0.43 c p1
323.15 221.24 0.43 c p1
323.75 223.97 0.43 c p1
324.35 227.76 0.43 c p1
324.95 227.05 0.43 c p1
325.55 225.01 0.43 c p1
326.15 227.72 0.43 c p1
326.75 225.68 0.43 c p1
327.35 221.26 0.43 c p1
327.95 225.00 0.43 c p1
328.55 222.94 0.43 c p1
329.15 212.75 0.43 c p1
329.75 222.49 0.43 c p1
330.36 225.16 0.43 c p1
330.96 220.71 0.43 c p1
331.56 222.04 0.43 c p1
332.16 224.69 0.43 c p1
332.76 220.23 0.43 c p1
333.36 218.14 0.43 c p1
333.96 227.86 0.43 c p1
334.56 225.75 0.43 c p1
335.16 229.69 0.43 c p1
335.76 226.25 0.43 c p1
336.36 231.24 0.43 c p1
336.96 232.80 0.43 c p1
337.57 223.55 0.43 c p1
338.17 227.20 0.43 c p1
338.77 224.01 0.43 c p1
339.37 224.23 0.43 c p1
339.97 222.09 0.43 c p1
340.57 223.35 0.43 c p1
341.17 225.92 0.43 c p1
341.77 226.13 0.43 c p1
342.37 228.70 0.43 c p1
342.97 227.85 0.43 c p1
343.57 228.04 0.43 c p1
344.18 230.60 0.43 c p1
344.78 228.42 0.43 c p1
345.38 223.88 0.43 c p1
345.98 231.15 0.43 c p1
346.58 225.28 0.43 c p1
347.18 225.46 0.43 c p1
347.78 223.27 0.43 c p1
348.38 217.68 0.43 c p1
348.98 218.89 0.43 c p1
349.58 220.36 0.43 c p1
350.18 222.87 0.43 c p1
350.78 223.03 0.43 c p1
351.39 221.87 0.43 c p1
351.99 225.69 0.43 c p1
352.59 223.48 0.43 c p1
353.19 219.96 0.43 c p1
353.79 227.17 0.43 c p1
354.39 227.31 0.43 c p1
354.99 228.76 0.43 c p1
355.59 228.90 0.43 c p1
356.19 229.03 0.43 c p1
356.79 225.48 0.43 c p1
357.39 223.26 0.43 c p1
357.99 221.03 0.43 c p1
358.60 222.46 0.43 c p1
359.20 223.62 0.43 c p1
359.80 226.09 0.43 c p1
360.40 223.85 0.43 c p1
361.00 227.63 0.43 c p1
361.60 225.39 0.43 c p1
0.00 0.00 432.00 576.00 cl
0 0 0 srgb
0.75 setlinewidth
[] 0 setdash
1 setlinecap
1 setlinejoin
10.00 setmiterlimit
np
234.22 201.60 m
120.17 0 l
o
np
234.22 201.60 m
0 -5.76 l
o
np
258.25 201.60 m
0 -5.76 l
o
np
282.29 201.60 m
0 -5.76 l
o
np
306.32 201.60 m
0 -5.76 l
o
np
330.36 201.60 m
0 -5.76 l
o
np
354.39 201.60 m
0 -5.76 l
o
/Font1 findfont 6 s
234.22 185.47 (20) .5 0 t
258.25 185.47 (40) .5 0 t
282.29 185.47 (60) .5 0 t
306.32 185.47 (80) .5 0 t
330.36 185.47 (100) .5 0 t
354.39 185.47 (120) .5 0 t
np
216.00 203.57 m
0 42.14 l
o
np
216.00 203.57 m
-5.76 0 l
o
np
216.00 210.59 m
-5.76 0 l
o
np
216.00 217.62 m
-5.76 0 l
o
np
216.00 224.64 m
-5.76 0 l
o
np
216.00 231.66 m
-5.76 0 l
o
np
216.00 238.69 m
-5.76 0 l
o
np
216.00 245.71 m
-5.76 0 l
o
209.09 201.41 (-0.006) 1 0 t
209.09 208.44 (-0.004) 1 0 t
209.09 215.46 (-0.002) 1 0 t
209.09 222.49 (0.000) 1 0 t
209.09 229.51 (0.002) 1 0 t
209.09 236.53 (0.004) 1 0 t
209.09 243.56 (0.006) 1 0 t
np
216.00 201.60 m
151.20 0 l
0 46.08 l
-151.20 0 l
0 -46.08 l
o
0.00 0.00 432.00 576.00 cl
/Font1 findfont 9 s
0 0 0 srgb
291.60 262.88 (Residuen) .5 0 t
59.04 73.44 401.76 516.96 cl
ep
%%Trailer
%%Pages: 1
%%EOF
