%!PS-Adobe-3.0 EPSF-3.0
%%DocumentNeededResources: font Helvetica
%%+ font Helvetica-Bold
%%+ font Helvetica-Oblique
%%+ font Helvetica-BoldOblique
%%+ font Symbol
%%Title: R Graphics Output
%%Creator: R Software
%%Pages: (atend)
%%BoundingBox: 0 0 432 576
%%EndComments
%%BeginProlog
/bp  { gs sRGB gs } def
% begin .ps.prolog
/gs  { gsave } bind def
/gr  { grestore } bind def
/ep  { showpage gr gr } bind def
/m   { moveto } bind def
/l  { rlineto } bind def
/np  { newpath } bind def
/cp  { closepath } bind def
/f   { fill } bind def
/o   { stroke } bind def
/c   { newpath 0 360 arc } bind def
/r   { 4 2 roll moveto 1 copy 3 -1 roll exch 0 exch rlineto 0 rlineto -1 mul 0 exch rlineto closepath } bind def
/p1  { stroke } bind def
/p2  { gsave bg fill grestore newpath } bind def
/p3  { gsave bg fill grestore stroke } bind def
/p6  { gsave bg eofill grestore newpath } bind def
/p7  { gsave bg eofill grestore stroke } bind def
/t   { 5 -2 roll moveto gsave rotate
       1 index stringwidth pop
       mul neg 0 rmoveto show grestore } bind def
/ta  { 4 -2 roll moveto gsave rotate show } bind def
/tb  { 2 -1 roll 0 rmoveto show } bind def
/cl  { grestore gsave newpath 3 index 3 index moveto 1 index
       4 -1 roll lineto  exch 1 index lineto lineto
       closepath clip newpath } bind def
/rgb { setrgbcolor } bind def
/s   { scalefont setfont } bind def
% end   .ps.prolog
/sRGB { [ /CIEBasedABC
          << /DecodeLMN
               [ { dup 0.03928 le
                        {12.92321 div}
                        {0.055 add 1.055 div 2.4 exp }
                     ifelse
                 } bind dup dup
               ]
             /MatrixLMN [0.412457 0.212673 0.019334
                         0.357576 0.715152 0.119192
                         0.180437 0.072175 0.950301]
             /WhitePoint [0.9505 1.0 1.0890]
           >>
         ] setcolorspace } bind def
/srgb { setcolor } bind def
%%IncludeResource: font Helvetica
/Helvetica findfont
dup length dict begin
  {1 index /FID ne {def} {pop pop} ifelse} forall
  /Encoding ISOLatin1Encoding def
  currentdict
  end
/Font1 exch definefont pop
%%IncludeResource: font Helvetica-Bold
/Helvetica-Bold findfont
dup length dict begin
  {1 index /FID ne {def} {pop pop} ifelse} forall
  /Encoding ISOLatin1Encoding def
  currentdict
  end
/Font2 exch definefont pop
%%IncludeResource: font Helvetica-Oblique
/Helvetica-Oblique findfont
dup length dict begin
  {1 index /FID ne {def} {pop pop} ifelse} forall
  /Encoding ISOLatin1Encoding def
  currentdict
  end
/Font3 exch definefont pop
%%IncludeResource: font Helvetica-BoldOblique
/Helvetica-BoldOblique findfont
dup length dict begin
  {1 index /FID ne {def} {pop pop} ifelse} forall
  /Encoding ISOLatin1Encoding def
  currentdict
  end
/Font4 exch definefont pop
%%IncludeResource: font Symbol
/Symbol findfont
dup length dict begin
  {1 index /FID ne {def} {pop pop} ifelse} forall
  currentdict
  end
/Font5 exch definefont pop
%%EndProlog
%%Page: 1 1
bp
0.00 0.00 432.00 576.00 cl
0.00 0.00 432.00 576.00 cl
0.00 0.00 432.00 576.00 cl
/Font1 findfont 12 s
0 0 0 srgb
48.00 508.72 (PCP-ETH) 0 0 t
48.00 494.89 (Blitzlicht-Photolyse) 0 0 t
/Font1 findfont 9 s
48.00 457.54 (File: Dy) 0 ta
-0.180 (e_1_4_V1_900V) tb
-1.125 (.dat) tb gr
48.00 334.87 (T) 0 ta
-1.080 (ue Apr  9 22:09:03 2019) tb gr
48.00 430.87 (Fitfunktion:  a + b * e) 0 ta
-0.270 (xp\(-c * t\)) tb gr
48.00 420.50 (t-Inter) 0 ta
0.270 (v) tb
-0.225 (all: 200.000 ... 5060.000 ms) tb gr
48.00 410.14 (P) 0 ta
-0.360 (ar) tb
-0.090 (ameter \(Standardabw) tb
-0.090 (eichung\):) tb gr
48.00 399.77 (  a = -0.00326 \(0.00047\)) 0 0 t
48.00 389.40 (  b = 0.40415 \(0.00220\)) 0 0 t
48.00 379.03 (  c = 1.198e+00 \(9.798e-03\) s^-1) 0 0 t
48.00 368.66 (  tau = 8.345e-01 \(6.824e-03\) s) 0 0 t
216.00 345.60 388.80 518.40 cl
0 0 0 srgb
0.75 setlinewidth
[] 0 setdash
1 setlinecap
1 setlinejoin
10.00 setmiterlimit
np
222.40 508.63 m
0.15 -0.52 l
0.14 0.21 l
0.15 -0.51 l
0.14 0.51 l
0.15 0.11 l
0.14 0.29 l
0.15 -0.70 l
0.14 0 l
0.15 0.61 l
0.15 -0.31 l
0.14 -0.21 l
0.15 0.21 l
0.14 0.20 l
0.15 -0.41 l
0.14 0.21 l
0.15 0 l
0.14 -0.21 l
0.15 0 l
0.15 -0.30 l
0.14 0.30 l
0.15 0.11 l
0.14 0.30 l
0.15 -0.20 l
0.14 -0.10 l
0.15 0.30 l
0.15 0.20 l
0.14 -0.70 l
0.15 0.20 l
0.14 -0.20 l
0.15 0.20 l
0.14 -0.11 l
0.15 0.61 l
0.14 -0.29 l
0.15 0.09 l
0.15 -0.30 l
0.14 0.21 l
0.15 -0.32 l
0.14 0.21 l
0.15 -0.30 l
0.14 0.50 l
0.15 -0.50 l
0.14 0.41 l
0.15 -0.73 l
0.15 0.93 l
0.14 -0.20 l
0.15 0.20 l
0.14 0 l
0.15 0.19 l
0.14 -0.50 l
0.15 0 l
0.14 -0.10 l
0.15 0.21 l
0.15 -0.32 l
0.14 0 l
0.15 0 l
0.14 0.21 l
0.15 -0.21 l
0.14 0.52 l
0.15 -0.82 l
0.15 0.30 l
0.14 0 l
0.15 0.11 l
0.14 -0.41 l
0.15 1.01 l
0.14 -0.60 l
0.15 -0.11 l
0.14 0.41 l
0.15 0.41 l
0.15 -0.71 l
0.14 0.41 l
0.15 -0.31 l
0.14 0.40 l
0.15 -0.40 l
0.14 0.20 l
0.15 -0.61 l
0.14 0.41 l
0.15 0.20 l
0.15 0.41 l
0.14 -0.82 l
0.15 0.41 l
0.14 -0.20 l
0.15 0.50 l
0.14 -0.60 l
0.15 0.41 l
0.14 -0.52 l
0.15 0.61 l
0.15 -0.40 l
0.14 0.31 l
0.15 -0.82 l
0.14 0.91 l
0.15 -0.40 l
0.14 0.20 l
0.15 -0.41 l
0.15 0.11 l
0.14 0 l
0.15 -0.20 l
0.14 0.09 l
0.15 -0.09 l
0.14 0.20 l
236.96 393.56 lineto
0.14 2.24 l
0.15 1.94 l
0.15 1.44 l
0.14 1.73 l
0.15 1.22 l
0.14 2.67 l
0.15 0.90 l
0.14 1.64 l
0.15 1.53 l
0.14 1.84 l
0.15 1.64 l
0.15 1.02 l
0.14 1.32 l
0.15 1.14 l
0.14 1.52 l
0.15 0.82 l
0.14 1.73 l
0.15 0.41 l
0.14 1.73 l
0.15 0.82 l
0.15 1.22 l
0.14 1.35 l
0.15 0.70 l
0.14 1.43 l
0.15 0.10 l
0.14 2.25 l
0.15 0.41 l
0.15 1.02 l
0.14 0.91 l
0.15 0.41 l
0.14 1.64 l
0.15 0.20 l
0.14 1.12 l
0.15 1.02 l
0.14 0.93 l
0.15 1.44 l
0.15 0.09 l
0.14 0.50 l
0.15 1.43 l
0.14 0.41 l
0.15 1.43 l
0.14 0 l
0.15 0.91 l
0.14 0.94 l
0.15 0.09 l
0.15 1.63 l
0.14 0.73 l
0.15 0.30 l
0.14 0.50 l
0.15 0.61 l
0.14 1.34 l
0.15 -0.20 l
0.14 1.11 l
0.15 0.41 l
0.15 0.82 l
0.14 1.03 l
0.15 -0.32 l
0.14 0.93 l
0.15 0.50 l
0.14 1.55 l
0.15 -0.32 l
0.15 1.11 l
0.14 0.21 l
0.15 0 l
0.14 1.55 l
0.15 0.20 l
0.14 0.61 l
0.15 0.50 l
0.14 0.53 l
0.15 0.91 l
0.15 0.50 l
0.14 0 l
0.15 0.41 l
0.14 0.61 l
0.15 0.12 l
0.14 1.31 l
0.15 -0.09 l
0.14 0.50 l
0.15 0.12 l
0.15 1.11 l
0.14 -0.41 l
0.15 0.91 l
0.14 0.21 l
0.15 0.32 l
0.14 0.81 l
0.15 0.30 l
0.14 0.61 l
0.15 -0.50 l
0.15 1.03 l
0.14 0.50 l
0.15 0 l
0.14 0.50 l
0.15 0.41 l
0.14 1.02 l
0.15 -0.70 l
0.15 0.09 l
0.14 1.34 l
0.15 -0.32 l
0.14 0.32 l
251.52 472.69 lineto
0.14 0.21 l
0.15 0.70 l
0.14 0.41 l
0.15 0 l
0.15 0.30 l
0.14 1.02 l
0.15 0 l
0.14 0.41 l
0.15 0.12 l
0.14 0.40 l
0.15 0.10 l
0.14 0.61 l
0.15 0.61 l
0.15 -0.61 l
0.14 0.52 l
0.15 0.82 l
0.14 0 l
0.15 -0.11 l
0.14 0.61 l
0.15 0.30 l
0.14 0 l
0.15 0.32 l
0.15 0.61 l
0.14 -0.32 l
0.15 0.53 l
0.14 0.29 l
0.15 0 l
0.14 0.21 l
0.15 0.61 l
0.14 0.52 l
0.15 -0.52 l
0.15 1.52 l
0.14 -0.70 l
0.15 0.32 l
0.14 0.38 l
0.15 0.12 l
0.14 0.41 l
0.15 0.50 l
0.15 -0.21 l
0.14 0.73 l
0.15 -0.20 l
0.14 0.50 l
0.15 0.11 l
0.14 0.41 l
0.15 -0.11 l
0.14 0.41 l
0.15 0.11 l
0.15 0.50 l
0.14 0.20 l
0.15 -0.50 l
0.14 0.50 l
0.15 0.41 l
0.14 0 l
0.15 0.41 l
0.14 -0.20 l
0.15 0.09 l
0.15 1.02 l
0.14 -0.20 l
0.15 -0.21 l
0.14 0.32 l
0.15 0.09 l
0.14 0.41 l
0.15 0.32 l
0.14 -0.11 l
0.15 0.32 l
0.15 0.91 l
0.14 -0.21 l
0.15 0.11 l
0.14 0.21 l
0.15 -0.11 l
0.14 0.31 l
0.15 0.10 l
0.15 -0.10 l
0.14 0.30 l
0.15 0.52 l
0.14 -0.32 l
0.15 0.62 l
0.14 -0.09 l
0.15 0.18 l
0.14 0 l
0.15 0 l
0.15 0.11 l
0.14 0.62 l
0.15 -0.12 l
0.14 0.41 l
0.15 -0.29 l
0.14 0.61 l
0.15 0 l
0.14 0 l
0.15 0.41 l
0.15 0.09 l
0.14 0 l
0.15 -0.20 l
0.14 0.32 l
0.15 0.50 l
0.14 -0.30 l
0.15 0.71 l
0.14 -0.10 l
0.15 0.30 l
266.08 494.64 lineto
0.14 0.21 l
0.15 0.41 l
0.14 0 l
0.15 0.09 l
0.14 0.11 l
0.15 -0.20 l
0.15 0.41 l
0.14 0.38 l
0.15 0 l
0.14 0.32 l
0.15 -0.11 l
0.14 -0.30 l
0.15 0.62 l
0.14 0.41 l
0.15 0 l
0.15 0.09 l
0.14 -0.09 l
0.15 -0.32 l
0.14 0.20 l
0.15 0.41 l
0.14 0.53 l
0.15 -0.21 l
0.14 -0.11 l
0.15 0.20 l
0.15 0.21 l
0.14 0.32 l
0.15 -0.21 l
0.14 0.09 l
0.15 0.12 l
0.14 0.09 l
0.15 0 l
0.14 0.93 l
0.15 -0.52 l
0.15 -0.10 l
0.14 0 l
0.15 0.10 l
0.14 0.31 l
0.15 0.21 l
0.14 0.09 l
0.15 0.20 l
0.15 -0.29 l
0.14 0.50 l
0.15 0.32 l
0.14 -0.21 l
0.15 0.39 l
0.14 0.20 l
0.15 -0.09 l
0.14 -0.20 l
0.15 -0.09 l
0.15 0.29 l
0.14 0.41 l
0.15 0.41 l
0.14 -0.52 l
0.15 0.20 l
0.14 0 l
0.15 -0.09 l
0.14 0.62 l
0.15 0.09 l
0.15 -0.30 l
0.14 0.41 l
0.15 -0.41 l
0.14 -0.11 l
0.15 1.02 l
0.14 -0.09 l
0.15 -0.20 l
0.14 0.09 l
0.15 0.41 l
0.15 -0.09 l
0.14 -0.41 l
0.15 0.82 l
0.14 -0.21 l
0.15 0.30 l
0.14 0 l
0.15 -0.09 l
0.15 0.20 l
0.14 0 l
0.15 0.30 l
0.14 -0.21 l
0.15 0.41 l
0.14 -0.20 l
0.15 0 l
0.14 0.11 l
0.15 0.20 l
0.15 0 l
0.14 -0.20 l
0.15 0.70 l
0.14 -0.09 l
0.15 0.21 l
0.14 -0.41 l
0.15 0.41 l
0.14 -0.32 l
0.15 0.11 l
0.15 0.30 l
0.14 0 l
0.15 -0.09 l
0.14 0.29 l
0.15 -0.09 l
0.14 0.09 l
0.15 0.12 l
280.63 504.33 lineto
0.15 0 l
0.15 0.30 l
0.14 0.32 l
0.15 -0.12 l
0.14 -0.50 l
0.15 0.21 l
0.14 0.61 l
0.15 0.41 l
0.15 -0.41 l
0.14 -0.70 l
0.15 0.79 l
0.14 0.41 l
0.15 -0.41 l
0.14 -0.61 l
0.15 0.73 l
0.14 0.29 l
0.15 -0.09 l
0.15 0.09 l
0.14 0 l
0.15 -0.09 l
0.14 0.50 l
0.15 -0.09 l
0.14 -0.20 l
0.15 0.09 l
0.14 0.61 l
0.15 -0.41 l
0.15 -0.29 l
0.14 0.20 l
0.15 0.71 l
0.14 -0.82 l
0.15 0.82 l
0.14 -0.30 l
0.15 0.21 l
0.14 0.29 l
0.15 -0.20 l
0.15 0.20 l
0.14 -0.29 l
0.15 0.29 l
0.14 0.21 l
0.15 -0.41 l
0.14 0.32 l
0.15 0 l
0.14 0 l
0.15 0.29 l
0.15 0.21 l
0.14 -0.09 l
0.15 0.20 l
0.14 -0.32 l
0.15 0 l
0.14 0.32 l
0.15 0 l
0.15 0.09 l
0.14 -0.29 l
0.15 0.29 l
0.14 -0.29 l
0.15 0.20 l
0.14 -0.11 l
0.15 0.11 l
0.14 -0.11 l
0.15 0.31 l
0.15 0.30 l
0.14 -0.30 l
0.15 0.21 l
0.14 0.09 l
0.15 -0.41 l
0.14 0.62 l
0.15 0.11 l
0.14 0.20 l
0.15 -0.52 l
0.15 0.11 l
0.14 0.10 l
0.15 -0.30 l
0.14 -0.11 l
0.15 0.72 l
0.14 -0.31 l
0.15 0.11 l
0.14 -0.11 l
0.15 0.20 l
0.15 0.11 l
0.14 0.19 l
0.15 0.20 l
0.14 -0.30 l
0.15 0 l
0.14 0.10 l
0.15 0 l
0.15 0 l
0.14 0.11 l
0.15 0.20 l
0.14 -0.31 l
0.15 0.61 l
0.14 -0.50 l
0.15 0.29 l
0.14 -0.29 l
0.15 -0.21 l
0.15 0.21 l
0.14 0.41 l
0.15 0.09 l
0.14 -0.41 l
0.15 -0.09 l
295.19 509.34 lineto
0.15 0.82 l
0.14 -0.82 l
0.15 0.29 l
0.15 -0.20 l
0.14 0.20 l
0.15 0.32 l
0.14 -0.11 l
0.15 -0.30 l
0.14 -0.32 l
0.15 0.41 l
0.14 0 l
0.15 0.32 l
0.15 0.09 l
0.14 0.21 l
0.15 -0.82 l
0.14 0.41 l
0.15 -0.50 l
0.14 0.41 l
0.15 -0.41 l
0.15 0.70 l
0.14 0 l
0.15 0.32 l
0.14 -0.41 l
0.15 0.21 l
0.14 -0.32 l
0.15 -0.09 l
0.14 0.09 l
0.15 0.32 l
0.15 -0.32 l
0.14 0.61 l
0.15 -0.20 l
0.14 0.11 l
0.15 -0.32 l
0.14 0.21 l
0.15 -0.82 l
0.14 0.82 l
0.15 0.41 l
0.15 -0.09 l
0.14 -0.12 l
0.15 0.21 l
0.14 -0.21 l
0.15 0 l
0.14 -0.29 l
0.15 0.41 l
0.14 -0.32 l
0.15 0.32 l
0.15 -0.12 l
0.14 0 l
0.15 -0.09 l
0.14 0.41 l
0.15 -0.20 l
0.14 0.09 l
0.15 0.20 l
0.15 -0.50 l
0.14 0.21 l
0.15 0 l
0.14 -0.12 l
0.15 0.12 l
0.14 0.20 l
0.15 -0.20 l
0.14 0 l
0.15 0.09 l
0.15 -0.09 l
0.14 0.09 l
0.15 -0.21 l
0.14 0.41 l
0.15 -0.29 l
0.14 0.09 l
0.15 0.20 l
0.14 -0.20 l
0.15 0.20 l
0.15 -0.29 l
0.14 0.29 l
0.15 0.21 l
0.14 -0.41 l
0.15 0.11 l
0.14 0.50 l
0.15 -0.20 l
0.14 -0.21 l
0.15 0.12 l
0.15 -0.12 l
0.14 0 l
0.15 0.12 l
0.14 0.09 l
0.15 0 l
0.14 -0.21 l
0.15 0.32 l
0.15 0 l
0.14 -0.20 l
0.15 -0.21 l
0.14 0.21 l
0.15 0 l
0.14 -0.12 l
0.15 -0.29 l
0.14 0.41 l
0.15 -0.12 l
0.15 0.12 l
0.14 -0.12 l
0.15 0.21 l
309.75 511.07 lineto
0.15 0.32 l
0.14 0 l
0.15 -0.12 l
0.14 0 l
0.15 -0.09 l
0.15 0.30 l
0.14 -0.41 l
0.15 0.82 l
0.14 -0.62 l
0.15 -0.29 l
0.14 0 l
0.15 0.50 l
0.14 -0.21 l
0.15 -0.09 l
0.15 -0.11 l
0.14 0.52 l
0.15 -0.32 l
0.14 -0.20 l
0.15 0.11 l
0.14 -0.11 l
0.15 -0.09 l
0.15 0.41 l
0.14 -0.21 l
0.15 0.21 l
0.14 -0.41 l
0.15 0.50 l
0.14 -0.41 l
0.15 0.20 l
0.14 0.12 l
0.15 -0.53 l
0.15 0.73 l
0.14 -0.32 l
0.15 0.12 l
0.14 0.20 l
0.15 0 l
0.14 -0.41 l
0.15 0.50 l
0.14 -0.29 l
0.15 -0.41 l
0.15 0.50 l
0.14 -0.09 l
0.15 0 l
0.14 -0.32 l
0.15 0.41 l
0.14 -0.62 l
0.15 0.12 l
0.14 0.20 l
0.15 0 l
0.15 0 l
0.14 -0.11 l
0.15 0.41 l
0.14 -0.21 l
0.15 -0.09 l
0.14 0.21 l
0.15 -0.41 l
0.15 0.41 l
0.14 -0.32 l
0.15 0.52 l
0.14 -0.41 l
0.15 0.21 l
0.14 0.20 l
0.15 -0.41 l
0.14 0.41 l
0.15 -0.32 l
0.15 0.21 l
0.14 -0.09 l
0.15 -0.12 l
0.14 0.21 l
0.15 0.20 l
0.14 -0.20 l
0.15 0.20 l
0.14 -0.20 l
0.15 0.20 l
0.15 -0.09 l
0.14 -0.32 l
0.15 0.32 l
0.14 -0.32 l
0.15 0.41 l
0.14 -0.70 l
0.15 0.61 l
0.14 0 l
0.15 -0.52 l
0.15 0.20 l
0.14 0.62 l
0.15 -0.30 l
0.14 -0.11 l
0.15 -0.09 l
0.14 0.20 l
0.15 -0.32 l
0.14 0.21 l
0.15 0.32 l
0.15 0.09 l
0.14 -0.21 l
0.15 -0.29 l
0.14 0.20 l
0.15 -0.20 l
0.14 0 l
0.15 0 l
0.15 0.29 l
324.31 511.68 lineto
0.15 -0.29 l
0.14 -0.12 l
0.15 0.53 l
0.14 -0.41 l
0.15 -0.12 l
0.14 0.73 l
0.15 -0.32 l
0.15 -0.09 l
0.14 -0.41 l
0.15 0.30 l
0.14 0.20 l
0.15 -0.20 l
0.14 0 l
0.15 -0.09 l
0.14 -0.12 l
0.15 0.21 l
0.15 0 l
0.14 -0.09 l
0.15 0 l
0.14 0.29 l
0.15 -0.41 l
0.14 0.62 l
0.15 -0.30 l
0.14 0.41 l
0.15 -0.61 l
0.15 0 l
0.14 0 l
0.15 0 l
0.14 0.09 l
0.15 -0.09 l
0.14 -0.32 l
0.15 0.32 l
0.15 0.09 l
0.14 0.32 l
0.15 -0.21 l
0.14 -0.41 l
0.15 0.21 l
0.14 0.29 l
0.15 -0.50 l
0.14 0.30 l
0.15 -0.09 l
0.15 0.29 l
0.14 -0.20 l
0.15 -0.21 l
0.14 -0.20 l
0.15 0.41 l
0.14 -0.09 l
0.15 -0.32 l
0.14 0.11 l
0.15 0.30 l
0.15 -0.21 l
0.14 0.21 l
0.15 -0.09 l
0.14 -0.12 l
0.15 -0.29 l
0.14 0.50 l
0.15 -0.71 l
0.14 0.62 l
0.15 -0.41 l
0.15 0.41 l
0.14 0.20 l
0.15 0.30 l
0.14 -0.30 l
0.15 -0.32 l
0.14 0.12 l
0.15 0.20 l
0.15 0.09 l
0.14 0 l
0.15 -0.09 l
0.14 -0.61 l
0.15 0.09 l
0.14 0.73 l
0.15 -0.12 l
0.14 -0.82 l
0.15 0.53 l
0.15 -0.21 l
0.14 0 l
0.15 0.09 l
0.14 0.21 l
0.15 -0.30 l
0.14 0.21 l
0.15 -0.32 l
0.14 0.20 l
0.15 -0.41 l
0.15 0.21 l
0.14 0 l
0.15 0.20 l
0.14 -0.20 l
0.15 0.41 l
0.14 -0.09 l
0.15 -0.12 l
0.14 -0.29 l
0.15 0 l
0.15 0.09 l
0.14 -0.09 l
0.15 0 l
0.14 -0.21 l
0.15 0.50 l
0.14 -0.20 l
338.87 511.39 lineto
0.15 -0.41 l
0.14 0.09 l
0.15 0.41 l
0.14 -0.09 l
0.15 -0.53 l
0.14 0 l
0.15 0.53 l
0.14 -0.21 l
0.15 -0.11 l
0.15 0.11 l
0.14 0.41 l
0.15 0.21 l
0.14 -0.73 l
0.15 -0.21 l
0.14 0.32 l
0.15 0.09 l
0.14 0.12 l
0.15 -0.62 l
0.15 0.21 l
0.14 0.20 l
0.15 -0.20 l
0.14 -0.32 l
0.15 0.32 l
0.14 0 l
0.15 0.29 l
0.14 -0.20 l
0.15 -0.21 l
0.15 0.41 l
0.14 -0.09 l
0.15 -0.32 l
0.14 -0.09 l
0.15 0.71 l
0.14 -0.21 l
0.15 -0.09 l
0.15 -0.11 l
0.14 0.20 l
0.15 -0.20 l
0.14 0.32 l
0.15 -0.53 l
0.14 -0.09 l
0.15 -0.20 l
0.14 0.70 l
0.15 -0.29 l
0.15 -0.41 l
0.14 0.41 l
0.15 0 l
0.14 0.09 l
0.15 0.11 l
0.14 -0.20 l
0.15 -0.32 l
0.14 0.11 l
0.15 0.09 l
0.15 0.12 l
0.14 0.09 l
0.15 0.20 l
0.14 -0.61 l
0.15 0.11 l
0.14 0.21 l
0.15 -0.53 l
0.14 0.73 l
0.15 -0.11 l
0.15 -0.30 l
0.14 -0.11 l
0.15 0.32 l
0.14 -0.12 l
0.15 0.53 l
0.14 -0.62 l
0.15 0.09 l
0.15 0.21 l
0.14 -0.09 l
0.15 0.29 l
0.14 -0.09 l
0.15 -0.52 l
0.14 0 l
0.15 -0.09 l
0.14 0.61 l
0.15 0 l
0.15 -0.41 l
0.14 -0.32 l
0.15 0.82 l
0.14 -0.61 l
0.15 0 l
0.14 0.11 l
0.15 0.21 l
0.14 -0.21 l
0.15 -0.32 l
0.15 0.62 l
0.14 -0.41 l
0.15 0 l
0.14 0.11 l
0.15 -0.20 l
0.14 0.29 l
0.15 -0.41 l
0.14 -0.09 l
0.15 0 l
0.15 0.50 l
0.14 -0.20 l
0.15 0 l
0.14 -0.09 l
353.43 510.98 lineto
0.14 0.29 l
0.15 -0.29 l
0.14 -0.12 l
0.15 -0.09 l
0.15 0.30 l
0.14 -0.21 l
0.15 -0.50 l
0.14 0.30 l
0.15 -0.09 l
0.14 0.09 l
0.15 0.11 l
0.15 0.09 l
0.14 0 l
0.15 -0.09 l
0.14 0.30 l
0.15 -0.21 l
0.14 0 l
0.15 -0.61 l
0.14 0.61 l
0.15 0 l
0.15 -0.41 l
0.14 0.12 l
0.15 0.09 l
0.14 0 l
0.15 -0.30 l
0.14 0.09 l
0.15 0.32 l
0.14 -0.20 l
0.15 0.09 l
0.15 -0.62 l
0.14 0.53 l
0.15 0 l
0.14 0.41 l
0.15 -0.41 l
0.14 -0.12 l
0.15 0.41 l
0.14 -0.09 l
0.15 0 l
0.15 0.21 l
0.14 -0.21 l
0.15 -0.20 l
0.14 0 l
0.15 0.09 l
0.14 -0.30 l
0.15 0.41 l
0.15 0 l
0.14 -0.52 l
0.15 0 l
0.14 0.41 l
0.15 0 l
0.14 -0.21 l
0.15 0.21 l
0.14 0.11 l
0.15 -0.52 l
0.15 0.41 l
0.14 0.52 l
0.15 -0.52 l
0.14 -0.30 l
0.15 -0.20 l
0.14 0.50 l
0.15 -0.71 l
0.14 0.41 l
0.15 -0.41 l
0.15 0.21 l
0.14 0.29 l
0.15 0.12 l
0.14 -0.53 l
0.15 0.41 l
0.14 0.32 l
0.15 -0.41 l
0.14 0.21 l
0.15 0 l
0.15 0.20 l
0.14 -0.20 l
0.15 -0.12 l
0.14 0.12 l
0.15 -0.21 l
0.14 0.21 l
0.15 -0.21 l
0.15 0.21 l
0.14 -0.73 l
0.15 0.61 l
0.14 -0.20 l
0.15 -0.41 l
0.14 0.41 l
0.15 0.20 l
0.14 -0.41 l
0.15 0.41 l
0.15 -0.09 l
0.14 0 l
0.15 -0.20 l
0.14 0.09 l
0.15 0.20 l
0.14 -0.09 l
0.15 0 l
0.14 -0.61 l
0.15 0.61 l
0.15 0 l
0.14 0.50 l
currentpoint o m
367.99 510.25 lineto
0.14 -0.09 l
0.15 0.20 l
0.14 -0.20 l
0.15 0.20 l
0.14 0 l
0.15 -0.11 l
0.15 -0.21 l
0.14 0.12 l
0.15 0.20 l
0.14 -0.61 l
0.15 0.50 l
0.14 -0.09 l
0.15 -0.32 l
0.15 0.41 l
0.14 0.11 l
0.15 -0.41 l
0.14 0.62 l
0.15 -0.32 l
0.14 -0.41 l
0.15 0.82 l
0.14 -0.62 l
0.15 0.12 l
0.15 0 l
0.14 -0.12 l
0.15 0 l
0.14 0.62 l
0.15 -0.30 l
0.14 0.09 l
0.15 -0.61 l
0.14 0.41 l
0.15 -0.09 l
0.15 0.09 l
0.14 0 l
0.15 0.20 l
0.14 -0.20 l
0.15 -0.09 l
0.14 0.29 l
0.15 -0.29 l
0.14 0.09 l
0.15 0 l
0.15 -0.09 l
0.14 0.29 l
0.15 -0.29 l
0.14 0 l
0.15 -0.21 l
0.14 0.50 l
0.15 0 l
0.15 -0.29 l
0.14 0.09 l
0.15 -0.21 l
0.14 0.53 l
0.15 -0.41 l
0.14 -0.41 l
0.15 0.29 l
0.14 -0.41 l
0.15 0.32 l
0.15 0.21 l
0.14 -0.41 l
0.15 0.20 l
0.14 -0.11 l
0.15 0.41 l
0.14 -0.21 l
0.15 -0.09 l
0.14 -0.11 l
0.15 0 l
0.15 0 l
0.14 0.52 l
0.15 -0.41 l
0.14 -0.41 l
0.15 -0.32 l
0.14 0.94 l
0.15 0.09 l
0.14 -0.50 l
0.15 0.09 l
0.15 -0.21 l
0.14 0.21 l
0.15 0.52 l
0.14 -0.41 l
0.15 0 l
0.14 0.09 l
0.15 -0.09 l
0.15 0.30 l
0.14 0.11 l
0.15 -0.32 l
0.14 0 l
0.15 0.12 l
0.14 -0.21 l
0.15 0.50 l
0.14 0 l
0.15 -0.41 l
0.15 0.21 l
0.14 -0.09 l
0.15 -0.32 l
0.14 0.52 l
0.15 -0.11 l
0.14 -0.41 l
0.15 0.73 l
0.14 -0.41 l
0.15 0.09 l
o
/bg { 1 1 1 srgb } def
222.40 508.63 0.43 c p3
222.55 508.11 0.43 c p3
222.69 508.32 0.43 c p3
222.84 507.81 0.43 c p3
222.98 508.32 0.43 c p3
223.13 508.43 0.43 c p3
223.27 508.72 0.43 c p3
223.42 508.02 0.43 c p3
223.56 508.02 0.43 c p3
223.71 508.63 0.43 c p3
223.86 508.32 0.43 c p3
224.00 508.11 0.43 c p3
224.15 508.32 0.43 c p3
224.29 508.52 0.43 c p3
224.44 508.11 0.43 c p3
224.58 508.32 0.43 c p3
224.73 508.32 0.43 c p3
224.87 508.11 0.43 c p3
225.02 508.11 0.43 c p3
225.17 507.81 0.43 c p3
225.31 508.11 0.43 c p3
225.46 508.22 0.43 c p3
225.60 508.52 0.43 c p3
225.75 508.32 0.43 c p3
225.89 508.22 0.43 c p3
226.04 508.52 0.43 c p3
226.19 508.72 0.43 c p3
226.33 508.02 0.43 c p3
226.48 508.22 0.43 c p3
226.62 508.02 0.43 c p3
226.77 508.22 0.43 c p3
226.91 508.11 0.43 c p3
227.06 508.72 0.43 c p3
227.20 508.43 0.43 c p3
227.35 508.52 0.43 c p3
227.50 508.22 0.43 c p3
227.64 508.43 0.43 c p3
227.79 508.11 0.43 c p3
227.93 508.32 0.43 c p3
228.08 508.02 0.43 c p3
228.22 508.52 0.43 c p3
228.37 508.02 0.43 c p3
228.51 508.43 0.43 c p3
228.66 507.70 0.43 c p3
228.81 508.63 0.43 c p3
228.95 508.43 0.43 c p3
229.10 508.63 0.43 c p3
229.24 508.63 0.43 c p3
229.39 508.82 0.43 c p3
229.53 508.32 0.43 c p3
229.68 508.32 0.43 c p3
229.82 508.22 0.43 c p3
229.97 508.43 0.43 c p3
230.12 508.11 0.43 c p3
230.26 508.11 0.43 c p3
230.41 508.11 0.43 c p3
230.55 508.32 0.43 c p3
230.70 508.11 0.43 c p3
230.84 508.63 0.43 c p3
230.99 507.81 0.43 c p3
231.14 508.11 0.43 c p3
231.28 508.11 0.43 c p3
231.43 508.22 0.43 c p3
231.57 507.81 0.43 c p3
231.72 508.82 0.43 c p3
231.86 508.22 0.43 c p3
232.01 508.11 0.43 c p3
232.15 508.52 0.43 c p3
232.30 508.93 0.43 c p3
232.45 508.22 0.43 c p3
232.59 508.63 0.43 c p3
232.74 508.32 0.43 c p3
232.88 508.72 0.43 c p3
233.03 508.32 0.43 c p3
233.17 508.52 0.43 c p3
233.32 507.91 0.43 c p3
233.46 508.32 0.43 c p3
233.61 508.52 0.43 c p3
233.76 508.93 0.43 c p3
233.90 508.11 0.43 c p3
234.05 508.52 0.43 c p3
234.19 508.32 0.43 c p3
234.34 508.82 0.43 c p3
234.48 508.22 0.43 c p3
234.63 508.63 0.43 c p3
234.77 508.11 0.43 c p3
234.92 508.72 0.43 c p3
235.07 508.32 0.43 c p3
235.21 508.63 0.43 c p3
235.36 507.81 0.43 c p3
235.50 508.72 0.43 c p3
235.65 508.32 0.43 c p3
235.79 508.52 0.43 c p3
235.94 508.11 0.43 c p3
236.09 508.22 0.43 c p3
236.23 508.22 0.43 c p3
236.38 508.02 0.43 c p3
236.52 508.11 0.43 c p3
236.67 508.02 0.43 c p3
236.81 508.22 0.43 c p3
236.96 393.56 0.43 c p3
237.10 395.80 0.43 c p3
237.25 397.74 0.43 c p3
237.40 399.18 0.43 c p3
237.54 400.91 0.43 c p3
237.69 402.13 0.43 c p3
237.83 404.80 0.43 c p3
237.98 405.70 0.43 c p3
238.12 407.34 0.43 c p3
238.27 408.87 0.43 c p3
238.41 410.71 0.43 c p3
238.56 412.35 0.43 c p3
238.71 413.37 0.43 c p3
238.85 414.69 0.43 c p3
239.00 415.83 0.43 c p3
239.14 417.35 0.43 c p3
239.29 418.17 0.43 c p3
239.43 419.90 0.43 c p3
239.58 420.31 0.43 c p3
239.72 422.04 0.43 c p3
239.87 422.86 0.43 c p3
240.02 424.08 0.43 c p3
240.16 425.43 0.43 c p3
240.31 426.13 0.43 c p3
240.45 427.56 0.43 c p3
240.60 427.66 0.43 c p3
240.74 429.91 0.43 c p3
240.89 430.32 0.43 c p3
241.04 431.34 0.43 c p3
241.18 432.25 0.43 c p3
241.33 432.66 0.43 c p3
241.47 434.30 0.43 c p3
241.62 434.50 0.43 c p3
241.76 435.62 0.43 c p3
241.91 436.64 0.43 c p3
242.05 437.57 0.43 c p3
242.20 439.01 0.43 c p3
242.35 439.10 0.43 c p3
242.49 439.60 0.43 c p3
242.64 441.03 0.43 c p3
242.78 441.44 0.43 c p3
242.93 442.87 0.43 c p3
243.07 442.87 0.43 c p3
243.22 443.78 0.43 c p3
243.36 444.72 0.43 c p3
243.51 444.81 0.43 c p3
243.66 446.44 0.43 c p3
243.80 447.17 0.43 c p3
243.95 447.47 0.43 c p3
244.09 447.97 0.43 c p3
244.24 448.58 0.43 c p3
244.38 449.92 0.43 c p3
244.53 449.72 0.43 c p3
244.67 450.83 0.43 c p3
244.82 451.24 0.43 c p3
244.97 452.06 0.43 c p3
245.11 453.09 0.43 c p3
245.26 452.77 0.43 c p3
245.40 453.70 0.43 c p3
245.55 454.20 0.43 c p3
245.69 455.75 0.43 c p3
245.84 455.43 0.43 c p3
245.99 456.54 0.43 c p3
246.13 456.75 0.43 c p3
246.28 456.75 0.43 c p3
246.42 458.30 0.43 c p3
246.57 458.50 0.43 c p3
246.71 459.11 0.43 c p3
246.86 459.61 0.43 c p3
247.00 460.14 0.43 c p3
247.15 461.05 0.43 c p3
247.30 461.55 0.43 c p3
247.44 461.55 0.43 c p3
247.59 461.96 0.43 c p3
247.73 462.57 0.43 c p3
247.88 462.69 0.43 c p3
248.02 464.00 0.43 c p3
248.17 463.91 0.43 c p3
248.31 464.41 0.43 c p3
248.46 464.53 0.43 c p3
248.61 465.64 0.43 c p3
248.75 465.23 0.43 c p3
248.90 466.14 0.43 c p3
249.04 466.35 0.43 c p3
249.19 466.67 0.43 c p3
249.33 467.48 0.43 c p3
249.48 467.78 0.43 c p3
249.62 468.39 0.43 c p3
249.77 467.89 0.43 c p3
249.92 468.92 0.43 c p3
250.06 469.42 0.43 c p3
250.21 469.42 0.43 c p3
250.35 469.92 0.43 c p3
250.50 470.33 0.43 c p3
250.64 471.35 0.43 c p3
250.79 470.65 0.43 c p3
250.94 470.74 0.43 c p3
251.08 472.08 0.43 c p3
251.23 471.76 0.43 c p3
251.37 472.08 0.43 c p3
251.52 472.69 0.43 c p3
251.66 472.90 0.43 c p3
251.81 473.60 0.43 c p3
251.95 474.01 0.43 c p3
252.10 474.01 0.43 c p3
252.25 474.31 0.43 c p3
252.39 475.33 0.43 c p3
252.54 475.33 0.43 c p3
252.68 475.74 0.43 c p3
252.83 475.86 0.43 c p3
252.97 476.26 0.43 c p3
253.12 476.36 0.43 c p3
253.26 476.97 0.43 c p3
253.41 477.58 0.43 c p3
253.56 476.97 0.43 c p3
253.70 477.49 0.43 c p3
253.85 478.31 0.43 c p3
253.99 478.31 0.43 c p3
254.14 478.20 0.43 c p3
254.28 478.81 0.43 c p3
254.43 479.11 0.43 c p3
254.57 479.11 0.43 c p3
254.72 479.43 0.43 c p3
254.87 480.04 0.43 c p3
255.01 479.72 0.43 c p3
255.16 480.25 0.43 c p3
255.30 480.54 0.43 c p3
255.45 480.54 0.43 c p3
255.59 480.75 0.43 c p3
255.74 481.36 0.43 c p3
255.88 481.88 0.43 c p3
256.03 481.36 0.43 c p3
256.18 482.88 0.43 c p3
256.32 482.18 0.43 c p3
256.47 482.50 0.43 c p3
256.61 482.88 0.43 c p3
256.76 483.00 0.43 c p3
256.90 483.41 0.43 c p3
257.05 483.91 0.43 c p3
257.20 483.70 0.43 c p3
257.34 484.43 0.43 c p3
257.49 484.23 0.43 c p3
257.63 484.73 0.43 c p3
257.78 484.84 0.43 c p3
257.92 485.25 0.43 c p3
258.07 485.14 0.43 c p3
258.21 485.55 0.43 c p3
258.36 485.66 0.43 c p3
258.51 486.16 0.43 c p3
258.65 486.36 0.43 c p3
258.80 485.86 0.43 c p3
258.94 486.36 0.43 c p3
259.09 486.77 0.43 c p3
259.23 486.77 0.43 c p3
259.38 487.18 0.43 c p3
259.52 486.98 0.43 c p3
259.67 487.07 0.43 c p3
259.82 488.09 0.43 c p3
259.96 487.89 0.43 c p3
260.11 487.68 0.43 c p3
260.25 488.00 0.43 c p3
260.40 488.09 0.43 c p3
260.54 488.50 0.43 c p3
260.69 488.82 0.43 c p3
260.83 488.71 0.43 c p3
260.98 489.03 0.43 c p3
261.13 489.94 0.43 c p3
261.27 489.73 0.43 c p3
261.42 489.84 0.43 c p3
261.56 490.05 0.43 c p3
261.71 489.94 0.43 c p3
261.85 490.25 0.43 c p3
262.00 490.35 0.43 c p3
262.15 490.25 0.43 c p3
262.29 490.55 0.43 c p3
262.44 491.07 0.43 c p3
262.58 490.75 0.43 c p3
262.73 491.37 0.43 c p3
262.87 491.28 0.43 c p3
263.02 491.46 0.43 c p3
263.16 491.46 0.43 c p3
263.31 491.46 0.43 c p3
263.46 491.57 0.43 c p3
263.60 492.19 0.43 c p3
263.75 492.07 0.43 c p3
263.89 492.48 0.43 c p3
264.04 492.19 0.43 c p3
264.18 492.80 0.43 c p3
264.33 492.80 0.43 c p3
264.47 492.80 0.43 c p3
264.62 493.21 0.43 c p3
264.77 493.30 0.43 c p3
264.91 493.30 0.43 c p3
265.06 493.10 0.43 c p3
265.20 493.42 0.43 c p3
265.35 493.92 0.43 c p3
265.49 493.62 0.43 c p3
265.64 494.33 0.43 c p3
265.78 494.23 0.43 c p3
265.93 494.53 0.43 c p3
266.08 494.64 0.43 c p3
266.22 494.85 0.43 c p3
266.37 495.26 0.43 c p3
266.51 495.26 0.43 c p3
266.66 495.35 0.43 c p3
266.80 495.46 0.43 c p3
266.95 495.26 0.43 c p3
267.10 495.67 0.43 c p3
267.24 496.05 0.43 c p3
267.39 496.05 0.43 c p3
267.53 496.37 0.43 c p3
267.68 496.26 0.43 c p3
267.82 495.96 0.43 c p3
267.97 496.58 0.43 c p3
268.11 496.99 0.43 c p3
268.26 496.99 0.43 c p3
268.41 497.08 0.43 c p3
268.55 496.99 0.43 c p3
268.70 496.67 0.43 c p3
268.84 496.87 0.43 c p3
268.99 497.28 0.43 c p3
269.13 497.81 0.43 c p3
269.28 497.60 0.43 c p3
269.42 497.49 0.43 c p3
269.57 497.69 0.43 c p3
269.72 497.90 0.43 c p3
269.86 498.22 0.43 c p3
270.01 498.01 0.43 c p3
270.15 498.10 0.43 c p3
270.30 498.22 0.43 c p3
270.44 498.31 0.43 c p3
270.59 498.31 0.43 c p3
270.73 499.24 0.43 c p3
270.88 498.72 0.43 c p3
271.03 498.62 0.43 c p3
271.17 498.62 0.43 c p3
271.32 498.72 0.43 c p3
271.46 499.03 0.43 c p3
271.61 499.24 0.43 c p3
271.75 499.33 0.43 c p3
271.90 499.53 0.43 c p3
272.05 499.24 0.43 c p3
272.19 499.74 0.43 c p3
272.34 500.06 0.43 c p3
272.48 499.85 0.43 c p3
272.63 500.24 0.43 c p3
272.77 500.44 0.43 c p3
272.92 500.35 0.43 c p3
273.06 500.15 0.43 c p3
273.21 500.06 0.43 c p3
273.36 500.35 0.43 c p3
273.50 500.76 0.43 c p3
273.65 501.17 0.43 c p3
273.79 500.65 0.43 c p3
273.94 500.85 0.43 c p3
274.08 500.85 0.43 c p3
274.23 500.76 0.43 c p3
274.37 501.38 0.43 c p3
274.52 501.47 0.43 c p3
274.67 501.17 0.43 c p3
274.81 501.58 0.43 c p3
274.96 501.17 0.43 c p3
275.10 501.06 0.43 c p3
275.25 502.08 0.43 c p3
275.39 501.99 0.43 c p3
275.54 501.79 0.43 c p3
275.68 501.88 0.43 c p3
275.83 502.29 0.43 c p3
275.98 502.20 0.43 c p3
276.12 501.79 0.43 c p3
276.27 502.61 0.43 c p3
276.41 502.40 0.43 c p3
276.56 502.70 0.43 c p3
276.70 502.70 0.43 c p3
276.85 502.61 0.43 c p3
277.00 502.81 0.43 c p3
277.14 502.81 0.43 c p3
277.29 503.11 0.43 c p3
277.43 502.90 0.43 c p3
277.58 503.31 0.43 c p3
277.72 503.11 0.43 c p3
277.87 503.11 0.43 c p3
278.01 503.22 0.43 c p3
278.16 503.42 0.43 c p3
278.31 503.42 0.43 c p3
278.45 503.22 0.43 c p3
278.60 503.92 0.43 c p3
278.74 503.83 0.43 c p3
278.89 504.04 0.43 c p3
279.03 503.63 0.43 c p3
279.18 504.04 0.43 c p3
279.32 503.72 0.43 c p3
279.47 503.83 0.43 c p3
279.62 504.13 0.43 c p3
279.76 504.13 0.43 c p3
279.91 504.04 0.43 c p3
280.05 504.33 0.43 c p3
280.20 504.24 0.43 c p3
280.34 504.33 0.43 c p3
280.49 504.45 0.43 c p3
280.63 504.33 0.43 c p3
280.78 504.33 0.43 c p3
280.93 504.63 0.43 c p3
281.07 504.95 0.43 c p3
281.22 504.83 0.43 c p3
281.36 504.33 0.43 c p3
281.51 504.54 0.43 c p3
281.65 505.15 0.43 c p3
281.80 505.56 0.43 c p3
281.95 505.15 0.43 c p3
282.09 504.45 0.43 c p3
282.24 505.24 0.43 c p3
282.38 505.65 0.43 c p3
282.53 505.24 0.43 c p3
282.67 504.63 0.43 c p3
282.82 505.36 0.43 c p3
282.96 505.65 0.43 c p3
283.11 505.56 0.43 c p3
283.26 505.65 0.43 c p3
283.40 505.65 0.43 c p3
283.55 505.56 0.43 c p3
283.69 506.06 0.43 c p3
283.84 505.97 0.43 c p3
283.98 505.77 0.43 c p3
284.13 505.86 0.43 c p3
284.27 506.47 0.43 c p3
284.42 506.06 0.43 c p3
284.57 505.77 0.43 c p3
284.71 505.97 0.43 c p3
284.86 506.68 0.43 c p3
285.00 505.86 0.43 c p3
285.15 506.68 0.43 c p3
285.29 506.38 0.43 c p3
285.44 506.59 0.43 c p3
285.58 506.88 0.43 c p3
285.73 506.68 0.43 c p3
285.88 506.88 0.43 c p3
286.02 506.59 0.43 c p3
286.17 506.88 0.43 c p3
286.31 507.09 0.43 c p3
286.46 506.68 0.43 c p3
286.60 507.00 0.43 c p3
286.75 507.00 0.43 c p3
286.89 507.00 0.43 c p3
287.04 507.29 0.43 c p3
287.19 507.50 0.43 c p3
287.33 507.41 0.43 c p3
287.48 507.61 0.43 c p3
287.62 507.29 0.43 c p3
287.77 507.29 0.43 c p3
287.91 507.61 0.43 c p3
288.06 507.61 0.43 c p3
288.21 507.70 0.43 c p3
288.35 507.41 0.43 c p3
288.50 507.70 0.43 c p3
288.64 507.41 0.43 c p3
288.79 507.61 0.43 c p3
288.93 507.50 0.43 c p3
289.08 507.61 0.43 c p3
289.22 507.50 0.43 c p3
289.37 507.81 0.43 c p3
289.52 508.11 0.43 c p3
289.66 507.81 0.43 c p3
289.81 508.02 0.43 c p3
289.95 508.11 0.43 c p3
290.10 507.70 0.43 c p3
290.24 508.32 0.43 c p3
290.39 508.43 0.43 c p3
290.53 508.63 0.43 c p3
290.68 508.11 0.43 c p3
290.83 508.22 0.43 c p3
290.97 508.32 0.43 c p3
291.12 508.02 0.43 c p3
291.26 507.91 0.43 c p3
291.41 508.63 0.43 c p3
291.55 508.32 0.43 c p3
291.70 508.43 0.43 c p3
291.84 508.32 0.43 c p3
291.99 508.52 0.43 c p3
292.14 508.63 0.43 c p3
292.28 508.82 0.43 c p3
292.43 509.02 0.43 c p3
292.57 508.72 0.43 c p3
292.72 508.72 0.43 c p3
292.86 508.82 0.43 c p3
293.01 508.82 0.43 c p3
293.16 508.82 0.43 c p3
293.30 508.93 0.43 c p3
293.45 509.13 0.43 c p3
293.59 508.82 0.43 c p3
293.74 509.43 0.43 c p3
293.88 508.93 0.43 c p3
294.03 509.22 0.43 c p3
294.17 508.93 0.43 c p3
294.32 508.72 0.43 c p3
294.47 508.93 0.43 c p3
294.61 509.34 0.43 c p3
294.76 509.43 0.43 c p3
294.90 509.02 0.43 c p3
295.05 508.93 0.43 c p3
295.19 509.34 0.43 c p3
295.34 510.16 0.43 c p3
295.48 509.34 0.43 c p3
295.63 509.63 0.43 c p3
295.78 509.43 0.43 c p3
295.92 509.63 0.43 c p3
296.07 509.95 0.43 c p3
296.21 509.84 0.43 c p3
296.36 509.54 0.43 c p3
296.50 509.22 0.43 c p3
296.65 509.63 0.43 c p3
296.79 509.63 0.43 c p3
296.94 509.95 0.43 c p3
297.09 510.04 0.43 c p3
297.23 510.25 0.43 c p3
297.38 509.43 0.43 c p3
297.52 509.84 0.43 c p3
297.67 509.34 0.43 c p3
297.81 509.75 0.43 c p3
297.96 509.34 0.43 c p3
298.11 510.04 0.43 c p3
298.25 510.04 0.43 c p3
298.40 510.36 0.43 c p3
298.54 509.95 0.43 c p3
298.69 510.16 0.43 c p3
298.83 509.84 0.43 c p3
298.98 509.75 0.43 c p3
299.12 509.84 0.43 c p3
299.27 510.16 0.43 c p3
299.42 509.84 0.43 c p3
299.56 510.45 0.43 c p3
299.71 510.25 0.43 c p3
299.85 510.36 0.43 c p3
300.00 510.04 0.43 c p3
300.14 510.25 0.43 c p3
300.29 509.43 0.43 c p3
300.43 510.25 0.43 c p3
300.58 510.66 0.43 c p3
300.73 510.57 0.43 c p3
300.87 510.45 0.43 c p3
301.02 510.66 0.43 c p3
301.16 510.45 0.43 c p3
301.31 510.45 0.43 c p3
301.45 510.16 0.43 c p3
301.60 510.57 0.43 c p3
301.74 510.25 0.43 c p3
301.89 510.57 0.43 c p3
302.04 510.45 0.43 c p3
302.18 510.45 0.43 c p3
302.33 510.36 0.43 c p3
302.47 510.77 0.43 c p3
302.62 510.57 0.43 c p3
302.76 510.66 0.43 c p3
302.91 510.86 0.43 c p3
303.06 510.36 0.43 c p3
303.20 510.57 0.43 c p3
303.35 510.57 0.43 c p3
303.49 510.45 0.43 c p3
303.64 510.57 0.43 c p3
303.78 510.77 0.43 c p3
303.93 510.57 0.43 c p3
304.07 510.57 0.43 c p3
304.22 510.66 0.43 c p3
304.37 510.57 0.43 c p3
304.51 510.66 0.43 c p3
304.66 510.45 0.43 c p3
304.80 510.86 0.43 c p3
304.95 510.57 0.43 c p3
305.09 510.66 0.43 c p3
305.24 510.86 0.43 c p3
305.38 510.66 0.43 c p3
305.53 510.86 0.43 c p3
305.68 510.57 0.43 c p3
305.82 510.86 0.43 c p3
305.97 511.07 0.43 c p3
306.11 510.66 0.43 c p3
306.26 510.77 0.43 c p3
306.40 511.27 0.43 c p3
306.55 511.07 0.43 c p3
306.69 510.86 0.43 c p3
306.84 510.98 0.43 c p3
306.99 510.86 0.43 c p3
307.13 510.86 0.43 c p3
307.28 510.98 0.43 c p3
307.42 511.07 0.43 c p3
307.57 511.07 0.43 c p3
307.71 510.86 0.43 c p3
307.86 511.18 0.43 c p3
308.01 511.18 0.43 c p3
308.15 510.98 0.43 c p3
308.30 510.77 0.43 c p3
308.44 510.98 0.43 c p3
308.59 510.98 0.43 c p3
308.73 510.86 0.43 c p3
308.88 510.57 0.43 c p3
309.02 510.98 0.43 c p3
309.17 510.86 0.43 c p3
309.32 510.98 0.43 c p3
309.46 510.86 0.43 c p3
309.61 511.07 0.43 c p3
309.75 511.07 0.43 c p3
309.90 511.39 0.43 c p3
310.04 511.39 0.43 c p3
310.19 511.27 0.43 c p3
310.33 511.27 0.43 c p3
310.48 511.18 0.43 c p3
310.63 511.48 0.43 c p3
310.77 511.07 0.43 c p3
310.92 511.89 0.43 c p3
311.06 511.27 0.43 c p3
311.21 510.98 0.43 c p3
311.35 510.98 0.43 c p3
311.50 511.48 0.43 c p3
311.64 511.27 0.43 c p3
311.79 511.18 0.43 c p3
311.94 511.07 0.43 c p3
312.08 511.59 0.43 c p3
312.23 511.27 0.43 c p3
312.37 511.07 0.43 c p3
312.52 511.18 0.43 c p3
312.66 511.07 0.43 c p3
312.81 510.98 0.43 c p3
312.96 511.39 0.43 c p3
313.10 511.18 0.43 c p3
313.25 511.39 0.43 c p3
313.39 510.98 0.43 c p3
313.54 511.48 0.43 c p3
313.68 511.07 0.43 c p3
313.83 511.27 0.43 c p3
313.97 511.39 0.43 c p3
314.12 510.86 0.43 c p3
314.27 511.59 0.43 c p3
314.41 511.27 0.43 c p3
314.56 511.39 0.43 c p3
314.70 511.59 0.43 c p3
314.85 511.59 0.43 c p3
314.99 511.18 0.43 c p3
315.14 511.68 0.43 c p3
315.28 511.39 0.43 c p3
315.43 510.98 0.43 c p3
315.58 511.48 0.43 c p3
315.72 511.39 0.43 c p3
315.87 511.39 0.43 c p3
316.01 511.07 0.43 c p3
316.16 511.48 0.43 c p3
316.30 510.86 0.43 c p3
316.45 510.98 0.43 c p3
316.59 511.18 0.43 c p3
316.74 511.18 0.43 c p3
316.89 511.18 0.43 c p3
317.03 511.07 0.43 c p3
317.18 511.48 0.43 c p3
317.32 511.27 0.43 c p3
317.47 511.18 0.43 c p3
317.61 511.39 0.43 c p3
317.76 510.98 0.43 c p3
317.91 511.39 0.43 c p3
318.05 511.07 0.43 c p3
318.20 511.59 0.43 c p3
318.34 511.18 0.43 c p3
318.49 511.39 0.43 c p3
318.63 511.59 0.43 c p3
318.78 511.18 0.43 c p3
318.92 511.59 0.43 c p3
319.07 511.27 0.43 c p3
319.22 511.48 0.43 c p3
319.36 511.39 0.43 c p3
319.51 511.27 0.43 c p3
319.65 511.48 0.43 c p3
319.80 511.68 0.43 c p3
319.94 511.48 0.43 c p3
320.09 511.68 0.43 c p3
320.23 511.48 0.43 c p3
320.38 511.68 0.43 c p3
320.53 511.59 0.43 c p3
320.67 511.27 0.43 c p3
320.82 511.59 0.43 c p3
320.96 511.27 0.43 c p3
321.11 511.68 0.43 c p3
321.25 510.98 0.43 c p3
321.40 511.59 0.43 c p3
321.54 511.59 0.43 c p3
321.69 511.07 0.43 c p3
321.84 511.27 0.43 c p3
321.98 511.89 0.43 c p3
322.13 511.59 0.43 c p3
322.27 511.48 0.43 c p3
322.42 511.39 0.43 c p3
322.56 511.59 0.43 c p3
322.71 511.27 0.43 c p3
322.85 511.48 0.43 c p3
323.00 511.80 0.43 c p3
323.15 511.89 0.43 c p3
323.29 511.68 0.43 c p3
323.44 511.39 0.43 c p3
323.58 511.59 0.43 c p3
323.73 511.39 0.43 c p3
323.87 511.39 0.43 c p3
324.02 511.39 0.43 c p3
324.17 511.68 0.43 c p3
324.31 511.68 0.43 c p3
324.46 511.39 0.43 c p3
324.60 511.27 0.43 c p3
324.75 511.80 0.43 c p3
324.89 511.39 0.43 c p3
325.04 511.27 0.43 c p3
325.18 512.00 0.43 c p3
325.33 511.68 0.43 c p3
325.48 511.59 0.43 c p3
325.62 511.18 0.43 c p3
325.77 511.48 0.43 c p3
325.91 511.68 0.43 c p3
326.06 511.48 0.43 c p3
326.20 511.48 0.43 c p3
326.35 511.39 0.43 c p3
326.49 511.27 0.43 c p3
326.64 511.48 0.43 c p3
326.79 511.48 0.43 c p3
326.93 511.39 0.43 c p3
327.08 511.39 0.43 c p3
327.22 511.68 0.43 c p3
327.37 511.27 0.43 c p3
327.51 511.89 0.43 c p3
327.66 511.59 0.43 c p3
327.80 512.00 0.43 c p3
327.95 511.39 0.43 c p3
328.10 511.39 0.43 c p3
328.24 511.39 0.43 c p3
328.39 511.39 0.43 c p3
328.53 511.48 0.43 c p3
328.68 511.39 0.43 c p3
328.82 511.07 0.43 c p3
328.97 511.39 0.43 c p3
329.12 511.48 0.43 c p3
329.26 511.80 0.43 c p3
329.41 511.59 0.43 c p3
329.55 511.18 0.43 c p3
329.70 511.39 0.43 c p3
329.84 511.68 0.43 c p3
329.99 511.18 0.43 c p3
330.13 511.48 0.43 c p3
330.28 511.39 0.43 c p3
330.43 511.68 0.43 c p3
330.57 511.48 0.43 c p3
330.72 511.27 0.43 c p3
330.86 511.07 0.43 c p3
331.01 511.48 0.43 c p3
331.15 511.39 0.43 c p3
331.30 511.07 0.43 c p3
331.44 511.18 0.43 c p3
331.59 511.48 0.43 c p3
331.74 511.27 0.43 c p3
331.88 511.48 0.43 c p3
332.03 511.39 0.43 c p3
332.17 511.27 0.43 c p3
332.32 510.98 0.43 c p3
332.46 511.48 0.43 c p3
332.61 510.77 0.43 c p3
332.75 511.39 0.43 c p3
332.90 510.98 0.43 c p3
333.05 511.39 0.43 c p3
333.19 511.59 0.43 c p3
333.34 511.89 0.43 c p3
333.48 511.59 0.43 c p3
333.63 511.27 0.43 c p3
333.77 511.39 0.43 c p3
333.92 511.59 0.43 c p3
334.07 511.68 0.43 c p3
334.21 511.68 0.43 c p3
334.36 511.59 0.43 c p3
334.50 510.98 0.43 c p3
334.65 511.07 0.43 c p3
334.79 511.80 0.43 c p3
334.94 511.68 0.43 c p3
335.08 510.86 0.43 c p3
335.23 511.39 0.43 c p3
335.38 511.18 0.43 c p3
335.52 511.18 0.43 c p3
335.67 511.27 0.43 c p3
335.81 511.48 0.43 c p3
335.96 511.18 0.43 c p3
336.10 511.39 0.43 c p3
336.25 511.07 0.43 c p3
336.39 511.27 0.43 c p3
336.54 510.86 0.43 c p3
336.69 511.07 0.43 c p3
336.83 511.07 0.43 c p3
336.98 511.27 0.43 c p3
337.12 511.07 0.43 c p3
337.27 511.48 0.43 c p3
337.41 511.39 0.43 c p3
337.56 511.27 0.43 c p3
337.70 510.98 0.43 c p3
337.85 510.98 0.43 c p3
338.00 511.07 0.43 c p3
338.14 510.98 0.43 c p3
338.29 510.98 0.43 c p3
338.43 510.77 0.43 c p3
338.58 511.27 0.43 c p3
338.72 511.07 0.43 c p3
338.87 511.39 0.43 c p3
339.02 510.98 0.43 c p3
339.16 511.07 0.43 c p3
339.31 511.48 0.43 c p3
339.45 511.39 0.43 c p3
339.60 510.86 0.43 c p3
339.74 510.86 0.43 c p3
339.89 511.39 0.43 c p3
340.03 511.18 0.43 c p3
340.18 511.07 0.43 c p3
340.33 511.18 0.43 c p3
340.47 511.59 0.43 c p3
340.62 511.80 0.43 c p3
340.76 511.07 0.43 c p3
340.91 510.86 0.43 c p3
341.05 511.18 0.43 c p3
341.20 511.27 0.43 c p3
341.34 511.39 0.43 c p3
341.49 510.77 0.43 c p3
341.64 510.98 0.43 c p3
341.78 511.18 0.43 c p3
341.93 510.98 0.43 c p3
342.07 510.66 0.43 c p3
342.22 510.98 0.43 c p3
342.36 510.98 0.43 c p3
342.51 511.27 0.43 c p3
342.65 511.07 0.43 c p3
342.80 510.86 0.43 c p3
342.95 511.27 0.43 c p3
343.09 511.18 0.43 c p3
343.24 510.86 0.43 c p3
343.38 510.77 0.43 c p3
343.53 511.48 0.43 c p3
343.67 511.27 0.43 c p3
343.82 511.18 0.43 c p3
343.97 511.07 0.43 c p3
344.11 511.27 0.43 c p3
344.26 511.07 0.43 c p3
344.40 511.39 0.43 c p3
344.55 510.86 0.43 c p3
344.69 510.77 0.43 c p3
344.84 510.57 0.43 c p3
344.98 511.27 0.43 c p3
345.13 510.98 0.43 c p3
345.28 510.57 0.43 c p3
345.42 510.98 0.43 c p3
345.57 510.98 0.43 c p3
345.71 511.07 0.43 c p3
345.86 511.18 0.43 c p3
346.00 510.98 0.43 c p3
346.15 510.66 0.43 c p3
346.29 510.77 0.43 c p3
346.44 510.86 0.43 c p3
346.59 510.98 0.43 c p3
346.73 511.07 0.43 c p3
346.88 511.27 0.43 c p3
347.02 510.66 0.43 c p3
347.17 510.77 0.43 c p3
347.31 510.98 0.43 c p3
347.46 510.45 0.43 c p3
347.60 511.18 0.43 c p3
347.75 511.07 0.43 c p3
347.90 510.77 0.43 c p3
348.04 510.66 0.43 c p3
348.19 510.98 0.43 c p3
348.33 510.86 0.43 c p3
348.48 511.39 0.43 c p3
348.62 510.77 0.43 c p3
348.77 510.86 0.43 c p3
348.92 511.07 0.43 c p3
349.06 510.98 0.43 c p3
349.21 511.27 0.43 c p3
349.35 511.18 0.43 c p3
349.50 510.66 0.43 c p3
349.64 510.66 0.43 c p3
349.79 510.57 0.43 c p3
349.93 511.18 0.43 c p3
350.08 511.18 0.43 c p3
350.23 510.77 0.43 c p3
350.37 510.45 0.43 c p3
350.52 511.27 0.43 c p3
350.66 510.66 0.43 c p3
350.81 510.66 0.43 c p3
350.95 510.77 0.43 c p3
351.10 510.98 0.43 c p3
351.24 510.77 0.43 c p3
351.39 510.45 0.43 c p3
351.54 511.07 0.43 c p3
351.68 510.66 0.43 c p3
351.83 510.66 0.43 c p3
351.97 510.77 0.43 c p3
352.12 510.57 0.43 c p3
352.26 510.86 0.43 c p3
352.41 510.45 0.43 c p3
352.55 510.36 0.43 c p3
352.70 510.36 0.43 c p3
352.85 510.86 0.43 c p3
352.99 510.66 0.43 c p3
353.14 510.66 0.43 c p3
353.28 510.57 0.43 c p3
353.43 510.98 0.43 c p3
353.57 511.27 0.43 c p3
353.72 510.98 0.43 c p3
353.86 510.86 0.43 c p3
354.01 510.77 0.43 c p3
354.16 511.07 0.43 c p3
354.30 510.86 0.43 c p3
354.45 510.36 0.43 c p3
354.59 510.66 0.43 c p3
354.74 510.57 0.43 c p3
354.88 510.66 0.43 c p3
355.03 510.77 0.43 c p3
355.18 510.86 0.43 c p3
355.32 510.86 0.43 c p3
355.47 510.77 0.43 c p3
355.61 511.07 0.43 c p3
355.76 510.86 0.43 c p3
355.90 510.86 0.43 c p3
356.05 510.25 0.43 c p3
356.19 510.86 0.43 c p3
356.34 510.86 0.43 c p3
356.49 510.45 0.43 c p3
356.63 510.57 0.43 c p3
356.78 510.66 0.43 c p3
356.92 510.66 0.43 c p3
357.07 510.36 0.43 c p3
357.21 510.45 0.43 c p3
357.36 510.77 0.43 c p3
357.50 510.57 0.43 c p3
357.65 510.66 0.43 c p3
357.80 510.04 0.43 c p3
357.94 510.57 0.43 c p3
358.09 510.57 0.43 c p3
358.23 510.98 0.43 c p3
358.38 510.57 0.43 c p3
358.52 510.45 0.43 c p3
358.67 510.86 0.43 c p3
358.81 510.77 0.43 c p3
358.96 510.77 0.43 c p3
359.11 510.98 0.43 c p3
359.25 510.77 0.43 c p3
359.40 510.57 0.43 c p3
359.54 510.57 0.43 c p3
359.69 510.66 0.43 c p3
359.83 510.36 0.43 c p3
359.98 510.77 0.43 c p3
360.13 510.77 0.43 c p3
360.27 510.25 0.43 c p3
360.42 510.25 0.43 c p3
360.56 510.66 0.43 c p3
360.71 510.66 0.43 c p3
360.85 510.45 0.43 c p3
361.00 510.66 0.43 c p3
361.14 510.77 0.43 c p3
361.29 510.25 0.43 c p3
361.44 510.66 0.43 c p3
361.58 511.18 0.43 c p3
361.73 510.66 0.43 c p3
361.87 510.36 0.43 c p3
362.02 510.16 0.43 c p3
362.16 510.66 0.43 c p3
362.31 509.95 0.43 c p3
362.45 510.36 0.43 c p3
362.60 509.95 0.43 c p3
362.75 510.16 0.43 c p3
362.89 510.45 0.43 c p3
363.04 510.57 0.43 c p3
363.18 510.04 0.43 c p3
363.33 510.45 0.43 c p3
363.47 510.77 0.43 c p3
363.62 510.36 0.43 c p3
363.76 510.57 0.43 c p3
363.91 510.57 0.43 c p3
364.06 510.77 0.43 c p3
364.20 510.57 0.43 c p3
364.35 510.45 0.43 c p3
364.49 510.57 0.43 c p3
364.64 510.36 0.43 c p3
364.78 510.57 0.43 c p3
364.93 510.36 0.43 c p3
365.08 510.57 0.43 c p3
365.22 509.84 0.43 c p3
365.37 510.45 0.43 c p3
365.51 510.25 0.43 c p3
365.66 509.84 0.43 c p3
365.80 510.25 0.43 c p3
365.95 510.45 0.43 c p3
366.09 510.04 0.43 c p3
366.24 510.45 0.43 c p3
366.39 510.36 0.43 c p3
366.53 510.36 0.43 c p3
366.68 510.16 0.43 c p3
366.82 510.25 0.43 c p3
366.97 510.45 0.43 c p3
367.11 510.36 0.43 c p3
367.26 510.36 0.43 c p3
367.40 509.75 0.43 c p3
367.55 510.36 0.43 c p3
367.70 510.36 0.43 c p3
367.84 510.86 0.43 c p3
367.99 510.25 0.43 c p3
368.13 510.16 0.43 c p3
368.28 510.36 0.43 c p3
368.42 510.16 0.43 c p3
368.57 510.36 0.43 c p3
368.71 510.36 0.43 c p3
368.86 510.25 0.43 c p3
369.01 510.04 0.43 c p3
369.15 510.16 0.43 c p3
369.30 510.36 0.43 c p3
369.44 509.75 0.43 c p3
369.59 510.25 0.43 c p3
369.73 510.16 0.43 c p3
369.88 509.84 0.43 c p3
370.03 510.25 0.43 c p3
370.17 510.36 0.43 c p3
370.32 509.95 0.43 c p3
370.46 510.57 0.43 c p3
370.61 510.25 0.43 c p3
370.75 509.84 0.43 c p3
370.90 510.66 0.43 c p3
371.04 510.04 0.43 c p3
371.19 510.16 0.43 c p3
371.34 510.16 0.43 c p3
371.48 510.04 0.43 c p3
371.63 510.04 0.43 c p3
371.77 510.66 0.43 c p3
371.92 510.36 0.43 c p3
372.06 510.45 0.43 c p3
372.21 509.84 0.43 c p3
372.35 510.25 0.43 c p3
372.50 510.16 0.43 c p3
372.65 510.25 0.43 c p3
372.79 510.25 0.43 c p3
372.94 510.45 0.43 c p3
373.08 510.25 0.43 c p3
373.23 510.16 0.43 c p3
373.37 510.45 0.43 c p3
373.52 510.16 0.43 c p3
373.66 510.25 0.43 c p3
373.81 510.25 0.43 c p3
373.96 510.16 0.43 c p3
374.10 510.45 0.43 c p3
374.25 510.16 0.43 c p3
374.39 510.16 0.43 c p3
374.54 509.95 0.43 c p3
374.68 510.45 0.43 c p3
374.83 510.45 0.43 c p3
374.98 510.16 0.43 c p3
375.12 510.25 0.43 c p3
375.27 510.04 0.43 c p3
375.41 510.57 0.43 c p3
375.56 510.16 0.43 c p3
375.70 509.75 0.43 c p3
375.85 510.04 0.43 c p3
375.99 509.63 0.43 c p3
376.14 509.95 0.43 c p3
376.29 510.16 0.43 c p3
376.43 509.75 0.43 c p3
376.58 509.95 0.43 c p3
376.72 509.84 0.43 c p3
376.87 510.25 0.43 c p3
377.01 510.04 0.43 c p3
377.16 509.95 0.43 c p3
377.30 509.84 0.43 c p3
377.45 509.84 0.43 c p3
377.60 509.84 0.43 c p3
377.74 510.36 0.43 c p3
377.89 509.95 0.43 c p3
378.03 509.54 0.43 c p3
378.18 509.22 0.43 c p3
378.32 510.16 0.43 c p3
378.47 510.25 0.43 c p3
378.61 509.75 0.43 c p3
378.76 509.84 0.43 c p3
378.91 509.63 0.43 c p3
379.05 509.84 0.43 c p3
379.20 510.36 0.43 c p3
379.34 509.95 0.43 c p3
379.49 509.95 0.43 c p3
379.63 510.04 0.43 c p3
379.78 509.95 0.43 c p3
379.93 510.25 0.43 c p3
380.07 510.36 0.43 c p3
380.22 510.04 0.43 c p3
380.36 510.04 0.43 c p3
380.51 510.16 0.43 c p3
380.65 509.95 0.43 c p3
380.80 510.45 0.43 c p3
380.94 510.45 0.43 c p3
381.09 510.04 0.43 c p3
381.24 510.25 0.43 c p3
381.38 510.16 0.43 c p3
381.53 509.84 0.43 c p3
381.67 510.36 0.43 c p3
381.82 510.25 0.43 c p3
381.96 509.84 0.43 c p3
382.11 510.57 0.43 c p3
382.25 510.16 0.43 c p3
382.40 510.25 0.43 c p3
0.00 0.00 432.00 576.00 cl
0 0 0 srgb
0.75 setlinewidth
[] 0 setdash
1 setlinecap
1 setlinejoin
10.00 setmiterlimit
np
236.96 345.60 m
145.59 0 l
o
np
236.96 345.60 m
0 -5.76 l
o
np
266.08 345.60 m
0 -5.76 l
o
np
295.19 345.60 m
0 -5.76 l
o
np
324.31 345.60 m
0 -5.76 l
o
np
353.43 345.60 m
0 -5.76 l
o
np
382.55 345.60 m
0 -5.76 l
o
/Font1 findfont 10 s
236.96 329.47 (0) .5 0 t
266.08 329.47 (2000) .5 0 t
324.31 329.47 (6000) .5 0 t
382.55 329.47 (10000) .5 0 t
np
216.00 352.00 m
0 139.75 l
o
np
216.00 352.00 m
-5.76 0 l
o
np
216.00 398.58 m
-5.76 0 l
o
np
216.00 445.17 m
-5.76 0 l
o
np
216.00 491.75 m
-5.76 0 l
o
209.09 348.41 (0.0) 1 0 t
209.09 394.99 (0.5) 1 0 t
209.09 441.58 (1.0) 1 0 t
209.09 488.16 (1.5) 1 0 t
np
216.00 345.60 m
172.80 0 l
0 172.80 l
-172.80 0 l
0 -172.80 l
o
0.00 0.00 432.00 576.00 cl
/Font1 findfont 10 s
0 0 0 srgb
302.40 313.34 (Zeit / ms \(total\)) .5 0 t
190.66 432.00 (U / V) .5 90 t
216.00 345.60 388.80 518.40 cl
0 0 0 srgb
0.38 setlinewidth
[ 1.12 1.88] 0 setdash
1 setlinecap
1 setlinejoin
10.00 setmiterlimit
np
223.71 345.60 m
0 172.80 l
o
np
233.76 345.60 m
0 172.80 l
o
np
239.87 345.60 m
0 172.80 l
o
np
310.63 345.60 m
0 172.80 l
o
86.40 57.60 388.80 288.00 cl
1 0 0 srgb
1.50 setlinewidth
[] 0 setdash
1 setlinecap
1 setlinejoin
10.00 setmiterlimit
np
97.60 279.47 m
1.41 -12.47 l
1.40 -11.74 l
1.41 -11.05 l
1.41 -10.41 l
1.41 -9.79 l
1.40 -9.23 l
1.41 -8.69 l
1.41 -8.18 l
1.40 -7.70 l
1.41 -7.25 l
1.41 -6.82 l
1.40 -6.43 l
1.41 -6.06 l
1.41 -5.69 l
1.41 -5.37 l
1.40 -5.05 l
1.41 -4.76 l
1.41 -4.48 l
1.40 -4.22 l
1.41 -3.97 l
1.41 -3.74 l
1.40 -3.52 l
1.41 -3.31 l
1.41 -3.12 l
1.41 -2.94 l
1.40 -2.77 l
1.41 -2.60 l
1.41 -2.46 l
1.40 -2.30 l
1.41 -2.18 l
1.41 -2.05 l
1.41 -1.92 l
1.40 -1.82 l
1.41 -1.71 l
1.41 -1.61 l
1.40 -1.51 l
1.41 -1.43 l
1.41 -1.34 l
1.40 -1.27 l
1.41 -1.19 l
1.41 -1.12 l
1.41 -1.06 l
1.40 -0.99 l
1.41 -0.94 l
1.41 -0.88 l
1.40 -0.83 l
1.41 -0.78 l
1.41 -0.73 l
1.40 -0.70 l
1.41 -0.65 l
1.41 -0.61 l
1.41 -0.58 l
1.40 -0.55 l
1.41 -0.51 l
1.41 -0.48 l
1.40 -0.46 l
1.41 -0.42 l
1.41 -0.41 l
1.41 -0.38 l
1.40 -0.35 l
1.41 -0.34 l
1.41 -0.32 l
1.40 -0.29 l
1.41 -0.28 l
1.41 -0.27 l
1.40 -0.25 l
1.41 -0.23 l
1.41 -0.22 l
1.41 -0.21 l
1.40 -0.20 l
1.41 -0.18 l
1.41 -0.17 l
1.40 -0.17 l
1.41 -0.15 l
1.41 -0.15 l
1.40 -0.13 l
1.41 -0.13 l
1.41 -0.12 l
1.41 -0.11 l
1.40 -0.11 l
1.41 -0.10 l
1.41 -0.10 l
1.40 -0.09 l
1.41 -0.08 l
1.41 -0.08 l
1.41 -0.08 l
1.40 -0.07 l
1.41 -0.06 l
1.41 -0.06 l
1.40 -0.06 l
1.41 -0.06 l
1.41 -0.05 l
1.40 -0.05 l
1.41 -0.05 l
1.41 -0.04 l
1.41 -0.04 l
1.40 -0.04 l
1.41 -0.03 l
1.41 -0.04 l
238.30 66.65 lineto
1.41 -0.03 l
1.41 -0.03 l
1.40 -0.03 l
1.41 -0.02 l
1.41 -0.02 l
1.41 -0.03 l
1.40 -0.02 l
1.41 -0.02 l
1.41 -0.02 l
1.40 -0.01 l
1.41 -0.02 l
1.41 -0.02 l
1.40 -0.01 l
1.41 -0.02 l
1.41 -0.01 l
1.41 -0.01 l
1.40 -0.01 l
1.41 -0.01 l
1.41 -0.01 l
1.40 -0.01 l
1.41 -0.01 l
1.41 -0.01 l
1.41 -0.01 l
1.40 -0.01 l
1.41 0 l
1.41 -0.01 l
1.40 -0.01 l
1.41 0 l
1.41 -0.01 l
1.40 0 l
1.41 -0.01 l
1.41 0 l
1.41 -0.01 l
1.40 0 l
1.41 -0.01 l
1.41 0 l
1.40 0 l
1.41 -0.01 l
1.41 0 l
1.40 0 l
1.41 0 l
1.41 -0.01 l
1.41 0 l
1.40 0 l
1.41 0 l
1.41 -0.01 l
1.40 0 l
1.41 0 l
1.41 0 l
1.41 0 l
1.40 0 l
1.41 -0.01 l
1.41 0 l
1.40 0 l
1.41 0 l
1.41 0 l
1.40 0 l
1.41 0 l
1.41 0 l
1.41 0 l
1.40 0 l
1.41 -0.01 l
1.41 0 l
1.40 0 l
1.41 0 l
1.41 0 l
1.40 0 l
1.41 0 l
1.41 0 l
1.41 0 l
1.40 0 l
1.41 0 l
1.41 0 l
1.40 0 l
1.41 0 l
1.41 0 l
1.41 0 l
1.40 0 l
1.41 0 l
1.41 0 l
1.40 0 l
1.41 0 l
1.41 0 l
1.40 0 l
1.41 0 l
1.41 -0.01 l
1.41 0 l
1.40 0 l
1.41 0 l
1.41 0 l
1.40 0 l
1.41 0 l
1.41 0 l
1.40 0 l
1.41 0 l
1.41 0 l
1.41 0 l
1.40 0 l
1.41 0 l
o
0.00 0.00 432.00 576.00 cl
0 0 0 srgb
0.75 setlinewidth
[] 0 setdash
1 setlinecap
1 setlinejoin
10.00 setmiterlimit
np
97.60 57.60 m
280.00 0 l
o
np
97.60 57.60 m
0 -5.76 l
o
np
153.60 57.60 m
0 -5.76 l
o
np
209.60 57.60 m
0 -5.76 l
o
np
265.60 57.60 m
0 -5.76 l
o
np
321.60 57.60 m
0 -5.76 l
o
np
377.60 57.60 m
0 -5.76 l
o
/Font1 findfont 10 s
97.60 41.47 (0) .5 0 t
153.60 41.47 (2000) .5 0 t
209.60 41.47 (4000) .5 0 t
265.60 41.47 (6000) .5 0 t
321.60 41.47 (8000) .5 0 t
377.60 41.47 (10000) .5 0 t
np
86.40 67.85 m
0 211.15 l
o
np
86.40 67.85 m
-5.76 0 l
o
np
86.40 120.64 m
-5.76 0 l
o
np
86.40 173.42 m
-5.76 0 l
o
np
86.40 226.21 m
-5.76 0 l
o
np
86.40 279.00 m
-5.76 0 l
o
79.49 64.26 (0.0) 1 0 t
79.49 117.05 (0.1) 1 0 t
79.49 169.83 (0.2) 1 0 t
79.49 222.62 (0.3) 1 0 t
79.49 275.41 (0.4) 1 0 t
np
86.40 57.60 m
302.40 0 l
0 230.40 l
-302.40 0 l
0 -230.40 l
o
0.00 0.00 432.00 576.00 cl
/Font1 findfont 10 s
0 0 0 srgb
237.60 13.82 (Zeit / ms \(nach Puls\)) .5 0 t
49.54 172.80 (Absorbanz A) .5 90 t
86.40 57.60 388.80 288.00 cl
/bg { 1 1 1 srgb } def
0 0 0 srgb
0.75 setlinewidth
[] 0 setdash
1 setlinecap
1 setlinejoin
10.00 setmiterlimit
103.48 249.24 0.65 c p3
103.76 245.30 0.65 c p3
104.04 241.07 0.65 c p3
104.32 238.88 0.65 c p3
104.60 234.49 0.65 c p3
104.88 234.22 0.65 c p3
105.16 227.49 0.65 c p3
105.44 226.29 0.65 c p3
105.72 223.31 0.65 c p3
106.00 220.70 0.65 c p3
106.28 219.53 0.65 c p3
106.56 214.93 0.65 c p3
106.84 214.36 0.65 c p3
107.12 211.28 0.65 c p3
107.40 208.49 0.65 c p3
107.68 205.98 0.65 c p3
107.96 202.17 0.65 c p3
108.24 201.93 0.65 c p3
108.52 200.62 0.65 c p3
108.80 196.90 0.65 c p3
109.08 195.85 0.65 c p3
109.36 192.20 0.65 c p3
109.64 192.20 0.65 c p3
109.92 189.92 0.65 c p3
110.20 187.60 0.65 c p3
110.48 187.38 0.65 c p3
110.76 183.37 0.65 c p3
111.04 181.61 0.65 c p3
111.32 180.89 0.65 c p3
111.60 179.70 0.65 c p3
111.88 178.23 0.65 c p3
112.16 175.07 0.65 c p3
112.44 175.55 0.65 c p3
112.72 172.95 0.65 c p3
113.00 172.00 0.65 c p3
113.28 170.12 0.65 c p3
113.56 167.78 0.65 c p3
113.84 168.51 0.65 c p3
114.12 166.40 0.65 c p3
114.40 165.27 0.65 c p3
114.68 161.83 0.65 c p3
114.96 162.53 0.65 c p3
115.24 160.07 0.65 c p3
115.52 159.63 0.65 c p3
115.80 159.63 0.65 c p3
116.08 156.27 0.65 c p3
116.36 155.83 0.65 c p3
116.64 154.51 0.65 c p3
116.92 153.44 0.65 c p3
117.20 152.33 0.65 c p3
117.48 150.41 0.65 c p3
117.76 149.36 0.65 c p3
118.04 149.36 0.65 c p3
118.32 148.50 0.65 c p3
118.60 147.22 0.65 c p3
118.88 146.99 0.65 c p3
119.16 144.27 0.65 c p3
119.44 144.46 0.65 c p3
119.72 143.44 0.65 c p3
120.00 143.20 0.65 c p3
120.28 140.94 0.65 c p3
120.56 141.77 0.65 c p3
120.84 139.94 0.65 c p3
121.12 139.53 0.65 c p3
121.40 138.89 0.65 c p3
121.68 137.26 0.65 c p3
121.96 136.67 0.65 c p3
122.24 135.46 0.65 c p3
122.52 136.45 0.65 c p3
122.80 134.43 0.65 c p3
123.08 133.45 0.65 c p3
123.36 133.45 0.65 c p3
123.64 132.48 0.65 c p3
123.92 131.68 0.65 c p3
124.20 129.71 0.65 c p3
124.48 131.07 0.65 c p3
124.76 130.89 0.65 c p3
125.04 128.31 0.65 c p3
125.32 128.92 0.65 c p3
125.60 128.31 0.65 c p3
125.88 127.14 0.65 c p3
126.16 126.75 0.65 c p3
126.44 125.42 0.65 c p3
126.72 124.65 0.65 c p3
127.00 124.65 0.65 c p3
127.28 124.10 0.65 c p3
127.56 122.19 0.65 c p3
127.84 122.19 0.65 c p3
128.12 121.43 0.65 c p3
128.40 121.21 0.65 c p3
128.68 120.46 0.65 c p3
128.96 120.29 0.65 c p3
129.24 119.16 0.65 c p3
129.52 118.04 0.65 c p3
129.80 119.16 0.65 c p3
130.08 118.20 0.65 c p3
130.36 116.71 0.65 c p3
130.64 116.71 0.65 c p3
130.92 116.92 0.65 c p3
131.20 115.81 0.65 c p3
131.48 115.27 0.65 c p3
131.76 115.27 0.65 c p3
132.04 114.70 0.65 c p3
132.32 113.60 0.65 c p3
132.60 114.17 0.65 c p3
132.88 113.23 0.65 c p3
133.16 112.70 0.65 c p3
133.44 112.70 0.65 c p3
133.72 112.34 0.65 c p3
134.00 111.25 0.65 c p3
134.28 110.32 0.65 c p3
134.56 111.25 0.65 c p3
134.84 108.56 0.65 c p3
135.12 109.80 0.65 c p3
135.40 109.24 0.65 c p3
135.68 108.56 0.65 c p3
135.96 108.36 0.65 c p3
136.24 107.65 0.65 c p3
136.52 106.78 0.65 c p3
136.80 107.13 0.65 c p3
137.08 105.87 0.65 c p3
137.36 106.22 0.65 c p3
137.64 105.36 0.65 c p3
137.92 105.16 0.65 c p3
138.20 104.45 0.65 c p3
138.48 104.65 0.65 c p3
138.76 103.95 0.65 c p3
139.04 103.75 0.65 c p3
139.32 102.89 0.65 c p3
139.60 102.54 0.65 c p3
139.88 103.40 0.65 c p3
140.16 102.54 0.65 c p3
140.44 101.85 0.65 c p3
140.72 101.85 0.65 c p3
141.00 101.15 0.65 c p3
141.28 101.50 0.65 c p3
141.56 101.34 0.65 c p3
141.84 99.61 0.65 c p3
142.12 99.96 0.65 c p3
142.40 100.30 0.65 c p3
142.68 99.77 0.65 c p3
142.96 99.61 0.65 c p3
143.24 98.93 0.65 c p3
143.52 98.39 0.65 c p3
143.80 98.58 0.65 c p3
144.08 98.05 0.65 c p3
144.36 96.53 0.65 c p3
144.64 96.87 0.65 c p3
144.92 96.68 0.65 c p3
145.20 96.34 0.65 c p3
145.48 96.53 0.65 c p3
145.76 96.00 0.65 c p3
146.04 95.85 0.65 c p3
146.32 96.00 0.65 c p3
146.60 95.51 0.65 c p3
146.88 94.65 0.65 c p3
147.16 95.17 0.65 c p3
147.44 94.16 0.65 c p3
147.72 94.31 0.65 c p3
148.00 94.01 0.65 c p3
148.28 94.01 0.65 c p3
148.56 94.01 0.65 c p3
148.84 93.83 0.65 c p3
149.12 92.82 0.65 c p3
149.40 93.00 0.65 c p3
149.68 92.34 0.65 c p3
149.96 92.82 0.65 c p3
150.24 91.82 0.65 c p3
150.52 91.82 0.65 c p3
150.80 91.82 0.65 c p3
151.08 91.15 0.65 c p3
151.36 91.00 0.65 c p3
151.64 91.00 0.65 c p3
151.92 91.34 0.65 c p3
152.20 90.82 0.65 c p3
152.48 90.01 0.65 c p3
152.76 90.49 0.65 c p3
153.04 89.35 0.65 c p3
153.32 89.50 0.65 c p3
153.60 89.02 0.65 c p3
153.88 88.84 0.65 c p3
154.16 88.51 0.65 c p3
154.44 87.85 0.65 c p3
154.72 87.85 0.65 c p3
155.00 87.71 0.65 c p3
155.28 87.52 0.65 c p3
155.56 87.85 0.65 c p3
155.84 87.20 0.65 c p3
156.12 86.58 0.65 c p3
156.40 86.58 0.65 c p3
156.68 86.07 0.65 c p3
156.96 86.26 0.65 c p3
157.24 86.73 0.65 c p3
157.52 85.75 0.65 c p3
157.80 85.10 0.65 c p3
158.08 85.10 0.65 c p3
158.36 84.96 0.65 c p3
158.64 85.10 0.65 c p3
158.92 85.61 0.65 c p3
159.20 85.28 0.65 c p3
159.48 84.63 0.65 c p3
159.76 83.81 0.65 c p3
160.04 84.13 0.65 c p3
160.32 84.31 0.65 c p3
160.60 83.99 0.65 c p3
160.88 83.67 0.65 c p3
161.16 83.17 0.65 c p3
161.44 83.49 0.65 c p3
161.72 83.35 0.65 c p3
162.00 83.17 0.65 c p3
162.28 83.03 0.65 c p3
162.56 83.03 0.65 c p3
162.84 81.57 0.65 c p3
163.12 82.38 0.65 c p3
163.40 82.53 0.65 c p3
163.68 82.53 0.65 c p3
163.96 82.38 0.65 c p3
164.24 81.89 0.65 c p3
164.52 81.57 0.65 c p3
164.80 81.43 0.65 c p3
165.08 81.11 0.65 c p3
165.36 81.57 0.65 c p3
165.64 80.79 0.65 c p3
165.92 80.30 0.65 c p3
166.20 80.61 0.65 c p3
166.48 80.02 0.65 c p3
166.76 79.70 0.65 c p3
167.04 79.84 0.65 c p3
167.32 80.16 0.65 c p3
167.60 80.30 0.65 c p3
167.88 79.84 0.65 c p3
168.16 79.21 0.65 c p3
168.44 78.58 0.65 c p3
168.72 79.38 0.65 c p3
169.00 79.07 0.65 c p3
169.28 79.07 0.65 c p3
169.56 79.21 0.65 c p3
169.84 78.26 0.65 c p3
170.12 78.12 0.65 c p3
170.40 78.58 0.65 c p3
170.68 77.95 0.65 c p3
170.96 78.58 0.65 c p3
171.24 78.75 0.65 c p3
171.52 77.18 0.65 c p3
171.80 77.32 0.65 c p3
172.08 77.64 0.65 c p3
172.36 77.50 0.65 c p3
172.64 76.87 0.65 c p3
172.92 77.01 0.65 c p3
173.20 77.64 0.65 c p3
173.48 76.39 0.65 c p3
173.76 76.70 0.65 c p3
174.04 76.25 0.65 c p3
174.32 76.25 0.65 c p3
174.60 76.39 0.65 c p3
174.88 76.07 0.65 c p3
175.16 76.07 0.65 c p3
175.44 75.63 0.65 c p3
175.72 75.94 0.65 c p3
176.00 75.31 0.65 c p3
176.28 75.63 0.65 c p3
176.56 75.63 0.65 c p3
176.84 75.45 0.65 c p3
177.12 75.14 0.65 c p3
177.40 75.14 0.65 c p3
177.68 75.45 0.65 c p3
177.96 74.39 0.65 c p3
178.24 74.52 0.65 c p3
178.52 74.21 0.65 c p3
178.80 74.83 0.65 c p3
179.08 74.21 0.65 c p3
179.36 74.70 0.65 c p3
179.64 74.52 0.65 c p3
179.92 74.08 0.65 c p3
180.20 74.08 0.65 c p3
180.48 74.21 0.65 c p3
180.76 73.77 0.65 c p3
181.04 73.91 0.65 c p3
181.32 73.77 0.65 c p3
181.60 73.60 0.65 c p3
181.88 73.77 0.65 c p3
182.16 73.77 0.65 c p3
182.44 73.32 0.65 c p3
182.72 72.85 0.65 c p3
183.00 73.02 0.65 c p3
183.28 73.77 0.65 c p3
183.56 73.46 0.65 c p3
183.84 72.54 0.65 c p3
184.12 71.93 0.65 c p3
184.40 72.54 0.65 c p3
184.68 73.60 0.65 c p3
184.96 72.40 0.65 c p3
185.24 71.79 0.65 c p3
185.52 72.40 0.65 c p3
185.80 73.32 0.65 c p3
186.08 72.23 0.65 c p3
186.36 71.79 0.65 c p3
186.64 71.93 0.65 c p3
186.92 71.79 0.65 c p3
187.20 71.79 0.65 c p3
187.48 71.93 0.65 c p3
187.76 71.18 0.65 c p3
188.04 71.32 0.65 c p3
188.32 71.62 0.65 c p3
188.60 71.49 0.65 c p3
188.88 70.57 0.65 c p3
189.16 71.18 0.65 c p3
189.44 71.62 0.65 c p3
189.72 71.32 0.65 c p3
190.00 70.27 0.65 c p3
190.28 71.49 0.65 c p3
190.56 70.27 0.65 c p3
190.84 70.71 0.65 c p3
191.12 70.41 0.65 c p3
191.40 69.97 0.65 c p3
191.68 70.27 0.65 c p3
191.96 69.97 0.65 c p3
192.24 70.41 0.65 c p3
192.52 69.97 0.65 c p3
192.80 69.66 0.65 c p3
193.08 70.27 0.65 c p3
193.36 69.80 0.65 c p3
193.64 69.80 0.65 c p3
193.92 69.80 0.65 c p3
194.20 69.36 0.65 c p3
194.48 69.06 0.65 c p3
194.76 69.19 0.65 c p3
195.04 68.89 0.65 c p3
195.32 69.36 0.65 c p3
195.60 69.36 0.65 c p3
195.88 68.89 0.65 c p3
196.16 68.89 0.65 c p3
196.44 68.76 0.65 c p3
196.72 69.19 0.65 c p3
197.00 68.76 0.65 c p3
197.28 69.19 0.65 c p3
197.56 68.89 0.65 c p3
197.84 69.06 0.65 c p3
198.12 68.89 0.65 c p3
198.40 69.06 0.65 c p3
198.68 68.59 0.65 c p3
198.96 68.16 0.65 c p3
199.24 68.59 0.65 c p3
199.52 68.29 0.65 c p3
199.80 68.16 0.65 c p3
200.08 68.76 0.65 c p3
200.36 67.86 0.65 c p3
200.64 67.69 0.65 c p3
200.92 67.39 0.65 c p3
201.20 68.16 0.65 c p3
201.48 67.99 0.65 c p3
201.76 67.86 0.65 c p3
202.04 68.29 0.65 c p3
202.32 68.46 0.65 c p3
202.60 67.39 0.65 c p3
202.88 67.86 0.65 c p3
203.16 67.69 0.65 c p3
203.44 67.86 0.65 c p3
203.72 67.56 0.65 c p3
204.00 67.39 0.65 c p3
204.28 67.12 0.65 c p3
204.56 66.82 0.65 c p3
204.84 67.26 0.65 c p3
205.12 67.26 0.65 c p3
205.40 67.12 0.65 c p3
205.68 67.12 0.65 c p3
205.96 67.12 0.65 c p3
206.24 66.96 0.65 c p3
206.52 66.66 0.65 c p3
206.80 67.12 0.65 c p3
207.08 66.23 0.65 c p3
207.36 66.96 0.65 c p3
207.64 66.53 0.65 c p3
207.92 66.96 0.65 c p3
208.20 67.26 0.65 c p3
208.48 66.96 0.65 c p3
208.76 66.36 0.65 c p3
209.04 66.23 0.65 c p3
209.32 66.82 0.65 c p3
209.60 66.96 0.65 c p3
209.88 66.36 0.65 c p3
210.16 65.17 0.65 c p3
210.44 66.36 0.65 c p3
210.72 65.93 0.65 c p3
211.00 66.23 0.65 c p3
211.28 65.93 0.65 c p3
211.56 65.47 0.65 c p3
211.84 65.63 0.65 c p3
212.12 66.06 0.65 c p3
212.40 66.53 0.65 c p3
212.68 65.93 0.65 c p3
212.96 65.93 0.65 c p3
213.24 65.47 0.65 c p3
213.52 65.33 0.65 c p3
213.80 65.04 0.65 c p3
214.08 66.23 0.65 c p3
214.36 65.63 0.65 c p3
214.64 66.36 0.65 c p3
214.92 65.76 0.65 c p3
215.20 66.36 0.65 c p3
215.48 65.33 0.65 c p3
215.76 65.33 0.65 c p3
216.04 64.87 0.65 c p3
216.32 65.47 0.65 c p3
216.60 65.17 0.65 c p3
216.88 65.63 0.65 c p3
217.16 65.76 0.65 c p3
217.44 65.63 0.65 c p3
217.72 65.17 0.65 c p3
218.00 65.63 0.65 c p3
218.28 64.74 0.65 c p3
218.56 65.04 0.65 c p3
218.84 64.87 0.65 c p3
219.12 65.33 0.65 c p3
219.40 65.04 0.65 c p3
219.68 66.23 0.65 c p3
219.96 65.04 0.65 c p3
220.24 64.45 0.65 c p3
220.52 64.58 0.65 c p3
220.80 64.74 0.65 c p3
221.08 64.45 0.65 c p3
221.36 64.74 0.65 c p3
221.64 64.74 0.65 c p3
221.92 65.17 0.65 c p3
222.20 64.58 0.65 c p3
222.48 65.04 0.65 c p3
222.76 64.58 0.65 c p3
223.04 64.74 0.65 c p3
223.32 64.74 0.65 c p3
223.60 64.87 0.65 c p3
223.88 64.28 0.65 c p3
224.16 64.58 0.65 c p3
224.44 64.45 0.65 c p3
224.72 64.15 0.65 c p3
225.00 64.87 0.65 c p3
225.28 64.58 0.65 c p3
225.56 64.58 0.65 c p3
225.84 64.74 0.65 c p3
226.12 64.58 0.65 c p3
226.40 64.28 0.65 c p3
226.68 64.58 0.65 c p3
226.96 64.58 0.65 c p3
227.24 64.45 0.65 c p3
227.52 64.58 0.65 c p3
227.80 64.45 0.65 c p3
228.08 64.74 0.65 c p3
228.36 64.15 0.65 c p3
228.64 64.58 0.65 c p3
228.92 64.45 0.65 c p3
229.20 64.15 0.65 c p3
229.48 64.45 0.65 c p3
229.76 64.15 0.65 c p3
230.04 64.58 0.65 c p3
230.32 64.15 0.65 c p3
230.60 63.85 0.65 c p3
230.88 64.45 0.65 c p3
231.16 64.28 0.65 c p3
231.44 63.56 0.65 c p3
231.72 63.85 0.65 c p3
232.00 64.15 0.65 c p3
232.28 63.99 0.65 c p3
232.56 64.15 0.65 c p3
232.84 64.15 0.65 c p3
233.12 63.99 0.65 c p3
233.40 63.85 0.65 c p3
233.68 63.85 0.65 c p3
233.96 64.15 0.65 c p3
234.24 63.69 0.65 c p3
234.52 63.69 0.65 c p3
234.80 63.99 0.65 c p3
235.08 64.28 0.65 c p3
235.36 63.99 0.65 c p3
235.64 63.99 0.65 c p3
235.92 64.15 0.65 c p3
236.20 64.58 0.65 c p3
236.48 63.99 0.65 c p3
236.76 64.15 0.65 c p3
237.04 63.99 0.65 c p3
237.32 64.15 0.65 c p3
237.60 63.85 0.65 c p3
237.88 63.85 0.65 c p3
238.16 63.40 0.65 c p3
238.44 63.40 0.65 c p3
238.72 63.56 0.65 c p3
239.00 63.56 0.65 c p3
239.28 63.69 0.65 c p3
239.56 63.27 0.65 c p3
216.00 201.60 367.20 247.68 cl
0 0 0 srgb
0.75 setlinewidth
[] 0 setdash
1 setlinecap
1 setlinejoin
10.00 setmiterlimit
221.60 238.86 0.43 c p1
221.89 237.24 0.43 c p1
222.18 235.36 0.43 c p1
222.46 235.15 0.43 c p1
222.75 233.10 0.43 c p1
223.04 234.42 0.43 c p1
223.33 230.41 0.43 c p1
223.62 230.94 0.43 c p1
223.90 229.98 0.43 c p1
224.19 229.30 0.43 c p1
224.48 229.80 0.43 c p1
224.77 227.45 0.43 c p1
225.06 228.41 0.43 c p1
225.34 227.28 0.43 c p1
225.63 226.37 0.43 c p1
225.92 225.68 0.43 c p1
226.21 223.90 0.43 c p1
226.50 225.05 0.43 c p1
226.79 225.29 0.43 c p1
227.07 223.54 0.43 c p1
227.36 223.97 0.43 c p1
227.65 222.25 0.43 c p1
227.94 223.51 0.43 c p1
228.23 222.88 0.43 c p1
228.51 222.21 0.43 c p1
228.80 223.24 0.43 c p1
229.09 221.14 0.43 c p1
229.38 220.88 0.43 c p1
229.67 221.48 0.43 c p1
229.95 221.65 0.43 c p1
230.24 221.60 0.43 c p1
230.53 220.13 0.43 c p1
230.82 221.65 0.43 c p1
231.11 220.61 0.43 c p1
231.39 220.93 0.43 c p1
231.68 220.46 0.43 c p1
231.97 219.61 0.43 c p1
232.26 221.26 0.43 c p1
232.55 220.57 0.43 c p1
232.83 220.67 0.43 c p1
233.12 218.85 0.43 c p1
233.41 220.44 0.43 c p1
233.70 219.41 0.43 c p1
233.99 220.03 0.43 c p1
234.27 221.00 0.43 c p1
234.56 219.19 0.43 c p1
234.85 219.78 0.43 c p1
235.14 219.63 0.43 c p1
235.43 219.68 0.43 c p1
235.72 219.68 0.43 c p1
236.00 219.00 0.43 c p1
236.29 219.03 0.43 c p1
236.58 219.91 0.43 c p1
236.87 220.08 0.43 c p1
237.16 219.89 0.43 c p1
237.44 220.55 0.43 c p1
237.73 219.15 0.43 c p1
238.02 220.14 0.43 c p1
238.31 220.12 0.43 c p1
238.60 220.74 0.43 c p1
238.88 219.68 0.43 c p1
239.17 221.16 0.43 c p1
239.46 220.43 0.43 c p1
239.75 220.86 0.43 c p1
240.04 221.10 0.43 c p1
240.32 220.52 0.43 c p1
240.61 220.78 0.43 c p1
240.90 220.52 0.43 c p1
241.19 222.06 0.43 c p1
241.48 221.12 0.43 c p1
241.76 221.03 0.43 c p1
242.05 221.73 0.43 c p1
242.34 221.62 0.43 c p1
242.63 221.66 0.43 c p1
242.92 220.71 0.43 c p1
243.20 222.50 0.43 c p1
243.49 223.02 0.43 c p1
243.78 221.55 0.43 c p1
244.07 222.70 0.43 c p1
244.36 222.84 0.43 c p1
244.65 222.50 0.43 c p1
244.93 222.81 0.43 c p1
245.22 222.33 0.43 c p1
245.51 222.30 0.43 c p1
245.80 222.90 0.43 c p1
246.09 223.04 0.43 c p1
246.37 222.05 0.43 c p1
246.66 222.63 0.43 c p1
246.95 222.58 0.43 c p1
247.24 222.98 0.43 c p1
247.53 222.91 0.43 c p1
247.81 223.33 0.43 c p1
248.10 222.95 0.43 c p1
248.39 222.56 0.43 c p1
248.68 224.02 0.43 c p1
248.97 223.76 0.43 c p1
249.25 223.05 0.43 c p1
249.54 223.57 0.43 c p1
249.83 224.25 0.43 c p1
250.12 223.83 0.43 c p1
250.41 223.89 0.43 c p1
250.69 224.38 0.43 c p1
250.98 224.40 0.43 c p1
251.27 223.97 0.43 c p1
251.56 224.91 0.43 c p1
251.85 224.61 0.43 c p1
252.13 224.64 0.43 c p1
252.42 225.09 0.43 c p1
252.71 225.24 0.43 c p1
253.00 224.79 0.43 c p1
253.29 224.47 0.43 c p1
253.58 225.67 0.43 c p1
253.86 223.88 0.43 c p1
254.15 225.33 0.43 c p1
254.44 225.29 0.43 c p1
254.73 225.15 0.43 c p1
255.02 225.39 0.43 c p1
255.30 225.21 0.43 c p1
255.59 224.89 0.43 c p1
255.88 225.58 0.43 c p1
256.17 224.93 0.43 c p1
256.46 225.61 0.43 c p1
256.74 225.28 0.43 c p1
257.03 225.49 0.43 c p1
257.32 225.29 0.43 c p1
257.61 225.82 0.43 c p1
257.90 225.60 0.43 c p1
258.18 225.80 0.43 c p1
258.47 225.45 0.43 c p1
258.76 225.51 0.43 c p1
259.05 226.57 0.43 c p1
259.34 226.20 0.43 c p1
259.62 225.97 0.43 c p1
259.91 226.30 0.43 c p1
260.20 226.06 0.43 c p1
260.49 226.67 0.43 c p1
260.78 226.87 0.43 c p1
261.07 225.76 0.43 c p1
261.35 226.36 0.43 c p1
261.64 226.96 0.43 c p1
261.93 226.82 0.43 c p1
262.22 227.00 0.43 c p1
262.51 226.73 0.43 c p1
262.79 226.59 0.43 c p1
263.08 227.04 0.43 c p1
263.37 226.89 0.43 c p1
263.66 225.93 0.43 c p1
263.95 226.49 0.43 c p1
264.23 226.61 0.43 c p1
264.52 226.61 0.43 c p1
264.81 227.04 0.43 c p1
265.10 226.87 0.43 c p1
265.39 227.02 0.43 c p1
265.67 227.40 0.43 c p1
265.96 227.26 0.43 c p1
266.25 226.81 0.43 c p1
266.54 227.49 0.43 c p1
266.83 226.91 0.43 c p1
267.11 227.28 0.43 c p1
267.40 227.28 0.43 c p1
267.69 227.52 0.43 c p1
267.98 227.76 0.43 c p1
268.27 227.85 0.43 c p1
268.55 227.25 0.43 c p1
268.84 227.63 0.43 c p1
269.13 227.31 0.43 c p1
269.42 227.93 0.43 c p1
269.71 227.33 0.43 c p1
270.00 227.55 0.43 c p1
270.28 227.77 0.43 c p1
270.57 227.43 0.43 c p1
270.86 227.53 0.43 c p1
271.15 227.74 0.43 c p1
271.44 228.22 0.43 c p1
271.72 228.00 0.43 c p1
272.01 227.53 0.43 c p1
272.30 228.12 0.43 c p1
272.59 227.38 0.43 c p1
272.88 227.70 0.43 c p1
273.16 227.50 0.43 c p1
273.45 227.54 0.43 c p1
273.74 227.46 0.43 c p1
274.03 227.10 0.43 c p1
274.32 227.29 0.43 c p1
274.60 227.35 0.43 c p1
274.89 227.38 0.43 c p1
275.18 227.83 0.43 c p1
275.47 227.46 0.43 c p1
275.76 227.13 0.43 c p1
276.04 227.30 0.43 c p1
276.33 227.05 0.43 c p1
276.62 227.37 0.43 c p1
276.91 227.92 0.43 c p1
277.20 227.28 0.43 c p1
277.48 226.90 0.43 c p1
277.77 227.06 0.43 c p1
278.06 227.10 0.43 c p1
278.35 227.38 0.43 c p1
278.64 227.95 0.43 c p1
278.93 227.83 0.43 c p1
279.21 227.45 0.43 c p1
279.50 226.92 0.43 c p1
279.79 227.33 0.43 c p1
280.08 227.62 0.43 c p1
280.37 227.50 0.43 c p1
280.65 227.37 0.43 c p1
280.94 227.10 0.43 c p1
281.23 227.50 0.43 c p1
281.52 227.52 0.43 c p1
281.81 227.51 0.43 c p1
282.09 227.53 0.43 c p1
282.38 227.66 0.43 c p1
282.67 226.59 0.43 c p1
282.96 227.39 0.43 c p1
283.25 227.63 0.43 c p1
283.53 227.76 0.43 c p1
283.82 227.76 0.43 c p1
284.11 227.48 0.43 c p1
284.40 227.33 0.43 c p1
284.69 227.34 0.43 c p1
284.97 227.19 0.43 c p1
285.26 227.69 0.43 c p1
285.55 227.16 0.43 c p1
285.84 226.87 0.43 c p1
286.13 227.24 0.43 c p1
286.41 226.86 0.43 c p1
286.70 226.71 0.43 c p1
286.99 226.93 0.43 c p1
287.28 227.30 0.43 c p1
287.57 227.53 0.43 c p1
287.86 227.25 0.43 c p1
288.14 226.84 0.43 c p1
288.43 226.42 0.43 c p1
288.72 227.18 0.43 c p1
289.01 227.02 0.43 c p1
289.30 227.12 0.43 c p1
289.58 227.34 0.43 c p1
289.87 226.65 0.43 c p1
290.16 226.63 0.43 c p1
290.45 227.10 0.43 c p1
290.74 226.68 0.43 c p1
291.02 227.29 0.43 c p1
291.31 227.52 0.43 c p1
291.60 226.32 0.43 c p1
291.89 226.52 0.43 c p1
292.18 226.87 0.43 c p1
292.46 226.84 0.43 c p1
292.75 226.41 0.43 c p1
293.04 226.61 0.43 c p1
293.33 227.21 0.43 c p1
293.62 226.26 0.43 c p1
293.90 226.60 0.43 c p1
294.19 226.30 0.43 c p1
294.48 226.38 0.43 c p1
294.77 226.58 0.43 c p1
295.06 226.40 0.43 c p1
295.34 226.47 0.43 c p1
295.63 226.18 0.43 c p1
295.92 226.51 0.43 c p1
296.21 226.07 0.43 c p1
296.50 226.40 0.43 c p1
296.79 226.47 0.43 c p1
297.07 226.40 0.43 c p1
297.36 226.22 0.43 c p1
297.65 226.29 0.43 c p1
297.94 226.61 0.43 c p1
298.23 225.80 0.43 c p1
298.51 225.98 0.43 c p1
298.80 225.79 0.43 c p1
299.09 226.37 0.43 c p1
299.38 225.92 0.43 c p1
299.67 226.38 0.43 c p1
299.95 226.31 0.43 c p1
300.24 226.00 0.43 c p1
300.53 226.06 0.43 c p1
300.82 226.24 0.43 c p1
301.11 225.93 0.43 c p1
301.39 226.10 0.43 c p1
301.68 226.05 0.43 c p1
301.97 225.97 0.43 c p1
302.26 226.16 0.43 c p1
302.55 226.22 0.43 c p1
302.83 225.91 0.43 c p1
303.12 225.57 0.43 c p1
303.41 225.77 0.43 c p1
303.70 226.44 0.43 c p1
303.99 226.24 0.43 c p1
304.27 225.53 0.43 c p1
304.56 225.08 0.43 c p1
304.85 225.64 0.43 c p1
305.14 226.56 0.43 c p1
305.43 225.63 0.43 c p1
305.72 225.17 0.43 c p1
306.00 225.73 0.43 c p1
306.29 226.54 0.43 c p1
306.58 225.68 0.43 c p1
306.87 225.37 0.43 c p1
307.16 225.53 0.43 c p1
307.44 225.46 0.43 c p1
307.73 225.51 0.43 c p1
308.02 225.66 0.43 c p1
308.31 225.09 0.43 c p1
308.60 225.25 0.43 c p1
308.88 225.54 0.43 c p1
309.17 225.48 0.43 c p1
309.46 224.76 0.43 c p1
309.75 225.31 0.43 c p1
310.04 225.71 0.43 c p1
310.32 225.50 0.43 c p1
310.61 224.68 0.43 c p1
310.90 225.72 0.43 c p1
311.19 224.76 0.43 c p1
311.48 225.16 0.43 c p1
311.76 224.95 0.43 c p1
312.05 224.63 0.43 c p1
312.34 224.91 0.43 c p1
312.63 224.70 0.43 c p1
312.92 225.10 0.43 c p1
313.20 224.77 0.43 c p1
313.49 224.56 0.43 c p1
313.78 225.10 0.43 c p1
314.07 224.74 0.43 c p1
314.36 224.78 0.43 c p1
314.65 224.81 0.43 c p1
314.93 224.49 0.43 c p1
315.22 224.27 0.43 c p1
315.51 224.41 0.43 c p1
315.80 224.20 0.43 c p1
316.09 224.62 0.43 c p1
316.37 224.65 0.43 c p1
316.66 224.29 0.43 c p1
316.95 224.32 0.43 c p1
317.24 224.24 0.43 c p1
317.53 224.64 0.43 c p1
317.81 224.31 0.43 c p1
318.10 224.69 0.43 c p1
318.39 224.48 0.43 c p1
318.68 224.64 0.43 c p1
318.97 224.53 0.43 c p1
319.25 224.70 0.43 c p1
319.54 224.34 0.43 c p1
319.83 224.01 0.43 c p1
320.12 224.40 0.43 c p1
320.41 224.17 0.43 c p1
320.69 224.09 0.43 c p1
320.98 224.61 0.43 c p1
321.27 223.90 0.43 c p1
321.56 223.78 0.43 c p1
321.85 223.56 0.43 c p1
322.13 224.22 0.43 c p1
322.42 224.11 0.43 c p1
322.71 224.02 0.43 c p1
323.00 224.40 0.43 c p1
323.29 224.57 0.43 c p1
323.58 223.71 0.43 c p1
323.86 224.12 0.43 c p1
324.15 224.00 0.43 c p1
324.44 224.16 0.43 c p1
324.73 223.94 0.43 c p1
325.02 223.82 0.43 c p1
325.30 223.63 0.43 c p1
325.59 223.40 0.43 c p1
325.88 223.78 0.43 c p1
326.17 223.80 0.43 c p1
326.46 223.71 0.43 c p1
326.74 223.73 0.43 c p1
327.03 223.75 0.43 c p1
327.32 223.64 0.43 c p1
327.61 223.41 0.43 c p1
327.90 223.81 0.43 c p1
328.18 223.09 0.43 c p1
328.47 223.71 0.43 c p1
328.76 223.38 0.43 c p1
329.05 223.75 0.43 c p1
329.34 224.02 0.43 c p1
329.62 223.79 0.43 c p1
329.91 223.32 0.43 c p1
330.20 223.22 0.43 c p1
330.49 223.73 0.43 c p1
330.78 223.86 0.43 c p1
331.07 223.39 0.43 c p1
331.35 222.42 0.43 c p1
331.64 223.42 0.43 c p1
331.93 223.08 0.43 c p1
332.22 223.34 0.43 c p1
332.51 223.11 0.43 c p1
332.79 222.75 0.43 c p1
333.08 222.90 0.43 c p1
333.37 223.27 0.43 c p1
333.66 223.67 0.43 c p1
333.95 223.19 0.43 c p1
334.23 223.21 0.43 c p1
334.52 222.84 0.43 c p1
334.81 222.75 0.43 c p1
335.10 222.52 0.43 c p1
335.39 223.51 0.43 c p1
335.67 223.04 0.43 c p1
335.96 223.65 0.43 c p1
336.25 223.17 0.43 c p1
336.54 223.68 0.43 c p1
336.83 222.85 0.43 c p1
337.11 222.86 0.43 c p1
337.40 222.49 0.43 c p1
337.69 223.00 0.43 c p1
337.98 222.76 0.43 c p1
338.27 223.16 0.43 c p1
338.55 223.28 0.43 c p1
338.84 223.18 0.43 c p1
339.13 222.82 0.43 c p1
339.42 223.21 0.43 c p1
339.71 222.49 0.43 c p1
340.00 222.74 0.43 c p1
340.28 222.62 0.43 c p1
340.57 223.01 0.43 c p1
340.86 222.78 0.43 c p1
341.15 223.77 0.43 c p1
341.44 222.80 0.43 c p1
341.72 222.32 0.43 c p1
342.01 222.44 0.43 c p1
342.30 222.59 0.43 c p1
342.59 222.36 0.43 c p1
342.88 222.61 0.43 c p1
343.16 222.62 0.43 c p1
343.45 222.98 0.43 c p1
343.74 222.51 0.43 c p1
344.03 222.90 0.43 c p1
344.32 222.53 0.43 c p1
344.60 222.67 0.43 c p1
344.89 222.68 0.43 c p1
345.18 222.80 0.43 c p1
345.47 222.32 0.43 c p1
345.76 222.57 0.43 c p1
346.04 222.48 0.43 c p1
346.33 222.24 0.43 c p1
346.62 222.85 0.43 c p1
346.91 222.61 0.43 c p1
347.20 222.62 0.43 c p1
347.48 222.76 0.43 c p1
347.77 222.64 0.43 c p1
348.06 222.40 0.43 c p1
348.35 222.65 0.43 c p1
348.64 222.66 0.43 c p1
348.93 222.56 0.43 c p1
349.21 222.68 0.43 c p1
349.50 222.58 0.43 c p1
349.79 222.83 0.43 c p1
350.08 222.35 0.43 c p1
350.37 222.71 0.43 c p1
350.65 222.61 0.43 c p1
350.94 222.37 0.43 c p1
351.23 222.63 0.43 c p1
351.52 222.39 0.43 c p1
351.81 222.75 0.43 c p1
352.09 222.40 0.43 c p1
352.38 222.17 0.43 c p1
352.67 222.66 0.43 c p1
352.96 222.53 0.43 c p1
353.25 221.94 0.43 c p1
353.53 222.19 0.43 c p1
353.82 222.44 0.43 c p1
354.11 222.32 0.43 c p1
354.40 222.46 0.43 c p1
354.69 222.46 0.43 c p1
354.97 222.34 0.43 c p1
355.26 222.23 0.43 c p1
355.55 222.24 0.43 c p1
355.84 222.49 0.43 c p1
356.13 222.12 0.43 c p1
356.41 222.12 0.43 c p1
356.70 222.37 0.43 c p1
356.99 222.62 0.43 c p1
357.28 222.38 0.43 c p1
357.57 222.39 0.43 c p1
357.86 222.53 0.43 c p1
358.14 222.89 0.43 c p1
358.43 222.41 0.43 c p1
358.72 222.55 0.43 c p1
359.01 222.42 0.43 c p1
359.30 222.56 0.43 c p1
359.58 222.32 0.43 c p1
359.87 222.33 0.43 c p1
360.16 221.95 0.43 c p1
360.45 221.96 0.43 c p1
360.74 222.10 0.43 c p1
361.02 222.10 0.43 c p1
361.31 222.22 0.43 c p1
361.60 221.87 0.43 c p1
0.00 0.00 432.00 576.00 cl
0 0 0 srgb
0.75 setlinewidth
[] 0 setdash
1 setlinecap
1 setlinejoin
10.00 setmiterlimit
np
244.36 201.60 m
115.22 0 l
o
np
244.36 201.60 m
0 -5.76 l
o
np
273.16 201.60 m
0 -5.76 l
o
np
301.97 201.60 m
0 -5.76 l
o
np
330.78 201.60 m
0 -5.76 l
o
np
359.58 201.60 m
0 -5.76 l
o
/Font1 findfont 6 s
244.36 185.47 (1000) .5 0 t
273.16 185.47 (2000) .5 0 t
301.97 185.47 (3000) .5 0 t
330.78 185.47 (4000) .5 0 t
359.58 185.47 (5000) .5 0 t
np
216.00 207.22 m
0 34.84 l
o
np
216.00 207.22 m
-5.76 0 l
o
np
216.00 215.93 m
-5.76 0 l
o
np
216.00 224.64 m
-5.76 0 l
o
np
216.00 233.35 m
-5.76 0 l
o
np
216.00 242.06 m
-5.76 0 l
o
209.09 205.06 (-0.04) 1 0 t
209.09 213.78 (-0.02) 1 0 t
209.09 222.49 (0.00) 1 0 t
209.09 231.20 (0.02) 1 0 t
209.09 239.91 (0.04) 1 0 t
np
216.00 201.60 m
151.20 0 l
0 46.08 l
-151.20 0 l
0 -46.08 l
o
0.00 0.00 432.00 576.00 cl
/Font1 findfont 9 s
0 0 0 srgb
291.60 262.88 (Residuen) .5 0 t
59.04 73.44 401.76 516.96 cl
ep
%%Trailer
%%Pages: 1
%%EOF
