%!PS-Adobe-3.0 EPSF-3.0
%%DocumentNeededResources: font Helvetica
%%+ font Helvetica-Bold
%%+ font Helvetica-Oblique
%%+ font Helvetica-BoldOblique
%%+ font Symbol
%%Title: R Graphics Output
%%Creator: R Software
%%Pages: (atend)
%%BoundingBox: 0 0 432 576
%%EndComments
%%BeginProlog
/bp  { gs sRGB gs } def
% begin .ps.prolog
/gs  { gsave } bind def
/gr  { grestore } bind def
/ep  { showpage gr gr } bind def
/m   { moveto } bind def
/l  { rlineto } bind def
/np  { newpath } bind def
/cp  { closepath } bind def
/f   { fill } bind def
/o   { stroke } bind def
/c   { newpath 0 360 arc } bind def
/r   { 4 2 roll moveto 1 copy 3 -1 roll exch 0 exch rlineto 0 rlineto -1 mul 0 exch rlineto closepath } bind def
/p1  { stroke } bind def
/p2  { gsave bg fill grestore newpath } bind def
/p3  { gsave bg fill grestore stroke } bind def
/p6  { gsave bg eofill grestore newpath } bind def
/p7  { gsave bg eofill grestore stroke } bind def
/t   { 5 -2 roll moveto gsave rotate
       1 index stringwidth pop
       mul neg 0 rmoveto show grestore } bind def
/ta  { 4 -2 roll moveto gsave rotate show } bind def
/tb  { 2 -1 roll 0 rmoveto show } bind def
/cl  { grestore gsave newpath 3 index 3 index moveto 1 index
       4 -1 roll lineto  exch 1 index lineto lineto
       closepath clip newpath } bind def
/rgb { setrgbcolor } bind def
/s   { scalefont setfont } bind def
% end   .ps.prolog
/sRGB { [ /CIEBasedABC
          << /DecodeLMN
               [ { dup 0.03928 le
                        {12.92321 div}
                        {0.055 add 1.055 div 2.4 exp }
                     ifelse
                 } bind dup dup
               ]
             /MatrixLMN [0.412457 0.212673 0.019334
                         0.357576 0.715152 0.119192
                         0.180437 0.072175 0.950301]
             /WhitePoint [0.9505 1.0 1.0890]
           >>
         ] setcolorspace } bind def
/srgb { setcolor } bind def
%%IncludeResource: font Helvetica
/Helvetica findfont
dup length dict begin
  {1 index /FID ne {def} {pop pop} ifelse} forall
  /Encoding ISOLatin1Encoding def
  currentdict
  end
/Font1 exch definefont pop
%%IncludeResource: font Helvetica-Bold
/Helvetica-Bold findfont
dup length dict begin
  {1 index /FID ne {def} {pop pop} ifelse} forall
  /Encoding ISOLatin1Encoding def
  currentdict
  end
/Font2 exch definefont pop
%%IncludeResource: font Helvetica-Oblique
/Helvetica-Oblique findfont
dup length dict begin
  {1 index /FID ne {def} {pop pop} ifelse} forall
  /Encoding ISOLatin1Encoding def
  currentdict
  end
/Font3 exch definefont pop
%%IncludeResource: font Helvetica-BoldOblique
/Helvetica-BoldOblique findfont
dup length dict begin
  {1 index /FID ne {def} {pop pop} ifelse} forall
  /Encoding ISOLatin1Encoding def
  currentdict
  end
/Font4 exch definefont pop
%%IncludeResource: font Symbol
/Symbol findfont
dup length dict begin
  {1 index /FID ne {def} {pop pop} ifelse} forall
  currentdict
  end
/Font5 exch definefont pop
%%EndProlog
%%Page: 1 1
bp
0.00 0.00 432.00 576.00 cl
0.00 0.00 432.00 576.00 cl
0.00 0.00 432.00 576.00 cl
/Font1 findfont 12 s
0 0 0 srgb
48.00 508.72 (PCP-ETH) 0 0 t
48.00 494.89 (Blitzlicht-Photolyse) 0 0 t
/Font1 findfont 9 s
48.00 457.54 (File: Dy) 0 ta
-0.180 (e_0_1_V3_900V_25.2.dat) tb gr
48.00 334.87 (T) 0 ta
-1.080 (ue Apr  9 22:06:15 2019) tb gr
48.00 430.87 (Fitfunktion:  a + b * e) 0 ta
-0.270 (xp\(-c * t\)) tb gr
48.00 420.50 (t-Inter) 0 ta
0.270 (v) tb
-0.225 (all: 90.000 ... 510.000 ms) tb gr
48.00 410.14 (P) 0 ta
-0.360 (ar) tb
-0.090 (ameter \(Standardabw) tb
-0.090 (eichung\):) tb gr
48.00 399.77 (  a = 0.01579 \(0.00063\)) 0 0 t
48.00 389.40 (  b = 0.26959 \(0.00522\)) 0 0 t
48.00 379.03 (  c = 8.570e+00 \(1.746e-01\) s^-1) 0 0 t
48.00 368.66 (  tau = 1.167e-01 \(2.377e-03\) s) 0 0 t
216.00 345.60 388.80 518.40 cl
0 0 0 srgb
0.75 setlinewidth
[] 0 setdash
1 setlinecap
1 setlinejoin
10.00 setmiterlimit
np
222.40 505.25 m
0.15 0.83 l
0.14 -1.50 l
0.15 0.67 l
0.14 0 l
0.15 0 l
0.14 0.49 l
0.15 -0.33 l
0.14 -0.16 l
0.15 0.16 l
0.15 -0.49 l
0.14 0.33 l
0.15 0.34 l
0.14 -0.18 l
0.15 0.18 l
0.14 -0.86 l
0.15 1.01 l
0.14 0 l
0.15 -0.49 l
0.15 0.34 l
0.14 0.34 l
0.15 -0.68 l
0.14 0.83 l
0.15 -0.83 l
0.14 -0.33 l
0.15 1.16 l
0.15 -0.49 l
0.14 -0.67 l
0.15 0.49 l
0.14 -1.02 l
0.15 0.68 l
0.14 0.52 l
0.15 0.49 l
0.14 -0.15 l
0.15 0.15 l
0.15 0.34 l
0.14 -0.68 l
0.15 -0.49 l
0.14 -0.33 l
0.15 -0.19 l
0.14 1.01 l
0.15 -0.15 l
0.14 0 l
0.15 -0.18 l
0.15 1.01 l
0.14 -1.01 l
0.15 0 l
0.14 -0.49 l
0.15 0.82 l
0.14 -0.33 l
0.15 0.67 l
0.14 -0.15 l
0.15 -1.35 l
0.15 0.67 l
0.14 0.16 l
0.15 0.67 l
0.14 -1.35 l
0.15 0.68 l
0.14 -0.68 l
0.15 0.68 l
0.15 0.33 l
0.14 -0.33 l
0.15 -0.49 l
0.14 1.01 l
0.15 -0.52 l
0.14 0.18 l
0.15 0 l
0.14 -0.67 l
0.15 0.67 l
0.15 -1.01 l
0.14 0.83 l
0.15 0 l
0.14 0.33 l
0.15 -0.15 l
0.14 0.68 l
0.15 -1.02 l
0.14 -0.33 l
0.15 0.15 l
0.15 1.20 l
0.14 -1.54 l
0.15 0.86 l
0.14 -0.18 l
0.15 0.52 l
0.14 -0.68 l
0.15 -0.52 l
0.14 0.86 l
0.15 0.15 l
0.15 -0.49 l
0.14 -0.52 l
0.15 0.34 l
0.14 0.52 l
0.15 -0.86 l
0.14 0.34 l
0.15 0.34 l
0.15 0.67 l
0.14 -0.83 l
0.15 0.16 l
0.14 0.18 l
0.15 0.15 l
0.14 0.19 l
236.96 438.59 lineto
0.14 3.23 l
0.15 4.91 l
0.15 2.38 l
0.14 3.39 l
0.15 2.34 l
0.14 3.05 l
0.15 2.03 l
0.14 3.54 l
0.15 2.23 l
0.14 2.86 l
0.15 2.04 l
0.15 1.84 l
0.14 1.89 l
0.15 2.52 l
0.14 1.70 l
0.15 2.03 l
0.14 0.68 l
0.15 1.32 l
0.14 0.87 l
0.15 2.18 l
0.15 0.53 l
0.14 1.70 l
0.15 1.65 l
0.14 0.53 l
0.15 -0.19 l
0.14 0.87 l
0.15 0.68 l
0.15 1.35 l
0.14 1.02 l
0.15 0.49 l
0.14 -0.34 l
0.15 1.02 l
0.14 0.19 l
0.15 0.68 l
0.14 0.64 l
0.15 -0.15 l
0.15 -0.68 l
0.14 0.83 l
0.15 1.01 l
0.14 0 l
0.15 0.34 l
0.14 -0.49 l
0.15 0.83 l
0.14 0.19 l
0.15 -0.53 l
0.15 0.19 l
0.14 0.68 l
0.15 0.49 l
0.14 0 l
0.15 -1.36 l
0.14 0.34 l
0.15 1.21 l
0.14 -0.53 l
0.15 1.36 l
0.15 -0.68 l
0.14 0 l
0.15 -0.68 l
0.14 0.19 l
0.15 1.36 l
0.14 0.34 l
0.15 -0.53 l
0.15 -1.02 l
0.14 0.34 l
0.15 1.02 l
0.14 -0.34 l
0.15 -1.02 l
0.14 0.87 l
0.15 0.68 l
0.14 -1.36 l
0.15 0.49 l
0.15 -0.34 l
0.14 0.34 l
0.15 0.87 l
0.14 -0.19 l
0.15 -0.49 l
0.14 -0.19 l
0.15 0 l
0.14 0.87 l
0.15 -0.19 l
0.15 -1.17 l
0.14 0 l
0.15 0 l
0.14 0.49 l
0.15 0.53 l
0.14 0 l
0.15 0.34 l
0.14 0.33 l
0.15 -1.01 l
0.15 0.83 l
0.14 0.34 l
0.15 -0.83 l
0.14 -0.87 l
0.15 0.19 l
0.14 1.35 l
0.15 -1.20 l
0.15 0.53 l
0.14 1.16 l
0.15 -1.01 l
0.14 0 l
251.52 501.19 lineto
0.14 -1.36 l
0.15 0.19 l
0.14 0.83 l
0.15 -0.15 l
0.15 -0.53 l
0.14 1.02 l
0.15 -1.17 l
0.14 1.50 l
0.15 -1.16 l
0.14 0.49 l
0.15 0.18 l
0.14 0.34 l
0.15 -0.34 l
0.15 0.49 l
0.14 -1.35 l
0.15 -0.34 l
0.14 0.68 l
0.15 0.52 l
0.14 0 l
0.15 0.16 l
0.14 0 l
0.15 -0.16 l
0.15 -0.18 l
0.14 0.52 l
0.15 -0.52 l
0.14 0.67 l
0.15 -0.67 l
0.14 -0.15 l
0.15 -0.19 l
0.14 1.54 l
0.15 -0.86 l
0.15 0.67 l
0.14 -0.49 l
0.15 0 l
0.14 0 l
0.15 0.49 l
0.14 0.53 l
0.15 -1.54 l
0.15 0.52 l
0.14 0.15 l
0.15 -0.33 l
0.14 0.52 l
0.15 0 l
0.14 -0.52 l
0.15 -0.49 l
0.14 0.67 l
0.15 0 l
0.15 0.49 l
0.14 -0.34 l
0.15 1.21 l
0.14 -1.02 l
0.15 0 l
0.14 0.49 l
0.15 -1.17 l
0.14 0.83 l
0.15 0.19 l
0.15 0.15 l
0.14 -0.49 l
0.15 0.34 l
0.14 1.51 l
0.15 -1.70 l
0.14 0.19 l
0.15 0 l
0.14 -0.34 l
0.15 -0.34 l
0.15 0.83 l
0.14 -0.68 l
0.15 0.53 l
0.14 0.68 l
0.15 -0.19 l
0.14 -0.34 l
0.15 -0.34 l
0.15 0.53 l
0.14 -0.68 l
0.15 0.49 l
0.14 0 l
0.15 1.02 l
0.14 -1.02 l
0.15 -0.15 l
0.14 0.34 l
0.15 -0.68 l
0.15 0.68 l
0.14 1.02 l
0.15 -0.68 l
0.14 -0.34 l
0.15 0.15 l
0.14 -0.68 l
0.15 0.68 l
0.14 0.34 l
0.15 -0.34 l
0.15 0.19 l
0.14 0.15 l
0.15 0 l
0.14 -0.34 l
0.15 0.68 l
0.14 -0.49 l
0.15 -0.34 l
0.14 1.02 l
0.15 -0.19 l
266.08 503.56 lineto
0.14 -0.83 l
0.15 0.15 l
0.14 0 l
0.15 1.17 l
0.14 -0.49 l
0.15 -0.83 l
0.15 0.49 l
0.14 0.49 l
0.15 -0.64 l
0.14 0.34 l
0.15 -0.34 l
0.14 -0.19 l
0.15 0.53 l
0.14 0.49 l
0.15 -0.68 l
0.15 0.49 l
0.14 0.34 l
0.15 -0.83 l
0.14 0.19 l
0.15 0 l
0.14 0.49 l
0.15 -0.34 l
0.14 -0.83 l
0.15 0.49 l
0.15 -0.15 l
0.14 0.83 l
0.15 0.49 l
0.14 -0.34 l
0.15 -0.49 l
0.14 -0.34 l
0.15 0.49 l
0.14 -0.30 l
0.15 0.98 l
0.15 0 l
0.14 -0.98 l
0.15 0.64 l
0.14 0 l
0.15 -0.49 l
0.14 1.17 l
0.15 -0.83 l
0.15 -0.49 l
0.14 1.32 l
0.15 -0.83 l
0.14 0.68 l
0.15 -0.34 l
0.14 0.49 l
0.15 -0.34 l
0.14 -0.15 l
0.15 0 l
0.15 0.34 l
0.14 0.15 l
0.15 -0.34 l
0.14 -0.34 l
0.15 0.87 l
0.14 0 l
0.15 -0.34 l
0.14 0.49 l
0.15 -0.15 l
0.15 -0.87 l
0.14 0.34 l
0.15 0.53 l
0.14 -0.19 l
0.15 0.52 l
0.14 -0.33 l
0.15 -0.87 l
0.14 0.34 l
0.15 -0.15 l
0.15 1.17 l
0.14 -1.51 l
0.15 0.68 l
0.14 0.67 l
0.15 -0.33 l
0.14 -0.34 l
0.15 0.49 l
0.15 0.18 l
0.14 -0.33 l
0.15 1.01 l
0.14 -0.34 l
0.15 -0.34 l
0.14 -0.52 l
0.15 0.68 l
0.14 -0.83 l
0.15 0.49 l
0.15 0.86 l
0.14 -1.01 l
0.15 1.16 l
0.14 -0.67 l
0.15 0.33 l
0.14 0 l
0.15 -0.15 l
0.14 0.34 l
0.15 0 l
0.15 0.15 l
0.14 -0.49 l
0.15 -0.67 l
0.14 0.82 l
0.15 0.19 l
0.14 0.34 l
0.15 -0.34 l
280.63 505.74 lineto
0.15 -0.33 l
0.15 1.35 l
0.14 -0.49 l
0.15 -1.88 l
0.14 1.20 l
0.15 0.34 l
0.14 0.34 l
0.15 -0.34 l
0.15 0.34 l
0.14 -0.53 l
0.15 -0.49 l
0.14 0.83 l
0.15 -0.49 l
0.14 1.02 l
0.15 -0.34 l
0.14 0.49 l
0.15 -1.02 l
0.15 -0.33 l
0.14 0.33 l
0.15 0.34 l
0.14 0.87 l
0.15 -0.68 l
0.14 -0.68 l
0.15 1.02 l
0.14 -0.87 l
0.15 0.34 l
0.15 0.87 l
0.14 1.36 l
0.15 -1.70 l
0.14 -0.53 l
0.15 1.02 l
0.14 -0.83 l
0.15 -0.34 l
0.14 0.68 l
0.15 0.34 l
0.15 0 l
0.14 0 l
0.15 0.15 l
0.14 -0.49 l
0.15 -0.34 l
0.14 0.68 l
0.15 -0.87 l
0.14 1.55 l
0.15 0 l
0.15 -0.53 l
0.14 -0.34 l
0.15 -0.34 l
0.14 -0.15 l
0.15 0.83 l
0.14 0 l
0.15 0 l
0.15 0 l
0.14 0.53 l
0.15 -0.34 l
0.14 -0.87 l
0.15 1.02 l
0.14 -1.17 l
0.15 0.68 l
0.14 0 l
0.15 1.17 l
0.15 -1.51 l
0.14 0.83 l
0.15 0.34 l
0.14 0.68 l
0.15 -1.17 l
0.14 -0.34 l
0.15 0.68 l
0.14 0.49 l
0.15 -0.49 l
0.15 -0.19 l
0.14 -0.34 l
0.15 0.68 l
0.14 -1.36 l
0.15 1.21 l
0.14 -0.19 l
0.15 -0.34 l
0.14 0.68 l
0.15 0.53 l
0.15 -0.53 l
0.14 -0.34 l
0.15 0.53 l
0.14 -0.34 l
0.15 0 l
0.14 0.83 l
0.15 0 l
0.15 -0.68 l
0.14 0.87 l
0.15 -1.36 l
0.14 0.68 l
0.15 0.83 l
0.14 -0.68 l
0.15 0 l
0.14 -0.49 l
0.15 -0.19 l
0.15 1.02 l
0.14 -0.49 l
0.15 0.34 l
0.14 -1.02 l
0.15 2.03 l
295.19 508.46 lineto
0.15 -1.02 l
0.14 1.02 l
0.15 -0.68 l
0.15 1.02 l
0.14 -0.83 l
0.15 0.49 l
0.14 0.86 l
0.15 -1.54 l
0.14 0.19 l
0.15 0.15 l
0.14 0 l
0.15 0 l
0.15 0.87 l
0.14 0.49 l
0.15 0 l
0.14 -0.83 l
0.15 -0.19 l
0.14 0.34 l
0.15 -0.49 l
0.15 0.15 l
0.14 0 l
0.15 0.53 l
0.14 0.15 l
0.15 -0.83 l
0.14 0.34 l
0.15 -0.53 l
0.14 0.19 l
0.15 1.17 l
0.15 -0.68 l
0.14 -0.68 l
0.15 0.68 l
0.14 -0.68 l
0.15 0.68 l
0.14 0.34 l
0.15 -0.83 l
0.14 1.01 l
0.15 -0.67 l
0.15 0.83 l
0.14 -0.49 l
0.15 0.33 l
0.14 0 l
0.15 -0.33 l
0.14 -1.55 l
0.15 1.02 l
0.14 0.53 l
0.15 0.33 l
0.15 -0.18 l
0.14 0.52 l
0.15 -1.20 l
0.14 0.53 l
0.15 -0.19 l
0.14 0.34 l
0.15 -0.34 l
0.15 0.86 l
0.14 -0.67 l
0.15 0.15 l
0.14 -0.34 l
0.15 0.68 l
0.14 -0.16 l
0.15 -0.67 l
0.14 0.83 l
0.15 -0.83 l
0.15 0.15 l
0.14 0.68 l
0.15 0 l
0.14 0.18 l
0.15 -0.34 l
0.14 -0.18 l
0.15 0 l
0.14 0.52 l
0.15 0.49 l
0.15 -0.83 l
0.14 0.34 l
0.15 -0.18 l
0.14 -0.68 l
0.15 0 l
0.14 1.01 l
0.15 -0.15 l
0.14 -0.18 l
0.15 -0.34 l
0.15 0 l
0.14 0.18 l
0.15 0.16 l
0.14 0.86 l
0.15 -0.53 l
0.14 -0.49 l
0.15 0.68 l
0.15 0.34 l
0.14 -0.68 l
0.15 -0.52 l
0.14 0.67 l
0.15 -0.67 l
0.14 0 l
0.15 0.86 l
0.14 -0.19 l
0.15 0 l
0.15 -0.15 l
0.14 0 l
0.15 0.15 l
309.75 509.66 lineto
0.15 0 l
0.14 0.49 l
0.15 0.34 l
0.14 -0.83 l
0.15 0 l
0.15 0.49 l
0.14 -0.49 l
0.15 0.15 l
0.14 -0.33 l
0.15 0.18 l
0.14 0.49 l
0.15 -0.49 l
0.14 -0.52 l
0.15 1.01 l
0.15 -0.15 l
0.14 -1.01 l
0.15 1.01 l
0.14 0.15 l
0.15 -0.49 l
0.14 1.17 l
0.15 -1.02 l
0.15 0.19 l
0.14 0.34 l
0.15 0.34 l
0.14 -0.53 l
0.15 -0.34 l
0.14 0.19 l
0.15 -0.34 l
0.14 0.34 l
0.15 -0.34 l
0.15 0.83 l
0.14 0.49 l
0.15 -0.64 l
0.14 0.49 l
0.15 -0.83 l
0.14 1.32 l
0.15 -0.98 l
0.14 0.34 l
0.15 -0.34 l
0.15 0.49 l
0.14 -0.49 l
0.15 -0.53 l
0.14 0 l
0.15 1.02 l
0.14 -0.83 l
0.15 0.34 l
0.14 -0.68 l
0.15 0.49 l
0.15 -0.49 l
0.14 0.68 l
0.15 -0.68 l
0.14 0.34 l
0.15 0.49 l
0.14 0 l
0.15 0.19 l
0.15 -0.87 l
0.14 0.53 l
0.15 -0.68 l
0.14 0.34 l
0.15 -0.19 l
0.14 -0.15 l
0.15 0.83 l
0.14 0.34 l
0.15 -0.34 l
0.15 -0.68 l
0.14 0.68 l
0.15 0.34 l
0.14 0.15 l
0.15 -1.32 l
0.14 1.32 l
0.15 -0.15 l
0.14 -0.68 l
0.15 0 l
0.15 0.34 l
0.14 0.83 l
0.15 -0.98 l
0.14 0.98 l
0.15 -0.98 l
0.14 0 l
0.15 -0.19 l
0.14 1.17 l
0.15 -0.49 l
0.15 -0.15 l
0.14 0.49 l
0.15 -1.36 l
0.14 1.02 l
0.15 -0.34 l
0.14 0 l
0.15 -0.15 l
0.14 -0.34 l
0.15 0.68 l
0.15 0.83 l
0.14 -1.36 l
0.15 0.34 l
0.14 0 l
0.15 0 l
0.14 0 l
0.15 -0.34 l
0.15 1.02 l
324.31 510.49 lineto
0.15 0 l
0.14 -0.34 l
0.15 0.34 l
0.14 0.19 l
0.15 -0.87 l
0.14 0.87 l
0.15 -0.34 l
0.15 0.83 l
0.14 -0.68 l
0.15 0.49 l
0.14 -0.49 l
0.15 0.49 l
0.14 -0.83 l
0.15 0.34 l
0.14 0.19 l
0.15 -0.19 l
0.15 0.19 l
0.14 -0.19 l
0.15 -0.15 l
0.14 0.15 l
0.15 -0.68 l
0.14 1.17 l
0.15 -0.64 l
0.14 0.34 l
0.15 -0.34 l
0.15 0.98 l
0.14 -0.83 l
0.15 0.34 l
0.14 -0.68 l
0.15 1.02 l
0.14 -0.83 l
0.15 0 l
0.15 0.49 l
0.14 0.15 l
0.15 -0.49 l
0.14 0.83 l
0.15 -1.32 l
0.14 0.68 l
0.15 0 l
0.14 0.15 l
0.15 -0.15 l
0.15 0.30 l
0.14 -0.83 l
0.15 0.83 l
0.14 -0.98 l
0.15 0.15 l
0.14 0.53 l
0.15 0 l
0.14 -0.19 l
0.15 -0.49 l
0.15 0.68 l
0.14 0.64 l
0.15 -1.84 l
0.14 1.01 l
0.15 0.49 l
0.14 -0.64 l
0.15 0.49 l
0.14 0.34 l
0.15 -1.02 l
0.15 1.51 l
0.14 -1.32 l
0.15 0.15 l
0.14 0.34 l
0.15 0 l
0.14 0 l
0.15 -1.17 l
0.15 1.51 l
0.14 -0.49 l
0.15 1.17 l
0.14 -1.17 l
0.15 0.15 l
0.14 -0.15 l
0.15 -0.19 l
0.14 0 l
0.15 0.34 l
0.15 -0.49 l
0.14 0.49 l
0.15 0.83 l
0.14 -0.83 l
0.15 0 l
0.14 -0.49 l
0.15 -0.19 l
0.14 0.19 l
0.15 0.98 l
0.15 0 l
0.14 -0.49 l
0.15 0 l
0.14 0.15 l
0.15 -1.84 l
0.14 1.84 l
0.15 -0.49 l
0.14 0 l
0.15 0.49 l
0.15 -0.30 l
0.14 -0.19 l
0.15 0.49 l
0.14 0 l
0.15 -0.49 l
0.14 0.19 l
338.87 510.49 lineto
0.15 0.49 l
0.14 -0.15 l
0.15 -0.15 l
0.14 0.30 l
0.15 -0.30 l
0.14 0.49 l
0.15 -0.68 l
0.14 1.17 l
0.15 -1.32 l
0.15 0.64 l
0.14 -0.15 l
0.15 0 l
0.14 0 l
0.15 0.83 l
0.14 -0.98 l
0.15 -0.34 l
0.14 0.64 l
0.15 -0.49 l
0.15 -0.15 l
0.14 0 l
0.15 1.17 l
0.14 -0.83 l
0.15 0.30 l
0.14 -0.83 l
0.15 -0.34 l
0.14 0.34 l
0.15 0.19 l
0.15 1.51 l
0.14 -1.36 l
0.15 0.68 l
0.14 0 l
0.15 0.34 l
0.14 -2.03 l
0.15 0.18 l
0.15 1.02 l
0.14 -0.19 l
0.15 0.83 l
0.14 0.34 l
0.15 -1.66 l
0.14 0.49 l
0.15 -0.83 l
0.14 1.85 l
0.15 -1.02 l
0.15 1.02 l
0.14 0.34 l
0.15 -0.68 l
0.14 -1.02 l
0.15 1.02 l
0.14 0 l
0.15 -1.69 l
0.14 0.52 l
0.15 2.00 l
0.15 -1.66 l
0.14 0.64 l
0.15 -0.83 l
0.14 0.68 l
0.15 -0.15 l
0.14 0.30 l
0.15 -0.83 l
0.14 0.83 l
0.15 -0.15 l
0.15 0.34 l
0.14 -0.34 l
0.15 0.15 l
0.14 -0.49 l
0.15 0.34 l
0.14 -0.34 l
0.15 0.19 l
0.15 -1.20 l
0.14 1.01 l
0.15 0.19 l
0.14 0.49 l
0.15 -0.68 l
0.14 -0.15 l
0.15 -0.86 l
0.14 2.37 l
0.15 -1.36 l
0.15 0.19 l
0.14 -0.34 l
0.15 1.32 l
0.14 -2.18 l
0.15 2.03 l
0.14 -0.53 l
0.15 0 l
0.14 0.19 l
0.15 0.34 l
0.15 -1.85 l
0.14 0.68 l
0.15 -0.19 l
0.14 0 l
0.15 0.68 l
0.14 0.15 l
0.15 -0.49 l
0.14 0.83 l
0.15 -0.83 l
0.15 0 l
0.14 0.34 l
0.15 0 l
0.14 -0.49 l
353.43 511.32 lineto
0.14 0 l
0.15 -0.64 l
0.14 -0.53 l
0.15 0.68 l
0.15 -1.17 l
0.14 0.68 l
0.15 0.98 l
0.14 -1.32 l
0.15 0.83 l
0.14 0.68 l
0.15 -0.68 l
0.15 -0.68 l
0.14 0.53 l
0.15 -0.19 l
0.14 0.49 l
0.15 0.19 l
0.14 -0.19 l
0.15 0 l
0.14 0.19 l
0.15 -0.34 l
0.15 -1.02 l
0.14 0.34 l
0.15 0.68 l
0.14 0.83 l
0.15 -0.83 l
0.14 -0.34 l
0.15 0 l
0.14 0 l
0.15 0.19 l
0.15 -0.68 l
0.14 0.49 l
0.15 0.83 l
0.14 -1.32 l
0.15 0.15 l
0.14 -0.49 l
0.15 1.51 l
0.14 -0.83 l
0.15 0.83 l
0.15 -0.68 l
0.14 0.68 l
0.15 -1.17 l
0.14 0.83 l
0.15 0.15 l
0.14 -0.64 l
0.15 0.83 l
0.15 -0.68 l
0.14 -0.34 l
0.15 1.02 l
0.14 -1.51 l
0.15 0.83 l
0.14 -0.49 l
0.15 0.49 l
0.14 -0.15 l
0.15 1.17 l
0.15 -1.02 l
0.14 -0.34 l
0.15 0.19 l
0.14 -0.53 l
0.15 -0.15 l
0.14 1.17 l
0.15 0.15 l
0.14 -0.64 l
0.15 0.15 l
0.15 0.34 l
0.14 -0.68 l
0.15 0.68 l
0.14 0 l
0.15 -1.02 l
0.14 0.19 l
0.15 0.49 l
0.14 -1.35 l
0.15 0.67 l
0.15 1.17 l
0.14 0 l
0.15 -1.17 l
0.14 -0.15 l
0.15 0.49 l
0.14 -0.34 l
0.15 0.19 l
0.15 0.34 l
0.14 0 l
0.15 0.83 l
0.14 0.15 l
0.15 -1.32 l
0.14 -0.34 l
0.15 1.17 l
0.14 -0.83 l
0.15 0.83 l
0.15 0.15 l
0.14 -0.30 l
0.15 0.15 l
0.14 -0.15 l
0.15 -0.34 l
0.14 0 l
0.15 0.64 l
0.14 -0.49 l
0.15 -1.01 l
0.15 1.35 l
0.14 0.34 l
currentpoint o m
367.99 510.15 lineto
0.14 -0.15 l
0.15 0 l
0.14 -0.34 l
0.15 1.32 l
0.14 -0.30 l
0.15 -0.34 l
0.15 0.15 l
0.14 0.83 l
0.15 -1.17 l
0.14 -0.15 l
0.15 0.68 l
0.14 0 l
0.15 -0.19 l
0.15 -0.34 l
0.14 -0.49 l
0.15 1.17 l
0.14 -1.51 l
0.15 1.85 l
0.14 -1.02 l
0.15 -0.83 l
0.14 1.66 l
0.15 -0.83 l
0.15 -0.15 l
0.14 0.34 l
0.15 0.34 l
0.14 -0.19 l
0.15 -1.17 l
0.14 1.02 l
0.15 -0.19 l
0.14 1.02 l
0.15 -1.02 l
0.15 0.19 l
0.14 -0.34 l
0.15 0.49 l
0.14 -0.15 l
0.15 -0.53 l
0.14 0.53 l
0.15 -0.53 l
0.14 1.70 l
0.15 -0.53 l
0.15 -0.98 l
0.14 0.68 l
0.15 -0.68 l
0.14 0.34 l
0.15 0.15 l
0.14 0.49 l
0.15 -1.17 l
0.15 0.87 l
0.14 -1.36 l
0.15 0.49 l
0.14 0.53 l
0.15 0 l
0.14 0.15 l
0.15 -0.15 l
0.14 0.15 l
0.15 0.34 l
0.15 -1.17 l
0.14 0.49 l
0.15 0 l
0.14 0.53 l
0.15 -0.19 l
0.14 1.02 l
0.15 0.49 l
0.14 -1.02 l
0.15 0 l
0.15 0.34 l
0.14 -0.64 l
0.15 -0.34 l
0.14 -1.35 l
0.15 1.69 l
0.14 -0.34 l
0.15 0 l
0.14 -1.35 l
0.15 1.35 l
0.15 0.15 l
0.14 -1.17 l
0.15 0.68 l
0.14 0.68 l
0.15 0 l
0.14 0 l
0.15 -0.19 l
0.15 0.68 l
0.14 -1.17 l
0.15 0.98 l
0.14 -1.17 l
0.15 1.17 l
0.14 -1.17 l
0.15 0.87 l
0.14 -0.68 l
0.15 0.49 l
0.15 -0.15 l
0.14 -1.02 l
0.15 1.36 l
0.14 -1.20 l
0.15 0.86 l
0.14 0.34 l
0.15 -0.34 l
0.14 0.49 l
0.15 -0.68 l
o
/bg { 1 1 1 srgb } def
222.40 505.25 0.43 c p3
222.55 506.08 0.43 c p3
222.69 504.58 0.43 c p3
222.84 505.25 0.43 c p3
222.98 505.25 0.43 c p3
223.13 505.25 0.43 c p3
223.27 505.74 0.43 c p3
223.42 505.41 0.43 c p3
223.56 505.25 0.43 c p3
223.71 505.41 0.43 c p3
223.86 504.92 0.43 c p3
224.00 505.25 0.43 c p3
224.15 505.59 0.43 c p3
224.29 505.41 0.43 c p3
224.44 505.59 0.43 c p3
224.58 504.73 0.43 c p3
224.73 505.74 0.43 c p3
224.87 505.74 0.43 c p3
225.02 505.25 0.43 c p3
225.17 505.59 0.43 c p3
225.31 505.93 0.43 c p3
225.46 505.25 0.43 c p3
225.60 506.08 0.43 c p3
225.75 505.25 0.43 c p3
225.89 504.92 0.43 c p3
226.04 506.08 0.43 c p3
226.19 505.59 0.43 c p3
226.33 504.92 0.43 c p3
226.48 505.41 0.43 c p3
226.62 504.39 0.43 c p3
226.77 505.07 0.43 c p3
226.91 505.59 0.43 c p3
227.06 506.08 0.43 c p3
227.20 505.93 0.43 c p3
227.35 506.08 0.43 c p3
227.50 506.42 0.43 c p3
227.64 505.74 0.43 c p3
227.79 505.25 0.43 c p3
227.93 504.92 0.43 c p3
228.08 504.73 0.43 c p3
228.22 505.74 0.43 c p3
228.37 505.59 0.43 c p3
228.51 505.59 0.43 c p3
228.66 505.41 0.43 c p3
228.81 506.42 0.43 c p3
228.95 505.41 0.43 c p3
229.10 505.41 0.43 c p3
229.24 504.92 0.43 c p3
229.39 505.74 0.43 c p3
229.53 505.41 0.43 c p3
229.68 506.08 0.43 c p3
229.82 505.93 0.43 c p3
229.97 504.58 0.43 c p3
230.12 505.25 0.43 c p3
230.26 505.41 0.43 c p3
230.41 506.08 0.43 c p3
230.55 504.73 0.43 c p3
230.70 505.41 0.43 c p3
230.84 504.73 0.43 c p3
230.99 505.41 0.43 c p3
231.14 505.74 0.43 c p3
231.28 505.41 0.43 c p3
231.43 504.92 0.43 c p3
231.57 505.93 0.43 c p3
231.72 505.41 0.43 c p3
231.86 505.59 0.43 c p3
232.01 505.59 0.43 c p3
232.15 504.92 0.43 c p3
232.30 505.59 0.43 c p3
232.45 504.58 0.43 c p3
232.59 505.41 0.43 c p3
232.74 505.41 0.43 c p3
232.88 505.74 0.43 c p3
233.03 505.59 0.43 c p3
233.17 506.27 0.43 c p3
233.32 505.25 0.43 c p3
233.46 504.92 0.43 c p3
233.61 505.07 0.43 c p3
233.76 506.27 0.43 c p3
233.90 504.73 0.43 c p3
234.05 505.59 0.43 c p3
234.19 505.41 0.43 c p3
234.34 505.93 0.43 c p3
234.48 505.25 0.43 c p3
234.63 504.73 0.43 c p3
234.77 505.59 0.43 c p3
234.92 505.74 0.43 c p3
235.07 505.25 0.43 c p3
235.21 504.73 0.43 c p3
235.36 505.07 0.43 c p3
235.50 505.59 0.43 c p3
235.65 504.73 0.43 c p3
235.79 505.07 0.43 c p3
235.94 505.41 0.43 c p3
236.09 506.08 0.43 c p3
236.23 505.25 0.43 c p3
236.38 505.41 0.43 c p3
236.52 505.59 0.43 c p3
236.67 505.74 0.43 c p3
236.81 505.93 0.43 c p3
236.96 438.59 0.43 c p3
237.10 441.82 0.43 c p3
237.25 446.73 0.43 c p3
237.40 449.11 0.43 c p3
237.54 452.50 0.43 c p3
237.69 454.84 0.43 c p3
237.83 457.89 0.43 c p3
237.98 459.92 0.43 c p3
238.12 463.46 0.43 c p3
238.27 465.69 0.43 c p3
238.41 468.55 0.43 c p3
238.56 470.59 0.43 c p3
238.71 472.43 0.43 c p3
238.85 474.32 0.43 c p3
239.00 476.84 0.43 c p3
239.14 478.54 0.43 c p3
239.29 480.57 0.43 c p3
239.43 481.25 0.43 c p3
239.58 482.57 0.43 c p3
239.72 483.44 0.43 c p3
239.87 485.62 0.43 c p3
240.02 486.15 0.43 c p3
240.16 487.85 0.43 c p3
240.31 489.50 0.43 c p3
240.45 490.03 0.43 c p3
240.60 489.84 0.43 c p3
240.74 490.71 0.43 c p3
240.89 491.39 0.43 c p3
241.04 492.74 0.43 c p3
241.18 493.76 0.43 c p3
241.33 494.25 0.43 c p3
241.47 493.91 0.43 c p3
241.62 494.93 0.43 c p3
241.76 495.12 0.43 c p3
241.91 495.80 0.43 c p3
242.05 496.44 0.43 c p3
242.20 496.29 0.43 c p3
242.35 495.61 0.43 c p3
242.49 496.44 0.43 c p3
242.64 497.45 0.43 c p3
242.78 497.45 0.43 c p3
242.93 497.79 0.43 c p3
243.07 497.30 0.43 c p3
243.22 498.13 0.43 c p3
243.36 498.32 0.43 c p3
243.51 497.79 0.43 c p3
243.66 497.98 0.43 c p3
243.80 498.66 0.43 c p3
243.95 499.15 0.43 c p3
244.09 499.15 0.43 c p3
244.24 497.79 0.43 c p3
244.38 498.13 0.43 c p3
244.53 499.34 0.43 c p3
244.67 498.81 0.43 c p3
244.82 500.17 0.43 c p3
244.97 499.49 0.43 c p3
245.11 499.49 0.43 c p3
245.26 498.81 0.43 c p3
245.40 499.00 0.43 c p3
245.55 500.36 0.43 c p3
245.69 500.70 0.43 c p3
245.84 500.17 0.43 c p3
245.99 499.15 0.43 c p3
246.13 499.49 0.43 c p3
246.28 500.51 0.43 c p3
246.42 500.17 0.43 c p3
246.57 499.15 0.43 c p3
246.71 500.02 0.43 c p3
246.86 500.70 0.43 c p3
247.00 499.34 0.43 c p3
247.15 499.83 0.43 c p3
247.30 499.49 0.43 c p3
247.44 499.83 0.43 c p3
247.59 500.70 0.43 c p3
247.73 500.51 0.43 c p3
247.88 500.02 0.43 c p3
248.02 499.83 0.43 c p3
248.17 499.83 0.43 c p3
248.31 500.70 0.43 c p3
248.46 500.51 0.43 c p3
248.61 499.34 0.43 c p3
248.75 499.34 0.43 c p3
248.90 499.34 0.43 c p3
249.04 499.83 0.43 c p3
249.19 500.36 0.43 c p3
249.33 500.36 0.43 c p3
249.48 500.70 0.43 c p3
249.62 501.03 0.43 c p3
249.77 500.02 0.43 c p3
249.92 500.85 0.43 c p3
250.06 501.19 0.43 c p3
250.21 500.36 0.43 c p3
250.35 499.49 0.43 c p3
250.50 499.68 0.43 c p3
250.64 501.03 0.43 c p3
250.79 499.83 0.43 c p3
250.94 500.36 0.43 c p3
251.08 501.52 0.43 c p3
251.23 500.51 0.43 c p3
251.37 500.51 0.43 c p3
251.52 501.19 0.43 c p3
251.66 499.83 0.43 c p3
251.81 500.02 0.43 c p3
251.95 500.85 0.43 c p3
252.10 500.70 0.43 c p3
252.25 500.17 0.43 c p3
252.39 501.19 0.43 c p3
252.54 500.02 0.43 c p3
252.68 501.52 0.43 c p3
252.83 500.36 0.43 c p3
252.97 500.85 0.43 c p3
253.12 501.03 0.43 c p3
253.26 501.37 0.43 c p3
253.41 501.03 0.43 c p3
253.56 501.52 0.43 c p3
253.70 500.17 0.43 c p3
253.85 499.83 0.43 c p3
253.99 500.51 0.43 c p3
254.14 501.03 0.43 c p3
254.28 501.03 0.43 c p3
254.43 501.19 0.43 c p3
254.57 501.19 0.43 c p3
254.72 501.03 0.43 c p3
254.87 500.85 0.43 c p3
255.01 501.37 0.43 c p3
255.16 500.85 0.43 c p3
255.30 501.52 0.43 c p3
255.45 500.85 0.43 c p3
255.59 500.70 0.43 c p3
255.74 500.51 0.43 c p3
255.88 502.05 0.43 c p3
256.03 501.19 0.43 c p3
256.18 501.86 0.43 c p3
256.32 501.37 0.43 c p3
256.47 501.37 0.43 c p3
256.61 501.37 0.43 c p3
256.76 501.86 0.43 c p3
256.90 502.39 0.43 c p3
257.05 500.85 0.43 c p3
257.20 501.37 0.43 c p3
257.34 501.52 0.43 c p3
257.49 501.19 0.43 c p3
257.63 501.71 0.43 c p3
257.78 501.71 0.43 c p3
257.92 501.19 0.43 c p3
258.07 500.70 0.43 c p3
258.21 501.37 0.43 c p3
258.36 501.37 0.43 c p3
258.51 501.86 0.43 c p3
258.65 501.52 0.43 c p3
258.80 502.73 0.43 c p3
258.94 501.71 0.43 c p3
259.09 501.71 0.43 c p3
259.23 502.20 0.43 c p3
259.38 501.03 0.43 c p3
259.52 501.86 0.43 c p3
259.67 502.05 0.43 c p3
259.82 502.20 0.43 c p3
259.96 501.71 0.43 c p3
260.11 502.05 0.43 c p3
260.25 503.56 0.43 c p3
260.40 501.86 0.43 c p3
260.54 502.05 0.43 c p3
260.69 502.05 0.43 c p3
260.83 501.71 0.43 c p3
260.98 501.37 0.43 c p3
261.13 502.20 0.43 c p3
261.27 501.52 0.43 c p3
261.42 502.05 0.43 c p3
261.56 502.73 0.43 c p3
261.71 502.54 0.43 c p3
261.85 502.20 0.43 c p3
262.00 501.86 0.43 c p3
262.15 502.39 0.43 c p3
262.29 501.71 0.43 c p3
262.44 502.20 0.43 c p3
262.58 502.20 0.43 c p3
262.73 503.22 0.43 c p3
262.87 502.20 0.43 c p3
263.02 502.05 0.43 c p3
263.16 502.39 0.43 c p3
263.31 501.71 0.43 c p3
263.46 502.39 0.43 c p3
263.60 503.41 0.43 c p3
263.75 502.73 0.43 c p3
263.89 502.39 0.43 c p3
264.04 502.54 0.43 c p3
264.18 501.86 0.43 c p3
264.33 502.54 0.43 c p3
264.47 502.88 0.43 c p3
264.62 502.54 0.43 c p3
264.77 502.73 0.43 c p3
264.91 502.88 0.43 c p3
265.06 502.88 0.43 c p3
265.20 502.54 0.43 c p3
265.35 503.22 0.43 c p3
265.49 502.73 0.43 c p3
265.64 502.39 0.43 c p3
265.78 503.41 0.43 c p3
265.93 503.22 0.43 c p3
266.08 503.56 0.43 c p3
266.22 502.73 0.43 c p3
266.37 502.88 0.43 c p3
266.51 502.88 0.43 c p3
266.66 504.05 0.43 c p3
266.80 503.56 0.43 c p3
266.95 502.73 0.43 c p3
267.10 503.22 0.43 c p3
267.24 503.71 0.43 c p3
267.39 503.07 0.43 c p3
267.53 503.41 0.43 c p3
267.68 503.07 0.43 c p3
267.82 502.88 0.43 c p3
267.97 503.41 0.43 c p3
268.11 503.90 0.43 c p3
268.26 503.22 0.43 c p3
268.41 503.71 0.43 c p3
268.55 504.05 0.43 c p3
268.70 503.22 0.43 c p3
268.84 503.41 0.43 c p3
268.99 503.41 0.43 c p3
269.13 503.90 0.43 c p3
269.28 503.56 0.43 c p3
269.42 502.73 0.43 c p3
269.57 503.22 0.43 c p3
269.72 503.07 0.43 c p3
269.86 503.90 0.43 c p3
270.01 504.39 0.43 c p3
270.15 504.05 0.43 c p3
270.30 503.56 0.43 c p3
270.44 503.22 0.43 c p3
270.59 503.71 0.43 c p3
270.73 503.41 0.43 c p3
270.88 504.39 0.43 c p3
271.03 504.39 0.43 c p3
271.17 503.41 0.43 c p3
271.32 504.05 0.43 c p3
271.46 504.05 0.43 c p3
271.61 503.56 0.43 c p3
271.75 504.73 0.43 c p3
271.90 503.90 0.43 c p3
272.05 503.41 0.43 c p3
272.19 504.73 0.43 c p3
272.34 503.90 0.43 c p3
272.48 504.58 0.43 c p3
272.63 504.24 0.43 c p3
272.77 504.73 0.43 c p3
272.92 504.39 0.43 c p3
273.06 504.24 0.43 c p3
273.21 504.24 0.43 c p3
273.36 504.58 0.43 c p3
273.50 504.73 0.43 c p3
273.65 504.39 0.43 c p3
273.79 504.05 0.43 c p3
273.94 504.92 0.43 c p3
274.08 504.92 0.43 c p3
274.23 504.58 0.43 c p3
274.37 505.07 0.43 c p3
274.52 504.92 0.43 c p3
274.67 504.05 0.43 c p3
274.81 504.39 0.43 c p3
274.96 504.92 0.43 c p3
275.10 504.73 0.43 c p3
275.25 505.25 0.43 c p3
275.39 504.92 0.43 c p3
275.54 504.05 0.43 c p3
275.68 504.39 0.43 c p3
275.83 504.24 0.43 c p3
275.98 505.41 0.43 c p3
276.12 503.90 0.43 c p3
276.27 504.58 0.43 c p3
276.41 505.25 0.43 c p3
276.56 504.92 0.43 c p3
276.70 504.58 0.43 c p3
276.85 505.07 0.43 c p3
277.00 505.25 0.43 c p3
277.14 504.92 0.43 c p3
277.29 505.93 0.43 c p3
277.43 505.59 0.43 c p3
277.58 505.25 0.43 c p3
277.72 504.73 0.43 c p3
277.87 505.41 0.43 c p3
278.01 504.58 0.43 c p3
278.16 505.07 0.43 c p3
278.31 505.93 0.43 c p3
278.45 504.92 0.43 c p3
278.60 506.08 0.43 c p3
278.74 505.41 0.43 c p3
278.89 505.74 0.43 c p3
279.03 505.74 0.43 c p3
279.18 505.59 0.43 c p3
279.32 505.93 0.43 c p3
279.47 505.93 0.43 c p3
279.62 506.08 0.43 c p3
279.76 505.59 0.43 c p3
279.91 504.92 0.43 c p3
280.05 505.74 0.43 c p3
280.20 505.93 0.43 c p3
280.34 506.27 0.43 c p3
280.49 505.93 0.43 c p3
280.63 505.74 0.43 c p3
280.78 505.41 0.43 c p3
280.93 506.76 0.43 c p3
281.07 506.27 0.43 c p3
281.22 504.39 0.43 c p3
281.36 505.59 0.43 c p3
281.51 505.93 0.43 c p3
281.65 506.27 0.43 c p3
281.80 505.93 0.43 c p3
281.95 506.27 0.43 c p3
282.09 505.74 0.43 c p3
282.24 505.25 0.43 c p3
282.38 506.08 0.43 c p3
282.53 505.59 0.43 c p3
282.67 506.61 0.43 c p3
282.82 506.27 0.43 c p3
282.96 506.76 0.43 c p3
283.11 505.74 0.43 c p3
283.26 505.41 0.43 c p3
283.40 505.74 0.43 c p3
283.55 506.08 0.43 c p3
283.69 506.95 0.43 c p3
283.84 506.27 0.43 c p3
283.98 505.59 0.43 c p3
284.13 506.61 0.43 c p3
284.27 505.74 0.43 c p3
284.42 506.08 0.43 c p3
284.57 506.95 0.43 c p3
284.71 508.31 0.43 c p3
284.86 506.61 0.43 c p3
285.00 506.08 0.43 c p3
285.15 507.10 0.43 c p3
285.29 506.27 0.43 c p3
285.44 505.93 0.43 c p3
285.58 506.61 0.43 c p3
285.73 506.95 0.43 c p3
285.88 506.95 0.43 c p3
286.02 506.95 0.43 c p3
286.17 507.10 0.43 c p3
286.31 506.61 0.43 c p3
286.46 506.27 0.43 c p3
286.60 506.95 0.43 c p3
286.75 506.08 0.43 c p3
286.89 507.63 0.43 c p3
287.04 507.63 0.43 c p3
287.19 507.10 0.43 c p3
287.33 506.76 0.43 c p3
287.48 506.42 0.43 c p3
287.62 506.27 0.43 c p3
287.77 507.10 0.43 c p3
287.91 507.10 0.43 c p3
288.06 507.10 0.43 c p3
288.21 507.10 0.43 c p3
288.35 507.63 0.43 c p3
288.50 507.29 0.43 c p3
288.64 506.42 0.43 c p3
288.79 507.44 0.43 c p3
288.93 506.27 0.43 c p3
289.08 506.95 0.43 c p3
289.22 506.95 0.43 c p3
289.37 508.12 0.43 c p3
289.52 506.61 0.43 c p3
289.66 507.44 0.43 c p3
289.81 507.78 0.43 c p3
289.95 508.46 0.43 c p3
290.10 507.29 0.43 c p3
290.24 506.95 0.43 c p3
290.39 507.63 0.43 c p3
290.53 508.12 0.43 c p3
290.68 507.63 0.43 c p3
290.83 507.44 0.43 c p3
290.97 507.10 0.43 c p3
291.12 507.78 0.43 c p3
291.26 506.42 0.43 c p3
291.41 507.63 0.43 c p3
291.55 507.44 0.43 c p3
291.70 507.10 0.43 c p3
291.84 507.78 0.43 c p3
291.99 508.31 0.43 c p3
292.14 507.78 0.43 c p3
292.28 507.44 0.43 c p3
292.43 507.97 0.43 c p3
292.57 507.63 0.43 c p3
292.72 507.63 0.43 c p3
292.86 508.46 0.43 c p3
293.01 508.46 0.43 c p3
293.16 507.78 0.43 c p3
293.30 508.65 0.43 c p3
293.45 507.29 0.43 c p3
293.59 507.97 0.43 c p3
293.74 508.80 0.43 c p3
293.88 508.12 0.43 c p3
294.03 508.12 0.43 c p3
294.17 507.63 0.43 c p3
294.32 507.44 0.43 c p3
294.47 508.46 0.43 c p3
294.61 507.97 0.43 c p3
294.76 508.31 0.43 c p3
294.90 507.29 0.43 c p3
295.05 509.32 0.43 c p3
295.19 508.46 0.43 c p3
295.34 507.44 0.43 c p3
295.48 508.46 0.43 c p3
295.63 507.78 0.43 c p3
295.78 508.80 0.43 c p3
295.92 507.97 0.43 c p3
296.07 508.46 0.43 c p3
296.21 509.32 0.43 c p3
296.36 507.78 0.43 c p3
296.50 507.97 0.43 c p3
296.65 508.12 0.43 c p3
296.79 508.12 0.43 c p3
296.94 508.12 0.43 c p3
297.09 508.99 0.43 c p3
297.23 509.48 0.43 c p3
297.38 509.48 0.43 c p3
297.52 508.65 0.43 c p3
297.67 508.46 0.43 c p3
297.81 508.80 0.43 c p3
297.96 508.31 0.43 c p3
298.11 508.46 0.43 c p3
298.25 508.46 0.43 c p3
298.40 508.99 0.43 c p3
298.54 509.14 0.43 c p3
298.69 508.31 0.43 c p3
298.83 508.65 0.43 c p3
298.98 508.12 0.43 c p3
299.12 508.31 0.43 c p3
299.27 509.48 0.43 c p3
299.42 508.80 0.43 c p3
299.56 508.12 0.43 c p3
299.71 508.80 0.43 c p3
299.85 508.12 0.43 c p3
300.00 508.80 0.43 c p3
300.14 509.14 0.43 c p3
300.29 508.31 0.43 c p3
300.43 509.32 0.43 c p3
300.58 508.65 0.43 c p3
300.73 509.48 0.43 c p3
300.87 508.99 0.43 c p3
301.02 509.32 0.43 c p3
301.16 509.32 0.43 c p3
301.31 508.99 0.43 c p3
301.45 507.44 0.43 c p3
301.60 508.46 0.43 c p3
301.74 508.99 0.43 c p3
301.89 509.32 0.43 c p3
302.04 509.14 0.43 c p3
302.18 509.66 0.43 c p3
302.33 508.46 0.43 c p3
302.47 508.99 0.43 c p3
302.62 508.80 0.43 c p3
302.76 509.14 0.43 c p3
302.91 508.80 0.43 c p3
303.06 509.66 0.43 c p3
303.20 508.99 0.43 c p3
303.35 509.14 0.43 c p3
303.49 508.80 0.43 c p3
303.64 509.48 0.43 c p3
303.78 509.32 0.43 c p3
303.93 508.65 0.43 c p3
304.07 509.48 0.43 c p3
304.22 508.65 0.43 c p3
304.37 508.80 0.43 c p3
304.51 509.48 0.43 c p3
304.66 509.48 0.43 c p3
304.80 509.66 0.43 c p3
304.95 509.32 0.43 c p3
305.09 509.14 0.43 c p3
305.24 509.14 0.43 c p3
305.38 509.66 0.43 c p3
305.53 510.15 0.43 c p3
305.68 509.32 0.43 c p3
305.82 509.66 0.43 c p3
305.97 509.48 0.43 c p3
306.11 508.80 0.43 c p3
306.26 508.80 0.43 c p3
306.40 509.81 0.43 c p3
306.55 509.66 0.43 c p3
306.69 509.48 0.43 c p3
306.84 509.14 0.43 c p3
306.99 509.14 0.43 c p3
307.13 509.32 0.43 c p3
307.28 509.48 0.43 c p3
307.42 510.34 0.43 c p3
307.57 509.81 0.43 c p3
307.71 509.32 0.43 c p3
307.86 510.00 0.43 c p3
308.01 510.34 0.43 c p3
308.15 509.66 0.43 c p3
308.30 509.14 0.43 c p3
308.44 509.81 0.43 c p3
308.59 509.14 0.43 c p3
308.73 509.14 0.43 c p3
308.88 510.00 0.43 c p3
309.02 509.81 0.43 c p3
309.17 509.81 0.43 c p3
309.32 509.66 0.43 c p3
309.46 509.66 0.43 c p3
309.61 509.81 0.43 c p3
309.75 509.66 0.43 c p3
309.90 509.66 0.43 c p3
310.04 510.15 0.43 c p3
310.19 510.49 0.43 c p3
310.33 509.66 0.43 c p3
310.48 509.66 0.43 c p3
310.63 510.15 0.43 c p3
310.77 509.66 0.43 c p3
310.92 509.81 0.43 c p3
311.06 509.48 0.43 c p3
311.21 509.66 0.43 c p3
311.35 510.15 0.43 c p3
311.50 509.66 0.43 c p3
311.64 509.14 0.43 c p3
311.79 510.15 0.43 c p3
311.94 510.00 0.43 c p3
312.08 508.99 0.43 c p3
312.23 510.00 0.43 c p3
312.37 510.15 0.43 c p3
312.52 509.66 0.43 c p3
312.66 510.83 0.43 c p3
312.81 509.81 0.43 c p3
312.96 510.00 0.43 c p3
313.10 510.34 0.43 c p3
313.25 510.68 0.43 c p3
313.39 510.15 0.43 c p3
313.54 509.81 0.43 c p3
313.68 510.00 0.43 c p3
313.83 509.66 0.43 c p3
313.97 510.00 0.43 c p3
314.12 509.66 0.43 c p3
314.27 510.49 0.43 c p3
314.41 510.98 0.43 c p3
314.56 510.34 0.43 c p3
314.70 510.83 0.43 c p3
314.85 510.00 0.43 c p3
314.99 511.32 0.43 c p3
315.14 510.34 0.43 c p3
315.28 510.68 0.43 c p3
315.43 510.34 0.43 c p3
315.58 510.83 0.43 c p3
315.72 510.34 0.43 c p3
315.87 509.81 0.43 c p3
316.01 509.81 0.43 c p3
316.16 510.83 0.43 c p3
316.30 510.00 0.43 c p3
316.45 510.34 0.43 c p3
316.59 509.66 0.43 c p3
316.74 510.15 0.43 c p3
316.89 509.66 0.43 c p3
317.03 510.34 0.43 c p3
317.18 509.66 0.43 c p3
317.32 510.00 0.43 c p3
317.47 510.49 0.43 c p3
317.61 510.49 0.43 c p3
317.76 510.68 0.43 c p3
317.91 509.81 0.43 c p3
318.05 510.34 0.43 c p3
318.20 509.66 0.43 c p3
318.34 510.00 0.43 c p3
318.49 509.81 0.43 c p3
318.63 509.66 0.43 c p3
318.78 510.49 0.43 c p3
318.92 510.83 0.43 c p3
319.07 510.49 0.43 c p3
319.22 509.81 0.43 c p3
319.36 510.49 0.43 c p3
319.51 510.83 0.43 c p3
319.65 510.98 0.43 c p3
319.80 509.66 0.43 c p3
319.94 510.98 0.43 c p3
320.09 510.83 0.43 c p3
320.23 510.15 0.43 c p3
320.38 510.15 0.43 c p3
320.53 510.49 0.43 c p3
320.67 511.32 0.43 c p3
320.82 510.34 0.43 c p3
320.96 511.32 0.43 c p3
321.11 510.34 0.43 c p3
321.25 510.34 0.43 c p3
321.40 510.15 0.43 c p3
321.54 511.32 0.43 c p3
321.69 510.83 0.43 c p3
321.84 510.68 0.43 c p3
321.98 511.17 0.43 c p3
322.13 509.81 0.43 c p3
322.27 510.83 0.43 c p3
322.42 510.49 0.43 c p3
322.56 510.49 0.43 c p3
322.71 510.34 0.43 c p3
322.85 510.00 0.43 c p3
323.00 510.68 0.43 c p3
323.15 511.51 0.43 c p3
323.29 510.15 0.43 c p3
323.44 510.49 0.43 c p3
323.58 510.49 0.43 c p3
323.73 510.49 0.43 c p3
323.87 510.49 0.43 c p3
324.02 510.15 0.43 c p3
324.17 511.17 0.43 c p3
324.31 510.49 0.43 c p3
324.46 510.49 0.43 c p3
324.60 510.15 0.43 c p3
324.75 510.49 0.43 c p3
324.89 510.68 0.43 c p3
325.04 509.81 0.43 c p3
325.18 510.68 0.43 c p3
325.33 510.34 0.43 c p3
325.48 511.17 0.43 c p3
325.62 510.49 0.43 c p3
325.77 510.98 0.43 c p3
325.91 510.49 0.43 c p3
326.06 510.98 0.43 c p3
326.20 510.15 0.43 c p3
326.35 510.49 0.43 c p3
326.49 510.68 0.43 c p3
326.64 510.49 0.43 c p3
326.79 510.68 0.43 c p3
326.93 510.49 0.43 c p3
327.08 510.34 0.43 c p3
327.22 510.49 0.43 c p3
327.37 509.81 0.43 c p3
327.51 510.98 0.43 c p3
327.66 510.34 0.43 c p3
327.80 510.68 0.43 c p3
327.95 510.34 0.43 c p3
328.10 511.32 0.43 c p3
328.24 510.49 0.43 c p3
328.39 510.83 0.43 c p3
328.53 510.15 0.43 c p3
328.68 511.17 0.43 c p3
328.82 510.34 0.43 c p3
328.97 510.34 0.43 c p3
329.12 510.83 0.43 c p3
329.26 510.98 0.43 c p3
329.41 510.49 0.43 c p3
329.55 511.32 0.43 c p3
329.70 510.00 0.43 c p3
329.84 510.68 0.43 c p3
329.99 510.68 0.43 c p3
330.13 510.83 0.43 c p3
330.28 510.68 0.43 c p3
330.43 510.98 0.43 c p3
330.57 510.15 0.43 c p3
330.72 510.98 0.43 c p3
330.86 510.00 0.43 c p3
331.01 510.15 0.43 c p3
331.15 510.68 0.43 c p3
331.30 510.68 0.43 c p3
331.44 510.49 0.43 c p3
331.59 510.00 0.43 c p3
331.74 510.68 0.43 c p3
331.88 511.32 0.43 c p3
332.03 509.48 0.43 c p3
332.17 510.49 0.43 c p3
332.32 510.98 0.43 c p3
332.46 510.34 0.43 c p3
332.61 510.83 0.43 c p3
332.75 511.17 0.43 c p3
332.90 510.15 0.43 c p3
333.05 511.66 0.43 c p3
333.19 510.34 0.43 c p3
333.34 510.49 0.43 c p3
333.48 510.83 0.43 c p3
333.63 510.83 0.43 c p3
333.77 510.83 0.43 c p3
333.92 509.66 0.43 c p3
334.07 511.17 0.43 c p3
334.21 510.68 0.43 c p3
334.36 511.85 0.43 c p3
334.50 510.68 0.43 c p3
334.65 510.83 0.43 c p3
334.79 510.68 0.43 c p3
334.94 510.49 0.43 c p3
335.08 510.49 0.43 c p3
335.23 510.83 0.43 c p3
335.38 510.34 0.43 c p3
335.52 510.83 0.43 c p3
335.67 511.66 0.43 c p3
335.81 510.83 0.43 c p3
335.96 510.83 0.43 c p3
336.10 510.34 0.43 c p3
336.25 510.15 0.43 c p3
336.39 510.34 0.43 c p3
336.54 511.32 0.43 c p3
336.69 511.32 0.43 c p3
336.83 510.83 0.43 c p3
336.98 510.83 0.43 c p3
337.12 510.98 0.43 c p3
337.27 509.14 0.43 c p3
337.41 510.98 0.43 c p3
337.56 510.49 0.43 c p3
337.70 510.49 0.43 c p3
337.85 510.98 0.43 c p3
338.00 510.68 0.43 c p3
338.14 510.49 0.43 c p3
338.29 510.98 0.43 c p3
338.43 510.98 0.43 c p3
338.58 510.49 0.43 c p3
338.72 510.68 0.43 c p3
338.87 510.49 0.43 c p3
339.02 510.98 0.43 c p3
339.16 510.83 0.43 c p3
339.31 510.68 0.43 c p3
339.45 510.98 0.43 c p3
339.60 510.68 0.43 c p3
339.74 511.17 0.43 c p3
339.89 510.49 0.43 c p3
340.03 511.66 0.43 c p3
340.18 510.34 0.43 c p3
340.33 510.98 0.43 c p3
340.47 510.83 0.43 c p3
340.62 510.83 0.43 c p3
340.76 510.83 0.43 c p3
340.91 511.66 0.43 c p3
341.05 510.68 0.43 c p3
341.20 510.34 0.43 c p3
341.34 510.98 0.43 c p3
341.49 510.49 0.43 c p3
341.64 510.34 0.43 c p3
341.78 510.34 0.43 c p3
341.93 511.51 0.43 c p3
342.07 510.68 0.43 c p3
342.22 510.98 0.43 c p3
342.36 510.15 0.43 c p3
342.51 509.81 0.43 c p3
342.65 510.15 0.43 c p3
342.80 510.34 0.43 c p3
342.95 511.85 0.43 c p3
343.09 510.49 0.43 c p3
343.24 511.17 0.43 c p3
343.38 511.17 0.43 c p3
343.53 511.51 0.43 c p3
343.67 509.48 0.43 c p3
343.82 509.66 0.43 c p3
343.97 510.68 0.43 c p3
344.11 510.49 0.43 c p3
344.26 511.32 0.43 c p3
344.40 511.66 0.43 c p3
344.55 510.00 0.43 c p3
344.69 510.49 0.43 c p3
344.84 509.66 0.43 c p3
344.98 511.51 0.43 c p3
345.13 510.49 0.43 c p3
345.28 511.51 0.43 c p3
345.42 511.85 0.43 c p3
345.57 511.17 0.43 c p3
345.71 510.15 0.43 c p3
345.86 511.17 0.43 c p3
346.00 511.17 0.43 c p3
346.15 509.48 0.43 c p3
346.29 510.00 0.43 c p3
346.44 512.00 0.43 c p3
346.59 510.34 0.43 c p3
346.73 510.98 0.43 c p3
346.88 510.15 0.43 c p3
347.02 510.83 0.43 c p3
347.17 510.68 0.43 c p3
347.31 510.98 0.43 c p3
347.46 510.15 0.43 c p3
347.60 510.98 0.43 c p3
347.75 510.83 0.43 c p3
347.90 511.17 0.43 c p3
348.04 510.83 0.43 c p3
348.19 510.98 0.43 c p3
348.33 510.49 0.43 c p3
348.48 510.83 0.43 c p3
348.62 510.49 0.43 c p3
348.77 510.68 0.43 c p3
348.92 509.48 0.43 c p3
349.06 510.49 0.43 c p3
349.21 510.68 0.43 c p3
349.35 511.17 0.43 c p3
349.50 510.49 0.43 c p3
349.64 510.34 0.43 c p3
349.79 509.48 0.43 c p3
349.93 511.85 0.43 c p3
350.08 510.49 0.43 c p3
350.23 510.68 0.43 c p3
350.37 510.34 0.43 c p3
350.52 511.66 0.43 c p3
350.66 509.48 0.43 c p3
350.81 511.51 0.43 c p3
350.95 510.98 0.43 c p3
351.10 510.98 0.43 c p3
351.24 511.17 0.43 c p3
351.39 511.51 0.43 c p3
351.54 509.66 0.43 c p3
351.68 510.34 0.43 c p3
351.83 510.15 0.43 c p3
351.97 510.15 0.43 c p3
352.12 510.83 0.43 c p3
352.26 510.98 0.43 c p3
352.41 510.49 0.43 c p3
352.55 511.32 0.43 c p3
352.70 510.49 0.43 c p3
352.85 510.49 0.43 c p3
352.99 510.83 0.43 c p3
353.14 510.83 0.43 c p3
353.28 510.34 0.43 c p3
353.43 511.32 0.43 c p3
353.57 511.32 0.43 c p3
353.72 510.68 0.43 c p3
353.86 510.15 0.43 c p3
354.01 510.83 0.43 c p3
354.16 509.66 0.43 c p3
354.30 510.34 0.43 c p3
354.45 511.32 0.43 c p3
354.59 510.00 0.43 c p3
354.74 510.83 0.43 c p3
354.88 511.51 0.43 c p3
355.03 510.83 0.43 c p3
355.18 510.15 0.43 c p3
355.32 510.68 0.43 c p3
355.47 510.49 0.43 c p3
355.61 510.98 0.43 c p3
355.76 511.17 0.43 c p3
355.90 510.98 0.43 c p3
356.05 510.98 0.43 c p3
356.19 511.17 0.43 c p3
356.34 510.83 0.43 c p3
356.49 509.81 0.43 c p3
356.63 510.15 0.43 c p3
356.78 510.83 0.43 c p3
356.92 511.66 0.43 c p3
357.07 510.83 0.43 c p3
357.21 510.49 0.43 c p3
357.36 510.49 0.43 c p3
357.50 510.49 0.43 c p3
357.65 510.68 0.43 c p3
357.80 510.00 0.43 c p3
357.94 510.49 0.43 c p3
358.09 511.32 0.43 c p3
358.23 510.00 0.43 c p3
358.38 510.15 0.43 c p3
358.52 509.66 0.43 c p3
358.67 511.17 0.43 c p3
358.81 510.34 0.43 c p3
358.96 511.17 0.43 c p3
359.11 510.49 0.43 c p3
359.25 511.17 0.43 c p3
359.40 510.00 0.43 c p3
359.54 510.83 0.43 c p3
359.69 510.98 0.43 c p3
359.83 510.34 0.43 c p3
359.98 511.17 0.43 c p3
360.13 510.49 0.43 c p3
360.27 510.15 0.43 c p3
360.42 511.17 0.43 c p3
360.56 509.66 0.43 c p3
360.71 510.49 0.43 c p3
360.85 510.00 0.43 c p3
361.00 510.49 0.43 c p3
361.14 510.34 0.43 c p3
361.29 511.51 0.43 c p3
361.44 510.49 0.43 c p3
361.58 510.15 0.43 c p3
361.73 510.34 0.43 c p3
361.87 509.81 0.43 c p3
362.02 509.66 0.43 c p3
362.16 510.83 0.43 c p3
362.31 510.98 0.43 c p3
362.45 510.34 0.43 c p3
362.60 510.49 0.43 c p3
362.75 510.83 0.43 c p3
362.89 510.15 0.43 c p3
363.04 510.83 0.43 c p3
363.18 510.83 0.43 c p3
363.33 509.81 0.43 c p3
363.47 510.00 0.43 c p3
363.62 510.49 0.43 c p3
363.76 509.14 0.43 c p3
363.91 509.81 0.43 c p3
364.06 510.98 0.43 c p3
364.20 510.98 0.43 c p3
364.35 509.81 0.43 c p3
364.49 509.66 0.43 c p3
364.64 510.15 0.43 c p3
364.78 509.81 0.43 c p3
364.93 510.00 0.43 c p3
365.08 510.34 0.43 c p3
365.22 510.34 0.43 c p3
365.37 511.17 0.43 c p3
365.51 511.32 0.43 c p3
365.66 510.00 0.43 c p3
365.80 509.66 0.43 c p3
365.95 510.83 0.43 c p3
366.09 510.00 0.43 c p3
366.24 510.83 0.43 c p3
366.39 510.98 0.43 c p3
366.53 510.68 0.43 c p3
366.68 510.83 0.43 c p3
366.82 510.68 0.43 c p3
366.97 510.34 0.43 c p3
367.11 510.34 0.43 c p3
367.26 510.98 0.43 c p3
367.40 510.49 0.43 c p3
367.55 509.48 0.43 c p3
367.70 510.83 0.43 c p3
367.84 511.17 0.43 c p3
367.99 510.15 0.43 c p3
368.13 510.00 0.43 c p3
368.28 510.00 0.43 c p3
368.42 509.66 0.43 c p3
368.57 510.98 0.43 c p3
368.71 510.68 0.43 c p3
368.86 510.34 0.43 c p3
369.01 510.49 0.43 c p3
369.15 511.32 0.43 c p3
369.30 510.15 0.43 c p3
369.44 510.00 0.43 c p3
369.59 510.68 0.43 c p3
369.73 510.68 0.43 c p3
369.88 510.49 0.43 c p3
370.03 510.15 0.43 c p3
370.17 509.66 0.43 c p3
370.32 510.83 0.43 c p3
370.46 509.32 0.43 c p3
370.61 511.17 0.43 c p3
370.75 510.15 0.43 c p3
370.90 509.32 0.43 c p3
371.04 510.98 0.43 c p3
371.19 510.15 0.43 c p3
371.34 510.00 0.43 c p3
371.48 510.34 0.43 c p3
371.63 510.68 0.43 c p3
371.77 510.49 0.43 c p3
371.92 509.32 0.43 c p3
372.06 510.34 0.43 c p3
372.21 510.15 0.43 c p3
372.35 511.17 0.43 c p3
372.50 510.15 0.43 c p3
372.65 510.34 0.43 c p3
372.79 510.00 0.43 c p3
372.94 510.49 0.43 c p3
373.08 510.34 0.43 c p3
373.23 509.81 0.43 c p3
373.37 510.34 0.43 c p3
373.52 509.81 0.43 c p3
373.66 511.51 0.43 c p3
373.81 510.98 0.43 c p3
373.96 510.00 0.43 c p3
374.10 510.68 0.43 c p3
374.25 510.00 0.43 c p3
374.39 510.34 0.43 c p3
374.54 510.49 0.43 c p3
374.68 510.98 0.43 c p3
374.83 509.81 0.43 c p3
374.98 510.68 0.43 c p3
375.12 509.32 0.43 c p3
375.27 509.81 0.43 c p3
375.41 510.34 0.43 c p3
375.56 510.34 0.43 c p3
375.70 510.49 0.43 c p3
375.85 510.34 0.43 c p3
375.99 510.49 0.43 c p3
376.14 510.83 0.43 c p3
376.29 509.66 0.43 c p3
376.43 510.15 0.43 c p3
376.58 510.15 0.43 c p3
376.72 510.68 0.43 c p3
376.87 510.49 0.43 c p3
377.01 511.51 0.43 c p3
377.16 512.00 0.43 c p3
377.30 510.98 0.43 c p3
377.45 510.98 0.43 c p3
377.60 511.32 0.43 c p3
377.74 510.68 0.43 c p3
377.89 510.34 0.43 c p3
378.03 508.99 0.43 c p3
378.18 510.68 0.43 c p3
378.32 510.34 0.43 c p3
378.47 510.34 0.43 c p3
378.61 508.99 0.43 c p3
378.76 510.34 0.43 c p3
378.91 510.49 0.43 c p3
379.05 509.32 0.43 c p3
379.20 510.00 0.43 c p3
379.34 510.68 0.43 c p3
379.49 510.68 0.43 c p3
379.63 510.68 0.43 c p3
379.78 510.49 0.43 c p3
379.93 511.17 0.43 c p3
380.07 510.00 0.43 c p3
380.22 510.98 0.43 c p3
380.36 509.81 0.43 c p3
380.51 510.98 0.43 c p3
380.65 509.81 0.43 c p3
380.80 510.68 0.43 c p3
380.94 510.00 0.43 c p3
381.09 510.49 0.43 c p3
381.24 510.34 0.43 c p3
381.38 509.32 0.43 c p3
381.53 510.68 0.43 c p3
381.67 509.48 0.43 c p3
381.82 510.34 0.43 c p3
381.96 510.68 0.43 c p3
382.11 510.34 0.43 c p3
382.25 510.83 0.43 c p3
382.40 510.15 0.43 c p3
0.00 0.00 432.00 576.00 cl
0 0 0 srgb
0.75 setlinewidth
[] 0 setdash
1 setlinecap
1 setlinejoin
10.00 setmiterlimit
np
236.96 345.60 m
145.59 0 l
o
np
236.96 345.60 m
0 -5.76 l
o
np
266.08 345.60 m
0 -5.76 l
o
np
295.19 345.60 m
0 -5.76 l
o
np
324.31 345.60 m
0 -5.76 l
o
np
353.43 345.60 m
0 -5.76 l
o
np
382.55 345.60 m
0 -5.76 l
o
/Font1 findfont 10 s
236.96 329.47 (0) .5 0 t
266.08 329.47 (2000) .5 0 t
324.31 329.47 (6000) .5 0 t
382.55 329.47 (10000) .5 0 t
np
216.00 352.00 m
0 154.34 l
o
np
216.00 352.00 m
-5.76 0 l
o
np
216.00 382.87 m
-5.76 0 l
o
np
216.00 413.74 m
-5.76 0 l
o
np
216.00 444.61 m
-5.76 0 l
o
np
216.00 475.47 m
-5.76 0 l
o
np
216.00 506.34 m
-5.76 0 l
o
209.09 348.41 (0.0) 1 0 t
209.09 379.28 (0.2) 1 0 t
209.09 410.15 (0.4) 1 0 t
209.09 441.02 (0.6) 1 0 t
209.09 471.88 (0.8) 1 0 t
209.09 502.75 (1.0) 1 0 t
np
216.00 345.60 m
172.80 0 l
0 172.80 l
-172.80 0 l
0 -172.80 l
o
0.00 0.00 432.00 576.00 cl
/Font1 findfont 10 s
0 0 0 srgb
302.40 313.34 (Zeit / ms \(total\)) .5 0 t
190.66 432.00 (U / V) .5 90 t
216.00 345.60 388.80 518.40 cl
0 0 0 srgb
0.38 setlinewidth
[ 1.12 1.88] 0 setdash
1 setlinecap
1 setlinejoin
10.00 setmiterlimit
np
223.42 345.60 m
0 172.80 l
o
np
234.77 345.60 m
0 172.80 l
o
np
238.27 345.60 m
0 172.80 l
o
np
244.38 345.60 m
0 172.80 l
o
86.40 57.60 388.80 288.00 cl
1 0 0 srgb
1.50 setlinewidth
[] 0 setdash
1 setlinecap
1 setlinejoin
10.00 setmiterlimit
np
97.60 279.47 m
1.41 -70.52 l
1.40 -45.85 l
1.41 -29.80 l
1.41 -19.37 l
1.41 -12.60 l
1.40 -8.18 l
1.41 -5.33 l
1.41 -3.46 l
1.40 -2.25 l
1.41 -1.46 l
1.41 -0.95 l
1.40 -0.62 l
1.41 -0.40 l
1.41 -0.26 l
1.41 -0.17 l
1.40 -0.11 l
1.41 -0.07 l
1.41 -0.05 l
1.40 -0.03 l
1.41 -0.02 l
1.41 -0.01 l
1.40 -0.01 l
1.41 0 l
1.41 -0.01 l
1.41 0 l
1.40 0 l
1.41 0 l
1.41 0 l
1.40 0 l
1.41 0 l
1.41 0 l
1.41 0 l
1.40 0 l
1.41 0 l
1.41 0 l
1.40 0 l
1.41 0 l
1.41 0 l
1.40 0 l
1.41 0 l
1.41 0 l
1.41 0 l
1.40 0 l
1.41 0 l
1.41 0 l
1.40 0 l
1.41 0 l
1.41 0 l
1.40 0 l
1.41 0 l
1.41 0 l
1.41 0 l
1.40 0 l
1.41 0 l
1.41 0 l
1.40 0 l
1.41 0 l
1.41 0 l
1.41 0 l
1.40 0 l
1.41 0 l
1.41 0 l
1.40 0 l
1.41 0 l
1.41 0 l
1.40 0 l
1.41 0 l
1.41 0 l
1.41 0 l
1.40 0 l
1.41 0 l
1.41 0 l
1.40 0 l
1.41 0 l
1.41 0 l
1.40 0 l
1.41 0 l
1.41 0 l
1.41 0 l
1.40 0 l
1.41 0 l
1.41 0 l
1.40 0 l
1.41 0 l
1.41 0 l
1.41 0 l
1.40 0 l
1.41 0 l
1.41 0 l
1.40 0 l
1.41 0 l
1.41 0 l
1.40 0 l
1.41 0 l
1.41 0 l
1.41 0 l
1.40 0 l
1.41 0 l
1.41 0 l
238.30 77.94 lineto
1.41 0 l
1.41 0 l
1.40 0 l
1.41 0 l
1.41 0 l
1.41 0 l
1.40 0 l
1.41 0 l
1.41 0 l
1.40 0 l
1.41 0 l
1.41 0 l
1.40 0 l
1.41 0 l
1.41 0 l
1.41 0 l
1.40 0 l
1.41 0 l
1.41 0 l
1.40 0 l
1.41 0 l
1.41 0 l
1.41 0 l
1.40 0 l
1.41 0 l
1.41 0 l
1.40 0 l
1.41 0 l
1.41 0 l
1.40 0 l
1.41 0 l
1.41 0 l
1.41 0 l
1.40 0 l
1.41 0 l
1.41 0 l
1.40 0 l
1.41 0 l
1.41 0 l
1.40 0 l
1.41 0 l
1.41 0 l
1.41 0 l
1.40 0 l
1.41 0 l
1.41 0 l
1.40 0 l
1.41 0 l
1.41 0 l
1.41 0 l
1.40 0 l
1.41 0 l
1.41 0 l
1.40 0 l
1.41 0 l
1.41 0 l
1.40 0 l
1.41 0 l
1.41 0 l
1.41 0 l
1.40 0 l
1.41 0 l
1.41 0 l
1.40 0 l
1.41 0 l
1.41 0 l
1.40 0 l
1.41 0 l
1.41 0 l
1.41 0 l
1.40 0 l
1.41 0 l
1.41 0 l
1.40 0 l
1.41 0 l
1.41 0 l
1.41 0 l
1.40 0 l
1.41 0 l
1.41 0 l
1.40 0 l
1.41 0 l
1.41 0 l
1.40 0 l
1.41 0 l
1.41 0 l
1.41 0 l
1.40 0 l
1.41 0 l
1.41 0 l
1.40 0 l
1.41 0 l
1.41 0 l
1.40 0 l
1.41 0 l
1.41 0 l
1.41 0 l
1.40 0 l
1.41 0 l
o
0.00 0.00 432.00 576.00 cl
0 0 0 srgb
0.75 setlinewidth
[] 0 setdash
1 setlinecap
1 setlinejoin
10.00 setmiterlimit
np
97.60 57.60 m
280.00 0 l
o
np
97.60 57.60 m
0 -5.76 l
o
np
153.60 57.60 m
0 -5.76 l
o
np
209.60 57.60 m
0 -5.76 l
o
np
265.60 57.60 m
0 -5.76 l
o
np
321.60 57.60 m
0 -5.76 l
o
np
377.60 57.60 m
0 -5.76 l
o
/Font1 findfont 10 s
97.60 41.47 (0) .5 0 t
153.60 41.47 (2000) .5 0 t
209.60 41.47 (4000) .5 0 t
265.60 41.47 (6000) .5 0 t
321.60 41.47 (8000) .5 0 t
377.60 41.47 (10000) .5 0 t
np
86.40 66.13 m
0 186.89 l
o
np
86.40 66.13 m
-5.76 0 l
o
np
86.40 103.51 m
-5.76 0 l
o
np
86.40 140.89 m
-5.76 0 l
o
np
86.40 178.26 m
-5.76 0 l
o
np
86.40 215.64 m
-5.76 0 l
o
np
86.40 253.02 m
-5.76 0 l
o
79.49 62.54 (0.00) 1 0 t
79.49 99.92 (0.05) 1 0 t
79.49 137.30 (0.10) 1 0 t
79.49 174.67 (0.15) 1 0 t
79.49 212.05 (0.20) 1 0 t
79.49 249.43 (0.25) 1 0 t
np
86.40 57.60 m
302.40 0 l
0 230.40 l
-302.40 0 l
0 -230.40 l
o
0.00 0.00 432.00 576.00 cl
/Font1 findfont 10 s
0 0 0 srgb
237.60 13.82 (Zeit / ms \(nach Puls\)) .5 0 t
49.54 172.80 (Absorbanz A) .5 90 t
86.40 57.60 388.80 288.00 cl
/bg { 1 1 1 srgb } def
0 0 0 srgb
0.75 setlinewidth
[] 0 setdash
1 setlinecap
1 setlinejoin
10.00 setmiterlimit
100.40 163.48 0.65 c p3
100.68 155.40 0.65 c p3
100.96 149.78 0.65 c p3
101.24 144.76 0.65 c p3
101.52 139.72 0.65 c p3
101.80 133.09 0.65 c p3
102.08 128.71 0.65 c p3
102.36 123.53 0.65 c p3
102.64 121.82 0.65 c p3
102.92 118.53 0.65 c p3
103.20 116.38 0.65 c p3
103.48 111.03 0.65 c p3
103.76 109.75 0.65 c p3
104.04 105.67 0.65 c p3
104.32 101.73 0.65 c p3
104.60 100.49 0.65 c p3
104.88 100.93 0.65 c p3
105.16 98.90 0.65 c p3
105.44 97.31 0.65 c p3
105.72 94.17 0.65 c p3
106.00 91.83 0.65 c p3
106.28 90.71 0.65 c p3
106.56 91.49 0.65 c p3
106.84 89.17 0.65 c p3
107.12 88.74 0.65 c p3
107.40 87.20 0.65 c p3
107.68 85.76 0.65 c p3
107.96 86.10 0.65 c p3
108.24 87.63 0.65 c p3
108.52 85.76 0.65 c p3
108.80 83.48 0.65 c p3
109.08 83.48 0.65 c p3
109.36 82.73 0.65 c p3
109.64 83.82 0.65 c p3
109.92 81.97 0.65 c p3
110.20 81.55 0.65 c p3
110.48 82.73 0.65 c p3
110.76 82.31 0.65 c p3
111.04 80.80 0.65 c p3
111.32 79.72 0.65 c p3
111.60 79.72 0.65 c p3
111.88 82.73 0.65 c p3
112.16 81.97 0.65 c p3
216.00 201.60 367.20 247.68 cl
0 0 0 srgb
0.75 setlinewidth
[] 0 setdash
1 setlinecap
1 setlinejoin
10.00 setmiterlimit
221.60 224.67 0.43 c p1
224.93 218.00 0.43 c p1
228.27 223.26 0.43 c p1
231.60 228.98 0.43 c p1
234.93 231.47 0.43 c p1
238.27 221.03 0.43 c p1
241.60 222.28 0.43 c p1
244.93 216.07 0.43 c p1
248.27 229.70 0.43 c p1
251.60 231.24 0.43 c p1
254.93 238.22 0.43 c p1
258.27 223.17 0.43 c p1
261.60 232.42 0.43 c p1
264.93 222.48 0.43 c p1
268.27 212.13 0.43 c p1
271.60 217.67 0.43 c p1
274.93 232.80 0.43 c p1
278.27 231.20 0.43 c p1
281.60 231.54 0.43 c p1
284.93 221.12 0.43 c p1
288.27 215.03 0.43 c p1
291.60 215.96 0.43 c p1
294.93 228.24 0.43 c p1
298.27 220.29 0.43 c p1
301.60 223.79 0.43 c p1
304.93 219.75 0.43 c p1
308.27 215.82 0.43 c p1
311.60 222.78 0.43 c p1
314.93 236.89 0.43 c p1
318.27 229.08 0.43 c p1
321.60 218.33 0.43 c p1
324.93 221.74 0.43 c p1
328.27 220.07 0.43 c p1
331.60 229.87 0.43 c p1
334.93 220.79 0.43 c p1
338.27 220.56 0.43 c p1
341.60 230.22 0.43 c p1
344.93 229.59 0.43 c p1
348.27 221.92 0.43 c p1
351.60 216.77 0.43 c p1
354.93 218.34 0.43 c p1
358.27 238.86 0.43 c p1
361.60 235.41 0.43 c p1
0.00 0.00 432.00 576.00 cl
0 0 0 srgb
0.75 setlinewidth
[] 0 setdash
1 setlinecap
1 setlinejoin
10.00 setmiterlimit
np
221.60 201.60 m
133.33 0 l
o
np
221.60 201.60 m
0 -5.76 l
o
np
254.93 201.60 m
0 -5.76 l
o
np
288.27 201.60 m
0 -5.76 l
o
np
321.60 201.60 m
0 -5.76 l
o
np
354.93 201.60 m
0 -5.76 l
o
/Font1 findfont 6 s
221.60 185.47 (100) .5 0 t
254.93 185.47 (200) .5 0 t
288.27 185.47 (300) .5 0 t
321.60 185.47 (400) .5 0 t
354.93 185.47 (500) .5 0 t
np
216.00 205.67 m
0 37.94 l
o
np
216.00 205.67 m
-5.76 0 l
o
np
216.00 215.16 m
-5.76 0 l
o
np
216.00 224.64 m
-5.76 0 l
o
np
216.00 234.12 m
-5.76 0 l
o
np
216.00 243.61 m
-5.76 0 l
o
209.09 203.52 (-0.004) 1 0 t
209.09 213.00 (-0.002) 1 0 t
209.09 222.49 (0.000) 1 0 t
209.09 231.97 (0.002) 1 0 t
209.09 241.46 (0.004) 1 0 t
np
216.00 201.60 m
151.20 0 l
0 46.08 l
-151.20 0 l
0 -46.08 l
o
0.00 0.00 432.00 576.00 cl
/Font1 findfont 9 s
0 0 0 srgb
291.60 262.88 (Residuen) .5 0 t
59.04 73.44 401.76 516.96 cl
ep
%%Trailer
%%Pages: 1
%%EOF
