%!PS-Adobe-3.0 EPSF-3.0
%%DocumentNeededResources: font Helvetica
%%+ font Helvetica-Bold
%%+ font Helvetica-Oblique
%%+ font Helvetica-BoldOblique
%%+ font Symbol
%%Title: R Graphics Output
%%Creator: R Software
%%Pages: (atend)
%%BoundingBox: 0 0 432 576
%%EndComments
%%BeginProlog
/bp  { gs sRGB gs } def
% begin .ps.prolog
/gs  { gsave } bind def
/gr  { grestore } bind def
/ep  { showpage gr gr } bind def
/m   { moveto } bind def
/l  { rlineto } bind def
/np  { newpath } bind def
/cp  { closepath } bind def
/f   { fill } bind def
/o   { stroke } bind def
/c   { newpath 0 360 arc } bind def
/r   { 4 2 roll moveto 1 copy 3 -1 roll exch 0 exch rlineto 0 rlineto -1 mul 0 exch rlineto closepath } bind def
/p1  { stroke } bind def
/p2  { gsave bg fill grestore newpath } bind def
/p3  { gsave bg fill grestore stroke } bind def
/p6  { gsave bg eofill grestore newpath } bind def
/p7  { gsave bg eofill grestore stroke } bind def
/t   { 5 -2 roll moveto gsave rotate
       1 index stringwidth pop
       mul neg 0 rmoveto show grestore } bind def
/ta  { 4 -2 roll moveto gsave rotate show } bind def
/tb  { 2 -1 roll 0 rmoveto show } bind def
/cl  { grestore gsave newpath 3 index 3 index moveto 1 index
       4 -1 roll lineto  exch 1 index lineto lineto
       closepath clip newpath } bind def
/rgb { setrgbcolor } bind def
/s   { scalefont setfont } bind def
% end   .ps.prolog
/sRGB { [ /CIEBasedABC
          << /DecodeLMN
               [ { dup 0.03928 le
                        {12.92321 div}
                        {0.055 add 1.055 div 2.4 exp }
                     ifelse
                 } bind dup dup
               ]
             /MatrixLMN [0.412457 0.212673 0.019334
                         0.357576 0.715152 0.119192
                         0.180437 0.072175 0.950301]
             /WhitePoint [0.9505 1.0 1.0890]
           >>
         ] setcolorspace } bind def
/srgb { setcolor } bind def
%%IncludeResource: font Helvetica
/Helvetica findfont
dup length dict begin
  {1 index /FID ne {def} {pop pop} ifelse} forall
  /Encoding ISOLatin1Encoding def
  currentdict
  end
/Font1 exch definefont pop
%%IncludeResource: font Helvetica-Bold
/Helvetica-Bold findfont
dup length dict begin
  {1 index /FID ne {def} {pop pop} ifelse} forall
  /Encoding ISOLatin1Encoding def
  currentdict
  end
/Font2 exch definefont pop
%%IncludeResource: font Helvetica-Oblique
/Helvetica-Oblique findfont
dup length dict begin
  {1 index /FID ne {def} {pop pop} ifelse} forall
  /Encoding ISOLatin1Encoding def
  currentdict
  end
/Font3 exch definefont pop
%%IncludeResource: font Helvetica-BoldOblique
/Helvetica-BoldOblique findfont
dup length dict begin
  {1 index /FID ne {def} {pop pop} ifelse} forall
  /Encoding ISOLatin1Encoding def
  currentdict
  end
/Font4 exch definefont pop
%%IncludeResource: font Symbol
/Symbol findfont
dup length dict begin
  {1 index /FID ne {def} {pop pop} ifelse} forall
  currentdict
  end
/Font5 exch definefont pop
%%EndProlog
%%Page: 1 1
bp
0.00 0.00 432.00 576.00 cl
0.00 0.00 432.00 576.00 cl
0.00 0.00 432.00 576.00 cl
/Font1 findfont 12 s
0 0 0 srgb
48.00 508.72 (PCP-ETH) 0 0 t
48.00 494.89 (Blitzlicht-Photolyse) 0 0 t
/Font1 findfont 9 s
48.00 457.54 (File: Dy) 0 ta
-0.180 (e_0_1_V2_900V_40.dat) tb gr
48.00 334.87 (T) 0 ta
-1.080 (ue Apr  9 22:05:18 2019) tb gr
48.00 430.87 (Fitfunktion:  a + b * e) 0 ta
-0.270 (xp\(-c * t\)) tb gr
48.00 420.50 (t-Inter) 0 ta
0.270 (v) tb
-0.225 (all: 9.000 ... 141.500 ms) tb gr
48.00 410.14 (P) 0 ta
-0.360 (ar) tb
-0.090 (ameter \(Standardabw) tb
-0.090 (eichung\):) tb gr
48.00 399.77 (  a = 0.00232 \(0.00026\)) 0 0 t
48.00 389.40 (  b = 0.22402 \(0.00060\)) 0 0 t
48.00 379.03 (  c = 2.726e+01 \(1.549e-01\) s^-1) 0 0 t
48.00 368.66 (  tau = 3.668e-02 \(2.085e-04\) s) 0 0 t
216.00 345.60 388.80 518.40 cl
0 0 0 srgb
0.75 setlinewidth
[] 0 setdash
1 setlinecap
1 setlinejoin
10.00 setmiterlimit
np
222.40 511.41 m
0.15 0.11 l
0.14 0.24 l
0.15 -0.73 l
0.14 0 l
0.15 0.24 l
0.14 0.14 l
0.15 0.11 l
0.14 -0.11 l
0.15 0 l
0.15 -0.38 l
0.14 0 l
0.15 -0.35 l
0.14 0.35 l
0.15 0.14 l
0.14 -0.25 l
0.15 0.11 l
0.14 0 l
0.15 -0.59 l
0.15 0.73 l
0.14 -0.25 l
0.15 0.60 l
0.14 -0.35 l
0.15 0 l
0.14 -0.14 l
0.15 -0.35 l
0.15 0 l
0.14 0.11 l
0.15 -0.11 l
0.14 -0.24 l
0.15 0.73 l
0.14 0.10 l
0.15 -0.59 l
0.14 0.49 l
0.15 -0.25 l
0.15 0.49 l
0.14 -0.49 l
0.15 0.11 l
0.14 0.38 l
0.15 -0.49 l
0.14 0.11 l
0.15 0.14 l
0.14 0.10 l
0.15 -0.24 l
0.15 0 l
0.14 -0.24 l
0.15 0.62 l
0.14 -0.62 l
0.15 0.48 l
0.14 -0.24 l
0.15 0.84 l
0.14 -0.60 l
0.15 -0.10 l
0.15 0.10 l
0.14 -0.48 l
0.15 0.38 l
0.14 0.10 l
0.15 0.14 l
0.14 -0.24 l
0.15 0.24 l
0.15 -0.97 l
0.14 -0.13 l
0.15 0.48 l
0.14 0.13 l
0.15 0 l
0.14 0.11 l
0.15 -0.11 l
0.14 -0.24 l
0.15 0 l
0.15 0.24 l
0.14 0.11 l
0.15 0.73 l
0.14 -0.59 l
0.15 0.10 l
0.14 -0.24 l
0.15 -0.11 l
0.14 0.25 l
0.15 0.35 l
0.15 0.10 l
0.14 -0.21 l
0.15 -0.49 l
0.14 0.35 l
0.15 0.73 l
0.14 -0.97 l
0.15 0 l
0.14 0.38 l
0.15 0.21 l
0.15 -0.59 l
0.14 0.59 l
0.15 -0.10 l
0.14 -1.21 l
0.15 0.72 l
0.14 0 l
0.15 -0.24 l
0.15 -0.11 l
0.14 0.73 l
0.15 -0.38 l
0.14 -0.11 l
0.15 -0.13 l
0.14 0.38 l
236.96 442.13 lineto
0.14 2.06 l
0.15 2.16 l
0.15 1.59 l
0.14 0.97 l
0.15 0.11 l
0.14 1.31 l
0.15 0.25 l
0.14 1.34 l
0.15 0.59 l
0.14 1.21 l
0.15 0.86 l
0.15 0.83 l
0.14 0.49 l
0.15 0.48 l
0.14 0.59 l
0.15 0.73 l
0.14 0.48 l
0.15 0.24 l
0.14 0.14 l
0.15 0.83 l
0.15 -0.35 l
0.14 1.19 l
0.15 0.13 l
0.14 1.80 l
0.15 0.49 l
0.14 0.61 l
0.15 0.59 l
0.15 0.87 l
0.14 0.59 l
0.15 -0.11 l
0.14 0.46 l
0.15 1.10 l
0.14 -0.86 l
0.15 0.24 l
0.14 0.73 l
0.15 0.24 l
0.15 0.97 l
0.14 0.37 l
0.15 1.21 l
0.14 0.24 l
0.15 0.11 l
0.14 0.24 l
0.15 1.70 l
0.14 0.59 l
0.15 -0.11 l
0.15 0.48 l
0.14 0.73 l
0.15 0 l
0.14 0.11 l
0.15 0.37 l
0.14 0.60 l
0.15 0 l
0.14 0.37 l
0.15 0.59 l
0.15 0.35 l
0.14 0.38 l
0.15 1.32 l
0.14 0.13 l
0.15 0.97 l
0.14 -0.62 l
0.15 0.62 l
0.15 0.97 l
0.14 0.72 l
0.15 -0.48 l
0.14 0.24 l
0.15 0 l
0.14 -0.13 l
0.15 0.96 l
0.14 0.24 l
0.15 0 l
0.15 0.49 l
0.14 0.35 l
0.15 0.13 l
0.14 0.59 l
0.15 1.35 l
0.14 0.48 l
0.15 0.49 l
0.14 0 l
0.15 0.24 l
0.15 -0.38 l
0.14 0.38 l
0.15 0.35 l
0.14 0.10 l
0.15 0 l
0.14 0.14 l
0.15 0.11 l
0.14 0.48 l
0.15 0.62 l
0.15 0.48 l
0.14 1.08 l
0.15 0.48 l
0.14 0.24 l
0.15 0.25 l
0.14 -0.11 l
0.15 -0.14 l
0.15 0.38 l
0.14 0.35 l
0.15 0 l
0.14 0 l
251.52 490.76 lineto
0.14 -0.24 l
0.15 0.24 l
0.14 0.49 l
0.15 0.48 l
0.15 0.49 l
0.14 0.34 l
0.15 0 l
0.14 0.73 l
0.15 0.38 l
0.14 0 l
0.15 0.24 l
0.14 0.11 l
0.15 0.13 l
0.15 0 l
0.14 -0.48 l
0.15 -0.14 l
0.14 0.38 l
0.15 0.48 l
0.14 0.11 l
0.15 0.24 l
0.14 0.73 l
0.15 0.37 l
0.15 0.46 l
0.14 0 l
0.15 0.24 l
0.14 0.62 l
0.15 -0.24 l
0.14 -0.24 l
0.15 0.35 l
0.14 0 l
0.15 -0.24 l
0.15 0.37 l
0.14 -0.24 l
0.15 0.11 l
0.14 0.72 l
0.15 0 l
0.14 0.97 l
0.15 0.24 l
0.15 0.24 l
0.14 0.49 l
0.15 0.24 l
0.14 -0.35 l
0.15 0.48 l
0.14 -0.86 l
0.15 0.25 l
0.14 0.37 l
0.15 -0.24 l
0.15 0.24 l
0.14 -0.13 l
0.15 0.13 l
0.14 0.59 l
0.15 -0.24 l
0.14 0.38 l
0.15 0 l
0.14 0.94 l
0.15 -0.22 l
0.15 0.35 l
0.14 -0.48 l
0.15 0.35 l
0.14 -0.11 l
0.15 -0.11 l
0.14 0.35 l
0.15 0.35 l
0.14 0.14 l
0.15 -0.14 l
0.15 -0.35 l
0.14 -0.24 l
0.15 -0.11 l
0.14 1.08 l
0.15 0.24 l
0.14 0.59 l
0.15 0.14 l
0.15 0.35 l
0.14 0 l
0.15 -0.11 l
0.14 0 l
0.15 0.35 l
0.14 0.48 l
0.15 -1.31 l
0.14 0.59 l
0.15 -0.35 l
0.15 0 l
0.14 0.10 l
0.15 0 l
0.14 0.38 l
0.15 0.24 l
0.14 0.49 l
0.15 0.83 l
0.14 -0.11 l
0.15 -0.72 l
0.15 -0.14 l
0.14 0.38 l
0.15 -0.62 l
0.14 0.38 l
0.15 0.10 l
0.14 0.14 l
0.15 0.11 l
0.14 -0.84 l
0.15 0.49 l
266.08 504.77 lineto
0.14 0.24 l
0.15 0 l
0.14 0.73 l
0.15 0.48 l
0.14 -0.38 l
0.15 0.14 l
0.15 -0.49 l
0.14 0.84 l
0.15 -0.59 l
0.14 -0.38 l
0.15 0.62 l
0.14 0 l
0.15 -0.24 l
0.14 0 l
0.15 0.83 l
0.15 -0.35 l
0.14 -0.48 l
0.15 0.24 l
0.14 0.46 l
0.15 0.13 l
0.14 0 l
0.15 0.35 l
0.14 -0.48 l
0.15 0.37 l
0.15 0.35 l
0.14 -0.59 l
0.15 0.24 l
0.14 0.11 l
0.15 0.48 l
0.14 -0.83 l
0.15 0.24 l
0.14 -0.59 l
0.15 0.11 l
0.15 0.35 l
0.14 0.62 l
0.15 0.24 l
0.14 -0.14 l
0.15 0 l
0.14 0 l
0.15 -0.35 l
0.15 -0.13 l
0.14 0 l
0.15 0.24 l
0.14 -0.35 l
0.15 0.35 l
0.14 -0.11 l
0.15 0.25 l
0.14 -0.25 l
0.15 0.35 l
0.15 -0.10 l
0.14 0.24 l
0.15 -0.14 l
0.14 0.38 l
0.15 0.11 l
0.14 0.13 l
0.15 -0.13 l
0.14 -0.11 l
0.15 0.11 l
0.15 -0.35 l
0.14 0.24 l
0.15 0.48 l
0.14 -0.48 l
0.15 -0.13 l
0.14 -0.25 l
0.15 0.38 l
0.14 0.35 l
0.15 0 l
0.15 0 l
0.14 0.86 l
0.15 -0.62 l
0.14 -0.11 l
0.15 -0.13 l
0.14 0 l
0.15 0.24 l
0.15 -0.48 l
0.14 0.72 l
0.15 -0.83 l
0.14 0 l
0.15 0.35 l
0.14 -0.24 l
0.15 0.48 l
0.14 -0.59 l
0.15 0.83 l
0.15 -0.35 l
0.14 0.49 l
0.15 0 l
0.14 0.24 l
0.15 0 l
0.14 0 l
0.15 -0.97 l
0.14 0.49 l
0.15 -0.38 l
0.15 0.13 l
0.14 0 l
0.15 0.35 l
0.14 -0.48 l
0.15 0.38 l
0.14 -0.62 l
0.15 0.24 l
280.63 508.51 lineto
0.15 -0.14 l
0.15 0.73 l
0.14 -0.35 l
0.15 0.24 l
0.14 0 l
0.15 -0.38 l
0.14 0.24 l
0.15 -0.72 l
0.15 0.24 l
0.14 0.38 l
0.15 0.10 l
0.14 -0.72 l
0.15 0.48 l
0.14 -0.10 l
0.15 -0.14 l
0.14 0.14 l
0.15 -0.25 l
0.15 1.08 l
0.14 -0.73 l
0.15 0.14 l
0.14 0.10 l
0.15 -0.10 l
0.14 -0.24 l
0.15 0.24 l
0.14 -0.38 l
0.15 0.86 l
0.15 -0.97 l
0.14 0 l
0.15 0.35 l
0.14 -0.24 l
0.15 -0.11 l
0.14 0.49 l
0.15 0 l
0.14 0.35 l
0.15 0.13 l
0.15 -0.24 l
0.14 0.24 l
0.15 -0.24 l
0.14 -0.24 l
0.15 0.10 l
0.14 0 l
0.15 0.14 l
0.14 0.11 l
0.15 -0.35 l
0.15 -0.14 l
0.14 0.14 l
0.15 0.24 l
0.14 0 l
0.15 0.48 l
0.14 -0.37 l
0.15 0 l
0.15 -0.11 l
0.14 0.59 l
0.15 -0.48 l
0.14 -0.35 l
0.15 -0.14 l
0.14 0.62 l
0.15 -0.48 l
0.14 -0.38 l
0.15 0.24 l
0.15 0.14 l
0.14 -0.24 l
0.15 0.10 l
0.14 -0.10 l
0.15 0 l
0.14 0.24 l
0.15 0.24 l
0.14 0.11 l
0.15 -0.11 l
0.15 0.24 l
0.14 -0.48 l
0.15 0.10 l
0.14 -0.48 l
0.15 0.24 l
0.14 0.62 l
0.15 -0.48 l
0.14 -0.14 l
0.15 0.62 l
0.15 -0.48 l
0.14 -0.14 l
0.15 0.24 l
0.14 0.62 l
0.15 -0.13 l
0.14 0.38 l
0.15 -0.38 l
0.15 0.48 l
0.14 -1.21 l
0.15 0.49 l
0.14 -0.35 l
0.15 0.10 l
0.14 -0.83 l
0.15 0.35 l
0.14 0.14 l
0.15 0.10 l
0.15 -0.10 l
0.14 -0.14 l
0.15 0.38 l
0.14 0.24 l
0.15 -0.24 l
295.19 508.61 lineto
0.15 0.38 l
0.14 -0.14 l
0.15 -0.10 l
0.15 0.35 l
0.14 -0.49 l
0.15 0.14 l
0.14 -1.10 l
0.15 0.61 l
0.14 0.73 l
0.15 -0.62 l
0.14 -0.35 l
0.15 0.83 l
0.15 -0.59 l
0.14 0.35 l
0.15 0.14 l
0.14 0.35 l
0.15 0.24 l
0.14 -0.35 l
0.15 0 l
0.15 -0.24 l
0.14 0.59 l
0.15 -0.59 l
0.14 0.24 l
0.15 -0.48 l
0.14 0.59 l
0.15 -0.59 l
0.14 0.10 l
0.15 0 l
0.15 0 l
0.14 -0.48 l
0.15 0.62 l
0.14 -0.14 l
0.15 0.14 l
0.14 0.10 l
0.15 -0.34 l
0.14 0.10 l
0.15 0.38 l
0.15 -0.62 l
0.14 -0.11 l
0.15 0.49 l
0.14 -0.38 l
0.15 -0.11 l
0.14 -0.37 l
0.15 -0.24 l
0.14 0.24 l
0.15 0.37 l
0.15 0.49 l
0.14 0 l
0.15 0.48 l
0.14 -0.24 l
0.15 0.35 l
0.14 -0.49 l
0.15 -0.83 l
0.15 0.73 l
0.14 -0.49 l
0.15 0.25 l
0.14 -0.14 l
0.15 0 l
0.14 -0.11 l
0.15 0.25 l
0.14 -0.14 l
0.15 0.24 l
0.15 0 l
0.14 0.14 l
0.15 0.35 l
0.14 0.37 l
0.15 -0.62 l
0.14 0 l
0.15 -0.34 l
0.14 -0.38 l
0.15 -0.11 l
0.15 0 l
0.14 0 l
0.15 0.97 l
0.14 -0.86 l
0.15 -0.11 l
0.14 0.11 l
0.15 -0.35 l
0.14 0.35 l
0.15 0.24 l
0.15 -0.11 l
0.14 -0.13 l
0.15 0.24 l
0.14 0.38 l
0.15 -0.62 l
0.14 0.48 l
0.15 -0.83 l
0.15 0.35 l
0.14 0.13 l
0.15 0.11 l
0.14 0.38 l
0.15 -0.62 l
0.14 -0.11 l
0.15 0.11 l
0.14 -0.11 l
0.15 0.35 l
0.15 0.38 l
0.14 -0.14 l
0.15 0.14 l
309.75 508.61 lineto
0.15 -0.24 l
0.14 0 l
0.15 0 l
0.14 0.38 l
0.15 -0.49 l
0.15 0.25 l
0.14 0.10 l
0.15 -0.48 l
0.14 -0.35 l
0.15 0 l
0.14 0.59 l
0.15 -0.48 l
0.14 0.37 l
0.15 0.11 l
0.15 0 l
0.14 0.14 l
0.15 0.24 l
0.14 0 l
0.15 -0.38 l
0.14 0 l
0.15 -0.48 l
0.15 0.13 l
0.14 -0.24 l
0.15 0.35 l
0.14 -0.35 l
0.15 0.11 l
0.14 -0.24 l
0.15 -0.11 l
0.14 0.72 l
0.15 0 l
0.15 0.11 l
0.14 0.38 l
0.15 -0.24 l
0.14 0.24 l
0.15 -0.86 l
0.14 0 l
0.15 -0.24 l
0.14 0.48 l
0.15 0 l
0.15 -0.48 l
0.14 0.48 l
0.15 -0.11 l
0.14 -0.13 l
0.15 1.10 l
0.14 -1.21 l
0.15 0 l
0.14 0.73 l
0.15 -0.38 l
0.15 0.13 l
0.14 0.49 l
0.15 -0.86 l
0.14 0.13 l
0.15 0.24 l
0.14 0 l
0.15 -0.37 l
0.15 -0.49 l
0.14 0.62 l
0.15 0 l
0.14 -0.48 l
0.15 -0.14 l
0.14 0.25 l
0.15 -0.49 l
0.14 0.73 l
0.15 0.37 l
0.15 -0.24 l
0.14 1.08 l
0.15 -0.97 l
0.14 0.13 l
0.15 -0.24 l
0.14 0.24 l
0.15 -0.48 l
0.14 0.11 l
0.15 -0.35 l
0.15 0.72 l
0.14 -0.61 l
0.15 -0.25 l
0.14 0.14 l
0.15 0.24 l
0.14 0.48 l
0.15 -0.24 l
0.14 0.73 l
0.15 -0.49 l
0.15 0.35 l
0.14 -0.35 l
0.15 0.25 l
0.14 -0.62 l
0.15 -0.24 l
0.14 -0.11 l
0.15 0.48 l
0.14 -0.37 l
0.15 -0.11 l
0.15 -0.14 l
0.14 0.38 l
0.15 -0.48 l
0.14 0 l
0.15 0.35 l
0.14 0.24 l
0.15 0.62 l
0.15 -0.38 l
324.31 508.37 lineto
0.15 -0.48 l
0.14 0.13 l
0.15 -0.37 l
0.14 -0.25 l
0.15 0.14 l
0.14 -0.14 l
0.15 -0.10 l
0.15 0.48 l
0.14 -0.48 l
0.15 -0.25 l
0.14 0.35 l
0.15 0.14 l
0.14 0.11 l
0.15 0.37 l
0.14 0 l
0.15 0.35 l
0.15 -0.24 l
0.14 -0.35 l
0.15 0.11 l
0.14 -0.11 l
0.15 0 l
0.14 0 l
0.15 -0.24 l
0.14 0.24 l
0.15 -0.62 l
0.15 0.49 l
0.14 0.13 l
0.15 -0.38 l
0.14 0.14 l
0.15 0.48 l
0.14 -0.48 l
0.15 0.35 l
0.15 -0.11 l
0.14 -0.48 l
0.15 -0.14 l
0.14 0.62 l
0.15 0.11 l
0.14 -0.11 l
0.15 -0.48 l
0.14 -0.14 l
0.15 -0.11 l
0.15 0 l
0.14 0.35 l
0.15 -0.35 l
0.14 0.60 l
0.15 0 l
0.14 -0.11 l
0.15 0.83 l
0.14 -0.59 l
0.15 -0.13 l
0.15 0.48 l
0.14 -0.24 l
0.15 -0.35 l
0.14 0.11 l
0.15 0.13 l
0.14 -0.24 l
0.15 0 l
0.14 0.35 l
0.15 -0.84 l
0.15 0.25 l
0.14 0.24 l
0.15 0 l
0.14 0.72 l
0.15 -0.37 l
0.14 0.13 l
0.15 -0.37 l
0.15 -0.35 l
0.14 0.59 l
0.15 -0.35 l
0.14 0.35 l
0.15 -0.11 l
0.14 -0.24 l
0.15 -0.24 l
0.14 0.35 l
0.15 -0.11 l
0.15 -0.24 l
0.14 0.24 l
0.15 -0.49 l
0.14 0.49 l
0.15 -0.14 l
0.14 0.62 l
0.15 0 l
0.14 -0.37 l
0.15 -0.11 l
0.15 0.11 l
0.14 -0.25 l
0.15 0.38 l
0.14 -0.48 l
0.15 0.48 l
0.14 -0.62 l
0.15 0.62 l
0.14 -0.73 l
0.15 0.49 l
0.15 0.24 l
0.14 -0.48 l
0.15 0.35 l
0.14 0.37 l
0.15 -0.13 l
0.14 -0.35 l
338.87 507.16 lineto
0.15 0.62 l
0.14 0.24 l
0.15 -0.48 l
0.14 -0.24 l
0.15 0.10 l
0.14 0 l
0.15 0 l
0.14 -0.35 l
0.15 -0.61 l
0.15 0.61 l
0.14 0.49 l
0.15 0.24 l
0.14 -0.48 l
0.15 0.72 l
0.14 0 l
0.15 -0.13 l
0.14 -0.11 l
0.15 0.48 l
0.15 -0.61 l
0.14 -0.35 l
0.15 0.10 l
0.14 0 l
0.15 -0.10 l
0.14 -0.14 l
0.15 0 l
0.14 0 l
0.15 0 l
0.15 0.14 l
0.14 -0.14 l
0.15 0.14 l
0.14 0.59 l
0.15 0.37 l
0.14 -0.48 l
0.15 0.35 l
0.15 -0.48 l
0.14 -0.11 l
0.15 0.11 l
0.14 -0.60 l
0.15 0.25 l
0.14 0.35 l
0.15 -0.73 l
0.14 0.86 l
0.15 -0.48 l
0.15 -0.62 l
0.14 0.48 l
0.15 0.49 l
0.14 0.24 l
0.15 -0.11 l
0.14 0.24 l
0.15 -0.24 l
0.14 -0.62 l
0.15 0.38 l
0.15 -0.49 l
0.14 -0.13 l
0.15 0.24 l
0.14 -0.11 l
0.15 -0.24 l
0.14 0.11 l
0.15 0.13 l
0.14 0.11 l
0.15 -0.59 l
0.15 0.48 l
0.14 0.73 l
0.15 -0.24 l
0.14 0.11 l
0.15 -0.25 l
0.14 0.38 l
0.15 -0.13 l
0.15 -0.35 l
0.14 -0.25 l
0.15 0.11 l
0.14 -0.24 l
0.15 0 l
0.14 0.13 l
0.15 -0.13 l
0.14 0.38 l
0.15 -0.14 l
0.15 0.14 l
0.14 0.72 l
0.15 -0.37 l
0.14 -0.11 l
0.15 -0.14 l
0.14 0.49 l
0.15 0 l
0.14 -0.35 l
0.15 0.24 l
0.15 -0.38 l
0.14 0.49 l
0.15 -0.73 l
0.14 -0.11 l
0.15 -0.13 l
0.14 -0.11 l
0.15 0.11 l
0.14 0.13 l
0.15 0.49 l
0.15 0 l
0.14 0.24 l
0.15 0 l
0.14 -0.24 l
353.43 507.30 lineto
0.14 0.10 l
0.15 -0.35 l
0.14 0 l
0.15 0 l
0.15 -0.13 l
0.14 0.13 l
0.15 0 l
0.14 -0.37 l
0.15 0 l
0.14 0.62 l
0.15 0 l
0.15 0.10 l
0.14 0.49 l
0.15 -0.11 l
0.14 0 l
0.15 -0.13 l
0.14 0 l
0.15 -0.49 l
0.14 0.49 l
0.15 -0.35 l
0.15 0.35 l
0.14 -0.49 l
0.15 0.14 l
0.14 -0.25 l
0.15 0.11 l
0.14 -0.24 l
0.15 -0.11 l
0.14 0.49 l
0.15 0.35 l
0.15 0.24 l
0.14 0 l
0.15 -0.84 l
0.14 0.11 l
0.15 -0.24 l
0.14 0.86 l
0.15 -0.24 l
0.14 -0.73 l
0.15 0.11 l
0.15 -0.11 l
0.14 0 l
0.15 -0.48 l
0.14 0.97 l
0.15 -0.25 l
0.14 -0.24 l
0.15 1.08 l
0.15 -1.08 l
0.14 0.59 l
0.15 -0.10 l
0.14 0.10 l
0.15 -0.24 l
0.14 -0.11 l
0.15 -0.13 l
0.14 0 l
0.15 0.62 l
0.15 -0.38 l
0.14 -0.11 l
0.15 -0.24 l
0.14 0 l
0.15 0.24 l
0.14 0.97 l
0.15 -0.24 l
0.14 -0.62 l
0.15 -0.11 l
0.15 0.97 l
0.14 0 l
0.15 -0.48 l
0.14 -0.24 l
0.15 -0.25 l
0.14 -0.37 l
0.15 0.24 l
0.14 0 l
0.15 0.48 l
0.15 -0.48 l
0.14 0.13 l
0.15 -0.37 l
0.14 0.24 l
0.15 0.48 l
0.14 -0.10 l
0.15 0.59 l
0.15 -0.35 l
0.14 0 l
0.15 -0.24 l
0.14 0.10 l
0.15 -0.24 l
0.14 0.14 l
0.15 -0.62 l
0.14 0.72 l
0.15 -0.48 l
0.15 -0.11 l
0.14 -0.48 l
0.15 0.59 l
0.14 0.48 l
0.15 -0.10 l
0.14 0.35 l
0.15 0.37 l
0.14 -0.37 l
0.15 -0.35 l
0.15 0.10 l
0.14 -0.72 l
currentpoint o m
367.99 507.30 lineto
0.14 0.10 l
0.15 -0.10 l
0.14 0 l
0.15 -0.38 l
0.14 0.13 l
0.15 -0.61 l
0.15 0.48 l
0.14 0 l
0.15 0.62 l
0.14 -0.38 l
0.15 0.49 l
0.14 0.13 l
0.15 -0.13 l
0.15 -0.11 l
0.14 -0.24 l
0.15 0 l
0.14 -0.73 l
0.15 0.35 l
0.14 -0.24 l
0.15 1.10 l
0.14 -1.56 l
0.15 0.83 l
0.15 -0.13 l
0.14 0 l
0.15 0.24 l
0.14 0 l
0.15 0 l
0.14 0.38 l
0.15 0.11 l
0.14 -0.25 l
0.15 -0.48 l
0.15 0.48 l
0.14 -0.48 l
0.15 0.13 l
0.14 -0.24 l
0.15 -0.48 l
0.14 0.35 l
0.15 0.37 l
0.14 0.35 l
0.15 -0.59 l
0.15 0.84 l
0.14 0 l
0.15 0 l
0.14 -0.25 l
0.15 0 l
0.14 0.38 l
0.15 -0.48 l
0.15 0.24 l
0.14 0.24 l
0.15 -0.97 l
0.14 0.11 l
0.15 0.13 l
0.14 -0.13 l
0.15 -0.59 l
0.14 0.48 l
0.15 0.35 l
0.15 -0.72 l
0.14 0.48 l
0.15 0.38 l
0.14 -0.38 l
0.15 0.48 l
0.14 -0.24 l
0.15 -0.35 l
0.14 -0.24 l
0.15 0.73 l
0.15 -0.49 l
0.14 0 l
0.15 0 l
0.14 -0.13 l
0.15 0.24 l
0.14 -0.24 l
0.15 0.24 l
0.14 0.13 l
0.15 -0.13 l
0.15 0.13 l
0.14 0.97 l
0.15 -0.24 l
0.14 -0.13 l
0.15 -0.49 l
0.14 0.24 l
0.15 0.25 l
0.15 -0.97 l
0.14 0.48 l
0.15 0.14 l
0.14 -0.14 l
0.15 -0.48 l
0.14 0.24 l
0.15 0 l
0.14 0 l
0.15 0.24 l
0.15 0.73 l
0.14 -0.35 l
0.15 -0.38 l
0.14 -0.11 l
0.15 0.49 l
0.14 -0.24 l
0.15 -0.38 l
0.14 0 l
0.15 0.38 l
o
/bg { 1 1 1 srgb } def
222.40 511.41 0.43 c p3
222.55 511.52 0.43 c p3
222.69 511.76 0.43 c p3
222.84 511.03 0.43 c p3
222.98 511.03 0.43 c p3
223.13 511.27 0.43 c p3
223.27 511.41 0.43 c p3
223.42 511.52 0.43 c p3
223.56 511.41 0.43 c p3
223.71 511.41 0.43 c p3
223.86 511.03 0.43 c p3
224.00 511.03 0.43 c p3
224.15 510.68 0.43 c p3
224.29 511.03 0.43 c p3
224.44 511.17 0.43 c p3
224.58 510.92 0.43 c p3
224.73 511.03 0.43 c p3
224.87 511.03 0.43 c p3
225.02 510.44 0.43 c p3
225.17 511.17 0.43 c p3
225.31 510.92 0.43 c p3
225.46 511.52 0.43 c p3
225.60 511.17 0.43 c p3
225.75 511.17 0.43 c p3
225.89 511.03 0.43 c p3
226.04 510.68 0.43 c p3
226.19 510.68 0.43 c p3
226.33 510.79 0.43 c p3
226.48 510.68 0.43 c p3
226.62 510.44 0.43 c p3
226.77 511.17 0.43 c p3
226.91 511.27 0.43 c p3
227.06 510.68 0.43 c p3
227.20 511.17 0.43 c p3
227.35 510.92 0.43 c p3
227.50 511.41 0.43 c p3
227.64 510.92 0.43 c p3
227.79 511.03 0.43 c p3
227.93 511.41 0.43 c p3
228.08 510.92 0.43 c p3
228.22 511.03 0.43 c p3
228.37 511.17 0.43 c p3
228.51 511.27 0.43 c p3
228.66 511.03 0.43 c p3
228.81 511.03 0.43 c p3
228.95 510.79 0.43 c p3
229.10 511.41 0.43 c p3
229.24 510.79 0.43 c p3
229.39 511.27 0.43 c p3
229.53 511.03 0.43 c p3
229.68 511.87 0.43 c p3
229.82 511.27 0.43 c p3
229.97 511.17 0.43 c p3
230.12 511.27 0.43 c p3
230.26 510.79 0.43 c p3
230.41 511.17 0.43 c p3
230.55 511.27 0.43 c p3
230.70 511.41 0.43 c p3
230.84 511.17 0.43 c p3
230.99 511.41 0.43 c p3
231.14 510.44 0.43 c p3
231.28 510.31 0.43 c p3
231.43 510.79 0.43 c p3
231.57 510.92 0.43 c p3
231.72 510.92 0.43 c p3
231.86 511.03 0.43 c p3
232.01 510.92 0.43 c p3
232.15 510.68 0.43 c p3
232.30 510.68 0.43 c p3
232.45 510.92 0.43 c p3
232.59 511.03 0.43 c p3
232.74 511.76 0.43 c p3
232.88 511.17 0.43 c p3
233.03 511.27 0.43 c p3
233.17 511.03 0.43 c p3
233.32 510.92 0.43 c p3
233.46 511.17 0.43 c p3
233.61 511.52 0.43 c p3
233.76 511.62 0.43 c p3
233.90 511.41 0.43 c p3
234.05 510.92 0.43 c p3
234.19 511.27 0.43 c p3
234.34 512.00 0.43 c p3
234.48 511.03 0.43 c p3
234.63 511.03 0.43 c p3
234.77 511.41 0.43 c p3
234.92 511.62 0.43 c p3
235.07 511.03 0.43 c p3
235.21 511.62 0.43 c p3
235.36 511.52 0.43 c p3
235.50 510.31 0.43 c p3
235.65 511.03 0.43 c p3
235.79 511.03 0.43 c p3
235.94 510.79 0.43 c p3
236.09 510.68 0.43 c p3
236.23 511.41 0.43 c p3
236.38 511.03 0.43 c p3
236.52 510.92 0.43 c p3
236.67 510.79 0.43 c p3
236.81 511.17 0.43 c p3
236.96 442.13 0.43 c p3
237.10 444.19 0.43 c p3
237.25 446.35 0.43 c p3
237.40 447.94 0.43 c p3
237.54 448.91 0.43 c p3
237.69 449.02 0.43 c p3
237.83 450.33 0.43 c p3
237.98 450.58 0.43 c p3
238.12 451.92 0.43 c p3
238.27 452.51 0.43 c p3
238.41 453.72 0.43 c p3
238.56 454.58 0.43 c p3
238.71 455.41 0.43 c p3
238.85 455.90 0.43 c p3
239.00 456.38 0.43 c p3
239.14 456.97 0.43 c p3
239.29 457.70 0.43 c p3
239.43 458.18 0.43 c p3
239.58 458.42 0.43 c p3
239.72 458.56 0.43 c p3
239.87 459.39 0.43 c p3
240.02 459.04 0.43 c p3
240.16 460.23 0.43 c p3
240.31 460.36 0.43 c p3
240.45 462.16 0.43 c p3
240.60 462.65 0.43 c p3
240.74 463.26 0.43 c p3
240.89 463.85 0.43 c p3
241.04 464.72 0.43 c p3
241.18 465.31 0.43 c p3
241.33 465.20 0.43 c p3
241.47 465.66 0.43 c p3
241.62 466.76 0.43 c p3
241.76 465.90 0.43 c p3
241.91 466.14 0.43 c p3
242.05 466.87 0.43 c p3
242.20 467.11 0.43 c p3
242.35 468.08 0.43 c p3
242.49 468.45 0.43 c p3
242.64 469.66 0.43 c p3
242.78 469.90 0.43 c p3
242.93 470.01 0.43 c p3
243.07 470.25 0.43 c p3
243.22 471.95 0.43 c p3
243.36 472.54 0.43 c p3
243.51 472.43 0.43 c p3
243.66 472.91 0.43 c p3
243.80 473.64 0.43 c p3
243.95 473.64 0.43 c p3
244.09 473.75 0.43 c p3
244.24 474.12 0.43 c p3
244.38 474.72 0.43 c p3
244.53 474.72 0.43 c p3
244.67 475.09 0.43 c p3
244.82 475.68 0.43 c p3
244.97 476.03 0.43 c p3
245.11 476.41 0.43 c p3
245.26 477.73 0.43 c p3
245.40 477.86 0.43 c p3
245.55 478.83 0.43 c p3
245.69 478.21 0.43 c p3
245.84 478.83 0.43 c p3
245.99 479.80 0.43 c p3
246.13 480.52 0.43 c p3
246.28 480.04 0.43 c p3
246.42 480.28 0.43 c p3
246.57 480.28 0.43 c p3
246.71 480.15 0.43 c p3
246.86 481.11 0.43 c p3
247.00 481.35 0.43 c p3
247.15 481.35 0.43 c p3
247.30 481.84 0.43 c p3
247.44 482.19 0.43 c p3
247.59 482.32 0.43 c p3
247.73 482.91 0.43 c p3
247.88 484.26 0.43 c p3
248.02 484.74 0.43 c p3
248.17 485.23 0.43 c p3
248.31 485.23 0.43 c p3
248.46 485.47 0.43 c p3
248.61 485.09 0.43 c p3
248.75 485.47 0.43 c p3
248.90 485.82 0.43 c p3
249.04 485.92 0.43 c p3
249.19 485.92 0.43 c p3
249.33 486.06 0.43 c p3
249.48 486.17 0.43 c p3
249.62 486.65 0.43 c p3
249.77 487.27 0.43 c p3
249.92 487.75 0.43 c p3
250.06 488.83 0.43 c p3
250.21 489.31 0.43 c p3
250.35 489.55 0.43 c p3
250.50 489.80 0.43 c p3
250.64 489.69 0.43 c p3
250.79 489.55 0.43 c p3
250.94 489.93 0.43 c p3
251.08 490.28 0.43 c p3
251.23 490.28 0.43 c p3
251.37 490.28 0.43 c p3
251.52 490.76 0.43 c p3
251.66 490.52 0.43 c p3
251.81 490.76 0.43 c p3
251.95 491.25 0.43 c p3
252.10 491.73 0.43 c p3
252.25 492.22 0.43 c p3
252.39 492.56 0.43 c p3
252.54 492.56 0.43 c p3
252.68 493.29 0.43 c p3
252.83 493.67 0.43 c p3
252.97 493.67 0.43 c p3
253.12 493.91 0.43 c p3
253.26 494.02 0.43 c p3
253.41 494.15 0.43 c p3
253.56 494.15 0.43 c p3
253.70 493.67 0.43 c p3
253.85 493.53 0.43 c p3
253.99 493.91 0.43 c p3
254.14 494.39 0.43 c p3
254.28 494.50 0.43 c p3
254.43 494.74 0.43 c p3
254.57 495.47 0.43 c p3
254.72 495.84 0.43 c p3
254.87 496.30 0.43 c p3
255.01 496.30 0.43 c p3
255.16 496.54 0.43 c p3
255.30 497.16 0.43 c p3
255.45 496.92 0.43 c p3
255.59 496.68 0.43 c p3
255.74 497.03 0.43 c p3
255.88 497.03 0.43 c p3
256.03 496.79 0.43 c p3
256.18 497.16 0.43 c p3
256.32 496.92 0.43 c p3
256.47 497.03 0.43 c p3
256.61 497.75 0.43 c p3
256.76 497.75 0.43 c p3
256.90 498.72 0.43 c p3
257.05 498.96 0.43 c p3
257.20 499.20 0.43 c p3
257.34 499.69 0.43 c p3
257.49 499.93 0.43 c p3
257.63 499.58 0.43 c p3
257.78 500.06 0.43 c p3
257.92 499.20 0.43 c p3
258.07 499.45 0.43 c p3
258.21 499.82 0.43 c p3
258.36 499.58 0.43 c p3
258.51 499.82 0.43 c p3
258.65 499.69 0.43 c p3
258.80 499.82 0.43 c p3
258.94 500.41 0.43 c p3
259.09 500.17 0.43 c p3
259.23 500.55 0.43 c p3
259.38 500.55 0.43 c p3
259.52 501.49 0.43 c p3
259.67 501.27 0.43 c p3
259.82 501.62 0.43 c p3
259.96 501.14 0.43 c p3
260.11 501.49 0.43 c p3
260.25 501.38 0.43 c p3
260.40 501.27 0.43 c p3
260.54 501.62 0.43 c p3
260.69 501.97 0.43 c p3
260.83 502.11 0.43 c p3
260.98 501.97 0.43 c p3
261.13 501.62 0.43 c p3
261.27 501.38 0.43 c p3
261.42 501.27 0.43 c p3
261.56 502.35 0.43 c p3
261.71 502.59 0.43 c p3
261.85 503.18 0.43 c p3
262.00 503.32 0.43 c p3
262.15 503.67 0.43 c p3
262.29 503.67 0.43 c p3
262.44 503.56 0.43 c p3
262.58 503.56 0.43 c p3
262.73 503.91 0.43 c p3
262.87 504.39 0.43 c p3
263.02 503.08 0.43 c p3
263.16 503.67 0.43 c p3
263.31 503.32 0.43 c p3
263.46 503.32 0.43 c p3
263.60 503.42 0.43 c p3
263.75 503.42 0.43 c p3
263.89 503.80 0.43 c p3
264.04 504.04 0.43 c p3
264.18 504.53 0.43 c p3
264.33 505.36 0.43 c p3
264.47 505.25 0.43 c p3
264.62 504.53 0.43 c p3
264.77 504.39 0.43 c p3
264.91 504.77 0.43 c p3
265.06 504.15 0.43 c p3
265.20 504.53 0.43 c p3
265.35 504.63 0.43 c p3
265.49 504.77 0.43 c p3
265.64 504.88 0.43 c p3
265.78 504.04 0.43 c p3
265.93 504.53 0.43 c p3
266.08 504.77 0.43 c p3
266.22 505.01 0.43 c p3
266.37 505.01 0.43 c p3
266.51 505.74 0.43 c p3
266.66 506.22 0.43 c p3
266.80 505.84 0.43 c p3
266.95 505.98 0.43 c p3
267.10 505.49 0.43 c p3
267.24 506.33 0.43 c p3
267.39 505.74 0.43 c p3
267.53 505.36 0.43 c p3
267.68 505.98 0.43 c p3
267.82 505.98 0.43 c p3
267.97 505.74 0.43 c p3
268.11 505.74 0.43 c p3
268.26 506.57 0.43 c p3
268.41 506.22 0.43 c p3
268.55 505.74 0.43 c p3
268.70 505.98 0.43 c p3
268.84 506.44 0.43 c p3
268.99 506.57 0.43 c p3
269.13 506.57 0.43 c p3
269.28 506.92 0.43 c p3
269.42 506.44 0.43 c p3
269.57 506.81 0.43 c p3
269.72 507.16 0.43 c p3
269.86 506.57 0.43 c p3
270.01 506.81 0.43 c p3
270.15 506.92 0.43 c p3
270.30 507.40 0.43 c p3
270.44 506.57 0.43 c p3
270.59 506.81 0.43 c p3
270.73 506.22 0.43 c p3
270.88 506.33 0.43 c p3
271.03 506.68 0.43 c p3
271.17 507.30 0.43 c p3
271.32 507.54 0.43 c p3
271.46 507.40 0.43 c p3
271.61 507.40 0.43 c p3
271.75 507.40 0.43 c p3
271.90 507.05 0.43 c p3
272.05 506.92 0.43 c p3
272.19 506.92 0.43 c p3
272.34 507.16 0.43 c p3
272.48 506.81 0.43 c p3
272.63 507.16 0.43 c p3
272.77 507.05 0.43 c p3
272.92 507.30 0.43 c p3
273.06 507.05 0.43 c p3
273.21 507.40 0.43 c p3
273.36 507.30 0.43 c p3
273.50 507.54 0.43 c p3
273.65 507.40 0.43 c p3
273.79 507.78 0.43 c p3
273.94 507.89 0.43 c p3
274.08 508.02 0.43 c p3
274.23 507.89 0.43 c p3
274.37 507.78 0.43 c p3
274.52 507.89 0.43 c p3
274.67 507.54 0.43 c p3
274.81 507.78 0.43 c p3
274.96 508.26 0.43 c p3
275.10 507.78 0.43 c p3
275.25 507.65 0.43 c p3
275.39 507.40 0.43 c p3
275.54 507.78 0.43 c p3
275.68 508.13 0.43 c p3
275.83 508.13 0.43 c p3
275.98 508.13 0.43 c p3
276.12 508.99 0.43 c p3
276.27 508.37 0.43 c p3
276.41 508.26 0.43 c p3
276.56 508.13 0.43 c p3
276.70 508.13 0.43 c p3
276.85 508.37 0.43 c p3
277.00 507.89 0.43 c p3
277.14 508.61 0.43 c p3
277.29 507.78 0.43 c p3
277.43 507.78 0.43 c p3
277.58 508.13 0.43 c p3
277.72 507.89 0.43 c p3
277.87 508.37 0.43 c p3
278.01 507.78 0.43 c p3
278.16 508.61 0.43 c p3
278.31 508.26 0.43 c p3
278.45 508.75 0.43 c p3
278.60 508.75 0.43 c p3
278.74 508.99 0.43 c p3
278.89 508.99 0.43 c p3
279.03 508.99 0.43 c p3
279.18 508.02 0.43 c p3
279.32 508.51 0.43 c p3
279.47 508.13 0.43 c p3
279.62 508.26 0.43 c p3
279.76 508.26 0.43 c p3
279.91 508.61 0.43 c p3
280.05 508.13 0.43 c p3
280.20 508.51 0.43 c p3
280.34 507.89 0.43 c p3
280.49 508.13 0.43 c p3
280.63 508.51 0.43 c p3
280.78 508.37 0.43 c p3
280.93 509.10 0.43 c p3
281.07 508.75 0.43 c p3
281.22 508.99 0.43 c p3
281.36 508.99 0.43 c p3
281.51 508.61 0.43 c p3
281.65 508.85 0.43 c p3
281.80 508.13 0.43 c p3
281.95 508.37 0.43 c p3
282.09 508.75 0.43 c p3
282.24 508.85 0.43 c p3
282.38 508.13 0.43 c p3
282.53 508.61 0.43 c p3
282.67 508.51 0.43 c p3
282.82 508.37 0.43 c p3
282.96 508.51 0.43 c p3
283.11 508.26 0.43 c p3
283.26 509.34 0.43 c p3
283.40 508.61 0.43 c p3
283.55 508.75 0.43 c p3
283.69 508.85 0.43 c p3
283.84 508.75 0.43 c p3
283.98 508.51 0.43 c p3
284.13 508.75 0.43 c p3
284.27 508.37 0.43 c p3
284.42 509.23 0.43 c p3
284.57 508.26 0.43 c p3
284.71 508.26 0.43 c p3
284.86 508.61 0.43 c p3
285.00 508.37 0.43 c p3
285.15 508.26 0.43 c p3
285.29 508.75 0.43 c p3
285.44 508.75 0.43 c p3
285.58 509.10 0.43 c p3
285.73 509.23 0.43 c p3
285.88 508.99 0.43 c p3
286.02 509.23 0.43 c p3
286.17 508.99 0.43 c p3
286.31 508.75 0.43 c p3
286.46 508.85 0.43 c p3
286.60 508.85 0.43 c p3
286.75 508.99 0.43 c p3
286.89 509.10 0.43 c p3
287.04 508.75 0.43 c p3
287.19 508.61 0.43 c p3
287.33 508.75 0.43 c p3
287.48 508.99 0.43 c p3
287.62 508.99 0.43 c p3
287.77 509.47 0.43 c p3
287.91 509.10 0.43 c p3
288.06 509.10 0.43 c p3
288.21 508.99 0.43 c p3
288.35 509.58 0.43 c p3
288.50 509.10 0.43 c p3
288.64 508.75 0.43 c p3
288.79 508.61 0.43 c p3
288.93 509.23 0.43 c p3
289.08 508.75 0.43 c p3
289.22 508.37 0.43 c p3
289.37 508.61 0.43 c p3
289.52 508.75 0.43 c p3
289.66 508.51 0.43 c p3
289.81 508.61 0.43 c p3
289.95 508.51 0.43 c p3
290.10 508.51 0.43 c p3
290.24 508.75 0.43 c p3
290.39 508.99 0.43 c p3
290.53 509.10 0.43 c p3
290.68 508.99 0.43 c p3
290.83 509.23 0.43 c p3
290.97 508.75 0.43 c p3
291.12 508.85 0.43 c p3
291.26 508.37 0.43 c p3
291.41 508.61 0.43 c p3
291.55 509.23 0.43 c p3
291.70 508.75 0.43 c p3
291.84 508.61 0.43 c p3
291.99 509.23 0.43 c p3
292.14 508.75 0.43 c p3
292.28 508.61 0.43 c p3
292.43 508.85 0.43 c p3
292.57 509.47 0.43 c p3
292.72 509.34 0.43 c p3
292.86 509.72 0.43 c p3
293.01 509.34 0.43 c p3
293.16 509.82 0.43 c p3
293.30 508.61 0.43 c p3
293.45 509.10 0.43 c p3
293.59 508.75 0.43 c p3
293.74 508.85 0.43 c p3
293.88 508.02 0.43 c p3
294.03 508.37 0.43 c p3
294.17 508.51 0.43 c p3
294.32 508.61 0.43 c p3
294.47 508.51 0.43 c p3
294.61 508.37 0.43 c p3
294.76 508.75 0.43 c p3
294.90 508.99 0.43 c p3
295.05 508.75 0.43 c p3
295.19 508.61 0.43 c p3
295.34 508.99 0.43 c p3
295.48 508.85 0.43 c p3
295.63 508.75 0.43 c p3
295.78 509.10 0.43 c p3
295.92 508.61 0.43 c p3
296.07 508.75 0.43 c p3
296.21 507.65 0.43 c p3
296.36 508.26 0.43 c p3
296.50 508.99 0.43 c p3
296.65 508.37 0.43 c p3
296.79 508.02 0.43 c p3
296.94 508.85 0.43 c p3
297.09 508.26 0.43 c p3
297.23 508.61 0.43 c p3
297.38 508.75 0.43 c p3
297.52 509.10 0.43 c p3
297.67 509.34 0.43 c p3
297.81 508.99 0.43 c p3
297.96 508.99 0.43 c p3
298.11 508.75 0.43 c p3
298.25 509.34 0.43 c p3
298.40 508.75 0.43 c p3
298.54 508.99 0.43 c p3
298.69 508.51 0.43 c p3
298.83 509.10 0.43 c p3
298.98 508.51 0.43 c p3
299.12 508.61 0.43 c p3
299.27 508.61 0.43 c p3
299.42 508.61 0.43 c p3
299.56 508.13 0.43 c p3
299.71 508.75 0.43 c p3
299.85 508.61 0.43 c p3
300.00 508.75 0.43 c p3
300.14 508.85 0.43 c p3
300.29 508.51 0.43 c p3
300.43 508.61 0.43 c p3
300.58 508.99 0.43 c p3
300.73 508.37 0.43 c p3
300.87 508.26 0.43 c p3
301.02 508.75 0.43 c p3
301.16 508.37 0.43 c p3
301.31 508.26 0.43 c p3
301.45 507.89 0.43 c p3
301.60 507.65 0.43 c p3
301.74 507.89 0.43 c p3
301.89 508.26 0.43 c p3
302.04 508.75 0.43 c p3
302.18 508.75 0.43 c p3
302.33 509.23 0.43 c p3
302.47 508.99 0.43 c p3
302.62 509.34 0.43 c p3
302.76 508.85 0.43 c p3
302.91 508.02 0.43 c p3
303.06 508.75 0.43 c p3
303.20 508.26 0.43 c p3
303.35 508.51 0.43 c p3
303.49 508.37 0.43 c p3
303.64 508.37 0.43 c p3
303.78 508.26 0.43 c p3
303.93 508.51 0.43 c p3
304.07 508.37 0.43 c p3
304.22 508.61 0.43 c p3
304.37 508.61 0.43 c p3
304.51 508.75 0.43 c p3
304.66 509.10 0.43 c p3
304.80 509.47 0.43 c p3
304.95 508.85 0.43 c p3
305.09 508.85 0.43 c p3
305.24 508.51 0.43 c p3
305.38 508.13 0.43 c p3
305.53 508.02 0.43 c p3
305.68 508.02 0.43 c p3
305.82 508.02 0.43 c p3
305.97 508.99 0.43 c p3
306.11 508.13 0.43 c p3
306.26 508.02 0.43 c p3
306.40 508.13 0.43 c p3
306.55 507.78 0.43 c p3
306.69 508.13 0.43 c p3
306.84 508.37 0.43 c p3
306.99 508.26 0.43 c p3
307.13 508.13 0.43 c p3
307.28 508.37 0.43 c p3
307.42 508.75 0.43 c p3
307.57 508.13 0.43 c p3
307.71 508.61 0.43 c p3
307.86 507.78 0.43 c p3
308.01 508.13 0.43 c p3
308.15 508.26 0.43 c p3
308.30 508.37 0.43 c p3
308.44 508.75 0.43 c p3
308.59 508.13 0.43 c p3
308.73 508.02 0.43 c p3
308.88 508.13 0.43 c p3
309.02 508.02 0.43 c p3
309.17 508.37 0.43 c p3
309.32 508.75 0.43 c p3
309.46 508.61 0.43 c p3
309.61 508.75 0.43 c p3
309.75 508.61 0.43 c p3
309.90 508.37 0.43 c p3
310.04 508.37 0.43 c p3
310.19 508.37 0.43 c p3
310.33 508.75 0.43 c p3
310.48 508.26 0.43 c p3
310.63 508.51 0.43 c p3
310.77 508.61 0.43 c p3
310.92 508.13 0.43 c p3
311.06 507.78 0.43 c p3
311.21 507.78 0.43 c p3
311.35 508.37 0.43 c p3
311.50 507.89 0.43 c p3
311.64 508.26 0.43 c p3
311.79 508.37 0.43 c p3
311.94 508.37 0.43 c p3
312.08 508.51 0.43 c p3
312.23 508.75 0.43 c p3
312.37 508.75 0.43 c p3
312.52 508.37 0.43 c p3
312.66 508.37 0.43 c p3
312.81 507.89 0.43 c p3
312.96 508.02 0.43 c p3
313.10 507.78 0.43 c p3
313.25 508.13 0.43 c p3
313.39 507.78 0.43 c p3
313.54 507.89 0.43 c p3
313.68 507.65 0.43 c p3
313.83 507.54 0.43 c p3
313.97 508.26 0.43 c p3
314.12 508.26 0.43 c p3
314.27 508.37 0.43 c p3
314.41 508.75 0.43 c p3
314.56 508.51 0.43 c p3
314.70 508.75 0.43 c p3
314.85 507.89 0.43 c p3
314.99 507.89 0.43 c p3
315.14 507.65 0.43 c p3
315.28 508.13 0.43 c p3
315.43 508.13 0.43 c p3
315.58 507.65 0.43 c p3
315.72 508.13 0.43 c p3
315.87 508.02 0.43 c p3
316.01 507.89 0.43 c p3
316.16 508.99 0.43 c p3
316.30 507.78 0.43 c p3
316.45 507.78 0.43 c p3
316.59 508.51 0.43 c p3
316.74 508.13 0.43 c p3
316.89 508.26 0.43 c p3
317.03 508.75 0.43 c p3
317.18 507.89 0.43 c p3
317.32 508.02 0.43 c p3
317.47 508.26 0.43 c p3
317.61 508.26 0.43 c p3
317.76 507.89 0.43 c p3
317.91 507.40 0.43 c p3
318.05 508.02 0.43 c p3
318.20 508.02 0.43 c p3
318.34 507.54 0.43 c p3
318.49 507.40 0.43 c p3
318.63 507.65 0.43 c p3
318.78 507.16 0.43 c p3
318.92 507.89 0.43 c p3
319.07 508.26 0.43 c p3
319.22 508.02 0.43 c p3
319.36 509.10 0.43 c p3
319.51 508.13 0.43 c p3
319.65 508.26 0.43 c p3
319.80 508.02 0.43 c p3
319.94 508.26 0.43 c p3
320.09 507.78 0.43 c p3
320.23 507.89 0.43 c p3
320.38 507.54 0.43 c p3
320.53 508.26 0.43 c p3
320.67 507.65 0.43 c p3
320.82 507.40 0.43 c p3
320.96 507.54 0.43 c p3
321.11 507.78 0.43 c p3
321.25 508.26 0.43 c p3
321.40 508.02 0.43 c p3
321.54 508.75 0.43 c p3
321.69 508.26 0.43 c p3
321.84 508.61 0.43 c p3
321.98 508.26 0.43 c p3
322.13 508.51 0.43 c p3
322.27 507.89 0.43 c p3
322.42 507.65 0.43 c p3
322.56 507.54 0.43 c p3
322.71 508.02 0.43 c p3
322.85 507.65 0.43 c p3
323.00 507.54 0.43 c p3
323.15 507.40 0.43 c p3
323.29 507.78 0.43 c p3
323.44 507.30 0.43 c p3
323.58 507.30 0.43 c p3
323.73 507.65 0.43 c p3
323.87 507.89 0.43 c p3
324.02 508.51 0.43 c p3
324.17 508.13 0.43 c p3
324.31 508.37 0.43 c p3
324.46 507.89 0.43 c p3
324.60 508.02 0.43 c p3
324.75 507.65 0.43 c p3
324.89 507.40 0.43 c p3
325.04 507.54 0.43 c p3
325.18 507.40 0.43 c p3
325.33 507.30 0.43 c p3
325.48 507.78 0.43 c p3
325.62 507.30 0.43 c p3
325.77 507.05 0.43 c p3
325.91 507.40 0.43 c p3
326.06 507.54 0.43 c p3
326.20 507.65 0.43 c p3
326.35 508.02 0.43 c p3
326.49 508.02 0.43 c p3
326.64 508.37 0.43 c p3
326.79 508.13 0.43 c p3
326.93 507.78 0.43 c p3
327.08 507.89 0.43 c p3
327.22 507.78 0.43 c p3
327.37 507.78 0.43 c p3
327.51 507.78 0.43 c p3
327.66 507.54 0.43 c p3
327.80 507.78 0.43 c p3
327.95 507.16 0.43 c p3
328.10 507.65 0.43 c p3
328.24 507.78 0.43 c p3
328.39 507.40 0.43 c p3
328.53 507.54 0.43 c p3
328.68 508.02 0.43 c p3
328.82 507.54 0.43 c p3
328.97 507.89 0.43 c p3
329.12 507.78 0.43 c p3
329.26 507.30 0.43 c p3
329.41 507.16 0.43 c p3
329.55 507.78 0.43 c p3
329.70 507.89 0.43 c p3
329.84 507.78 0.43 c p3
329.99 507.30 0.43 c p3
330.13 507.16 0.43 c p3
330.28 507.05 0.43 c p3
330.43 507.05 0.43 c p3
330.57 507.40 0.43 c p3
330.72 507.05 0.43 c p3
330.86 507.65 0.43 c p3
331.01 507.65 0.43 c p3
331.15 507.54 0.43 c p3
331.30 508.37 0.43 c p3
331.44 507.78 0.43 c p3
331.59 507.65 0.43 c p3
331.74 508.13 0.43 c p3
331.88 507.89 0.43 c p3
332.03 507.54 0.43 c p3
332.17 507.65 0.43 c p3
332.32 507.78 0.43 c p3
332.46 507.54 0.43 c p3
332.61 507.54 0.43 c p3
332.75 507.89 0.43 c p3
332.90 507.05 0.43 c p3
333.05 507.30 0.43 c p3
333.19 507.54 0.43 c p3
333.34 507.54 0.43 c p3
333.48 508.26 0.43 c p3
333.63 507.89 0.43 c p3
333.77 508.02 0.43 c p3
333.92 507.65 0.43 c p3
334.07 507.30 0.43 c p3
334.21 507.89 0.43 c p3
334.36 507.54 0.43 c p3
334.50 507.89 0.43 c p3
334.65 507.78 0.43 c p3
334.79 507.54 0.43 c p3
334.94 507.30 0.43 c p3
335.08 507.65 0.43 c p3
335.23 507.54 0.43 c p3
335.38 507.30 0.43 c p3
335.52 507.54 0.43 c p3
335.67 507.05 0.43 c p3
335.81 507.54 0.43 c p3
335.96 507.40 0.43 c p3
336.10 508.02 0.43 c p3
336.25 508.02 0.43 c p3
336.39 507.65 0.43 c p3
336.54 507.54 0.43 c p3
336.69 507.65 0.43 c p3
336.83 507.40 0.43 c p3
336.98 507.78 0.43 c p3
337.12 507.30 0.43 c p3
337.27 507.78 0.43 c p3
337.41 507.16 0.43 c p3
337.56 507.78 0.43 c p3
337.70 507.05 0.43 c p3
337.85 507.54 0.43 c p3
338.00 507.78 0.43 c p3
338.14 507.30 0.43 c p3
338.29 507.65 0.43 c p3
338.43 508.02 0.43 c p3
338.58 507.89 0.43 c p3
338.72 507.54 0.43 c p3
338.87 507.16 0.43 c p3
339.02 507.78 0.43 c p3
339.16 508.02 0.43 c p3
339.31 507.54 0.43 c p3
339.45 507.30 0.43 c p3
339.60 507.40 0.43 c p3
339.74 507.40 0.43 c p3
339.89 507.40 0.43 c p3
340.03 507.05 0.43 c p3
340.18 506.44 0.43 c p3
340.33 507.05 0.43 c p3
340.47 507.54 0.43 c p3
340.62 507.78 0.43 c p3
340.76 507.30 0.43 c p3
340.91 508.02 0.43 c p3
341.05 508.02 0.43 c p3
341.20 507.89 0.43 c p3
341.34 507.78 0.43 c p3
341.49 508.26 0.43 c p3
341.64 507.65 0.43 c p3
341.78 507.30 0.43 c p3
341.93 507.40 0.43 c p3
342.07 507.40 0.43 c p3
342.22 507.30 0.43 c p3
342.36 507.16 0.43 c p3
342.51 507.16 0.43 c p3
342.65 507.16 0.43 c p3
342.80 507.16 0.43 c p3
342.95 507.30 0.43 c p3
343.09 507.16 0.43 c p3
343.24 507.30 0.43 c p3
343.38 507.89 0.43 c p3
343.53 508.26 0.43 c p3
343.67 507.78 0.43 c p3
343.82 508.13 0.43 c p3
343.97 507.65 0.43 c p3
344.11 507.54 0.43 c p3
344.26 507.65 0.43 c p3
344.40 507.05 0.43 c p3
344.55 507.30 0.43 c p3
344.69 507.65 0.43 c p3
344.84 506.92 0.43 c p3
344.98 507.78 0.43 c p3
345.13 507.30 0.43 c p3
345.28 506.68 0.43 c p3
345.42 507.16 0.43 c p3
345.57 507.65 0.43 c p3
345.71 507.89 0.43 c p3
345.86 507.78 0.43 c p3
346.00 508.02 0.43 c p3
346.15 507.78 0.43 c p3
346.29 507.16 0.43 c p3
346.44 507.54 0.43 c p3
346.59 507.05 0.43 c p3
346.73 506.92 0.43 c p3
346.88 507.16 0.43 c p3
347.02 507.05 0.43 c p3
347.17 506.81 0.43 c p3
347.31 506.92 0.43 c p3
347.46 507.05 0.43 c p3
347.60 507.16 0.43 c p3
347.75 506.57 0.43 c p3
347.90 507.05 0.43 c p3
348.04 507.78 0.43 c p3
348.19 507.54 0.43 c p3
348.33 507.65 0.43 c p3
348.48 507.40 0.43 c p3
348.62 507.78 0.43 c p3
348.77 507.65 0.43 c p3
348.92 507.30 0.43 c p3
349.06 507.05 0.43 c p3
349.21 507.16 0.43 c p3
349.35 506.92 0.43 c p3
349.50 506.92 0.43 c p3
349.64 507.05 0.43 c p3
349.79 506.92 0.43 c p3
349.93 507.30 0.43 c p3
350.08 507.16 0.43 c p3
350.23 507.30 0.43 c p3
350.37 508.02 0.43 c p3
350.52 507.65 0.43 c p3
350.66 507.54 0.43 c p3
350.81 507.40 0.43 c p3
350.95 507.89 0.43 c p3
351.10 507.89 0.43 c p3
351.24 507.54 0.43 c p3
351.39 507.78 0.43 c p3
351.54 507.40 0.43 c p3
351.68 507.89 0.43 c p3
351.83 507.16 0.43 c p3
351.97 507.05 0.43 c p3
352.12 506.92 0.43 c p3
352.26 506.81 0.43 c p3
352.41 506.92 0.43 c p3
352.55 507.05 0.43 c p3
352.70 507.54 0.43 c p3
352.85 507.54 0.43 c p3
352.99 507.78 0.43 c p3
353.14 507.78 0.43 c p3
353.28 507.54 0.43 c p3
353.43 507.30 0.43 c p3
353.57 507.40 0.43 c p3
353.72 507.05 0.43 c p3
353.86 507.05 0.43 c p3
354.01 507.05 0.43 c p3
354.16 506.92 0.43 c p3
354.30 507.05 0.43 c p3
354.45 507.05 0.43 c p3
354.59 506.68 0.43 c p3
354.74 506.68 0.43 c p3
354.88 507.30 0.43 c p3
355.03 507.30 0.43 c p3
355.18 507.40 0.43 c p3
355.32 507.89 0.43 c p3
355.47 507.78 0.43 c p3
355.61 507.78 0.43 c p3
355.76 507.65 0.43 c p3
355.90 507.65 0.43 c p3
356.05 507.16 0.43 c p3
356.19 507.65 0.43 c p3
356.34 507.30 0.43 c p3
356.49 507.65 0.43 c p3
356.63 507.16 0.43 c p3
356.78 507.30 0.43 c p3
356.92 507.05 0.43 c p3
357.07 507.16 0.43 c p3
357.21 506.92 0.43 c p3
357.36 506.81 0.43 c p3
357.50 507.30 0.43 c p3
357.65 507.65 0.43 c p3
357.80 507.89 0.43 c p3
357.94 507.89 0.43 c p3
358.09 507.05 0.43 c p3
358.23 507.16 0.43 c p3
358.38 506.92 0.43 c p3
358.52 507.78 0.43 c p3
358.67 507.54 0.43 c p3
358.81 506.81 0.43 c p3
358.96 506.92 0.43 c p3
359.11 506.81 0.43 c p3
359.25 506.81 0.43 c p3
359.40 506.33 0.43 c p3
359.54 507.30 0.43 c p3
359.69 507.05 0.43 c p3
359.83 506.81 0.43 c p3
359.98 507.89 0.43 c p3
360.13 506.81 0.43 c p3
360.27 507.40 0.43 c p3
360.42 507.30 0.43 c p3
360.56 507.40 0.43 c p3
360.71 507.16 0.43 c p3
360.85 507.05 0.43 c p3
361.00 506.92 0.43 c p3
361.14 506.92 0.43 c p3
361.29 507.54 0.43 c p3
361.44 507.16 0.43 c p3
361.58 507.05 0.43 c p3
361.73 506.81 0.43 c p3
361.87 506.81 0.43 c p3
362.02 507.05 0.43 c p3
362.16 508.02 0.43 c p3
362.31 507.78 0.43 c p3
362.45 507.16 0.43 c p3
362.60 507.05 0.43 c p3
362.75 508.02 0.43 c p3
362.89 508.02 0.43 c p3
363.04 507.54 0.43 c p3
363.18 507.30 0.43 c p3
363.33 507.05 0.43 c p3
363.47 506.68 0.43 c p3
363.62 506.92 0.43 c p3
363.76 506.92 0.43 c p3
363.91 507.40 0.43 c p3
364.06 506.92 0.43 c p3
364.20 507.05 0.43 c p3
364.35 506.68 0.43 c p3
364.49 506.92 0.43 c p3
364.64 507.40 0.43 c p3
364.78 507.30 0.43 c p3
364.93 507.89 0.43 c p3
365.08 507.54 0.43 c p3
365.22 507.54 0.43 c p3
365.37 507.30 0.43 c p3
365.51 507.40 0.43 c p3
365.66 507.16 0.43 c p3
365.80 507.30 0.43 c p3
365.95 506.68 0.43 c p3
366.09 507.40 0.43 c p3
366.24 506.92 0.43 c p3
366.39 506.81 0.43 c p3
366.53 506.33 0.43 c p3
366.68 506.92 0.43 c p3
366.82 507.40 0.43 c p3
366.97 507.30 0.43 c p3
367.11 507.65 0.43 c p3
367.26 508.02 0.43 c p3
367.40 507.65 0.43 c p3
367.55 507.30 0.43 c p3
367.70 507.40 0.43 c p3
367.84 506.68 0.43 c p3
367.99 507.30 0.43 c p3
368.13 507.40 0.43 c p3
368.28 507.30 0.43 c p3
368.42 507.30 0.43 c p3
368.57 506.92 0.43 c p3
368.71 507.05 0.43 c p3
368.86 506.44 0.43 c p3
369.01 506.92 0.43 c p3
369.15 506.92 0.43 c p3
369.30 507.54 0.43 c p3
369.44 507.16 0.43 c p3
369.59 507.65 0.43 c p3
369.73 507.78 0.43 c p3
369.88 507.65 0.43 c p3
370.03 507.54 0.43 c p3
370.17 507.30 0.43 c p3
370.32 507.30 0.43 c p3
370.46 506.57 0.43 c p3
370.61 506.92 0.43 c p3
370.75 506.68 0.43 c p3
370.90 507.78 0.43 c p3
371.04 506.22 0.43 c p3
371.19 507.05 0.43 c p3
371.34 506.92 0.43 c p3
371.48 506.92 0.43 c p3
371.63 507.16 0.43 c p3
371.77 507.16 0.43 c p3
371.92 507.16 0.43 c p3
372.06 507.54 0.43 c p3
372.21 507.65 0.43 c p3
372.35 507.40 0.43 c p3
372.50 506.92 0.43 c p3
372.65 507.40 0.43 c p3
372.79 506.92 0.43 c p3
372.94 507.05 0.43 c p3
373.08 506.81 0.43 c p3
373.23 506.33 0.43 c p3
373.37 506.68 0.43 c p3
373.52 507.05 0.43 c p3
373.66 507.40 0.43 c p3
373.81 506.81 0.43 c p3
373.96 507.65 0.43 c p3
374.10 507.65 0.43 c p3
374.25 507.65 0.43 c p3
374.39 507.40 0.43 c p3
374.54 507.40 0.43 c p3
374.68 507.78 0.43 c p3
374.83 507.30 0.43 c p3
374.98 507.54 0.43 c p3
375.12 507.78 0.43 c p3
375.27 506.81 0.43 c p3
375.41 506.92 0.43 c p3
375.56 507.05 0.43 c p3
375.70 506.92 0.43 c p3
375.85 506.33 0.43 c p3
375.99 506.81 0.43 c p3
376.14 507.16 0.43 c p3
376.29 506.44 0.43 c p3
376.43 506.92 0.43 c p3
376.58 507.30 0.43 c p3
376.72 506.92 0.43 c p3
376.87 507.40 0.43 c p3
377.01 507.16 0.43 c p3
377.16 506.81 0.43 c p3
377.30 506.57 0.43 c p3
377.45 507.30 0.43 c p3
377.60 506.81 0.43 c p3
377.74 506.81 0.43 c p3
377.89 506.81 0.43 c p3
378.03 506.68 0.43 c p3
378.18 506.92 0.43 c p3
378.32 506.68 0.43 c p3
378.47 506.92 0.43 c p3
378.61 507.05 0.43 c p3
378.76 506.92 0.43 c p3
378.91 507.05 0.43 c p3
379.05 508.02 0.43 c p3
379.20 507.78 0.43 c p3
379.34 507.65 0.43 c p3
379.49 507.16 0.43 c p3
379.63 507.40 0.43 c p3
379.78 507.65 0.43 c p3
379.93 506.68 0.43 c p3
380.07 507.16 0.43 c p3
380.22 507.30 0.43 c p3
380.36 507.16 0.43 c p3
380.51 506.68 0.43 c p3
380.65 506.92 0.43 c p3
380.80 506.92 0.43 c p3
380.94 506.92 0.43 c p3
381.09 507.16 0.43 c p3
381.24 507.89 0.43 c p3
381.38 507.54 0.43 c p3
381.53 507.16 0.43 c p3
381.67 507.05 0.43 c p3
381.82 507.54 0.43 c p3
381.96 507.30 0.43 c p3
382.11 506.92 0.43 c p3
382.25 506.92 0.43 c p3
382.40 507.30 0.43 c p3
0.00 0.00 432.00 576.00 cl
0 0 0 srgb
0.75 setlinewidth
[] 0 setdash
1 setlinecap
1 setlinejoin
10.00 setmiterlimit
np
236.96 345.60 m
145.59 0 l
o
np
236.96 345.60 m
0 -5.76 l
o
np
266.08 345.60 m
0 -5.76 l
o
np
295.19 345.60 m
0 -5.76 l
o
np
324.31 345.60 m
0 -5.76 l
o
np
353.43 345.60 m
0 -5.76 l
o
np
382.55 345.60 m
0 -5.76 l
o
/Font1 findfont 10 s
236.96 329.47 (0) .5 0 t
266.08 329.47 (100) .5 0 t
295.19 329.47 (200) .5 0 t
324.31 329.47 (300) .5 0 t
353.43 329.47 (400) .5 0 t
382.55 329.47 (500) .5 0 t
np
216.00 352.00 m
0 165.16 l
o
np
216.00 352.00 m
-5.76 0 l
o
np
216.00 407.05 m
-5.76 0 l
o
np
216.00 462.10 m
-5.76 0 l
o
np
216.00 517.16 m
-5.76 0 l
o
209.09 348.41 (0.0) 1 0 t
209.09 403.46 (0.5) 1 0 t
209.09 458.51 (1.0) 1 0 t
209.09 513.57 (1.5) 1 0 t
np
216.00 345.60 m
172.80 0 l
0 172.80 l
-172.80 0 l
0 -172.80 l
o
0.00 0.00 432.00 576.00 cl
/Font1 findfont 10 s
0 0 0 srgb
302.40 313.34 (Zeit / ms \(total\)) .5 0 t
190.66 432.00 (U / V) .5 90 t
216.00 345.60 388.80 518.40 cl
0 0 0 srgb
0.38 setlinewidth
[ 1.12 1.88] 0 setdash
1 setlinecap
1 setlinejoin
10.00 setmiterlimit
np
223.27 345.60 m
0 172.80 l
o
np
235.07 345.60 m
0 172.80 l
o
np
239.58 345.60 m
0 172.80 l
o
np
278.16 345.60 m
0 172.80 l
o
86.40 57.60 388.80 288.00 cl
1 0 0 srgb
1.50 setlinewidth
[] 0 setdash
1 setlinecap
1 setlinejoin
10.00 setmiterlimit
np
97.60 279.47 m
1.41 -13.98 l
1.40 -13.06 l
1.41 -12.18 l
1.41 -11.39 l
1.41 -10.62 l
1.40 -9.93 l
1.41 -9.27 l
1.41 -8.65 l
1.40 -8.08 l
1.41 -7.55 l
1.41 -7.05 l
1.40 -6.58 l
1.41 -6.14 l
1.41 -5.74 l
1.41 -5.36 l
1.40 -5.00 l
1.41 -4.67 l
1.41 -4.36 l
1.40 -4.08 l
1.41 -3.80 l
1.41 -3.55 l
1.40 -3.32 l
1.41 -3.10 l
1.41 -2.89 l
1.41 -2.70 l
1.40 -2.52 l
1.41 -2.36 l
1.41 -2.20 l
1.40 -2.05 l
1.41 -1.92 l
1.41 -1.79 l
1.41 -1.67 l
1.40 -1.56 l
1.41 -1.46 l
1.41 -1.36 l
1.40 -1.27 l
1.41 -1.19 l
1.41 -1.11 l
1.40 -1.04 l
1.41 -0.96 l
1.41 -0.90 l
1.41 -0.85 l
1.40 -0.78 l
1.41 -0.74 l
1.41 -0.69 l
1.40 -0.64 l
1.41 -0.60 l
1.41 -0.55 l
1.40 -0.53 l
1.41 -0.48 l
1.41 -0.46 l
1.41 -0.42 l
1.40 -0.40 l
1.41 -0.37 l
1.41 -0.35 l
1.40 -0.32 l
1.41 -0.30 l
1.41 -0.28 l
1.41 -0.27 l
1.40 -0.24 l
1.41 -0.23 l
1.41 -0.22 l
1.40 -0.20 l
1.41 -0.18 l
1.41 -0.18 l
1.40 -0.16 l
1.41 -0.15 l
1.41 -0.14 l
1.41 -0.14 l
1.40 -0.12 l
1.41 -0.12 l
1.41 -0.10 l
1.40 -0.11 l
1.41 -0.09 l
1.41 -0.09 l
1.40 -0.08 l
1.41 -0.08 l
1.41 -0.07 l
1.41 -0.06 l
1.40 -0.07 l
1.41 -0.06 l
1.41 -0.05 l
1.40 -0.05 l
1.41 -0.05 l
1.41 -0.04 l
1.41 -0.04 l
1.40 -0.04 l
1.41 -0.04 l
1.41 -0.03 l
1.40 -0.03 l
1.41 -0.03 l
1.41 -0.03 l
1.40 -0.03 l
1.41 -0.02 l
1.41 -0.02 l
1.41 -0.02 l
1.40 -0.02 l
1.41 -0.02 l
1.41 -0.02 l
238.30 68.55 lineto
1.41 -0.02 l
1.41 -0.01 l
1.40 -0.02 l
1.41 -0.01 l
1.41 -0.01 l
1.41 -0.01 l
1.40 -0.01 l
1.41 -0.01 l
1.41 -0.01 l
1.40 0 l
1.41 -0.01 l
1.41 -0.01 l
1.40 -0.01 l
1.41 0 l
1.41 -0.01 l
1.41 0 l
1.40 -0.01 l
1.41 0 l
1.41 -0.01 l
1.40 0 l
1.41 0 l
1.41 -0.01 l
1.41 0 l
1.40 0 l
1.41 -0.01 l
1.41 0 l
1.40 0 l
1.41 0 l
1.41 -0.01 l
1.40 0 l
1.41 0 l
1.41 0 l
1.41 0 l
1.40 -0.01 l
1.41 0 l
1.41 0 l
1.40 0 l
1.41 0 l
1.41 0 l
1.40 0 l
1.41 0 l
1.41 0 l
1.41 -0.01 l
1.40 0 l
1.41 0 l
1.41 0 l
1.40 0 l
1.41 0 l
1.41 0 l
1.41 0 l
1.40 0 l
1.41 0 l
1.41 0 l
1.40 0 l
1.41 0 l
1.41 0 l
1.40 0 l
1.41 0 l
1.41 0 l
1.41 0 l
1.40 0 l
1.41 0 l
1.41 0 l
1.40 0 l
1.41 0 l
1.41 0 l
1.40 -0.01 l
1.41 0 l
1.41 0 l
1.41 0 l
1.40 0 l
1.41 0 l
1.41 0 l
1.40 0 l
1.41 0 l
1.41 0 l
1.41 0 l
1.40 0 l
1.41 0 l
1.41 0 l
1.40 0 l
1.41 0 l
1.41 0 l
1.40 0 l
1.41 0 l
1.41 0 l
1.41 0 l
1.40 0 l
1.41 0 l
1.41 0 l
1.40 0 l
1.41 0 l
1.41 0 l
1.40 0 l
1.41 0 l
1.41 0 l
1.41 0 l
1.40 0 l
1.41 0 l
o
0.00 0.00 432.00 576.00 cl
0 0 0 srgb
0.75 setlinewidth
[] 0 setdash
1 setlinecap
1 setlinejoin
10.00 setmiterlimit
np
97.60 57.60 m
280.00 0 l
o
np
97.60 57.60 m
0 -5.76 l
o
np
153.60 57.60 m
0 -5.76 l
o
np
209.60 57.60 m
0 -5.76 l
o
np
265.60 57.60 m
0 -5.76 l
o
np
321.60 57.60 m
0 -5.76 l
o
np
377.60 57.60 m
0 -5.76 l
o
/Font1 findfont 10 s
97.60 41.47 (0) .5 0 t
153.60 41.47 (100) .5 0 t
209.60 41.47 (200) .5 0 t
265.60 41.47 (300) .5 0 t
321.60 41.47 (400) .5 0 t
377.60 41.47 (500) .5 0 t
np
86.40 66.13 m
0 188.51 l
o
np
86.40 66.13 m
-5.76 0 l
o
np
86.40 113.26 m
-5.76 0 l
o
np
86.40 160.39 m
-5.76 0 l
o
np
86.40 207.51 m
-5.76 0 l
o
np
86.40 254.64 m
-5.76 0 l
o
79.49 62.54 (0.00) 1 0 t
79.49 109.67 (0.05) 1 0 t
79.49 156.80 (0.10) 1 0 t
79.49 203.92 (0.15) 1 0 t
79.49 251.05 (0.20) 1 0 t
np
86.40 57.60 m
302.40 0 l
0 230.40 l
-302.40 0 l
0 -230.40 l
o
0.00 0.00 432.00 576.00 cl
/Font1 findfont 10 s
0 0 0 srgb
237.60 13.82 (Zeit / ms \(nach Puls\)) .5 0 t
49.54 172.80 (Absorbanz A) .5 90 t
86.40 57.60 388.80 288.00 cl
/bg { 1 1 1 srgb } def
0 0 0 srgb
0.75 setlinewidth
[] 0 setdash
1 setlinecap
1 setlinejoin
10.00 setmiterlimit
102.92 230.71 0.65 c p3
103.20 230.19 0.65 c p3
103.48 227.01 0.65 c p3
103.76 228.34 0.65 c p3
104.04 223.84 0.65 c p3
104.32 223.33 0.65 c p3
104.60 216.59 0.65 c p3
104.88 214.79 0.65 c p3
105.16 212.51 0.65 c p3
105.44 210.34 0.65 c p3
105.72 207.21 0.65 c p3
106.00 205.06 0.65 c p3
106.28 205.45 0.65 c p3
106.56 203.80 0.65 c p3
106.84 199.85 0.65 c p3
107.12 202.93 0.65 c p3
107.40 202.06 0.65 c p3
107.68 199.47 0.65 c p3
107.96 198.61 0.65 c p3
108.24 195.18 0.65 c p3
108.52 193.86 0.65 c p3
108.80 189.63 0.65 c p3
109.08 188.79 0.65 c p3
109.36 188.41 0.65 c p3
109.64 187.57 0.65 c p3
109.92 181.75 0.65 c p3
110.20 179.74 0.65 c p3
110.48 180.10 0.65 c p3
110.76 178.46 0.65 c p3
111.04 176.01 0.65 c p3
111.32 176.01 0.65 c p3
111.60 175.65 0.65 c p3
111.88 174.39 0.65 c p3
112.16 172.41 0.65 c p3
112.44 172.41 0.65 c p3
112.72 171.16 0.65 c p3
113.00 169.20 0.65 c p3
113.28 168.04 0.65 c p3
113.56 166.80 0.65 c p3
113.84 162.49 0.65 c p3
114.12 162.05 0.65 c p3
114.40 158.92 0.65 c p3
114.68 160.92 0.65 c p3
114.96 158.92 0.65 c p3
115.24 155.81 0.65 c p3
115.52 153.49 0.65 c p3
115.80 155.03 0.65 c p3
116.08 154.26 0.65 c p3
116.36 154.26 0.65 c p3
116.64 154.69 0.65 c p3
116.92 151.61 0.65 c p3
117.20 150.84 0.65 c p3
117.48 150.84 0.65 c p3
117.76 149.31 0.65 c p3
118.04 148.21 0.65 c p3
118.32 147.79 0.65 c p3
118.60 145.94 0.65 c p3
118.88 141.76 0.65 c p3
119.16 140.26 0.65 c p3
119.44 138.77 0.65 c p3
119.72 138.77 0.65 c p3
120.00 138.03 0.65 c p3
120.28 139.19 0.65 c p3
120.56 138.03 0.65 c p3
120.84 136.96 0.65 c p3
121.12 136.63 0.65 c p3
121.40 136.63 0.65 c p3
121.68 136.22 0.65 c p3
121.96 135.89 0.65 c p3
122.24 134.42 0.65 c p3
122.52 132.54 0.65 c p3
122.80 131.08 0.65 c p3
123.08 127.85 0.65 c p3
123.36 126.41 0.65 c p3
123.64 125.69 0.65 c p3
123.92 124.97 0.65 c p3
124.20 125.29 0.65 c p3
124.48 125.69 0.65 c p3
124.76 124.57 0.65 c p3
125.04 123.53 0.65 c p3
125.32 123.53 0.65 c p3
125.60 123.53 0.65 c p3
125.88 122.10 0.65 c p3
126.16 122.82 0.65 c p3
126.44 122.10 0.65 c p3
126.72 120.68 0.65 c p3
127.00 119.26 0.65 c p3
127.28 117.84 0.65 c p3
127.56 116.82 0.65 c p3
127.84 116.82 0.65 c p3
128.12 114.71 0.65 c p3
128.40 113.63 0.65 c p3
128.68 113.63 0.65 c p3
128.96 112.93 0.65 c p3
129.24 112.62 0.65 c p3
129.52 112.23 0.65 c p3
129.80 112.23 0.65 c p3
130.08 113.63 0.65 c p3
130.36 114.01 0.65 c p3
130.64 112.93 0.65 c p3
130.92 111.53 0.65 c p3
131.20 111.23 0.65 c p3
131.48 110.53 0.65 c p3
131.76 108.45 0.65 c p3
132.04 107.38 0.65 c p3
132.32 106.08 0.65 c p3
132.60 106.08 0.65 c p3
132.88 105.40 0.65 c p3
133.16 103.65 0.65 c p3
133.44 104.33 0.65 c p3
133.72 105.02 0.65 c p3
134.00 104.03 0.65 c p3
134.28 104.03 0.65 c p3
134.56 104.71 0.65 c p3
134.84 103.65 0.65 c p3
135.12 104.33 0.65 c p3
135.40 104.03 0.65 c p3
135.68 101.99 0.65 c p3
135.96 101.99 0.65 c p3
136.24 99.28 0.65 c p3
136.52 98.60 0.65 c p3
136.80 97.93 0.65 c p3
137.08 96.59 0.65 c p3
137.36 95.92 0.65 c p3
137.64 96.88 0.65 c p3
137.92 95.54 0.65 c p3
138.20 97.93 0.65 c p3
138.48 97.26 0.65 c p3
138.76 96.21 0.65 c p3
139.04 96.88 0.65 c p3
139.32 96.21 0.65 c p3
139.60 96.59 0.65 c p3
139.88 96.21 0.65 c p3
140.16 94.58 0.65 c p3
140.44 95.25 0.65 c p3
140.72 94.21 0.65 c p3
141.00 94.21 0.65 c p3
141.28 91.63 0.65 c p3
141.56 92.21 0.65 c p3
141.84 91.26 0.65 c p3
142.12 92.58 0.65 c p3
142.40 91.63 0.65 c p3
142.68 91.92 0.65 c p3
142.96 92.21 0.65 c p3
143.24 91.26 0.65 c p3
143.52 90.30 0.65 c p3
143.80 89.94 0.65 c p3
144.08 90.30 0.65 c p3
144.36 91.26 0.65 c p3
144.64 91.92 0.65 c p3
144.92 92.21 0.65 c p3
145.20 89.28 0.65 c p3
145.48 88.62 0.65 c p3
145.76 87.01 0.65 c p3
146.04 86.65 0.65 c p3
146.32 85.71 0.65 c p3
146.60 85.71 0.65 c p3
146.88 86.00 0.65 c p3
147.16 86.00 0.65 c p3
147.44 85.05 0.65 c p3
147.72 83.75 0.65 c p3
148.00 87.31 0.65 c p3
148.28 85.71 0.65 c p3
148.56 86.65 0.65 c p3
148.84 86.65 0.65 c p3
149.12 86.36 0.65 c p3
149.40 86.36 0.65 c p3
149.68 85.34 0.65 c p3
149.96 84.69 0.65 c p3
150.24 83.39 0.65 c p3
150.52 81.16 0.65 c p3
150.80 81.45 0.65 c p3
151.08 83.39 0.65 c p3
151.36 83.75 0.65 c p3
151.64 82.74 0.65 c p3
151.92 84.40 0.65 c p3
152.20 83.39 0.65 c p3
152.48 83.10 0.65 c p3
152.76 82.74 0.65 c p3
153.04 82.45 0.65 c p3
153.32 84.69 0.65 c p3
153.60 83.39 0.65 c p3
153.88 82.74 0.65 c p3
154.16 82.09 0.65 c p3
154.44 82.09 0.65 c p3
154.72 80.16 0.65 c p3
155.00 78.87 0.65 c p3
155.28 79.87 0.65 c p3
155.56 79.51 0.65 c p3
155.84 80.80 0.65 c p3
156.12 78.59 0.65 c p3
156.40 80.16 0.65 c p3
156.68 81.16 0.65 c p3
156.96 79.51 0.65 c p3
157.24 79.51 0.65 c p3
157.52 80.16 0.65 c p3
157.80 80.16 0.65 c p3
158.08 77.94 0.65 c p3
158.36 78.87 0.65 c p3
158.64 80.16 0.65 c p3
158.92 79.51 0.65 c p3
159.20 78.30 0.65 c p3
159.48 77.94 0.65 c p3
159.76 77.94 0.65 c p3
160.04 77.02 0.65 c p3
160.32 78.30 0.65 c p3
160.60 77.30 0.65 c p3
160.88 76.38 0.65 c p3
161.16 77.94 0.65 c p3
161.44 77.30 0.65 c p3
161.72 77.02 0.65 c p3
162.00 75.74 0.65 c p3
162.28 77.94 0.65 c p3
162.56 77.30 0.65 c p3
162.84 78.87 0.65 c p3
163.12 78.59 0.65 c p3
163.40 77.66 0.65 c p3
163.68 76.03 0.65 c p3
163.96 75.39 0.65 c p3
164.24 75.74 0.65 c p3
164.52 75.74 0.65 c p3
164.80 75.74 0.65 c p3
165.08 76.67 0.65 c p3
165.36 77.02 0.65 c p3
165.64 77.02 0.65 c p3
165.92 76.38 0.65 c p3
166.20 77.30 0.65 c p3
166.48 76.38 0.65 c p3
166.76 76.67 0.65 c p3
167.04 76.03 0.65 c p3
167.32 76.67 0.65 c p3
167.60 75.74 0.65 c p3
167.88 76.03 0.65 c p3
168.16 75.39 0.65 c p3
168.44 75.74 0.65 c p3
168.72 74.75 0.65 c p3
169.00 74.47 0.65 c p3
169.28 74.12 0.65 c p3
169.56 74.47 0.65 c p3
169.84 74.75 0.65 c p3
170.12 74.47 0.65 c p3
170.40 75.39 0.65 c p3
170.68 74.75 0.65 c p3
170.96 73.48 0.65 c p3
171.24 74.75 0.65 c p3
171.52 75.11 0.65 c p3
171.80 75.74 0.65 c p3
172.08 74.75 0.65 c p3
172.36 73.84 0.65 c p3
172.64 73.84 0.65 c p3
172.92 73.84 0.65 c p3
173.20 71.59 0.65 c p3
173.48 73.20 0.65 c p3
173.76 73.48 0.65 c p3
174.04 73.84 0.65 c p3
174.32 73.84 0.65 c p3
174.60 73.20 0.65 c p3
174.88 74.47 0.65 c p3
175.16 72.57 0.65 c p3
175.44 74.75 0.65 c p3
175.72 74.75 0.65 c p3
176.00 73.84 0.65 c p3
176.28 74.47 0.65 c p3
176.56 73.20 0.65 c p3
176.84 74.75 0.65 c p3
177.12 72.57 0.65 c p3
216.00 201.60 367.20 247.68 cl
0 0 0 srgb
0.75 setlinewidth
[] 0 setdash
1 setlinecap
1 setlinejoin
10.00 setmiterlimit
221.60 222.34 0.43 c p1
222.13 229.05 0.43 c p1
222.66 225.03 0.43 c p1
223.18 238.86 0.43 c p1
223.71 229.41 0.43 c p1
224.24 235.69 0.43 c p1
224.77 217.07 0.43 c p1
225.30 218.02 0.43 c p1
225.83 216.92 0.43 c p1
226.35 216.16 0.43 c p1
226.88 211.45 0.43 c p1
227.41 210.59 0.43 c p1
227.94 219.68 0.43 c p1
228.47 220.57 0.43 c p1
229.00 212.22 0.43 c p1
229.52 231.70 0.43 c p1
230.05 235.40 0.43 c p1
230.58 232.13 0.43 c p1
231.11 235.67 0.43 c p1
231.64 228.91 0.43 c p1
232.17 230.41 0.43 c p1
232.69 220.28 0.43 c p1
233.22 223.52 0.43 c p1
233.75 228.53 0.43 c p1
234.28 231.61 0.43 c p1
234.81 214.80 0.43 c p1
235.34 213.04 0.43 c p1
235.86 220.64 0.43 c p1
236.39 220.19 0.43 c p1
236.92 216.44 0.43 c p1
237.45 222.34 0.43 c p1
237.98 226.73 0.43 c p1
238.51 227.45 0.43 c p1
239.03 225.26 0.43 c p1
239.56 230.85 0.43 c p1
240.09 231.39 0.43 c p1
240.62 229.03 0.43 c p1
241.15 229.81 0.43 c p1
241.68 230.18 0.43 c p1
242.20 218.27 0.43 c p1
242.73 221.69 0.43 c p1
243.26 214.31 0.43 c p1
243.79 227.27 0.43 c p1
244.32 224.27 0.43 c p1
244.85 216.78 0.43 c p1
245.37 212.38 0.43 c p1
245.90 223.27 0.43 c p1
246.43 224.88 0.43 c p1
246.96 229.50 0.43 c p1
247.49 235.76 0.43 c p1
248.02 228.02 0.43 c p1
248.54 229.41 0.43 c p1
249.07 233.78 0.43 c p1
249.60 232.03 0.43 c p1
250.13 231.91 0.43 c p1
250.66 234.43 0.43 c p1
251.18 231.21 0.43 c p1
251.71 218.68 0.43 c p1
252.24 216.77 0.43 c p1
252.77 214.83 0.43 c p1
253.30 218.76 0.43 c p1
253.83 219.67 0.43 c p1
254.35 228.08 0.43 c p1
254.88 227.26 0.43 c p1
255.41 226.72 0.43 c p1
255.94 229.07 0.43 c p1
256.47 232.69 0.43 c p1
257.00 234.62 0.43 c p1
257.52 236.84 0.43 c p1
258.05 234.45 0.43 c p1
258.58 230.42 0.43 c p1
259.11 227.99 0.43 c p1
259.64 218.49 0.43 c p1
260.17 216.03 0.43 c p1
260.69 216.41 0.43 c p1
261.22 216.75 0.43 c p1
261.75 221.18 0.43 c p1
262.28 225.87 0.43 c p1
262.81 224.50 0.43 c p1
263.34 223.41 0.43 c p1
263.86 226.40 0.43 c p1
264.39 229.34 0.43 c p1
264.92 226.57 0.43 c p1
265.45 232.27 0.43 c p1
265.98 232.26 0.43 c p1
266.51 229.39 0.43 c p1
267.03 226.50 0.43 c p1
267.56 223.59 0.43 c p1
268.09 222.22 0.43 c p1
268.62 224.87 0.43 c p1
269.15 219.10 0.43 c p1
269.68 217.34 0.43 c p1
270.20 219.88 0.43 c p1
270.73 219.60 0.43 c p1
271.26 220.84 0.43 c p1
271.79 221.73 0.43 c p1
272.32 224.13 0.43 c p1
272.85 232.05 0.43 c p1
273.37 235.93 0.43 c p1
273.90 233.91 0.43 c p1
274.43 230.65 0.43 c p1
274.96 231.67 0.43 c p1
275.49 231.12 0.43 c p1
276.02 225.06 0.43 c p1
276.54 222.95 0.43 c p1
277.07 219.91 0.43 c p1
277.60 222.01 0.43 c p1
278.13 221.35 0.43 c p1
278.66 216.45 0.43 c p1
279.18 221.17 0.43 c p1
279.71 225.87 0.43 c p1
280.24 223.91 0.43 c p1
280.77 225.84 0.43 c p1
281.30 230.46 0.43 c p1
281.83 228.11 0.43 c p1
282.35 232.68 0.43 c p1
282.88 233.30 0.43 c p1
283.41 226.99 0.43 c p1
283.94 228.77 0.43 c p1
284.47 219.76 0.43 c p1
285.00 218.81 0.43 c p1
285.52 217.84 0.43 c p1
286.05 214.19 0.43 c p1
286.58 213.19 0.43 c p1
287.11 218.67 0.43 c p1
287.64 214.97 0.43 c p1
288.17 226.04 0.43 c p1
288.69 224.94 0.43 c p1
289.22 222.35 0.43 c p1
289.75 226.54 0.43 c p1
290.28 225.39 0.43 c p1
290.81 228.36 0.43 c p1
291.34 228.35 0.43 c p1
291.86 223.31 0.43 c p1
292.39 227.39 0.43 c p1
292.92 224.68 0.43 c p1
293.45 226.07 0.43 c p1
293.98 217.17 0.43 c p1
294.51 220.87 0.43 c p1
295.03 218.40 0.43 c p1
295.56 224.99 0.43 c p1
296.09 222.48 0.43 c p1
296.62 224.94 0.43 c p1
297.15 227.37 0.43 c p1
297.68 224.82 0.43 c p1
298.20 222.25 0.43 c p1
298.73 222.01 0.43 c p1
299.26 224.67 0.43 c p1
299.79 229.64 0.43 c p1
300.32 233.44 0.43 c p1
300.85 235.76 0.43 c p1
301.37 225.22 0.43 c p1
301.90 223.73 0.43 c p1
302.43 218.46 0.43 c p1
302.96 218.10 0.43 c p1
303.49 215.42 0.43 c p1
304.02 216.48 0.43 c p1
304.54 218.68 0.43 c p1
305.07 219.71 0.43 c p1
305.60 216.99 0.43 c p1
306.13 212.82 0.43 c p1
306.66 227.93 0.43 c p1
307.18 222.55 0.43 c p1
307.71 227.26 0.43 c p1
308.24 228.21 0.43 c p1
308.77 228.00 0.43 c p1
309.30 228.92 0.43 c p1
309.83 225.80 0.43 c p1
310.35 224.11 0.43 c p1
310.88 219.83 0.43 c p1
311.41 211.84 0.43 c p1
311.94 213.84 0.43 c p1
312.47 222.42 0.43 c p1
313.00 224.69 0.43 c p1
313.52 221.51 0.43 c p1
314.05 228.92 0.43 c p1
314.58 225.71 0.43 c p1
315.11 225.36 0.43 c p1
315.64 224.72 0.43 c p1
316.17 224.35 0.43 c p1
316.69 234.00 0.43 c p1
317.22 229.59 0.43 c p1
317.75 227.75 0.43 c p1
318.28 225.91 0.43 c p1
318.81 226.64 0.43 c p1
319.34 219.65 0.43 c p1
319.86 215.25 0.43 c p1
320.39 219.91 0.43 c p1
320.92 219.18 0.43 c p1
321.45 224.97 0.43 c p1
321.98 216.83 0.43 c p1
322.51 223.74 0.43 c p1
323.03 228.37 0.43 c p1
323.56 222.47 0.43 c p1
324.09 223.10 0.43 c p1
324.62 226.28 0.43 c p1
325.15 226.89 0.43 c p1
325.68 218.71 0.43 c p1
326.20 222.99 0.43 c p1
326.73 228.69 0.43 c p1
327.26 226.71 0.43 c p1
327.79 222.47 0.43 c p1
328.32 221.62 0.43 c p1
328.85 222.18 0.43 c p1
329.37 219.05 0.43 c p1
329.90 224.69 0.43 c p1
330.43 221.26 0.43 c p1
330.96 218.12 0.43 c p1
331.49 224.86 0.43 c p1
332.02 222.83 0.43 c p1
332.54 222.21 0.43 c p1
333.07 217.64 0.43 c p1
333.60 226.88 0.43 c p1
334.13 224.82 0.43 c p1
334.66 231.52 0.43 c p1
335.18 230.86 0.43 c p1
335.71 227.65 0.43 c p1
336.24 221.63 0.43 c p1
336.77 219.55 0.43 c p1
337.30 221.41 0.43 c p1
337.83 221.85 0.43 c p1
338.35 222.29 0.43 c p1
338.88 226.38 0.43 c p1
339.41 228.21 0.43 c p1
339.94 228.63 0.43 c p1
340.47 226.51 0.43 c p1
341.00 230.58 0.43 c p1
341.52 227.32 0.43 c p1
342.05 228.84 0.43 c p1
342.58 226.70 0.43 c p1
343.11 229.62 0.43 c p1
343.64 226.34 0.43 c p1
344.17 227.85 0.43 c p1
344.69 225.68 0.43 c p1
345.22 227.46 0.43 c p1
345.75 223.88 0.43 c p1
346.28 223.12 0.43 c p1
346.81 222.07 0.43 c p1
347.34 223.81 0.43 c p1
347.86 225.28 0.43 c p1
348.39 224.49 0.43 c p1
348.92 228.48 0.43 c p1
349.45 226.28 0.43 c p1
349.98 221.56 0.43 c p1
350.51 226.92 0.43 c p1
351.03 228.64 0.43 c p1
351.56 231.48 0.43 c p1
352.09 227.85 0.43 c p1
352.62 224.51 0.43 c p1
353.15 224.81 0.43 c p1
353.68 225.10 0.43 c p1
354.20 216.46 0.43 c p1
354.73 223.16 0.43 c p1
355.26 224.56 0.43 c p1
355.79 226.24 0.43 c p1
356.32 226.52 0.43 c p1
356.85 224.27 0.43 c p1
357.37 229.58 0.43 c p1
357.90 222.29 0.43 c p1
358.43 231.22 0.43 c p1
358.96 231.48 0.43 c p1
359.49 228.09 0.43 c p1
360.02 230.86 0.43 c p1
360.54 226.07 0.43 c p1
361.07 232.47 0.43 c p1
361.60 224.04 0.43 c p1
0.00 0.00 432.00 576.00 cl
0 0 0 srgb
0.75 setlinewidth
[] 0 setdash
1 setlinecap
1 setlinejoin
10.00 setmiterlimit
np
232.69 201.60 m
126.80 0 l
o
np
232.69 201.60 m
0 -5.76 l
o
np
253.83 201.60 m
0 -5.76 l
o
np
274.96 201.60 m
0 -5.76 l
o
np
296.09 201.60 m
0 -5.76 l
o
np
317.22 201.60 m
0 -5.76 l
o
np
338.35 201.60 m
0 -5.76 l
o
np
359.49 201.60 m
0 -5.76 l
o
/Font1 findfont 6 s
232.69 185.47 (20) .5 0 t
253.83 185.47 (40) .5 0 t
274.96 185.47 (60) .5 0 t
296.09 185.47 (80) .5 0 t
317.22 185.47 (100) .5 0 t
338.35 185.47 (120) .5 0 t
359.49 185.47 (140) .5 0 t
np
216.00 202.17 m
0 44.94 l
o
np
216.00 202.17 m
-5.76 0 l
o
np
216.00 209.66 m
-5.76 0 l
o
np
216.00 217.15 m
-5.76 0 l
o
np
216.00 224.64 m
-5.76 0 l
o
np
216.00 232.13 m
-5.76 0 l
o
np
216.00 239.62 m
-5.76 0 l
o
np
216.00 247.11 m
-5.76 0 l
o
209.09 200.02 (-0.006) 1 0 t
209.09 207.51 (-0.004) 1 0 t
209.09 215.00 (-0.002) 1 0 t
209.09 222.49 (0.000) 1 0 t
209.09 229.98 (0.002) 1 0 t
209.09 237.47 (0.004) 1 0 t
209.09 244.96 (0.006) 1 0 t
np
216.00 201.60 m
151.20 0 l
0 46.08 l
-151.20 0 l
0 -46.08 l
o
0.00 0.00 432.00 576.00 cl
/Font1 findfont 9 s
0 0 0 srgb
291.60 262.88 (Residuen) .5 0 t
59.04 73.44 401.76 516.96 cl
ep
%%Trailer
%%Pages: 1
%%EOF
