%!PS-Adobe-3.0 EPSF-3.0
%%DocumentNeededResources: font Helvetica
%%+ font Helvetica-Bold
%%+ font Helvetica-Oblique
%%+ font Helvetica-BoldOblique
%%+ font Symbol
%%Title: R Graphics Output
%%Creator: R Software
%%Pages: (atend)
%%BoundingBox: 0 0 432 576
%%EndComments
%%BeginProlog
/bp  { gs sRGB gs } def
% begin .ps.prolog
/gs  { gsave } bind def
/gr  { grestore } bind def
/ep  { showpage gr gr } bind def
/m   { moveto } bind def
/l  { rlineto } bind def
/np  { newpath } bind def
/cp  { closepath } bind def
/f   { fill } bind def
/o   { stroke } bind def
/c   { newpath 0 360 arc } bind def
/r   { 4 2 roll moveto 1 copy 3 -1 roll exch 0 exch rlineto 0 rlineto -1 mul 0 exch rlineto closepath } bind def
/p1  { stroke } bind def
/p2  { gsave bg fill grestore newpath } bind def
/p3  { gsave bg fill grestore stroke } bind def
/p6  { gsave bg eofill grestore newpath } bind def
/p7  { gsave bg eofill grestore stroke } bind def
/t   { 5 -2 roll moveto gsave rotate
       1 index stringwidth pop
       mul neg 0 rmoveto show grestore } bind def
/ta  { 4 -2 roll moveto gsave rotate show } bind def
/tb  { 2 -1 roll 0 rmoveto show } bind def
/cl  { grestore gsave newpath 3 index 3 index moveto 1 index
       4 -1 roll lineto  exch 1 index lineto lineto
       closepath clip newpath } bind def
/rgb { setrgbcolor } bind def
/s   { scalefont setfont } bind def
% end   .ps.prolog
/sRGB { [ /CIEBasedABC
          << /DecodeLMN
               [ { dup 0.03928 le
                        {12.92321 div}
                        {0.055 add 1.055 div 2.4 exp }
                     ifelse
                 } bind dup dup
               ]
             /MatrixLMN [0.412457 0.212673 0.019334
                         0.357576 0.715152 0.119192
                         0.180437 0.072175 0.950301]
             /WhitePoint [0.9505 1.0 1.0890]
           >>
         ] setcolorspace } bind def
/srgb { setcolor } bind def
%%IncludeResource: font Helvetica
/Helvetica findfont
dup length dict begin
  {1 index /FID ne {def} {pop pop} ifelse} forall
  /Encoding ISOLatin1Encoding def
  currentdict
  end
/Font1 exch definefont pop
%%IncludeResource: font Helvetica-Bold
/Helvetica-Bold findfont
dup length dict begin
  {1 index /FID ne {def} {pop pop} ifelse} forall
  /Encoding ISOLatin1Encoding def
  currentdict
  end
/Font2 exch definefont pop
%%IncludeResource: font Helvetica-Oblique
/Helvetica-Oblique findfont
dup length dict begin
  {1 index /FID ne {def} {pop pop} ifelse} forall
  /Encoding ISOLatin1Encoding def
  currentdict
  end
/Font3 exch definefont pop
%%IncludeResource: font Helvetica-BoldOblique
/Helvetica-BoldOblique findfont
dup length dict begin
  {1 index /FID ne {def} {pop pop} ifelse} forall
  /Encoding ISOLatin1Encoding def
  currentdict
  end
/Font4 exch definefont pop
%%IncludeResource: font Symbol
/Symbol findfont
dup length dict begin
  {1 index /FID ne {def} {pop pop} ifelse} forall
  currentdict
  end
/Font5 exch definefont pop
%%EndProlog
%%Page: 1 1
bp
0.00 0.00 432.00 576.00 cl
0.00 0.00 432.00 576.00 cl
0.00 0.00 432.00 576.00 cl
/Font1 findfont 12 s
0 0 0 srgb
48.00 508.72 (PCP-ETH) 0 0 t
48.00 494.89 (Blitzlicht-Photolyse) 0 0 t
/Font1 findfont 9 s
48.00 457.54 (File: Dy) 0 ta
-0.180 (e_0_1_V2_900V_45.dat) tb gr
48.00 334.87 (T) 0 ta
-1.080 (ue Apr  9 22:05:29 2019) tb gr
48.00 430.87 (Fitfunktion:  a + b * e) 0 ta
-0.270 (xp\(-c * t\)) tb gr
48.00 420.50 (t-Inter) 0 ta
0.270 (v) tb
-0.225 (all: 5.000 ... 115.000 ms) tb gr
48.00 410.14 (P) 0 ta
-0.360 (ar) tb
-0.090 (ameter \(Standardabw) tb
-0.090 (eichung\):) tb gr
48.00 399.77 (  a = 0.00617 \(0.00023\)) 0 0 t
48.00 389.40 (  b = 0.18470 \(0.00062\)) 0 0 t
48.00 379.03 (  c = 3.811e+01 \(2.521e-01\) s^-1) 0 0 t
48.00 368.66 (  tau = 2.624e-02 \(1.736e-04\) s) 0 0 t
216.00 345.60 388.80 518.40 cl
0 0 0 srgb
0.75 setlinewidth
[] 0 setdash
1 setlinecap
1 setlinejoin
10.00 setmiterlimit
np
222.40 510.92 m
0.15 0 l
0.14 0.35 l
0.15 -0.48 l
0.14 0.38 l
0.15 0 l
0.14 -0.14 l
0.15 0.24 l
0.14 -0.10 l
0.15 0.24 l
0.15 -0.14 l
0.14 -0.59 l
0.15 0.73 l
0.14 -0.14 l
0.15 -0.24 l
0.14 0.14 l
0.15 -0.38 l
0.14 0.38 l
0.15 -0.97 l
0.15 0.83 l
0.14 0.24 l
0.15 -0.97 l
0.14 0.73 l
0.15 -0.11 l
0.14 -0.13 l
0.15 0.38 l
0.15 -0.25 l
0.14 0.25 l
0.15 -0.49 l
0.14 -0.38 l
0.15 1.35 l
0.14 -0.73 l
0.15 0.35 l
0.14 -0.10 l
0.15 -0.14 l
0.15 -0.24 l
0.14 -0.11 l
0.15 0.35 l
0.14 -0.24 l
0.15 0.38 l
0.14 0.10 l
0.15 0.25 l
0.14 0 l
0.15 -0.25 l
0.15 -0.35 l
0.14 0.11 l
0.15 -0.24 l
0.14 0.13 l
0.15 0.25 l
0.14 -0.62 l
0.15 0.24 l
0.14 -0.35 l
0.15 0.35 l
0.15 0.13 l
0.14 -0.13 l
0.15 0.62 l
0.14 -0.38 l
0.15 -0.24 l
0.14 0.13 l
0.15 -0.24 l
0.15 0.35 l
0.14 -0.11 l
0.15 0.25 l
0.14 -0.49 l
0.15 0.11 l
0.14 -0.35 l
0.15 0.24 l
0.14 0.49 l
0.15 0.24 l
0.15 -0.62 l
0.14 0.24 l
0.15 0 l
0.14 -0.24 l
0.15 0 l
0.14 0.48 l
0.15 0.38 l
0.14 -0.48 l
0.15 0.70 l
0.15 0.13 l
0.14 -0.48 l
0.15 -1.08 l
0.14 0.97 l
0.15 0.11 l
0.14 -0.73 l
0.15 0.48 l
0.14 -0.48 l
0.15 0.24 l
0.15 0.38 l
0.14 0 l
0.15 0 l
0.14 0.35 l
0.15 -0.73 l
0.14 0 l
0.15 -0.24 l
0.15 -0.11 l
0.14 -0.13 l
0.15 0.13 l
0.14 0.24 l
0.15 -0.13 l
0.14 -0.11 l
236.96 456.54 lineto
0.14 -6.07 l
0.15 3.05 l
0.15 1.92 l
0.14 1.69 l
0.15 1.21 l
0.14 0.97 l
0.15 1.46 l
0.14 0.24 l
0.15 0.73 l
0.14 0.83 l
0.15 1.10 l
0.15 0.73 l
0.14 0.59 l
0.15 0.73 l
0.14 0.59 l
0.15 1.59 l
0.14 0.11 l
0.15 0.48 l
0.14 0.86 l
0.15 0.35 l
0.15 0.49 l
0.14 0.38 l
0.15 1.32 l
0.14 1.80 l
0.15 -0.24 l
0.14 1.34 l
0.15 0 l
0.15 0.60 l
0.14 0.13 l
0.15 0.59 l
0.14 0.49 l
0.15 1.07 l
0.14 -0.48 l
0.15 0.13 l
0.14 0.84 l
0.15 0 l
0.15 0 l
0.14 1.21 l
0.15 1.35 l
0.14 0.83 l
0.15 0.59 l
0.14 0.49 l
0.15 0.72 l
0.14 -0.24 l
0.15 0.14 l
0.15 0.10 l
0.14 0.97 l
0.15 -0.10 l
0.14 0.48 l
0.15 0.97 l
0.14 0.11 l
0.15 -0.73 l
0.14 0.73 l
0.15 0.83 l
0.15 0.62 l
0.14 0.84 l
0.15 0.37 l
0.14 0.84 l
0.15 0.24 l
0.14 -0.35 l
0.15 0.73 l
0.15 0.59 l
0.14 0.48 l
0.15 -0.24 l
0.14 0.14 l
0.15 0 l
0.14 0.10 l
0.15 0 l
0.14 0.35 l
0.15 0.73 l
0.15 0.49 l
0.14 -0.25 l
0.15 0.73 l
0.14 0.13 l
0.15 0.25 l
0.14 1.45 l
0.15 0.48 l
0.14 0 l
0.15 0.11 l
0.15 -0.59 l
0.14 0.73 l
0.15 -0.38 l
0.14 0.24 l
0.15 0 l
0.14 0.38 l
0.15 0.35 l
0.14 0.48 l
0.15 0.11 l
0.15 0.24 l
0.14 0.49 l
0.15 0.73 l
0.14 -0.35 l
0.15 0.83 l
0.14 0.24 l
0.15 0.24 l
0.15 0.38 l
0.14 0 l
0.15 -0.13 l
0.14 -0.49 l
251.52 499.08 lineto
0.14 0.10 l
0.15 0.38 l
0.14 0.24 l
0.15 0.97 l
0.15 -0.13 l
0.14 -0.49 l
0.15 0.25 l
0.14 0.24 l
0.15 0.48 l
0.14 -0.24 l
0.15 0 l
0.14 0.73 l
0.15 0.72 l
0.15 -0.83 l
0.14 0.22 l
0.15 -0.22 l
0.14 0.22 l
0.15 -0.70 l
0.14 1.07 l
0.15 -0.37 l
0.14 0.61 l
0.15 -0.24 l
0.15 0.35 l
0.14 0.38 l
0.15 -0.24 l
0.14 0.10 l
0.15 0.62 l
0.14 0.60 l
0.15 -0.11 l
0.14 -0.24 l
0.15 0.72 l
0.15 -0.13 l
0.14 -0.35 l
0.15 -0.14 l
0.14 0.25 l
0.15 0 l
0.14 0.24 l
0.15 -0.24 l
0.15 0.13 l
0.14 0.24 l
0.15 0.49 l
0.14 -0.62 l
0.15 0.38 l
0.14 0 l
0.15 0.48 l
0.14 0.48 l
0.15 -0.48 l
0.15 0.11 l
0.14 0.48 l
0.15 -0.59 l
0.14 0 l
0.15 0.11 l
0.14 -0.24 l
0.15 0.24 l
0.14 0.13 l
0.15 -0.13 l
0.15 -0.24 l
0.14 0.13 l
0.15 0.11 l
0.14 0 l
0.15 0.24 l
0.14 0.48 l
0.15 0 l
0.14 0.38 l
0.15 0.35 l
0.15 -0.24 l
0.14 0.24 l
0.15 -0.24 l
0.14 0.48 l
0.15 -0.72 l
0.14 0.59 l
0.15 0.24 l
0.15 -0.59 l
0.14 0.35 l
0.15 -0.35 l
0.14 0.48 l
0.15 -0.72 l
0.14 0.13 l
0.15 0.70 l
0.14 0 l
0.15 -0.24 l
0.15 0.48 l
0.14 0.14 l
0.15 0 l
0.14 -0.24 l
0.15 -0.38 l
0.14 0.48 l
0.15 0.38 l
0.14 -0.48 l
0.15 -0.14 l
0.15 0.24 l
0.14 -0.35 l
0.15 -0.59 l
0.14 -0.13 l
0.15 0.37 l
0.14 0 l
0.15 1.32 l
0.14 -0.48 l
0.15 0.35 l
266.08 507.77 lineto
0.14 0 l
0.15 0 l
0.14 -0.37 l
0.15 0.37 l
0.14 -0.24 l
0.15 -0.13 l
0.15 0 l
0.14 -0.49 l
0.15 -0.35 l
0.14 0.59 l
0.15 0.62 l
0.14 -0.37 l
0.15 0.24 l
0.14 0 l
0.15 0.73 l
0.15 0.37 l
0.14 -0.62 l
0.15 -0.10 l
0.14 0.35 l
0.15 -0.25 l
0.14 -0.24 l
0.15 -0.35 l
0.14 -0.24 l
0.15 0.35 l
0.15 0 l
0.14 0 l
0.15 0.24 l
0.14 -0.24 l
0.15 -0.11 l
0.14 0.49 l
0.15 0.10 l
0.14 0.14 l
0.15 -0.24 l
0.15 0.48 l
0.14 0 l
0.15 0.24 l
0.14 -0.62 l
0.15 0.14 l
0.14 -0.97 l
0.15 0.35 l
0.15 0.38 l
0.14 -0.97 l
0.15 0.59 l
0.14 0.38 l
0.15 -0.49 l
0.14 0.24 l
0.15 0.49 l
0.14 -0.14 l
0.15 0.14 l
0.15 0.48 l
0.14 0 l
0.15 0.11 l
0.14 -0.35 l
0.15 0.35 l
0.14 -0.48 l
0.15 -0.49 l
0.14 -0.24 l
0.15 -0.24 l
0.15 0 l
0.14 0.62 l
0.15 -0.25 l
0.14 0.11 l
0.15 0.49 l
0.14 -0.35 l
0.15 -0.14 l
0.14 0.62 l
0.15 -0.24 l
0.15 0 l
0.14 0.72 l
0.15 -0.86 l
0.14 0.49 l
0.15 -0.24 l
0.14 -0.60 l
0.15 0 l
0.15 -0.62 l
0.14 0.25 l
0.15 0.48 l
0.14 -0.35 l
0.15 -0.13 l
0.14 0.62 l
0.15 -0.14 l
0.14 0.62 l
0.15 0.11 l
0.15 -0.11 l
0.14 -0.24 l
0.15 0.97 l
0.14 -0.62 l
0.15 -0.84 l
0.14 0.11 l
0.15 0.49 l
0.14 -0.49 l
0.15 -0.11 l
0.15 0.25 l
0.14 0 l
0.15 0.24 l
0.14 -0.49 l
0.15 0.25 l
0.14 0.48 l
0.15 -0.38 l
280.63 508.37 lineto
0.15 -0.25 l
0.15 0.86 l
0.14 -0.48 l
0.15 0 l
0.14 -0.13 l
0.15 -0.84 l
0.14 0.84 l
0.15 -0.60 l
0.15 0.49 l
0.14 -0.49 l
0.15 0 l
0.14 -0.13 l
0.15 -0.11 l
0.14 0 l
0.15 0.24 l
0.14 0.84 l
0.15 -0.24 l
0.15 0.37 l
0.14 -0.24 l
0.15 0.11 l
0.14 -0.59 l
0.15 -0.14 l
0.14 0.38 l
0.15 -0.73 l
0.14 0.35 l
0.15 -0.11 l
0.15 0.25 l
0.14 -0.14 l
0.15 -0.59 l
0.14 0.97 l
0.15 -0.14 l
0.14 0 l
0.15 0 l
0.14 0.25 l
0.15 0 l
0.15 0.86 l
0.14 -0.49 l
0.15 -0.37 l
0.14 -0.25 l
0.15 -0.10 l
0.14 0.24 l
0.15 -0.14 l
0.14 -0.35 l
0.15 0 l
0.15 0.11 l
0.14 0 l
0.15 0.24 l
0.14 -0.24 l
0.15 0 l
0.14 0.38 l
0.15 0.24 l
0.15 0.24 l
0.14 -0.62 l
0.15 0.14 l
0.14 -0.14 l
0.15 0.14 l
0.14 -0.49 l
0.15 0 l
0.14 -0.48 l
0.15 0.48 l
0.15 -0.62 l
0.14 0.62 l
0.15 -0.13 l
0.14 -0.35 l
0.15 -0.14 l
0.14 1.11 l
0.15 -0.24 l
0.14 0.48 l
0.15 0 l
0.15 0.11 l
0.14 -0.84 l
0.15 0.49 l
0.14 0.11 l
0.15 0.13 l
0.14 -0.24 l
0.15 -0.24 l
0.14 0 l
0.15 0.35 l
0.15 0.13 l
0.14 -0.97 l
0.15 0.49 l
0.14 0 l
0.15 -0.38 l
0.14 0.73 l
0.15 0.37 l
0.15 -0.86 l
0.14 0.97 l
0.15 -0.83 l
0.14 0 l
0.15 -0.25 l
0.14 0 l
0.15 0.25 l
0.14 -0.38 l
0.15 -0.49 l
0.15 0.62 l
0.14 -0.72 l
0.15 0.35 l
0.14 0.24 l
0.15 -0.35 l
295.19 507.64 lineto
0.15 0.13 l
0.14 0.35 l
0.15 0.25 l
0.15 -0.60 l
0.14 0.49 l
0.15 -0.24 l
0.14 -0.14 l
0.15 -0.11 l
0.14 0 l
0.15 0.11 l
0.14 -0.11 l
0.15 0.11 l
0.15 0 l
0.14 -0.35 l
0.15 0.35 l
0.14 0.38 l
0.15 0 l
0.14 0.11 l
0.15 0.13 l
0.15 -0.38 l
0.14 0.38 l
0.15 -0.38 l
0.14 0.49 l
0.15 -0.97 l
0.14 0.62 l
0.15 -0.86 l
0.14 0.62 l
0.15 -0.14 l
0.15 -0.48 l
0.14 0.37 l
0.15 -0.13 l
0.14 -0.24 l
0.15 0.48 l
0.14 0.24 l
0.15 -0.24 l
0.14 -0.24 l
0.15 0.48 l
0.15 0 l
0.14 -0.24 l
0.15 -0.11 l
0.14 -0.48 l
0.15 0.35 l
0.14 -0.49 l
0.15 0.62 l
0.14 -0.48 l
0.15 0 l
0.15 -0.24 l
0.14 0.72 l
0.15 -0.24 l
0.14 -0.24 l
0.15 0.97 l
0.14 -0.24 l
0.15 0.59 l
0.15 -0.49 l
0.14 0.49 l
0.15 -0.97 l
0.14 0.13 l
0.15 -0.13 l
0.14 0.38 l
0.15 -0.49 l
0.14 0.24 l
0.15 -0.48 l
0.15 0.24 l
0.14 0 l
0.15 -0.24 l
0.14 -0.24 l
0.15 0.48 l
0.14 0.35 l
0.15 0.14 l
0.14 0.10 l
0.15 -0.10 l
0.15 -0.14 l
0.14 -0.48 l
0.15 0.37 l
0.14 -0.24 l
0.15 0.24 l
0.14 -0.13 l
0.15 -0.35 l
0.14 -0.38 l
0.15 0.38 l
0.15 0.59 l
0.14 -0.35 l
0.15 -0.13 l
0.14 -0.25 l
0.15 1.11 l
0.14 -0.24 l
0.15 0.35 l
0.15 -0.49 l
0.14 0.38 l
0.15 0 l
0.14 -0.62 l
0.15 -0.11 l
0.14 0 l
0.15 -0.24 l
0.14 0.35 l
0.15 0 l
0.15 -0.35 l
0.14 -0.24 l
0.15 0.83 l
309.75 508.37 lineto
0.15 -0.97 l
0.14 0.24 l
0.15 0.73 l
0.14 -0.49 l
0.15 0.62 l
0.15 -0.73 l
0.14 -0.24 l
0.15 -0.24 l
0.14 0.35 l
0.15 -0.35 l
0.14 -0.38 l
0.15 0 l
0.14 0.24 l
0.15 0.14 l
0.15 -0.38 l
0.14 0.14 l
0.15 0.59 l
0.14 -0.59 l
0.15 0.48 l
0.14 0.11 l
0.15 0.62 l
0.15 -0.49 l
0.14 0.11 l
0.15 0.14 l
0.14 -0.14 l
0.15 -0.73 l
0.14 0.62 l
0.15 0 l
0.14 -0.37 l
0.15 0 l
0.15 -0.25 l
0.14 0.62 l
0.15 -0.24 l
0.14 0 l
0.15 -0.24 l
0.14 0.11 l
0.15 0 l
0.14 0.48 l
0.15 0.14 l
0.15 0.10 l
0.14 -0.35 l
0.15 -0.24 l
0.14 0.49 l
0.15 -0.25 l
0.14 -0.37 l
0.15 0 l
0.14 0.48 l
0.15 -0.24 l
0.15 -0.24 l
0.14 0 l
0.15 0 l
0.14 -0.25 l
0.15 0.38 l
0.14 -0.38 l
0.15 0.62 l
0.15 -0.37 l
0.14 0.62 l
0.15 -0.25 l
0.14 0.11 l
0.15 0.14 l
0.14 -0.62 l
0.15 0 l
0.14 0.13 l
0.15 -0.48 l
0.15 -0.14 l
0.14 0 l
0.15 0.14 l
0.14 -0.25 l
0.15 0.73 l
0.14 0 l
0.15 0 l
0.14 0.35 l
0.15 -0.73 l
0.15 0.87 l
0.14 0.24 l
0.15 0 l
0.14 -0.49 l
0.15 0.11 l
0.14 0 l
0.15 0 l
0.14 -0.35 l
0.15 0.11 l
0.15 -0.35 l
0.14 0 l
0.15 0 l
0.14 -0.24 l
0.15 0.10 l
0.14 -0.10 l
0.15 0 l
0.14 0.24 l
0.15 0.24 l
0.15 -0.24 l
0.14 0.35 l
0.15 0.24 l
0.14 -0.11 l
0.15 -0.13 l
0.14 -0.73 l
0.15 0.24 l
0.15 0.49 l
324.31 507.15 lineto
0.15 -0.10 l
0.14 0.10 l
0.15 0.38 l
0.14 -0.48 l
0.15 0.83 l
0.14 -0.73 l
0.15 0.25 l
0.15 -0.11 l
0.14 -0.24 l
0.15 0.83 l
0.14 0.14 l
0.15 -0.49 l
0.14 0.35 l
0.15 -0.24 l
0.14 0.13 l
0.15 -0.13 l
0.15 0.13 l
0.14 0 l
0.15 0 l
0.14 -0.24 l
0.15 -0.13 l
0.14 0.13 l
0.15 -0.62 l
0.14 0.38 l
0.15 0.24 l
0.15 -0.13 l
0.14 -0.11 l
0.15 0.73 l
0.14 -0.62 l
0.15 -0.25 l
0.14 0 l
0.15 0.25 l
0.15 0.24 l
0.14 -0.59 l
0.15 0.10 l
0.14 0.25 l
0.15 -0.35 l
0.14 0.24 l
0.15 -0.38 l
0.14 0.24 l
0.15 -0.10 l
0.15 -0.14 l
0.14 -0.24 l
0.15 0.13 l
0.14 0.60 l
0.15 0 l
0.14 0.48 l
0.15 -0.24 l
0.14 0.38 l
0.15 -0.25 l
0.15 0.25 l
0.14 -0.49 l
0.15 0.35 l
0.14 -0.24 l
0.15 -0.24 l
0.14 -0.25 l
0.15 0.73 l
0.14 -0.73 l
0.15 0 l
0.15 -0.35 l
0.14 0.49 l
0.15 0 l
0.14 0.73 l
0.15 -0.25 l
0.14 0 l
0.15 0.11 l
0.15 -0.35 l
0.14 -0.13 l
0.15 0.13 l
0.14 0.24 l
0.15 -0.48 l
0.14 0.24 l
0.15 -0.38 l
0.14 -0.24 l
0.15 0 l
0.15 -0.46 l
0.14 0.60 l
0.15 -0.38 l
0.14 0.24 l
0.15 0.62 l
0.14 0 l
0.15 0.24 l
0.14 0.11 l
0.15 0.14 l
0.15 -0.25 l
0.14 -0.13 l
0.15 -0.24 l
0.14 0 l
0.15 0 l
0.14 -0.25 l
0.15 0.49 l
0.14 0.13 l
0.15 -0.97 l
0.15 0.25 l
0.14 0.59 l
0.15 -0.59 l
0.14 0.24 l
0.15 0.48 l
0.14 0.25 l
338.87 508.02 lineto
0.15 0.10 l
0.14 -0.10 l
0.15 -0.14 l
0.14 -0.73 l
0.15 0.62 l
0.14 -0.62 l
0.15 0.49 l
0.14 -0.49 l
0.15 0.14 l
0.15 -0.38 l
0.14 -0.35 l
0.15 0 l
0.14 0.49 l
0.15 0.10 l
0.14 0.38 l
0.15 0 l
0.14 0.35 l
0.15 -0.59 l
0.15 0 l
0.14 0.24 l
0.15 0.11 l
0.14 -0.59 l
0.15 0.10 l
0.14 0.25 l
0.15 -0.49 l
0.14 0.73 l
0.15 -0.35 l
0.15 -0.38 l
0.14 -0.11 l
0.15 0.49 l
0.14 -0.49 l
0.15 0.60 l
0.14 0.37 l
0.15 0.25 l
0.15 -0.49 l
0.14 0.24 l
0.15 0.11 l
0.14 -0.73 l
0.15 0.14 l
0.14 0.11 l
0.15 -0.60 l
0.14 0.49 l
0.15 -0.24 l
0.15 0.59 l
0.14 -0.49 l
0.15 -0.10 l
0.14 0.10 l
0.15 -0.24 l
0.14 0.62 l
0.15 0.11 l
0.14 0 l
0.15 0.24 l
0.15 -0.73 l
0.14 0.38 l
0.15 0.35 l
0.14 -0.35 l
0.15 0.11 l
0.14 -0.49 l
0.15 0 l
0.14 -0.70 l
0.15 0.22 l
0.15 0.13 l
0.14 0.49 l
0.15 -0.62 l
0.14 0.48 l
0.15 -0.24 l
0.14 0.24 l
0.15 0.62 l
0.15 -0.37 l
0.14 0 l
0.15 0.62 l
0.14 0 l
0.15 -0.62 l
0.14 -0.35 l
0.15 0.59 l
0.14 -0.73 l
0.15 0.24 l
0.15 0.14 l
0.14 -0.24 l
0.15 -0.14 l
0.14 0.24 l
0.15 -0.10 l
0.14 0.10 l
0.15 0.25 l
0.14 -0.95 l
0.15 1.57 l
0.15 -0.38 l
0.14 0 l
0.15 -0.49 l
0.14 0.14 l
0.15 -0.38 l
0.14 0.38 l
0.15 -0.24 l
0.14 0.10 l
0.15 0.14 l
0.15 -0.24 l
0.14 -0.38 l
0.15 0.38 l
0.14 0 l
353.43 506.91 lineto
0.14 0 l
0.15 -0.24 l
0.14 0.97 l
0.15 -0.59 l
0.15 0.59 l
0.14 -0.59 l
0.15 -0.25 l
0.14 0.49 l
0.15 0 l
0.14 -0.14 l
0.15 0.87 l
0.15 -0.38 l
0.14 -0.73 l
0.15 0.38 l
0.14 0.35 l
0.15 -0.73 l
0.14 0.14 l
0.15 0.10 l
0.14 0.25 l
0.15 0.24 l
0.15 0.38 l
0.14 0 l
0.15 -0.73 l
0.14 0 l
0.15 -0.14 l
0.14 -0.24 l
0.15 -0.11 l
0.14 0.49 l
0.15 -0.14 l
0.15 0.14 l
0.14 -0.24 l
0.15 0 l
0.14 -0.14 l
0.15 -0.11 l
0.14 0.35 l
0.15 -0.10 l
0.14 0.35 l
0.15 0 l
0.15 0.62 l
0.14 -0.38 l
0.15 -0.35 l
0.14 -0.38 l
0.15 0.49 l
0.14 -0.60 l
0.15 -0.13 l
0.15 0.48 l
0.14 -0.59 l
0.15 0.35 l
0.14 0 l
0.15 0 l
0.14 -0.35 l
0.15 0.24 l
0.14 0.25 l
0.15 0.10 l
0.15 0.62 l
0.14 0.25 l
0.15 -0.25 l
0.14 -0.24 l
0.15 -0.24 l
0.14 -0.14 l
0.15 -0.10 l
0.14 0.35 l
0.15 -0.49 l
0.15 0.73 l
0.14 -0.49 l
0.15 -0.35 l
0.14 0.35 l
0.15 -0.35 l
0.14 -0.24 l
0.15 0.35 l
0.14 0.14 l
0.15 -0.14 l
0.15 0.62 l
0.14 0.11 l
0.15 -0.35 l
0.14 0.35 l
0.15 -0.35 l
0.14 0.24 l
0.15 -0.73 l
0.15 0.25 l
0.14 -0.14 l
0.15 0.38 l
0.14 -0.14 l
0.15 -0.35 l
0.14 0.11 l
0.15 -0.11 l
0.14 0.35 l
0.15 0.49 l
0.15 0.24 l
0.14 0 l
0.15 -0.35 l
0.14 0.24 l
0.15 0 l
0.14 -0.97 l
0.15 0 l
0.14 0.60 l
0.15 -0.49 l
0.15 0.49 l
0.14 0 l
currentpoint o m
367.99 507.29 lineto
0.14 -0.24 l
0.15 0.48 l
0.14 -0.24 l
0.15 -0.38 l
0.14 0.14 l
0.15 0.24 l
0.15 0.59 l
0.14 -0.35 l
0.15 0.11 l
0.14 -0.11 l
0.15 -0.24 l
0.14 0 l
0.15 -0.49 l
0.15 0.11 l
0.14 0.24 l
0.15 0 l
0.14 -0.59 l
0.15 0.35 l
0.14 -0.11 l
0.15 0.25 l
0.14 0.24 l
0.15 0.24 l
0.15 -0.24 l
0.14 0.24 l
0.15 0 l
0.14 -0.48 l
0.15 1.07 l
0.14 -0.97 l
0.15 -0.35 l
0.14 0.25 l
0.15 0.10 l
0.15 -0.10 l
0.14 0.24 l
0.15 0.11 l
0.14 -0.60 l
0.15 0.60 l
0.14 -0.60 l
0.15 0.35 l
0.14 0.25 l
0.15 0.48 l
0.15 -0.48 l
0.14 0.72 l
0.15 -0.48 l
0.14 -0.11 l
0.15 -0.24 l
0.14 0 l
0.15 0.11 l
0.15 -0.73 l
0.14 0 l
0.15 0.48 l
0.14 -0.10 l
0.15 -0.25 l
0.14 0 l
0.15 0.49 l
0.14 -0.49 l
0.15 0.35 l
0.15 -0.24 l
0.14 0.97 l
0.15 -0.35 l
0.14 0.24 l
0.15 -0.62 l
0.14 0.25 l
0.15 -0.49 l
0.14 0.14 l
0.15 0.24 l
0.15 0.35 l
0.14 -0.35 l
0.15 -0.24 l
0.14 -0.25 l
0.15 0.49 l
0.14 -0.14 l
0.15 -0.10 l
0.14 0.59 l
0.15 -0.11 l
0.15 0.49 l
0.14 -0.14 l
0.15 -0.83 l
0.14 0.48 l
0.15 0.35 l
0.14 -0.24 l
0.15 -0.35 l
0.15 0.24 l
0.14 -0.62 l
0.15 0.38 l
0.14 -0.62 l
0.15 0.24 l
0.14 0.24 l
0.15 -0.24 l
0.14 0.14 l
0.15 0.10 l
0.15 0 l
0.14 0.14 l
0.15 0.48 l
0.14 -0.48 l
0.15 0.35 l
0.14 0.48 l
0.15 -1.21 l
0.14 -0.11 l
0.15 0.11 l
o
/bg { 1 1 1 srgb } def
222.40 510.92 0.43 c p3
222.55 510.92 0.43 c p3
222.69 511.27 0.43 c p3
222.84 510.79 0.43 c p3
222.98 511.17 0.43 c p3
223.13 511.17 0.43 c p3
223.27 511.03 0.43 c p3
223.42 511.27 0.43 c p3
223.56 511.17 0.43 c p3
223.71 511.41 0.43 c p3
223.86 511.27 0.43 c p3
224.00 510.68 0.43 c p3
224.15 511.41 0.43 c p3
224.29 511.27 0.43 c p3
224.44 511.03 0.43 c p3
224.58 511.17 0.43 c p3
224.73 510.79 0.43 c p3
224.87 511.17 0.43 c p3
225.02 510.20 0.43 c p3
225.17 511.03 0.43 c p3
225.31 511.27 0.43 c p3
225.46 510.30 0.43 c p3
225.60 511.03 0.43 c p3
225.75 510.92 0.43 c p3
225.89 510.79 0.43 c p3
226.04 511.17 0.43 c p3
226.19 510.92 0.43 c p3
226.33 511.17 0.43 c p3
226.48 510.68 0.43 c p3
226.62 510.30 0.43 c p3
226.77 511.65 0.43 c p3
226.91 510.92 0.43 c p3
227.06 511.27 0.43 c p3
227.20 511.17 0.43 c p3
227.35 511.03 0.43 c p3
227.50 510.79 0.43 c p3
227.64 510.68 0.43 c p3
227.79 511.03 0.43 c p3
227.93 510.79 0.43 c p3
228.08 511.17 0.43 c p3
228.22 511.27 0.43 c p3
228.37 511.52 0.43 c p3
228.51 511.52 0.43 c p3
228.66 511.27 0.43 c p3
228.81 510.92 0.43 c p3
228.95 511.03 0.43 c p3
229.10 510.79 0.43 c p3
229.24 510.92 0.43 c p3
229.39 511.17 0.43 c p3
229.53 510.55 0.43 c p3
229.68 510.79 0.43 c p3
229.82 510.44 0.43 c p3
229.97 510.79 0.43 c p3
230.12 510.92 0.43 c p3
230.26 510.79 0.43 c p3
230.41 511.41 0.43 c p3
230.55 511.03 0.43 c p3
230.70 510.79 0.43 c p3
230.84 510.92 0.43 c p3
230.99 510.68 0.43 c p3
231.14 511.03 0.43 c p3
231.28 510.92 0.43 c p3
231.43 511.17 0.43 c p3
231.57 510.68 0.43 c p3
231.72 510.79 0.43 c p3
231.86 510.44 0.43 c p3
232.01 510.68 0.43 c p3
232.15 511.17 0.43 c p3
232.30 511.41 0.43 c p3
232.45 510.79 0.43 c p3
232.59 511.03 0.43 c p3
232.74 511.03 0.43 c p3
232.88 510.79 0.43 c p3
233.03 510.79 0.43 c p3
233.17 511.27 0.43 c p3
233.32 511.65 0.43 c p3
233.46 511.17 0.43 c p3
233.61 511.87 0.43 c p3
233.76 512.00 0.43 c p3
233.90 511.52 0.43 c p3
234.05 510.44 0.43 c p3
234.19 511.41 0.43 c p3
234.34 511.52 0.43 c p3
234.48 510.79 0.43 c p3
234.63 511.27 0.43 c p3
234.77 510.79 0.43 c p3
234.92 511.03 0.43 c p3
235.07 511.41 0.43 c p3
235.21 511.41 0.43 c p3
235.36 511.41 0.43 c p3
235.50 511.76 0.43 c p3
235.65 511.03 0.43 c p3
235.79 511.03 0.43 c p3
235.94 510.79 0.43 c p3
236.09 510.68 0.43 c p3
236.23 510.55 0.43 c p3
236.38 510.68 0.43 c p3
236.52 510.92 0.43 c p3
236.67 510.79 0.43 c p3
236.81 510.68 0.43 c p3
236.96 456.54 0.43 c p3
237.10 450.47 0.43 c p3
237.25 453.52 0.43 c p3
237.40 455.44 0.43 c p3
237.54 457.13 0.43 c p3
237.69 458.34 0.43 c p3
237.83 459.31 0.43 c p3
237.98 460.77 0.43 c p3
238.12 461.01 0.43 c p3
238.27 461.74 0.43 c p3
238.41 462.57 0.43 c p3
238.56 463.67 0.43 c p3
238.71 464.40 0.43 c p3
238.85 464.99 0.43 c p3
239.00 465.72 0.43 c p3
239.14 466.31 0.43 c p3
239.29 467.90 0.43 c p3
239.43 468.01 0.43 c p3
239.58 468.49 0.43 c p3
239.72 469.35 0.43 c p3
239.87 469.70 0.43 c p3
240.02 470.19 0.43 c p3
240.16 470.57 0.43 c p3
240.31 471.89 0.43 c p3
240.45 473.69 0.43 c p3
240.60 473.45 0.43 c p3
240.74 474.79 0.43 c p3
240.89 474.79 0.43 c p3
241.04 475.39 0.43 c p3
241.18 475.52 0.43 c p3
241.33 476.11 0.43 c p3
241.47 476.60 0.43 c p3
241.62 477.67 0.43 c p3
241.76 477.19 0.43 c p3
241.91 477.32 0.43 c p3
242.05 478.16 0.43 c p3
242.20 478.16 0.43 c p3
242.35 478.16 0.43 c p3
242.49 479.37 0.43 c p3
242.64 480.72 0.43 c p3
242.78 481.55 0.43 c p3
242.93 482.14 0.43 c p3
243.07 482.63 0.43 c p3
243.22 483.35 0.43 c p3
243.36 483.11 0.43 c p3
243.51 483.25 0.43 c p3
243.66 483.35 0.43 c p3
243.80 484.32 0.43 c p3
243.95 484.22 0.43 c p3
244.09 484.70 0.43 c p3
244.24 485.67 0.43 c p3
244.38 485.78 0.43 c p3
244.53 485.05 0.43 c p3
244.67 485.78 0.43 c p3
244.82 486.61 0.43 c p3
244.97 487.23 0.43 c p3
245.11 488.07 0.43 c p3
245.26 488.44 0.43 c p3
245.40 489.28 0.43 c p3
245.55 489.52 0.43 c p3
245.69 489.17 0.43 c p3
245.84 489.90 0.43 c p3
245.99 490.49 0.43 c p3
246.13 490.97 0.43 c p3
246.28 490.73 0.43 c p3
246.42 490.87 0.43 c p3
246.57 490.87 0.43 c p3
246.71 490.97 0.43 c p3
246.86 490.97 0.43 c p3
247.00 491.32 0.43 c p3
247.15 492.05 0.43 c p3
247.30 492.54 0.43 c p3
247.44 492.29 0.43 c p3
247.59 493.02 0.43 c p3
247.73 493.15 0.43 c p3
247.88 493.40 0.43 c p3
248.02 494.85 0.43 c p3
248.17 495.33 0.43 c p3
248.31 495.33 0.43 c p3
248.46 495.44 0.43 c p3
248.61 494.85 0.43 c p3
248.75 495.58 0.43 c p3
248.90 495.20 0.43 c p3
249.04 495.44 0.43 c p3
249.19 495.44 0.43 c p3
249.33 495.82 0.43 c p3
249.48 496.17 0.43 c p3
249.62 496.65 0.43 c p3
249.77 496.76 0.43 c p3
249.92 497.00 0.43 c p3
250.06 497.49 0.43 c p3
250.21 498.22 0.43 c p3
250.35 497.87 0.43 c p3
250.50 498.70 0.43 c p3
250.64 498.94 0.43 c p3
250.79 499.18 0.43 c p3
250.94 499.56 0.43 c p3
251.08 499.56 0.43 c p3
251.23 499.43 0.43 c p3
251.37 498.94 0.43 c p3
251.52 499.08 0.43 c p3
251.66 499.18 0.43 c p3
251.81 499.56 0.43 c p3
251.95 499.80 0.43 c p3
252.10 500.77 0.43 c p3
252.25 500.64 0.43 c p3
252.39 500.15 0.43 c p3
252.54 500.40 0.43 c p3
252.68 500.64 0.43 c p3
252.83 501.12 0.43 c p3
252.97 500.88 0.43 c p3
253.12 500.88 0.43 c p3
253.26 501.61 0.43 c p3
253.41 502.33 0.43 c p3
253.56 501.50 0.43 c p3
253.70 501.72 0.43 c p3
253.85 501.50 0.43 c p3
253.99 501.72 0.43 c p3
254.14 501.02 0.43 c p3
254.28 502.09 0.43 c p3
254.43 501.72 0.43 c p3
254.57 502.33 0.43 c p3
254.72 502.09 0.43 c p3
254.87 502.44 0.43 c p3
255.01 502.82 0.43 c p3
255.16 502.58 0.43 c p3
255.30 502.68 0.43 c p3
255.45 503.30 0.43 c p3
255.59 503.90 0.43 c p3
255.74 503.79 0.43 c p3
255.88 503.55 0.43 c p3
256.03 504.27 0.43 c p3
256.18 504.14 0.43 c p3
256.32 503.79 0.43 c p3
256.47 503.65 0.43 c p3
256.61 503.90 0.43 c p3
256.76 503.90 0.43 c p3
256.90 504.14 0.43 c p3
257.05 503.90 0.43 c p3
257.20 504.03 0.43 c p3
257.34 504.27 0.43 c p3
257.49 504.76 0.43 c p3
257.63 504.14 0.43 c p3
257.78 504.52 0.43 c p3
257.92 504.52 0.43 c p3
258.07 505.00 0.43 c p3
258.21 505.48 0.43 c p3
258.36 505.00 0.43 c p3
258.51 505.11 0.43 c p3
258.65 505.59 0.43 c p3
258.80 505.00 0.43 c p3
258.94 505.00 0.43 c p3
259.09 505.11 0.43 c p3
259.23 504.87 0.43 c p3
259.38 505.11 0.43 c p3
259.52 505.24 0.43 c p3
259.67 505.11 0.43 c p3
259.82 504.87 0.43 c p3
259.96 505.00 0.43 c p3
260.11 505.11 0.43 c p3
260.25 505.11 0.43 c p3
260.40 505.35 0.43 c p3
260.54 505.83 0.43 c p3
260.69 505.83 0.43 c p3
260.83 506.21 0.43 c p3
260.98 506.56 0.43 c p3
261.13 506.32 0.43 c p3
261.27 506.56 0.43 c p3
261.42 506.32 0.43 c p3
261.56 506.80 0.43 c p3
261.71 506.08 0.43 c p3
261.85 506.67 0.43 c p3
262.00 506.91 0.43 c p3
262.15 506.32 0.43 c p3
262.29 506.67 0.43 c p3
262.44 506.32 0.43 c p3
262.58 506.80 0.43 c p3
262.73 506.08 0.43 c p3
262.87 506.21 0.43 c p3
263.02 506.91 0.43 c p3
263.16 506.91 0.43 c p3
263.31 506.67 0.43 c p3
263.46 507.15 0.43 c p3
263.60 507.29 0.43 c p3
263.75 507.29 0.43 c p3
263.89 507.05 0.43 c p3
264.04 506.67 0.43 c p3
264.18 507.15 0.43 c p3
264.33 507.53 0.43 c p3
264.47 507.05 0.43 c p3
264.62 506.91 0.43 c p3
264.77 507.15 0.43 c p3
264.91 506.80 0.43 c p3
265.06 506.21 0.43 c p3
265.20 506.08 0.43 c p3
265.35 506.45 0.43 c p3
265.49 506.45 0.43 c p3
265.64 507.77 0.43 c p3
265.78 507.29 0.43 c p3
265.93 507.64 0.43 c p3
266.08 507.77 0.43 c p3
266.22 507.77 0.43 c p3
266.37 507.77 0.43 c p3
266.51 507.40 0.43 c p3
266.66 507.77 0.43 c p3
266.80 507.53 0.43 c p3
266.95 507.40 0.43 c p3
267.10 507.40 0.43 c p3
267.24 506.91 0.43 c p3
267.39 506.56 0.43 c p3
267.53 507.15 0.43 c p3
267.68 507.77 0.43 c p3
267.82 507.40 0.43 c p3
267.97 507.64 0.43 c p3
268.11 507.64 0.43 c p3
268.26 508.37 0.43 c p3
268.41 508.74 0.43 c p3
268.55 508.12 0.43 c p3
268.70 508.02 0.43 c p3
268.84 508.37 0.43 c p3
268.99 508.12 0.43 c p3
269.13 507.88 0.43 c p3
269.28 507.53 0.43 c p3
269.42 507.29 0.43 c p3
269.57 507.64 0.43 c p3
269.72 507.64 0.43 c p3
269.86 507.64 0.43 c p3
270.01 507.88 0.43 c p3
270.15 507.64 0.43 c p3
270.30 507.53 0.43 c p3
270.44 508.02 0.43 c p3
270.59 508.12 0.43 c p3
270.73 508.26 0.43 c p3
270.88 508.02 0.43 c p3
271.03 508.50 0.43 c p3
271.17 508.50 0.43 c p3
271.32 508.74 0.43 c p3
271.46 508.12 0.43 c p3
271.61 508.26 0.43 c p3
271.75 507.29 0.43 c p3
271.90 507.64 0.43 c p3
272.05 508.02 0.43 c p3
272.19 507.05 0.43 c p3
272.34 507.64 0.43 c p3
272.48 508.02 0.43 c p3
272.63 507.53 0.43 c p3
272.77 507.77 0.43 c p3
272.92 508.26 0.43 c p3
273.06 508.12 0.43 c p3
273.21 508.26 0.43 c p3
273.36 508.74 0.43 c p3
273.50 508.74 0.43 c p3
273.65 508.85 0.43 c p3
273.79 508.50 0.43 c p3
273.94 508.85 0.43 c p3
274.08 508.37 0.43 c p3
274.23 507.88 0.43 c p3
274.37 507.64 0.43 c p3
274.52 507.40 0.43 c p3
274.67 507.40 0.43 c p3
274.81 508.02 0.43 c p3
274.96 507.77 0.43 c p3
275.10 507.88 0.43 c p3
275.25 508.37 0.43 c p3
275.39 508.02 0.43 c p3
275.54 507.88 0.43 c p3
275.68 508.50 0.43 c p3
275.83 508.26 0.43 c p3
275.98 508.26 0.43 c p3
276.12 508.98 0.43 c p3
276.27 508.12 0.43 c p3
276.41 508.61 0.43 c p3
276.56 508.37 0.43 c p3
276.70 507.77 0.43 c p3
276.85 507.77 0.43 c p3
277.00 507.15 0.43 c p3
277.14 507.40 0.43 c p3
277.29 507.88 0.43 c p3
277.43 507.53 0.43 c p3
277.58 507.40 0.43 c p3
277.72 508.02 0.43 c p3
277.87 507.88 0.43 c p3
278.01 508.50 0.43 c p3
278.16 508.61 0.43 c p3
278.31 508.50 0.43 c p3
278.45 508.26 0.43 c p3
278.60 509.23 0.43 c p3
278.74 508.61 0.43 c p3
278.89 507.77 0.43 c p3
279.03 507.88 0.43 c p3
279.18 508.37 0.43 c p3
279.32 507.88 0.43 c p3
279.47 507.77 0.43 c p3
279.62 508.02 0.43 c p3
279.76 508.02 0.43 c p3
279.91 508.26 0.43 c p3
280.05 507.77 0.43 c p3
280.20 508.02 0.43 c p3
280.34 508.50 0.43 c p3
280.49 508.12 0.43 c p3
280.63 508.37 0.43 c p3
280.78 508.12 0.43 c p3
280.93 508.98 0.43 c p3
281.07 508.50 0.43 c p3
281.22 508.50 0.43 c p3
281.36 508.37 0.43 c p3
281.51 507.53 0.43 c p3
281.65 508.37 0.43 c p3
281.80 507.77 0.43 c p3
281.95 508.26 0.43 c p3
282.09 507.77 0.43 c p3
282.24 507.77 0.43 c p3
282.38 507.64 0.43 c p3
282.53 507.53 0.43 c p3
282.67 507.53 0.43 c p3
282.82 507.77 0.43 c p3
282.96 508.61 0.43 c p3
283.11 508.37 0.43 c p3
283.26 508.74 0.43 c p3
283.40 508.50 0.43 c p3
283.55 508.61 0.43 c p3
283.69 508.02 0.43 c p3
283.84 507.88 0.43 c p3
283.98 508.26 0.43 c p3
284.13 507.53 0.43 c p3
284.27 507.88 0.43 c p3
284.42 507.77 0.43 c p3
284.57 508.02 0.43 c p3
284.71 507.88 0.43 c p3
284.86 507.29 0.43 c p3
285.00 508.26 0.43 c p3
285.15 508.12 0.43 c p3
285.29 508.12 0.43 c p3
285.44 508.12 0.43 c p3
285.58 508.37 0.43 c p3
285.73 508.37 0.43 c p3
285.88 509.23 0.43 c p3
286.02 508.74 0.43 c p3
286.17 508.37 0.43 c p3
286.31 508.12 0.43 c p3
286.46 508.02 0.43 c p3
286.60 508.26 0.43 c p3
286.75 508.12 0.43 c p3
286.89 507.77 0.43 c p3
287.04 507.77 0.43 c p3
287.19 507.88 0.43 c p3
287.33 507.88 0.43 c p3
287.48 508.12 0.43 c p3
287.62 507.88 0.43 c p3
287.77 507.88 0.43 c p3
287.91 508.26 0.43 c p3
288.06 508.50 0.43 c p3
288.21 508.74 0.43 c p3
288.35 508.12 0.43 c p3
288.50 508.26 0.43 c p3
288.64 508.12 0.43 c p3
288.79 508.26 0.43 c p3
288.93 507.77 0.43 c p3
289.08 507.77 0.43 c p3
289.22 507.29 0.43 c p3
289.37 507.77 0.43 c p3
289.52 507.15 0.43 c p3
289.66 507.77 0.43 c p3
289.81 507.64 0.43 c p3
289.95 507.29 0.43 c p3
290.10 507.15 0.43 c p3
290.24 508.26 0.43 c p3
290.39 508.02 0.43 c p3
290.53 508.50 0.43 c p3
290.68 508.50 0.43 c p3
290.83 508.61 0.43 c p3
290.97 507.77 0.43 c p3
291.12 508.26 0.43 c p3
291.26 508.37 0.43 c p3
291.41 508.50 0.43 c p3
291.55 508.26 0.43 c p3
291.70 508.02 0.43 c p3
291.84 508.02 0.43 c p3
291.99 508.37 0.43 c p3
292.14 508.50 0.43 c p3
292.28 507.53 0.43 c p3
292.43 508.02 0.43 c p3
292.57 508.02 0.43 c p3
292.72 507.64 0.43 c p3
292.86 508.37 0.43 c p3
293.01 508.74 0.43 c p3
293.16 507.88 0.43 c p3
293.30 508.85 0.43 c p3
293.45 508.02 0.43 c p3
293.59 508.02 0.43 c p3
293.74 507.77 0.43 c p3
293.88 507.77 0.43 c p3
294.03 508.02 0.43 c p3
294.17 507.64 0.43 c p3
294.32 507.15 0.43 c p3
294.47 507.77 0.43 c p3
294.61 507.05 0.43 c p3
294.76 507.40 0.43 c p3
294.90 507.64 0.43 c p3
295.05 507.29 0.43 c p3
295.19 507.64 0.43 c p3
295.34 507.77 0.43 c p3
295.48 508.12 0.43 c p3
295.63 508.37 0.43 c p3
295.78 507.77 0.43 c p3
295.92 508.26 0.43 c p3
296.07 508.02 0.43 c p3
296.21 507.88 0.43 c p3
296.36 507.77 0.43 c p3
296.50 507.77 0.43 c p3
296.65 507.88 0.43 c p3
296.79 507.77 0.43 c p3
296.94 507.88 0.43 c p3
297.09 507.88 0.43 c p3
297.23 507.53 0.43 c p3
297.38 507.88 0.43 c p3
297.52 508.26 0.43 c p3
297.67 508.26 0.43 c p3
297.81 508.37 0.43 c p3
297.96 508.50 0.43 c p3
298.11 508.12 0.43 c p3
298.25 508.50 0.43 c p3
298.40 508.12 0.43 c p3
298.54 508.61 0.43 c p3
298.69 507.64 0.43 c p3
298.83 508.26 0.43 c p3
298.98 507.40 0.43 c p3
299.12 508.02 0.43 c p3
299.27 507.88 0.43 c p3
299.42 507.40 0.43 c p3
299.56 507.77 0.43 c p3
299.71 507.64 0.43 c p3
299.85 507.40 0.43 c p3
300.00 507.88 0.43 c p3
300.14 508.12 0.43 c p3
300.29 507.88 0.43 c p3
300.43 507.64 0.43 c p3
300.58 508.12 0.43 c p3
300.73 508.12 0.43 c p3
300.87 507.88 0.43 c p3
301.02 507.77 0.43 c p3
301.16 507.29 0.43 c p3
301.31 507.64 0.43 c p3
301.45 507.15 0.43 c p3
301.60 507.77 0.43 c p3
301.74 507.29 0.43 c p3
301.89 507.29 0.43 c p3
302.04 507.05 0.43 c p3
302.18 507.77 0.43 c p3
302.33 507.53 0.43 c p3
302.47 507.29 0.43 c p3
302.62 508.26 0.43 c p3
302.76 508.02 0.43 c p3
302.91 508.61 0.43 c p3
303.06 508.12 0.43 c p3
303.20 508.61 0.43 c p3
303.35 507.64 0.43 c p3
303.49 507.77 0.43 c p3
303.64 507.64 0.43 c p3
303.78 508.02 0.43 c p3
303.93 507.53 0.43 c p3
304.07 507.77 0.43 c p3
304.22 507.29 0.43 c p3
304.37 507.53 0.43 c p3
304.51 507.53 0.43 c p3
304.66 507.29 0.43 c p3
304.80 507.05 0.43 c p3
304.95 507.53 0.43 c p3
305.09 507.88 0.43 c p3
305.24 508.02 0.43 c p3
305.38 508.12 0.43 c p3
305.53 508.02 0.43 c p3
305.68 507.88 0.43 c p3
305.82 507.40 0.43 c p3
305.97 507.77 0.43 c p3
306.11 507.53 0.43 c p3
306.26 507.77 0.43 c p3
306.40 507.64 0.43 c p3
306.55 507.29 0.43 c p3
306.69 506.91 0.43 c p3
306.84 507.29 0.43 c p3
306.99 507.88 0.43 c p3
307.13 507.53 0.43 c p3
307.28 507.40 0.43 c p3
307.42 507.15 0.43 c p3
307.57 508.26 0.43 c p3
307.71 508.02 0.43 c p3
307.86 508.37 0.43 c p3
308.01 507.88 0.43 c p3
308.15 508.26 0.43 c p3
308.30 508.26 0.43 c p3
308.44 507.64 0.43 c p3
308.59 507.53 0.43 c p3
308.73 507.53 0.43 c p3
308.88 507.29 0.43 c p3
309.02 507.64 0.43 c p3
309.17 507.64 0.43 c p3
309.32 507.29 0.43 c p3
309.46 507.05 0.43 c p3
309.61 507.88 0.43 c p3
309.75 508.37 0.43 c p3
309.90 507.40 0.43 c p3
310.04 507.64 0.43 c p3
310.19 508.37 0.43 c p3
310.33 507.88 0.43 c p3
310.48 508.50 0.43 c p3
310.63 507.77 0.43 c p3
310.77 507.53 0.43 c p3
310.92 507.29 0.43 c p3
311.06 507.64 0.43 c p3
311.21 507.29 0.43 c p3
311.35 506.91 0.43 c p3
311.50 506.91 0.43 c p3
311.64 507.15 0.43 c p3
311.79 507.29 0.43 c p3
311.94 506.91 0.43 c p3
312.08 507.05 0.43 c p3
312.23 507.64 0.43 c p3
312.37 507.05 0.43 c p3
312.52 507.53 0.43 c p3
312.66 507.64 0.43 c p3
312.81 508.26 0.43 c p3
312.96 507.77 0.43 c p3
313.10 507.88 0.43 c p3
313.25 508.02 0.43 c p3
313.39 507.88 0.43 c p3
313.54 507.15 0.43 c p3
313.68 507.77 0.43 c p3
313.83 507.77 0.43 c p3
313.97 507.40 0.43 c p3
314.12 507.40 0.43 c p3
314.27 507.15 0.43 c p3
314.41 507.77 0.43 c p3
314.56 507.53 0.43 c p3
314.70 507.53 0.43 c p3
314.85 507.29 0.43 c p3
314.99 507.40 0.43 c p3
315.14 507.40 0.43 c p3
315.28 507.88 0.43 c p3
315.43 508.02 0.43 c p3
315.58 508.12 0.43 c p3
315.72 507.77 0.43 c p3
315.87 507.53 0.43 c p3
316.01 508.02 0.43 c p3
316.16 507.77 0.43 c p3
316.30 507.40 0.43 c p3
316.45 507.40 0.43 c p3
316.59 507.88 0.43 c p3
316.74 507.64 0.43 c p3
316.89 507.40 0.43 c p3
317.03 507.40 0.43 c p3
317.18 507.40 0.43 c p3
317.32 507.15 0.43 c p3
317.47 507.53 0.43 c p3
317.61 507.15 0.43 c p3
317.76 507.77 0.43 c p3
317.91 507.40 0.43 c p3
318.05 508.02 0.43 c p3
318.20 507.77 0.43 c p3
318.34 507.88 0.43 c p3
318.49 508.02 0.43 c p3
318.63 507.40 0.43 c p3
318.78 507.40 0.43 c p3
318.92 507.53 0.43 c p3
319.07 507.05 0.43 c p3
319.22 506.91 0.43 c p3
319.36 506.91 0.43 c p3
319.51 507.05 0.43 c p3
319.65 506.80 0.43 c p3
319.80 507.53 0.43 c p3
319.94 507.53 0.43 c p3
320.09 507.53 0.43 c p3
320.23 507.88 0.43 c p3
320.38 507.15 0.43 c p3
320.53 508.02 0.43 c p3
320.67 508.26 0.43 c p3
320.82 508.26 0.43 c p3
320.96 507.77 0.43 c p3
321.11 507.88 0.43 c p3
321.25 507.88 0.43 c p3
321.40 507.88 0.43 c p3
321.54 507.53 0.43 c p3
321.69 507.64 0.43 c p3
321.84 507.29 0.43 c p3
321.98 507.29 0.43 c p3
322.13 507.29 0.43 c p3
322.27 507.05 0.43 c p3
322.42 507.15 0.43 c p3
322.56 507.05 0.43 c p3
322.71 507.05 0.43 c p3
322.85 507.29 0.43 c p3
323.00 507.53 0.43 c p3
323.15 507.29 0.43 c p3
323.29 507.64 0.43 c p3
323.44 507.88 0.43 c p3
323.58 507.77 0.43 c p3
323.73 507.64 0.43 c p3
323.87 506.91 0.43 c p3
324.02 507.15 0.43 c p3
324.17 507.64 0.43 c p3
324.31 507.15 0.43 c p3
324.46 507.05 0.43 c p3
324.60 507.15 0.43 c p3
324.75 507.53 0.43 c p3
324.89 507.05 0.43 c p3
325.04 507.88 0.43 c p3
325.18 507.15 0.43 c p3
325.33 507.40 0.43 c p3
325.48 507.29 0.43 c p3
325.62 507.05 0.43 c p3
325.77 507.88 0.43 c p3
325.91 508.02 0.43 c p3
326.06 507.53 0.43 c p3
326.20 507.88 0.43 c p3
326.35 507.64 0.43 c p3
326.49 507.77 0.43 c p3
326.64 507.64 0.43 c p3
326.79 507.77 0.43 c p3
326.93 507.77 0.43 c p3
327.08 507.77 0.43 c p3
327.22 507.53 0.43 c p3
327.37 507.40 0.43 c p3
327.51 507.53 0.43 c p3
327.66 506.91 0.43 c p3
327.80 507.29 0.43 c p3
327.95 507.53 0.43 c p3
328.10 507.40 0.43 c p3
328.24 507.29 0.43 c p3
328.39 508.02 0.43 c p3
328.53 507.40 0.43 c p3
328.68 507.15 0.43 c p3
328.82 507.15 0.43 c p3
328.97 507.40 0.43 c p3
329.12 507.64 0.43 c p3
329.26 507.05 0.43 c p3
329.41 507.15 0.43 c p3
329.55 507.40 0.43 c p3
329.70 507.05 0.43 c p3
329.84 507.29 0.43 c p3
329.99 506.91 0.43 c p3
330.13 507.15 0.43 c p3
330.28 507.05 0.43 c p3
330.43 506.91 0.43 c p3
330.57 506.67 0.43 c p3
330.72 506.80 0.43 c p3
330.86 507.40 0.43 c p3
331.01 507.40 0.43 c p3
331.15 507.88 0.43 c p3
331.30 507.64 0.43 c p3
331.44 508.02 0.43 c p3
331.59 507.77 0.43 c p3
331.74 508.02 0.43 c p3
331.88 507.53 0.43 c p3
332.03 507.88 0.43 c p3
332.17 507.64 0.43 c p3
332.32 507.40 0.43 c p3
332.46 507.15 0.43 c p3
332.61 507.88 0.43 c p3
332.75 507.15 0.43 c p3
332.90 507.15 0.43 c p3
333.05 506.80 0.43 c p3
333.19 507.29 0.43 c p3
333.34 507.29 0.43 c p3
333.48 508.02 0.43 c p3
333.63 507.77 0.43 c p3
333.77 507.77 0.43 c p3
333.92 507.88 0.43 c p3
334.07 507.53 0.43 c p3
334.21 507.40 0.43 c p3
334.36 507.53 0.43 c p3
334.50 507.77 0.43 c p3
334.65 507.29 0.43 c p3
334.79 507.53 0.43 c p3
334.94 507.15 0.43 c p3
335.08 506.91 0.43 c p3
335.23 506.91 0.43 c p3
335.38 506.45 0.43 c p3
335.52 507.05 0.43 c p3
335.67 506.67 0.43 c p3
335.81 506.91 0.43 c p3
335.96 507.53 0.43 c p3
336.10 507.53 0.43 c p3
336.25 507.77 0.43 c p3
336.39 507.88 0.43 c p3
336.54 508.02 0.43 c p3
336.69 507.77 0.43 c p3
336.83 507.64 0.43 c p3
336.98 507.40 0.43 c p3
337.12 507.40 0.43 c p3
337.27 507.40 0.43 c p3
337.41 507.15 0.43 c p3
337.56 507.64 0.43 c p3
337.70 507.77 0.43 c p3
337.85 506.80 0.43 c p3
338.00 507.05 0.43 c p3
338.14 507.64 0.43 c p3
338.29 507.05 0.43 c p3
338.43 507.29 0.43 c p3
338.58 507.77 0.43 c p3
338.72 508.02 0.43 c p3
338.87 508.02 0.43 c p3
339.02 508.12 0.43 c p3
339.16 508.02 0.43 c p3
339.31 507.88 0.43 c p3
339.45 507.15 0.43 c p3
339.60 507.77 0.43 c p3
339.74 507.15 0.43 c p3
339.89 507.64 0.43 c p3
340.03 507.15 0.43 c p3
340.18 507.29 0.43 c p3
340.33 506.91 0.43 c p3
340.47 506.56 0.43 c p3
340.62 506.56 0.43 c p3
340.76 507.05 0.43 c p3
340.91 507.15 0.43 c p3
341.05 507.53 0.43 c p3
341.20 507.53 0.43 c p3
341.34 507.88 0.43 c p3
341.49 507.29 0.43 c p3
341.64 507.29 0.43 c p3
341.78 507.53 0.43 c p3
341.93 507.64 0.43 c p3
342.07 507.05 0.43 c p3
342.22 507.15 0.43 c p3
342.36 507.40 0.43 c p3
342.51 506.91 0.43 c p3
342.65 507.64 0.43 c p3
342.80 507.29 0.43 c p3
342.95 506.91 0.43 c p3
343.09 506.80 0.43 c p3
343.24 507.29 0.43 c p3
343.38 506.80 0.43 c p3
343.53 507.40 0.43 c p3
343.67 507.77 0.43 c p3
343.82 508.02 0.43 c p3
343.97 507.53 0.43 c p3
344.11 507.77 0.43 c p3
344.26 507.88 0.43 c p3
344.40 507.15 0.43 c p3
344.55 507.29 0.43 c p3
344.69 507.40 0.43 c p3
344.84 506.80 0.43 c p3
344.98 507.29 0.43 c p3
345.13 507.05 0.43 c p3
345.28 507.64 0.43 c p3
345.42 507.15 0.43 c p3
345.57 507.05 0.43 c p3
345.71 507.15 0.43 c p3
345.86 506.91 0.43 c p3
346.00 507.53 0.43 c p3
346.15 507.64 0.43 c p3
346.29 507.64 0.43 c p3
346.44 507.88 0.43 c p3
346.59 507.15 0.43 c p3
346.73 507.53 0.43 c p3
346.88 507.88 0.43 c p3
347.02 507.53 0.43 c p3
347.17 507.64 0.43 c p3
347.31 507.15 0.43 c p3
347.46 507.15 0.43 c p3
347.60 506.45 0.43 c p3
347.75 506.67 0.43 c p3
347.90 506.80 0.43 c p3
348.04 507.29 0.43 c p3
348.19 506.67 0.43 c p3
348.33 507.15 0.43 c p3
348.48 506.91 0.43 c p3
348.62 507.15 0.43 c p3
348.77 507.77 0.43 c p3
348.92 507.40 0.43 c p3
349.06 507.40 0.43 c p3
349.21 508.02 0.43 c p3
349.35 508.02 0.43 c p3
349.50 507.40 0.43 c p3
349.64 507.05 0.43 c p3
349.79 507.64 0.43 c p3
349.93 506.91 0.43 c p3
350.08 507.15 0.43 c p3
350.23 507.29 0.43 c p3
350.37 507.05 0.43 c p3
350.52 506.91 0.43 c p3
350.66 507.15 0.43 c p3
350.81 507.05 0.43 c p3
350.95 507.15 0.43 c p3
351.10 507.40 0.43 c p3
351.24 506.45 0.43 c p3
351.39 508.02 0.43 c p3
351.54 507.64 0.43 c p3
351.68 507.64 0.43 c p3
351.83 507.15 0.43 c p3
351.97 507.29 0.43 c p3
352.12 506.91 0.43 c p3
352.26 507.29 0.43 c p3
352.41 507.05 0.43 c p3
352.55 507.15 0.43 c p3
352.70 507.29 0.43 c p3
352.85 507.05 0.43 c p3
352.99 506.67 0.43 c p3
353.14 507.05 0.43 c p3
353.28 507.05 0.43 c p3
353.43 506.91 0.43 c p3
353.57 506.91 0.43 c p3
353.72 506.67 0.43 c p3
353.86 507.64 0.43 c p3
354.01 507.05 0.43 c p3
354.16 507.64 0.43 c p3
354.30 507.05 0.43 c p3
354.45 506.80 0.43 c p3
354.59 507.29 0.43 c p3
354.74 507.29 0.43 c p3
354.88 507.15 0.43 c p3
355.03 508.02 0.43 c p3
355.18 507.64 0.43 c p3
355.32 506.91 0.43 c p3
355.47 507.29 0.43 c p3
355.61 507.64 0.43 c p3
355.76 506.91 0.43 c p3
355.90 507.05 0.43 c p3
356.05 507.15 0.43 c p3
356.19 507.40 0.43 c p3
356.34 507.64 0.43 c p3
356.49 508.02 0.43 c p3
356.63 508.02 0.43 c p3
356.78 507.29 0.43 c p3
356.92 507.29 0.43 c p3
357.07 507.15 0.43 c p3
357.21 506.91 0.43 c p3
357.36 506.80 0.43 c p3
357.50 507.29 0.43 c p3
357.65 507.15 0.43 c p3
357.80 507.29 0.43 c p3
357.94 507.05 0.43 c p3
358.09 507.05 0.43 c p3
358.23 506.91 0.43 c p3
358.38 506.80 0.43 c p3
358.52 507.15 0.43 c p3
358.67 507.05 0.43 c p3
358.81 507.40 0.43 c p3
358.96 507.40 0.43 c p3
359.11 508.02 0.43 c p3
359.25 507.64 0.43 c p3
359.40 507.29 0.43 c p3
359.54 506.91 0.43 c p3
359.69 507.40 0.43 c p3
359.83 506.80 0.43 c p3
359.98 506.67 0.43 c p3
360.13 507.15 0.43 c p3
360.27 506.56 0.43 c p3
360.42 506.91 0.43 c p3
360.56 506.91 0.43 c p3
360.71 506.91 0.43 c p3
360.85 506.56 0.43 c p3
361.00 506.80 0.43 c p3
361.14 507.05 0.43 c p3
361.29 507.15 0.43 c p3
361.44 507.77 0.43 c p3
361.58 508.02 0.43 c p3
361.73 507.77 0.43 c p3
361.87 507.53 0.43 c p3
362.02 507.29 0.43 c p3
362.16 507.15 0.43 c p3
362.31 507.05 0.43 c p3
362.45 507.40 0.43 c p3
362.60 506.91 0.43 c p3
362.75 507.64 0.43 c p3
362.89 507.15 0.43 c p3
363.04 506.80 0.43 c p3
363.18 507.15 0.43 c p3
363.33 506.80 0.43 c p3
363.47 506.56 0.43 c p3
363.62 506.91 0.43 c p3
363.76 507.05 0.43 c p3
363.91 506.91 0.43 c p3
364.06 507.53 0.43 c p3
364.20 507.64 0.43 c p3
364.35 507.29 0.43 c p3
364.49 507.64 0.43 c p3
364.64 507.29 0.43 c p3
364.78 507.53 0.43 c p3
364.93 506.80 0.43 c p3
365.08 507.05 0.43 c p3
365.22 506.91 0.43 c p3
365.37 507.29 0.43 c p3
365.51 507.15 0.43 c p3
365.66 506.80 0.43 c p3
365.80 506.91 0.43 c p3
365.95 506.80 0.43 c p3
366.09 507.15 0.43 c p3
366.24 507.64 0.43 c p3
366.39 507.88 0.43 c p3
366.53 507.88 0.43 c p3
366.68 507.53 0.43 c p3
366.82 507.77 0.43 c p3
366.97 507.77 0.43 c p3
367.11 506.80 0.43 c p3
367.26 506.80 0.43 c p3
367.40 507.40 0.43 c p3
367.55 506.91 0.43 c p3
367.70 507.40 0.43 c p3
367.84 507.40 0.43 c p3
367.99 507.29 0.43 c p3
368.13 507.05 0.43 c p3
368.28 507.53 0.43 c p3
368.42 507.29 0.43 c p3
368.57 506.91 0.43 c p3
368.71 507.05 0.43 c p3
368.86 507.29 0.43 c p3
369.01 507.88 0.43 c p3
369.15 507.53 0.43 c p3
369.30 507.64 0.43 c p3
369.44 507.53 0.43 c p3
369.59 507.29 0.43 c p3
369.73 507.29 0.43 c p3
369.88 506.80 0.43 c p3
370.03 506.91 0.43 c p3
370.17 507.15 0.43 c p3
370.32 507.15 0.43 c p3
370.46 506.56 0.43 c p3
370.61 506.91 0.43 c p3
370.75 506.80 0.43 c p3
370.90 507.05 0.43 c p3
371.04 507.29 0.43 c p3
371.19 507.53 0.43 c p3
371.34 507.29 0.43 c p3
371.48 507.53 0.43 c p3
371.63 507.53 0.43 c p3
371.77 507.05 0.43 c p3
371.92 508.12 0.43 c p3
372.06 507.15 0.43 c p3
372.21 506.80 0.43 c p3
372.35 507.05 0.43 c p3
372.50 507.15 0.43 c p3
372.65 507.05 0.43 c p3
372.79 507.29 0.43 c p3
372.94 507.40 0.43 c p3
373.08 506.80 0.43 c p3
373.23 507.40 0.43 c p3
373.37 506.80 0.43 c p3
373.52 507.15 0.43 c p3
373.66 507.40 0.43 c p3
373.81 507.88 0.43 c p3
373.96 507.40 0.43 c p3
374.10 508.12 0.43 c p3
374.25 507.64 0.43 c p3
374.39 507.53 0.43 c p3
374.54 507.29 0.43 c p3
374.68 507.29 0.43 c p3
374.83 507.40 0.43 c p3
374.98 506.67 0.43 c p3
375.12 506.67 0.43 c p3
375.27 507.15 0.43 c p3
375.41 507.05 0.43 c p3
375.56 506.80 0.43 c p3
375.70 506.80 0.43 c p3
375.85 507.29 0.43 c p3
375.99 506.80 0.43 c p3
376.14 507.15 0.43 c p3
376.29 506.91 0.43 c p3
376.43 507.88 0.43 c p3
376.58 507.53 0.43 c p3
376.72 507.77 0.43 c p3
376.87 507.15 0.43 c p3
377.01 507.40 0.43 c p3
377.16 506.91 0.43 c p3
377.30 507.05 0.43 c p3
377.45 507.29 0.43 c p3
377.60 507.64 0.43 c p3
377.74 507.29 0.43 c p3
377.89 507.05 0.43 c p3
378.03 506.80 0.43 c p3
378.18 507.29 0.43 c p3
378.32 507.15 0.43 c p3
378.47 507.05 0.43 c p3
378.61 507.64 0.43 c p3
378.76 507.53 0.43 c p3
378.91 508.02 0.43 c p3
379.05 507.88 0.43 c p3
379.20 507.05 0.43 c p3
379.34 507.53 0.43 c p3
379.49 507.88 0.43 c p3
379.63 507.64 0.43 c p3
379.78 507.29 0.43 c p3
379.93 507.53 0.43 c p3
380.07 506.91 0.43 c p3
380.22 507.29 0.43 c p3
380.36 506.67 0.43 c p3
380.51 506.91 0.43 c p3
380.65 507.15 0.43 c p3
380.80 506.91 0.43 c p3
380.94 507.05 0.43 c p3
381.09 507.15 0.43 c p3
381.24 507.15 0.43 c p3
381.38 507.29 0.43 c p3
381.53 507.77 0.43 c p3
381.67 507.29 0.43 c p3
381.82 507.64 0.43 c p3
381.96 508.12 0.43 c p3
382.11 506.91 0.43 c p3
382.25 506.80 0.43 c p3
382.40 506.91 0.43 c p3
0.00 0.00 432.00 576.00 cl
0 0 0 srgb
0.75 setlinewidth
[] 0 setdash
1 setlinecap
1 setlinejoin
10.00 setmiterlimit
np
236.96 345.60 m
145.59 0 l
o
np
236.96 345.60 m
0 -5.76 l
o
np
266.08 345.60 m
0 -5.76 l
o
np
295.19 345.60 m
0 -5.76 l
o
np
324.31 345.60 m
0 -5.76 l
o
np
353.43 345.60 m
0 -5.76 l
o
np
382.55 345.60 m
0 -5.76 l
o
/Font1 findfont 10 s
236.96 329.47 (0) .5 0 t
266.08 329.47 (100) .5 0 t
295.19 329.47 (200) .5 0 t
324.31 329.47 (300) .5 0 t
353.43 329.47 (400) .5 0 t
382.55 329.47 (500) .5 0 t
np
216.00 352.00 m
0 165.41 l
o
np
216.00 352.00 m
-5.76 0 l
o
np
216.00 407.14 m
-5.76 0 l
o
np
216.00 462.27 m
-5.76 0 l
o
np
216.00 517.41 m
-5.76 0 l
o
209.09 348.41 (0.0) 1 0 t
209.09 403.55 (0.5) 1 0 t
209.09 458.68 (1.0) 1 0 t
209.09 513.82 (1.5) 1 0 t
np
216.00 345.60 m
172.80 0 l
0 172.80 l
-172.80 0 l
0 -172.80 l
o
0.00 0.00 432.00 576.00 cl
/Font1 findfont 10 s
0 0 0 srgb
302.40 313.34 (Zeit / ms \(total\)) .5 0 t
190.66 432.00 (U / V) .5 90 t
216.00 345.60 388.80 518.40 cl
0 0 0 srgb
0.38 setlinewidth
[ 1.12 1.88] 0 setdash
1 setlinecap
1 setlinejoin
10.00 setmiterlimit
np
223.42 345.60 m
0 172.80 l
o
np
235.21 345.60 m
0 172.80 l
o
np
238.41 345.60 m
0 172.80 l
o
np
270.44 345.60 m
0 172.80 l
o
86.40 57.60 388.80 288.00 cl
1 0 0 srgb
1.50 setlinewidth
[] 0 setdash
1 setlinecap
1 setlinejoin
10.00 setmiterlimit
np
97.60 279.47 m
1.41 -18.85 l
1.40 -17.13 l
1.41 -15.57 l
1.41 -14.14 l
1.41 -12.86 l
1.40 -11.67 l
1.41 -10.62 l
1.41 -9.64 l
1.40 -8.76 l
1.41 -7.96 l
1.41 -7.24 l
1.40 -6.57 l
1.41 -5.98 l
1.41 -5.43 l
1.41 -4.93 l
1.40 -4.48 l
1.41 -4.08 l
1.41 -3.70 l
1.40 -3.36 l
1.41 -3.06 l
1.41 -2.77 l
1.40 -2.53 l
1.41 -2.29 l
1.41 -2.08 l
1.41 -1.90 l
1.40 -1.72 l
1.41 -1.56 l
1.41 -1.42 l
1.40 -1.29 l
1.41 -1.18 l
1.41 -1.06 l
1.41 -0.97 l
1.40 -0.88 l
1.41 -0.80 l
1.41 -0.73 l
1.40 -0.66 l
1.41 -0.60 l
1.41 -0.54 l
1.40 -0.50 l
1.41 -0.45 l
1.41 -0.41 l
1.41 -0.37 l
1.40 -0.34 l
1.41 -0.30 l
1.41 -0.28 l
1.40 -0.26 l
1.41 -0.23 l
1.41 -0.21 l
1.40 -0.19 l
1.41 -0.17 l
1.41 -0.16 l
1.41 -0.14 l
1.40 -0.13 l
1.41 -0.12 l
1.41 -0.10 l
1.40 -0.10 l
1.41 -0.09 l
1.41 -0.08 l
1.41 -0.07 l
1.40 -0.07 l
1.41 -0.06 l
1.41 -0.05 l
1.40 -0.05 l
1.41 -0.05 l
1.41 -0.04 l
1.40 -0.04 l
1.41 -0.03 l
1.41 -0.03 l
1.41 -0.03 l
1.40 -0.03 l
1.41 -0.02 l
1.41 -0.02 l
1.40 -0.02 l
1.41 -0.02 l
1.41 -0.01 l
1.40 -0.02 l
1.41 -0.01 l
1.41 -0.01 l
1.41 -0.01 l
1.40 -0.01 l
1.41 -0.01 l
1.41 -0.01 l
1.40 -0.01 l
1.41 0 l
1.41 -0.01 l
1.41 0 l
1.40 -0.01 l
1.41 0 l
1.41 -0.01 l
1.40 0 l
1.41 0 l
1.41 -0.01 l
1.40 0 l
1.41 0 l
1.41 -0.01 l
1.41 0 l
1.40 0 l
1.41 0 l
1.41 0 l
238.30 73.05 lineto
1.41 -0.01 l
1.41 0 l
1.40 0 l
1.41 0 l
1.41 0 l
1.41 0 l
1.40 0 l
1.41 0 l
1.41 0 l
1.40 0 l
1.41 0 l
1.41 0 l
1.40 0 l
1.41 -0.01 l
1.41 0 l
1.41 0 l
1.40 0 l
1.41 0 l
1.41 0 l
1.40 0 l
1.41 0 l
1.41 0 l
1.41 0 l
1.40 0 l
1.41 0 l
1.41 0 l
1.40 0 l
1.41 0 l
1.41 0 l
1.40 0 l
1.41 0 l
1.41 0 l
1.41 0 l
1.40 0 l
1.41 0 l
1.41 0 l
1.40 0 l
1.41 0 l
1.41 0 l
1.40 0 l
1.41 0 l
1.41 0 l
1.41 0 l
1.40 0 l
1.41 0 l
1.41 0 l
1.40 0 l
1.41 0 l
1.41 0 l
1.41 0 l
1.40 0 l
1.41 0 l
1.41 0 l
1.40 0 l
1.41 0 l
1.41 0 l
1.40 0 l
1.41 0 l
1.41 0 l
1.41 0 l
1.40 0 l
1.41 0 l
1.41 0 l
1.40 0 l
1.41 0 l
1.41 0 l
1.40 0 l
1.41 0 l
1.41 0 l
1.41 0 l
1.40 0 l
1.41 0 l
1.41 0 l
1.40 0 l
1.41 0 l
1.41 0 l
1.41 0 l
1.40 0 l
1.41 0 l
1.41 0 l
1.40 0 l
1.41 0 l
1.41 0 l
1.40 0 l
1.41 0 l
1.41 0 l
1.41 0 l
1.40 0 l
1.41 0 l
1.41 0 l
1.40 0 l
1.41 0 l
1.41 0 l
1.40 0 l
1.41 0 l
1.41 0 l
1.41 0 l
1.40 0 l
1.41 0 l
o
0.00 0.00 432.00 576.00 cl
0 0 0 srgb
0.75 setlinewidth
[] 0 setdash
1 setlinecap
1 setlinejoin
10.00 setmiterlimit
np
97.60 57.60 m
280.00 0 l
o
np
97.60 57.60 m
0 -5.76 l
o
np
153.60 57.60 m
0 -5.76 l
o
np
209.60 57.60 m
0 -5.76 l
o
np
265.60 57.60 m
0 -5.76 l
o
np
321.60 57.60 m
0 -5.76 l
o
np
377.60 57.60 m
0 -5.76 l
o
/Font1 findfont 10 s
97.60 41.47 (0) .5 0 t
153.60 41.47 (100) .5 0 t
209.60 41.47 (200) .5 0 t
265.60 41.47 (300) .5 0 t
321.60 41.47 (400) .5 0 t
377.60 41.47 (500) .5 0 t
np
86.40 66.13 m
0 167.65 l
o
np
86.40 66.13 m
-5.76 0 l
o
np
86.40 122.02 m
-5.76 0 l
o
np
86.40 177.90 m
-5.76 0 l
o
np
86.40 233.78 m
-5.76 0 l
o
79.49 62.54 (0.00) 1 0 t
79.49 118.43 (0.05) 1 0 t
79.49 174.31 (0.10) 1 0 t
79.49 230.19 (0.15) 1 0 t
np
86.40 57.60 m
302.40 0 l
0 230.40 l
-302.40 0 l
0 -230.40 l
o
0.00 0.00 432.00 576.00 cl
/Font1 findfont 10 s
0 0 0 srgb
237.60 13.82 (Zeit / ms \(nach Puls\)) .5 0 t
49.54 172.80 (Absorbanz A) .5 90 t
86.40 57.60 388.80 288.00 cl
/bg { 1 1 1 srgb } def
0 0 0 srgb
0.75 setlinewidth
[] 0 setdash
1 setlinecap
1 setlinejoin
10.00 setmiterlimit
100.68 242.55 0.65 c p3
100.96 237.73 0.65 c p3
101.24 234.58 0.65 c p3
101.52 232.03 0.65 c p3
101.80 228.92 0.65 c p3
102.08 226.40 0.65 c p3
102.36 219.70 0.65 c p3
102.64 219.25 0.65 c p3
102.92 217.22 0.65 c p3
103.20 213.65 0.65 c p3
103.48 212.20 0.65 c p3
103.76 210.21 0.65 c p3
104.04 208.66 0.65 c p3
104.32 203.29 0.65 c p3
104.60 196.04 0.65 c p3
104.88 197.01 0.65 c p3
105.16 191.66 0.65 c p3
105.44 191.66 0.65 c p3
105.72 189.32 0.65 c p3
106.00 188.79 0.65 c p3
106.28 186.47 0.65 c p3
106.56 184.58 0.65 c p3
106.84 180.40 0.65 c p3
107.12 182.28 0.65 c p3
107.40 181.76 0.65 c p3
107.68 178.54 0.65 c p3
107.96 178.54 0.65 c p3
108.24 178.54 0.65 c p3
108.52 173.90 0.65 c p3
108.80 168.79 0.65 c p3
109.08 165.66 0.65 c p3
109.36 163.44 0.65 c p3
109.64 161.64 0.65 c p3
109.92 158.94 0.65 c p3
110.20 159.84 0.65 c p3
110.48 159.34 0.65 c p3
110.76 158.94 0.65 c p3
111.04 155.38 0.65 c p3
111.32 155.77 0.65 c p3
111.60 154.00 0.65 c p3
111.88 150.46 0.65 c p3
112.16 150.07 0.65 c p3
112.44 152.72 0.65 c p3
112.72 150.07 0.65 c p3
113.00 147.05 0.65 c p3
113.28 144.83 0.65 c p3
113.56 141.84 0.65 c p3
113.84 140.50 0.65 c p3
114.12 137.54 0.65 c p3
114.40 136.68 0.65 c p3
114.68 137.92 0.65 c p3
114.96 135.35 0.65 c p3
115.24 133.27 0.65 c p3
115.52 131.58 0.65 c p3
115.80 132.42 0.65 c p3
116.08 131.95 0.65 c p3
116.36 131.95 0.65 c p3
116.64 131.58 0.65 c p3
116.92 131.58 0.65 c p3
117.20 130.36 0.65 c p3
117.48 127.83 0.65 c p3
117.76 126.15 0.65 c p3
118.04 126.99 0.65 c p3
118.32 124.48 0.65 c p3
118.60 124.02 0.65 c p3
118.88 123.19 0.65 c p3
119.16 118.22 0.65 c p3
119.44 116.58 0.65 c p3
119.72 116.58 0.65 c p3
120.00 116.21 0.65 c p3
120.28 118.22 0.65 c p3
120.56 115.76 0.65 c p3
120.84 117.03 0.65 c p3
121.12 116.21 0.65 c p3
121.40 116.21 0.65 c p3
121.68 114.94 0.65 c p3
121.96 113.76 0.65 c p3
122.24 112.13 0.65 c p3
122.52 111.77 0.65 c p3
122.80 110.96 0.65 c p3
123.08 109.34 0.65 c p3
123.36 106.92 0.65 c p3
123.64 108.08 0.65 c p3
123.92 105.31 0.65 c p3
124.20 104.51 0.65 c p3
124.48 103.71 0.65 c p3
124.76 102.47 0.65 c p3
125.04 102.47 0.65 c p3
125.32 102.91 0.65 c p3
125.60 104.51 0.65 c p3
125.88 104.07 0.65 c p3
126.16 103.71 0.65 c p3
126.44 102.47 0.65 c p3
126.72 101.67 0.65 c p3
127.00 98.50 0.65 c p3
127.28 98.94 0.65 c p3
127.56 100.53 0.65 c p3
127.84 99.73 0.65 c p3
128.12 98.94 0.65 c p3
128.40 97.36 0.65 c p3
128.68 98.15 0.65 c p3
128.96 98.15 0.65 c p3
129.24 95.79 0.65 c p3
129.52 93.43 0.65 c p3
129.80 96.14 0.65 c p3
130.08 95.44 0.65 c p3
130.36 96.14 0.65 c p3
130.64 95.44 0.65 c p3
130.92 97.71 0.65 c p3
131.20 94.22 0.65 c p3
131.48 95.44 0.65 c p3
131.76 93.43 0.65 c p3
132.04 94.22 0.65 c p3
132.32 93.09 0.65 c p3
132.60 91.87 0.65 c p3
132.88 92.65 0.65 c p3
133.16 92.30 0.65 c p3
133.44 90.31 0.65 c p3
133.72 88.42 0.65 c p3
134.00 88.76 0.65 c p3
134.28 89.54 0.65 c p3
134.56 87.21 0.65 c p3
134.84 87.64 0.65 c p3
135.12 88.76 0.65 c p3
135.40 89.19 0.65 c p3
135.68 88.42 0.65 c p3
135.96 88.42 0.65 c p3
136.24 87.64 0.65 c p3
136.52 88.42 0.65 c p3
136.80 87.99 0.65 c p3
137.08 87.21 0.65 c p3
137.36 85.67 0.65 c p3
137.64 87.64 0.65 c p3
137.92 86.44 0.65 c p3
138.20 86.44 0.65 c p3
138.48 84.90 0.65 c p3
138.76 83.37 0.65 c p3
139.04 84.90 0.65 c p3
139.32 84.56 0.65 c p3
139.60 83.03 0.65 c p3
139.88 84.90 0.65 c p3
140.16 84.90 0.65 c p3
140.44 84.56 0.65 c p3
140.72 85.33 0.65 c p3
141.00 84.56 0.65 c p3
141.28 84.13 0.65 c p3
141.56 84.56 0.65 c p3
141.84 85.33 0.65 c p3
142.12 84.90 0.65 c p3
142.40 84.56 0.65 c p3
142.68 84.56 0.65 c p3
142.96 83.79 0.65 c p3
143.24 82.26 0.65 c p3
143.52 82.26 0.65 c p3
143.80 81.07 0.65 c p3
144.08 79.97 0.65 c p3
144.36 80.74 0.65 c p3
144.64 79.97 0.65 c p3
144.92 80.74 0.65 c p3
145.20 79.21 0.65 c p3
145.48 81.50 0.65 c p3
145.76 79.64 0.65 c p3
146.04 78.88 0.65 c p3
146.32 80.74 0.65 c p3
146.60 79.64 0.65 c p3
146.88 80.74 0.65 c p3
147.16 79.21 0.65 c p3
147.44 81.50 0.65 c p3
147.72 81.07 0.65 c p3
148.00 78.88 0.65 c p3
148.28 78.88 0.65 c p3
148.56 79.64 0.65 c p3
148.84 78.12 0.65 c p3
149.12 77.70 0.65 c p3
149.40 77.70 0.65 c p3
149.68 78.45 0.65 c p3
149.96 79.64 0.65 c p3
150.24 78.12 0.65 c p3
150.52 76.94 0.65 c p3
150.80 78.45 0.65 c p3
151.08 78.88 0.65 c p3
151.36 78.12 0.65 c p3
151.64 79.21 0.65 c p3
151.92 81.07 0.65 c p3
152.20 81.50 0.65 c p3
152.48 80.31 0.65 c p3
152.76 80.31 0.65 c p3
153.04 76.18 0.65 c p3
153.32 77.70 0.65 c p3
153.60 76.60 0.65 c p3
153.88 76.18 0.65 c p3
154.16 76.18 0.65 c p3
154.44 76.18 0.65 c p3
154.72 77.36 0.65 c p3
155.00 76.18 0.65 c p3
155.28 76.94 0.65 c p3
155.56 77.36 0.65 c p3
155.84 77.36 0.65 c p3
156.12 78.88 0.65 c p3
156.40 79.97 0.65 c p3
156.68 78.12 0.65 c p3
156.96 76.18 0.65 c p3
157.24 77.36 0.65 c p3
157.52 76.60 0.65 c p3
157.80 76.60 0.65 c p3
158.08 74.34 0.65 c p3
158.36 73.17 0.65 c p3
158.64 75.09 0.65 c p3
158.92 75.43 0.65 c p3
159.20 74.34 0.65 c p3
159.48 75.09 0.65 c p3
159.76 75.85 0.65 c p3
160.04 76.94 0.65 c p3
160.32 77.70 0.65 c p3
160.60 76.60 0.65 c p3
160.88 76.60 0.65 c p3
161.16 76.60 0.65 c p3
161.44 75.85 0.65 c p3
161.72 76.60 0.65 c p3
162.00 76.94 0.65 c p3
162.28 75.43 0.65 c p3
216.00 201.60 367.20 247.68 cl
0 0 0 srgb
0.75 setlinewidth
[] 0 setdash
1 setlinecap
1 setlinejoin
10.00 setmiterlimit
221.60 230.20 0.43 c p1
222.24 225.85 0.43 c p1
222.87 225.72 0.43 c p1
223.51 227.00 0.43 c p1
224.15 226.67 0.43 c p1
224.78 227.73 0.43 c p1
225.42 217.72 0.43 c p1
226.05 223.91 0.43 c p1
226.69 225.85 0.43 c p1
227.33 223.59 0.43 c p1
227.96 226.78 0.43 c p1
228.60 228.39 0.43 c p1
229.24 231.05 0.43 c p1
229.87 223.58 0.43 c p1
230.51 211.06 0.43 c p1
231.15 219.93 0.43 c p1
231.78 212.14 0.43 c p1
232.42 218.23 0.43 c p1
233.05 218.10 0.43 c p1
233.69 222.58 0.43 c p1
234.33 222.26 0.43 c p1
234.96 222.96 0.43 c p1
235.60 217.57 0.43 c p1
236.24 227.92 0.43 c p1
236.87 231.89 0.43 c p1
237.51 228.69 0.43 c p1
238.15 233.82 0.43 c p1
238.78 238.86 0.43 c p1
239.42 231.66 0.43 c p1
240.05 223.16 0.43 c p1
240.69 219.71 0.43 c p1
241.33 218.58 0.43 c p1
241.96 218.44 0.43 c p1
242.60 215.89 0.43 c p1
243.24 222.64 0.43 c p1
243.87 225.66 0.43 c p1
244.51 228.87 0.43 c p1
245.15 223.69 0.43 c p1
245.78 228.81 0.43 c p1
246.42 228.17 0.43 c p1
247.05 222.86 0.43 c p1
247.69 225.70 0.43 c p1
248.33 236.40 0.43 c p1
248.96 233.20 0.43 c p1
249.60 228.94 0.43 c p1
250.24 226.69 0.43 c p1
250.87 222.38 0.43 c p1
251.51 222.31 0.43 c p1
252.15 217.94 0.43 c p1
252.78 219.01 0.43 c p1
253.42 225.50 0.43 c p1
254.05 221.97 0.43 c p1
254.69 219.66 0.43 c p1
255.33 218.29 0.43 c p1
255.96 223.52 0.43 c p1
256.60 225.24 0.43 c p1
257.24 228.14 0.43 c p1
257.87 230.00 0.43 c p1
258.51 232.79 0.43 c p1
259.15 232.33 0.43 c p1
259.78 228.41 0.43 c p1
260.42 226.66 0.43 c p1
261.05 231.43 0.43 c p1
261.69 227.41 0.43 c p1
262.33 228.69 0.43 c p1
262.96 228.95 0.43 c p1
263.60 218.35 0.43 c p1
264.24 216.40 0.43 c p1
264.87 218.71 0.43 c p1
265.51 220.02 0.43 c p1
266.15 227.49 0.43 c p1
266.78 223.22 0.43 c p1
267.42 228.70 0.43 c p1
268.05 228.65 0.43 c p1
268.69 230.71 0.43 c p1
269.33 229.39 0.43 c p1
269.96 228.28 0.43 c p1
270.60 225.96 0.43 c p1
271.24 226.93 0.43 c p1
271.87 226.67 0.43 c p1
272.51 224.27 0.43 c p1
273.15 219.74 0.43 c p1
273.78 224.55 0.43 c p1
274.42 219.03 0.43 c p1
275.05 218.64 0.43 c p1
275.69 218.21 0.43 c p1
276.33 216.60 0.43 c p1
276.96 218.21 0.43 c p1
277.60 220.94 0.43 c p1
278.24 226.67 0.43 c p1
278.87 227.02 0.43 c p1
279.51 227.58 0.43 c p1
280.15 225.79 0.43 c p1
280.78 225.14 0.43 c p1
281.42 218.25 0.43 c p1
282.05 220.77 0.43 c p1
282.69 226.27 0.43 c p1
283.33 225.53 0.43 c p1
283.96 224.76 0.43 c p1
284.60 221.90 0.43 c p1
285.24 225.22 0.43 c p1
285.87 226.45 0.43 c p1
286.51 221.47 0.43 c p1
287.15 216.49 0.43 c p1
287.78 224.73 0.43 c p1
288.42 224.04 0.43 c p1
289.05 226.99 0.43 c p1
289.69 226.25 0.43 c p1
290.33 233.28 0.43 c p1
290.96 225.19 0.43 c p1
291.60 229.42 0.43 c p1
292.24 225.20 0.43 c p1
292.87 228.24 0.43 c p1
293.51 226.26 0.43 c p1
294.15 224.04 0.43 c p1
294.78 227.03 0.43 c p1
295.42 227.04 0.43 c p1
296.05 222.74 0.43 c p1
296.69 218.67 0.43 c p1
297.33 220.44 0.43 c p1
297.96 223.33 0.43 c p1
298.60 218.09 0.43 c p1
299.24 220.04 0.43 c p1
299.87 223.77 0.43 c p1
300.51 225.69 0.43 c p1
301.15 224.44 0.43 c p1
301.78 225.21 0.43 c p1
302.42 223.93 0.43 c p1
303.05 226.69 0.43 c p1
303.69 226.29 0.43 c p1
304.33 224.97 0.43 c p1
304.96 221.63 0.43 c p1
305.60 227.47 0.43 c p1
306.24 225.00 0.43 c p1
306.87 225.65 0.43 c p1
307.51 222.26 0.43 c p1
308.15 218.88 0.43 c p1
308.78 223.52 0.43 c p1
309.42 223.23 0.43 c p1
310.05 219.81 0.43 c p1
310.69 225.30 0.43 c p1
311.33 225.88 0.43 c p1
311.96 225.55 0.43 c p1
312.60 228.11 0.43 c p1
313.24 226.64 0.43 c p1
313.87 226.06 0.43 c p1
314.51 227.70 0.43 c p1
315.15 230.22 0.43 c p1
315.78 229.60 0.43 c p1
316.42 229.20 0.43 c p1
317.05 229.69 0.43 c p1
317.69 228.15 0.43 c p1
318.33 224.61 0.43 c p1
318.96 225.07 0.43 c p1
319.60 222.41 0.43 c p1
320.24 219.97 0.43 c p1
320.87 222.39 0.43 c p1
321.51 220.82 0.43 c p1
322.15 223.23 0.43 c p1
322.78 219.65 0.43 c p1
323.42 226.03 0.43 c p1
324.05 221.55 0.43 c p1
324.69 219.94 0.43 c p1
325.33 225.19 0.43 c p1
325.96 222.68 0.43 c p1
326.60 225.92 0.43 c p1
327.24 222.30 0.43 c p1
327.87 228.62 0.43 c p1
328.51 227.86 0.43 c p1
329.15 222.44 0.43 c p1
329.78 222.77 0.43 c p1
330.42 225.08 0.43 c p1
331.05 221.43 0.43 c p1
331.69 220.64 0.43 c p1
332.33 220.94 0.43 c p1
332.96 223.23 0.43 c p1
333.60 226.61 0.43 c p1
334.24 222.93 0.43 c p1
334.87 220.13 0.43 c p1
335.51 224.37 0.43 c p1
336.15 225.75 0.43 c p1
336.78 224.03 0.43 c p1
337.42 227.16 0.43 c p1
338.05 232.29 0.43 c p1
338.69 233.65 0.43 c p1
339.33 230.80 0.43 c p1
339.96 231.04 0.43 c p1
340.60 220.48 0.43 c p1
341.24 224.67 0.43 c p1
341.87 222.04 0.43 c p1
342.51 221.17 0.43 c p1
343.15 221.39 0.43 c p1
343.78 221.60 0.43 c p1
344.42 224.89 0.43 c p1
345.05 222.03 0.43 c p1
345.69 224.21 0.43 c p1
346.33 225.51 0.43 c p1
346.96 225.71 0.43 c p1
347.60 229.87 0.43 c p1
348.24 232.93 0.43 c p1
348.87 228.26 0.43 c p1
349.51 223.38 0.43 c p1
350.15 226.64 0.43 c p1
350.78 224.84 0.43 c p1
351.42 225.01 0.43 c p1
352.05 219.26 0.43 c p1
352.69 216.37 0.43 c p1
353.33 221.56 0.43 c p1
353.96 222.60 0.43 c p1
354.60 219.91 0.43 c p1
355.24 222.03 0.43 c p1
355.87 224.16 0.43 c p1
356.51 227.16 0.43 c p1
357.15 229.29 0.43 c p1
357.78 226.57 0.43 c p1
358.42 226.71 0.43 c p1
359.05 226.85 0.43 c p1
359.69 225.01 0.43 c p1
360.33 227.11 0.43 c p1
360.96 228.12 0.43 c p1
361.60 224.30 0.43 c p1
0.00 0.00 432.00 576.00 cl
0 0 0 srgb
0.75 setlinewidth
[] 0 setdash
1 setlinecap
1 setlinejoin
10.00 setmiterlimit
np
240.05 201.60 m
101.82 0 l
o
np
240.05 201.60 m
0 -5.76 l
o
np
265.51 201.60 m
0 -5.76 l
o
np
290.96 201.60 m
0 -5.76 l
o
np
316.42 201.60 m
0 -5.76 l
o
np
341.87 201.60 m
0 -5.76 l
o
/Font1 findfont 6 s
240.05 185.47 (20) .5 0 t
265.51 185.47 (40) .5 0 t
290.96 185.47 (60) .5 0 t
316.42 185.47 (80) .5 0 t
341.87 185.47 (100) .5 0 t
np
216.00 210.02 m
0 29.24 l
o
np
216.00 210.02 m
-5.76 0 l
o
np
216.00 224.64 m
-5.76 0 l
o
np
216.00 239.26 m
-5.76 0 l
o
209.09 207.86 (-0.005) 1 0 t
209.09 222.49 (0.000) 1 0 t
209.09 237.11 (0.005) 1 0 t
np
216.00 201.60 m
151.20 0 l
0 46.08 l
-151.20 0 l
0 -46.08 l
o
0.00 0.00 432.00 576.00 cl
/Font1 findfont 9 s
0 0 0 srgb
291.60 262.88 (Residuen) .5 0 t
59.04 73.44 401.76 516.96 cl
ep
%%Trailer
%%Pages: 1
%%EOF
