%!PS-Adobe-3.0 EPSF-3.0
%%DocumentNeededResources: font Helvetica
%%+ font Helvetica-Bold
%%+ font Helvetica-Oblique
%%+ font Helvetica-BoldOblique
%%+ font Symbol
%%Title: R Graphics Output
%%Creator: R Software
%%Pages: (atend)
%%BoundingBox: 0 0 432 576
%%EndComments
%%BeginProlog
/bp  { gs sRGB gs } def
% begin .ps.prolog
/gs  { gsave } bind def
/gr  { grestore } bind def
/ep  { showpage gr gr } bind def
/m   { moveto } bind def
/l  { rlineto } bind def
/np  { newpath } bind def
/cp  { closepath } bind def
/f   { fill } bind def
/o   { stroke } bind def
/c   { newpath 0 360 arc } bind def
/r   { 4 2 roll moveto 1 copy 3 -1 roll exch 0 exch rlineto 0 rlineto -1 mul 0 exch rlineto closepath } bind def
/p1  { stroke } bind def
/p2  { gsave bg fill grestore newpath } bind def
/p3  { gsave bg fill grestore stroke } bind def
/p6  { gsave bg eofill grestore newpath } bind def
/p7  { gsave bg eofill grestore stroke } bind def
/t   { 5 -2 roll moveto gsave rotate
       1 index stringwidth pop
       mul neg 0 rmoveto show grestore } bind def
/ta  { 4 -2 roll moveto gsave rotate show } bind def
/tb  { 2 -1 roll 0 rmoveto show } bind def
/cl  { grestore gsave newpath 3 index 3 index moveto 1 index
       4 -1 roll lineto  exch 1 index lineto lineto
       closepath clip newpath } bind def
/rgb { setrgbcolor } bind def
/s   { scalefont setfont } bind def
% end   .ps.prolog
/sRGB { [ /CIEBasedABC
          << /DecodeLMN
               [ { dup 0.03928 le
                        {12.92321 div}
                        {0.055 add 1.055 div 2.4 exp }
                     ifelse
                 } bind dup dup
               ]
             /MatrixLMN [0.412457 0.212673 0.019334
                         0.357576 0.715152 0.119192
                         0.180437 0.072175 0.950301]
             /WhitePoint [0.9505 1.0 1.0890]
           >>
         ] setcolorspace } bind def
/srgb { setcolor } bind def
%%IncludeResource: font Helvetica
/Helvetica findfont
dup length dict begin
  {1 index /FID ne {def} {pop pop} ifelse} forall
  /Encoding ISOLatin1Encoding def
  currentdict
  end
/Font1 exch definefont pop
%%IncludeResource: font Helvetica-Bold
/Helvetica-Bold findfont
dup length dict begin
  {1 index /FID ne {def} {pop pop} ifelse} forall
  /Encoding ISOLatin1Encoding def
  currentdict
  end
/Font2 exch definefont pop
%%IncludeResource: font Helvetica-Oblique
/Helvetica-Oblique findfont
dup length dict begin
  {1 index /FID ne {def} {pop pop} ifelse} forall
  /Encoding ISOLatin1Encoding def
  currentdict
  end
/Font3 exch definefont pop
%%IncludeResource: font Helvetica-BoldOblique
/Helvetica-BoldOblique findfont
dup length dict begin
  {1 index /FID ne {def} {pop pop} ifelse} forall
  /Encoding ISOLatin1Encoding def
  currentdict
  end
/Font4 exch definefont pop
%%IncludeResource: font Symbol
/Symbol findfont
dup length dict begin
  {1 index /FID ne {def} {pop pop} ifelse} forall
  currentdict
  end
/Font5 exch definefont pop
%%EndProlog
%%Page: 1 1
bp
0.00 0.00 432.00 576.00 cl
0.00 0.00 432.00 576.00 cl
0.00 0.00 432.00 576.00 cl
/Font1 findfont 12 s
0 0 0 srgb
48.00 508.72 (PCP-ETH) 0 0 t
48.00 494.89 (Blitzlicht-Photolyse) 0 0 t
/Font1 findfont 9 s
48.00 457.54 (File: Dy) 0 ta
-0.180 (e_0_1_V3_900V_45.dat) tb gr
48.00 334.87 (T) 0 ta
-1.080 (ue Apr  9 22:07:08 2019) tb gr
48.00 430.87 (Fitfunktion:  a + b * e) 0 ta
-0.270 (xp\(-c * t\)) tb gr
48.00 420.50 (t-Inter) 0 ta
0.270 (v) tb
-0.225 (all: 8.500 ... 117.000 ms) tb gr
48.00 410.14 (P) 0 ta
-0.360 (ar) tb
-0.090 (ameter \(Standardabw) tb
-0.090 (eichung\):) tb gr
48.00 399.77 (  a = 0.00613 \(0.00025\)) 0 0 t
48.00 389.40 (  b = 0.18655 \(0.00090\)) 0 0 t
48.00 379.03 (  c = 3.850e+01 \(3.083e-01\) s^-1) 0 0 t
48.00 368.66 (  tau = 2.597e-02 \(2.080e-04\) s) 0 0 t
216.00 345.60 388.80 518.40 cl
0 0 0 srgb
0.75 setlinewidth
[] 0 setdash
1 setlinecap
1 setlinejoin
10.00 setmiterlimit
np
222.40 511.41 m
0.15 -0.62 l
0.14 0.24 l
0.15 0.24 l
0.14 -0.24 l
0.15 0.24 l
0.14 -0.48 l
0.15 -0.24 l
0.14 0.37 l
0.15 0.11 l
0.15 0 l
0.14 0 l
0.15 -0.24 l
0.14 -0.35 l
0.15 0.48 l
0.14 -0.13 l
0.15 -0.24 l
0.14 0.48 l
0.15 0.38 l
0.15 -0.24 l
0.14 -0.25 l
0.15 0 l
0.14 0.11 l
0.15 -0.11 l
0.14 0.49 l
0.15 0.11 l
0.15 -0.11 l
0.14 -0.24 l
0.15 -0.14 l
0.14 0.24 l
0.15 -0.24 l
0.14 0 l
0.15 0.24 l
0.14 -0.24 l
0.15 0.38 l
0.15 -0.49 l
0.14 0.25 l
0.15 0.10 l
0.14 -0.10 l
0.15 -0.38 l
0.14 0 l
0.15 0.13 l
0.14 -0.48 l
0.15 0.59 l
0.15 -0.11 l
0.14 -0.24 l
0.15 -0.24 l
0.14 0.73 l
0.15 -0.49 l
0.14 0.49 l
0.15 -0.38 l
0.14 0.24 l
0.15 -0.35 l
0.15 0.11 l
0.14 -0.24 l
0.15 0.72 l
0.14 -0.59 l
0.15 -0.13 l
0.14 0.62 l
0.15 -0.49 l
0.15 -0.24 l
0.14 0.59 l
0.15 -0.11 l
0.14 0.35 l
0.15 -0.35 l
0.14 0.60 l
0.15 -0.35 l
0.14 0.83 l
0.15 -0.73 l
0.15 -0.35 l
0.14 0.95 l
0.15 -0.35 l
0.14 -0.60 l
0.15 0.35 l
0.14 -0.24 l
0.15 -0.11 l
0.14 0.25 l
0.15 0.10 l
0.15 -0.10 l
0.14 0 l
0.15 -0.73 l
0.14 0.35 l
0.15 -0.11 l
0.14 0.11 l
0.15 0.38 l
0.14 -0.25 l
0.15 0.25 l
0.15 0.10 l
0.14 0 l
0.15 -0.59 l
0.14 0.24 l
0.15 0.11 l
0.14 -0.35 l
0.15 0.11 l
0.15 0.38 l
0.14 -0.97 l
0.15 0.83 l
0.14 -0.97 l
0.15 0.97 l
0.14 -0.11 l
236.96 467.42 lineto
0.14 -17.54 l
0.15 3.16 l
0.15 1.45 l
0.14 1.81 l
0.15 1.21 l
0.14 1.21 l
0.15 1.45 l
0.14 0.70 l
0.15 0.38 l
0.14 1.08 l
0.15 1.21 l
0.15 0.86 l
0.14 0.49 l
0.15 0.83 l
0.14 0.24 l
0.15 1.46 l
0.14 0.72 l
0.15 0 l
0.14 0.73 l
0.15 0.35 l
0.15 0.48 l
0.14 0.97 l
0.15 0 l
0.14 1.94 l
0.15 0.11 l
0.14 2.18 l
0.15 0 l
0.15 0 l
0.14 0.97 l
0.15 0.35 l
0.14 0.86 l
0.15 0.11 l
0.14 0.13 l
0.15 -0.24 l
0.14 0.11 l
0.15 0.73 l
0.15 0.48 l
0.14 1.10 l
0.15 0.84 l
0.14 1.32 l
0.15 0.38 l
0.14 0.83 l
0.15 0.62 l
0.14 0.35 l
0.15 -0.35 l
0.15 0.59 l
0.14 0.38 l
0.15 0 l
0.14 0.24 l
0.15 0.49 l
0.14 0.72 l
0.15 -0.62 l
0.14 0.73 l
0.15 0.11 l
0.15 1.34 l
0.14 0.60 l
0.15 0.72 l
0.14 -0.24 l
0.15 1.83 l
0.14 -1.21 l
0.15 0.48 l
0.15 0.35 l
0.14 0.49 l
0.15 0.38 l
0.14 0.35 l
0.15 -0.25 l
0.14 -0.24 l
0.15 0.24 l
0.14 0.84 l
0.15 -0.11 l
0.15 0.35 l
0.14 0.73 l
0.15 0.62 l
0.14 0.59 l
0.15 -0.24 l
0.14 1.10 l
0.15 -0.24 l
0.14 0.59 l
0.15 -0.11 l
0.15 0.11 l
0.14 0.24 l
0.15 0.49 l
0.14 0.24 l
0.15 -0.49 l
0.14 -0.10 l
0.15 0.59 l
0.14 0 l
0.15 0.73 l
0.15 0.72 l
0.14 0.60 l
0.15 0.61 l
0.14 0.11 l
0.15 0.14 l
0.14 0.10 l
0.15 -0.35 l
0.15 0.11 l
0.14 0.49 l
0.15 -0.11 l
0.14 -0.14 l
251.52 499.32 lineto
0.14 -0.62 l
0.15 0 l
0.14 0.62 l
0.15 0.97 l
0.15 -0.49 l
0.14 0.60 l
0.15 0.48 l
0.14 0.24 l
0.15 -0.24 l
0.14 0.24 l
0.15 0 l
0.14 0.14 l
0.15 -0.14 l
0.15 0 l
0.14 0.49 l
0.15 -0.11 l
0.14 0.11 l
0.15 -0.11 l
0.14 0 l
0.15 0.59 l
0.14 -0.13 l
0.15 1.21 l
0.15 -0.59 l
0.14 0.48 l
0.15 0.35 l
0.14 0.24 l
0.15 -0.24 l
0.14 0.24 l
0.15 -0.10 l
0.14 0.24 l
0.15 -0.24 l
0.15 0.35 l
0.14 -0.35 l
0.15 0.10 l
0.14 0.25 l
0.15 -0.11 l
0.14 0.48 l
0.15 -0.62 l
0.15 0.87 l
0.14 -0.14 l
0.15 0 l
0.14 0.62 l
0.15 0.24 l
0.14 0 l
0.15 -0.72 l
0.14 -0.14 l
0.15 0.62 l
0.15 0 l
0.14 -0.13 l
0.15 0.13 l
0.14 0.11 l
0.15 -0.11 l
0.14 -0.38 l
0.15 0.86 l
0.14 -0.13 l
0.15 -0.35 l
0.15 0.11 l
0.14 0.48 l
0.15 0.38 l
0.14 0.24 l
0.15 0.24 l
0.14 0.60 l
0.15 -0.25 l
0.14 -0.72 l
0.15 0.24 l
0.15 0 l
0.14 -0.73 l
0.15 0.24 l
0.14 0.38 l
0.15 -0.13 l
0.14 0 l
0.15 0.37 l
0.15 0.35 l
0.14 0.49 l
0.15 -0.49 l
0.14 0.49 l
0.15 0.11 l
0.14 -0.73 l
0.15 0.24 l
0.14 0.24 l
0.15 -0.70 l
0.15 0.22 l
0.14 0.13 l
0.15 0.11 l
0.14 -0.35 l
0.15 0.24 l
0.14 -0.13 l
0.15 0.24 l
0.14 0 l
0.15 -0.11 l
0.15 0.11 l
0.14 0.24 l
0.15 -0.59 l
0.14 0.97 l
0.15 0.24 l
0.14 0.11 l
0.15 -0.24 l
0.14 -0.24 l
0.15 0.13 l
266.08 507.05 lineto
0.14 0.97 l
0.15 -0.49 l
0.14 0.11 l
0.15 -0.24 l
0.14 -0.35 l
0.15 0.35 l
0.15 -0.35 l
0.14 0.59 l
0.15 0.38 l
0.14 0 l
0.15 -0.38 l
0.14 0.73 l
0.15 -0.60 l
0.14 0.60 l
0.15 -0.84 l
0.15 0 l
0.14 -0.13 l
0.15 -0.11 l
0.14 -0.14 l
0.15 0 l
0.14 0 l
0.15 0 l
0.14 0.97 l
0.15 -0.35 l
0.15 -0.37 l
0.14 0.13 l
0.15 0.24 l
0.14 0.11 l
0.15 0.62 l
0.14 0.11 l
0.15 -0.49 l
0.14 -0.59 l
0.15 0.49 l
0.15 0 l
0.14 -0.38 l
0.15 0.13 l
0.14 0 l
0.15 0 l
0.14 0 l
0.15 -0.24 l
0.15 0.84 l
0.14 -0.49 l
0.15 0.38 l
0.14 -0.14 l
0.15 0.14 l
0.14 0.11 l
0.15 0.24 l
0.14 -0.11 l
0.15 -0.62 l
0.15 0.38 l
0.14 0.11 l
0.15 -0.11 l
0.14 -0.24 l
0.15 -0.14 l
0.14 0 l
0.15 0.14 l
0.14 -0.25 l
0.15 0.11 l
0.15 0.14 l
0.14 0.10 l
0.15 0.49 l
0.14 -0.24 l
0.15 -0.25 l
0.14 0.38 l
0.15 0.24 l
0.14 -0.86 l
0.15 0 l
0.15 0.62 l
0.14 -0.62 l
0.15 0.62 l
0.14 -0.62 l
0.15 0 l
0.14 -0.24 l
0.15 -0.24 l
0.15 0.62 l
0.14 0.35 l
0.15 0.24 l
0.14 -0.24 l
0.15 -0.73 l
0.14 0.73 l
0.15 0.13 l
0.14 -0.48 l
0.15 0.10 l
0.15 -0.10 l
0.14 -0.14 l
0.15 -0.11 l
0.14 0.11 l
0.15 0.38 l
0.14 0.24 l
0.15 -0.48 l
0.14 0 l
0.15 0.24 l
0.15 0.48 l
0.14 -0.24 l
0.15 0.48 l
0.14 -0.61 l
0.15 0 l
0.14 0 l
0.15 0.13 l
280.63 508.26 lineto
0.15 -0.14 l
0.15 0.14 l
0.14 -0.49 l
0.15 -0.24 l
0.14 0.59 l
0.15 -0.48 l
0.14 0.38 l
0.15 -0.14 l
0.15 0.38 l
0.14 0.11 l
0.15 0.13 l
0.14 0.11 l
0.15 -0.73 l
0.14 0.24 l
0.15 -0.24 l
0.14 -0.11 l
0.15 0.11 l
0.15 0.49 l
0.14 0.13 l
0.15 -0.62 l
0.14 0.38 l
0.15 0 l
0.14 0 l
0.15 0.24 l
0.14 -0.62 l
0.15 0.62 l
0.15 0.48 l
0.14 -0.48 l
0.15 -0.38 l
0.14 0.49 l
0.15 -0.59 l
0.14 0.35 l
0.15 -0.35 l
0.14 0.10 l
0.15 0 l
0.15 0.38 l
0.14 -0.24 l
0.15 -0.49 l
0.14 0.11 l
0.15 -0.11 l
0.14 0.60 l
0.15 -0.11 l
0.14 0 l
0.15 0.24 l
0.15 0 l
0.14 -0.24 l
0.15 -0.24 l
0.14 -0.25 l
0.15 0.60 l
0.14 -0.11 l
0.15 -0.73 l
0.15 0.49 l
0.14 -0.25 l
0.15 0 l
0.14 -0.24 l
0.15 0.49 l
0.14 -0.62 l
0.15 -0.25 l
0.14 0.62 l
0.15 -0.13 l
0.15 0.62 l
0.14 0 l
0.15 0.24 l
0.14 0.11 l
0.15 -0.59 l
0.14 0.35 l
0.15 -0.25 l
0.14 0.25 l
0.15 0 l
0.15 0.37 l
0.14 -0.62 l
0.15 -0.24 l
0.14 -0.11 l
0.15 0.25 l
0.14 0 l
0.15 -0.14 l
0.14 0.24 l
0.15 0.25 l
0.15 -0.25 l
0.14 0.25 l
0.15 0.24 l
0.14 -0.24 l
0.15 -0.25 l
0.14 0.49 l
0.15 0.13 l
0.15 -0.37 l
0.14 -0.60 l
0.15 -0.24 l
0.14 -0.24 l
0.15 0.35 l
0.14 -0.11 l
0.15 -0.38 l
0.14 -0.10 l
0.15 0.97 l
0.15 -0.14 l
0.14 0 l
0.15 0.38 l
0.14 -0.14 l
0.15 0.38 l
295.19 508.26 lineto
0.15 -0.14 l
0.14 -0.24 l
0.15 -0.11 l
0.15 0.35 l
0.14 0 l
0.15 -0.24 l
0.14 -0.24 l
0.15 -0.24 l
0.14 0.62 l
0.15 -0.49 l
0.14 0.84 l
0.15 0 l
0.15 0 l
0.14 0.24 l
0.15 0 l
0.14 0 l
0.15 -0.24 l
0.14 -0.60 l
0.15 0 l
0.15 0.49 l
0.14 -0.62 l
0.15 0.13 l
0.14 -0.24 l
0.15 0.24 l
0.14 0 l
0.15 -0.48 l
0.14 0.48 l
0.15 -0.48 l
0.15 0.48 l
0.14 0.11 l
0.15 0.49 l
0.14 -0.35 l
0.15 -0.25 l
0.14 0.73 l
0.15 -0.73 l
0.14 0.11 l
0.15 0 l
0.15 -0.59 l
0.14 0.35 l
0.15 -0.24 l
0.14 -0.25 l
0.15 0.25 l
0.14 0.24 l
0.15 -0.35 l
0.14 0 l
0.15 0.97 l
0.15 -0.24 l
0.14 0 l
0.15 0.24 l
0.14 0.11 l
0.15 -0.25 l
0.14 0.38 l
0.15 -0.24 l
0.15 -0.24 l
0.14 -0.49 l
0.15 0 l
0.14 0.24 l
0.15 0.11 l
0.14 -0.48 l
0.15 -0.11 l
0.14 -0.38 l
0.15 0.97 l
0.15 -0.24 l
0.14 0.62 l
0.15 -0.38 l
0.14 0 l
0.15 0 l
0.14 0.14 l
0.15 0 l
0.14 -0.25 l
0.15 -0.37 l
0.15 0.62 l
0.14 -0.49 l
0.15 0.24 l
0.14 -0.48 l
0.15 0.24 l
0.14 -0.13 l
0.15 -0.49 l
0.14 0.62 l
0.15 0.11 l
0.15 0.13 l
0.14 0 l
0.15 0.60 l
0.14 -0.11 l
0.15 -0.14 l
0.14 -0.35 l
0.15 -0.13 l
0.15 0.73 l
0.14 -0.84 l
0.15 0.35 l
0.14 -0.24 l
0.15 0.24 l
0.14 -0.11 l
0.15 -0.13 l
0.14 -0.11 l
0.15 0.11 l
0.15 0.13 l
0.14 -0.62 l
0.15 0.87 l
309.75 508.26 lineto
0.15 -0.24 l
0.14 -0.25 l
0.15 0.25 l
0.14 -0.25 l
0.15 0 l
0.15 -0.13 l
0.14 0.13 l
0.15 0.11 l
0.14 -0.59 l
0.15 -0.14 l
0.14 -0.10 l
0.15 0 l
0.14 0.35 l
0.15 0 l
0.15 -0.11 l
0.14 0.35 l
0.15 0.62 l
0.14 -0.14 l
0.15 -0.24 l
0.14 0.14 l
0.15 -0.87 l
0.15 0.73 l
0.14 -0.24 l
0.15 0.48 l
0.14 -0.72 l
0.15 0.13 l
0.14 0.24 l
0.15 -0.62 l
0.14 -0.10 l
0.15 0.24 l
0.15 0.35 l
0.14 0.24 l
0.15 0.24 l
0.14 0.49 l
0.15 -0.73 l
0.14 0.73 l
0.15 -1.21 l
0.14 0.48 l
0.15 0 l
0.15 -0.11 l
0.14 -0.37 l
0.15 0.24 l
0.14 -0.11 l
0.15 -0.24 l
0.14 -0.38 l
0.15 0.49 l
0.14 -0.73 l
0.15 0.73 l
0.15 0.24 l
0.14 0.48 l
0.15 -0.35 l
0.14 -0.13 l
0.15 -0.24 l
0.14 0 l
0.15 -0.25 l
0.15 0 l
0.14 0.49 l
0.15 -0.35 l
0.14 0.35 l
0.15 -0.24 l
0.14 -0.49 l
0.15 0.38 l
0.14 0.11 l
0.15 0.13 l
0.15 0.24 l
0.14 0.11 l
0.15 -0.11 l
0.14 0.11 l
0.15 0.86 l
0.14 -0.37 l
0.15 -0.11 l
0.14 0 l
0.15 -0.38 l
0.15 -0.48 l
0.14 0.24 l
0.15 -0.11 l
0.14 0.11 l
0.15 -0.35 l
0.14 -0.38 l
0.15 0.24 l
0.14 0 l
0.15 0.14 l
0.15 0.48 l
0.14 -0.62 l
0.15 0.25 l
0.14 0.24 l
0.15 -0.24 l
0.14 0.37 l
0.15 -0.37 l
0.14 0.24 l
0.15 -0.11 l
0.15 -0.24 l
0.14 0 l
0.15 0 l
0.14 -0.14 l
0.15 -0.70 l
0.14 0.60 l
0.15 0.10 l
0.15 -0.10 l
324.31 508.12 lineto
0.15 -0.59 l
0.14 0.35 l
0.15 0 l
0.14 0.14 l
0.15 -0.25 l
0.14 -0.24 l
0.15 0.11 l
0.15 0.13 l
0.14 -0.24 l
0.15 -0.24 l
0.14 0.48 l
0.15 -0.48 l
0.14 -0.14 l
0.15 0.38 l
0.14 -0.24 l
0.15 -0.24 l
0.15 0.35 l
0.14 -0.25 l
0.15 0.62 l
0.14 0.25 l
0.15 -0.25 l
0.14 0.25 l
0.15 -0.38 l
0.14 -0.49 l
0.15 0.14 l
0.15 -0.24 l
0.14 0.10 l
0.15 -0.24 l
0.14 0.38 l
0.15 -0.24 l
0.14 -0.14 l
0.15 0.14 l
0.15 0.24 l
0.14 -0.24 l
0.15 0.24 l
0.14 -0.24 l
0.15 1.07 l
0.14 0 l
0.15 -0.83 l
0.14 0.24 l
0.15 0.11 l
0.15 0.13 l
0.14 0 l
0.15 -0.13 l
0.14 -0.11 l
0.15 -0.13 l
0.14 -0.25 l
0.15 0.25 l
0.14 0 l
0.15 -0.11 l
0.15 -0.14 l
0.14 0.49 l
0.15 0 l
0.14 -0.24 l
0.15 0.86 l
0.14 -0.38 l
0.15 0 l
0.14 -0.48 l
0.15 0.48 l
0.15 -0.48 l
0.14 -0.35 l
0.15 -0.14 l
0.14 0.49 l
0.15 -0.25 l
0.14 -0.10 l
0.15 -0.14 l
0.15 -0.11 l
0.14 0.25 l
0.15 -0.25 l
0.14 0.84 l
0.15 -0.35 l
0.14 0.59 l
0.15 0.38 l
0.14 -0.73 l
0.15 -0.38 l
0.15 0.62 l
0.14 -0.48 l
0.15 -0.38 l
0.14 0.38 l
0.15 0 l
0.14 -0.38 l
0.15 0.14 l
0.14 0.24 l
0.15 0 l
0.15 -0.24 l
0.14 0.24 l
0.15 0.59 l
0.14 0.49 l
0.15 -0.35 l
0.14 0.10 l
0.15 -0.24 l
0.14 -0.59 l
0.15 0.24 l
0.15 0 l
0.14 -0.48 l
0.15 0.35 l
0.14 0.13 l
0.15 -0.38 l
0.14 -0.48 l
338.87 506.67 lineto
0.15 0.48 l
0.14 -0.35 l
0.15 0.73 l
0.14 -0.13 l
0.15 0.24 l
0.14 0.38 l
0.15 -0.25 l
0.14 0 l
0.15 -0.72 l
0.15 -0.38 l
0.14 0.73 l
0.15 -0.35 l
0.14 -0.38 l
0.15 0.13 l
0.14 0.25 l
0.15 -0.14 l
0.14 0.14 l
0.15 0.35 l
0.15 -0.60 l
0.14 0.60 l
0.15 0.24 l
0.14 0 l
0.15 0.38 l
0.14 -0.14 l
0.15 -0.83 l
0.14 0.48 l
0.15 0 l
0.15 -0.13 l
0.14 0.24 l
0.15 -0.11 l
0.14 -0.24 l
0.15 0.35 l
0.14 -0.49 l
0.15 0.14 l
0.15 -0.24 l
0.14 0.35 l
0.15 0.48 l
0.14 -0.48 l
0.15 -0.11 l
0.14 0.48 l
0.15 0 l
0.14 0.11 l
0.15 -0.35 l
0.15 -0.24 l
0.14 0 l
0.15 -0.38 l
0.14 0.49 l
0.15 -0.60 l
0.14 0.11 l
0.15 -0.35 l
0.14 0.11 l
0.15 0.62 l
0.15 0.11 l
0.14 -0.11 l
0.15 0 l
0.14 1.08 l
0.15 -0.60 l
0.14 0.25 l
0.15 -0.38 l
0.14 -0.24 l
0.15 -0.11 l
0.15 -0.24 l
0.14 0 l
0.15 -0.14 l
0.14 0.62 l
0.15 -0.38 l
0.14 -0.24 l
0.15 0.38 l
0.15 0.35 l
0.14 -0.59 l
0.15 0.24 l
0.14 0.35 l
0.15 0 l
0.14 0 l
0.15 0.13 l
0.14 0.11 l
0.15 -0.35 l
0.15 0 l
0.14 0 l
0.15 -0.73 l
0.14 0.35 l
0.15 -0.24 l
0.14 -0.11 l
0.15 0.25 l
0.14 0.10 l
0.15 -0.10 l
0.15 -0.25 l
0.14 0.49 l
0.15 -0.14 l
0.14 0.62 l
0.15 0.25 l
0.14 -0.62 l
0.15 0.24 l
0.14 -0.24 l
0.15 -0.11 l
0.15 -0.14 l
0.14 0.38 l
0.15 -0.38 l
0.14 -0.10 l
353.43 507.15 lineto
0.14 -0.35 l
0.15 0.49 l
0.14 -0.14 l
0.15 -0.10 l
0.15 0.83 l
0.14 -0.24 l
0.15 -0.11 l
0.14 0.24 l
0.15 -0.24 l
0.14 0 l
0.15 0.24 l
0.15 -0.24 l
0.14 0.11 l
0.15 -0.49 l
0.14 -0.10 l
0.15 0.10 l
0.14 0 l
0.15 -0.35 l
0.14 0 l
0.15 0.35 l
0.15 -0.48 l
0.14 0.73 l
0.15 0.24 l
0.14 0.38 l
0.15 -0.49 l
0.14 0.11 l
0.15 -0.49 l
0.14 0.38 l
0.15 -0.38 l
0.15 0.38 l
0.14 -0.73 l
0.15 0.25 l
0.14 -0.38 l
0.15 0.97 l
0.14 -0.84 l
0.15 0.49 l
0.14 0.11 l
0.15 -0.25 l
0.15 0.14 l
0.14 -0.24 l
0.15 0.10 l
0.14 0.38 l
0.15 0 l
0.14 -0.13 l
0.15 0 l
0.15 0.24 l
0.14 -0.24 l
0.15 -0.11 l
0.14 0.11 l
0.15 -0.11 l
0.14 -0.14 l
0.15 0.49 l
0.14 -0.24 l
0.15 -0.35 l
0.15 0 l
0.14 0.24 l
0.15 0.11 l
0.14 0.48 l
0.15 -0.24 l
0.14 -0.49 l
0.15 0.62 l
0.14 -0.72 l
0.15 0.48 l
0.15 -0.48 l
0.14 -0.14 l
0.15 0.14 l
0.14 -0.38 l
0.15 0.48 l
0.14 -0.48 l
0.15 0.62 l
0.14 -0.38 l
0.15 -0.46 l
0.15 1.19 l
0.14 -0.35 l
0.15 -0.49 l
0.14 0.25 l
0.15 0.10 l
0.14 0 l
0.15 0.38 l
0.15 -0.38 l
0.14 0.25 l
0.15 -0.25 l
0.14 -0.24 l
0.15 0.38 l
0.14 -0.38 l
0.15 0.24 l
0.14 -0.24 l
0.15 0.24 l
0.15 0 l
0.14 -0.24 l
0.15 0.38 l
0.14 0.11 l
0.15 0.24 l
0.14 0.13 l
0.15 0 l
0.14 -0.48 l
0.15 -0.24 l
0.15 -0.25 l
0.14 0 l
currentpoint o m
367.99 507.15 lineto
0.14 0.38 l
0.15 -0.73 l
0.14 0.49 l
0.15 -0.73 l
0.14 0.24 l
0.15 0 l
0.15 0.49 l
0.14 0 l
0.15 0 l
0.14 0 l
0.15 0.35 l
0.14 0.13 l
0.15 -0.13 l
0.15 0.38 l
0.14 -0.97 l
0.15 -0.14 l
0.14 0.14 l
0.15 -0.49 l
0.14 0.11 l
0.15 0.48 l
0.14 -0.35 l
0.15 0.25 l
0.15 0 l
0.14 0.10 l
0.15 0.14 l
0.14 0 l
0.15 0.48 l
0.14 0 l
0.15 -0.37 l
0.14 0.37 l
0.15 -0.24 l
0.15 -0.38 l
0.14 0.25 l
0.15 -0.35 l
0.14 0.59 l
0.15 -0.35 l
0.14 -0.14 l
0.15 0.14 l
0.14 -0.84 l
0.15 0.46 l
0.15 0.24 l
0.14 0.73 l
0.15 -0.48 l
0.14 0 l
0.15 0 l
0.14 -0.11 l
0.15 -0.49 l
0.15 0 l
0.14 0.25 l
0.15 -0.25 l
0.14 0.25 l
0.15 -0.25 l
0.14 -0.24 l
0.15 0 l
0.14 0.24 l
0.15 0.25 l
0.15 -0.14 l
0.14 0.49 l
0.15 0.24 l
0.14 0 l
0.15 0.24 l
0.14 -0.48 l
0.15 -0.11 l
0.14 0 l
0.15 0.48 l
0.15 -0.62 l
0.14 -0.10 l
0.15 0.83 l
0.14 -0.48 l
0.15 0 l
0.14 -0.49 l
0.15 0.14 l
0.14 0.10 l
0.15 0.25 l
0.15 -0.35 l
0.14 0.72 l
0.15 0.11 l
0.14 -0.11 l
0.15 -0.37 l
0.14 0.62 l
0.15 -0.49 l
0.15 -0.86 l
0.14 0.97 l
0.15 -0.73 l
0.14 0.14 l
0.15 -0.14 l
0.14 0 l
0.15 -0.11 l
0.14 -0.59 l
0.15 0.84 l
0.15 0 l
0.14 -0.14 l
0.15 0.14 l
0.14 0.35 l
0.15 -0.73 l
0.14 0.48 l
0.15 0.25 l
0.14 -0.11 l
0.15 -0.24 l
o
/bg { 1 1 1 srgb } def
222.40 511.41 0.43 c p3
222.55 510.79 0.43 c p3
222.69 511.03 0.43 c p3
222.84 511.27 0.43 c p3
222.98 511.03 0.43 c p3
223.13 511.27 0.43 c p3
223.27 510.79 0.43 c p3
223.42 510.55 0.43 c p3
223.56 510.92 0.43 c p3
223.71 511.03 0.43 c p3
223.86 511.03 0.43 c p3
224.00 511.03 0.43 c p3
224.15 510.79 0.43 c p3
224.29 510.44 0.43 c p3
224.44 510.92 0.43 c p3
224.58 510.79 0.43 c p3
224.73 510.55 0.43 c p3
224.87 511.03 0.43 c p3
225.02 511.41 0.43 c p3
225.17 511.17 0.43 c p3
225.31 510.92 0.43 c p3
225.46 510.92 0.43 c p3
225.60 511.03 0.43 c p3
225.75 510.92 0.43 c p3
225.89 511.41 0.43 c p3
226.04 511.52 0.43 c p3
226.19 511.41 0.43 c p3
226.33 511.17 0.43 c p3
226.48 511.03 0.43 c p3
226.62 511.27 0.43 c p3
226.77 511.03 0.43 c p3
226.91 511.03 0.43 c p3
227.06 511.27 0.43 c p3
227.20 511.03 0.43 c p3
227.35 511.41 0.43 c p3
227.50 510.92 0.43 c p3
227.64 511.17 0.43 c p3
227.79 511.27 0.43 c p3
227.93 511.17 0.43 c p3
228.08 510.79 0.43 c p3
228.22 510.79 0.43 c p3
228.37 510.92 0.43 c p3
228.51 510.44 0.43 c p3
228.66 511.03 0.43 c p3
228.81 510.92 0.43 c p3
228.95 510.68 0.43 c p3
229.10 510.44 0.43 c p3
229.24 511.17 0.43 c p3
229.39 510.68 0.43 c p3
229.53 511.17 0.43 c p3
229.68 510.79 0.43 c p3
229.82 511.03 0.43 c p3
229.97 510.68 0.43 c p3
230.12 510.79 0.43 c p3
230.26 510.55 0.43 c p3
230.41 511.27 0.43 c p3
230.55 510.68 0.43 c p3
230.70 510.55 0.43 c p3
230.84 511.17 0.43 c p3
230.99 510.68 0.43 c p3
231.14 510.44 0.43 c p3
231.28 511.03 0.43 c p3
231.43 510.92 0.43 c p3
231.57 511.27 0.43 c p3
231.72 510.92 0.43 c p3
231.86 511.52 0.43 c p3
232.01 511.17 0.43 c p3
232.15 512.00 0.43 c p3
232.30 511.27 0.43 c p3
232.45 510.92 0.43 c p3
232.59 511.87 0.43 c p3
232.74 511.52 0.43 c p3
232.88 510.92 0.43 c p3
233.03 511.27 0.43 c p3
233.17 511.03 0.43 c p3
233.32 510.92 0.43 c p3
233.46 511.17 0.43 c p3
233.61 511.27 0.43 c p3
233.76 511.17 0.43 c p3
233.90 511.17 0.43 c p3
234.05 510.44 0.43 c p3
234.19 510.79 0.43 c p3
234.34 510.68 0.43 c p3
234.48 510.79 0.43 c p3
234.63 511.17 0.43 c p3
234.77 510.92 0.43 c p3
234.92 511.17 0.43 c p3
235.07 511.27 0.43 c p3
235.21 511.27 0.43 c p3
235.36 510.68 0.43 c p3
235.50 510.92 0.43 c p3
235.65 511.03 0.43 c p3
235.79 510.68 0.43 c p3
235.94 510.79 0.43 c p3
236.09 511.17 0.43 c p3
236.23 510.20 0.43 c p3
236.38 511.03 0.43 c p3
236.52 510.06 0.43 c p3
236.67 511.03 0.43 c p3
236.81 510.92 0.43 c p3
236.96 467.42 0.43 c p3
237.10 449.88 0.43 c p3
237.25 453.04 0.43 c p3
237.40 454.49 0.43 c p3
237.54 456.30 0.43 c p3
237.69 457.51 0.43 c p3
237.83 458.72 0.43 c p3
237.98 460.17 0.43 c p3
238.12 460.87 0.43 c p3
238.27 461.25 0.43 c p3
238.41 462.33 0.43 c p3
238.56 463.54 0.43 c p3
238.71 464.40 0.43 c p3
238.85 464.89 0.43 c p3
239.00 465.72 0.43 c p3
239.14 465.96 0.43 c p3
239.29 467.42 0.43 c p3
239.43 468.14 0.43 c p3
239.58 468.14 0.43 c p3
239.72 468.87 0.43 c p3
239.87 469.22 0.43 c p3
240.02 469.70 0.43 c p3
240.16 470.67 0.43 c p3
240.31 470.67 0.43 c p3
240.45 472.61 0.43 c p3
240.60 472.72 0.43 c p3
240.74 474.90 0.43 c p3
240.89 474.90 0.43 c p3
241.04 474.90 0.43 c p3
241.18 475.87 0.43 c p3
241.33 476.22 0.43 c p3
241.47 477.08 0.43 c p3
241.62 477.19 0.43 c p3
241.76 477.32 0.43 c p3
241.91 477.08 0.43 c p3
242.05 477.19 0.43 c p3
242.20 477.92 0.43 c p3
242.35 478.40 0.43 c p3
242.49 479.50 0.43 c p3
242.64 480.34 0.43 c p3
242.78 481.66 0.43 c p3
242.93 482.04 0.43 c p3
243.07 482.87 0.43 c p3
243.22 483.49 0.43 c p3
243.36 483.84 0.43 c p3
243.51 483.49 0.43 c p3
243.66 484.08 0.43 c p3
243.80 484.46 0.43 c p3
243.95 484.46 0.43 c p3
244.09 484.70 0.43 c p3
244.24 485.19 0.43 c p3
244.38 485.91 0.43 c p3
244.53 485.29 0.43 c p3
244.67 486.02 0.43 c p3
244.82 486.13 0.43 c p3
244.97 487.47 0.43 c p3
245.11 488.07 0.43 c p3
245.26 488.79 0.43 c p3
245.40 488.55 0.43 c p3
245.55 490.38 0.43 c p3
245.69 489.17 0.43 c p3
245.84 489.65 0.43 c p3
245.99 490.00 0.43 c p3
246.13 490.49 0.43 c p3
246.28 490.87 0.43 c p3
246.42 491.22 0.43 c p3
246.57 490.97 0.43 c p3
246.71 490.73 0.43 c p3
246.86 490.97 0.43 c p3
247.00 491.81 0.43 c p3
247.15 491.70 0.43 c p3
247.30 492.05 0.43 c p3
247.44 492.78 0.43 c p3
247.59 493.40 0.43 c p3
247.73 493.99 0.43 c p3
247.88 493.75 0.43 c p3
248.02 494.85 0.43 c p3
248.17 494.61 0.43 c p3
248.31 495.20 0.43 c p3
248.46 495.09 0.43 c p3
248.61 495.20 0.43 c p3
248.75 495.44 0.43 c p3
248.90 495.93 0.43 c p3
249.04 496.17 0.43 c p3
249.19 495.68 0.43 c p3
249.33 495.58 0.43 c p3
249.48 496.17 0.43 c p3
249.62 496.17 0.43 c p3
249.77 496.90 0.43 c p3
249.92 497.62 0.43 c p3
250.06 498.22 0.43 c p3
250.21 498.83 0.43 c p3
250.35 498.94 0.43 c p3
250.50 499.08 0.43 c p3
250.64 499.18 0.43 c p3
250.79 498.83 0.43 c p3
250.94 498.94 0.43 c p3
251.08 499.43 0.43 c p3
251.23 499.32 0.43 c p3
251.37 499.18 0.43 c p3
251.52 499.32 0.43 c p3
251.66 498.70 0.43 c p3
251.81 498.70 0.43 c p3
251.95 499.32 0.43 c p3
252.10 500.29 0.43 c p3
252.25 499.80 0.43 c p3
252.39 500.40 0.43 c p3
252.54 500.88 0.43 c p3
252.68 501.12 0.43 c p3
252.83 500.88 0.43 c p3
252.97 501.12 0.43 c p3
253.12 501.12 0.43 c p3
253.26 501.26 0.43 c p3
253.41 501.12 0.43 c p3
253.56 501.12 0.43 c p3
253.70 501.61 0.43 c p3
253.85 501.50 0.43 c p3
253.99 501.61 0.43 c p3
254.14 501.50 0.43 c p3
254.28 501.50 0.43 c p3
254.43 502.09 0.43 c p3
254.57 501.96 0.43 c p3
254.72 503.17 0.43 c p3
254.87 502.58 0.43 c p3
255.01 503.06 0.43 c p3
255.16 503.41 0.43 c p3
255.30 503.65 0.43 c p3
255.45 503.41 0.43 c p3
255.59 503.65 0.43 c p3
255.74 503.55 0.43 c p3
255.88 503.79 0.43 c p3
256.03 503.55 0.43 c p3
256.18 503.90 0.43 c p3
256.32 503.55 0.43 c p3
256.47 503.65 0.43 c p3
256.61 503.90 0.43 c p3
256.76 503.79 0.43 c p3
256.90 504.27 0.43 c p3
257.05 503.65 0.43 c p3
257.20 504.52 0.43 c p3
257.34 504.38 0.43 c p3
257.49 504.38 0.43 c p3
257.63 505.00 0.43 c p3
257.78 505.24 0.43 c p3
257.92 505.24 0.43 c p3
258.07 504.52 0.43 c p3
258.21 504.38 0.43 c p3
258.36 505.00 0.43 c p3
258.51 505.00 0.43 c p3
258.65 504.87 0.43 c p3
258.80 505.00 0.43 c p3
258.94 505.11 0.43 c p3
259.09 505.00 0.43 c p3
259.23 504.62 0.43 c p3
259.38 505.48 0.43 c p3
259.52 505.35 0.43 c p3
259.67 505.00 0.43 c p3
259.82 505.11 0.43 c p3
259.96 505.59 0.43 c p3
260.11 505.97 0.43 c p3
260.25 506.21 0.43 c p3
260.40 506.45 0.43 c p3
260.54 507.05 0.43 c p3
260.69 506.80 0.43 c p3
260.83 506.08 0.43 c p3
260.98 506.32 0.43 c p3
261.13 506.32 0.43 c p3
261.27 505.59 0.43 c p3
261.42 505.83 0.43 c p3
261.56 506.21 0.43 c p3
261.71 506.08 0.43 c p3
261.85 506.08 0.43 c p3
262.00 506.45 0.43 c p3
262.15 506.80 0.43 c p3
262.29 507.29 0.43 c p3
262.44 506.80 0.43 c p3
262.58 507.29 0.43 c p3
262.73 507.40 0.43 c p3
262.87 506.67 0.43 c p3
263.02 506.91 0.43 c p3
263.16 507.15 0.43 c p3
263.31 506.45 0.43 c p3
263.46 506.67 0.43 c p3
263.60 506.80 0.43 c p3
263.75 506.91 0.43 c p3
263.89 506.56 0.43 c p3
264.04 506.80 0.43 c p3
264.18 506.67 0.43 c p3
264.33 506.91 0.43 c p3
264.47 506.91 0.43 c p3
264.62 506.80 0.43 c p3
264.77 506.91 0.43 c p3
264.91 507.15 0.43 c p3
265.06 506.56 0.43 c p3
265.20 507.53 0.43 c p3
265.35 507.77 0.43 c p3
265.49 507.88 0.43 c p3
265.64 507.64 0.43 c p3
265.78 507.40 0.43 c p3
265.93 507.53 0.43 c p3
266.08 507.05 0.43 c p3
266.22 508.02 0.43 c p3
266.37 507.53 0.43 c p3
266.51 507.64 0.43 c p3
266.66 507.40 0.43 c p3
266.80 507.05 0.43 c p3
266.95 507.40 0.43 c p3
267.10 507.05 0.43 c p3
267.24 507.64 0.43 c p3
267.39 508.02 0.43 c p3
267.53 508.02 0.43 c p3
267.68 507.64 0.43 c p3
267.82 508.37 0.43 c p3
267.97 507.77 0.43 c p3
268.11 508.37 0.43 c p3
268.26 507.53 0.43 c p3
268.41 507.53 0.43 c p3
268.55 507.40 0.43 c p3
268.70 507.29 0.43 c p3
268.84 507.15 0.43 c p3
268.99 507.15 0.43 c p3
269.13 507.15 0.43 c p3
269.28 507.15 0.43 c p3
269.42 508.12 0.43 c p3
269.57 507.77 0.43 c p3
269.72 507.40 0.43 c p3
269.86 507.53 0.43 c p3
270.01 507.77 0.43 c p3
270.15 507.88 0.43 c p3
270.30 508.50 0.43 c p3
270.44 508.61 0.43 c p3
270.59 508.12 0.43 c p3
270.73 507.53 0.43 c p3
270.88 508.02 0.43 c p3
271.03 508.02 0.43 c p3
271.17 507.64 0.43 c p3
271.32 507.77 0.43 c p3
271.46 507.77 0.43 c p3
271.61 507.77 0.43 c p3
271.75 507.77 0.43 c p3
271.90 507.53 0.43 c p3
272.05 508.37 0.43 c p3
272.19 507.88 0.43 c p3
272.34 508.26 0.43 c p3
272.48 508.12 0.43 c p3
272.63 508.26 0.43 c p3
272.77 508.37 0.43 c p3
272.92 508.61 0.43 c p3
273.06 508.50 0.43 c p3
273.21 507.88 0.43 c p3
273.36 508.26 0.43 c p3
273.50 508.37 0.43 c p3
273.65 508.26 0.43 c p3
273.79 508.02 0.43 c p3
273.94 507.88 0.43 c p3
274.08 507.88 0.43 c p3
274.23 508.02 0.43 c p3
274.37 507.77 0.43 c p3
274.52 507.88 0.43 c p3
274.67 508.02 0.43 c p3
274.81 508.12 0.43 c p3
274.96 508.61 0.43 c p3
275.10 508.37 0.43 c p3
275.25 508.12 0.43 c p3
275.39 508.50 0.43 c p3
275.54 508.74 0.43 c p3
275.68 507.88 0.43 c p3
275.83 507.88 0.43 c p3
275.98 508.50 0.43 c p3
276.12 507.88 0.43 c p3
276.27 508.50 0.43 c p3
276.41 507.88 0.43 c p3
276.56 507.88 0.43 c p3
276.70 507.64 0.43 c p3
276.85 507.40 0.43 c p3
277.00 508.02 0.43 c p3
277.14 508.37 0.43 c p3
277.29 508.61 0.43 c p3
277.43 508.37 0.43 c p3
277.58 507.64 0.43 c p3
277.72 508.37 0.43 c p3
277.87 508.50 0.43 c p3
278.01 508.02 0.43 c p3
278.16 508.12 0.43 c p3
278.31 508.02 0.43 c p3
278.45 507.88 0.43 c p3
278.60 507.77 0.43 c p3
278.74 507.88 0.43 c p3
278.89 508.26 0.43 c p3
279.03 508.50 0.43 c p3
279.18 508.02 0.43 c p3
279.32 508.02 0.43 c p3
279.47 508.26 0.43 c p3
279.62 508.74 0.43 c p3
279.76 508.50 0.43 c p3
279.91 508.98 0.43 c p3
280.05 508.37 0.43 c p3
280.20 508.37 0.43 c p3
280.34 508.37 0.43 c p3
280.49 508.50 0.43 c p3
280.63 508.26 0.43 c p3
280.78 508.12 0.43 c p3
280.93 508.26 0.43 c p3
281.07 507.77 0.43 c p3
281.22 507.53 0.43 c p3
281.36 508.12 0.43 c p3
281.51 507.64 0.43 c p3
281.65 508.02 0.43 c p3
281.80 507.88 0.43 c p3
281.95 508.26 0.43 c p3
282.09 508.37 0.43 c p3
282.24 508.50 0.43 c p3
282.38 508.61 0.43 c p3
282.53 507.88 0.43 c p3
282.67 508.12 0.43 c p3
282.82 507.88 0.43 c p3
282.96 507.77 0.43 c p3
283.11 507.88 0.43 c p3
283.26 508.37 0.43 c p3
283.40 508.50 0.43 c p3
283.55 507.88 0.43 c p3
283.69 508.26 0.43 c p3
283.84 508.26 0.43 c p3
283.98 508.26 0.43 c p3
284.13 508.50 0.43 c p3
284.27 507.88 0.43 c p3
284.42 508.50 0.43 c p3
284.57 508.98 0.43 c p3
284.71 508.50 0.43 c p3
284.86 508.12 0.43 c p3
285.00 508.61 0.43 c p3
285.15 508.02 0.43 c p3
285.29 508.37 0.43 c p3
285.44 508.02 0.43 c p3
285.58 508.12 0.43 c p3
285.73 508.12 0.43 c p3
285.88 508.50 0.43 c p3
286.02 508.26 0.43 c p3
286.17 507.77 0.43 c p3
286.31 507.88 0.43 c p3
286.46 507.77 0.43 c p3
286.60 508.37 0.43 c p3
286.75 508.26 0.43 c p3
286.89 508.26 0.43 c p3
287.04 508.50 0.43 c p3
287.19 508.50 0.43 c p3
287.33 508.26 0.43 c p3
287.48 508.02 0.43 c p3
287.62 507.77 0.43 c p3
287.77 508.37 0.43 c p3
287.91 508.26 0.43 c p3
288.06 507.53 0.43 c p3
288.21 508.02 0.43 c p3
288.35 507.77 0.43 c p3
288.50 507.77 0.43 c p3
288.64 507.53 0.43 c p3
288.79 508.02 0.43 c p3
288.93 507.40 0.43 c p3
289.08 507.15 0.43 c p3
289.22 507.77 0.43 c p3
289.37 507.64 0.43 c p3
289.52 508.26 0.43 c p3
289.66 508.26 0.43 c p3
289.81 508.50 0.43 c p3
289.95 508.61 0.43 c p3
290.10 508.02 0.43 c p3
290.24 508.37 0.43 c p3
290.39 508.12 0.43 c p3
290.53 508.37 0.43 c p3
290.68 508.37 0.43 c p3
290.83 508.74 0.43 c p3
290.97 508.12 0.43 c p3
291.12 507.88 0.43 c p3
291.26 507.77 0.43 c p3
291.41 508.02 0.43 c p3
291.55 508.02 0.43 c p3
291.70 507.88 0.43 c p3
291.84 508.12 0.43 c p3
291.99 508.37 0.43 c p3
292.14 508.12 0.43 c p3
292.28 508.37 0.43 c p3
292.43 508.61 0.43 c p3
292.57 508.37 0.43 c p3
292.72 508.12 0.43 c p3
292.86 508.61 0.43 c p3
293.01 508.74 0.43 c p3
293.16 508.37 0.43 c p3
293.30 507.77 0.43 c p3
293.45 507.53 0.43 c p3
293.59 507.29 0.43 c p3
293.74 507.64 0.43 c p3
293.88 507.53 0.43 c p3
294.03 507.15 0.43 c p3
294.17 507.05 0.43 c p3
294.32 508.02 0.43 c p3
294.47 507.88 0.43 c p3
294.61 507.88 0.43 c p3
294.76 508.26 0.43 c p3
294.90 508.12 0.43 c p3
295.05 508.50 0.43 c p3
295.19 508.26 0.43 c p3
295.34 508.12 0.43 c p3
295.48 507.88 0.43 c p3
295.63 507.77 0.43 c p3
295.78 508.12 0.43 c p3
295.92 508.12 0.43 c p3
296.07 507.88 0.43 c p3
296.21 507.64 0.43 c p3
296.36 507.40 0.43 c p3
296.50 508.02 0.43 c p3
296.65 507.53 0.43 c p3
296.79 508.37 0.43 c p3
296.94 508.37 0.43 c p3
297.09 508.37 0.43 c p3
297.23 508.61 0.43 c p3
297.38 508.61 0.43 c p3
297.52 508.61 0.43 c p3
297.67 508.37 0.43 c p3
297.81 507.77 0.43 c p3
297.96 507.77 0.43 c p3
298.11 508.26 0.43 c p3
298.25 507.64 0.43 c p3
298.40 507.77 0.43 c p3
298.54 507.53 0.43 c p3
298.69 507.77 0.43 c p3
298.83 507.77 0.43 c p3
298.98 507.29 0.43 c p3
299.12 507.77 0.43 c p3
299.27 507.29 0.43 c p3
299.42 507.77 0.43 c p3
299.56 507.88 0.43 c p3
299.71 508.37 0.43 c p3
299.85 508.02 0.43 c p3
300.00 507.77 0.43 c p3
300.14 508.50 0.43 c p3
300.29 507.77 0.43 c p3
300.43 507.88 0.43 c p3
300.58 507.88 0.43 c p3
300.73 507.29 0.43 c p3
300.87 507.64 0.43 c p3
301.02 507.40 0.43 c p3
301.16 507.15 0.43 c p3
301.31 507.40 0.43 c p3
301.45 507.64 0.43 c p3
301.60 507.29 0.43 c p3
301.74 507.29 0.43 c p3
301.89 508.26 0.43 c p3
302.04 508.02 0.43 c p3
302.18 508.02 0.43 c p3
302.33 508.26 0.43 c p3
302.47 508.37 0.43 c p3
302.62 508.12 0.43 c p3
302.76 508.50 0.43 c p3
302.91 508.26 0.43 c p3
303.06 508.02 0.43 c p3
303.20 507.53 0.43 c p3
303.35 507.53 0.43 c p3
303.49 507.77 0.43 c p3
303.64 507.88 0.43 c p3
303.78 507.40 0.43 c p3
303.93 507.29 0.43 c p3
304.07 506.91 0.43 c p3
304.22 507.88 0.43 c p3
304.37 507.64 0.43 c p3
304.51 508.26 0.43 c p3
304.66 507.88 0.43 c p3
304.80 507.88 0.43 c p3
304.95 507.88 0.43 c p3
305.09 508.02 0.43 c p3
305.24 508.02 0.43 c p3
305.38 507.77 0.43 c p3
305.53 507.40 0.43 c p3
305.68 508.02 0.43 c p3
305.82 507.53 0.43 c p3
305.97 507.77 0.43 c p3
306.11 507.29 0.43 c p3
306.26 507.53 0.43 c p3
306.40 507.40 0.43 c p3
306.55 506.91 0.43 c p3
306.69 507.53 0.43 c p3
306.84 507.64 0.43 c p3
306.99 507.77 0.43 c p3
307.13 507.77 0.43 c p3
307.28 508.37 0.43 c p3
307.42 508.26 0.43 c p3
307.57 508.12 0.43 c p3
307.71 507.77 0.43 c p3
307.86 507.64 0.43 c p3
308.01 508.37 0.43 c p3
308.15 507.53 0.43 c p3
308.30 507.88 0.43 c p3
308.44 507.64 0.43 c p3
308.59 507.88 0.43 c p3
308.73 507.77 0.43 c p3
308.88 507.64 0.43 c p3
309.02 507.53 0.43 c p3
309.17 507.64 0.43 c p3
309.32 507.77 0.43 c p3
309.46 507.15 0.43 c p3
309.61 508.02 0.43 c p3
309.75 508.26 0.43 c p3
309.90 508.02 0.43 c p3
310.04 507.77 0.43 c p3
310.19 508.02 0.43 c p3
310.33 507.77 0.43 c p3
310.48 507.77 0.43 c p3
310.63 507.64 0.43 c p3
310.77 507.77 0.43 c p3
310.92 507.88 0.43 c p3
311.06 507.29 0.43 c p3
311.21 507.15 0.43 c p3
311.35 507.05 0.43 c p3
311.50 507.05 0.43 c p3
311.64 507.40 0.43 c p3
311.79 507.40 0.43 c p3
311.94 507.29 0.43 c p3
312.08 507.64 0.43 c p3
312.23 508.26 0.43 c p3
312.37 508.12 0.43 c p3
312.52 507.88 0.43 c p3
312.66 508.02 0.43 c p3
312.81 507.15 0.43 c p3
312.96 507.88 0.43 c p3
313.10 507.64 0.43 c p3
313.25 508.12 0.43 c p3
313.39 507.40 0.43 c p3
313.54 507.53 0.43 c p3
313.68 507.77 0.43 c p3
313.83 507.15 0.43 c p3
313.97 507.05 0.43 c p3
314.12 507.29 0.43 c p3
314.27 507.64 0.43 c p3
314.41 507.88 0.43 c p3
314.56 508.12 0.43 c p3
314.70 508.61 0.43 c p3
314.85 507.88 0.43 c p3
314.99 508.61 0.43 c p3
315.14 507.40 0.43 c p3
315.28 507.88 0.43 c p3
315.43 507.88 0.43 c p3
315.58 507.77 0.43 c p3
315.72 507.40 0.43 c p3
315.87 507.64 0.43 c p3
316.01 507.53 0.43 c p3
316.16 507.29 0.43 c p3
316.30 506.91 0.43 c p3
316.45 507.40 0.43 c p3
316.59 506.67 0.43 c p3
316.74 507.40 0.43 c p3
316.89 507.64 0.43 c p3
317.03 508.12 0.43 c p3
317.18 507.77 0.43 c p3
317.32 507.64 0.43 c p3
317.47 507.40 0.43 c p3
317.61 507.40 0.43 c p3
317.76 507.15 0.43 c p3
317.91 507.15 0.43 c p3
318.05 507.64 0.43 c p3
318.20 507.29 0.43 c p3
318.34 507.64 0.43 c p3
318.49 507.40 0.43 c p3
318.63 506.91 0.43 c p3
318.78 507.29 0.43 c p3
318.92 507.40 0.43 c p3
319.07 507.53 0.43 c p3
319.22 507.77 0.43 c p3
319.36 507.88 0.43 c p3
319.51 507.77 0.43 c p3
319.65 507.88 0.43 c p3
319.80 508.74 0.43 c p3
319.94 508.37 0.43 c p3
320.09 508.26 0.43 c p3
320.23 508.26 0.43 c p3
320.38 507.88 0.43 c p3
320.53 507.40 0.43 c p3
320.67 507.64 0.43 c p3
320.82 507.53 0.43 c p3
320.96 507.64 0.43 c p3
321.11 507.29 0.43 c p3
321.25 506.91 0.43 c p3
321.40 507.15 0.43 c p3
321.54 507.15 0.43 c p3
321.69 507.29 0.43 c p3
321.84 507.77 0.43 c p3
321.98 507.15 0.43 c p3
322.13 507.40 0.43 c p3
322.27 507.64 0.43 c p3
322.42 507.40 0.43 c p3
322.56 507.77 0.43 c p3
322.71 507.40 0.43 c p3
322.85 507.64 0.43 c p3
323.00 507.53 0.43 c p3
323.15 507.29 0.43 c p3
323.29 507.29 0.43 c p3
323.44 507.29 0.43 c p3
323.58 507.15 0.43 c p3
323.73 506.45 0.43 c p3
323.87 507.05 0.43 c p3
324.02 507.15 0.43 c p3
324.17 507.05 0.43 c p3
324.31 508.12 0.43 c p3
324.46 507.53 0.43 c p3
324.60 507.88 0.43 c p3
324.75 507.88 0.43 c p3
324.89 508.02 0.43 c p3
325.04 507.77 0.43 c p3
325.18 507.53 0.43 c p3
325.33 507.64 0.43 c p3
325.48 507.77 0.43 c p3
325.62 507.53 0.43 c p3
325.77 507.29 0.43 c p3
325.91 507.77 0.43 c p3
326.06 507.29 0.43 c p3
326.20 507.15 0.43 c p3
326.35 507.53 0.43 c p3
326.49 507.29 0.43 c p3
326.64 507.05 0.43 c p3
326.79 507.40 0.43 c p3
326.93 507.15 0.43 c p3
327.08 507.77 0.43 c p3
327.22 508.02 0.43 c p3
327.37 507.77 0.43 c p3
327.51 508.02 0.43 c p3
327.66 507.64 0.43 c p3
327.80 507.15 0.43 c p3
327.95 507.29 0.43 c p3
328.10 507.05 0.43 c p3
328.24 507.15 0.43 c p3
328.39 506.91 0.43 c p3
328.53 507.29 0.43 c p3
328.68 507.05 0.43 c p3
328.82 506.91 0.43 c p3
328.97 507.05 0.43 c p3
329.12 507.29 0.43 c p3
329.26 507.05 0.43 c p3
329.41 507.29 0.43 c p3
329.55 507.05 0.43 c p3
329.70 508.12 0.43 c p3
329.84 508.12 0.43 c p3
329.99 507.29 0.43 c p3
330.13 507.53 0.43 c p3
330.28 507.64 0.43 c p3
330.43 507.77 0.43 c p3
330.57 507.77 0.43 c p3
330.72 507.64 0.43 c p3
330.86 507.53 0.43 c p3
331.01 507.40 0.43 c p3
331.15 507.15 0.43 c p3
331.30 507.40 0.43 c p3
331.44 507.40 0.43 c p3
331.59 507.29 0.43 c p3
331.74 507.15 0.43 c p3
331.88 507.64 0.43 c p3
332.03 507.64 0.43 c p3
332.17 507.40 0.43 c p3
332.32 508.26 0.43 c p3
332.46 507.88 0.43 c p3
332.61 507.88 0.43 c p3
332.75 507.40 0.43 c p3
332.90 507.88 0.43 c p3
333.05 507.40 0.43 c p3
333.19 507.05 0.43 c p3
333.34 506.91 0.43 c p3
333.48 507.40 0.43 c p3
333.63 507.15 0.43 c p3
333.77 507.05 0.43 c p3
333.92 506.91 0.43 c p3
334.07 506.80 0.43 c p3
334.21 507.05 0.43 c p3
334.36 506.80 0.43 c p3
334.50 507.64 0.43 c p3
334.65 507.29 0.43 c p3
334.79 507.88 0.43 c p3
334.94 508.26 0.43 c p3
335.08 507.53 0.43 c p3
335.23 507.15 0.43 c p3
335.38 507.77 0.43 c p3
335.52 507.29 0.43 c p3
335.67 506.91 0.43 c p3
335.81 507.29 0.43 c p3
335.96 507.29 0.43 c p3
336.10 506.91 0.43 c p3
336.25 507.05 0.43 c p3
336.39 507.29 0.43 c p3
336.54 507.29 0.43 c p3
336.69 507.05 0.43 c p3
336.83 507.29 0.43 c p3
336.98 507.88 0.43 c p3
337.12 508.37 0.43 c p3
337.27 508.02 0.43 c p3
337.41 508.12 0.43 c p3
337.56 507.88 0.43 c p3
337.70 507.29 0.43 c p3
337.85 507.53 0.43 c p3
338.00 507.53 0.43 c p3
338.14 507.05 0.43 c p3
338.29 507.40 0.43 c p3
338.43 507.53 0.43 c p3
338.58 507.15 0.43 c p3
338.72 506.67 0.43 c p3
338.87 506.67 0.43 c p3
339.02 507.15 0.43 c p3
339.16 506.80 0.43 c p3
339.31 507.53 0.43 c p3
339.45 507.40 0.43 c p3
339.60 507.64 0.43 c p3
339.74 508.02 0.43 c p3
339.89 507.77 0.43 c p3
340.03 507.77 0.43 c p3
340.18 507.05 0.43 c p3
340.33 506.67 0.43 c p3
340.47 507.40 0.43 c p3
340.62 507.05 0.43 c p3
340.76 506.67 0.43 c p3
340.91 506.80 0.43 c p3
341.05 507.05 0.43 c p3
341.20 506.91 0.43 c p3
341.34 507.05 0.43 c p3
341.49 507.40 0.43 c p3
341.64 506.80 0.43 c p3
341.78 507.40 0.43 c p3
341.93 507.64 0.43 c p3
342.07 507.64 0.43 c p3
342.22 508.02 0.43 c p3
342.36 507.88 0.43 c p3
342.51 507.05 0.43 c p3
342.65 507.53 0.43 c p3
342.80 507.53 0.43 c p3
342.95 507.40 0.43 c p3
343.09 507.64 0.43 c p3
343.24 507.53 0.43 c p3
343.38 507.29 0.43 c p3
343.53 507.64 0.43 c p3
343.67 507.15 0.43 c p3
343.82 507.29 0.43 c p3
343.97 507.05 0.43 c p3
344.11 507.40 0.43 c p3
344.26 507.88 0.43 c p3
344.40 507.40 0.43 c p3
344.55 507.29 0.43 c p3
344.69 507.77 0.43 c p3
344.84 507.77 0.43 c p3
344.98 507.88 0.43 c p3
345.13 507.53 0.43 c p3
345.28 507.29 0.43 c p3
345.42 507.29 0.43 c p3
345.57 506.91 0.43 c p3
345.71 507.40 0.43 c p3
345.86 506.80 0.43 c p3
346.00 506.91 0.43 c p3
346.15 506.56 0.43 c p3
346.29 506.67 0.43 c p3
346.44 507.29 0.43 c p3
346.59 507.40 0.43 c p3
346.73 507.29 0.43 c p3
346.88 507.29 0.43 c p3
347.02 508.37 0.43 c p3
347.17 507.77 0.43 c p3
347.31 508.02 0.43 c p3
347.46 507.64 0.43 c p3
347.60 507.40 0.43 c p3
347.75 507.29 0.43 c p3
347.90 507.05 0.43 c p3
348.04 507.05 0.43 c p3
348.19 506.91 0.43 c p3
348.33 507.53 0.43 c p3
348.48 507.15 0.43 c p3
348.62 506.91 0.43 c p3
348.77 507.29 0.43 c p3
348.92 507.64 0.43 c p3
349.06 507.05 0.43 c p3
349.21 507.29 0.43 c p3
349.35 507.64 0.43 c p3
349.50 507.64 0.43 c p3
349.64 507.64 0.43 c p3
349.79 507.77 0.43 c p3
349.93 507.88 0.43 c p3
350.08 507.53 0.43 c p3
350.23 507.53 0.43 c p3
350.37 507.53 0.43 c p3
350.52 506.80 0.43 c p3
350.66 507.15 0.43 c p3
350.81 506.91 0.43 c p3
350.95 506.80 0.43 c p3
351.10 507.05 0.43 c p3
351.24 507.15 0.43 c p3
351.39 507.05 0.43 c p3
351.54 506.80 0.43 c p3
351.68 507.29 0.43 c p3
351.83 507.15 0.43 c p3
351.97 507.77 0.43 c p3
352.12 508.02 0.43 c p3
352.26 507.40 0.43 c p3
352.41 507.64 0.43 c p3
352.55 507.40 0.43 c p3
352.70 507.29 0.43 c p3
352.85 507.15 0.43 c p3
352.99 507.53 0.43 c p3
353.14 507.15 0.43 c p3
353.28 507.05 0.43 c p3
353.43 507.15 0.43 c p3
353.57 506.80 0.43 c p3
353.72 507.29 0.43 c p3
353.86 507.15 0.43 c p3
354.01 507.05 0.43 c p3
354.16 507.88 0.43 c p3
354.30 507.64 0.43 c p3
354.45 507.53 0.43 c p3
354.59 507.77 0.43 c p3
354.74 507.53 0.43 c p3
354.88 507.53 0.43 c p3
355.03 507.77 0.43 c p3
355.18 507.53 0.43 c p3
355.32 507.64 0.43 c p3
355.47 507.15 0.43 c p3
355.61 507.05 0.43 c p3
355.76 507.15 0.43 c p3
355.90 507.15 0.43 c p3
356.05 506.80 0.43 c p3
356.19 506.80 0.43 c p3
356.34 507.15 0.43 c p3
356.49 506.67 0.43 c p3
356.63 507.40 0.43 c p3
356.78 507.64 0.43 c p3
356.92 508.02 0.43 c p3
357.07 507.53 0.43 c p3
357.21 507.64 0.43 c p3
357.36 507.15 0.43 c p3
357.50 507.53 0.43 c p3
357.65 507.15 0.43 c p3
357.80 507.53 0.43 c p3
357.94 506.80 0.43 c p3
358.09 507.05 0.43 c p3
358.23 506.67 0.43 c p3
358.38 507.64 0.43 c p3
358.52 506.80 0.43 c p3
358.67 507.29 0.43 c p3
358.81 507.40 0.43 c p3
358.96 507.15 0.43 c p3
359.11 507.29 0.43 c p3
359.25 507.05 0.43 c p3
359.40 507.15 0.43 c p3
359.54 507.53 0.43 c p3
359.69 507.53 0.43 c p3
359.83 507.40 0.43 c p3
359.98 507.40 0.43 c p3
360.13 507.64 0.43 c p3
360.27 507.40 0.43 c p3
360.42 507.29 0.43 c p3
360.56 507.40 0.43 c p3
360.71 507.29 0.43 c p3
360.85 507.15 0.43 c p3
361.00 507.64 0.43 c p3
361.14 507.40 0.43 c p3
361.29 507.05 0.43 c p3
361.44 507.05 0.43 c p3
361.58 507.29 0.43 c p3
361.73 507.40 0.43 c p3
361.87 507.88 0.43 c p3
362.02 507.64 0.43 c p3
362.16 507.15 0.43 c p3
362.31 507.77 0.43 c p3
362.45 507.05 0.43 c p3
362.60 507.53 0.43 c p3
362.75 507.05 0.43 c p3
362.89 506.91 0.43 c p3
363.04 507.05 0.43 c p3
363.18 506.67 0.43 c p3
363.33 507.15 0.43 c p3
363.47 506.67 0.43 c p3
363.62 507.29 0.43 c p3
363.76 506.91 0.43 c p3
363.91 506.45 0.43 c p3
364.06 507.64 0.43 c p3
364.20 507.29 0.43 c p3
364.35 506.80 0.43 c p3
364.49 507.05 0.43 c p3
364.64 507.15 0.43 c p3
364.78 507.15 0.43 c p3
364.93 507.53 0.43 c p3
365.08 507.15 0.43 c p3
365.22 507.40 0.43 c p3
365.37 507.15 0.43 c p3
365.51 506.91 0.43 c p3
365.66 507.29 0.43 c p3
365.80 506.91 0.43 c p3
365.95 507.15 0.43 c p3
366.09 506.91 0.43 c p3
366.24 507.15 0.43 c p3
366.39 507.15 0.43 c p3
366.53 506.91 0.43 c p3
366.68 507.29 0.43 c p3
366.82 507.40 0.43 c p3
366.97 507.64 0.43 c p3
367.11 507.77 0.43 c p3
367.26 507.77 0.43 c p3
367.40 507.29 0.43 c p3
367.55 507.05 0.43 c p3
367.70 506.80 0.43 c p3
367.84 506.80 0.43 c p3
367.99 507.15 0.43 c p3
368.13 507.53 0.43 c p3
368.28 506.80 0.43 c p3
368.42 507.29 0.43 c p3
368.57 506.56 0.43 c p3
368.71 506.80 0.43 c p3
368.86 506.80 0.43 c p3
369.01 507.29 0.43 c p3
369.15 507.29 0.43 c p3
369.30 507.29 0.43 c p3
369.44 507.29 0.43 c p3
369.59 507.64 0.43 c p3
369.73 507.77 0.43 c p3
369.88 507.64 0.43 c p3
370.03 508.02 0.43 c p3
370.17 507.05 0.43 c p3
370.32 506.91 0.43 c p3
370.46 507.05 0.43 c p3
370.61 506.56 0.43 c p3
370.75 506.67 0.43 c p3
370.90 507.15 0.43 c p3
371.04 506.80 0.43 c p3
371.19 507.05 0.43 c p3
371.34 507.05 0.43 c p3
371.48 507.15 0.43 c p3
371.63 507.29 0.43 c p3
371.77 507.29 0.43 c p3
371.92 507.77 0.43 c p3
372.06 507.77 0.43 c p3
372.21 507.40 0.43 c p3
372.35 507.77 0.43 c p3
372.50 507.53 0.43 c p3
372.65 507.15 0.43 c p3
372.79 507.40 0.43 c p3
372.94 507.05 0.43 c p3
373.08 507.64 0.43 c p3
373.23 507.29 0.43 c p3
373.37 507.15 0.43 c p3
373.52 507.29 0.43 c p3
373.66 506.45 0.43 c p3
373.81 506.91 0.43 c p3
373.96 507.15 0.43 c p3
374.10 507.88 0.43 c p3
374.25 507.40 0.43 c p3
374.39 507.40 0.43 c p3
374.54 507.40 0.43 c p3
374.68 507.29 0.43 c p3
374.83 506.80 0.43 c p3
374.98 506.80 0.43 c p3
375.12 507.05 0.43 c p3
375.27 506.80 0.43 c p3
375.41 507.05 0.43 c p3
375.56 506.80 0.43 c p3
375.70 506.56 0.43 c p3
375.85 506.56 0.43 c p3
375.99 506.80 0.43 c p3
376.14 507.05 0.43 c p3
376.29 506.91 0.43 c p3
376.43 507.40 0.43 c p3
376.58 507.64 0.43 c p3
376.72 507.64 0.43 c p3
376.87 507.88 0.43 c p3
377.01 507.40 0.43 c p3
377.16 507.29 0.43 c p3
377.30 507.29 0.43 c p3
377.45 507.77 0.43 c p3
377.60 507.15 0.43 c p3
377.74 507.05 0.43 c p3
377.89 507.88 0.43 c p3
378.03 507.40 0.43 c p3
378.18 507.40 0.43 c p3
378.32 506.91 0.43 c p3
378.47 507.05 0.43 c p3
378.61 507.15 0.43 c p3
378.76 507.40 0.43 c p3
378.91 507.05 0.43 c p3
379.05 507.77 0.43 c p3
379.20 507.88 0.43 c p3
379.34 507.77 0.43 c p3
379.49 507.40 0.43 c p3
379.63 508.02 0.43 c p3
379.78 507.53 0.43 c p3
379.93 506.67 0.43 c p3
380.07 507.64 0.43 c p3
380.22 506.91 0.43 c p3
380.36 507.05 0.43 c p3
380.51 506.91 0.43 c p3
380.65 506.91 0.43 c p3
380.80 506.80 0.43 c p3
380.94 506.21 0.43 c p3
381.09 507.05 0.43 c p3
381.24 507.05 0.43 c p3
381.38 506.91 0.43 c p3
381.53 507.05 0.43 c p3
381.67 507.40 0.43 c p3
381.82 506.67 0.43 c p3
381.96 507.15 0.43 c p3
382.11 507.40 0.43 c p3
382.25 507.29 0.43 c p3
382.40 507.05 0.43 c p3
0.00 0.00 432.00 576.00 cl
0 0 0 srgb
0.75 setlinewidth
[] 0 setdash
1 setlinecap
1 setlinejoin
10.00 setmiterlimit
np
236.96 345.60 m
145.59 0 l
o
np
236.96 345.60 m
0 -5.76 l
o
np
266.08 345.60 m
0 -5.76 l
o
np
295.19 345.60 m
0 -5.76 l
o
np
324.31 345.60 m
0 -5.76 l
o
np
353.43 345.60 m
0 -5.76 l
o
np
382.55 345.60 m
0 -5.76 l
o
/Font1 findfont 10 s
236.96 329.47 (0) .5 0 t
266.08 329.47 (100) .5 0 t
295.19 329.47 (200) .5 0 t
324.31 329.47 (300) .5 0 t
353.43 329.47 (400) .5 0 t
382.55 329.47 (500) .5 0 t
np
216.00 352.00 m
0 165.41 l
o
np
216.00 352.00 m
-5.76 0 l
o
np
216.00 407.14 m
-5.76 0 l
o
np
216.00 462.27 m
-5.76 0 l
o
np
216.00 517.41 m
-5.76 0 l
o
209.09 348.41 (0.0) 1 0 t
209.09 403.55 (0.5) 1 0 t
209.09 458.68 (1.0) 1 0 t
209.09 513.82 (1.5) 1 0 t
np
216.00 345.60 m
172.80 0 l
0 172.80 l
-172.80 0 l
0 -172.80 l
o
0.00 0.00 432.00 576.00 cl
/Font1 findfont 10 s
0 0 0 srgb
302.40 313.34 (Zeit / ms \(total\)) .5 0 t
190.66 432.00 (U / V) .5 90 t
216.00 345.60 388.80 518.40 cl
0 0 0 srgb
0.38 setlinewidth
[ 1.12 1.88] 0 setdash
1 setlinecap
1 setlinejoin
10.00 setmiterlimit
np
222.84 345.60 m
0 172.80 l
o
np
234.63 345.60 m
0 172.80 l
o
np
239.43 345.60 m
0 172.80 l
o
np
271.03 345.60 m
0 172.80 l
o
86.40 57.60 388.80 288.00 cl
1 0 0 srgb
1.50 setlinewidth
[] 0 setdash
1 setlinecap
1 setlinejoin
10.00 setmiterlimit
np
97.60 279.47 m
1.41 -19.05 l
1.40 -17.28 l
1.41 -15.70 l
1.41 -14.24 l
1.41 -12.94 l
1.40 -11.74 l
1.41 -10.66 l
1.41 -9.67 l
1.40 -8.79 l
1.41 -7.97 l
1.41 -7.24 l
1.40 -6.57 l
1.41 -5.96 l
1.41 -5.42 l
1.41 -4.92 l
1.40 -4.46 l
1.41 -4.05 l
1.41 -3.68 l
1.40 -3.34 l
1.41 -3.03 l
1.41 -2.75 l
1.40 -2.50 l
1.41 -2.26 l
1.41 -2.06 l
1.41 -1.87 l
1.40 -1.70 l
1.41 -1.54 l
1.41 -1.39 l
1.40 -1.27 l
1.41 -1.16 l
1.41 -1.04 l
1.41 -0.95 l
1.40 -0.86 l
1.41 -0.79 l
1.41 -0.71 l
1.40 -0.64 l
1.41 -0.59 l
1.41 -0.53 l
1.40 -0.48 l
1.41 -0.44 l
1.41 -0.39 l
1.41 -0.37 l
1.40 -0.32 l
1.41 -0.30 l
1.41 -0.27 l
1.40 -0.25 l
1.41 -0.22 l
1.41 -0.20 l
1.40 -0.18 l
1.41 -0.17 l
1.41 -0.15 l
1.41 -0.14 l
1.40 -0.12 l
1.41 -0.12 l
1.41 -0.10 l
1.40 -0.09 l
1.41 -0.09 l
1.41 -0.07 l
1.41 -0.07 l
1.40 -0.07 l
1.41 -0.05 l
1.41 -0.06 l
1.40 -0.04 l
1.41 -0.05 l
1.41 -0.03 l
1.40 -0.04 l
1.41 -0.03 l
1.41 -0.03 l
1.41 -0.03 l
1.40 -0.02 l
1.41 -0.02 l
1.41 -0.02 l
1.40 -0.02 l
1.41 -0.02 l
1.41 -0.01 l
1.40 -0.02 l
1.41 -0.01 l
1.41 -0.01 l
1.41 -0.01 l
1.40 -0.01 l
1.41 -0.01 l
1.41 0 l
1.40 -0.01 l
1.41 -0.01 l
1.41 0 l
1.41 -0.01 l
1.40 0 l
1.41 -0.01 l
1.41 0 l
1.40 0 l
1.41 -0.01 l
1.41 0 l
1.40 0 l
1.41 -0.01 l
1.41 0 l
1.41 0 l
1.40 0 l
1.41 0 l
1.41 0 l
238.30 72.93 lineto
1.41 0 l
1.41 0 l
1.40 0 l
1.41 0 l
1.41 0 l
1.41 0 l
1.40 0 l
1.41 0 l
1.41 0 l
1.40 0 l
1.41 0 l
1.41 0 l
1.40 -0.01 l
1.41 0 l
1.41 0 l
1.41 0 l
1.40 0 l
1.41 0 l
1.41 0 l
1.40 0 l
1.41 0 l
1.41 0 l
1.41 0 l
1.40 0 l
1.41 0 l
1.41 0 l
1.40 0 l
1.41 0 l
1.41 0 l
1.40 0 l
1.41 0 l
1.41 0 l
1.41 0 l
1.40 0 l
1.41 0 l
1.41 0 l
1.40 0 l
1.41 0 l
1.41 0 l
1.40 0 l
1.41 0 l
1.41 0 l
1.41 0 l
1.40 0 l
1.41 0 l
1.41 0 l
1.40 0 l
1.41 0 l
1.41 0 l
1.41 0 l
1.40 0 l
1.41 0 l
1.41 0 l
1.40 0 l
1.41 0 l
1.41 0 l
1.40 0 l
1.41 0 l
1.41 0 l
1.41 0 l
1.40 0 l
1.41 0 l
1.41 0 l
1.40 0 l
1.41 0 l
1.41 0 l
1.40 0 l
1.41 0 l
1.41 0 l
1.41 0 l
1.40 0 l
1.41 0 l
1.41 0 l
1.40 0 l
1.41 0 l
1.41 0 l
1.41 0 l
1.40 0 l
1.41 0 l
1.41 0 l
1.40 0 l
1.41 0 l
1.41 0 l
1.40 0 l
1.41 0 l
1.41 0 l
1.41 0 l
1.40 0 l
1.41 0 l
1.41 0 l
1.40 0 l
1.41 0 l
1.41 0 l
1.40 0 l
1.41 0 l
1.41 0 l
1.41 0 l
1.40 0 l
1.41 0 l
o
0.00 0.00 432.00 576.00 cl
0 0 0 srgb
0.75 setlinewidth
[] 0 setdash
1 setlinecap
1 setlinejoin
10.00 setmiterlimit
np
97.60 57.60 m
280.00 0 l
o
np
97.60 57.60 m
0 -5.76 l
o
np
153.60 57.60 m
0 -5.76 l
o
np
209.60 57.60 m
0 -5.76 l
o
np
265.60 57.60 m
0 -5.76 l
o
np
321.60 57.60 m
0 -5.76 l
o
np
377.60 57.60 m
0 -5.76 l
o
/Font1 findfont 10 s
97.60 41.47 (0) .5 0 t
153.60 41.47 (100) .5 0 t
209.60 41.47 (200) .5 0 t
265.60 41.47 (300) .5 0 t
321.60 41.47 (400) .5 0 t
377.60 41.47 (500) .5 0 t
np
86.40 66.13 m
0 221.44 l
o
np
86.40 66.13 m
-5.76 0 l
o
np
86.40 121.49 m
-5.76 0 l
o
np
86.40 176.85 m
-5.76 0 l
o
np
86.40 232.21 m
-5.76 0 l
o
np
86.40 287.57 m
-5.76 0 l
o
79.49 62.54 (0.00) 1 0 t
79.49 117.90 (0.05) 1 0 t
79.49 173.26 (0.10) 1 0 t
79.49 228.62 (0.15) 1 0 t
79.49 283.98 (0.20) 1 0 t
np
86.40 57.60 m
302.40 0 l
0 230.40 l
-302.40 0 l
0 -230.40 l
o
0.00 0.00 432.00 576.00 cl
/Font1 findfont 10 s
0 0 0 srgb
237.60 13.82 (Zeit / ms \(nach Puls\)) .5 0 t
49.54 172.80 (Absorbanz A) .5 90 t
86.40 57.60 388.80 288.00 cl
/bg { 1 1 1 srgb } def
0 0 0 srgb
0.75 setlinewidth
[] 0 setdash
1 setlinecap
1 setlinejoin
10.00 setmiterlimit
102.64 217.18 0.65 c p3
102.92 217.18 0.65 c p3
103.20 214.18 0.65 c p3
103.48 212.74 0.65 c p3
103.76 210.76 0.65 c p3
104.04 206.82 0.65 c p3
104.32 206.82 0.65 c p3
104.60 199.03 0.65 c p3
104.88 198.60 0.65 c p3
105.16 189.99 0.65 c p3
105.44 189.99 0.65 c p3
105.72 189.99 0.65 c p3
106.00 186.21 0.65 c p3
106.28 184.86 0.65 c p3
106.56 181.53 0.65 c p3
106.84 181.12 0.65 c p3
107.12 180.60 0.65 c p3
107.40 181.53 0.65 c p3
107.68 181.12 0.65 c p3
107.96 178.33 0.65 c p3
108.24 176.49 0.65 c p3
108.52 172.31 0.65 c p3
108.80 169.17 0.65 c p3
109.08 164.25 0.65 c p3
109.36 162.86 0.65 c p3
109.64 159.78 0.65 c p3
109.92 157.51 0.65 c p3
110.20 156.23 0.65 c p3
110.48 157.51 0.65 c p3
110.76 155.35 0.65 c p3
111.04 153.98 0.65 c p3
111.32 153.98 0.65 c p3
111.60 153.10 0.65 c p3
111.88 151.35 0.65 c p3
112.16 148.73 0.65 c p3
112.44 150.96 0.65 c p3
112.72 148.34 0.65 c p3
113.00 147.96 0.65 c p3
113.28 143.16 0.65 c p3
113.56 141.06 0.65 c p3
113.84 138.50 0.65 c p3
114.12 139.35 0.65 c p3
114.40 132.95 0.65 c p3
114.68 137.17 0.65 c p3
114.96 135.48 0.65 c p3
115.24 134.26 0.65 c p3
115.52 132.57 0.65 c p3
115.80 131.26 0.65 c p3
116.08 130.05 0.65 c p3
116.36 130.89 0.65 c p3
116.64 131.73 0.65 c p3
116.92 130.89 0.65 c p3
117.20 128.01 0.65 c p3
117.48 128.38 0.65 c p3
117.76 127.18 0.65 c p3
118.04 124.69 0.65 c p3
118.32 122.58 0.65 c p3
118.60 120.57 0.65 c p3
118.88 121.39 0.65 c p3
119.16 117.66 0.65 c p3
119.44 118.48 0.65 c p3
119.72 116.48 0.65 c p3
120.00 116.85 0.65 c p3
120.28 116.48 0.65 c p3
120.56 115.67 0.65 c p3
120.84 114.05 0.65 c p3
121.12 113.24 0.65 c p3
121.40 114.86 0.65 c p3
121.68 115.22 0.65 c p3
121.96 113.24 0.65 c p3
122.24 113.24 0.65 c p3
122.52 110.82 0.65 c p3
122.80 108.42 0.65 c p3
123.08 106.47 0.65 c p3
123.36 104.43 0.65 c p3
123.64 104.08 0.65 c p3
123.92 103.64 0.65 c p3
124.20 103.29 0.65 c p3
124.48 104.43 0.65 c p3
124.76 104.08 0.65 c p3
125.04 102.50 0.65 c p3
125.32 102.85 0.65 c p3
125.60 103.29 0.65 c p3
125.88 102.85 0.65 c p3
126.16 104.87 0.65 c p3
126.44 104.87 0.65 c p3
126.72 102.85 0.65 c p3
127.00 99.70 0.65 c p3
127.28 101.27 0.65 c p3
127.56 99.35 0.65 c p3
127.84 97.78 0.65 c p3
128.12 97.00 0.65 c p3
128.40 97.78 0.65 c p3
128.68 97.00 0.65 c p3
128.96 97.00 0.65 c p3
129.24 96.56 0.65 c p3
129.52 97.00 0.65 c p3
129.80 97.00 0.65 c p3
130.08 95.44 0.65 c p3
130.36 95.78 0.65 c p3
130.64 95.44 0.65 c p3
130.92 95.78 0.65 c p3
131.20 95.78 0.65 c p3
131.48 93.88 0.65 c p3
131.76 94.31 0.65 c p3
132.04 90.44 0.65 c p3
132.32 92.33 0.65 c p3
132.60 90.79 0.65 c p3
132.88 89.67 0.65 c p3
133.16 88.91 0.65 c p3
133.44 89.67 0.65 c p3
133.72 88.91 0.65 c p3
134.00 89.25 0.65 c p3
134.28 88.48 0.65 c p3
134.56 89.25 0.65 c p3
134.84 88.14 0.65 c p3
135.12 89.25 0.65 c p3
135.40 88.91 0.65 c p3
135.68 88.14 0.65 c p3
135.96 88.48 0.65 c p3
136.24 86.95 0.65 c p3
136.52 88.91 0.65 c p3
136.80 86.18 0.65 c p3
137.08 86.61 0.65 c p3
137.36 86.61 0.65 c p3
137.64 84.66 0.65 c p3
137.92 83.90 0.65 c p3
138.20 83.90 0.65 c p3
138.48 86.18 0.65 c p3
138.76 86.61 0.65 c p3
139.04 84.66 0.65 c p3
139.32 84.66 0.65 c p3
139.60 85.08 0.65 c p3
139.88 84.66 0.65 c p3
140.16 84.32 0.65 c p3
140.44 84.66 0.65 c p3
140.72 85.84 0.65 c p3
141.00 83.14 0.65 c p3
141.28 83.56 0.65 c p3
141.56 84.66 0.65 c p3
141.84 84.32 0.65 c p3
142.12 82.80 0.65 c p3
142.40 81.62 0.65 c p3
142.68 80.86 0.65 c p3
142.96 80.11 0.65 c p3
143.24 78.27 0.65 c p3
143.52 79.02 0.65 c p3
143.80 81.28 0.65 c p3
144.08 80.53 0.65 c p3
144.36 80.53 0.65 c p3
144.64 82.80 0.65 c p3
144.92 82.04 0.65 c p3
145.20 80.86 0.65 c p3
145.48 81.28 0.65 c p3
145.76 81.28 0.65 c p3
146.04 80.11 0.65 c p3
146.32 79.02 0.65 c p3
146.60 77.52 0.65 c p3
146.88 79.02 0.65 c p3
147.16 77.52 0.65 c p3
147.44 77.18 0.65 c p3
147.72 79.44 0.65 c p3
148.00 78.69 0.65 c p3
148.28 77.93 0.65 c p3
148.56 80.11 0.65 c p3
148.84 79.44 0.65 c p3
149.12 79.02 0.65 c p3
149.40 78.69 0.65 c p3
149.68 79.77 0.65 c p3
149.96 79.02 0.65 c p3
150.24 79.44 0.65 c p3
150.52 78.69 0.65 c p3
150.80 78.69 0.65 c p3
151.08 79.02 0.65 c p3
151.36 78.69 0.65 c p3
151.64 77.93 0.65 c p3
151.92 79.77 0.65 c p3
152.20 76.77 0.65 c p3
152.48 76.02 0.65 c p3
152.76 75.69 0.65 c p3
153.04 76.44 0.65 c p3
153.32 77.18 0.65 c p3
153.60 76.77 0.65 c p3
153.88 78.27 0.65 c p3
154.16 75.27 0.65 c p3
154.44 76.77 0.65 c p3
154.72 76.44 0.65 c p3
155.00 77.18 0.65 c p3
155.28 78.27 0.65 c p3
155.56 77.18 0.65 c p3
155.84 78.27 0.65 c p3
156.12 76.44 0.65 c p3
156.40 75.27 0.65 c p3
156.68 75.27 0.65 c p3
156.96 76.44 0.65 c p3
157.24 74.19 0.65 c p3
157.52 76.02 0.65 c p3
157.80 74.19 0.65 c p3
158.08 76.77 0.65 c p3
158.36 76.77 0.65 c p3
158.64 77.18 0.65 c p3
158.92 77.52 0.65 c p3
159.20 77.93 0.65 c p3
159.48 77.93 0.65 c p3
159.76 77.93 0.65 c p3
160.04 77.93 0.65 c p3
160.32 74.94 0.65 c p3
160.60 76.02 0.65 c p3
160.88 77.18 0.65 c p3
161.16 76.77 0.65 c p3
161.44 76.02 0.65 c p3
161.72 75.69 0.65 c p3
162.00 73.78 0.65 c p3
162.28 73.45 0.65 c p3
162.56 74.94 0.65 c p3
162.84 76.77 0.65 c p3
163.12 75.27 0.65 c p3
163.40 75.27 0.65 c p3
216.00 201.60 367.20 247.68 cl
0 0 0 srgb
0.75 setlinewidth
[] 0 setdash
1 setlinecap
1 setlinejoin
10.00 setmiterlimit
221.60 220.19 0.43 c p1
222.25 227.07 0.43 c p1
222.89 226.41 0.43 c p1
223.54 229.47 0.43 c p1
224.18 231.06 0.43 c p1
224.83 227.69 0.43 c p1
225.47 233.94 0.43 c p1
226.12 220.83 0.43 c p1
226.76 225.78 0.43 c p1
227.41 210.42 0.43 c p1
228.05 216.20 0.43 c p1
228.70 221.87 0.43 c p1
229.34 218.11 0.43 c p1
229.99 220.22 0.43 c p1
230.63 217.36 0.43 c p1
231.28 221.59 0.43 c p1
231.92 225.47 0.43 c p1
232.57 232.82 0.43 c p1
233.21 236.76 0.43 c p1
233.86 234.74 0.43 c p1
234.50 234.95 0.43 c p1
235.15 229.31 0.43 c p1
235.79 226.15 0.43 c p1
236.44 218.51 0.43 c p1
237.08 219.48 0.43 c p1
237.73 216.22 0.43 c p1
238.37 214.87 0.43 c p1
239.02 215.88 0.43 c p1
239.66 223.12 0.43 c p1
240.31 221.80 0.43 c p1
240.95 222.35 0.43 c p1
241.60 226.21 0.43 c p1
242.25 227.82 0.43 c p1
242.89 227.21 0.43 c p1
243.54 224.39 0.43 c p1
244.18 233.47 0.43 c p1
244.83 230.51 0.43 c p1
245.47 233.00 0.43 c p1
246.12 224.52 0.43 c p1
246.76 222.65 0.43 c p1
247.41 219.57 0.43 c p1
248.05 224.85 0.43 c p1
248.70 212.17 0.43 c p1
249.34 225.67 0.43 c p1
249.99 224.49 0.43 c p1
250.63 224.42 0.43 c p1
251.28 223.15 0.43 c p1
251.92 222.76 0.43 c p1
252.57 222.55 0.43 c p1
253.21 227.35 0.43 c p1
253.86 232.10 0.43 c p1
254.50 232.65 0.43 c p1
255.15 228.12 0.43 c p1
255.79 231.56 0.43 c p1
256.44 231.07 0.43 c p1
257.08 227.36 0.43 c p1
257.73 224.53 0.43 c p1
258.37 221.91 0.43 c p1
259.02 226.23 0.43 c p1
259.66 219.27 0.43 c p1
260.31 223.50 0.43 c p1
260.95 220.74 0.43 c p1
261.60 223.76 0.43 c p1
262.25 224.95 0.43 c p1
262.89 224.99 0.43 c p1
263.54 222.99 0.43 c p1
264.18 222.96 0.43 c p1
264.83 228.89 0.43 c p1
265.47 231.67 0.43 c p1
266.12 228.64 0.43 c p1
266.76 230.46 0.43 c p1
267.41 226.28 0.43 c p1
268.05 222.09 0.43 c p1
268.70 218.99 0.43 c p1
269.34 215.66 0.43 c p1
269.99 216.45 0.43 c p1
270.63 216.98 0.43 c p1
271.28 217.70 0.43 c p1
271.92 222.09 0.43 c p1
272.57 222.75 0.43 c p1
273.21 220.35 0.43 c p1
273.86 222.69 0.43 c p1
274.50 225.22 0.43 c p1
275.15 225.55 0.43 c p1
275.79 231.95 0.43 c p1
276.44 233.31 0.43 c p1
277.08 229.65 0.43 c p1
277.73 223.18 0.43 c p1
278.37 228.35 0.43 c p1
279.02 224.87 0.43 c p1
279.66 222.24 0.43 c p1
280.31 221.52 0.43 c p1
280.95 224.65 0.43 c p1
281.60 223.89 0.43 c p1
282.25 225.03 0.43 c p1
282.89 225.09 0.43 c p1
283.54 227.26 0.43 c p1
284.18 228.35 0.43 c p1
284.83 225.56 0.43 c p1
285.47 227.45 0.43 c p1
286.12 227.62 0.43 c p1
286.76 229.48 0.43 c p1
287.41 230.46 0.43 c p1
288.05 226.73 0.43 c p1
288.70 228.75 0.43 c p1
289.34 220.12 0.43 c p1
289.99 225.69 0.43 c p1
290.63 222.77 0.43 c p1
291.28 220.90 0.43 c p1
291.92 219.86 0.43 c p1
292.57 222.61 0.43 c p1
293.21 221.53 0.43 c p1
293.86 223.19 0.43 c p1
294.50 222.09 0.43 c p1
295.15 224.77 0.43 c p1
295.79 222.79 0.43 c p1
296.44 226.28 0.43 c p1
297.08 226.18 0.43 c p1
297.73 225.01 0.43 c p1
298.37 226.56 0.43 c p1
299.02 223.47 0.43 c p1
299.66 228.99 0.43 c p1
300.31 222.93 0.43 c p1
300.95 224.64 0.43 c p1
301.60 225.28 0.43 c p1
302.25 221.10 0.43 c p1
302.89 219.84 0.43 c p1
303.54 220.45 0.43 c p1
304.18 226.69 0.43 c p1
304.83 228.32 0.43 c p1
305.47 224.08 0.43 c p1
306.12 224.65 0.43 c p1
306.76 226.24 0.43 c p1
307.41 225.74 0.43 c p1
308.05 225.44 0.43 c p1
308.70 226.79 0.43 c p1
309.34 230.23 0.43 c p1
309.99 224.05 0.43 c p1
310.63 225.59 0.43 c p1
311.28 228.78 0.43 c p1
311.92 228.42 0.43 c p1
312.57 225.13 0.43 c p1
313.21 222.68 0.43 c p1
313.86 221.26 0.43 c p1
314.50 219.83 0.43 c p1
315.15 215.72 0.43 c p1
315.79 218.00 0.43 c p1
316.44 224.00 0.43 c p1
317.08 222.54 0.43 c p1
317.73 222.94 0.43 c p1
318.37 228.93 0.43 c p1
319.02 227.44 0.43 c p1
319.66 224.92 0.43 c p1
320.31 226.32 0.43 c p1
320.95 226.68 0.43 c p1
321.60 224.14 0.43 c p1
322.25 221.80 0.43 c p1
322.89 218.43 0.43 c p1
323.54 222.47 0.43 c p1
324.18 219.09 0.43 c p1
324.83 218.59 0.43 c p1
325.47 224.47 0.43 c p1
326.12 222.92 0.43 c p1
326.76 221.37 0.43 c p1
327.41 227.04 0.43 c p1
328.05 225.68 0.43 c p1
328.70 224.93 0.43 c p1
329.34 224.39 0.43 c p1
329.99 227.35 0.43 c p1
330.63 225.76 0.43 c p1
331.28 227.06 0.43 c p1
331.92 225.46 0.43 c p1
332.57 225.72 0.43 c p1
333.21 226.79 0.43 c p1
333.86 226.21 0.43 c p1
334.50 224.60 0.43 c p1
335.15 229.38 0.43 c p1
335.79 222.19 0.43 c p1
336.44 220.57 0.43 c p1
337.08 219.97 0.43 c p1
337.73 222.04 0.43 c p1
338.37 224.10 0.43 c p1
339.02 223.29 0.43 c p1
339.66 227.20 0.43 c p1
340.31 220.00 0.43 c p1
340.95 223.89 0.43 c p1
341.60 223.27 0.43 c p1
342.25 225.31 0.43 c p1
342.89 228.17 0.43 c p1
343.54 225.68 0.43 c p1
344.18 228.54 0.43 c p1
344.83 224.19 0.43 c p1
345.47 221.49 0.43 c p1
346.12 221.66 0.43 c p1
346.76 224.70 0.43 c p1
347.41 219.33 0.43 c p1
348.05 224.00 0.43 c p1
348.70 219.65 0.43 c p1
349.34 226.16 0.43 c p1
349.99 226.31 0.43 c p1
350.63 227.49 0.43 c p1
351.28 228.46 0.43 c p1
351.92 229.63 0.43 c p1
352.57 229.77 0.43 c p1
353.21 229.91 0.43 c p1
353.86 230.05 0.43 c p1
354.50 222.79 0.43 c p1
355.15 225.58 0.43 c p1
355.79 228.59 0.43 c p1
356.44 227.68 0.43 c p1
357.08 225.96 0.43 c p1
357.73 225.26 0.43 c p1
358.37 220.67 0.43 c p1
359.02 219.97 0.43 c p1
359.66 223.76 0.43 c p1
360.31 228.39 0.43 c p1
360.95 224.80 0.43 c p1
361.60 224.91 0.43 c p1
0.00 0.00 432.00 576.00 cl
0 0 0 srgb
0.75 setlinewidth
[] 0 setdash
1 setlinecap
1 setlinejoin
10.00 setmiterlimit
np
235.79 201.60 m
129.04 0 l
o
np
235.79 201.60 m
0 -5.76 l
o
np
261.60 201.60 m
0 -5.76 l
o
np
287.41 201.60 m
0 -5.76 l
o
np
313.21 201.60 m
0 -5.76 l
o
np
339.02 201.60 m
0 -5.76 l
o
np
364.83 201.60 m
0 -5.76 l
o
/Font1 findfont 6 s
235.79 185.47 (20) .5 0 t
261.60 185.47 (40) .5 0 t
287.41 185.47 (60) .5 0 t
313.21 185.47 (80) .5 0 t
339.02 185.47 (100) .5 0 t
364.83 185.47 (120) .5 0 t
np
216.00 210.97 m
0 27.34 l
o
np
216.00 210.97 m
-5.76 0 l
o
np
216.00 224.64 m
-5.76 0 l
o
np
216.00 238.31 m
-5.76 0 l
o
209.09 208.82 (-0.005) 1 0 t
209.09 222.49 (0.000) 1 0 t
209.09 236.15 (0.005) 1 0 t
np
216.00 201.60 m
151.20 0 l
0 46.08 l
-151.20 0 l
0 -46.08 l
o
0.00 0.00 432.00 576.00 cl
/Font1 findfont 9 s
0 0 0 srgb
291.60 262.88 (Residuen) .5 0 t
59.04 73.44 401.76 516.96 cl
ep
%%Trailer
%%Pages: 1
%%EOF
