%!PS-Adobe-3.0 EPSF-3.0
%%DocumentNeededResources: font Helvetica
%%+ font Helvetica-Bold
%%+ font Helvetica-Oblique
%%+ font Helvetica-BoldOblique
%%+ font Symbol
%%Title: R Graphics Output
%%Creator: R Software
%%Pages: (atend)
%%BoundingBox: 0 0 432 576
%%EndComments
%%BeginProlog
/bp  { gs sRGB gs } def
% begin .ps.prolog
/gs  { gsave } bind def
/gr  { grestore } bind def
/ep  { showpage gr gr } bind def
/m   { moveto } bind def
/l  { rlineto } bind def
/np  { newpath } bind def
/cp  { closepath } bind def
/f   { fill } bind def
/o   { stroke } bind def
/c   { newpath 0 360 arc } bind def
/r   { 4 2 roll moveto 1 copy 3 -1 roll exch 0 exch rlineto 0 rlineto -1 mul 0 exch rlineto closepath } bind def
/p1  { stroke } bind def
/p2  { gsave bg fill grestore newpath } bind def
/p3  { gsave bg fill grestore stroke } bind def
/p6  { gsave bg eofill grestore newpath } bind def
/p7  { gsave bg eofill grestore stroke } bind def
/t   { 5 -2 roll moveto gsave rotate
       1 index stringwidth pop
       mul neg 0 rmoveto show grestore } bind def
/ta  { 4 -2 roll moveto gsave rotate show } bind def
/tb  { 2 -1 roll 0 rmoveto show } bind def
/cl  { grestore gsave newpath 3 index 3 index moveto 1 index
       4 -1 roll lineto  exch 1 index lineto lineto
       closepath clip newpath } bind def
/rgb { setrgbcolor } bind def
/s   { scalefont setfont } bind def
% end   .ps.prolog
/sRGB { [ /CIEBasedABC
          << /DecodeLMN
               [ { dup 0.03928 le
                        {12.92321 div}
                        {0.055 add 1.055 div 2.4 exp }
                     ifelse
                 } bind dup dup
               ]
             /MatrixLMN [0.412457 0.212673 0.019334
                         0.357576 0.715152 0.119192
                         0.180437 0.072175 0.950301]
             /WhitePoint [0.9505 1.0 1.0890]
           >>
         ] setcolorspace } bind def
/srgb { setcolor } bind def
%%IncludeResource: font Helvetica
/Helvetica findfont
dup length dict begin
  {1 index /FID ne {def} {pop pop} ifelse} forall
  /Encoding ISOLatin1Encoding def
  currentdict
  end
/Font1 exch definefont pop
%%IncludeResource: font Helvetica-Bold
/Helvetica-Bold findfont
dup length dict begin
  {1 index /FID ne {def} {pop pop} ifelse} forall
  /Encoding ISOLatin1Encoding def
  currentdict
  end
/Font2 exch definefont pop
%%IncludeResource: font Helvetica-Oblique
/Helvetica-Oblique findfont
dup length dict begin
  {1 index /FID ne {def} {pop pop} ifelse} forall
  /Encoding ISOLatin1Encoding def
  currentdict
  end
/Font3 exch definefont pop
%%IncludeResource: font Helvetica-BoldOblique
/Helvetica-BoldOblique findfont
dup length dict begin
  {1 index /FID ne {def} {pop pop} ifelse} forall
  /Encoding ISOLatin1Encoding def
  currentdict
  end
/Font4 exch definefont pop
%%IncludeResource: font Symbol
/Symbol findfont
dup length dict begin
  {1 index /FID ne {def} {pop pop} ifelse} forall
  currentdict
  end
/Font5 exch definefont pop
%%EndProlog
%%Page: 1 1
bp
0.00 0.00 432.00 576.00 cl
0.00 0.00 432.00 576.00 cl
0.00 0.00 432.00 576.00 cl
/Font1 findfont 12 s
0 0 0 srgb
48.00 508.72 (PCP-ETH) 0 0 t
48.00 494.89 (Blitzlicht-Photolyse) 0 0 t
/Font1 findfont 9 s
48.00 457.54 (File: Dy) 0 ta
-0.180 (e_1_2_V1_900V) tb
-1.125 (.dat) tb gr
48.00 334.87 (T) 0 ta
-1.080 (ue Apr  9 22:08:02 2019) tb gr
48.00 430.87 (Fitfunktion:  a + b * e) 0 ta
-0.270 (xp\(-c * t\)) tb gr
48.00 420.50 (t-Inter) 0 ta
0.270 (v) tb
-0.225 (all: 150.000 ... 7090.000 ms) tb gr
48.00 410.14 (P) 0 ta
-0.360 (ar) tb
-0.090 (ameter \(Standardabw) tb
-0.090 (eichung\):) tb gr
48.00 399.77 (  a = -0.00103 \(0.00021\)) 0 0 t
48.00 389.40 (  b = 0.43029 \(0.00086\)) 0 0 t
48.00 379.03 (  c = 9.080e-01 \(2.947e-03\) s^-1) 0 0 t
48.00 368.66 (  tau = 1.101e+00 \(3.574e-03\) s) 0 0 t
216.00 345.60 388.80 518.40 cl
0 0 0 srgb
0.75 setlinewidth
[] 0 setdash
1 setlinecap
1 setlinejoin
10.00 setmiterlimit
np
222.40 507.28 m
0.15 0.51 l
0.14 -0.27 l
0.15 0 l
0.14 -0.78 l
0.15 1.05 l
0.14 -0.39 l
0.15 -0.39 l
0.14 0.51 l
0.15 0.15 l
0.15 -0.81 l
0.14 0.66 l
0.15 -0.78 l
0.14 0.66 l
0.15 -0.54 l
0.14 0.42 l
0.15 -0.81 l
0.14 1.05 l
0.15 -0.12 l
0.15 0.27 l
0.14 -0.81 l
0.15 0.66 l
0.14 -1.20 l
0.15 1.08 l
0.14 -0.54 l
0.15 0.15 l
0.15 0.27 l
0.14 0.24 l
0.15 -1.32 l
0.14 0.93 l
0.15 0.15 l
0.14 0.66 l
0.15 -1.35 l
0.14 1.20 l
0.15 -0.78 l
0.15 -0.42 l
0.14 0.54 l
0.15 0.15 l
0.14 -0.42 l
0.15 0.66 l
0.14 -1.05 l
0.15 0.93 l
0.14 -0.12 l
0.15 0 l
0.15 -0.81 l
0.14 0.66 l
0.15 0.15 l
0.14 0.39 l
0.15 -1.20 l
0.14 0.66 l
0.15 -0.27 l
0.14 0 l
0.15 0 l
0.15 0.27 l
0.14 0.15 l
0.15 -0.42 l
0.14 -0.12 l
0.15 0.54 l
0.14 -0.15 l
0.15 -0.54 l
0.15 -0.12 l
0.14 1.20 l
0.15 -1.08 l
0.14 1.08 l
0.15 -0.39 l
0.14 -0.69 l
0.15 -0.12 l
0.14 0.39 l
0.15 0.27 l
0.15 -0.27 l
0.14 -0.12 l
0.15 0.93 l
0.14 -1.08 l
0.15 0.42 l
0.14 -0.54 l
0.15 1.05 l
0.14 -0.24 l
0.15 0.12 l
0.15 -0.39 l
0.14 0 l
0.15 -0.15 l
0.14 0.15 l
0.15 -0.54 l
0.14 0.81 l
0.15 -0.42 l
0.14 0.15 l
0.15 -0.15 l
0.15 0.54 l
0.14 -1.20 l
0.15 1.32 l
0.14 -1.47 l
0.15 0.54 l
0.14 0 l
0.15 0.93 l
0.15 -0.66 l
0.14 0 l
0.15 0.15 l
0.14 -0.54 l
0.15 0.12 l
0.14 0.69 l
236.96 401.11 lineto
0.14 2.02 l
0.15 0.56 l
0.15 1.74 l
0.14 0.27 l
0.15 0.94 l
0.14 1.89 l
0.15 -0.12 l
0.14 1.59 l
0.15 0 l
0.14 1.08 l
0.15 1.09 l
0.15 0.27 l
0.14 1.62 l
0.15 0.15 l
0.14 1.32 l
0.15 0.69 l
0.14 0.12 l
0.15 0.96 l
0.14 0.94 l
0.15 0.69 l
0.15 1.08 l
0.14 -0.27 l
0.15 1.47 l
0.14 0 l
0.15 1.35 l
0.14 0.39 l
0.15 0 l
0.15 0.55 l
0.14 0.96 l
0.15 0.12 l
0.14 1.77 l
0.15 -0.27 l
0.14 1.05 l
0.15 0.27 l
0.14 1.50 l
0.15 -0.54 l
0.15 1.63 l
0.14 -1.09 l
0.15 0.55 l
0.14 0.93 l
0.15 0.81 l
0.14 0.54 l
0.15 0.54 l
0.14 0.39 l
0.15 0.42 l
0.15 0.27 l
0.14 1.20 l
0.15 -0.12 l
0.14 1.21 l
0.15 -0.12 l
0.14 0.66 l
0.15 0.69 l
0.14 0.27 l
0.15 0.81 l
0.15 0.27 l
0.14 1.05 l
0.15 -0.39 l
0.14 1.20 l
0.15 0.15 l
0.14 0.67 l
0.15 0.69 l
0.15 -0.15 l
0.14 0.69 l
0.15 0.39 l
0.14 0.81 l
0.15 0 l
0.14 0.93 l
0.15 -0.51 l
0.14 1.32 l
0.15 0.15 l
0.15 1.36 l
0.14 0.12 l
0.15 0 l
0.14 0.54 l
0.15 0 l
0.14 0.54 l
0.15 0.27 l
0.14 0.27 l
0.15 1.74 l
0.15 -0.93 l
0.14 1.08 l
0.15 -0.27 l
0.14 1.08 l
0.15 0 l
0.14 0.54 l
0.15 1.21 l
0.14 -0.39 l
0.15 1.20 l
0.15 -0.12 l
0.14 0.12 l
0.15 1.50 l
0.14 -1.08 l
0.15 1.08 l
0.14 -0.27 l
0.15 1.74 l
0.15 0 l
0.14 -0.69 l
0.15 0.69 l
0.14 1.36 l
251.52 457.21 lineto
0.14 0.55 l
0.15 0.54 l
0.14 0.27 l
0.15 0.42 l
0.15 0.12 l
0.14 0.15 l
0.15 0.39 l
0.14 0.81 l
0.15 -0.27 l
0.14 1.20 l
0.15 0.69 l
0.14 -0.42 l
0.15 0.15 l
0.15 0.54 l
0.14 0.81 l
0.15 0.28 l
0.14 0.39 l
0.15 0.15 l
0.14 -0.15 l
0.15 0.96 l
0.14 0.54 l
0.15 -0.69 l
0.15 0.42 l
0.14 0.54 l
0.15 0.66 l
0.14 -0.12 l
0.15 1.20 l
0.14 -0.39 l
0.15 0.51 l
0.14 0.69 l
0.15 -0.54 l
0.15 0.27 l
0.14 1.08 l
0.15 -0.15 l
0.14 0.82 l
0.15 0.15 l
0.14 0.54 l
0.15 -0.54 l
0.15 0.54 l
0.14 0.54 l
0.15 -0.42 l
0.14 -0.12 l
0.15 1.35 l
0.14 1.08 l
0.15 -0.54 l
0.14 -0.15 l
0.15 0.27 l
0.15 0.54 l
0.14 0.81 l
0.15 0.27 l
0.14 -0.42 l
0.15 0.42 l
0.14 0.39 l
0.15 0.27 l
0.14 0.28 l
0.15 0.15 l
0.15 0.27 l
0.14 -0.82 l
0.15 0.82 l
0.14 0.66 l
0.15 -0.12 l
0.14 0.27 l
0.15 0.66 l
0.14 -1.08 l
0.15 1.23 l
0.15 0.27 l
0.14 0.27 l
0.15 0.66 l
0.14 -0.66 l
0.15 0.12 l
0.14 0.69 l
0.15 0.93 l
0.15 0.12 l
0.14 -1.05 l
0.15 0.93 l
0.14 -0.15 l
0.15 1.23 l
0.14 -0.96 l
0.15 0 l
0.14 -0.12 l
0.15 1.35 l
0.15 0 l
0.14 0.40 l
0.15 0.15 l
0.14 0.66 l
0.15 -0.66 l
0.14 0.54 l
0.15 0.27 l
0.14 0.93 l
0.15 -0.54 l
0.15 0.27 l
0.14 -0.12 l
0.15 0.93 l
0.14 -0.54 l
0.15 0.54 l
0.14 0 l
0.15 0.15 l
0.14 0.54 l
0.15 0.39 l
266.08 484.08 lineto
0.14 0.66 l
0.15 -0.39 l
0.14 0 l
0.15 0.39 l
0.14 0.27 l
0.15 0.54 l
0.15 -0.27 l
0.14 -0.42 l
0.15 1.08 l
0.14 0 l
0.15 0.43 l
0.14 -0.16 l
0.15 -0.54 l
0.14 0.82 l
0.15 0.69 l
0.15 -0.42 l
0.14 -0.12 l
0.15 0.12 l
0.14 0.69 l
0.15 -0.42 l
0.14 0.27 l
0.15 0.42 l
0.14 0.27 l
0.15 -0.42 l
0.15 0.69 l
0.14 0.66 l
0.15 -0.12 l
0.14 -0.69 l
0.15 0.54 l
0.14 0 l
0.15 0.69 l
0.14 0.12 l
0.15 0 l
0.15 -0.66 l
0.14 0.81 l
0.15 0.39 l
0.14 -0.27 l
0.15 -0.54 l
0.14 0.81 l
0.15 0.12 l
0.15 0.27 l
0.14 0.15 l
0.15 0 l
0.14 -0.15 l
0.15 0.42 l
0.14 -0.54 l
0.15 1.62 l
0.14 -0.69 l
0.15 0 l
0.15 -0.27 l
0.14 0.54 l
0.15 0.27 l
0.14 0 l
0.15 0 l
0.14 0.82 l
0.15 -0.82 l
0.14 0.43 l
0.15 0.27 l
0.15 0.27 l
0.14 -0.54 l
0.15 0.27 l
0.14 0.39 l
0.15 0.42 l
0.14 -0.15 l
0.15 0.27 l
0.14 -0.54 l
0.15 0 l
0.15 0.42 l
0.14 0.66 l
0.15 -0.27 l
0.14 0.27 l
0.15 -0.54 l
0.14 0.54 l
0.15 0 l
0.15 0.69 l
0.14 -0.54 l
0.15 0.12 l
0.14 0.15 l
0.15 0.81 l
0.14 -0.54 l
0.15 0.54 l
0.14 -0.42 l
0.15 0.15 l
0.15 -0.15 l
0.14 0.69 l
0.15 -0.54 l
0.14 0.39 l
0.15 0 l
0.14 0.42 l
0.15 0.24 l
0.14 0 l
0.15 -0.24 l
0.15 0.24 l
0.14 0.15 l
0.15 0.12 l
0.14 -0.27 l
0.15 0.15 l
0.14 0.39 l
0.15 0.27 l
280.63 495.92 lineto
0.15 1.08 l
0.15 -0.12 l
0.14 -0.15 l
0.15 0 l
0.14 0.81 l
0.15 -0.27 l
0.14 -0.12 l
0.15 -0.27 l
0.15 0.39 l
0.14 0.15 l
0.15 0.12 l
0.14 0 l
0.15 -0.39 l
0.14 1.36 l
0.15 -1.36 l
0.14 0.67 l
0.15 0 l
0.15 -0.40 l
0.14 0.82 l
0.15 -0.15 l
0.14 0.42 l
0.15 -0.42 l
0.14 0.27 l
0.15 0.15 l
0.14 0.27 l
0.15 -0.42 l
0.15 0.42 l
0.14 0.27 l
0.15 -0.42 l
0.14 0.15 l
0.15 0.12 l
0.14 0.15 l
0.15 0.27 l
0.14 0 l
0.15 0.27 l
0.15 -0.15 l
0.14 0.15 l
0.15 -0.15 l
0.14 0 l
0.15 -0.27 l
0.14 0.27 l
0.15 -1.20 l
0.14 1.08 l
0.15 0.39 l
0.15 0.81 l
0.14 -0.93 l
0.15 0.39 l
0.14 0 l
0.15 -0.66 l
0.14 0.81 l
0.15 0.39 l
0.15 -0.93 l
0.14 0.66 l
0.15 -0.12 l
0.14 0.81 l
0.15 -0.27 l
0.14 -0.81 l
0.15 1.08 l
0.14 -0.15 l
0.15 0 l
0.15 0.15 l
0.14 -0.69 l
0.15 0 l
0.14 0.54 l
0.15 0.15 l
0.14 0 l
0.15 0.12 l
0.14 0.66 l
0.15 -0.12 l
0.15 -0.39 l
0.14 -0.42 l
0.15 -0.12 l
0.14 0.39 l
0.15 0.54 l
0.14 0.27 l
0.15 -0.39 l
0.14 0 l
0.15 -0.42 l
0.15 0.93 l
0.14 -0.27 l
0.15 0.15 l
0.14 -0.27 l
0.15 1.08 l
0.14 -1.08 l
0.15 0.81 l
0.15 0 l
0.14 -0.15 l
0.15 -0.27 l
0.14 0.15 l
0.15 0.12 l
0.14 -0.39 l
0.15 0.66 l
0.14 -0.27 l
0.15 0.27 l
0.15 -0.27 l
0.14 0.27 l
0.15 0 l
0.14 -0.39 l
0.15 0.66 l
295.19 502.53 lineto
0.15 -0.12 l
0.14 0.66 l
0.15 -0.12 l
0.15 -0.96 l
0.14 0.96 l
0.15 -0.27 l
0.14 0.12 l
0.15 0.15 l
0.14 -0.42 l
0.15 0 l
0.14 0.69 l
0.15 0.28 l
0.15 -0.43 l
0.14 0 l
0.15 0.82 l
0.14 -1.21 l
0.15 0.54 l
0.14 0.12 l
0.15 0.28 l
0.15 -0.40 l
0.14 0.82 l
0.15 -0.42 l
0.14 0.15 l
0.15 0.27 l
0.14 -0.82 l
0.15 0.12 l
0.14 0.55 l
0.15 -0.67 l
0.15 0.28 l
0.14 0.39 l
0.15 0.15 l
0.14 -0.54 l
0.15 0.93 l
0.14 -0.39 l
0.15 -0.42 l
0.14 0.15 l
0.15 -0.27 l
0.15 0.12 l
0.14 0.69 l
0.15 -0.27 l
0.14 -0.42 l
0.15 0.96 l
0.14 0.27 l
0.15 -0.81 l
0.14 0.66 l
0.15 -0.12 l
0.15 0.12 l
0.14 -0.39 l
0.15 0.27 l
0.14 -0.15 l
0.15 0.69 l
0.14 -1.08 l
0.15 1.20 l
0.15 -0.81 l
0.14 0.69 l
0.15 -0.54 l
0.14 -0.15 l
0.15 0.15 l
0.14 0.39 l
0.15 -0.66 l
0.14 0.66 l
0.15 -0.39 l
0.15 0.12 l
0.14 0 l
0.15 0.15 l
0.14 0 l
0.15 0 l
0.14 -0.27 l
0.15 0.27 l
0.14 0 l
0.15 0.27 l
0.15 0.12 l
0.14 0.27 l
0.15 -1.35 l
0.14 1.35 l
0.15 -0.12 l
0.14 0.12 l
0.15 -0.54 l
0.14 -0.12 l
0.15 0.39 l
0.15 0.42 l
0.14 0.66 l
0.15 -1.08 l
0.14 -0.12 l
0.15 0 l
0.14 -0.15 l
0.15 0.42 l
0.15 -0.15 l
0.14 0.54 l
0.15 0.42 l
0.14 -0.69 l
0.15 0.15 l
0.14 0.27 l
0.15 -0.54 l
0.14 0 l
0.15 -0.27 l
0.15 0.27 l
0.14 -0.15 l
0.15 0.96 l
309.75 506.86 lineto
0.15 0.27 l
0.14 -1.20 l
0.15 0.12 l
0.14 -1.08 l
0.15 0.96 l
0.15 -0.69 l
0.14 -0.39 l
0.15 0.39 l
0.14 0.42 l
0.15 -0.27 l
0.14 0.93 l
0.15 0 l
0.14 0.27 l
0.15 -0.81 l
0.15 -0.39 l
0.14 0 l
0.15 0.12 l
0.14 -0.12 l
0.15 0.93 l
0.14 1.20 l
0.15 -0.78 l
0.15 -0.27 l
0.14 0.81 l
0.15 -0.96 l
0.14 -0.54 l
0.15 -0.12 l
0.14 0.27 l
0.15 0.54 l
0.14 0.54 l
0.15 -0.42 l
0.15 0 l
0.14 -0.54 l
0.15 0.69 l
0.14 0 l
0.15 -0.27 l
0.14 -0.54 l
0.15 0.54 l
0.14 -0.42 l
0.15 0.54 l
0.15 -0.27 l
0.14 -0.12 l
0.15 0.81 l
0.14 -0.42 l
0.15 -0.27 l
0.14 0.27 l
0.15 -0.12 l
0.14 0.54 l
0.15 -0.54 l
0.15 0.81 l
0.14 -0.42 l
0.15 0.54 l
0.14 -0.66 l
0.15 -0.15 l
0.14 -0.27 l
0.15 1.20 l
0.15 -1.20 l
0.14 1.47 l
0.15 -0.51 l
0.14 0.66 l
0.15 -1.47 l
0.14 0.54 l
0.15 -0.81 l
0.14 1.20 l
0.15 -0.27 l
0.15 -0.12 l
0.14 0.12 l
0.15 0.15 l
0.14 0.12 l
0.15 0.39 l
0.14 -0.78 l
0.15 0.51 l
0.14 -0.39 l
0.15 -0.39 l
0.15 0.54 l
0.14 0.12 l
0.15 0 l
0.14 0.12 l
0.15 -0.93 l
0.14 0.42 l
0.15 -0.15 l
0.14 0.93 l
0.15 -0.27 l
0.15 -0.12 l
0.14 0 l
0.15 0 l
0.14 -0.12 l
0.15 0.66 l
0.14 -0.42 l
0.15 0.15 l
0.14 -0.39 l
0.15 0.51 l
0.15 -0.39 l
0.14 0.12 l
0.15 -0.24 l
0.14 0.51 l
0.15 -0.39 l
0.14 0.39 l
0.15 0.15 l
0.15 0.54 l
324.31 507.28 lineto
0.15 0.24 l
0.14 0.54 l
0.15 -0.93 l
0.14 0.81 l
0.15 -0.15 l
0.14 -0.51 l
0.15 0.12 l
0.15 -0.39 l
0.14 0.93 l
0.15 0 l
0.14 0.81 l
0.15 -1.23 l
0.14 -0.39 l
0.15 0.81 l
0.14 0 l
0.15 -0.15 l
0.15 -0.27 l
0.14 0.15 l
0.15 0.27 l
0.14 -0.15 l
0.15 0.96 l
0.14 -0.96 l
0.15 0.69 l
0.14 -1.08 l
0.15 0.81 l
0.15 -0.81 l
0.14 0.12 l
0.15 0.69 l
0.14 0 l
0.15 -0.69 l
0.14 1.35 l
0.15 -1.08 l
0.15 0.27 l
0.14 0.69 l
0.15 -0.15 l
0.14 -0.66 l
0.15 0.66 l
0.14 -0.54 l
0.15 0 l
0.14 -0.12 l
0.15 0.54 l
0.15 -1.08 l
0.14 0.93 l
0.15 -0.39 l
0.14 -0.15 l
0.15 0.27 l
0.14 0.15 l
0.15 0.54 l
0.14 -0.54 l
0.15 0.27 l
0.15 -0.15 l
0.14 -0.12 l
0.15 0.27 l
0.14 0.27 l
0.15 -0.81 l
0.14 0.27 l
0.15 0.39 l
0.14 -0.66 l
0.15 -0.27 l
0.15 0.66 l
0.14 0 l
0.15 -0.27 l
0.14 0.54 l
0.15 -1.08 l
0.14 0.96 l
0.15 -0.15 l
0.15 0.27 l
0.14 -0.39 l
0.15 0 l
0.14 -0.27 l
0.15 0.66 l
0.14 -0.66 l
0.15 0.54 l
0.14 -0.27 l
0.15 0.94 l
0.15 -1.09 l
0.14 0.81 l
0.15 -1.47 l
0.14 1.75 l
0.15 -0.40 l
0.14 0.40 l
0.15 -0.94 l
0.14 -0.15 l
0.15 0.69 l
0.15 0 l
0.14 0 l
0.15 -0.69 l
0.14 0.54 l
0.15 -0.39 l
0.14 1.36 l
0.15 -0.55 l
0.14 -0.15 l
0.15 0.15 l
0.15 -0.27 l
0.14 -0.42 l
0.15 -0.39 l
0.14 0.54 l
0.15 0.54 l
0.14 -0.69 l
338.87 508.60 lineto
0.15 0 l
0.14 -0.12 l
0.15 0.39 l
0.14 -0.27 l
0.15 0.70 l
0.14 -1.09 l
0.15 1.09 l
0.14 -0.70 l
0.15 0.27 l
0.15 -0.39 l
0.14 0.39 l
0.15 -0.81 l
0.14 1.24 l
0.15 -0.97 l
0.14 0.82 l
0.15 -0.55 l
0.14 -0.12 l
0.15 0.27 l
0.15 0.40 l
0.14 0.15 l
0.15 -0.70 l
0.14 0.55 l
0.15 -0.13 l
0.14 -0.42 l
0.15 1.24 l
0.14 -0.69 l
0.15 -0.67 l
0.15 0.27 l
0.14 0.67 l
0.15 -0.94 l
0.14 0.82 l
0.15 -0.28 l
0.14 0.40 l
0.15 -0.82 l
0.15 0.70 l
0.14 -0.55 l
0.15 -0.42 l
0.14 0.69 l
0.15 0.55 l
0.14 -0.70 l
0.15 0.70 l
0.14 -0.55 l
0.15 -0.15 l
0.15 -0.12 l
0.14 0.82 l
0.15 -1.36 l
0.14 1.48 l
0.15 -1.09 l
0.14 0.70 l
0.15 -0.28 l
0.14 -0.15 l
0.15 0.15 l
0.15 0 l
0.14 -0.15 l
0.15 -0.39 l
0.14 0.54 l
0.15 0.28 l
0.14 0 l
0.15 0.39 l
0.14 -0.12 l
0.15 -0.82 l
0.15 0.27 l
0.14 0.40 l
0.15 0 l
0.14 -0.27 l
0.15 0.81 l
0.14 -1.21 l
0.15 -0.15 l
0.15 1.78 l
0.14 -3.64 l
0.15 0.27 l
0.14 2.83 l
0.15 -0.97 l
0.14 -0.54 l
0.15 0 l
0.14 0.42 l
0.15 0 l
0.15 -0.15 l
0.14 0.55 l
0.15 0.27 l
0.14 -0.94 l
0.15 1.09 l
0.14 -0.82 l
0.15 0.40 l
0.14 0.27 l
0.15 0.42 l
0.15 -0.97 l
0.14 0.28 l
0.15 0.96 l
0.14 -0.81 l
0.15 0.54 l
0.14 -0.54 l
0.15 -0.28 l
0.14 0 l
0.15 0.13 l
0.15 0 l
0.14 0.69 l
0.15 0.39 l
0.14 -0.93 l
353.43 509.15 lineto
0.14 0.69 l
0.15 -0.69 l
0.14 0.54 l
0.15 0 l
0.15 0.42 l
0.14 -0.42 l
0.15 0 l
0.14 0 l
0.15 0 l
0.14 -0.94 l
0.15 0.40 l
0.15 0.15 l
0.14 0.39 l
0.15 0.27 l
0.14 0.54 l
0.15 -0.66 l
0.14 -0.54 l
0.15 0.12 l
0.14 0.54 l
0.15 -0.54 l
0.15 0.81 l
0.14 -1.08 l
0.15 1.08 l
0.14 -0.39 l
0.15 0 l
0.14 0.81 l
0.15 -0.54 l
0.14 -0.15 l
0.15 -0.54 l
0.15 0.15 l
0.14 0 l
0.15 0.12 l
0.14 0.27 l
0.15 -0.12 l
0.14 0.12 l
0.15 0.27 l
0.14 0.42 l
0.15 -0.96 l
0.15 0.54 l
0.14 -0.93 l
0.15 0.66 l
0.14 0.15 l
0.15 0.12 l
0.14 -0.12 l
0.15 -0.15 l
0.15 -0.12 l
0.14 0.12 l
0.15 -0.39 l
0.14 0.54 l
0.15 -0.15 l
0.14 -0.12 l
0.15 -0.15 l
0.14 0.42 l
0.15 0.27 l
0.15 0.27 l
0.14 -0.42 l
0.15 -0.12 l
0.14 -0.27 l
0.15 0.54 l
0.14 -0.42 l
0.15 -0.12 l
0.14 -0.27 l
0.15 0.54 l
0.15 -0.54 l
0.14 0.81 l
0.15 0 l
0.14 0 l
0.15 -0.27 l
0.14 0.27 l
0.15 -0.96 l
0.14 1.08 l
0.15 -0.12 l
0.15 0.27 l
0.14 -0.15 l
0.15 -0.54 l
0.14 0 l
0.15 0.42 l
0.14 0 l
0.15 0 l
0.15 0 l
0.14 -0.27 l
0.15 0 l
0.14 0.39 l
0.15 -0.66 l
0.14 1.20 l
0.15 -0.93 l
0.14 0 l
0.15 -0.15 l
0.15 0.81 l
0.14 -0.66 l
0.15 0.27 l
0.14 -0.15 l
0.15 0.15 l
0.14 0.27 l
0.15 -0.27 l
0.14 -0.15 l
0.15 0.69 l
0.15 -0.96 l
0.14 0.81 l
currentpoint o m
367.99 510.38 lineto
0.14 0.81 l
0.15 -0.81 l
0.14 -0.54 l
0.15 0.39 l
0.14 -0.12 l
0.15 0.66 l
0.15 0 l
0.14 0.27 l
0.15 -0.54 l
0.14 -0.12 l
0.15 0.54 l
0.14 -0.69 l
0.15 0.54 l
0.15 -0.12 l
0.14 0.27 l
0.15 -0.15 l
0.14 -0.54 l
0.15 0.15 l
0.14 0.54 l
0.15 -0.69 l
0.14 0.42 l
0.15 0 l
0.15 0.12 l
0.14 -0.27 l
0.15 0.69 l
0.14 -0.42 l
0.15 -0.54 l
0.14 0.42 l
0.15 0.27 l
0.14 -0.54 l
0.15 0.54 l
0.15 -0.69 l
0.14 0.81 l
0.15 -0.66 l
0.14 0.66 l
0.15 -0.27 l
0.14 0 l
0.15 -0.12 l
0.14 0.54 l
0.15 0.12 l
0.15 -0.12 l
0.14 -1.08 l
0.15 0.66 l
0.14 -0.27 l
0.15 0.69 l
0.14 -0.54 l
0.15 0.27 l
0.15 -0.42 l
0.14 0.42 l
0.15 -0.27 l
0.14 0.12 l
0.15 0.27 l
0.14 -0.12 l
0.15 0.12 l
0.14 -0.66 l
0.15 0.39 l
0.15 0.96 l
0.14 -1.62 l
0.15 1.20 l
0.14 -0.12 l
0.15 -0.42 l
0.14 -0.39 l
0.15 0.12 l
0.14 0.69 l
0.15 0.27 l
0.15 -0.81 l
0.14 0.54 l
0.15 -0.15 l
0.14 0.15 l
0.15 0 l
0.14 -0.81 l
0.15 0.66 l
0.14 -0.12 l
0.15 -0.15 l
0.15 0.54 l
0.14 -0.93 l
0.15 0.81 l
0.14 -0.69 l
0.15 0.69 l
0.14 0 l
0.15 0.39 l
0.15 -0.66 l
0.14 0.27 l
0.15 0 l
0.14 -0.54 l
0.15 -0.15 l
0.14 1.50 l
0.15 -0.81 l
0.14 -0.69 l
0.15 0.42 l
0.15 0.93 l
0.14 -0.66 l
0.15 0.39 l
0.14 -0.27 l
0.15 -0.54 l
0.14 0.69 l
0.15 -0.15 l
0.14 -0.27 l
0.15 0.27 l
o
/bg { 1 1 1 srgb } def
222.40 507.28 0.43 c p3
222.55 507.79 0.43 c p3
222.69 507.52 0.43 c p3
222.84 507.52 0.43 c p3
222.98 506.74 0.43 c p3
223.13 507.79 0.43 c p3
223.27 507.40 0.43 c p3
223.42 507.01 0.43 c p3
223.56 507.52 0.43 c p3
223.71 507.67 0.43 c p3
223.86 506.86 0.43 c p3
224.00 507.52 0.43 c p3
224.15 506.74 0.43 c p3
224.29 507.40 0.43 c p3
224.44 506.86 0.43 c p3
224.58 507.28 0.43 c p3
224.73 506.47 0.43 c p3
224.87 507.52 0.43 c p3
225.02 507.40 0.43 c p3
225.17 507.67 0.43 c p3
225.31 506.86 0.43 c p3
225.46 507.52 0.43 c p3
225.60 506.32 0.43 c p3
225.75 507.40 0.43 c p3
225.89 506.86 0.43 c p3
226.04 507.01 0.43 c p3
226.19 507.28 0.43 c p3
226.33 507.52 0.43 c p3
226.48 506.20 0.43 c p3
226.62 507.13 0.43 c p3
226.77 507.28 0.43 c p3
226.91 507.94 0.43 c p3
227.06 506.59 0.43 c p3
227.20 507.79 0.43 c p3
227.35 507.01 0.43 c p3
227.50 506.59 0.43 c p3
227.64 507.13 0.43 c p3
227.79 507.28 0.43 c p3
227.93 506.86 0.43 c p3
228.08 507.52 0.43 c p3
228.22 506.47 0.43 c p3
228.37 507.40 0.43 c p3
228.51 507.28 0.43 c p3
228.66 507.28 0.43 c p3
228.81 506.47 0.43 c p3
228.95 507.13 0.43 c p3
229.10 507.28 0.43 c p3
229.24 507.67 0.43 c p3
229.39 506.47 0.43 c p3
229.53 507.13 0.43 c p3
229.68 506.86 0.43 c p3
229.82 506.86 0.43 c p3
229.97 506.86 0.43 c p3
230.12 507.13 0.43 c p3
230.26 507.28 0.43 c p3
230.41 506.86 0.43 c p3
230.55 506.74 0.43 c p3
230.70 507.28 0.43 c p3
230.84 507.13 0.43 c p3
230.99 506.59 0.43 c p3
231.14 506.47 0.43 c p3
231.28 507.67 0.43 c p3
231.43 506.59 0.43 c p3
231.57 507.67 0.43 c p3
231.72 507.28 0.43 c p3
231.86 506.59 0.43 c p3
232.01 506.47 0.43 c p3
232.15 506.86 0.43 c p3
232.30 507.13 0.43 c p3
232.45 506.86 0.43 c p3
232.59 506.74 0.43 c p3
232.74 507.67 0.43 c p3
232.88 506.59 0.43 c p3
233.03 507.01 0.43 c p3
233.17 506.47 0.43 c p3
233.32 507.52 0.43 c p3
233.46 507.28 0.43 c p3
233.61 507.40 0.43 c p3
233.76 507.01 0.43 c p3
233.90 507.01 0.43 c p3
234.05 506.86 0.43 c p3
234.19 507.01 0.43 c p3
234.34 506.47 0.43 c p3
234.48 507.28 0.43 c p3
234.63 506.86 0.43 c p3
234.77 507.01 0.43 c p3
234.92 506.86 0.43 c p3
235.07 507.40 0.43 c p3
235.21 506.20 0.43 c p3
235.36 507.52 0.43 c p3
235.50 506.05 0.43 c p3
235.65 506.59 0.43 c p3
235.79 506.59 0.43 c p3
235.94 507.52 0.43 c p3
236.09 506.86 0.43 c p3
236.23 506.86 0.43 c p3
236.38 507.01 0.43 c p3
236.52 506.47 0.43 c p3
236.67 506.59 0.43 c p3
236.81 507.28 0.43 c p3
236.96 401.11 0.43 c p3
237.10 403.13 0.43 c p3
237.25 403.69 0.43 c p3
237.40 405.43 0.43 c p3
237.54 405.70 0.43 c p3
237.69 406.64 0.43 c p3
237.83 408.53 0.43 c p3
237.98 408.41 0.43 c p3
238.12 410.00 0.43 c p3
238.27 410.00 0.43 c p3
238.41 411.08 0.43 c p3
238.56 412.17 0.43 c p3
238.71 412.44 0.43 c p3
238.85 414.06 0.43 c p3
239.00 414.21 0.43 c p3
239.14 415.53 0.43 c p3
239.29 416.22 0.43 c p3
239.43 416.34 0.43 c p3
239.58 417.30 0.43 c p3
239.72 418.24 0.43 c p3
239.87 418.93 0.43 c p3
240.02 420.01 0.43 c p3
240.16 419.74 0.43 c p3
240.31 421.21 0.43 c p3
240.45 421.21 0.43 c p3
240.60 422.56 0.43 c p3
240.74 422.95 0.43 c p3
240.89 422.95 0.43 c p3
241.04 423.50 0.43 c p3
241.18 424.46 0.43 c p3
241.33 424.58 0.43 c p3
241.47 426.35 0.43 c p3
241.62 426.08 0.43 c p3
241.76 427.13 0.43 c p3
241.91 427.40 0.43 c p3
242.05 428.90 0.43 c p3
242.20 428.36 0.43 c p3
242.35 429.99 0.43 c p3
242.49 428.90 0.43 c p3
242.64 429.45 0.43 c p3
242.78 430.38 0.43 c p3
242.93 431.19 0.43 c p3
243.07 431.73 0.43 c p3
243.22 432.27 0.43 c p3
243.36 432.66 0.43 c p3
243.51 433.08 0.43 c p3
243.66 433.35 0.43 c p3
243.80 434.55 0.43 c p3
243.95 434.43 0.43 c p3
244.09 435.64 0.43 c p3
244.24 435.52 0.43 c p3
244.38 436.18 0.43 c p3
244.53 436.87 0.43 c p3
244.67 437.14 0.43 c p3
244.82 437.95 0.43 c p3
244.97 438.22 0.43 c p3
245.11 439.27 0.43 c p3
245.26 438.88 0.43 c p3
245.40 440.08 0.43 c p3
245.55 440.23 0.43 c p3
245.69 440.90 0.43 c p3
245.84 441.59 0.43 c p3
245.99 441.44 0.43 c p3
246.13 442.13 0.43 c p3
246.28 442.52 0.43 c p3
246.42 443.33 0.43 c p3
246.57 443.33 0.43 c p3
246.71 444.26 0.43 c p3
246.86 443.75 0.43 c p3
247.00 445.07 0.43 c p3
247.15 445.22 0.43 c p3
247.30 446.58 0.43 c p3
247.44 446.70 0.43 c p3
247.59 446.70 0.43 c p3
247.73 447.24 0.43 c p3
247.88 447.24 0.43 c p3
248.02 447.78 0.43 c p3
248.17 448.05 0.43 c p3
248.31 448.32 0.43 c p3
248.46 450.06 0.43 c p3
248.61 449.13 0.43 c p3
248.75 450.21 0.43 c p3
248.90 449.94 0.43 c p3
249.04 451.02 0.43 c p3
249.19 451.02 0.43 c p3
249.33 451.56 0.43 c p3
249.48 452.77 0.43 c p3
249.62 452.38 0.43 c p3
249.77 453.58 0.43 c p3
249.92 453.46 0.43 c p3
250.06 453.58 0.43 c p3
250.21 455.08 0.43 c p3
250.35 454.00 0.43 c p3
250.50 455.08 0.43 c p3
250.64 454.81 0.43 c p3
250.79 456.55 0.43 c p3
250.94 456.55 0.43 c p3
251.08 455.86 0.43 c p3
251.23 456.55 0.43 c p3
251.37 457.91 0.43 c p3
251.52 457.21 0.43 c p3
251.66 457.76 0.43 c p3
251.81 458.30 0.43 c p3
251.95 458.57 0.43 c p3
252.10 458.99 0.43 c p3
252.25 459.11 0.43 c p3
252.39 459.26 0.43 c p3
252.54 459.65 0.43 c p3
252.68 460.46 0.43 c p3
252.83 460.19 0.43 c p3
252.97 461.39 0.43 c p3
253.12 462.08 0.43 c p3
253.26 461.66 0.43 c p3
253.41 461.81 0.43 c p3
253.56 462.35 0.43 c p3
253.70 463.16 0.43 c p3
253.85 463.44 0.43 c p3
253.99 463.83 0.43 c p3
254.14 463.98 0.43 c p3
254.28 463.83 0.43 c p3
254.43 464.79 0.43 c p3
254.57 465.33 0.43 c p3
254.72 464.64 0.43 c p3
254.87 465.06 0.43 c p3
255.01 465.60 0.43 c p3
255.16 466.26 0.43 c p3
255.30 466.14 0.43 c p3
255.45 467.34 0.43 c p3
255.59 466.95 0.43 c p3
255.74 467.46 0.43 c p3
255.88 468.15 0.43 c p3
256.03 467.61 0.43 c p3
256.18 467.88 0.43 c p3
256.32 468.96 0.43 c p3
256.47 468.81 0.43 c p3
256.61 469.63 0.43 c p3
256.76 469.78 0.43 c p3
256.90 470.32 0.43 c p3
257.05 469.78 0.43 c p3
257.20 470.32 0.43 c p3
257.34 470.86 0.43 c p3
257.49 470.44 0.43 c p3
257.63 470.32 0.43 c p3
257.78 471.67 0.43 c p3
257.92 472.75 0.43 c p3
258.07 472.21 0.43 c p3
258.21 472.06 0.43 c p3
258.36 472.33 0.43 c p3
258.51 472.87 0.43 c p3
258.65 473.68 0.43 c p3
258.80 473.95 0.43 c p3
258.94 473.53 0.43 c p3
259.09 473.95 0.43 c p3
259.23 474.34 0.43 c p3
259.38 474.61 0.43 c p3
259.52 474.89 0.43 c p3
259.67 475.04 0.43 c p3
259.82 475.31 0.43 c p3
259.96 474.49 0.43 c p3
260.11 475.31 0.43 c p3
260.25 475.97 0.43 c p3
260.40 475.85 0.43 c p3
260.54 476.12 0.43 c p3
260.69 476.78 0.43 c p3
260.83 475.70 0.43 c p3
260.98 476.93 0.43 c p3
261.13 477.20 0.43 c p3
261.27 477.47 0.43 c p3
261.42 478.13 0.43 c p3
261.56 477.47 0.43 c p3
261.71 477.59 0.43 c p3
261.85 478.28 0.43 c p3
262.00 479.21 0.43 c p3
262.15 479.33 0.43 c p3
262.29 478.28 0.43 c p3
262.44 479.21 0.43 c p3
262.58 479.06 0.43 c p3
262.73 480.29 0.43 c p3
262.87 479.33 0.43 c p3
263.02 479.33 0.43 c p3
263.16 479.21 0.43 c p3
263.31 480.56 0.43 c p3
263.46 480.56 0.43 c p3
263.60 480.96 0.43 c p3
263.75 481.11 0.43 c p3
263.89 481.77 0.43 c p3
264.04 481.11 0.43 c p3
264.18 481.65 0.43 c p3
264.33 481.92 0.43 c p3
264.47 482.85 0.43 c p3
264.62 482.31 0.43 c p3
264.77 482.58 0.43 c p3
264.91 482.46 0.43 c p3
265.06 483.39 0.43 c p3
265.20 482.85 0.43 c p3
265.35 483.39 0.43 c p3
265.49 483.39 0.43 c p3
265.64 483.54 0.43 c p3
265.78 484.08 0.43 c p3
265.93 484.47 0.43 c p3
266.08 484.08 0.43 c p3
266.22 484.74 0.43 c p3
266.37 484.35 0.43 c p3
266.51 484.35 0.43 c p3
266.66 484.74 0.43 c p3
266.80 485.01 0.43 c p3
266.95 485.55 0.43 c p3
267.10 485.28 0.43 c p3
267.24 484.86 0.43 c p3
267.39 485.94 0.43 c p3
267.53 485.94 0.43 c p3
267.68 486.37 0.43 c p3
267.82 486.21 0.43 c p3
267.97 485.67 0.43 c p3
268.11 486.49 0.43 c p3
268.26 487.18 0.43 c p3
268.41 486.76 0.43 c p3
268.55 486.64 0.43 c p3
268.70 486.76 0.43 c p3
268.84 487.45 0.43 c p3
268.99 487.03 0.43 c p3
269.13 487.30 0.43 c p3
269.28 487.72 0.43 c p3
269.42 487.99 0.43 c p3
269.57 487.57 0.43 c p3
269.72 488.26 0.43 c p3
269.86 488.92 0.43 c p3
270.01 488.80 0.43 c p3
270.15 488.11 0.43 c p3
270.30 488.65 0.43 c p3
270.44 488.65 0.43 c p3
270.59 489.34 0.43 c p3
270.73 489.46 0.43 c p3
270.88 489.46 0.43 c p3
271.03 488.80 0.43 c p3
271.17 489.61 0.43 c p3
271.32 490.00 0.43 c p3
271.46 489.73 0.43 c p3
271.61 489.19 0.43 c p3
271.75 490.00 0.43 c p3
271.90 490.12 0.43 c p3
272.05 490.39 0.43 c p3
272.19 490.54 0.43 c p3
272.34 490.54 0.43 c p3
272.48 490.39 0.43 c p3
272.63 490.81 0.43 c p3
272.77 490.27 0.43 c p3
272.92 491.89 0.43 c p3
273.06 491.20 0.43 c p3
273.21 491.20 0.43 c p3
273.36 490.93 0.43 c p3
273.50 491.47 0.43 c p3
273.65 491.74 0.43 c p3
273.79 491.74 0.43 c p3
273.94 491.74 0.43 c p3
274.08 492.56 0.43 c p3
274.23 491.74 0.43 c p3
274.37 492.17 0.43 c p3
274.52 492.44 0.43 c p3
274.67 492.71 0.43 c p3
274.81 492.17 0.43 c p3
274.96 492.44 0.43 c p3
275.10 492.83 0.43 c p3
275.25 493.25 0.43 c p3
275.39 493.10 0.43 c p3
275.54 493.37 0.43 c p3
275.68 492.83 0.43 c p3
275.83 492.83 0.43 c p3
275.98 493.25 0.43 c p3
276.12 493.91 0.43 c p3
276.27 493.64 0.43 c p3
276.41 493.91 0.43 c p3
276.56 493.37 0.43 c p3
276.70 493.91 0.43 c p3
276.85 493.91 0.43 c p3
277.00 494.60 0.43 c p3
277.14 494.06 0.43 c p3
277.29 494.18 0.43 c p3
277.43 494.33 0.43 c p3
277.58 495.14 0.43 c p3
277.72 494.60 0.43 c p3
277.87 495.14 0.43 c p3
278.01 494.72 0.43 c p3
278.16 494.87 0.43 c p3
278.31 494.72 0.43 c p3
278.45 495.41 0.43 c p3
278.60 494.87 0.43 c p3
278.74 495.26 0.43 c p3
278.89 495.26 0.43 c p3
279.03 495.68 0.43 c p3
279.18 495.92 0.43 c p3
279.32 495.92 0.43 c p3
279.47 495.68 0.43 c p3
279.62 495.92 0.43 c p3
279.76 496.07 0.43 c p3
279.91 496.19 0.43 c p3
280.05 495.92 0.43 c p3
280.20 496.07 0.43 c p3
280.34 496.46 0.43 c p3
280.49 496.73 0.43 c p3
280.63 495.92 0.43 c p3
280.78 497.00 0.43 c p3
280.93 496.88 0.43 c p3
281.07 496.73 0.43 c p3
281.22 496.73 0.43 c p3
281.36 497.54 0.43 c p3
281.51 497.27 0.43 c p3
281.65 497.15 0.43 c p3
281.80 496.88 0.43 c p3
281.95 497.27 0.43 c p3
282.09 497.42 0.43 c p3
282.24 497.54 0.43 c p3
282.38 497.54 0.43 c p3
282.53 497.15 0.43 c p3
282.67 498.51 0.43 c p3
282.82 497.15 0.43 c p3
282.96 497.82 0.43 c p3
283.11 497.82 0.43 c p3
283.26 497.42 0.43 c p3
283.40 498.24 0.43 c p3
283.55 498.09 0.43 c p3
283.69 498.51 0.43 c p3
283.84 498.09 0.43 c p3
283.98 498.36 0.43 c p3
284.13 498.51 0.43 c p3
284.27 498.78 0.43 c p3
284.42 498.36 0.43 c p3
284.57 498.78 0.43 c p3
284.71 499.05 0.43 c p3
284.86 498.63 0.43 c p3
285.00 498.78 0.43 c p3
285.15 498.90 0.43 c p3
285.29 499.05 0.43 c p3
285.44 499.32 0.43 c p3
285.58 499.32 0.43 c p3
285.73 499.59 0.43 c p3
285.88 499.44 0.43 c p3
286.02 499.59 0.43 c p3
286.17 499.44 0.43 c p3
286.31 499.44 0.43 c p3
286.46 499.17 0.43 c p3
286.60 499.44 0.43 c p3
286.75 498.24 0.43 c p3
286.89 499.32 0.43 c p3
287.04 499.71 0.43 c p3
287.19 500.52 0.43 c p3
287.33 499.59 0.43 c p3
287.48 499.98 0.43 c p3
287.62 499.98 0.43 c p3
287.77 499.32 0.43 c p3
287.91 500.13 0.43 c p3
288.06 500.52 0.43 c p3
288.21 499.59 0.43 c p3
288.35 500.25 0.43 c p3
288.50 500.13 0.43 c p3
288.64 500.94 0.43 c p3
288.79 500.67 0.43 c p3
288.93 499.86 0.43 c p3
289.08 500.94 0.43 c p3
289.22 500.79 0.43 c p3
289.37 500.79 0.43 c p3
289.52 500.94 0.43 c p3
289.66 500.25 0.43 c p3
289.81 500.25 0.43 c p3
289.95 500.79 0.43 c p3
290.10 500.94 0.43 c p3
290.24 500.94 0.43 c p3
290.39 501.06 0.43 c p3
290.53 501.72 0.43 c p3
290.68 501.60 0.43 c p3
290.83 501.21 0.43 c p3
290.97 500.79 0.43 c p3
291.12 500.67 0.43 c p3
291.26 501.06 0.43 c p3
291.41 501.60 0.43 c p3
291.55 501.87 0.43 c p3
291.70 501.48 0.43 c p3
291.84 501.48 0.43 c p3
291.99 501.06 0.43 c p3
292.14 501.99 0.43 c p3
292.28 501.72 0.43 c p3
292.43 501.87 0.43 c p3
292.57 501.60 0.43 c p3
292.72 502.68 0.43 c p3
292.86 501.60 0.43 c p3
293.01 502.41 0.43 c p3
293.16 502.41 0.43 c p3
293.30 502.26 0.43 c p3
293.45 501.99 0.43 c p3
293.59 502.14 0.43 c p3
293.74 502.26 0.43 c p3
293.88 501.87 0.43 c p3
294.03 502.53 0.43 c p3
294.17 502.26 0.43 c p3
294.32 502.53 0.43 c p3
294.47 502.26 0.43 c p3
294.61 502.53 0.43 c p3
294.76 502.53 0.43 c p3
294.90 502.14 0.43 c p3
295.05 502.80 0.43 c p3
295.19 502.53 0.43 c p3
295.34 502.41 0.43 c p3
295.48 503.07 0.43 c p3
295.63 502.95 0.43 c p3
295.78 501.99 0.43 c p3
295.92 502.95 0.43 c p3
296.07 502.68 0.43 c p3
296.21 502.80 0.43 c p3
296.36 502.95 0.43 c p3
296.50 502.53 0.43 c p3
296.65 502.53 0.43 c p3
296.79 503.22 0.43 c p3
296.94 503.50 0.43 c p3
297.09 503.07 0.43 c p3
297.23 503.07 0.43 c p3
297.38 503.89 0.43 c p3
297.52 502.68 0.43 c p3
297.67 503.22 0.43 c p3
297.81 503.34 0.43 c p3
297.96 503.62 0.43 c p3
298.11 503.22 0.43 c p3
298.25 504.04 0.43 c p3
298.40 503.62 0.43 c p3
298.54 503.77 0.43 c p3
298.69 504.04 0.43 c p3
298.83 503.22 0.43 c p3
298.98 503.34 0.43 c p3
299.12 503.89 0.43 c p3
299.27 503.22 0.43 c p3
299.42 503.50 0.43 c p3
299.56 503.89 0.43 c p3
299.71 504.04 0.43 c p3
299.85 503.50 0.43 c p3
300.00 504.43 0.43 c p3
300.14 504.04 0.43 c p3
300.29 503.62 0.43 c p3
300.43 503.77 0.43 c p3
300.58 503.50 0.43 c p3
300.73 503.62 0.43 c p3
300.87 504.31 0.43 c p3
301.02 504.04 0.43 c p3
301.16 503.62 0.43 c p3
301.31 504.58 0.43 c p3
301.45 504.85 0.43 c p3
301.60 504.04 0.43 c p3
301.74 504.70 0.43 c p3
301.89 504.58 0.43 c p3
302.04 504.70 0.43 c p3
302.18 504.31 0.43 c p3
302.33 504.58 0.43 c p3
302.47 504.43 0.43 c p3
302.62 505.12 0.43 c p3
302.76 504.04 0.43 c p3
302.91 505.24 0.43 c p3
303.06 504.43 0.43 c p3
303.20 505.12 0.43 c p3
303.35 504.58 0.43 c p3
303.49 504.43 0.43 c p3
303.64 504.58 0.43 c p3
303.78 504.97 0.43 c p3
303.93 504.31 0.43 c p3
304.07 504.97 0.43 c p3
304.22 504.58 0.43 c p3
304.37 504.70 0.43 c p3
304.51 504.70 0.43 c p3
304.66 504.85 0.43 c p3
304.80 504.85 0.43 c p3
304.95 504.85 0.43 c p3
305.09 504.58 0.43 c p3
305.24 504.85 0.43 c p3
305.38 504.85 0.43 c p3
305.53 505.12 0.43 c p3
305.68 505.24 0.43 c p3
305.82 505.51 0.43 c p3
305.97 504.16 0.43 c p3
306.11 505.51 0.43 c p3
306.26 505.39 0.43 c p3
306.40 505.51 0.43 c p3
306.55 504.97 0.43 c p3
306.69 504.85 0.43 c p3
306.84 505.24 0.43 c p3
306.99 505.66 0.43 c p3
307.13 506.32 0.43 c p3
307.28 505.24 0.43 c p3
307.42 505.12 0.43 c p3
307.57 505.12 0.43 c p3
307.71 504.97 0.43 c p3
307.86 505.39 0.43 c p3
308.01 505.24 0.43 c p3
308.15 505.78 0.43 c p3
308.30 506.20 0.43 c p3
308.44 505.51 0.43 c p3
308.59 505.66 0.43 c p3
308.73 505.93 0.43 c p3
308.88 505.39 0.43 c p3
309.02 505.39 0.43 c p3
309.17 505.12 0.43 c p3
309.32 505.39 0.43 c p3
309.46 505.24 0.43 c p3
309.61 506.20 0.43 c p3
309.75 506.86 0.43 c p3
309.90 507.13 0.43 c p3
310.04 505.93 0.43 c p3
310.19 506.05 0.43 c p3
310.33 504.97 0.43 c p3
310.48 505.93 0.43 c p3
310.63 505.24 0.43 c p3
310.77 504.85 0.43 c p3
310.92 505.24 0.43 c p3
311.06 505.66 0.43 c p3
311.21 505.39 0.43 c p3
311.35 506.32 0.43 c p3
311.50 506.32 0.43 c p3
311.64 506.59 0.43 c p3
311.79 505.78 0.43 c p3
311.94 505.39 0.43 c p3
312.08 505.39 0.43 c p3
312.23 505.51 0.43 c p3
312.37 505.39 0.43 c p3
312.52 506.32 0.43 c p3
312.66 507.52 0.43 c p3
312.81 506.74 0.43 c p3
312.96 506.47 0.43 c p3
313.10 507.28 0.43 c p3
313.25 506.32 0.43 c p3
313.39 505.78 0.43 c p3
313.54 505.66 0.43 c p3
313.68 505.93 0.43 c p3
313.83 506.47 0.43 c p3
313.97 507.01 0.43 c p3
314.12 506.59 0.43 c p3
314.27 506.59 0.43 c p3
314.41 506.05 0.43 c p3
314.56 506.74 0.43 c p3
314.70 506.74 0.43 c p3
314.85 506.47 0.43 c p3
314.99 505.93 0.43 c p3
315.14 506.47 0.43 c p3
315.28 506.05 0.43 c p3
315.43 506.59 0.43 c p3
315.58 506.32 0.43 c p3
315.72 506.20 0.43 c p3
315.87 507.01 0.43 c p3
316.01 506.59 0.43 c p3
316.16 506.32 0.43 c p3
316.30 506.59 0.43 c p3
316.45 506.47 0.43 c p3
316.59 507.01 0.43 c p3
316.74 506.47 0.43 c p3
316.89 507.28 0.43 c p3
317.03 506.86 0.43 c p3
317.18 507.40 0.43 c p3
317.32 506.74 0.43 c p3
317.47 506.59 0.43 c p3
317.61 506.32 0.43 c p3
317.76 507.52 0.43 c p3
317.91 506.32 0.43 c p3
318.05 507.79 0.43 c p3
318.20 507.28 0.43 c p3
318.34 507.94 0.43 c p3
318.49 506.47 0.43 c p3
318.63 507.01 0.43 c p3
318.78 506.20 0.43 c p3
318.92 507.40 0.43 c p3
319.07 507.13 0.43 c p3
319.22 507.01 0.43 c p3
319.36 507.13 0.43 c p3
319.51 507.28 0.43 c p3
319.65 507.40 0.43 c p3
319.80 507.79 0.43 c p3
319.94 507.01 0.43 c p3
320.09 507.52 0.43 c p3
320.23 507.13 0.43 c p3
320.38 506.74 0.43 c p3
320.53 507.28 0.43 c p3
320.67 507.40 0.43 c p3
320.82 507.40 0.43 c p3
320.96 507.52 0.43 c p3
321.11 506.59 0.43 c p3
321.25 507.01 0.43 c p3
321.40 506.86 0.43 c p3
321.54 507.79 0.43 c p3
321.69 507.52 0.43 c p3
321.84 507.40 0.43 c p3
321.98 507.40 0.43 c p3
322.13 507.40 0.43 c p3
322.27 507.28 0.43 c p3
322.42 507.94 0.43 c p3
322.56 507.52 0.43 c p3
322.71 507.67 0.43 c p3
322.85 507.28 0.43 c p3
323.00 507.79 0.43 c p3
323.15 507.40 0.43 c p3
323.29 507.52 0.43 c p3
323.44 507.28 0.43 c p3
323.58 507.79 0.43 c p3
323.73 507.40 0.43 c p3
323.87 507.79 0.43 c p3
324.02 507.94 0.43 c p3
324.17 508.48 0.43 c p3
324.31 507.28 0.43 c p3
324.46 507.52 0.43 c p3
324.60 508.06 0.43 c p3
324.75 507.13 0.43 c p3
324.89 507.94 0.43 c p3
325.04 507.79 0.43 c p3
325.18 507.28 0.43 c p3
325.33 507.40 0.43 c p3
325.48 507.01 0.43 c p3
325.62 507.94 0.43 c p3
325.77 507.94 0.43 c p3
325.91 508.75 0.43 c p3
326.06 507.52 0.43 c p3
326.20 507.13 0.43 c p3
326.35 507.94 0.43 c p3
326.49 507.94 0.43 c p3
326.64 507.79 0.43 c p3
326.79 507.52 0.43 c p3
326.93 507.67 0.43 c p3
327.08 507.94 0.43 c p3
327.22 507.79 0.43 c p3
327.37 508.75 0.43 c p3
327.51 507.79 0.43 c p3
327.66 508.48 0.43 c p3
327.80 507.40 0.43 c p3
327.95 508.21 0.43 c p3
328.10 507.40 0.43 c p3
328.24 507.52 0.43 c p3
328.39 508.21 0.43 c p3
328.53 508.21 0.43 c p3
328.68 507.52 0.43 c p3
328.82 508.87 0.43 c p3
328.97 507.79 0.43 c p3
329.12 508.06 0.43 c p3
329.26 508.75 0.43 c p3
329.41 508.60 0.43 c p3
329.55 507.94 0.43 c p3
329.70 508.60 0.43 c p3
329.84 508.06 0.43 c p3
329.99 508.06 0.43 c p3
330.13 507.94 0.43 c p3
330.28 508.48 0.43 c p3
330.43 507.40 0.43 c p3
330.57 508.33 0.43 c p3
330.72 507.94 0.43 c p3
330.86 507.79 0.43 c p3
331.01 508.06 0.43 c p3
331.15 508.21 0.43 c p3
331.30 508.75 0.43 c p3
331.44 508.21 0.43 c p3
331.59 508.48 0.43 c p3
331.74 508.33 0.43 c p3
331.88 508.21 0.43 c p3
332.03 508.48 0.43 c p3
332.17 508.75 0.43 c p3
332.32 507.94 0.43 c p3
332.46 508.21 0.43 c p3
332.61 508.60 0.43 c p3
332.75 507.94 0.43 c p3
332.90 507.67 0.43 c p3
333.05 508.33 0.43 c p3
333.19 508.33 0.43 c p3
333.34 508.06 0.43 c p3
333.48 508.60 0.43 c p3
333.63 507.52 0.43 c p3
333.77 508.48 0.43 c p3
333.92 508.33 0.43 c p3
334.07 508.60 0.43 c p3
334.21 508.21 0.43 c p3
334.36 508.21 0.43 c p3
334.50 507.94 0.43 c p3
334.65 508.60 0.43 c p3
334.79 507.94 0.43 c p3
334.94 508.48 0.43 c p3
335.08 508.21 0.43 c p3
335.23 509.15 0.43 c p3
335.38 508.06 0.43 c p3
335.52 508.87 0.43 c p3
335.67 507.40 0.43 c p3
335.81 509.15 0.43 c p3
335.96 508.75 0.43 c p3
336.10 509.15 0.43 c p3
336.25 508.21 0.43 c p3
336.39 508.06 0.43 c p3
336.54 508.75 0.43 c p3
336.69 508.75 0.43 c p3
336.83 508.75 0.43 c p3
336.98 508.06 0.43 c p3
337.12 508.60 0.43 c p3
337.27 508.21 0.43 c p3
337.41 509.57 0.43 c p3
337.56 509.02 0.43 c p3
337.70 508.87 0.43 c p3
337.85 509.02 0.43 c p3
338.00 508.75 0.43 c p3
338.14 508.33 0.43 c p3
338.29 507.94 0.43 c p3
338.43 508.48 0.43 c p3
338.58 509.02 0.43 c p3
338.72 508.33 0.43 c p3
338.87 508.60 0.43 c p3
339.02 508.60 0.43 c p3
339.16 508.48 0.43 c p3
339.31 508.87 0.43 c p3
339.45 508.60 0.43 c p3
339.60 509.30 0.43 c p3
339.74 508.21 0.43 c p3
339.89 509.30 0.43 c p3
340.03 508.60 0.43 c p3
340.18 508.87 0.43 c p3
340.33 508.48 0.43 c p3
340.47 508.87 0.43 c p3
340.62 508.06 0.43 c p3
340.76 509.30 0.43 c p3
340.91 508.33 0.43 c p3
341.05 509.15 0.43 c p3
341.20 508.60 0.43 c p3
341.34 508.48 0.43 c p3
341.49 508.75 0.43 c p3
341.64 509.15 0.43 c p3
341.78 509.30 0.43 c p3
341.93 508.60 0.43 c p3
342.07 509.15 0.43 c p3
342.22 509.02 0.43 c p3
342.36 508.60 0.43 c p3
342.51 509.84 0.43 c p3
342.65 509.15 0.43 c p3
342.80 508.48 0.43 c p3
342.95 508.75 0.43 c p3
343.09 509.42 0.43 c p3
343.24 508.48 0.43 c p3
343.38 509.30 0.43 c p3
343.53 509.02 0.43 c p3
343.67 509.42 0.43 c p3
343.82 508.60 0.43 c p3
343.97 509.30 0.43 c p3
344.11 508.75 0.43 c p3
344.26 508.33 0.43 c p3
344.40 509.02 0.43 c p3
344.55 509.57 0.43 c p3
344.69 508.87 0.43 c p3
344.84 509.57 0.43 c p3
344.98 509.02 0.43 c p3
345.13 508.87 0.43 c p3
345.28 508.75 0.43 c p3
345.42 509.57 0.43 c p3
345.57 508.21 0.43 c p3
345.71 509.69 0.43 c p3
345.86 508.60 0.43 c p3
346.00 509.30 0.43 c p3
346.15 509.02 0.43 c p3
346.29 508.87 0.43 c p3
346.44 509.02 0.43 c p3
346.59 509.02 0.43 c p3
346.73 508.87 0.43 c p3
346.88 508.48 0.43 c p3
347.02 509.02 0.43 c p3
347.17 509.30 0.43 c p3
347.31 509.30 0.43 c p3
347.46 509.69 0.43 c p3
347.60 509.57 0.43 c p3
347.75 508.75 0.43 c p3
347.90 509.02 0.43 c p3
348.04 509.42 0.43 c p3
348.19 509.42 0.43 c p3
348.33 509.15 0.43 c p3
348.48 509.96 0.43 c p3
348.62 508.75 0.43 c p3
348.77 508.60 0.43 c p3
348.92 510.38 0.43 c p3
349.06 506.74 0.43 c p3
349.21 507.01 0.43 c p3
349.35 509.84 0.43 c p3
349.50 508.87 0.43 c p3
349.64 508.33 0.43 c p3
349.79 508.33 0.43 c p3
349.93 508.75 0.43 c p3
350.08 508.75 0.43 c p3
350.23 508.60 0.43 c p3
350.37 509.15 0.43 c p3
350.52 509.42 0.43 c p3
350.66 508.48 0.43 c p3
350.81 509.57 0.43 c p3
350.95 508.75 0.43 c p3
351.10 509.15 0.43 c p3
351.24 509.42 0.43 c p3
351.39 509.84 0.43 c p3
351.54 508.87 0.43 c p3
351.68 509.15 0.43 c p3
351.83 510.11 0.43 c p3
351.97 509.30 0.43 c p3
352.12 509.84 0.43 c p3
352.26 509.30 0.43 c p3
352.41 509.02 0.43 c p3
352.55 509.02 0.43 c p3
352.70 509.15 0.43 c p3
352.85 509.15 0.43 c p3
352.99 509.84 0.43 c p3
353.14 510.23 0.43 c p3
353.28 509.30 0.43 c p3
353.43 509.15 0.43 c p3
353.57 509.84 0.43 c p3
353.72 509.15 0.43 c p3
353.86 509.69 0.43 c p3
354.01 509.69 0.43 c p3
354.16 510.11 0.43 c p3
354.30 509.69 0.43 c p3
354.45 509.69 0.43 c p3
354.59 509.69 0.43 c p3
354.74 509.69 0.43 c p3
354.88 508.75 0.43 c p3
355.03 509.15 0.43 c p3
355.18 509.30 0.43 c p3
355.32 509.69 0.43 c p3
355.47 509.96 0.43 c p3
355.61 510.50 0.43 c p3
355.76 509.84 0.43 c p3
355.90 509.30 0.43 c p3
356.05 509.42 0.43 c p3
356.19 509.96 0.43 c p3
356.34 509.42 0.43 c p3
356.49 510.23 0.43 c p3
356.63 509.15 0.43 c p3
356.78 510.23 0.43 c p3
356.92 509.84 0.43 c p3
357.07 509.84 0.43 c p3
357.21 510.65 0.43 c p3
357.36 510.11 0.43 c p3
357.50 509.96 0.43 c p3
357.65 509.42 0.43 c p3
357.80 509.57 0.43 c p3
357.94 509.57 0.43 c p3
358.09 509.69 0.43 c p3
358.23 509.96 0.43 c p3
358.38 509.84 0.43 c p3
358.52 509.96 0.43 c p3
358.67 510.23 0.43 c p3
358.81 510.65 0.43 c p3
358.96 509.69 0.43 c p3
359.11 510.23 0.43 c p3
359.25 509.30 0.43 c p3
359.40 509.96 0.43 c p3
359.54 510.11 0.43 c p3
359.69 510.23 0.43 c p3
359.83 510.11 0.43 c p3
359.98 509.96 0.43 c p3
360.13 509.84 0.43 c p3
360.27 509.96 0.43 c p3
360.42 509.57 0.43 c p3
360.56 510.11 0.43 c p3
360.71 509.96 0.43 c p3
360.85 509.84 0.43 c p3
361.00 509.69 0.43 c p3
361.14 510.11 0.43 c p3
361.29 510.38 0.43 c p3
361.44 510.65 0.43 c p3
361.58 510.23 0.43 c p3
361.73 510.11 0.43 c p3
361.87 509.84 0.43 c p3
362.02 510.38 0.43 c p3
362.16 509.96 0.43 c p3
362.31 509.84 0.43 c p3
362.45 509.57 0.43 c p3
362.60 510.11 0.43 c p3
362.75 509.57 0.43 c p3
362.89 510.38 0.43 c p3
363.04 510.38 0.43 c p3
363.18 510.38 0.43 c p3
363.33 510.11 0.43 c p3
363.47 510.38 0.43 c p3
363.62 509.42 0.43 c p3
363.76 510.50 0.43 c p3
363.91 510.38 0.43 c p3
364.06 510.65 0.43 c p3
364.20 510.50 0.43 c p3
364.35 509.96 0.43 c p3
364.49 509.96 0.43 c p3
364.64 510.38 0.43 c p3
364.78 510.38 0.43 c p3
364.93 510.38 0.43 c p3
365.08 510.38 0.43 c p3
365.22 510.11 0.43 c p3
365.37 510.11 0.43 c p3
365.51 510.50 0.43 c p3
365.66 509.84 0.43 c p3
365.80 511.04 0.43 c p3
365.95 510.11 0.43 c p3
366.09 510.11 0.43 c p3
366.24 509.96 0.43 c p3
366.39 510.77 0.43 c p3
366.53 510.11 0.43 c p3
366.68 510.38 0.43 c p3
366.82 510.23 0.43 c p3
366.97 510.38 0.43 c p3
367.11 510.65 0.43 c p3
367.26 510.38 0.43 c p3
367.40 510.23 0.43 c p3
367.55 510.92 0.43 c p3
367.70 509.96 0.43 c p3
367.84 510.77 0.43 c p3
367.99 510.38 0.43 c p3
368.13 511.19 0.43 c p3
368.28 510.38 0.43 c p3
368.42 509.84 0.43 c p3
368.57 510.23 0.43 c p3
368.71 510.11 0.43 c p3
368.86 510.77 0.43 c p3
369.01 510.77 0.43 c p3
369.15 511.04 0.43 c p3
369.30 510.50 0.43 c p3
369.44 510.38 0.43 c p3
369.59 510.92 0.43 c p3
369.73 510.23 0.43 c p3
369.88 510.77 0.43 c p3
370.03 510.65 0.43 c p3
370.17 510.92 0.43 c p3
370.32 510.77 0.43 c p3
370.46 510.23 0.43 c p3
370.61 510.38 0.43 c p3
370.75 510.92 0.43 c p3
370.90 510.23 0.43 c p3
371.04 510.65 0.43 c p3
371.19 510.65 0.43 c p3
371.34 510.77 0.43 c p3
371.48 510.50 0.43 c p3
371.63 511.19 0.43 c p3
371.77 510.77 0.43 c p3
371.92 510.23 0.43 c p3
372.06 510.65 0.43 c p3
372.21 510.92 0.43 c p3
372.35 510.38 0.43 c p3
372.50 510.92 0.43 c p3
372.65 510.23 0.43 c p3
372.79 511.04 0.43 c p3
372.94 510.38 0.43 c p3
373.08 511.04 0.43 c p3
373.23 510.77 0.43 c p3
373.37 510.77 0.43 c p3
373.52 510.65 0.43 c p3
373.66 511.19 0.43 c p3
373.81 511.31 0.43 c p3
373.96 511.19 0.43 c p3
374.10 510.11 0.43 c p3
374.25 510.77 0.43 c p3
374.39 510.50 0.43 c p3
374.54 511.19 0.43 c p3
374.68 510.65 0.43 c p3
374.83 510.92 0.43 c p3
374.98 510.50 0.43 c p3
375.12 510.92 0.43 c p3
375.27 510.65 0.43 c p3
375.41 510.77 0.43 c p3
375.56 511.04 0.43 c p3
375.70 510.92 0.43 c p3
375.85 511.04 0.43 c p3
375.99 510.38 0.43 c p3
376.14 510.77 0.43 c p3
376.29 511.73 0.43 c p3
376.43 510.11 0.43 c p3
376.58 511.31 0.43 c p3
376.72 511.19 0.43 c p3
376.87 510.77 0.43 c p3
377.01 510.38 0.43 c p3
377.16 510.50 0.43 c p3
377.30 511.19 0.43 c p3
377.45 511.46 0.43 c p3
377.60 510.65 0.43 c p3
377.74 511.19 0.43 c p3
377.89 511.04 0.43 c p3
378.03 511.19 0.43 c p3
378.18 511.19 0.43 c p3
378.32 510.38 0.43 c p3
378.47 511.04 0.43 c p3
378.61 510.92 0.43 c p3
378.76 510.77 0.43 c p3
378.91 511.31 0.43 c p3
379.05 510.38 0.43 c p3
379.20 511.19 0.43 c p3
379.34 510.50 0.43 c p3
379.49 511.19 0.43 c p3
379.63 511.19 0.43 c p3
379.78 511.58 0.43 c p3
379.93 510.92 0.43 c p3
380.07 511.19 0.43 c p3
380.22 511.19 0.43 c p3
380.36 510.65 0.43 c p3
380.51 510.50 0.43 c p3
380.65 512.00 0.43 c p3
380.80 511.19 0.43 c p3
380.94 510.50 0.43 c p3
381.09 510.92 0.43 c p3
381.24 511.85 0.43 c p3
381.38 511.19 0.43 c p3
381.53 511.58 0.43 c p3
381.67 511.31 0.43 c p3
381.82 510.77 0.43 c p3
381.96 511.46 0.43 c p3
382.11 511.31 0.43 c p3
382.25 511.04 0.43 c p3
382.40 511.31 0.43 c p3
0.00 0.00 432.00 576.00 cl
0 0 0 srgb
0.75 setlinewidth
[] 0 setdash
1 setlinecap
1 setlinejoin
10.00 setmiterlimit
np
236.96 345.60 m
145.59 0 l
o
np
236.96 345.60 m
0 -5.76 l
o
np
266.08 345.60 m
0 -5.76 l
o
np
295.19 345.60 m
0 -5.76 l
o
np
324.31 345.60 m
0 -5.76 l
o
np
353.43 345.60 m
0 -5.76 l
o
np
382.55 345.60 m
0 -5.76 l
o
/Font1 findfont 10 s
236.96 329.47 (0) .5 0 t
266.08 329.47 (2000) .5 0 t
324.31 329.47 (6000) .5 0 t
382.55 329.47 (10000) .5 0 t
np
216.00 352.00 m
0 147.71 l
o
np
216.00 352.00 m
-5.76 0 l
o
np
216.00 376.62 m
-5.76 0 l
o
np
216.00 401.24 m
-5.76 0 l
o
np
216.00 425.86 m
-5.76 0 l
o
np
216.00 450.47 m
-5.76 0 l
o
np
216.00 475.09 m
-5.76 0 l
o
np
216.00 499.71 m
-5.76 0 l
o
209.09 348.41 (0.0) 1 0 t
209.09 373.03 (0.2) 1 0 t
209.09 397.65 (0.4) 1 0 t
209.09 422.27 (0.6) 1 0 t
209.09 446.88 (0.8) 1 0 t
209.09 471.50 (1.0) 1 0 t
209.09 496.12 (1.2) 1 0 t
np
216.00 345.60 m
172.80 0 l
0 172.80 l
-172.80 0 l
0 -172.80 l
o
0.00 0.00 432.00 576.00 cl
/Font1 findfont 10 s
0 0 0 srgb
302.40 313.34 (Zeit / ms \(total\)) .5 0 t
190.66 432.00 (U / V) .5 90 t
216.00 345.60 388.80 518.40 cl
0 0 0 srgb
0.38 setlinewidth
[ 1.12 1.88] 0 setdash
1 setlinecap
1 setlinejoin
10.00 setmiterlimit
np
223.86 345.60 m
0 172.80 l
o
np
234.34 345.60 m
0 172.80 l
o
np
239.14 345.60 m
0 172.80 l
o
np
340.18 345.60 m
0 172.80 l
o
86.40 57.60 388.80 288.00 cl
1 0 0 srgb
1.50 setlinewidth
[] 0 setdash
1 setlinecap
1 setlinejoin
10.00 setmiterlimit
np
97.60 279.47 m
1.41 -9.52 l
1.40 -9.09 l
1.41 -8.69 l
1.41 -8.30 l
1.41 -7.93 l
1.40 -7.57 l
1.41 -7.24 l
1.41 -6.91 l
1.40 -6.61 l
1.41 -6.31 l
1.41 -6.03 l
1.40 -5.76 l
1.41 -5.50 l
1.41 -5.26 l
1.41 -5.03 l
1.40 -4.80 l
1.41 -4.58 l
1.41 -4.38 l
1.40 -4.19 l
1.41 -4.00 l
1.41 -3.82 l
1.40 -3.65 l
1.41 -3.49 l
1.41 -3.33 l
1.41 -3.18 l
1.40 -3.04 l
1.41 -2.91 l
1.41 -2.78 l
1.40 -2.65 l
1.41 -2.53 l
1.41 -2.42 l
1.41 -2.32 l
1.40 -2.21 l
1.41 -2.11 l
1.41 -2.01 l
1.40 -1.93 l
1.41 -1.84 l
1.41 -1.76 l
1.40 -1.68 l
1.41 -1.61 l
1.41 -1.53 l
1.41 -1.47 l
1.40 -1.40 l
1.41 -1.34 l
1.41 -1.27 l
1.40 -1.22 l
1.41 -1.17 l
1.41 -1.12 l
1.40 -1.06 l
1.41 -1.02 l
1.41 -0.97 l
1.41 -0.93 l
1.40 -0.89 l
1.41 -0.84 l
1.41 -0.81 l
1.40 -0.78 l
1.41 -0.74 l
1.41 -0.70 l
1.41 -0.68 l
1.40 -0.64 l
1.41 -0.62 l
1.41 -0.59 l
1.40 -0.56 l
1.41 -0.54 l
1.41 -0.51 l
1.40 -0.49 l
1.41 -0.47 l
1.41 -0.45 l
1.41 -0.42 l
1.40 -0.41 l
1.41 -0.39 l
1.41 -0.37 l
1.40 -0.36 l
1.41 -0.34 l
1.41 -0.33 l
1.40 -0.31 l
1.41 -0.29 l
1.41 -0.29 l
1.41 -0.27 l
1.40 -0.26 l
1.41 -0.24 l
1.41 -0.24 l
1.40 -0.23 l
1.41 -0.21 l
1.41 -0.21 l
1.41 -0.19 l
1.40 -0.19 l
1.41 -0.18 l
1.41 -0.17 l
1.40 -0.17 l
1.41 -0.15 l
1.41 -0.15 l
1.40 -0.15 l
1.41 -0.13 l
1.41 -0.13 l
1.41 -0.13 l
1.40 -0.12 l
1.41 -0.11 l
1.41 -0.11 l
238.30 68.34 lineto
1.41 -0.10 l
1.41 -0.10 l
1.40 -0.09 l
1.41 -0.09 l
1.41 -0.08 l
1.41 -0.08 l
1.40 -0.07 l
1.41 -0.08 l
1.41 -0.06 l
1.40 -0.07 l
1.41 -0.06 l
1.41 -0.06 l
1.40 -0.06 l
1.41 -0.06 l
1.41 -0.05 l
1.41 -0.05 l
1.40 -0.05 l
1.41 -0.04 l
1.41 -0.05 l
1.40 -0.04 l
1.41 -0.04 l
1.41 -0.04 l
1.41 -0.03 l
1.40 -0.04 l
1.41 -0.03 l
1.41 -0.03 l
1.40 -0.03 l
1.41 -0.03 l
1.41 -0.03 l
1.40 -0.02 l
1.41 -0.03 l
1.41 -0.02 l
1.41 -0.03 l
1.40 -0.02 l
1.41 -0.02 l
1.41 -0.02 l
1.40 -0.02 l
1.41 -0.02 l
1.41 -0.02 l
1.40 -0.01 l
1.41 -0.02 l
1.41 -0.01 l
1.41 -0.02 l
1.40 -0.01 l
1.41 -0.02 l
1.41 -0.01 l
1.40 -0.01 l
1.41 -0.01 l
1.41 -0.01 l
1.41 -0.01 l
1.40 -0.01 l
1.41 -0.01 l
1.41 -0.01 l
1.40 -0.01 l
1.41 -0.01 l
1.41 -0.01 l
1.40 -0.01 l
1.41 0 l
1.41 -0.01 l
1.41 -0.01 l
1.40 0 l
1.41 -0.01 l
1.41 -0.01 l
1.40 0 l
1.41 -0.01 l
1.41 0 l
1.40 -0.01 l
1.41 0 l
1.41 -0.01 l
1.41 0 l
1.40 0 l
1.41 -0.01 l
1.41 0 l
1.40 0 l
1.41 -0.01 l
1.41 0 l
1.41 0 l
1.40 -0.01 l
1.41 0 l
1.41 0 l
1.40 -0.01 l
1.41 0 l
1.41 0 l
1.40 0 l
1.41 0 l
1.41 -0.01 l
1.41 0 l
1.40 0 l
1.41 0 l
1.41 0 l
1.40 -0.01 l
1.41 0 l
1.41 0 l
1.40 0 l
1.41 0 l
1.41 0 l
1.41 0 l
1.40 -0.01 l
1.41 0 l
o
0.00 0.00 432.00 576.00 cl
0 0 0 srgb
0.75 setlinewidth
[] 0 setdash
1 setlinecap
1 setlinejoin
10.00 setmiterlimit
np
97.60 57.60 m
280.00 0 l
o
np
97.60 57.60 m
0 -5.76 l
o
np
153.60 57.60 m
0 -5.76 l
o
np
209.60 57.60 m
0 -5.76 l
o
np
265.60 57.60 m
0 -5.76 l
o
np
321.60 57.60 m
0 -5.76 l
o
np
377.60 57.60 m
0 -5.76 l
o
/Font1 findfont 10 s
97.60 41.47 (0) .5 0 t
153.60 41.47 (2000) .5 0 t
209.60 41.47 (4000) .5 0 t
265.60 41.47 (6000) .5 0 t
321.60 41.47 (8000) .5 0 t
377.60 41.47 (10000) .5 0 t
np
86.40 66.62 m
0 198.34 l
o
np
86.40 66.62 m
-5.76 0 l
o
np
86.40 116.20 m
-5.76 0 l
o
np
86.40 165.79 m
-5.76 0 l
o
np
86.40 215.37 m
-5.76 0 l
o
np
86.40 264.96 m
-5.76 0 l
o
79.49 63.03 (0.0) 1 0 t
79.49 112.61 (0.1) 1 0 t
79.49 162.20 (0.2) 1 0 t
79.49 211.78 (0.3) 1 0 t
79.49 261.37 (0.4) 1 0 t
np
86.40 57.60 m
302.40 0 l
0 230.40 l
-302.40 0 l
0 -230.40 l
o
0.00 0.00 432.00 576.00 cl
/Font1 findfont 10 s
0 0 0 srgb
237.60 13.82 (Zeit / ms \(nach Puls\)) .5 0 t
49.54 172.80 (Absorbanz A) .5 90 t
86.40 57.60 388.80 288.00 cl
/bg { 1 1 1 srgb } def
0 0 0 srgb
0.75 setlinewidth
[] 0 setdash
1 setlinecap
1 setlinejoin
10.00 setmiterlimit
102.08 258.75 0.65 c p3
102.36 256.42 0.65 c p3
102.64 256.02 0.65 c p3
102.92 252.83 0.65 c p3
103.20 249.78 0.65 c p3
103.48 247.54 0.65 c p3
103.76 244.09 0.65 c p3
104.04 244.94 0.65 c p3
104.32 240.31 0.65 c p3
104.60 240.31 0.65 c p3
104.88 236.15 0.65 c p3
105.16 234.96 0.65 c p3
105.44 234.96 0.65 c p3
105.72 233.32 0.65 c p3
106.00 230.44 0.65 c p3
106.28 230.09 0.65 c p3
106.56 224.89 0.65 c p3
106.84 225.67 0.65 c p3
107.12 222.64 0.65 c p3
107.40 221.86 0.65 c p3
107.68 217.62 0.65 c p3
107.96 219.14 0.65 c p3
108.24 214.61 0.65 c p3
108.52 217.62 0.65 c p3
108.80 216.11 0.65 c p3
109.08 213.53 0.65 c p3
109.36 211.31 0.65 c p3
109.64 209.85 0.65 c p3
109.92 208.39 0.65 c p3
110.20 207.35 0.65 c p3
110.48 206.22 0.65 c p3
110.76 205.51 0.65 c p3
111.04 202.35 0.65 c p3
111.32 202.66 0.65 c p3
111.60 199.54 0.65 c p3
111.88 199.85 0.65 c p3
112.16 198.16 0.65 c p3
112.44 196.40 0.65 c p3
112.72 195.71 0.65 c p3
113.00 193.67 0.65 c p3
113.28 192.99 0.65 c p3
113.56 190.38 0.65 c p3
113.84 191.35 0.65 c p3
114.12 188.39 0.65 c p3
114.40 188.02 0.65 c p3
114.68 186.41 0.65 c p3
114.96 184.74 0.65 c p3
115.24 185.11 0.65 c p3
115.52 183.45 0.65 c p3
115.80 182.52 0.65 c p3
116.08 180.59 0.65 c p3
116.36 180.59 0.65 c p3
116.64 178.41 0.65 c p3
116.92 179.60 0.65 c p3
117.20 176.52 0.65 c p3
117.48 176.18 0.65 c p3
117.76 173.07 0.65 c p3
118.04 172.80 0.65 c p3
118.32 172.80 0.65 c p3
118.60 171.57 0.65 c p3
118.88 171.57 0.65 c p3
119.16 170.35 0.65 c p3
119.44 169.75 0.65 c p3
119.72 169.14 0.65 c p3
120.00 165.28 0.65 c p3
120.28 167.34 0.65 c p3
120.56 164.95 0.65 c p3
120.84 165.54 0.65 c p3
121.12 163.18 0.65 c p3
121.40 163.18 0.65 c p3
121.68 162.00 0.65 c p3
121.96 159.42 0.65 c p3
122.24 160.26 0.65 c p3
122.52 157.69 0.65 c p3
122.80 157.95 0.65 c p3
123.08 157.69 0.65 c p3
123.36 154.53 0.65 c p3
123.64 156.80 0.65 c p3
123.92 154.53 0.65 c p3
124.20 155.10 0.65 c p3
124.48 151.48 0.65 c p3
124.76 151.48 0.65 c p3
125.04 152.90 0.65 c p3
125.32 151.48 0.65 c p3
125.60 148.71 0.65 c p3
125.88 150.12 0.65 c p3
126.16 149.01 0.65 c p3
126.44 147.92 0.65 c p3
126.72 147.37 0.65 c p3
127.00 146.52 0.65 c p3
127.28 146.28 0.65 c p3
127.56 145.98 0.65 c p3
127.84 145.19 0.65 c p3
128.12 143.58 0.65 c p3
128.40 144.11 0.65 c p3
128.68 141.73 0.65 c p3
128.96 140.38 0.65 c p3
129.24 141.20 0.65 c p3
129.52 140.91 0.65 c p3
129.80 139.85 0.65 c p3
130.08 138.27 0.65 c p3
130.36 137.75 0.65 c p3
130.64 136.99 0.65 c p3
130.92 136.71 0.65 c p3
131.20 136.99 0.65 c p3
131.48 135.15 0.65 c p3
131.76 134.12 0.65 c p3
132.04 135.44 0.65 c p3
132.32 134.64 0.65 c p3
132.60 133.61 0.65 c p3
132.88 132.36 0.65 c p3
133.16 132.58 0.65 c p3
133.44 130.33 0.65 c p3
133.72 131.06 0.65 c p3
134.00 130.10 0.65 c p3
134.28 128.82 0.65 c p3
134.56 129.82 0.65 c p3
134.84 129.32 0.65 c p3
135.12 127.32 0.65 c p3
135.40 127.60 0.65 c p3
135.68 126.11 0.65 c p3
135.96 125.83 0.65 c p3
136.24 124.84 0.65 c p3
136.52 125.83 0.65 c p3
136.80 124.84 0.65 c p3
137.08 123.86 0.65 c p3
137.36 124.62 0.65 c p3
137.64 124.84 0.65 c p3
137.92 122.40 0.65 c p3
138.20 120.46 0.65 c p3
138.48 121.43 0.65 c p3
138.76 121.69 0.65 c p3
139.04 121.21 0.65 c p3
139.32 120.24 0.65 c p3
139.60 118.80 0.65 c p3
139.88 118.32 0.65 c p3
140.16 119.07 0.65 c p3
140.44 118.32 0.65 c p3
140.72 117.64 0.65 c p3
141.00 117.16 0.65 c p3
141.28 116.69 0.65 c p3
141.56 116.42 0.65 c p3
141.84 115.95 0.65 c p3
142.12 117.37 0.65 c p3
142.40 115.95 0.65 c p3
142.68 114.80 0.65 c p3
142.96 115.01 0.65 c p3
143.24 114.54 0.65 c p3
143.52 113.39 0.65 c p3
143.80 115.27 0.65 c p3
144.08 113.13 0.65 c p3
144.36 112.67 0.65 c p3
144.64 112.20 0.65 c p3
144.92 111.07 0.65 c p3
145.20 112.20 0.65 c p3
145.48 112.00 0.65 c p3
145.76 110.82 0.65 c p3
146.04 109.23 0.65 c p3
146.32 109.03 0.65 c p3
146.60 110.82 0.65 c p3
146.88 109.23 0.65 c p3
147.16 109.49 0.65 c p3
147.44 107.41 0.65 c p3
147.72 109.03 0.65 c p3
148.00 109.03 0.65 c p3
148.28 109.23 0.65 c p3
148.56 106.96 0.65 c p3
148.84 106.96 0.65 c p3
149.12 106.30 0.65 c p3
149.40 106.05 0.65 c p3
149.68 104.95 0.65 c p3
149.96 106.05 0.65 c p3
150.24 105.15 0.65 c p3
150.52 104.70 0.65 c p3
150.80 103.16 0.65 c p3
151.08 104.06 0.65 c p3
151.36 103.61 0.65 c p3
151.64 103.81 0.65 c p3
151.92 102.28 0.65 c p3
152.20 103.16 0.65 c p3
152.48 102.28 0.65 c p3
152.76 102.28 0.65 c p3
153.04 102.03 0.65 c p3
153.32 101.15 0.65 c p3
153.60 100.51 0.65 c p3
153.88 101.15 0.65 c p3
154.16 100.07 0.65 c p3
154.44 100.70 0.65 c p3
154.72 100.70 0.65 c p3
155.00 100.07 0.65 c p3
155.28 99.63 0.65 c p3
155.56 98.76 0.65 c p3
155.84 99.19 0.65 c p3
156.12 99.88 0.65 c p3
156.40 98.13 0.65 c p3
156.68 98.13 0.65 c p3
156.96 97.45 0.65 c p3
157.24 97.69 0.65 c p3
157.52 98.56 0.65 c p3
157.80 97.26 0.65 c p3
158.08 96.16 0.65 c p3
158.36 96.83 0.65 c p3
158.64 97.02 0.65 c p3
158.92 96.83 0.65 c p3
159.20 95.73 0.65 c p3
159.48 96.40 0.65 c p3
159.76 95.97 0.65 c p3
160.04 95.30 0.65 c p3
160.32 94.87 0.65 c p3
160.60 95.54 0.65 c p3
160.88 94.44 0.65 c p3
161.16 93.40 0.65 c p3
161.44 93.59 0.65 c p3
161.72 94.68 0.65 c p3
162.00 93.82 0.65 c p3
162.28 93.82 0.65 c p3
162.56 92.74 0.65 c p3
162.84 92.55 0.65 c p3
163.12 92.55 0.65 c p3
163.40 93.59 0.65 c p3
163.68 92.31 0.65 c p3
163.96 91.70 0.65 c p3
164.24 92.13 0.65 c p3
164.52 92.97 0.65 c p3
164.80 91.70 0.65 c p3
165.08 91.52 0.65 c p3
165.36 91.09 0.65 c p3
165.64 90.86 0.65 c p3
165.92 90.86 0.65 c p3
166.20 91.09 0.65 c p3
166.48 90.44 0.65 c p3
166.76 91.28 0.65 c p3
167.04 88.77 0.65 c p3
167.32 89.84 0.65 c p3
167.60 89.84 0.65 c p3
167.88 90.25 0.65 c p3
168.16 89.42 0.65 c p3
168.44 89.00 0.65 c p3
168.72 89.00 0.65 c p3
169.00 89.00 0.65 c p3
169.28 87.75 0.65 c p3
169.56 89.00 0.65 c p3
169.84 88.35 0.65 c p3
170.12 87.94 0.65 c p3
170.40 87.52 0.65 c p3
170.68 88.35 0.65 c p3
170.96 87.94 0.65 c p3
171.24 87.34 0.65 c p3
171.52 86.70 0.65 c p3
171.80 86.93 0.65 c p3
172.08 86.51 0.65 c p3
172.36 87.34 0.65 c p3
172.64 87.34 0.65 c p3
172.92 86.70 0.65 c p3
173.20 85.69 0.65 c p3
173.48 86.10 0.65 c p3
173.76 85.69 0.65 c p3
174.04 86.51 0.65 c p3
174.32 85.69 0.65 c p3
174.60 85.69 0.65 c p3
174.88 84.64 0.65 c p3
175.16 85.46 0.65 c p3
175.44 85.28 0.65 c p3
175.72 85.05 0.65 c p3
176.00 83.83 0.65 c p3
176.28 84.64 0.65 c p3
176.56 83.83 0.65 c p3
176.84 84.46 0.65 c p3
177.12 84.24 0.65 c p3
177.40 84.46 0.65 c p3
177.68 83.42 0.65 c p3
177.96 84.24 0.65 c p3
178.24 83.65 0.65 c p3
178.52 83.65 0.65 c p3
178.80 83.02 0.65 c p3
179.08 82.66 0.65 c p3
179.36 82.66 0.65 c p3
179.64 83.02 0.65 c p3
179.92 82.66 0.65 c p3
180.20 82.43 0.65 c p3
180.48 82.25 0.65 c p3
180.76 82.66 0.65 c p3
181.04 82.43 0.65 c p3
181.32 81.85 0.65 c p3
181.60 81.45 0.65 c p3
181.88 82.66 0.65 c p3
182.16 81.04 0.65 c p3
182.44 81.22 0.65 c p3
182.72 81.45 0.65 c p3
183.00 81.45 0.65 c p3
183.28 80.24 0.65 c p3
183.56 80.64 0.65 c p3
183.84 80.82 0.65 c p3
184.12 81.22 0.65 c p3
184.40 80.64 0.65 c p3
184.68 80.42 0.65 c p3
184.96 80.24 0.65 c p3
185.24 80.24 0.65 c p3
185.52 80.82 0.65 c p3
185.80 78.82 0.65 c p3
186.08 80.82 0.65 c p3
186.36 79.84 0.65 c p3
186.64 79.84 0.65 c p3
186.92 80.42 0.65 c p3
187.20 79.22 0.65 c p3
187.48 79.44 0.65 c p3
187.76 78.82 0.65 c p3
188.04 79.44 0.65 c p3
188.32 79.05 0.65 c p3
188.60 78.82 0.65 c p3
188.88 78.43 0.65 c p3
189.16 79.05 0.65 c p3
189.44 78.43 0.65 c p3
189.72 78.03 0.65 c p3
190.00 78.65 0.65 c p3
190.28 78.43 0.65 c p3
190.56 78.25 0.65 c p3
190.84 78.03 0.65 c p3
191.12 77.63 0.65 c p3
191.40 77.63 0.65 c p3
191.68 77.24 0.65 c p3
191.96 77.46 0.65 c p3
192.24 77.24 0.65 c p3
192.52 77.46 0.65 c p3
192.80 77.46 0.65 c p3
193.08 77.85 0.65 c p3
193.36 77.46 0.65 c p3
193.64 79.22 0.65 c p3
193.92 77.63 0.65 c p3
194.20 77.06 0.65 c p3
194.48 75.88 0.65 c p3
194.76 77.24 0.65 c p3
195.04 76.67 0.65 c p3
195.32 76.67 0.65 c p3
195.60 77.63 0.65 c p3
195.88 76.45 0.65 c p3
196.16 75.88 0.65 c p3
196.44 77.24 0.65 c p3
196.72 76.28 0.65 c p3
197.00 76.45 0.65 c p3
197.28 75.28 0.65 c p3
197.56 75.67 0.65 c p3
197.84 76.85 0.65 c p3
198.12 75.28 0.65 c p3
198.40 75.49 0.65 c p3
198.68 75.49 0.65 c p3
198.96 75.28 0.65 c p3
199.24 76.28 0.65 c p3
199.52 76.28 0.65 c p3
199.80 75.49 0.65 c p3
200.08 75.28 0.65 c p3
200.36 75.28 0.65 c p3
200.64 75.10 0.65 c p3
200.92 74.15 0.65 c p3
201.20 74.32 0.65 c p3
201.48 74.88 0.65 c p3
201.76 75.49 0.65 c p3
202.04 75.67 0.65 c p3
202.32 75.10 0.65 c p3
202.60 74.32 0.65 c p3
202.88 73.93 0.65 c p3
203.16 74.49 0.65 c p3
203.44 74.49 0.65 c p3
203.72 75.10 0.65 c p3
204.00 73.76 0.65 c p3
204.28 74.15 0.65 c p3
204.56 73.93 0.65 c p3
204.84 74.32 0.65 c p3
205.12 72.77 0.65 c p3
205.40 74.32 0.65 c p3
205.68 73.16 0.65 c p3
205.96 73.16 0.65 c p3
206.24 73.37 0.65 c p3
206.52 73.76 0.65 c p3
206.80 73.54 0.65 c p3
207.08 73.37 0.65 c p3
207.36 73.93 0.65 c p3
207.64 72.98 0.65 c p3
207.92 73.37 0.65 c p3
208.20 72.98 0.65 c p3
208.48 73.37 0.65 c p3
208.76 72.98 0.65 c p3
209.04 72.98 0.65 c p3
209.32 73.54 0.65 c p3
209.60 72.60 0.65 c p3
209.88 72.98 0.65 c p3
210.16 73.16 0.65 c p3
210.44 72.21 0.65 c p3
210.72 72.38 0.65 c p3
211.00 73.76 0.65 c p3
211.28 72.38 0.65 c p3
211.56 72.77 0.65 c p3
211.84 72.60 0.65 c p3
212.12 72.38 0.65 c p3
212.40 72.98 0.65 c p3
212.68 72.98 0.65 c p3
212.96 72.00 0.65 c p3
213.24 71.61 0.65 c p3
213.52 72.21 0.65 c p3
213.80 72.21 0.65 c p3
214.08 71.06 0.65 c p3
214.36 72.77 0.65 c p3
214.64 72.00 0.65 c p3
214.92 71.83 0.65 c p3
215.20 71.44 0.65 c p3
215.48 72.00 0.65 c p3
215.76 70.85 0.65 c p3
216.04 71.44 0.65 c p3
216.32 71.23 0.65 c p3
216.60 70.85 0.65 c p3
216.88 72.00 0.65 c p3
217.16 71.83 0.65 c p3
217.44 71.06 0.65 c p3
217.72 72.00 0.65 c p3
218.00 71.61 0.65 c p3
218.28 71.06 0.65 c p3
218.56 70.85 0.65 c p3
218.84 71.61 0.65 c p3
219.12 70.29 0.65 c p3
219.40 70.85 0.65 c p3
219.68 71.44 0.65 c p3
219.96 71.23 0.65 c p3
220.24 71.61 0.65 c p3
220.52 71.44 0.65 c p3
220.80 70.46 0.65 c p3
221.08 70.85 0.65 c p3
221.36 71.44 0.65 c p3
221.64 70.08 0.65 c p3
221.92 69.70 0.65 c p3
222.20 70.85 0.65 c p3
222.48 69.91 0.65 c p3
222.76 70.08 0.65 c p3
223.04 69.91 0.65 c p3
223.32 70.46 0.65 c p3
223.60 70.08 0.65 c p3
223.88 70.29 0.65 c p3
224.16 69.32 0.65 c p3
224.44 70.85 0.65 c p3
224.72 69.15 0.65 c p3
225.00 70.29 0.65 c p3
225.28 69.32 0.65 c p3
225.56 70.08 0.65 c p3
225.84 70.29 0.65 c p3
226.12 70.08 0.65 c p3
226.40 69.53 0.65 c p3
226.68 70.46 0.65 c p3
226.96 69.53 0.65 c p3
227.24 70.08 0.65 c p3
227.52 69.91 0.65 c p3
227.80 69.91 0.65 c p3
228.08 69.70 0.65 c p3
228.36 69.70 0.65 c p3
228.64 69.70 0.65 c p3
228.92 70.08 0.65 c p3
229.20 69.70 0.65 c p3
229.48 69.70 0.65 c p3
229.76 69.32 0.65 c p3
230.04 69.15 0.65 c p3
230.32 68.77 0.65 c p3
230.60 70.68 0.65 c p3
230.88 68.77 0.65 c p3
231.16 68.94 0.65 c p3
231.44 68.77 0.65 c p3
231.72 69.53 0.65 c p3
232.00 69.70 0.65 c p3
232.28 69.15 0.65 c p3
232.56 68.56 0.65 c p3
232.84 67.63 0.65 c p3
233.12 69.15 0.65 c p3
233.40 69.32 0.65 c p3
233.68 69.32 0.65 c p3
233.96 69.53 0.65 c p3
234.24 68.94 0.65 c p3
234.52 69.15 0.65 c p3
234.80 68.39 0.65 c p3
235.08 67.80 0.65 c p3
235.36 68.77 0.65 c p3
235.64 68.56 0.65 c p3
235.92 68.18 0.65 c p3
236.20 68.94 0.65 c p3
236.48 68.94 0.65 c p3
236.76 69.32 0.65 c p3
237.04 68.94 0.65 c p3
237.32 69.15 0.65 c p3
237.60 67.80 0.65 c p3
237.88 66.88 0.65 c p3
238.16 66.51 0.65 c p3
238.44 68.18 0.65 c p3
238.72 68.01 0.65 c p3
239.00 69.53 0.65 c p3
239.28 68.18 0.65 c p3
239.56 69.15 0.65 c p3
239.84 69.70 0.65 c p3
240.12 69.15 0.65 c p3
240.40 68.56 0.65 c p3
240.68 68.94 0.65 c p3
240.96 67.63 0.65 c p3
241.24 67.63 0.65 c p3
241.52 67.26 0.65 c p3
241.80 68.39 0.65 c p3
242.08 68.94 0.65 c p3
242.36 68.94 0.65 c p3
242.64 68.77 0.65 c p3
242.92 68.94 0.65 c p3
243.20 67.63 0.65 c p3
243.48 65.96 0.65 c p3
243.76 67.05 0.65 c p3
244.04 67.43 0.65 c p3
244.32 66.30 0.65 c p3
244.60 67.63 0.65 c p3
244.88 68.39 0.65 c p3
245.16 68.56 0.65 c p3
245.44 68.18 0.65 c p3
245.72 67.43 0.65 c p3
246.00 66.67 0.65 c p3
246.28 67.26 0.65 c p3
246.56 67.26 0.65 c p3
246.84 68.01 0.65 c p3
247.12 67.05 0.65 c p3
247.40 67.05 0.65 c p3
247.68 67.43 0.65 c p3
247.96 68.18 0.65 c p3
248.24 67.43 0.65 c p3
248.52 68.01 0.65 c p3
248.80 67.26 0.65 c p3
249.08 67.63 0.65 c p3
249.36 67.80 0.65 c p3
249.64 66.67 0.65 c p3
249.92 67.26 0.65 c p3
250.20 67.63 0.65 c p3
250.48 67.26 0.65 c p3
250.76 67.43 0.65 c p3
251.04 66.67 0.65 c p3
251.32 67.43 0.65 c p3
251.60 66.30 0.65 c p3
251.88 66.88 0.65 c p3
252.16 66.13 0.65 c p3
252.44 67.05 0.65 c p3
252.72 67.26 0.65 c p3
253.00 67.63 0.65 c p3
253.28 65.96 0.65 c p3
253.56 67.63 0.65 c p3
253.84 65.59 0.65 c p3
254.12 66.30 0.65 c p3
254.40 65.38 0.65 c p3
254.68 67.43 0.65 c p3
254.96 66.67 0.65 c p3
255.24 67.80 0.65 c p3
255.52 66.13 0.65 c p3
255.80 66.51 0.65 c p3
256.08 66.67 0.65 c p3
256.36 66.51 0.65 c p3
256.64 66.30 0.65 c p3
256.92 66.13 0.65 c p3
257.20 65.59 0.65 c p3
257.48 66.67 0.65 c p3
257.76 65.96 0.65 c p3
258.04 66.51 0.65 c p3
258.32 67.05 0.65 c p3
258.60 66.30 0.65 c p3
258.88 66.13 0.65 c p3
259.16 66.13 0.65 c p3
259.44 65.96 0.65 c p3
259.72 67.26 0.65 c p3
260.00 66.67 0.65 c p3
260.28 66.88 0.65 c p3
260.56 65.59 0.65 c p3
260.84 65.96 0.65 c p3
261.12 66.13 0.65 c p3
261.40 66.13 0.65 c p3
261.68 66.13 0.65 c p3
261.96 66.30 0.65 c p3
262.24 65.38 0.65 c p3
262.52 65.96 0.65 c p3
262.80 65.76 0.65 c p3
263.08 66.30 0.65 c p3
263.36 65.59 0.65 c p3
263.64 66.13 0.65 c p3
263.92 65.96 0.65 c p3
264.20 66.30 0.65 c p3
264.48 65.59 0.65 c p3
264.76 66.13 0.65 c p3
265.04 65.59 0.65 c p3
265.32 65.38 0.65 c p3
265.60 64.64 0.65 c p3
265.88 66.30 0.65 c p3
266.16 65.96 0.65 c p3
266.44 65.22 0.65 c p3
266.72 66.51 0.65 c p3
267.00 65.38 0.65 c p3
267.28 65.59 0.65 c p3
267.56 66.30 0.65 c p3
267.84 66.13 0.65 c p3
268.12 66.67 0.65 c p3
268.40 65.38 0.65 c p3
268.68 65.38 0.65 c p3
268.96 64.26 0.65 c p3
269.24 65.96 0.65 c p3
269.52 66.51 0.65 c p3
269.80 65.38 0.65 c p3
270.08 65.38 0.65 c p3
270.36 65.59 0.65 c p3
270.64 65.96 0.65 c p3
270.92 65.76 0.65 c p3
271.20 65.38 0.65 c p3
271.48 65.59 0.65 c p3
271.76 64.26 0.65 c p3
272.04 65.59 0.65 c p3
272.32 64.64 0.65 c p3
272.60 66.13 0.65 c p3
272.88 65.01 0.65 c p3
273.16 66.13 0.65 c p3
273.44 65.96 0.65 c p3
273.72 65.01 0.65 c p3
274.00 65.01 0.65 c p3
274.28 65.96 0.65 c p3
274.56 64.10 0.65 c p3
274.84 65.59 0.65 c p3
275.12 65.22 0.65 c p3
275.40 64.26 0.65 c p3
275.68 64.47 0.65 c p3
275.96 65.38 0.65 c p3
276.24 64.47 0.65 c p3
276.52 65.22 0.65 c p3
276.80 65.22 0.65 c p3
277.08 65.38 0.65 c p3
277.36 64.64 0.65 c p3
277.64 66.13 0.65 c p3
277.92 64.84 0.65 c p3
278.20 65.38 0.65 c p3
278.48 65.59 0.65 c p3
278.76 65.22 0.65 c p3
279.04 65.01 0.65 c p3
279.32 64.26 0.65 c p3
279.60 65.01 0.65 c p3
279.88 64.64 0.65 c p3
280.16 64.84 0.65 c p3
280.44 65.01 0.65 c p3
280.72 64.64 0.65 c p3
281.00 64.26 0.65 c p3
281.28 65.38 0.65 c p3
281.56 65.01 0.65 c p3
281.84 64.47 0.65 c p3
282.12 65.38 0.65 c p3
282.40 65.76 0.65 c p3
282.68 64.84 0.65 c p3
282.96 64.84 0.65 c p3
283.24 65.22 0.65 c p3
283.52 64.47 0.65 c p3
283.80 65.96 0.65 c p3
284.08 64.64 0.65 c p3
284.36 64.84 0.65 c p3
284.64 64.47 0.65 c p3
284.92 65.01 0.65 c p3
285.20 65.01 0.65 c p3
285.48 65.38 0.65 c p3
285.76 64.47 0.65 c p3
286.04 65.38 0.65 c p3
286.32 64.64 0.65 c p3
286.60 65.01 0.65 c p3
286.88 63.73 0.65 c p3
287.16 65.22 0.65 c p3
287.44 64.10 0.65 c p3
287.72 66.13 0.65 c p3
288.00 63.73 0.65 c p3
288.28 64.26 0.65 c p3
288.56 63.73 0.65 c p3
288.84 65.01 0.65 c p3
289.12 65.22 0.65 c p3
289.40 64.26 0.65 c p3
289.68 64.26 0.65 c p3
289.96 64.26 0.65 c p3
290.24 65.22 0.65 c p3
290.52 64.47 0.65 c p3
290.80 65.01 0.65 c p3
291.08 63.15 0.65 c p3
291.36 63.89 0.65 c p3
291.64 64.10 0.65 c p3
291.92 63.89 0.65 c p3
292.20 64.26 0.65 c p3
292.48 64.84 0.65 c p3
292.76 65.38 0.65 c p3
293.04 64.64 0.65 c p3
293.32 63.89 0.65 c p3
293.60 64.84 0.65 c p3
293.88 64.47 0.65 c p3
294.16 64.47 0.65 c p3
294.44 64.64 0.65 c p3
294.72 64.10 0.65 c p3
295.00 64.47 0.65 c p3
295.28 63.52 0.65 c p3
295.56 65.01 0.65 c p3
295.84 63.52 0.65 c p3
296.12 64.47 0.65 c p3
296.40 64.10 0.65 c p3
216.00 201.60 367.20 247.68 cl
0 0 0 srgb
0.75 setlinewidth
[] 0 setdash
1 setlinecap
1 setlinejoin
10.00 setmiterlimit
221.60 237.90 0.43 c p1
221.80 236.82 0.43 c p1
222.00 238.86 0.43 c p1
222.21 236.32 0.43 c p1
222.41 234.00 0.43 c p1
222.61 232.97 0.43 c p1
222.81 229.94 0.43 c p1
223.01 233.92 0.43 c p1
223.21 228.92 0.43 c p1
223.42 231.45 0.43 c p1
223.62 227.16 0.43 c p1
223.82 227.70 0.43 c p1
224.02 230.16 0.43 c p1
224.22 229.93 0.43 c p1
224.42 227.66 0.43 c p1
224.63 229.47 0.43 c p1
224.83 223.37 0.43 c p1
225.03 227.00 0.43 c p1
225.23 224.38 0.43 c p1
225.43 225.43 0.43 c p1
225.63 220.79 0.43 c p1
225.84 225.54 0.43 c p1
226.04 220.40 0.43 c p1
226.24 227.53 0.43 c p1
226.44 227.28 0.43 c p1
226.64 225.26 0.43 c p1
226.84 223.82 0.43 c p1
227.05 223.57 0.43 c p1
227.25 223.33 0.43 c p1
227.45 223.73 0.43 c p1
227.65 223.99 0.43 c p1
227.85 224.89 0.43 c p1
228.06 221.80 0.43 c p1
228.26 224.34 0.43 c p1
228.46 221.27 0.43 c p1
228.66 223.78 0.43 c p1
228.86 222.99 0.43 c p1
229.06 222.08 0.43 c p1
229.27 222.90 0.43 c p1
229.47 221.50 0.43 c p1
229.67 222.30 0.43 c p1
229.87 219.94 0.43 c p1
230.07 223.38 0.43 c p1
230.27 220.42 0.43 c p1
230.48 221.66 0.43 c p1
230.68 220.86 0.43 c p1
230.88 219.95 0.43 c p1
231.08 222.33 0.43 c p1
231.28 221.40 0.43 c p1
231.48 221.64 0.43 c p1
231.69 220.25 0.43 c p1
231.89 221.98 0.43 c p1
232.09 220.12 0.43 c p1
232.29 223.77 0.43 c p1
232.49 220.43 0.43 c p1
232.70 221.53 0.43 c p1
232.90 218.12 0.43 c p1
233.10 219.31 0.43 c p1
233.30 220.93 0.43 c p1
233.50 220.53 0.43 c p1
233.70 222.13 0.43 c p1
233.91 221.71 0.43 c p1
234.11 222.29 0.43 c p1
234.31 222.85 0.43 c p1
234.51 218.09 0.43 c p1
234.71 222.96 0.43 c p1
234.91 220.58 0.43 c p1
235.12 223.04 0.43 c p1
235.32 220.66 0.43 c p1
235.52 222.13 0.43 c p1
235.72 221.67 0.43 c p1
235.92 218.89 0.43 c p1
236.12 221.68 0.43 c p1
236.33 218.92 0.43 c p1
236.53 220.74 0.43 c p1
236.73 221.71 0.43 c p1
236.93 217.93 0.43 c p1
237.13 223.00 0.43 c p1
237.33 220.64 0.43 c p1
237.54 222.91 0.43 c p1
237.74 218.33 0.43 c p1
237.94 219.65 0.43 c p1
238.14 223.28 0.43 c p1
238.34 222.24 0.43 c p1
238.55 219.01 0.43 c p1
238.75 222.58 0.43 c p1
238.95 222.03 0.43 c p1
239.15 221.49 0.43 c p1
239.35 221.83 0.43 c p1
239.55 221.67 0.43 c p1
239.76 222.48 0.43 c p1
239.96 223.19 0.43 c p1
240.16 223.11 0.43 c p1
240.36 221.65 0.43 c p1
240.56 223.69 0.43 c p1
240.76 220.97 0.43 c p1
240.97 219.91 0.43 c p1
241.17 222.39 0.43 c p1
241.37 223.04 0.43 c p1
241.57 222.43 0.43 c p1
241.77 220.96 0.43 c p1
241.97 221.21 0.43 c p1
242.18 221.06 0.43 c p1
242.38 221.67 0.43 c p1
242.58 223.21 0.43 c p1
242.78 221.26 0.43 c p1
242.98 220.63 0.43 c p1
243.19 223.81 0.43 c p1
243.39 223.53 0.43 c p1
243.59 222.88 0.43 c p1
243.79 221.85 0.43 c p1
243.99 223.22 0.43 c p1
244.19 220.54 0.43 c p1
244.40 222.71 0.43 c p1
244.60 222.13 0.43 c p1
244.80 221.00 0.43 c p1
245.00 223.59 0.43 c p1
245.20 223.72 0.43 c p1
245.40 221.40 0.43 c p1
245.61 222.78 0.43 c p1
245.81 221.28 0.43 c p1
246.01 221.74 0.43 c p1
246.21 221.04 0.43 c p1
246.41 223.55 0.43 c p1
246.61 222.83 0.43 c p1
246.82 222.11 0.43 c p1
247.02 224.23 0.43 c p1
247.22 225.45 0.43 c p1
247.42 222.32 0.43 c p1
247.62 220.01 0.43 c p1
247.82 222.43 0.43 c p1
248.03 223.70 0.43 c p1
248.23 223.74 0.43 c p1
248.43 222.98 0.43 c p1
248.63 221.45 0.43 c p1
248.83 221.47 0.43 c p1
249.04 223.49 0.43 c p1
249.24 223.06 0.43 c p1
249.44 222.72 0.43 c p1
249.64 222.72 0.43 c p1
249.84 222.72 0.43 c p1
250.04 223.05 0.43 c p1
250.25 223.04 0.43 c p1
250.45 226.11 0.43 c p1
250.65 224.53 0.43 c p1
250.85 223.39 0.43 c p1
251.05 224.46 0.43 c p1
251.25 224.41 0.43 c p1
251.46 223.26 0.43 c p1
251.66 227.03 0.43 c p1
251.86 224.25 0.43 c p1
252.06 224.19 0.43 c p1
252.26 224.12 0.43 c p1
252.46 222.96 0.43 c p1
252.67 225.49 0.43 c p1
252.87 225.82 0.43 c p1
253.07 224.56 0.43 c p1
253.27 222.64 0.43 c p1
253.47 222.96 0.43 c p1
253.67 226.52 0.43 c p1
253.88 224.58 0.43 c p1
254.08 225.63 0.43 c p1
254.28 222.87 0.43 c p1
254.48 226.14 0.43 c p1
254.68 226.76 0.43 c p1
254.89 227.70 0.43 c p1
255.09 224.60 0.43 c p1
255.29 225.20 0.43 c p1
255.49 224.73 0.43 c p1
255.69 224.92 0.43 c p1
255.89 223.71 0.43 c p1
256.10 226.08 0.43 c p1
256.30 225.19 0.43 c p1
256.50 225.03 0.43 c p1
256.70 223.09 0.43 c p1
256.90 225.10 0.43 c p1
257.10 224.93 0.43 c p1
257.31 225.80 0.43 c p1
257.51 223.85 0.43 c p1
257.71 225.84 0.43 c p1
257.91 224.92 0.43 c p1
258.11 225.45 0.43 c p1
258.31 225.58 0.43 c p1
258.52 224.66 0.43 c p1
258.72 224.14 0.43 c p1
258.92 225.69 0.43 c p1
259.12 224.44 0.43 c p1
259.32 225.98 0.43 c p1
259.53 226.47 0.43 c p1
259.73 225.93 0.43 c p1
259.93 225.71 0.43 c p1
260.13 224.77 0.43 c p1
260.33 225.96 0.43 c p1
260.53 227.54 0.43 c p1
260.74 225.17 0.43 c p1
260.94 225.63 0.43 c p1
261.14 225.00 0.43 c p1
261.34 225.85 0.43 c p1
261.54 227.72 0.43 c p1
261.74 226.05 0.43 c p1
261.95 224.69 0.43 c p1
262.15 226.23 0.43 c p1
262.35 226.98 0.43 c p1
262.55 227.10 0.43 c p1
262.75 225.74 0.43 c p1
262.95 227.25 0.43 c p1
263.16 226.97 0.43 c p1
263.36 226.30 0.43 c p1
263.56 226.02 0.43 c p1
263.76 227.52 0.43 c p1
263.96 226.14 0.43 c p1
264.16 224.85 0.43 c p1
264.37 225.55 0.43 c p1
264.57 227.73 0.43 c p1
264.77 226.73 0.43 c p1
264.97 227.12 0.43 c p1
265.17 225.73 0.43 c p1
265.38 225.81 0.43 c p1
265.58 226.19 0.43 c p1
265.78 228.26 0.43 c p1
265.98 226.55 0.43 c p1
266.18 225.93 0.43 c p1
266.38 226.98 0.43 c p1
266.59 228.72 0.43 c p1
266.79 227.01 0.43 c p1
266.99 227.06 0.43 c p1
267.19 226.73 0.43 c p1
267.39 226.70 0.43 c p1
267.59 227.04 0.43 c p1
267.80 227.77 0.43 c p1
268.00 227.04 0.43 c p1
268.20 228.75 0.43 c p1
268.40 224.99 0.43 c p1
268.60 227.06 0.43 c p1
268.80 227.38 0.43 c p1
269.01 228.39 0.43 c p1
269.21 227.35 0.43 c p1
269.41 226.99 0.43 c p1
269.61 227.30 0.43 c p1
269.81 227.62 0.43 c p1
270.01 225.89 0.43 c p1
270.22 228.23 0.43 c p1
270.42 227.48 0.43 c p1
270.62 227.11 0.43 c p1
270.82 226.73 0.43 c p1
271.02 228.38 0.43 c p1
271.23 228.00 0.43 c p1
271.43 227.32 0.43 c p1
271.63 226.56 0.43 c p1
271.83 227.22 0.43 c p1
272.03 226.83 0.43 c p1
272.23 228.45 0.43 c p1
272.44 228.73 0.43 c p1
272.64 227.96 0.43 c p1
272.84 226.60 0.43 c p1
273.04 227.54 0.43 c p1
273.24 227.13 0.43 c p1
273.44 228.74 0.43 c p1
273.65 227.66 0.43 c p1
273.85 227.93 0.43 c p1
274.05 226.48 0.43 c p1
274.25 228.07 0.43 c p1
274.45 228.03 0.43 c p1
274.65 227.91 0.43 c p1
274.86 226.16 0.43 c p1
275.06 227.74 0.43 c p1
275.26 226.65 0.43 c p1
275.46 227.93 0.43 c p1
275.66 227.80 0.43 c p1
275.87 228.41 0.43 c p1
276.07 226.95 0.43 c p1
276.27 228.51 0.43 c p1
276.47 227.78 0.43 c p1
276.67 228.01 0.43 c p1
276.87 227.21 0.43 c p1
277.08 226.85 0.43 c p1
277.28 227.08 0.43 c p1
277.48 227.88 0.43 c p1
277.68 227.52 0.43 c p1
277.88 227.37 0.43 c p1
278.08 227.29 0.43 c p1
278.29 228.16 0.43 c p1
278.49 228.01 0.43 c p1
278.69 227.27 0.43 c p1
278.89 226.82 0.43 c p1
279.09 229.00 0.43 c p1
279.29 226.58 0.43 c p1
279.50 227.07 0.43 c p1
279.70 227.64 0.43 c p1
279.90 227.83 0.43 c p1
280.10 226.07 0.43 c p1
280.30 226.92 0.43 c p1
280.50 227.40 0.43 c p1
280.71 228.25 0.43 c p1
280.91 227.49 0.43 c p1
281.11 227.32 0.43 c p1
281.31 227.21 0.43 c p1
281.51 227.40 0.43 c p1
281.72 228.53 0.43 c p1
281.92 225.45 0.43 c p1
282.12 228.89 0.43 c p1
282.32 227.47 0.43 c p1
282.52 227.65 0.43 c p1
282.72 228.76 0.43 c p1
282.93 226.99 0.43 c p1
283.13 227.52 0.43 c p1
283.33 226.68 0.43 c p1
283.53 227.86 0.43 c p1
283.73 227.38 0.43 c p1
283.93 227.18 0.43 c p1
284.14 226.70 0.43 c p1
284.34 227.87 0.43 c p1
284.54 227.02 0.43 c p1
284.74 226.54 0.43 c p1
284.94 227.70 0.43 c p1
285.14 227.50 0.43 c p1
285.35 227.37 0.43 c p1
285.55 227.16 0.43 c p1
285.75 226.67 0.43 c p1
285.95 226.82 0.43 c p1
286.15 226.33 0.43 c p1
286.36 226.83 0.43 c p1
286.56 226.62 0.43 c p1
286.76 227.13 0.43 c p1
286.96 227.27 0.43 c p1
287.16 228.06 0.43 c p1
287.36 227.56 0.43 c p1
287.57 230.57 0.43 c p1
287.77 228.12 0.43 c p1
287.97 227.33 0.43 c p1
288.17 225.55 0.43 c p1
288.37 227.89 0.43 c p1
288.57 227.10 0.43 c p1
288.78 227.23 0.43 c p1
288.98 228.94 0.43 c p1
289.18 227.14 0.43 c p1
289.38 226.34 0.43 c p1
289.58 228.68 0.43 c p1
289.78 227.24 0.43 c p1
289.99 227.65 0.43 c p1
290.19 225.86 0.43 c p1
290.39 226.62 0.43 c p1
290.59 228.66 0.43 c p1
290.79 226.23 0.43 c p1
290.99 226.70 0.43 c p1
291.20 226.82 0.43 c p1
291.40 226.59 0.43 c p1
291.60 228.34 0.43 c p1
291.80 228.45 0.43 c p1
292.00 227.29 0.43 c p1
292.21 227.05 0.43 c p1
292.41 227.16 0.43 c p1
292.61 226.99 0.43 c p1
292.81 225.55 0.43 c p1
293.01 225.94 0.43 c p1
293.21 226.97 0.43 c p1
293.42 228.07 0.43 c p1
293.62 228.46 0.43 c p1
293.82 227.64 0.43 c p1
294.02 226.48 0.43 c p1
294.22 225.95 0.43 c p1
294.42 226.97 0.43 c p1
294.63 227.07 0.43 c p1
294.83 228.16 0.43 c p1
295.03 226.08 0.43 c p1
295.23 226.81 0.43 c p1
295.43 226.56 0.43 c p1
295.63 227.29 0.43 c p1
295.84 224.85 0.43 c p1
296.04 227.48 0.43 c p1
296.24 225.68 0.43 c p1
296.44 225.77 0.43 c p1
296.64 226.22 0.43 c p1
296.84 226.94 0.43 c p1
297.05 226.68 0.43 c p1
297.25 226.49 0.43 c p1
297.45 227.50 0.43 c p1
297.65 226.04 0.43 c p1
297.85 226.76 0.43 c p1
298.06 226.22 0.43 c p1
298.26 226.94 0.43 c p1
298.46 226.39 0.43 c p1
298.66 226.48 0.43 c p1
298.86 227.47 0.43 c p1
299.06 226.01 0.43 c p1
299.27 226.73 0.43 c p1
299.47 227.09 0.43 c p1
299.67 225.63 0.43 c p1
299.87 225.99 0.43 c p1
300.07 228.32 0.43 c p1
300.27 226.15 0.43 c p1
300.48 226.86 0.43 c p1
300.68 226.66 0.43 c p1
300.88 226.39 0.43 c p1
301.08 227.44 0.43 c p1
301.28 227.52 0.43 c p1
301.48 225.99 0.43 c p1
301.69 225.43 0.43 c p1
301.89 226.48 0.43 c p1
302.09 226.56 0.43 c p1
302.29 224.75 0.43 c p1
302.49 227.61 0.43 c p1
302.70 226.42 0.43 c p1
302.90 226.22 0.43 c p1
303.10 225.66 0.43 c p1
303.30 226.63 0.43 c p1
303.50 224.82 0.43 c p1
303.70 225.87 0.43 c p1
303.91 225.58 0.43 c p1
304.11 225.03 0.43 c p1
304.31 226.97 0.43 c p1
304.51 226.76 0.43 c p1
304.71 225.57 0.43 c p1
304.91 227.17 0.43 c p1
305.12 226.60 0.43 c p1
305.32 225.76 0.43 c p1
305.52 225.48 0.43 c p1
305.72 226.79 0.43 c p1
305.92 224.70 0.43 c p1
306.12 225.66 0.43 c p1
306.33 226.70 0.43 c p1
306.53 226.41 0.43 c p1
306.73 227.09 0.43 c p1
306.93 226.88 0.43 c p1
307.13 225.34 0.43 c p1
307.33 226.02 0.43 c p1
307.54 227.05 0.43 c p1
307.74 224.89 0.43 c p1
307.94 224.32 0.43 c p1
308.14 226.24 0.43 c p1
308.34 224.78 0.43 c p1
308.55 225.11 0.43 c p1
308.75 224.89 0.43 c p1
308.95 225.84 0.43 c p1
309.15 225.27 0.43 c p1
309.35 225.67 0.43 c p1
309.55 224.13 0.43 c p1
309.76 226.67 0.43 c p1
309.96 223.96 0.43 c p1
310.16 225.87 0.43 c p1
310.36 224.34 0.43 c p1
310.56 225.63 0.43 c p1
310.76 226.02 0.43 c p1
310.97 225.73 0.43 c p1
311.17 224.88 0.43 c p1
311.37 226.45 0.43 c p1
311.57 224.98 0.43 c p1
311.77 225.92 0.43 c p1
311.97 225.69 0.43 c p1
312.18 225.74 0.43 c p1
312.38 225.44 0.43 c p1
312.58 225.48 0.43 c p1
312.78 225.53 0.43 c p1
312.98 226.20 0.43 c p1
313.19 225.62 0.43 c p1
313.39 225.66 0.43 c p1
313.59 225.09 0.43 c p1
313.79 224.85 0.43 c p1
313.99 224.28 0.43 c p1
314.19 227.43 0.43 c p1
314.40 224.36 0.43 c p1
314.60 224.68 0.43 c p1
314.80 224.44 0.43 c p1
315.00 225.72 0.43 c p1
315.20 226.04 0.43 c p1
315.40 225.19 0.43 c p1
315.61 224.26 0.43 c p1
315.81 222.80 0.43 c p1
316.01 225.30 0.43 c p1
316.21 225.62 0.43 c p1
316.41 225.66 0.43 c p1
316.61 226.04 0.43 c p1
316.82 225.11 0.43 c p1
317.02 225.49 0.43 c p1
317.22 224.29 0.43 c p1
317.42 223.37 0.43 c p1
317.62 224.99 0.43 c p1
317.82 224.68 0.43 c p1
318.03 224.10 0.43 c p1
318.23 225.37 0.43 c p1
318.43 225.40 0.43 c p1
318.63 226.06 0.43 c p1
318.83 225.47 0.43 c p1
319.04 225.85 0.43 c p1
319.24 223.69 0.43 c p1
319.44 222.22 0.43 c p1
319.64 221.64 0.43 c p1
319.84 224.40 0.43 c p1
320.04 224.16 0.43 c p1
320.25 226.67 0.43 c p1
320.45 224.50 0.43 c p1
320.65 226.11 0.43 c p1
320.85 227.04 0.43 c p1
321.05 226.18 0.43 c p1
321.25 225.24 0.43 c p1
321.46 225.89 0.43 c p1
321.66 223.80 0.43 c p1
321.86 223.83 0.43 c p1
322.06 223.24 0.43 c p1
322.26 225.12 0.43 c p1
322.46 226.04 0.43 c p1
322.67 226.07 0.43 c p1
322.87 225.83 0.43 c p1
323.07 226.13 0.43 c p1
323.27 224.03 0.43 c p1
323.47 221.34 0.43 c p1
323.67 223.13 0.43 c p1
323.88 223.77 0.43 c p1
324.08 221.96 0.43 c p1
324.28 224.17 0.43 c p1
324.48 225.43 0.43 c p1
324.68 225.73 0.43 c p1
324.89 225.14 0.43 c p1
325.09 223.93 0.43 c p1
325.29 222.73 0.43 c p1
325.49 223.71 0.43 c p1
325.69 223.74 0.43 c p1
325.89 224.99 0.43 c p1
326.10 223.45 0.43 c p1
326.30 223.47 0.43 c p1
326.50 224.11 0.43 c p1
326.70 225.36 0.43 c p1
326.90 224.16 0.43 c p1
327.10 225.14 0.43 c p1
327.31 223.93 0.43 c p1
327.51 224.57 0.43 c p1
327.71 224.87 0.43 c p1
327.91 223.05 0.43 c p1
328.11 224.02 0.43 c p1
328.31 224.66 0.43 c p1
328.52 224.07 0.43 c p1
328.72 224.36 0.43 c p1
328.92 223.16 0.43 c p1
329.12 224.41 0.43 c p1
329.32 222.59 0.43 c p1
329.53 223.56 0.43 c p1
329.73 222.36 0.43 c p1
329.93 223.88 0.43 c p1
330.13 224.24 0.43 c p1
330.33 224.87 0.43 c p1
330.53 222.17 0.43 c p1
330.74 224.91 0.43 c p1
330.94 221.60 0.43 c p1
331.14 222.77 0.43 c p1
331.34 221.30 0.43 c p1
331.54 224.65 0.43 c p1
331.74 223.44 0.43 c p1
331.95 225.31 0.43 c p1
332.15 222.60 0.43 c p1
332.35 223.23 0.43 c p1
332.55 223.52 0.43 c p1
332.75 223.27 0.43 c p1
332.95 222.94 0.43 c p1
333.16 222.69 0.43 c p1
333.36 221.83 0.43 c p1
333.56 223.61 0.43 c p1
333.76 222.47 0.43 c p1
333.96 223.37 0.43 c p1
334.16 224.28 0.43 c p1
334.37 223.07 0.43 c p1
334.57 222.81 0.43 c p1
334.77 222.83 0.43 c p1
334.97 222.58 0.43 c p1
335.17 224.70 0.43 c p1
335.38 223.76 0.43 c p1
335.58 224.12 0.43 c p1
335.78 222.03 0.43 c p1
335.98 222.66 0.43 c p1
336.18 222.94 0.43 c p1
336.38 222.96 0.43 c p1
336.59 222.97 0.43 c p1
336.79 223.26 0.43 c p1
336.99 221.79 0.43 c p1
337.19 222.75 0.43 c p1
337.39 222.42 0.43 c p1
337.59 223.32 0.43 c p1
337.80 222.18 0.43 c p1
338.00 223.08 0.43 c p1
338.20 222.82 0.43 c p1
338.40 223.38 0.43 c p1
338.60 222.24 0.43 c p1
338.80 223.14 0.43 c p1
339.01 222.27 0.43 c p1
339.21 221.94 0.43 c p1
339.41 220.74 0.43 c p1
339.61 223.46 0.43 c p1
339.81 222.93 0.43 c p1
340.01 221.73 0.43 c p1
340.22 223.84 0.43 c p1
340.42 222.02 0.43 c p1
340.62 222.38 0.43 c p1
340.82 223.54 0.43 c p1
341.02 223.28 0.43 c p1
341.23 224.18 0.43 c p1
341.43 222.09 0.43 c p1
341.63 222.10 0.43 c p1
341.83 220.29 0.43 c p1
342.03 223.07 0.43 c p1
342.23 223.97 0.43 c p1
342.44 222.15 0.43 c p1
342.64 222.16 0.43 c p1
342.84 222.51 0.43 c p1
343.04 223.13 0.43 c p1
343.24 222.80 0.43 c p1
343.44 222.21 0.43 c p1
343.65 222.56 0.43 c p1
343.85 220.41 0.43 c p1
344.05 222.58 0.43 c p1
344.25 221.04 0.43 c p1
344.45 223.48 0.43 c p1
344.65 221.66 0.43 c p1
344.86 223.50 0.43 c p1
345.06 223.24 0.43 c p1
345.26 221.70 0.43 c p1
345.46 221.71 0.43 c p1
345.66 223.27 0.43 c p1
345.87 220.24 0.43 c p1
346.07 222.68 0.43 c p1
346.27 222.08 0.43 c p1
346.47 220.54 0.43 c p1
346.67 220.89 0.43 c p1
346.87 222.38 0.43 c p1
347.08 220.91 0.43 c p1
347.28 222.13 0.43 c p1
347.48 222.14 0.43 c p1
347.68 222.42 0.43 c p1
347.88 221.22 0.43 c p1
348.08 223.66 0.43 c p1
348.29 221.57 0.43 c p1
348.49 222.46 0.43 c p1
348.69 222.81 0.43 c p1
348.89 222.21 0.43 c p1
349.09 221.88 0.43 c p1
349.29 220.67 0.43 c p1
349.50 221.90 0.43 c p1
349.70 221.30 0.43 c p1
349.90 221.64 0.43 c p1
350.10 221.92 0.43 c p1
350.30 221.32 0.43 c p1
350.50 220.72 0.43 c p1
350.71 222.55 0.43 c p1
350.91 221.95 0.43 c p1
351.11 221.09 0.43 c p1
351.31 222.58 0.43 c p1
351.51 223.20 0.43 c p1
351.72 221.72 0.43 c p1
351.92 221.72 0.43 c p1
352.12 222.34 0.43 c p1
352.32 221.13 0.43 c p1
352.52 223.57 0.43 c p1
352.72 221.42 0.43 c p1
352.93 221.76 0.43 c p1
353.13 221.16 0.43 c p1
353.33 222.05 0.43 c p1
353.53 222.05 0.43 c p1
353.73 222.67 0.43 c p1
353.93 221.19 0.43 c p1
354.14 222.68 0.43 c p1
354.34 221.47 0.43 c p1
354.54 222.09 0.43 c p1
354.74 220.01 0.43 c p1
354.94 222.44 0.43 c p1
355.14 220.63 0.43 c p1
355.35 223.94 0.43 c p1
355.55 220.04 0.43 c p1
355.75 220.92 0.43 c p1
355.95 220.05 0.43 c p1
356.15 222.14 0.43 c p1
356.36 222.49 0.43 c p1
356.56 220.94 0.43 c p1
356.76 220.95 0.43 c p1
356.96 220.95 0.43 c p1
357.16 222.51 0.43 c p1
357.36 221.30 0.43 c p1
357.57 222.19 0.43 c p1
357.77 219.17 0.43 c p1
357.97 220.38 0.43 c p1
358.17 220.72 0.43 c p1
358.37 220.39 0.43 c p1
358.57 221.00 0.43 c p1
358.78 221.95 0.43 c p1
358.98 222.83 0.43 c p1
359.18 221.62 0.43 c p1
359.38 220.42 0.43 c p1
359.58 221.97 0.43 c p1
359.78 221.37 0.43 c p1
359.99 221.38 0.43 c p1
360.19 221.65 0.43 c p1
360.39 220.78 0.43 c p1
360.59 221.39 0.43 c p1
360.79 219.85 0.43 c p1
360.99 222.28 0.43 c p1
361.20 219.86 0.43 c p1
361.40 221.41 0.43 c p1
361.60 220.81 0.43 c p1
0.00 0.00 432.00 576.00 cl
0 0 0 srgb
0.75 setlinewidth
[] 0 setdash
1 setlinecap
1 setlinejoin
10.00 setmiterlimit
np
218.37 201.60 m
141.21 0 l
o
np
218.37 201.60 m
0 -5.76 l
o
np
238.55 201.60 m
0 -5.76 l
o
np
258.72 201.60 m
0 -5.76 l
o
np
278.89 201.60 m
0 -5.76 l
o
np
299.06 201.60 m
0 -5.76 l
o
np
319.24 201.60 m
0 -5.76 l
o
np
339.41 201.60 m
0 -5.76 l
o
np
359.58 201.60 m
0 -5.76 l
o
/Font1 findfont 6 s
218.37 185.47 (0) .5 0 t
238.55 185.47 (1000) .5 0 t
258.72 185.47 (2000) .5 0 t
278.89 185.47 (3000) .5 0 t
299.06 185.47 (4000) .5 0 t
319.24 185.47 (5000) .5 0 t
339.41 185.47 (6000) .5 0 t
359.58 185.47 (7000) .5 0 t
np
216.00 208.47 m
0 32.34 l
o
np
216.00 208.47 m
-5.76 0 l
o
np
216.00 216.56 m
-5.76 0 l
o
np
216.00 224.64 m
-5.76 0 l
o
np
216.00 232.72 m
-5.76 0 l
o
np
216.00 240.81 m
-5.76 0 l
o
209.09 206.32 (-0.02) 1 0 t
209.09 214.40 (-0.01) 1 0 t
209.09 222.49 (0.00) 1 0 t
209.09 230.57 (0.01) 1 0 t
209.09 238.65 (0.02) 1 0 t
np
216.00 201.60 m
151.20 0 l
0 46.08 l
-151.20 0 l
0 -46.08 l
o
0.00 0.00 432.00 576.00 cl
/Font1 findfont 9 s
0 0 0 srgb
291.60 262.88 (Residuen) .5 0 t
59.04 73.44 401.76 516.96 cl
ep
%%Trailer
%%Pages: 1
%%EOF
