%!PS-Adobe-3.0 EPSF-3.0
%%DocumentNeededResources: font Helvetica
%%+ font Helvetica-Bold
%%+ font Helvetica-Oblique
%%+ font Helvetica-BoldOblique
%%+ font Symbol
%%Title: R Graphics Output
%%Creator: R Software
%%Pages: (atend)
%%BoundingBox: 0 0 432 576
%%EndComments
%%BeginProlog
/bp  { gs sRGB gs } def
% begin .ps.prolog
/gs  { gsave } bind def
/gr  { grestore } bind def
/ep  { showpage gr gr } bind def
/m   { moveto } bind def
/l  { rlineto } bind def
/np  { newpath } bind def
/cp  { closepath } bind def
/f   { fill } bind def
/o   { stroke } bind def
/c   { newpath 0 360 arc } bind def
/r   { 4 2 roll moveto 1 copy 3 -1 roll exch 0 exch rlineto 0 rlineto -1 mul 0 exch rlineto closepath } bind def
/p1  { stroke } bind def
/p2  { gsave bg fill grestore newpath } bind def
/p3  { gsave bg fill grestore stroke } bind def
/p6  { gsave bg eofill grestore newpath } bind def
/p7  { gsave bg eofill grestore stroke } bind def
/t   { 5 -2 roll moveto gsave rotate
       1 index stringwidth pop
       mul neg 0 rmoveto show grestore } bind def
/ta  { 4 -2 roll moveto gsave rotate show } bind def
/tb  { 2 -1 roll 0 rmoveto show } bind def
/cl  { grestore gsave newpath 3 index 3 index moveto 1 index
       4 -1 roll lineto  exch 1 index lineto lineto
       closepath clip newpath } bind def
/rgb { setrgbcolor } bind def
/s   { scalefont setfont } bind def
% end   .ps.prolog
/sRGB { [ /CIEBasedABC
          << /DecodeLMN
               [ { dup 0.03928 le
                        {12.92321 div}
                        {0.055 add 1.055 div 2.4 exp }
                     ifelse
                 } bind dup dup
               ]
             /MatrixLMN [0.412457 0.212673 0.019334
                         0.357576 0.715152 0.119192
                         0.180437 0.072175 0.950301]
             /WhitePoint [0.9505 1.0 1.0890]
           >>
         ] setcolorspace } bind def
/srgb { setcolor } bind def
%%IncludeResource: font Helvetica
/Helvetica findfont
dup length dict begin
  {1 index /FID ne {def} {pop pop} ifelse} forall
  /Encoding ISOLatin1Encoding def
  currentdict
  end
/Font1 exch definefont pop
%%IncludeResource: font Helvetica-Bold
/Helvetica-Bold findfont
dup length dict begin
  {1 index /FID ne {def} {pop pop} ifelse} forall
  /Encoding ISOLatin1Encoding def
  currentdict
  end
/Font2 exch definefont pop
%%IncludeResource: font Helvetica-Oblique
/Helvetica-Oblique findfont
dup length dict begin
  {1 index /FID ne {def} {pop pop} ifelse} forall
  /Encoding ISOLatin1Encoding def
  currentdict
  end
/Font3 exch definefont pop
%%IncludeResource: font Helvetica-BoldOblique
/Helvetica-BoldOblique findfont
dup length dict begin
  {1 index /FID ne {def} {pop pop} ifelse} forall
  /Encoding ISOLatin1Encoding def
  currentdict
  end
/Font4 exch definefont pop
%%IncludeResource: font Symbol
/Symbol findfont
dup length dict begin
  {1 index /FID ne {def} {pop pop} ifelse} forall
  currentdict
  end
/Font5 exch definefont pop
%%EndProlog
%%Page: 1 1
bp
0.00 0.00 432.00 576.00 cl
0.00 0.00 432.00 576.00 cl
0.00 0.00 432.00 576.00 cl
/Font1 findfont 12 s
0 0 0 srgb
48.00 508.72 (PCP-ETH) 0 0 t
48.00 494.89 (Blitzlicht-Photolyse) 0 0 t
/Font1 findfont 9 s
48.00 457.54 (File: Dy) 0 ta
-0.180 (e_0_1_V1_900V_35.dat) tb gr
48.00 334.87 (T) 0 ta
-1.080 (ue Apr  9 22:03:24 2019) tb gr
48.00 430.87 (Fitfunktion:  a + b * e) 0 ta
-0.270 (xp\(-c * t\)) tb gr
48.00 420.50 (t-Inter) 0 ta
0.270 (v) tb
-0.225 (all: 14.000 ... 206.000 ms) tb gr
48.00 410.14 (P) 0 ta
-0.360 (ar) tb
-0.090 (ameter \(Standardabw) tb
-0.090 (eichung\):) tb gr
48.00 399.77 (  a = 0.00090 \(0.00029\)) 0 0 t
48.00 389.40 (  b = 0.23809 \(0.00082\)) 0 0 t
48.00 379.03 (  c = 1.999e+01 \(1.297e-01\) s^-1) 0 0 t
48.00 368.66 (  tau = 5.001e-02 \(3.244e-04\) s) 0 0 t
216.00 345.60 388.80 518.40 cl
0 0 0 srgb
0.75 setlinewidth
[] 0 setdash
1 setlinecap
1 setlinejoin
10.00 setmiterlimit
np
222.40 511.33 m
0.15 -0.23 l
0.14 -0.22 l
0.15 0.67 l
0.14 -0.32 l
0.15 -0.23 l
0.14 0.23 l
0.15 0.22 l
0.14 0.23 l
0.15 -0.13 l
0.15 -0.32 l
0.14 -0.13 l
0.15 0.90 l
0.14 -0.45 l
0.15 -0.10 l
0.14 -0.35 l
0.15 0.13 l
0.14 0.32 l
0.15 -0.32 l
0.15 -0.13 l
0.14 -0.10 l
0.15 0.10 l
0.14 -0.22 l
0.15 0 l
0.14 0.35 l
0.15 0.10 l
0.15 -0.33 l
0.14 0.55 l
0.15 -0.22 l
0.14 0 l
0.15 -0.45 l
0.14 0.80 l
0.15 -0.80 l
0.14 0.45 l
0.15 0.45 l
0.15 0.12 l
0.14 -0.67 l
0.15 0 l
0.14 -0.58 l
0.15 0.45 l
0.14 -0.22 l
0.15 0.22 l
0.14 -0.10 l
0.15 -0.12 l
0.15 0.45 l
0.14 -0.23 l
0.15 0.68 l
0.14 -0.55 l
0.15 -0.13 l
0.14 -0.22 l
0.15 0.35 l
0.14 -0.13 l
0.15 0 l
0.15 0.58 l
0.14 -0.23 l
0.15 -0.12 l
0.14 0.12 l
0.15 -0.22 l
0.14 0 l
0.15 -0.13 l
0.15 0.58 l
0.14 -1.03 l
0.15 0.68 l
0.14 0 l
0.15 -0.33 l
0.14 0.45 l
0.15 -0.12 l
0.14 0.57 l
0.15 -0.67 l
0.15 0.32 l
0.14 0 l
0.15 -0.32 l
0.14 -0.13 l
0.15 0.45 l
0.14 -0.45 l
0.15 0.23 l
0.14 -0.45 l
0.15 0.22 l
0.15 0.23 l
0.14 -0.68 l
0.15 0.80 l
0.14 -0.45 l
0.15 -0.45 l
0.14 0.90 l
0.15 -0.45 l
0.14 0.23 l
0.15 0.10 l
0.15 0 l
0.14 0 l
0.15 -0.10 l
0.14 0.22 l
0.15 -0.12 l
0.14 0.35 l
0.15 -0.45 l
0.15 -0.13 l
0.14 0 l
0.15 0 l
0.14 0.45 l
0.15 -0.77 l
0.14 0.10 l
236.96 439.36 lineto
0.14 4.23 l
0.15 2.84 l
0.15 1.00 l
0.14 1.44 l
0.15 2.03 l
0.14 1.02 l
0.15 0.45 l
0.14 1.45 l
0.15 0.55 l
0.14 0.67 l
0.15 0.35 l
0.15 1.68 l
0.14 0.90 l
0.15 1.22 l
0.14 0.45 l
0.15 0.80 l
0.14 -0.22 l
0.15 0.32 l
0.14 1.47 l
0.15 1.10 l
0.15 1.25 l
0.14 0.10 l
0.15 0.90 l
0.14 0.58 l
0.15 1.00 l
0.14 0.22 l
0.15 1.12 l
0.15 0.90 l
0.14 1.13 l
0.15 0 l
0.14 0.67 l
0.15 0.23 l
0.14 0.32 l
0.15 1.58 l
0.14 0.67 l
0.15 0.22 l
0.15 0.23 l
0.14 0.67 l
0.15 1.00 l
0.14 0.55 l
0.15 0.23 l
0.14 0.45 l
0.15 0.80 l
0.14 1.12 l
0.15 0.45 l
0.15 0.77 l
0.14 -0.22 l
0.15 0.90 l
0.14 1.00 l
0.15 -0.23 l
0.14 0.80 l
0.15 0.33 l
0.14 0.80 l
0.15 0.22 l
0.15 1.13 l
0.14 0.32 l
0.15 -0.10 l
0.14 0.45 l
0.15 0.33 l
0.14 0.77 l
0.15 0.57 l
0.15 0.78 l
0.14 0.35 l
0.15 0.45 l
0.14 0.45 l
0.15 0.22 l
0.14 -0.35 l
0.15 0.80 l
0.14 0.78 l
0.15 0.55 l
0.15 0.57 l
0.14 0.10 l
0.15 -0.10 l
0.14 0.90 l
0.15 -0.12 l
0.14 0.12 l
0.15 0.32 l
0.14 1.25 l
0.15 0.55 l
0.15 0.13 l
0.14 -0.13 l
0.15 0.45 l
0.14 -0.67 l
0.15 0.67 l
0.14 0.68 l
0.15 1.22 l
0.14 0.23 l
0.15 0 l
0.15 -0.33 l
0.14 0.10 l
0.15 -0.10 l
0.14 0.55 l
0.15 0.90 l
0.14 0.80 l
0.15 -0.45 l
0.15 0.23 l
0.14 -0.45 l
0.15 0.67 l
0.14 0.32 l
251.52 499.91 lineto
0.14 1.10 l
0.15 -0.10 l
0.14 -0.13 l
0.15 0.23 l
0.15 -0.23 l
0.14 0.23 l
0.15 0.35 l
0.14 0.77 l
0.15 0.13 l
0.14 -0.23 l
0.15 0 l
0.14 0.10 l
0.15 0.23 l
0.15 0.22 l
0.14 0.58 l
0.15 0 l
0.14 0.10 l
0.15 -0.23 l
0.14 0.80 l
0.15 -0.35 l
0.14 -0.10 l
0.15 0.10 l
0.15 0.80 l
0.14 0.33 l
0.15 -0.23 l
0.14 0.23 l
0.15 0.35 l
0.14 0.10 l
0.15 -0.23 l
0.14 0.55 l
0.15 0.57 l
0.15 -0.12 l
0.14 -0.45 l
0.15 0.35 l
0.14 0.10 l
0.15 -0.10 l
0.14 -0.22 l
0.15 0 l
0.15 1.12 l
0.14 -0.80 l
0.15 -0.32 l
0.14 0.77 l
0.15 -0.33 l
0.14 0.68 l
0.15 0.10 l
0.14 0.35 l
0.15 -0.13 l
0.15 0.23 l
0.14 -0.33 l
0.15 -0.57 l
0.14 0.35 l
0.15 0.90 l
0.14 -0.80 l
0.15 0.80 l
0.14 -0.35 l
0.15 0 l
0.15 -0.33 l
0.14 0.10 l
0.15 0.35 l
0.14 0.33 l
0.15 0.45 l
0.14 -0.33 l
0.15 -0.22 l
0.14 -0.13 l
0.15 0.23 l
0.15 0.45 l
0.14 0.22 l
0.15 0.68 l
0.14 -1.13 l
0.15 -0.22 l
0.14 0.12 l
0.15 0.23 l
0.15 0.10 l
0.14 0.35 l
0.15 0.45 l
0.14 -0.80 l
0.15 0.22 l
0.14 -0.10 l
0.15 0.23 l
0.14 -0.45 l
0.15 0 l
0.15 0.32 l
0.14 0.23 l
0.15 -0.10 l
0.14 0.10 l
0.15 -0.10 l
0.14 -0.35 l
0.15 0.22 l
0.14 0.35 l
0.15 0.55 l
0.15 -0.77 l
0.14 0.55 l
0.15 -0.45 l
0.14 -0.10 l
0.15 0.22 l
0.14 0 l
0.15 0.45 l
0.14 0.10 l
0.15 -0.32 l
266.08 508.75 lineto
0.14 -0.10 l
0.15 -0.45 l
0.14 0.23 l
0.15 0 l
0.14 1.35 l
0.15 -0.58 l
0.15 -0.55 l
0.14 -0.22 l
0.15 0.77 l
0.14 -0.55 l
0.15 0.23 l
0.14 0.45 l
0.15 -0.23 l
0.14 -0.35 l
0.15 0 l
0.15 0.23 l
0.14 -0.45 l
0.15 -0.10 l
0.14 1.00 l
0.15 -0.33 l
0.14 -0.35 l
0.15 0.35 l
0.14 -0.45 l
0.15 -0.22 l
0.15 0.22 l
0.14 0.23 l
0.15 0.32 l
0.14 0 l
0.15 -0.45 l
0.14 0.13 l
0.15 -0.23 l
0.14 0 l
0.15 0.45 l
0.15 0.10 l
0.14 -0.45 l
0.15 0 l
0.14 -0.55 l
0.15 0.33 l
0.14 -0.33 l
0.15 0.55 l
0.15 0.35 l
0.14 0.23 l
0.15 -0.35 l
0.14 -0.33 l
0.15 0 l
0.14 -0.35 l
0.15 0.68 l
0.14 -0.23 l
0.15 0.45 l
0.15 -0.10 l
0.14 -0.35 l
0.15 -0.32 l
0.14 0 l
0.15 0 l
0.14 0 l
0.15 0.32 l
0.14 -0.22 l
0.15 -0.45 l
0.15 0 l
0.14 0.22 l
0.15 0 l
0.14 0.13 l
0.15 0.32 l
0.14 -0.22 l
0.15 0.22 l
0.14 0.23 l
0.15 -0.55 l
0.15 0.10 l
0.14 0.45 l
0.15 0 l
0.14 0.35 l
0.15 -0.45 l
0.14 -0.58 l
0.15 0.35 l
0.15 -0.80 l
0.14 0.58 l
0.15 0.45 l
0.14 0.10 l
0.15 -0.90 l
0.14 0.35 l
0.15 0 l
0.14 -0.23 l
0.15 0.10 l
0.15 0.13 l
0.14 -0.23 l
0.15 0.78 l
0.14 -0.68 l
0.15 0 l
0.14 -0.22 l
0.15 0.22 l
0.14 -0.10 l
0.15 0.55 l
0.15 -0.45 l
0.14 -0.32 l
0.15 0.32 l
0.14 -0.22 l
0.15 -0.45 l
0.14 0.45 l
0.15 0.12 l
280.63 508.08 lineto
0.15 0.22 l
0.15 -0.77 l
0.14 0.22 l
0.15 0.10 l
0.14 0 l
0.15 0.90 l
0.14 -0.10 l
0.15 -0.45 l
0.15 -0.12 l
0.14 0.35 l
0.15 -0.13 l
0.14 -0.32 l
0.15 -0.13 l
0.14 0.68 l
0.15 -0.55 l
0.14 0.22 l
0.15 -0.22 l
0.15 -0.35 l
0.14 0.12 l
0.15 0 l
0.14 -0.12 l
0.15 0.67 l
0.14 -0.10 l
0.15 -0.12 l
0.14 -0.55 l
0.15 0.32 l
0.15 -0.10 l
0.14 -0.35 l
0.15 0.68 l
0.14 -0.45 l
0.15 0.35 l
0.14 0.32 l
0.15 -0.22 l
0.14 -0.10 l
0.15 -0.35 l
0.15 0.57 l
0.14 -0.22 l
0.15 0.10 l
0.14 -0.45 l
0.15 -0.23 l
0.14 0 l
0.15 0.45 l
0.14 0.23 l
0.15 -0.23 l
0.15 -0.10 l
0.14 -0.22 l
0.15 0.32 l
0.14 -0.10 l
0.15 -0.12 l
0.14 0.22 l
0.15 0.35 l
0.15 -0.35 l
0.14 0.45 l
0.15 -0.67 l
0.14 -0.23 l
0.15 0.13 l
0.14 0.22 l
0.15 0.23 l
0.14 -0.13 l
0.15 -0.10 l
0.15 -0.22 l
0.14 -0.58 l
0.15 0.68 l
0.14 -0.23 l
0.15 0 l
0.14 1.25 l
0.15 -0.22 l
0.14 -0.58 l
0.15 -0.10 l
0.15 0.10 l
0.14 -0.45 l
0.15 0 l
0.14 0.23 l
0.15 -0.10 l
0.14 0.32 l
0.15 -0.45 l
0.14 -0.10 l
0.15 -0.12 l
0.15 0 l
0.14 0.57 l
0.15 0.23 l
0.14 -0.45 l
0.15 0.10 l
0.14 -0.23 l
0.15 -0.10 l
0.15 0.23 l
0.14 0.10 l
0.15 0.67 l
0.14 -0.55 l
0.15 0 l
0.14 -0.22 l
0.15 -0.45 l
0.14 0 l
0.15 -0.23 l
0.15 1.13 l
0.14 -0.13 l
0.15 -0.32 l
0.14 -0.23 l
0.15 -0.35 l
295.19 507.18 lineto
0.15 0.22 l
0.14 0.45 l
0.15 -0.22 l
0.15 -0.10 l
0.14 -0.35 l
0.15 0.35 l
0.14 -0.23 l
0.15 0.23 l
0.14 0 l
0.15 0.32 l
0.14 0.13 l
0.15 -0.58 l
0.15 0.23 l
0.14 -0.45 l
0.15 0 l
0.14 -0.23 l
0.15 0.90 l
0.14 -0.55 l
0.15 0.33 l
0.15 -0.23 l
0.14 -0.10 l
0.15 -0.22 l
0.14 0 l
0.15 0.67 l
0.14 0.10 l
0.15 -0.67 l
0.14 0 l
0.15 1.02 l
0.15 -0.80 l
0.14 -0.10 l
0.15 0.10 l
0.14 0 l
0.15 0.45 l
0.14 -0.45 l
0.15 -0.32 l
0.14 0 l
0.15 0 l
0.15 -0.13 l
0.14 0.23 l
0.15 -0.23 l
0.14 0.23 l
0.15 0 l
0.14 -0.10 l
0.15 -0.35 l
0.14 0.22 l
0.15 0.68 l
0.15 -0.10 l
0.14 -0.23 l
0.15 -0.35 l
0.14 0.35 l
0.15 -0.12 l
0.14 0.12 l
0.15 0 l
0.15 0 l
0.14 0 l
0.15 -0.57 l
0.14 0.57 l
0.15 -0.35 l
0.14 -0.32 l
0.15 0.45 l
0.14 0.67 l
0.15 -0.45 l
0.15 0.23 l
0.14 -0.23 l
0.15 -0.45 l
0.14 0 l
0.15 0.45 l
0.14 0.33 l
0.15 -0.10 l
0.14 -0.58 l
0.15 0.58 l
0.15 -0.80 l
0.14 0.12 l
0.15 0.10 l
0.14 0.35 l
0.15 -0.12 l
0.14 0.12 l
0.15 -0.45 l
0.14 0.23 l
0.15 -1.03 l
0.15 0.68 l
0.14 0.57 l
0.15 -0.12 l
0.14 -0.33 l
0.15 0 l
0.14 -0.12 l
0.15 0.80 l
0.15 -0.90 l
0.14 1.35 l
0.15 0.10 l
0.14 -0.68 l
0.15 0.35 l
0.14 -0.57 l
0.15 -0.23 l
0.14 -0.10 l
0.15 0.33 l
0.15 0.57 l
0.14 -0.35 l
0.15 -0.32 l
309.75 507.63 lineto
0.15 -1.13 l
0.14 0.13 l
0.15 0.55 l
0.14 0.57 l
0.15 -0.45 l
0.15 0 l
0.14 -0.12 l
0.15 -0.68 l
0.14 0.23 l
0.15 0.57 l
0.14 0.10 l
0.15 -0.10 l
0.14 -0.22 l
0.15 0.67 l
0.15 -0.57 l
0.14 -0.33 l
0.15 0.10 l
0.14 0.23 l
0.15 -0.10 l
0.14 0.32 l
0.15 -0.67 l
0.15 0 l
0.14 -0.33 l
0.15 0.78 l
0.14 0.22 l
0.15 0.13 l
0.14 -0.13 l
0.15 -0.67 l
0.14 0.57 l
0.15 -0.45 l
0.15 0.33 l
0.14 0.22 l
0.15 -0.10 l
0.14 -0.57 l
0.15 0.12 l
0.14 -0.45 l
0.15 0.10 l
0.14 0.58 l
0.15 0.22 l
0.15 -0.12 l
0.14 -0.23 l
0.15 -0.32 l
0.14 0.10 l
0.15 -0.10 l
0.14 0.45 l
0.15 0.10 l
0.14 0 l
0.15 -0.23 l
0.15 -0.10 l
0.14 0.10 l
0.15 0 l
0.14 0.80 l
0.15 -0.22 l
0.14 -0.35 l
0.15 -0.55 l
0.15 0.22 l
0.14 0 l
0.15 -0.12 l
0.14 0.35 l
0.15 0 l
0.14 0 l
0.15 0 l
0.14 -0.13 l
0.15 -0.32 l
0.15 0 l
0.14 0.67 l
0.15 0.23 l
0.14 -0.58 l
0.15 0.45 l
0.14 -0.67 l
0.15 0.35 l
0.14 -0.80 l
0.15 1.02 l
0.15 0.23 l
0.14 -0.23 l
0.15 -0.22 l
0.14 -0.23 l
0.15 -0.22 l
0.14 -0.68 l
0.15 1.35 l
0.14 0.23 l
0.15 -0.23 l
0.15 -0.57 l
0.14 0.45 l
0.15 0.12 l
0.14 -0.45 l
0.15 0.10 l
0.14 0.68 l
0.15 -0.10 l
0.14 0.10 l
0.15 -0.55 l
0.15 -0.23 l
0.14 0.23 l
0.15 0 l
0.14 0 l
0.15 0 l
0.14 0 l
0.15 0.10 l
0.15 -0.23 l
324.31 506.85 lineto
0.15 -0.45 l
0.14 0.23 l
0.15 0.55 l
0.14 0.45 l
0.15 -0.45 l
0.14 -0.33 l
0.15 0.23 l
0.15 -0.23 l
0.14 -0.22 l
0.15 0.32 l
0.14 0.68 l
0.15 -0.55 l
0.14 0.45 l
0.15 -0.35 l
0.14 -0.45 l
0.15 0.12 l
0.15 -0.22 l
0.14 0.67 l
0.15 -0.22 l
0.14 -0.23 l
0.15 -0.12 l
0.14 0 l
0.15 -0.33 l
0.14 -0.35 l
0.15 1.25 l
0.15 0.10 l
0.14 -0.22 l
0.15 -0.33 l
0.14 0.68 l
0.15 -0.45 l
0.14 -0.35 l
0.15 0.22 l
0.15 -0.10 l
0.14 0.23 l
0.15 0.10 l
0.14 0 l
0.15 -0.23 l
0.14 -0.32 l
0.15 0.22 l
0.14 0.10 l
0.15 0.23 l
0.15 -0.10 l
0.14 -0.35 l
0.15 0.67 l
0.14 -0.77 l
0.15 -0.13 l
0.14 0.68 l
0.15 0.22 l
0.14 -0.22 l
0.15 0 l
0.15 -0.45 l
0.14 0.90 l
0.15 -1.35 l
0.14 0.22 l
0.15 1.03 l
0.14 -0.45 l
0.15 0 l
0.14 -0.58 l
0.15 -0.10 l
0.15 0.23 l
0.14 -0.13 l
0.15 0.35 l
0.14 0.10 l
0.15 0.23 l
0.14 -0.23 l
0.15 0.23 l
0.15 -0.55 l
0.14 0 l
0.15 0.10 l
0.14 1.02 l
0.15 -0.57 l
0.14 0.12 l
0.15 -0.22 l
0.14 0.22 l
0.15 -0.57 l
0.15 0.22 l
0.14 0.58 l
0.15 -0.68 l
0.14 0 l
0.15 0.23 l
0.14 -0.45 l
0.15 0.10 l
0.14 0.80 l
0.15 -0.58 l
0.15 0.35 l
0.14 -0.22 l
0.15 0.10 l
0.14 -0.23 l
0.15 0 l
0.14 0 l
0.15 -0.45 l
0.14 1.13 l
0.15 -0.33 l
0.15 -0.45 l
0.14 0.23 l
0.15 -0.23 l
0.14 -0.67 l
0.15 0.55 l
0.14 0.57 l
338.87 506.85 lineto
0.15 -0.35 l
0.14 0.35 l
0.15 -0.22 l
0.14 0.10 l
0.15 -0.33 l
0.14 1.13 l
0.15 0.10 l
0.14 -0.33 l
0.15 -0.35 l
0.15 0.13 l
0.14 -0.23 l
0.15 -0.22 l
0.14 0.45 l
0.15 0.67 l
0.14 -0.57 l
0.15 -0.23 l
0.14 -0.22 l
0.15 0.45 l
0.15 -0.23 l
0.14 -0.10 l
0.15 0.23 l
0.14 0.10 l
0.15 -0.33 l
0.14 0.23 l
0.15 -0.58 l
0.14 0.13 l
0.15 -0.23 l
0.15 0.68 l
0.14 0.45 l
0.15 -0.35 l
0.14 0.35 l
0.15 -0.13 l
0.14 -0.55 l
0.15 -0.12 l
0.15 0.12 l
0.14 0.55 l
0.15 0.13 l
0.14 -0.58 l
0.15 0 l
0.14 0 l
0.15 -0.55 l
0.14 0.45 l
0.15 -0.35 l
0.15 0.90 l
0.14 -0.22 l
0.15 -0.10 l
0.14 0.45 l
0.15 -0.45 l
0.14 -0.13 l
0.15 0 l
0.14 0.58 l
0.15 0.22 l
0.15 -0.80 l
0.14 -0.10 l
0.15 -0.57 l
0.14 0.57 l
0.15 -0.12 l
0.14 0.35 l
0.15 0.45 l
0.14 -0.58 l
0.15 0.13 l
0.15 -0.45 l
0.14 0 l
0.15 0 l
0.14 0.67 l
0.15 -0.35 l
0.14 0.23 l
0.15 0.57 l
0.15 -0.67 l
0.14 -0.45 l
0.15 0.10 l
0.14 0.22 l
0.15 0.58 l
0.14 -0.68 l
0.15 0.23 l
0.14 -0.23 l
0.15 0 l
0.15 -0.45 l
0.14 0.68 l
0.15 0.10 l
0.14 0.22 l
0.15 -0.22 l
0.14 -0.55 l
0.15 0.32 l
0.14 -0.77 l
0.15 0.90 l
0.15 0.45 l
0.14 0.67 l
0.15 -0.90 l
0.14 0 l
0.15 -0.22 l
0.14 -0.23 l
0.15 0.10 l
0.14 0.35 l
0.15 0.68 l
0.15 -1.13 l
0.14 0.23 l
0.15 0.32 l
0.14 -0.67 l
353.43 506.95 lineto
0.14 0 l
0.15 0.35 l
0.14 0.23 l
0.15 -0.35 l
0.15 -0.55 l
0.14 0.10 l
0.15 0.12 l
0.14 0 l
0.15 0.45 l
0.14 0.68 l
0.15 -0.68 l
0.15 -0.12 l
0.14 -0.45 l
0.15 -0.10 l
0.14 0.22 l
0.15 0.45 l
0.14 0 l
0.15 -0.45 l
0.14 0 l
0.15 -0.22 l
0.15 0.45 l
0.14 -0.58 l
0.15 0.23 l
0.14 0.57 l
0.15 0.10 l
0.14 -0.10 l
0.15 0.23 l
0.14 -1.03 l
0.15 0.23 l
0.15 0.67 l
0.14 0 l
0.15 0 l
0.14 -0.32 l
0.15 0 l
0.14 -0.45 l
0.15 0.10 l
0.14 0.35 l
0.15 0.32 l
0.15 -0.45 l
0.14 -0.22 l
0.15 0.22 l
0.14 0.13 l
0.15 -0.68 l
0.14 0.55 l
0.15 0.35 l
0.15 0.10 l
0.14 -0.45 l
0.15 0.13 l
0.14 0 l
0.15 0 l
0.14 0.32 l
0.15 0.13 l
0.14 0.32 l
0.15 -0.77 l
0.15 -0.23 l
0.14 -0.22 l
0.15 -0.13 l
0.14 0.35 l
0.15 0 l
0.14 0.33 l
0.15 -0.10 l
0.14 0.10 l
0.15 0.12 l
0.15 -0.12 l
0.14 0.35 l
0.15 -0.68 l
0.14 0.68 l
0.15 -0.35 l
0.14 0.35 l
0.15 -0.35 l
0.14 -0.10 l
0.15 0.10 l
0.15 -0.23 l
0.14 0.13 l
0.15 0.45 l
0.14 -0.58 l
0.15 0.35 l
0.14 0 l
0.15 -0.67 l
0.15 0.22 l
0.14 0.68 l
0.15 -0.13 l
0.14 0 l
0.15 -0.67 l
0.14 0.22 l
0.15 -0.10 l
0.14 0.55 l
0.15 -0.22 l
0.15 0.35 l
0.14 -0.35 l
0.15 -0.10 l
0.14 0.22 l
0.15 -0.22 l
0.14 -0.35 l
0.15 0.67 l
0.14 -0.22 l
0.15 0.22 l
0.15 -0.32 l
0.14 -0.13 l
currentpoint o m
367.99 506.63 lineto
0.14 0.55 l
0.15 0.12 l
0.14 -0.22 l
0.15 -0.45 l
0.14 0.10 l
0.15 0.12 l
0.15 0 l
0.14 -0.22 l
0.15 0.90 l
0.14 0.10 l
0.15 -0.33 l
0.14 -0.45 l
0.15 0.33 l
0.15 -0.23 l
0.14 -0.10 l
0.15 0.68 l
0.14 0 l
0.15 0 l
0.14 -0.45 l
0.15 -0.13 l
0.14 0 l
0.15 -0.45 l
0.15 0.35 l
0.14 0.55 l
0.15 0.23 l
0.14 -0.55 l
0.15 0.22 l
0.14 -0.22 l
0.15 -0.35 l
0.14 0.90 l
0.15 -0.33 l
0.15 -0.35 l
0.14 1.03 l
0.15 -0.90 l
0.14 -0.45 l
0.15 0.67 l
0.14 -0.35 l
0.15 0.45 l
0.14 0.35 l
0.15 -0.35 l
0.15 -0.67 l
0.14 -0.10 l
0.15 -0.13 l
0.14 0.68 l
0.15 -0.10 l
0.14 0.55 l
0.15 -0.45 l
0.15 0.35 l
0.14 -0.45 l
0.15 0.22 l
0.14 -0.45 l
0.15 0.33 l
0.14 0.45 l
0.15 -0.23 l
0.14 -0.32 l
0.15 -0.58 l
0.15 -0.10 l
0.14 0.45 l
0.15 0.78 l
0.14 -0.55 l
0.15 0 l
0.14 0 l
0.15 -0.13 l
0.14 -0.22 l
0.15 0.57 l
0.15 0 l
0.14 0.45 l
0.15 -0.57 l
0.14 -0.23 l
0.15 0.23 l
0.14 -0.45 l
0.15 0.12 l
0.14 0.33 l
0.15 0.57 l
0.15 -0.45 l
0.14 -0.22 l
0.15 -0.13 l
0.14 -0.22 l
0.15 0.12 l
0.14 0.33 l
0.15 0.22 l
0.15 -0.90 l
0.14 0.80 l
0.15 -0.35 l
0.14 0.58 l
0.15 0 l
0.14 0.10 l
0.15 0.12 l
0.14 -0.67 l
0.15 -0.23 l
0.15 0 l
0.14 0.45 l
0.15 0 l
0.14 -0.22 l
0.15 0.32 l
0.14 -0.10 l
0.15 -0.35 l
0.14 -0.10 l
0.15 0.33 l
o
/bg { 1 1 1 srgb } def
222.40 511.33 0.43 c p3
222.55 511.10 0.43 c p3
222.69 510.88 0.43 c p3
222.84 511.55 0.43 c p3
222.98 511.23 0.43 c p3
223.13 511.00 0.43 c p3
223.27 511.23 0.43 c p3
223.42 511.45 0.43 c p3
223.56 511.68 0.43 c p3
223.71 511.55 0.43 c p3
223.86 511.23 0.43 c p3
224.00 511.10 0.43 c p3
224.15 512.00 0.43 c p3
224.29 511.55 0.43 c p3
224.44 511.45 0.43 c p3
224.58 511.10 0.43 c p3
224.73 511.23 0.43 c p3
224.87 511.55 0.43 c p3
225.02 511.23 0.43 c p3
225.17 511.10 0.43 c p3
225.31 511.00 0.43 c p3
225.46 511.10 0.43 c p3
225.60 510.88 0.43 c p3
225.75 510.88 0.43 c p3
225.89 511.23 0.43 c p3
226.04 511.33 0.43 c p3
226.19 511.00 0.43 c p3
226.33 511.55 0.43 c p3
226.48 511.33 0.43 c p3
226.62 511.33 0.43 c p3
226.77 510.88 0.43 c p3
226.91 511.68 0.43 c p3
227.06 510.88 0.43 c p3
227.20 511.33 0.43 c p3
227.35 511.78 0.43 c p3
227.50 511.90 0.43 c p3
227.64 511.23 0.43 c p3
227.79 511.23 0.43 c p3
227.93 510.65 0.43 c p3
228.08 511.10 0.43 c p3
228.22 510.88 0.43 c p3
228.37 511.10 0.43 c p3
228.51 511.00 0.43 c p3
228.66 510.88 0.43 c p3
228.81 511.33 0.43 c p3
228.95 511.10 0.43 c p3
229.10 511.78 0.43 c p3
229.24 511.23 0.43 c p3
229.39 511.10 0.43 c p3
229.53 510.88 0.43 c p3
229.68 511.23 0.43 c p3
229.82 511.10 0.43 c p3
229.97 511.10 0.43 c p3
230.12 511.68 0.43 c p3
230.26 511.45 0.43 c p3
230.41 511.33 0.43 c p3
230.55 511.45 0.43 c p3
230.70 511.23 0.43 c p3
230.84 511.23 0.43 c p3
230.99 511.10 0.43 c p3
231.14 511.68 0.43 c p3
231.28 510.65 0.43 c p3
231.43 511.33 0.43 c p3
231.57 511.33 0.43 c p3
231.72 511.00 0.43 c p3
231.86 511.45 0.43 c p3
232.01 511.33 0.43 c p3
232.15 511.90 0.43 c p3
232.30 511.23 0.43 c p3
232.45 511.55 0.43 c p3
232.59 511.55 0.43 c p3
232.74 511.23 0.43 c p3
232.88 511.10 0.43 c p3
233.03 511.55 0.43 c p3
233.17 511.10 0.43 c p3
233.32 511.33 0.43 c p3
233.46 510.88 0.43 c p3
233.61 511.10 0.43 c p3
233.76 511.33 0.43 c p3
233.90 510.65 0.43 c p3
234.05 511.45 0.43 c p3
234.19 511.00 0.43 c p3
234.34 510.55 0.43 c p3
234.48 511.45 0.43 c p3
234.63 511.00 0.43 c p3
234.77 511.23 0.43 c p3
234.92 511.33 0.43 c p3
235.07 511.33 0.43 c p3
235.21 511.33 0.43 c p3
235.36 511.23 0.43 c p3
235.50 511.45 0.43 c p3
235.65 511.33 0.43 c p3
235.79 511.68 0.43 c p3
235.94 511.23 0.43 c p3
236.09 511.10 0.43 c p3
236.23 511.10 0.43 c p3
236.38 511.10 0.43 c p3
236.52 511.55 0.43 c p3
236.67 510.78 0.43 c p3
236.81 510.88 0.43 c p3
236.96 439.36 0.43 c p3
237.10 443.59 0.43 c p3
237.25 446.43 0.43 c p3
237.40 447.43 0.43 c p3
237.54 448.87 0.43 c p3
237.69 450.90 0.43 c p3
237.83 451.92 0.43 c p3
237.98 452.37 0.43 c p3
238.12 453.82 0.43 c p3
238.27 454.37 0.43 c p3
238.41 455.04 0.43 c p3
238.56 455.39 0.43 c p3
238.71 457.07 0.43 c p3
238.85 457.97 0.43 c p3
239.00 459.19 0.43 c p3
239.14 459.64 0.43 c p3
239.29 460.44 0.43 c p3
239.43 460.22 0.43 c p3
239.58 460.54 0.43 c p3
239.72 462.01 0.43 c p3
239.87 463.11 0.43 c p3
240.02 464.36 0.43 c p3
240.16 464.46 0.43 c p3
240.31 465.36 0.43 c p3
240.45 465.94 0.43 c p3
240.60 466.94 0.43 c p3
240.74 467.16 0.43 c p3
240.89 468.28 0.43 c p3
241.04 469.18 0.43 c p3
241.18 470.31 0.43 c p3
241.33 470.31 0.43 c p3
241.47 470.98 0.43 c p3
241.62 471.21 0.43 c p3
241.76 471.53 0.43 c p3
241.91 473.11 0.43 c p3
242.05 473.78 0.43 c p3
242.20 474.00 0.43 c p3
242.35 474.23 0.43 c p3
242.49 474.90 0.43 c p3
242.64 475.90 0.43 c p3
242.78 476.45 0.43 c p3
242.93 476.68 0.43 c p3
243.07 477.13 0.43 c p3
243.22 477.93 0.43 c p3
243.36 479.05 0.43 c p3
243.51 479.50 0.43 c p3
243.66 480.27 0.43 c p3
243.80 480.05 0.43 c p3
243.95 480.95 0.43 c p3
244.09 481.95 0.43 c p3
244.24 481.72 0.43 c p3
244.38 482.52 0.43 c p3
244.53 482.85 0.43 c p3
244.67 483.65 0.43 c p3
244.82 483.87 0.43 c p3
244.97 485.00 0.43 c p3
245.11 485.32 0.43 c p3
245.26 485.22 0.43 c p3
245.40 485.67 0.43 c p3
245.55 486.00 0.43 c p3
245.69 486.77 0.43 c p3
245.84 487.34 0.43 c p3
245.99 488.12 0.43 c p3
246.13 488.47 0.43 c p3
246.28 488.92 0.43 c p3
246.42 489.37 0.43 c p3
246.57 489.59 0.43 c p3
246.71 489.24 0.43 c p3
246.86 490.04 0.43 c p3
247.00 490.82 0.43 c p3
247.15 491.37 0.43 c p3
247.30 491.94 0.43 c p3
247.44 492.04 0.43 c p3
247.59 491.94 0.43 c p3
247.73 492.84 0.43 c p3
247.88 492.72 0.43 c p3
248.02 492.84 0.43 c p3
248.17 493.16 0.43 c p3
248.31 494.41 0.43 c p3
248.46 494.96 0.43 c p3
248.61 495.09 0.43 c p3
248.75 494.96 0.43 c p3
248.90 495.41 0.43 c p3
249.04 494.74 0.43 c p3
249.19 495.41 0.43 c p3
249.33 496.09 0.43 c p3
249.48 497.31 0.43 c p3
249.62 497.54 0.43 c p3
249.77 497.54 0.43 c p3
249.92 497.21 0.43 c p3
250.06 497.31 0.43 c p3
250.21 497.21 0.43 c p3
250.35 497.76 0.43 c p3
250.50 498.66 0.43 c p3
250.64 499.46 0.43 c p3
250.79 499.01 0.43 c p3
250.94 499.24 0.43 c p3
251.08 498.79 0.43 c p3
251.23 499.46 0.43 c p3
251.37 499.78 0.43 c p3
251.52 499.91 0.43 c p3
251.66 501.01 0.43 c p3
251.81 500.91 0.43 c p3
251.95 500.78 0.43 c p3
252.10 501.01 0.43 c p3
252.25 500.78 0.43 c p3
252.39 501.01 0.43 c p3
252.54 501.36 0.43 c p3
252.68 502.13 0.43 c p3
252.83 502.26 0.43 c p3
252.97 502.03 0.43 c p3
253.12 502.03 0.43 c p3
253.26 502.13 0.43 c p3
253.41 502.36 0.43 c p3
253.56 502.58 0.43 c p3
253.70 503.16 0.43 c p3
253.85 503.16 0.43 c p3
253.99 503.26 0.43 c p3
254.14 503.03 0.43 c p3
254.28 503.83 0.43 c p3
254.43 503.48 0.43 c p3
254.57 503.38 0.43 c p3
254.72 503.48 0.43 c p3
254.87 504.28 0.43 c p3
255.01 504.61 0.43 c p3
255.16 504.38 0.43 c p3
255.30 504.61 0.43 c p3
255.45 504.96 0.43 c p3
255.59 505.06 0.43 c p3
255.74 504.83 0.43 c p3
255.88 505.38 0.43 c p3
256.03 505.95 0.43 c p3
256.18 505.83 0.43 c p3
256.32 505.38 0.43 c p3
256.47 505.73 0.43 c p3
256.61 505.83 0.43 c p3
256.76 505.73 0.43 c p3
256.90 505.51 0.43 c p3
257.05 505.51 0.43 c p3
257.20 506.63 0.43 c p3
257.34 505.83 0.43 c p3
257.49 505.51 0.43 c p3
257.63 506.28 0.43 c p3
257.78 505.95 0.43 c p3
257.92 506.63 0.43 c p3
258.07 506.73 0.43 c p3
258.21 507.08 0.43 c p3
258.36 506.95 0.43 c p3
258.51 507.18 0.43 c p3
258.65 506.85 0.43 c p3
258.80 506.28 0.43 c p3
258.94 506.63 0.43 c p3
259.09 507.53 0.43 c p3
259.23 506.73 0.43 c p3
259.38 507.53 0.43 c p3
259.52 507.18 0.43 c p3
259.67 507.18 0.43 c p3
259.82 506.85 0.43 c p3
259.96 506.95 0.43 c p3
260.11 507.30 0.43 c p3
260.25 507.63 0.43 c p3
260.40 508.08 0.43 c p3
260.54 507.75 0.43 c p3
260.69 507.53 0.43 c p3
260.83 507.40 0.43 c p3
260.98 507.63 0.43 c p3
261.13 508.08 0.43 c p3
261.27 508.30 0.43 c p3
261.42 508.98 0.43 c p3
261.56 507.85 0.43 c p3
261.71 507.63 0.43 c p3
261.85 507.75 0.43 c p3
262.00 507.98 0.43 c p3
262.15 508.08 0.43 c p3
262.29 508.43 0.43 c p3
262.44 508.88 0.43 c p3
262.58 508.08 0.43 c p3
262.73 508.30 0.43 c p3
262.87 508.20 0.43 c p3
263.02 508.43 0.43 c p3
263.16 507.98 0.43 c p3
263.31 507.98 0.43 c p3
263.46 508.30 0.43 c p3
263.60 508.53 0.43 c p3
263.75 508.43 0.43 c p3
263.89 508.53 0.43 c p3
264.04 508.43 0.43 c p3
264.18 508.08 0.43 c p3
264.33 508.30 0.43 c p3
264.47 508.65 0.43 c p3
264.62 509.20 0.43 c p3
264.77 508.43 0.43 c p3
264.91 508.98 0.43 c p3
265.06 508.53 0.43 c p3
265.20 508.43 0.43 c p3
265.35 508.65 0.43 c p3
265.49 508.65 0.43 c p3
265.64 509.10 0.43 c p3
265.78 509.20 0.43 c p3
265.93 508.88 0.43 c p3
266.08 508.75 0.43 c p3
266.22 508.65 0.43 c p3
266.37 508.20 0.43 c p3
266.51 508.43 0.43 c p3
266.66 508.43 0.43 c p3
266.80 509.78 0.43 c p3
266.95 509.20 0.43 c p3
267.10 508.65 0.43 c p3
267.24 508.43 0.43 c p3
267.39 509.20 0.43 c p3
267.53 508.65 0.43 c p3
267.68 508.88 0.43 c p3
267.82 509.33 0.43 c p3
267.97 509.10 0.43 c p3
268.11 508.75 0.43 c p3
268.26 508.75 0.43 c p3
268.41 508.98 0.43 c p3
268.55 508.53 0.43 c p3
268.70 508.43 0.43 c p3
268.84 509.43 0.43 c p3
268.99 509.10 0.43 c p3
269.13 508.75 0.43 c p3
269.28 509.10 0.43 c p3
269.42 508.65 0.43 c p3
269.57 508.43 0.43 c p3
269.72 508.65 0.43 c p3
269.86 508.88 0.43 c p3
270.01 509.20 0.43 c p3
270.15 509.20 0.43 c p3
270.30 508.75 0.43 c p3
270.44 508.88 0.43 c p3
270.59 508.65 0.43 c p3
270.73 508.65 0.43 c p3
270.88 509.10 0.43 c p3
271.03 509.20 0.43 c p3
271.17 508.75 0.43 c p3
271.32 508.75 0.43 c p3
271.46 508.20 0.43 c p3
271.61 508.53 0.43 c p3
271.75 508.20 0.43 c p3
271.90 508.75 0.43 c p3
272.05 509.10 0.43 c p3
272.19 509.33 0.43 c p3
272.34 508.98 0.43 c p3
272.48 508.65 0.43 c p3
272.63 508.65 0.43 c p3
272.77 508.30 0.43 c p3
272.92 508.98 0.43 c p3
273.06 508.75 0.43 c p3
273.21 509.20 0.43 c p3
273.36 509.10 0.43 c p3
273.50 508.75 0.43 c p3
273.65 508.43 0.43 c p3
273.79 508.43 0.43 c p3
273.94 508.43 0.43 c p3
274.08 508.43 0.43 c p3
274.23 508.75 0.43 c p3
274.37 508.53 0.43 c p3
274.52 508.08 0.43 c p3
274.67 508.08 0.43 c p3
274.81 508.30 0.43 c p3
274.96 508.30 0.43 c p3
275.10 508.43 0.43 c p3
275.25 508.75 0.43 c p3
275.39 508.53 0.43 c p3
275.54 508.75 0.43 c p3
275.68 508.98 0.43 c p3
275.83 508.43 0.43 c p3
275.98 508.53 0.43 c p3
276.12 508.98 0.43 c p3
276.27 508.98 0.43 c p3
276.41 509.33 0.43 c p3
276.56 508.88 0.43 c p3
276.70 508.30 0.43 c p3
276.85 508.65 0.43 c p3
277.00 507.85 0.43 c p3
277.14 508.43 0.43 c p3
277.29 508.88 0.43 c p3
277.43 508.98 0.43 c p3
277.58 508.08 0.43 c p3
277.72 508.43 0.43 c p3
277.87 508.43 0.43 c p3
278.01 508.20 0.43 c p3
278.16 508.30 0.43 c p3
278.31 508.43 0.43 c p3
278.45 508.20 0.43 c p3
278.60 508.98 0.43 c p3
278.74 508.30 0.43 c p3
278.89 508.30 0.43 c p3
279.03 508.08 0.43 c p3
279.18 508.30 0.43 c p3
279.32 508.20 0.43 c p3
279.47 508.75 0.43 c p3
279.62 508.30 0.43 c p3
279.76 507.98 0.43 c p3
279.91 508.30 0.43 c p3
280.05 508.08 0.43 c p3
280.20 507.63 0.43 c p3
280.34 508.08 0.43 c p3
280.49 508.20 0.43 c p3
280.63 508.08 0.43 c p3
280.78 508.30 0.43 c p3
280.93 507.53 0.43 c p3
281.07 507.75 0.43 c p3
281.22 507.85 0.43 c p3
281.36 507.85 0.43 c p3
281.51 508.75 0.43 c p3
281.65 508.65 0.43 c p3
281.80 508.20 0.43 c p3
281.95 508.08 0.43 c p3
282.09 508.43 0.43 c p3
282.24 508.30 0.43 c p3
282.38 507.98 0.43 c p3
282.53 507.85 0.43 c p3
282.67 508.53 0.43 c p3
282.82 507.98 0.43 c p3
282.96 508.20 0.43 c p3
283.11 507.98 0.43 c p3
283.26 507.63 0.43 c p3
283.40 507.75 0.43 c p3
283.55 507.75 0.43 c p3
283.69 507.63 0.43 c p3
283.84 508.30 0.43 c p3
283.98 508.20 0.43 c p3
284.13 508.08 0.43 c p3
284.27 507.53 0.43 c p3
284.42 507.85 0.43 c p3
284.57 507.75 0.43 c p3
284.71 507.40 0.43 c p3
284.86 508.08 0.43 c p3
285.00 507.63 0.43 c p3
285.15 507.98 0.43 c p3
285.29 508.30 0.43 c p3
285.44 508.08 0.43 c p3
285.58 507.98 0.43 c p3
285.73 507.63 0.43 c p3
285.88 508.20 0.43 c p3
286.02 507.98 0.43 c p3
286.17 508.08 0.43 c p3
286.31 507.63 0.43 c p3
286.46 507.40 0.43 c p3
286.60 507.40 0.43 c p3
286.75 507.85 0.43 c p3
286.89 508.08 0.43 c p3
287.04 507.85 0.43 c p3
287.19 507.75 0.43 c p3
287.33 507.53 0.43 c p3
287.48 507.85 0.43 c p3
287.62 507.75 0.43 c p3
287.77 507.63 0.43 c p3
287.91 507.85 0.43 c p3
288.06 508.20 0.43 c p3
288.21 507.85 0.43 c p3
288.35 508.30 0.43 c p3
288.50 507.63 0.43 c p3
288.64 507.40 0.43 c p3
288.79 507.53 0.43 c p3
288.93 507.75 0.43 c p3
289.08 507.98 0.43 c p3
289.22 507.85 0.43 c p3
289.37 507.75 0.43 c p3
289.52 507.53 0.43 c p3
289.66 506.95 0.43 c p3
289.81 507.63 0.43 c p3
289.95 507.40 0.43 c p3
290.10 507.40 0.43 c p3
290.24 508.65 0.43 c p3
290.39 508.43 0.43 c p3
290.53 507.85 0.43 c p3
290.68 507.75 0.43 c p3
290.83 507.85 0.43 c p3
290.97 507.40 0.43 c p3
291.12 507.40 0.43 c p3
291.26 507.63 0.43 c p3
291.41 507.53 0.43 c p3
291.55 507.85 0.43 c p3
291.70 507.40 0.43 c p3
291.84 507.30 0.43 c p3
291.99 507.18 0.43 c p3
292.14 507.18 0.43 c p3
292.28 507.75 0.43 c p3
292.43 507.98 0.43 c p3
292.57 507.53 0.43 c p3
292.72 507.63 0.43 c p3
292.86 507.40 0.43 c p3
293.01 507.30 0.43 c p3
293.16 507.53 0.43 c p3
293.30 507.63 0.43 c p3
293.45 508.30 0.43 c p3
293.59 507.75 0.43 c p3
293.74 507.75 0.43 c p3
293.88 507.53 0.43 c p3
294.03 507.08 0.43 c p3
294.17 507.08 0.43 c p3
294.32 506.85 0.43 c p3
294.47 507.98 0.43 c p3
294.61 507.85 0.43 c p3
294.76 507.53 0.43 c p3
294.90 507.30 0.43 c p3
295.05 506.95 0.43 c p3
295.19 507.18 0.43 c p3
295.34 507.40 0.43 c p3
295.48 507.85 0.43 c p3
295.63 507.63 0.43 c p3
295.78 507.53 0.43 c p3
295.92 507.18 0.43 c p3
296.07 507.53 0.43 c p3
296.21 507.30 0.43 c p3
296.36 507.53 0.43 c p3
296.50 507.53 0.43 c p3
296.65 507.85 0.43 c p3
296.79 507.98 0.43 c p3
296.94 507.40 0.43 c p3
297.09 507.63 0.43 c p3
297.23 507.18 0.43 c p3
297.38 507.18 0.43 c p3
297.52 506.95 0.43 c p3
297.67 507.85 0.43 c p3
297.81 507.30 0.43 c p3
297.96 507.63 0.43 c p3
298.11 507.40 0.43 c p3
298.25 507.30 0.43 c p3
298.40 507.08 0.43 c p3
298.54 507.08 0.43 c p3
298.69 507.75 0.43 c p3
298.83 507.85 0.43 c p3
298.98 507.18 0.43 c p3
299.12 507.18 0.43 c p3
299.27 508.20 0.43 c p3
299.42 507.40 0.43 c p3
299.56 507.30 0.43 c p3
299.71 507.40 0.43 c p3
299.85 507.40 0.43 c p3
300.00 507.85 0.43 c p3
300.14 507.40 0.43 c p3
300.29 507.08 0.43 c p3
300.43 507.08 0.43 c p3
300.58 507.08 0.43 c p3
300.73 506.95 0.43 c p3
300.87 507.18 0.43 c p3
301.02 506.95 0.43 c p3
301.16 507.18 0.43 c p3
301.31 507.18 0.43 c p3
301.45 507.08 0.43 c p3
301.60 506.73 0.43 c p3
301.74 506.95 0.43 c p3
301.89 507.63 0.43 c p3
302.04 507.53 0.43 c p3
302.18 507.30 0.43 c p3
302.33 506.95 0.43 c p3
302.47 507.30 0.43 c p3
302.62 507.18 0.43 c p3
302.76 507.30 0.43 c p3
302.91 507.30 0.43 c p3
303.06 507.30 0.43 c p3
303.20 507.30 0.43 c p3
303.35 506.73 0.43 c p3
303.49 507.30 0.43 c p3
303.64 506.95 0.43 c p3
303.78 506.63 0.43 c p3
303.93 507.08 0.43 c p3
304.07 507.75 0.43 c p3
304.22 507.30 0.43 c p3
304.37 507.53 0.43 c p3
304.51 507.30 0.43 c p3
304.66 506.85 0.43 c p3
304.80 506.85 0.43 c p3
304.95 507.30 0.43 c p3
305.09 507.63 0.43 c p3
305.24 507.53 0.43 c p3
305.38 506.95 0.43 c p3
305.53 507.53 0.43 c p3
305.68 506.73 0.43 c p3
305.82 506.85 0.43 c p3
305.97 506.95 0.43 c p3
306.11 507.30 0.43 c p3
306.26 507.18 0.43 c p3
306.40 507.30 0.43 c p3
306.55 506.85 0.43 c p3
306.69 507.08 0.43 c p3
306.84 506.05 0.43 c p3
306.99 506.73 0.43 c p3
307.13 507.30 0.43 c p3
307.28 507.18 0.43 c p3
307.42 506.85 0.43 c p3
307.57 506.85 0.43 c p3
307.71 506.73 0.43 c p3
307.86 507.53 0.43 c p3
308.01 506.63 0.43 c p3
308.15 507.98 0.43 c p3
308.30 508.08 0.43 c p3
308.44 507.40 0.43 c p3
308.59 507.75 0.43 c p3
308.73 507.18 0.43 c p3
308.88 506.95 0.43 c p3
309.02 506.85 0.43 c p3
309.17 507.18 0.43 c p3
309.32 507.75 0.43 c p3
309.46 507.40 0.43 c p3
309.61 507.08 0.43 c p3
309.75 507.63 0.43 c p3
309.90 506.50 0.43 c p3
310.04 506.63 0.43 c p3
310.19 507.18 0.43 c p3
310.33 507.75 0.43 c p3
310.48 507.30 0.43 c p3
310.63 507.30 0.43 c p3
310.77 507.18 0.43 c p3
310.92 506.50 0.43 c p3
311.06 506.73 0.43 c p3
311.21 507.30 0.43 c p3
311.35 507.40 0.43 c p3
311.50 507.30 0.43 c p3
311.64 507.08 0.43 c p3
311.79 507.75 0.43 c p3
311.94 507.18 0.43 c p3
312.08 506.85 0.43 c p3
312.23 506.95 0.43 c p3
312.37 507.18 0.43 c p3
312.52 507.08 0.43 c p3
312.66 507.40 0.43 c p3
312.81 506.73 0.43 c p3
312.96 506.73 0.43 c p3
313.10 506.40 0.43 c p3
313.25 507.18 0.43 c p3
313.39 507.40 0.43 c p3
313.54 507.53 0.43 c p3
313.68 507.40 0.43 c p3
313.83 506.73 0.43 c p3
313.97 507.30 0.43 c p3
314.12 506.85 0.43 c p3
314.27 507.18 0.43 c p3
314.41 507.40 0.43 c p3
314.56 507.30 0.43 c p3
314.70 506.73 0.43 c p3
314.85 506.85 0.43 c p3
314.99 506.40 0.43 c p3
315.14 506.50 0.43 c p3
315.28 507.08 0.43 c p3
315.43 507.30 0.43 c p3
315.58 507.18 0.43 c p3
315.72 506.95 0.43 c p3
315.87 506.63 0.43 c p3
316.01 506.73 0.43 c p3
316.16 506.63 0.43 c p3
316.30 507.08 0.43 c p3
316.45 507.18 0.43 c p3
316.59 507.18 0.43 c p3
316.74 506.95 0.43 c p3
316.89 506.85 0.43 c p3
317.03 506.95 0.43 c p3
317.18 506.95 0.43 c p3
317.32 507.75 0.43 c p3
317.47 507.53 0.43 c p3
317.61 507.18 0.43 c p3
317.76 506.63 0.43 c p3
317.91 506.85 0.43 c p3
318.05 506.85 0.43 c p3
318.20 506.73 0.43 c p3
318.34 507.08 0.43 c p3
318.49 507.08 0.43 c p3
318.63 507.08 0.43 c p3
318.78 507.08 0.43 c p3
318.92 506.95 0.43 c p3
319.07 506.63 0.43 c p3
319.22 506.63 0.43 c p3
319.36 507.30 0.43 c p3
319.51 507.53 0.43 c p3
319.65 506.95 0.43 c p3
319.80 507.40 0.43 c p3
319.94 506.73 0.43 c p3
320.09 507.08 0.43 c p3
320.23 506.28 0.43 c p3
320.38 507.30 0.43 c p3
320.53 507.53 0.43 c p3
320.67 507.30 0.43 c p3
320.82 507.08 0.43 c p3
320.96 506.85 0.43 c p3
321.11 506.63 0.43 c p3
321.25 505.95 0.43 c p3
321.40 507.30 0.43 c p3
321.54 507.53 0.43 c p3
321.69 507.30 0.43 c p3
321.84 506.73 0.43 c p3
321.98 507.18 0.43 c p3
322.13 507.30 0.43 c p3
322.27 506.85 0.43 c p3
322.42 506.95 0.43 c p3
322.56 507.63 0.43 c p3
322.71 507.53 0.43 c p3
322.85 507.63 0.43 c p3
323.00 507.08 0.43 c p3
323.15 506.85 0.43 c p3
323.29 507.08 0.43 c p3
323.44 507.08 0.43 c p3
323.58 507.08 0.43 c p3
323.73 507.08 0.43 c p3
323.87 507.08 0.43 c p3
324.02 507.18 0.43 c p3
324.17 506.95 0.43 c p3
324.31 506.85 0.43 c p3
324.46 506.40 0.43 c p3
324.60 506.63 0.43 c p3
324.75 507.18 0.43 c p3
324.89 507.63 0.43 c p3
325.04 507.18 0.43 c p3
325.18 506.85 0.43 c p3
325.33 507.08 0.43 c p3
325.48 506.85 0.43 c p3
325.62 506.63 0.43 c p3
325.77 506.95 0.43 c p3
325.91 507.63 0.43 c p3
326.06 507.08 0.43 c p3
326.20 507.53 0.43 c p3
326.35 507.18 0.43 c p3
326.49 506.73 0.43 c p3
326.64 506.85 0.43 c p3
326.79 506.63 0.43 c p3
326.93 507.30 0.43 c p3
327.08 507.08 0.43 c p3
327.22 506.85 0.43 c p3
327.37 506.73 0.43 c p3
327.51 506.73 0.43 c p3
327.66 506.40 0.43 c p3
327.80 506.05 0.43 c p3
327.95 507.30 0.43 c p3
328.10 507.40 0.43 c p3
328.24 507.18 0.43 c p3
328.39 506.85 0.43 c p3
328.53 507.53 0.43 c p3
328.68 507.08 0.43 c p3
328.82 506.73 0.43 c p3
328.97 506.95 0.43 c p3
329.12 506.85 0.43 c p3
329.26 507.08 0.43 c p3
329.41 507.18 0.43 c p3
329.55 507.18 0.43 c p3
329.70 506.95 0.43 c p3
329.84 506.63 0.43 c p3
329.99 506.85 0.43 c p3
330.13 506.95 0.43 c p3
330.28 507.18 0.43 c p3
330.43 507.08 0.43 c p3
330.57 506.73 0.43 c p3
330.72 507.40 0.43 c p3
330.86 506.63 0.43 c p3
331.01 506.50 0.43 c p3
331.15 507.18 0.43 c p3
331.30 507.40 0.43 c p3
331.44 507.18 0.43 c p3
331.59 507.18 0.43 c p3
331.74 506.73 0.43 c p3
331.88 507.63 0.43 c p3
332.03 506.28 0.43 c p3
332.17 506.50 0.43 c p3
332.32 507.53 0.43 c p3
332.46 507.08 0.43 c p3
332.61 507.08 0.43 c p3
332.75 506.50 0.43 c p3
332.90 506.40 0.43 c p3
333.05 506.63 0.43 c p3
333.19 506.50 0.43 c p3
333.34 506.85 0.43 c p3
333.48 506.95 0.43 c p3
333.63 507.18 0.43 c p3
333.77 506.95 0.43 c p3
333.92 507.18 0.43 c p3
334.07 506.63 0.43 c p3
334.21 506.63 0.43 c p3
334.36 506.73 0.43 c p3
334.50 507.75 0.43 c p3
334.65 507.18 0.43 c p3
334.79 507.30 0.43 c p3
334.94 507.08 0.43 c p3
335.08 507.30 0.43 c p3
335.23 506.73 0.43 c p3
335.38 506.95 0.43 c p3
335.52 507.53 0.43 c p3
335.67 506.85 0.43 c p3
335.81 506.85 0.43 c p3
335.96 507.08 0.43 c p3
336.10 506.63 0.43 c p3
336.25 506.73 0.43 c p3
336.39 507.53 0.43 c p3
336.54 506.95 0.43 c p3
336.69 507.30 0.43 c p3
336.83 507.08 0.43 c p3
336.98 507.18 0.43 c p3
337.12 506.95 0.43 c p3
337.27 506.95 0.43 c p3
337.41 506.95 0.43 c p3
337.56 506.50 0.43 c p3
337.70 507.63 0.43 c p3
337.85 507.30 0.43 c p3
338.00 506.85 0.43 c p3
338.14 507.08 0.43 c p3
338.29 506.85 0.43 c p3
338.43 506.18 0.43 c p3
338.58 506.73 0.43 c p3
338.72 507.30 0.43 c p3
338.87 506.85 0.43 c p3
339.02 506.50 0.43 c p3
339.16 506.85 0.43 c p3
339.31 506.63 0.43 c p3
339.45 506.73 0.43 c p3
339.60 506.40 0.43 c p3
339.74 507.53 0.43 c p3
339.89 507.63 0.43 c p3
340.03 507.30 0.43 c p3
340.18 506.95 0.43 c p3
340.33 507.08 0.43 c p3
340.47 506.85 0.43 c p3
340.62 506.63 0.43 c p3
340.76 507.08 0.43 c p3
340.91 507.75 0.43 c p3
341.05 507.18 0.43 c p3
341.20 506.95 0.43 c p3
341.34 506.73 0.43 c p3
341.49 507.18 0.43 c p3
341.64 506.95 0.43 c p3
341.78 506.85 0.43 c p3
341.93 507.08 0.43 c p3
342.07 507.18 0.43 c p3
342.22 506.85 0.43 c p3
342.36 507.08 0.43 c p3
342.51 506.50 0.43 c p3
342.65 506.63 0.43 c p3
342.80 506.40 0.43 c p3
342.95 507.08 0.43 c p3
343.09 507.53 0.43 c p3
343.24 507.18 0.43 c p3
343.38 507.53 0.43 c p3
343.53 507.40 0.43 c p3
343.67 506.85 0.43 c p3
343.82 506.73 0.43 c p3
343.97 506.85 0.43 c p3
344.11 507.40 0.43 c p3
344.26 507.53 0.43 c p3
344.40 506.95 0.43 c p3
344.55 506.95 0.43 c p3
344.69 506.95 0.43 c p3
344.84 506.40 0.43 c p3
344.98 506.85 0.43 c p3
345.13 506.50 0.43 c p3
345.28 507.40 0.43 c p3
345.42 507.18 0.43 c p3
345.57 507.08 0.43 c p3
345.71 507.53 0.43 c p3
345.86 507.08 0.43 c p3
346.00 506.95 0.43 c p3
346.15 506.95 0.43 c p3
346.29 507.53 0.43 c p3
346.44 507.75 0.43 c p3
346.59 506.95 0.43 c p3
346.73 506.85 0.43 c p3
346.88 506.28 0.43 c p3
347.02 506.85 0.43 c p3
347.17 506.73 0.43 c p3
347.31 507.08 0.43 c p3
347.46 507.53 0.43 c p3
347.60 506.95 0.43 c p3
347.75 507.08 0.43 c p3
347.90 506.63 0.43 c p3
348.04 506.63 0.43 c p3
348.19 506.63 0.43 c p3
348.33 507.30 0.43 c p3
348.48 506.95 0.43 c p3
348.62 507.18 0.43 c p3
348.77 507.75 0.43 c p3
348.92 507.08 0.43 c p3
349.06 506.63 0.43 c p3
349.21 506.73 0.43 c p3
349.35 506.95 0.43 c p3
349.50 507.53 0.43 c p3
349.64 506.85 0.43 c p3
349.79 507.08 0.43 c p3
349.93 506.85 0.43 c p3
350.08 506.85 0.43 c p3
350.23 506.40 0.43 c p3
350.37 507.08 0.43 c p3
350.52 507.18 0.43 c p3
350.66 507.40 0.43 c p3
350.81 507.18 0.43 c p3
350.95 506.63 0.43 c p3
351.10 506.95 0.43 c p3
351.24 506.18 0.43 c p3
351.39 507.08 0.43 c p3
351.54 507.53 0.43 c p3
351.68 508.20 0.43 c p3
351.83 507.30 0.43 c p3
351.97 507.30 0.43 c p3
352.12 507.08 0.43 c p3
352.26 506.85 0.43 c p3
352.41 506.95 0.43 c p3
352.55 507.30 0.43 c p3
352.70 507.98 0.43 c p3
352.85 506.85 0.43 c p3
352.99 507.08 0.43 c p3
353.14 507.40 0.43 c p3
353.28 506.73 0.43 c p3
353.43 506.95 0.43 c p3
353.57 506.95 0.43 c p3
353.72 507.30 0.43 c p3
353.86 507.53 0.43 c p3
354.01 507.18 0.43 c p3
354.16 506.63 0.43 c p3
354.30 506.73 0.43 c p3
354.45 506.85 0.43 c p3
354.59 506.85 0.43 c p3
354.74 507.30 0.43 c p3
354.88 507.98 0.43 c p3
355.03 507.30 0.43 c p3
355.18 507.18 0.43 c p3
355.32 506.73 0.43 c p3
355.47 506.63 0.43 c p3
355.61 506.85 0.43 c p3
355.76 507.30 0.43 c p3
355.90 507.30 0.43 c p3
356.05 506.85 0.43 c p3
356.19 506.85 0.43 c p3
356.34 506.63 0.43 c p3
356.49 507.08 0.43 c p3
356.63 506.50 0.43 c p3
356.78 506.73 0.43 c p3
356.92 507.30 0.43 c p3
357.07 507.40 0.43 c p3
357.21 507.30 0.43 c p3
357.36 507.53 0.43 c p3
357.50 506.50 0.43 c p3
357.65 506.73 0.43 c p3
357.80 507.40 0.43 c p3
357.94 507.40 0.43 c p3
358.09 507.40 0.43 c p3
358.23 507.08 0.43 c p3
358.38 507.08 0.43 c p3
358.52 506.63 0.43 c p3
358.67 506.73 0.43 c p3
358.81 507.08 0.43 c p3
358.96 507.40 0.43 c p3
359.11 506.95 0.43 c p3
359.25 506.73 0.43 c p3
359.40 506.95 0.43 c p3
359.54 507.08 0.43 c p3
359.69 506.40 0.43 c p3
359.83 506.95 0.43 c p3
359.98 507.30 0.43 c p3
360.13 507.40 0.43 c p3
360.27 506.95 0.43 c p3
360.42 507.08 0.43 c p3
360.56 507.08 0.43 c p3
360.71 507.08 0.43 c p3
360.85 507.40 0.43 c p3
361.00 507.53 0.43 c p3
361.14 507.85 0.43 c p3
361.29 507.08 0.43 c p3
361.44 506.85 0.43 c p3
361.58 506.63 0.43 c p3
361.73 506.50 0.43 c p3
361.87 506.85 0.43 c p3
362.02 506.85 0.43 c p3
362.16 507.18 0.43 c p3
362.31 507.08 0.43 c p3
362.45 507.18 0.43 c p3
362.60 507.30 0.43 c p3
362.75 507.18 0.43 c p3
362.89 507.53 0.43 c p3
363.04 506.85 0.43 c p3
363.18 507.53 0.43 c p3
363.33 507.18 0.43 c p3
363.47 507.53 0.43 c p3
363.62 507.18 0.43 c p3
363.76 507.08 0.43 c p3
363.91 507.18 0.43 c p3
364.06 506.95 0.43 c p3
364.20 507.08 0.43 c p3
364.35 507.53 0.43 c p3
364.49 506.95 0.43 c p3
364.64 507.30 0.43 c p3
364.78 507.30 0.43 c p3
364.93 506.63 0.43 c p3
365.08 506.85 0.43 c p3
365.22 507.53 0.43 c p3
365.37 507.40 0.43 c p3
365.51 507.40 0.43 c p3
365.66 506.73 0.43 c p3
365.80 506.95 0.43 c p3
365.95 506.85 0.43 c p3
366.09 507.40 0.43 c p3
366.24 507.18 0.43 c p3
366.39 507.53 0.43 c p3
366.53 507.18 0.43 c p3
366.68 507.08 0.43 c p3
366.82 507.30 0.43 c p3
366.97 507.08 0.43 c p3
367.11 506.73 0.43 c p3
367.26 507.40 0.43 c p3
367.40 507.18 0.43 c p3
367.55 507.40 0.43 c p3
367.70 507.08 0.43 c p3
367.84 506.95 0.43 c p3
367.99 506.63 0.43 c p3
368.13 507.18 0.43 c p3
368.28 507.30 0.43 c p3
368.42 507.08 0.43 c p3
368.57 506.63 0.43 c p3
368.71 506.73 0.43 c p3
368.86 506.85 0.43 c p3
369.01 506.85 0.43 c p3
369.15 506.63 0.43 c p3
369.30 507.53 0.43 c p3
369.44 507.63 0.43 c p3
369.59 507.30 0.43 c p3
369.73 506.85 0.43 c p3
369.88 507.18 0.43 c p3
370.03 506.95 0.43 c p3
370.17 506.85 0.43 c p3
370.32 507.53 0.43 c p3
370.46 507.53 0.43 c p3
370.61 507.53 0.43 c p3
370.75 507.08 0.43 c p3
370.90 506.95 0.43 c p3
371.04 506.95 0.43 c p3
371.19 506.50 0.43 c p3
371.34 506.85 0.43 c p3
371.48 507.40 0.43 c p3
371.63 507.63 0.43 c p3
371.77 507.08 0.43 c p3
371.92 507.30 0.43 c p3
372.06 507.08 0.43 c p3
372.21 506.73 0.43 c p3
372.35 507.63 0.43 c p3
372.50 507.30 0.43 c p3
372.65 506.95 0.43 c p3
372.79 507.98 0.43 c p3
372.94 507.08 0.43 c p3
373.08 506.63 0.43 c p3
373.23 507.30 0.43 c p3
373.37 506.95 0.43 c p3
373.52 507.40 0.43 c p3
373.66 507.75 0.43 c p3
373.81 507.40 0.43 c p3
373.96 506.73 0.43 c p3
374.10 506.63 0.43 c p3
374.25 506.50 0.43 c p3
374.39 507.18 0.43 c p3
374.54 507.08 0.43 c p3
374.68 507.63 0.43 c p3
374.83 507.18 0.43 c p3
374.98 507.53 0.43 c p3
375.12 507.08 0.43 c p3
375.27 507.30 0.43 c p3
375.41 506.85 0.43 c p3
375.56 507.18 0.43 c p3
375.70 507.63 0.43 c p3
375.85 507.40 0.43 c p3
375.99 507.08 0.43 c p3
376.14 506.50 0.43 c p3
376.29 506.40 0.43 c p3
376.43 506.85 0.43 c p3
376.58 507.63 0.43 c p3
376.72 507.08 0.43 c p3
376.87 507.08 0.43 c p3
377.01 507.08 0.43 c p3
377.16 506.95 0.43 c p3
377.30 506.73 0.43 c p3
377.45 507.30 0.43 c p3
377.60 507.30 0.43 c p3
377.74 507.75 0.43 c p3
377.89 507.18 0.43 c p3
378.03 506.95 0.43 c p3
378.18 507.18 0.43 c p3
378.32 506.73 0.43 c p3
378.47 506.85 0.43 c p3
378.61 507.18 0.43 c p3
378.76 507.75 0.43 c p3
378.91 507.30 0.43 c p3
379.05 507.08 0.43 c p3
379.20 506.95 0.43 c p3
379.34 506.73 0.43 c p3
379.49 506.85 0.43 c p3
379.63 507.18 0.43 c p3
379.78 507.40 0.43 c p3
379.93 506.50 0.43 c p3
380.07 507.30 0.43 c p3
380.22 506.95 0.43 c p3
380.36 507.53 0.43 c p3
380.51 507.53 0.43 c p3
380.65 507.63 0.43 c p3
380.80 507.75 0.43 c p3
380.94 507.08 0.43 c p3
381.09 506.85 0.43 c p3
381.24 506.85 0.43 c p3
381.38 507.30 0.43 c p3
381.53 507.30 0.43 c p3
381.67 507.08 0.43 c p3
381.82 507.40 0.43 c p3
381.96 507.30 0.43 c p3
382.11 506.95 0.43 c p3
382.25 506.85 0.43 c p3
382.40 507.18 0.43 c p3
0.00 0.00 432.00 576.00 cl
0 0 0 srgb
0.75 setlinewidth
[] 0 setdash
1 setlinecap
1 setlinejoin
10.00 setmiterlimit
np
236.96 345.60 m
145.59 0 l
o
np
236.96 345.60 m
0 -5.76 l
o
np
266.08 345.60 m
0 -5.76 l
o
np
295.19 345.60 m
0 -5.76 l
o
np
324.31 345.60 m
0 -5.76 l
o
np
353.43 345.60 m
0 -5.76 l
o
np
382.55 345.60 m
0 -5.76 l
o
/Font1 findfont 10 s
236.96 329.47 (0) .5 0 t
266.08 329.47 (200) .5 0 t
295.19 329.47 (400) .5 0 t
324.31 329.47 (600) .5 0 t
353.43 329.47 (800) .5 0 t
382.55 329.47 (1000) .5 0 t
np
216.00 352.00 m
0 153.48 l
o
np
216.00 352.00 m
-5.76 0 l
o
np
216.00 403.16 m
-5.76 0 l
o
np
216.00 454.32 m
-5.76 0 l
o
np
216.00 505.48 m
-5.76 0 l
o
209.09 348.41 (0.0) 1 0 t
209.09 399.57 (0.5) 1 0 t
209.09 450.73 (1.0) 1 0 t
209.09 501.89 (1.5) 1 0 t
np
216.00 345.60 m
172.80 0 l
0 172.80 l
-172.80 0 l
0 -172.80 l
o
0.00 0.00 432.00 576.00 cl
/Font1 findfont 10 s
0 0 0 srgb
302.40 313.34 (Zeit / ms \(total\)) .5 0 t
190.66 432.00 (U / V) .5 90 t
216.00 345.60 388.80 518.40 cl
0 0 0 srgb
0.38 setlinewidth
[ 1.12 1.88] 0 setdash
1 setlinecap
1 setlinejoin
10.00 setmiterlimit
np
223.42 345.60 m
0 172.80 l
o
np
235.07 345.60 m
0 172.80 l
o
np
239.00 345.60 m
0 172.80 l
o
np
266.95 345.60 m
0 172.80 l
o
86.40 57.60 388.80 288.00 cl
1 0 0 srgb
1.50 setlinewidth
[] 0 setdash
1 setlinecap
1 setlinejoin
10.00 setmiterlimit
np
97.60 279.47 m
1.41 -20.32 l
1.40 -18.37 l
1.41 -16.62 l
1.41 -15.03 l
1.41 -13.59 l
1.40 -12.30 l
1.41 -11.12 l
1.41 -10.05 l
1.40 -9.10 l
1.41 -8.22 l
1.41 -7.44 l
1.40 -6.73 l
1.41 -6.08 l
1.41 -5.50 l
1.41 -4.98 l
1.40 -4.50 l
1.41 -4.07 l
1.41 -3.68 l
1.40 -3.33 l
1.41 -3.01 l
1.41 -2.73 l
1.40 -2.46 l
1.41 -2.23 l
1.41 -2.01 l
1.41 -1.83 l
1.40 -1.64 l
1.41 -1.49 l
1.41 -1.35 l
1.40 -1.22 l
1.41 -1.10 l
1.41 -1.00 l
1.41 -0.90 l
1.40 -0.82 l
1.41 -0.74 l
1.41 -0.66 l
1.40 -0.61 l
1.41 -0.54 l
1.41 -0.50 l
1.40 -0.44 l
1.41 -0.41 l
1.41 -0.36 l
1.41 -0.33 l
1.40 -0.30 l
1.41 -0.27 l
1.41 -0.24 l
1.40 -0.22 l
1.41 -0.20 l
1.41 -0.19 l
1.40 -0.16 l
1.41 -0.15 l
1.41 -0.13 l
1.41 -0.12 l
1.40 -0.11 l
1.41 -0.10 l
1.41 -0.09 l
1.40 -0.08 l
1.41 -0.07 l
1.41 -0.07 l
1.41 -0.06 l
1.40 -0.05 l
1.41 -0.05 l
1.41 -0.05 l
1.40 -0.04 l
1.41 -0.03 l
1.41 -0.03 l
1.40 -0.03 l
1.41 -0.03 l
1.41 -0.03 l
1.41 -0.02 l
1.40 -0.02 l
1.41 -0.02 l
1.41 -0.01 l
1.40 -0.02 l
1.41 -0.01 l
1.41 -0.01 l
1.40 -0.01 l
1.41 -0.01 l
1.41 -0.01 l
1.41 -0.01 l
1.40 -0.01 l
1.41 0 l
1.41 -0.01 l
1.40 0 l
1.41 -0.01 l
1.41 0 l
1.41 -0.01 l
1.40 0 l
1.41 0 l
1.41 -0.01 l
1.40 0 l
1.41 0 l
1.41 0 l
1.40 -0.01 l
1.41 0 l
1.41 0 l
1.41 0 l
1.40 0 l
1.41 0 l
1.41 0 l
238.30 66.94 lineto
1.41 0 l
1.41 0 l
1.40 0 l
1.41 0 l
1.41 0 l
1.41 0 l
1.40 0 l
1.41 0 l
1.41 0 l
1.40 0 l
1.41 0 l
1.41 0 l
1.40 0 l
1.41 0 l
1.41 0 l
1.41 0 l
1.40 0 l
1.41 0 l
1.41 0 l
1.40 0 l
1.41 0 l
1.41 0 l
1.41 0 l
1.40 0 l
1.41 0 l
1.41 0 l
1.40 0 l
1.41 0 l
1.41 0 l
1.40 0 l
1.41 0 l
1.41 0 l
1.41 0 l
1.40 0 l
1.41 0 l
1.41 0 l
1.40 0 l
1.41 0 l
1.41 0 l
1.40 0 l
1.41 0 l
1.41 0 l
1.41 0 l
1.40 0 l
1.41 0 l
1.41 0 l
1.40 0 l
1.41 0 l
1.41 0 l
1.41 0 l
1.40 0 l
1.41 0 l
1.41 0 l
1.40 0 l
1.41 0 l
1.41 0 l
1.40 0 l
1.41 0 l
1.41 0 l
1.41 0 l
1.40 0 l
1.41 0 l
1.41 0 l
1.40 0 l
1.41 0 l
1.41 0 l
1.40 0 l
1.41 0 l
1.41 0 l
1.41 0 l
1.40 0 l
1.41 0 l
1.41 0 l
1.40 0 l
1.41 0 l
1.41 0 l
1.41 0 l
1.40 0 l
1.41 0 l
1.41 0 l
1.40 0 l
1.41 0 l
1.41 0 l
1.40 0 l
1.41 0 l
1.41 0 l
1.41 0 l
1.40 0 l
1.41 0 l
1.41 0 l
1.40 0 l
1.41 0 l
1.41 0 l
1.40 0 l
1.41 0 l
1.41 0 l
1.41 0 l
1.40 0 l
1.41 0 l
o
0.00 0.00 432.00 576.00 cl
0 0 0 srgb
0.75 setlinewidth
[] 0 setdash
1 setlinecap
1 setlinejoin
10.00 setmiterlimit
np
97.60 57.60 m
280.00 0 l
o
np
97.60 57.60 m
0 -5.76 l
o
np
153.60 57.60 m
0 -5.76 l
o
np
209.60 57.60 m
0 -5.76 l
o
np
265.60 57.60 m
0 -5.76 l
o
np
321.60 57.60 m
0 -5.76 l
o
np
377.60 57.60 m
0 -5.76 l
o
/Font1 findfont 10 s
97.60 41.47 (0) .5 0 t
153.60 41.47 (200) .5 0 t
209.60 41.47 (400) .5 0 t
265.60 41.47 (600) .5 0 t
321.60 41.47 (800) .5 0 t
377.60 41.47 (1000) .5 0 t
np
86.40 66.13 m
0 178.53 l
o
np
86.40 66.13 m
-5.76 0 l
o
np
86.40 110.77 m
-5.76 0 l
o
np
86.40 155.40 m
-5.76 0 l
o
np
86.40 200.03 m
-5.76 0 l
o
np
86.40 244.66 m
-5.76 0 l
o
79.49 62.54 (0.00) 1 0 t
79.49 107.18 (0.05) 1 0 t
79.49 151.81 (0.10) 1 0 t
79.49 196.44 (0.15) 1 0 t
79.49 241.07 (0.20) 1 0 t
np
86.40 57.60 m
302.40 0 l
0 230.40 l
-302.40 0 l
0 -230.40 l
o
0.00 0.00 432.00 576.00 cl
/Font1 findfont 10 s
0 0 0 srgb
237.60 13.82 (Zeit / ms \(nach Puls\)) .5 0 t
49.54 172.80 (Absorbanz A) .5 90 t
86.40 57.60 388.80 288.00 cl
/bg { 1 1 1 srgb } def
0 0 0 srgb
0.75 setlinewidth
[] 0 setdash
1 setlinecap
1 setlinejoin
10.00 setmiterlimit
101.80 219.60 0.65 c p3
102.08 217.97 0.65 c p3
102.36 215.10 0.65 c p3
102.64 215.91 0.65 c p3
102.92 214.75 0.65 c p3
103.20 209.52 0.65 c p3
103.48 205.66 0.65 c p3
103.76 201.33 0.65 c p3
104.04 200.99 0.65 c p3
104.32 197.90 0.65 c p3
104.60 195.94 0.65 c p3
104.88 192.55 0.65 c p3
105.16 191.80 0.65 c p3
105.44 188.03 0.65 c p3
105.72 185.04 0.65 c p3
106.00 181.34 0.65 c p3
106.28 181.34 0.65 c p3
106.56 179.14 0.65 c p3
106.84 178.41 0.65 c p3
107.12 177.35 0.65 c p3
107.40 172.28 0.65 c p3
107.68 170.13 0.65 c p3
107.96 169.41 0.65 c p3
108.24 168.70 0.65 c p3
108.52 166.57 0.65 c p3
108.80 163.43 0.65 c p3
109.08 161.71 0.65 c p3
109.36 161.01 0.65 c p3
109.64 159.62 0.65 c p3
109.92 157.15 0.65 c p3
110.20 153.70 0.65 c p3
110.48 152.33 0.65 c p3
110.76 149.98 0.65 c p3
111.04 150.66 0.65 c p3
111.32 147.95 0.65 c p3
111.60 144.96 0.65 c p3
111.88 145.63 0.65 c p3
112.16 143.25 0.65 c p3
112.44 142.29 0.65 c p3
112.72 139.92 0.65 c p3
113.00 139.26 0.65 c p3
113.28 135.97 0.65 c p3
113.56 135.03 0.65 c p3
113.84 135.32 0.65 c p3
114.12 134.01 0.65 c p3
114.40 133.07 0.65 c p3
114.68 130.84 0.65 c p3
114.96 129.19 0.65 c p3
115.24 126.98 0.65 c p3
115.52 125.98 0.65 c p3
115.80 124.70 0.65 c p3
116.08 123.43 0.65 c p3
116.36 122.80 0.65 c p3
116.64 123.79 0.65 c p3
116.92 121.54 0.65 c p3
117.20 119.37 0.65 c p3
117.48 117.83 0.65 c p3
117.76 116.24 0.65 c p3
118.04 115.96 0.65 c p3
118.32 116.24 0.65 c p3
118.60 113.76 0.65 c p3
118.88 114.10 0.65 c p3
119.16 113.76 0.65 c p3
119.44 112.86 0.65 c p3
119.72 109.45 0.65 c p3
120.00 107.96 0.65 c p3
120.28 107.62 0.65 c p3
120.56 107.96 0.65 c p3
120.84 106.74 0.65 c p3
121.12 108.57 0.65 c p3
121.40 106.74 0.65 c p3
121.68 104.92 0.65 c p3
121.96 101.64 0.65 c p3
122.24 101.04 0.65 c p3
122.52 101.04 0.65 c p3
122.80 101.91 0.65 c p3
123.08 101.64 0.65 c p3
123.36 101.91 0.65 c p3
123.64 100.44 0.65 c p3
123.92 98.06 0.65 c p3
124.20 95.95 0.65 c p3
124.48 97.13 0.65 c p3
124.76 96.54 0.65 c p3
125.04 97.73 0.65 c p3
125.32 95.95 0.65 c p3
125.60 95.10 0.65 c p3
125.88 94.77 0.65 c p3
126.16 91.90 0.65 c p3
126.44 92.16 0.65 c p3
126.72 92.48 0.65 c p3
127.00 91.90 0.65 c p3
127.28 92.48 0.65 c p3
127.56 91.90 0.65 c p3
127.84 90.99 0.65 c p3
128.12 88.99 0.65 c p3
128.40 88.66 0.65 c p3
128.68 89.24 0.65 c p3
128.96 89.24 0.65 c p3
129.24 88.99 0.65 c p3
129.52 88.41 0.65 c p3
129.80 87.83 0.65 c p3
130.08 86.35 0.65 c p3
130.36 86.35 0.65 c p3
130.64 86.09 0.65 c p3
130.92 86.67 0.65 c p3
131.20 84.62 0.65 c p3
131.48 85.52 0.65 c p3
131.76 85.77 0.65 c p3
132.04 85.52 0.65 c p3
132.32 83.48 0.65 c p3
132.60 82.65 0.65 c p3
132.88 83.22 0.65 c p3
133.16 82.65 0.65 c p3
133.44 81.76 0.65 c p3
133.72 81.51 0.65 c p3
134.00 82.08 0.65 c p3
134.28 80.69 0.65 c p3
134.56 79.24 0.65 c p3
134.84 79.55 0.65 c p3
135.12 80.69 0.65 c p3
135.40 79.81 0.65 c p3
135.68 79.55 0.65 c p3
135.96 79.81 0.65 c p3
136.24 80.37 0.65 c p3
136.52 80.37 0.65 c p3
136.80 77.55 0.65 c p3
137.08 79.55 0.65 c p3
137.36 80.37 0.65 c p3
137.64 78.42 0.65 c p3
137.92 79.24 0.65 c p3
138.20 77.55 0.65 c p3
138.48 77.30 0.65 c p3
138.76 76.42 0.65 c p3
139.04 76.73 0.65 c p3
139.32 76.17 0.65 c p3
139.60 76.98 0.65 c p3
139.88 78.42 0.65 c p3
140.16 77.55 0.65 c p3
140.44 75.30 0.65 c p3
140.72 77.30 0.65 c p3
141.00 75.30 0.65 c p3
141.28 76.17 0.65 c p3
141.56 76.17 0.65 c p3
141.84 76.98 0.65 c p3
142.12 76.73 0.65 c p3
142.40 75.86 0.65 c p3
142.68 75.05 0.65 c p3
142.96 73.93 0.65 c p3
143.24 74.74 0.65 c p3
143.52 75.30 0.65 c p3
143.80 75.61 0.65 c p3
144.08 75.05 0.65 c p3
144.36 73.93 0.65 c p3
144.64 73.37 0.65 c p3
144.92 71.70 0.65 c p3
145.20 74.49 0.65 c p3
145.48 75.05 0.65 c p3
145.76 74.74 0.65 c p3
146.04 74.18 0.65 c p3
146.32 73.93 0.65 c p3
146.60 73.06 0.65 c p3
146.88 71.95 0.65 c p3
147.16 73.93 0.65 c p3
147.44 73.37 0.65 c p3
147.72 73.62 0.65 c p3
148.00 73.06 0.65 c p3
148.28 74.18 0.65 c p3
148.56 74.18 0.65 c p3
148.84 73.37 0.65 c p3
149.12 72.81 0.65 c p3
149.40 73.06 0.65 c p3
149.68 72.81 0.65 c p3
149.96 73.06 0.65 c p3
150.24 73.93 0.65 c p3
150.52 73.37 0.65 c p3
150.80 72.51 0.65 c p3
151.08 71.15 0.65 c p3
151.36 73.06 0.65 c p3
151.64 71.70 0.65 c p3
151.92 72.81 0.65 c p3
152.20 73.06 0.65 c p3
152.48 72.51 0.65 c p3
152.76 72.51 0.65 c p3
153.04 71.39 0.65 c p3
153.32 71.15 0.65 c p3
153.60 71.95 0.65 c p3
153.88 72.26 0.65 c p3
154.16 72.51 0.65 c p3
154.44 73.62 0.65 c p3
154.72 73.06 0.65 c p3
155.00 73.06 0.65 c p3
155.28 69.73 0.65 c p3
155.56 71.15 0.65 c p3
216.00 201.60 367.20 247.68 cl
0 0 0 srgb
0.75 setlinewidth
[] 0 setdash
1 setlinecap
1 setlinejoin
10.00 setmiterlimit
221.60 210.42 0.43 c p1
222.33 214.85 0.43 c p1
223.06 215.40 0.43 c p1
223.79 226.66 0.43 c p1
224.52 231.92 0.43 c p1
225.25 224.95 0.43 c p1
225.97 221.89 0.43 c p1
226.70 217.24 0.43 c p1
227.43 224.25 0.43 c p1
228.16 222.97 0.43 c p1
228.89 224.88 0.43 c p1
229.62 222.41 0.43 c p1
230.35 227.58 0.43 c p1
231.08 223.68 0.43 c p1
231.81 221.96 0.43 c p1
232.54 217.97 0.43 c p1
233.27 224.81 0.43 c p1
234.00 224.99 0.43 c p1
234.72 229.40 0.43 c p1
235.45 232.72 0.43 c p1
236.18 224.01 0.43 c p1
236.91 223.82 0.43 c p1
237.64 227.77 0.43 c p1
238.37 231.61 0.43 c p1
239.10 231.12 0.43 c p1
239.83 227.53 0.43 c p1
240.56 228.05 0.43 c p1
241.29 231.47 0.43 c p1
242.02 232.72 0.43 c p1
242.75 230.68 0.43 c p1
243.47 225.64 0.43 c p1
244.20 226.65 0.43 c p1
244.93 224.67 0.43 c p1
245.66 231.55 0.43 c p1
246.39 228.29 0.43 c p1
247.12 224.10 0.43 c p1
247.85 230.68 0.43 c p1
248.58 228.12 0.43 c p1
249.31 229.67 0.43 c p1
250.04 226.99 0.43 c p1
250.77 229.27 0.43 c p1
251.50 223.67 0.43 c p1
252.22 224.94 0.43 c p1
252.95 229.79 0.43 c p1
253.68 229.82 0.43 c p1
254.41 230.87 0.43 c p1
255.14 228.01 0.43 c p1
255.87 226.80 0.43 c p1
256.60 223.85 0.43 c p1
257.33 224.44 0.43 c p1
258.06 224.13 0.43 c p1
258.79 223.77 0.43 c p1
259.52 225.22 0.43 c p1
260.25 231.41 0.43 c p1
260.98 227.94 0.43 c p1
261.70 224.65 0.43 c p1
262.43 223.18 0.43 c p1
263.16 221.47 0.43 c p1
263.89 223.61 0.43 c p1
264.62 227.32 0.43 c p1
265.35 222.80 0.43 c p1
266.08 226.61 0.43 c p1
266.81 228.32 0.43 c p1
267.54 228.34 0.43 c p1
268.27 220.84 0.43 c p1
269.00 218.99 0.43 c p1
269.72 220.50 0.43 c p1
270.45 223.98 0.43 c p1
271.18 222.79 0.43 c p1
271.91 230.58 0.43 c p1
272.64 227.48 0.43 c p1
273.37 224.37 0.43 c p1
274.10 216.89 0.43 c p1
274.83 217.30 0.43 c p1
275.56 219.45 0.43 c p1
276.29 224.12 0.43 c p1
277.02 225.39 0.43 c p1
277.75 228.20 0.43 c p1
278.47 225.84 0.43 c p1
279.20 220.72 0.43 c p1
279.93 216.38 0.43 c p1
280.66 221.75 0.43 c p1
281.39 221.82 0.43 c p1
282.12 227.13 0.43 c p1
282.85 223.62 0.43 c p1
283.58 222.82 0.43 c p1
284.31 223.53 0.43 c p1
285.04 216.68 0.43 c p1
285.77 219.07 0.43 c p1
286.50 221.63 0.43 c p1
287.22 221.45 0.43 c p1
287.95 224.71 0.43 c p1
288.68 224.48 0.43 c p1
289.41 223.25 0.43 c p1
290.14 218.75 0.43 c p1
290.87 219.20 0.43 c p1
291.60 222.31 0.43 c p1
292.33 223.66 0.43 c p1
293.06 224.22 0.43 c p1
293.79 223.81 0.43 c p1
294.52 223.37 0.43 c p1
295.25 220.24 0.43 c p1
295.97 221.47 0.43 c p1
296.70 221.91 0.43 c p1
297.43 224.80 0.43 c p1
298.16 219.89 0.43 c p1
298.89 223.67 0.43 c p1
299.62 225.54 0.43 c p1
300.35 225.87 0.43 c p1
301.08 220.89 0.43 c p1
301.81 219.48 0.43 c p1
302.54 222.20 0.43 c p1
303.27 221.51 0.43 c p1
304.00 219.86 0.43 c p1
304.73 220.08 0.43 c p1
305.45 222.71 0.43 c p1
306.18 219.52 0.43 c p1
306.91 216.13 0.43 c p1
307.64 217.95 0.43 c p1
308.37 222.19 0.43 c p1
309.10 220.43 0.43 c p1
309.83 220.52 0.43 c p1
310.56 222.09 0.43 c p1
311.29 224.57 0.43 c p1
312.02 225.36 0.43 c p1
312.75 217.75 0.43 c p1
313.47 224.47 0.43 c p1
314.20 227.64 0.43 c p1
314.93 222.59 0.43 c p1
315.66 225.72 0.43 c p1
316.39 221.40 0.43 c p1
317.12 221.35 0.43 c p1
317.85 219.43 0.43 c p1
318.58 221.01 0.43 c p1
319.31 219.99 0.43 c p1
320.04 223.03 0.43 c p1
320.77 227.92 0.43 c p1
321.50 225.93 0.43 c p1
322.22 219.87 0.43 c p1
322.95 226.37 0.43 c p1
323.68 221.02 0.43 c p1
324.41 224.17 0.43 c p1
325.14 224.72 0.43 c p1
325.87 227.67 0.43 c p1
326.60 227.46 0.43 c p1
327.33 225.39 0.43 c p1
328.06 223.50 0.43 c p1
328.79 220.68 0.43 c p1
329.52 223.56 0.43 c p1
330.25 225.70 0.43 c p1
330.97 227.09 0.43 c p1
331.70 225.89 0.43 c p1
332.43 223.03 0.43 c p1
333.16 221.82 0.43 c p1
333.89 217.30 0.43 c p1
334.62 225.99 0.43 c p1
335.35 228.06 0.43 c p1
336.08 227.55 0.43 c p1
336.81 226.29 0.43 c p1
337.54 225.95 0.43 c p1
338.27 223.76 0.43 c p1
339.00 220.84 0.43 c p1
339.72 227.08 0.43 c p1
340.45 225.79 0.43 c p1
341.18 226.88 0.43 c p1
341.91 225.57 0.43 c p1
342.64 229.22 0.43 c p1
343.37 229.55 0.43 c p1
344.10 227.49 0.43 c p1
344.83 226.16 0.43 c p1
345.56 227.21 0.43 c p1
346.29 226.79 0.43 c p1
347.02 227.82 0.43 c p1
347.75 230.69 0.43 c p1
348.48 229.33 0.43 c p1
349.20 227.04 0.43 c p1
349.93 223.30 0.43 c p1
350.66 229.25 0.43 c p1
351.39 225.48 0.43 c p1
352.12 229.04 0.43 c p1
352.85 230.04 0.43 c p1
353.58 228.64 0.43 c p1
354.31 228.89 0.43 c p1
355.04 225.84 0.43 c p1
355.77 225.34 0.43 c p1
356.50 227.95 0.43 c p1
357.22 229.10 0.43 c p1
357.95 230.05 0.43 c p1
358.68 233.57 0.43 c p1
359.41 232.14 0.43 c p1
360.14 232.35 0.43 c p1
360.87 222.69 0.43 c p1
361.60 227.08 0.43 c p1
0.00 0.00 432.00 576.00 cl
0 0 0 srgb
0.75 setlinewidth
[] 0 setdash
1 setlinecap
1 setlinejoin
10.00 setmiterlimit
np
247.12 201.60 m
109.38 0 l
o
np
247.12 201.60 m
0 -5.76 l
o
np
283.58 201.60 m
0 -5.76 l
o
np
320.04 201.60 m
0 -5.76 l
o
np
356.50 201.60 m
0 -5.76 l
o
/Font1 findfont 6 s
247.12 185.47 (50) .5 0 t
283.58 185.47 (100) .5 0 t
320.04 185.47 (150) .5 0 t
356.50 185.47 (200) .5 0 t
np
216.00 211.41 m
0 26.46 l
o
np
216.00 211.41 m
-5.76 0 l
o
np
216.00 224.64 m
-5.76 0 l
o
np
216.00 237.87 m
-5.76 0 l
o
209.09 209.26 (-0.005) 1 0 t
209.09 222.49 (0.000) 1 0 t
209.09 235.71 (0.005) 1 0 t
np
216.00 201.60 m
151.20 0 l
0 46.08 l
-151.20 0 l
0 -46.08 l
o
0.00 0.00 432.00 576.00 cl
/Font1 findfont 9 s
0 0 0 srgb
291.60 262.88 (Residuen) .5 0 t
59.04 73.44 401.76 516.96 cl
ep
%%Trailer
%%Pages: 1
%%EOF
