%!PS-Adobe-3.0 EPSF-3.0
%%DocumentNeededResources: font Helvetica
%%+ font Helvetica-Bold
%%+ font Helvetica-Oblique
%%+ font Helvetica-BoldOblique
%%+ font Symbol
%%Title: R Graphics Output
%%Creator: R Software
%%Pages: (atend)
%%BoundingBox: 0 0 432 576
%%EndComments
%%BeginProlog
/bp  { gs sRGB gs } def
% begin .ps.prolog
/gs  { gsave } bind def
/gr  { grestore } bind def
/ep  { showpage gr gr } bind def
/m   { moveto } bind def
/l  { rlineto } bind def
/np  { newpath } bind def
/cp  { closepath } bind def
/f   { fill } bind def
/o   { stroke } bind def
/c   { newpath 0 360 arc } bind def
/r   { 4 2 roll moveto 1 copy 3 -1 roll exch 0 exch rlineto 0 rlineto -1 mul 0 exch rlineto closepath } bind def
/p1  { stroke } bind def
/p2  { gsave bg fill grestore newpath } bind def
/p3  { gsave bg fill grestore stroke } bind def
/p6  { gsave bg eofill grestore newpath } bind def
/p7  { gsave bg eofill grestore stroke } bind def
/t   { 5 -2 roll moveto gsave rotate
       1 index stringwidth pop
       mul neg 0 rmoveto show grestore } bind def
/ta  { 4 -2 roll moveto gsave rotate show } bind def
/tb  { 2 -1 roll 0 rmoveto show } bind def
/cl  { grestore gsave newpath 3 index 3 index moveto 1 index
       4 -1 roll lineto  exch 1 index lineto lineto
       closepath clip newpath } bind def
/rgb { setrgbcolor } bind def
/s   { scalefont setfont } bind def
% end   .ps.prolog
/sRGB { [ /CIEBasedABC
          << /DecodeLMN
               [ { dup 0.03928 le
                        {12.92321 div}
                        {0.055 add 1.055 div 2.4 exp }
                     ifelse
                 } bind dup dup
               ]
             /MatrixLMN [0.412457 0.212673 0.019334
                         0.357576 0.715152 0.119192
                         0.180437 0.072175 0.950301]
             /WhitePoint [0.9505 1.0 1.0890]
           >>
         ] setcolorspace } bind def
/srgb { setcolor } bind def
%%IncludeResource: font Helvetica
/Helvetica findfont
dup length dict begin
  {1 index /FID ne {def} {pop pop} ifelse} forall
  /Encoding ISOLatin1Encoding def
  currentdict
  end
/Font1 exch definefont pop
%%IncludeResource: font Helvetica-Bold
/Helvetica-Bold findfont
dup length dict begin
  {1 index /FID ne {def} {pop pop} ifelse} forall
  /Encoding ISOLatin1Encoding def
  currentdict
  end
/Font2 exch definefont pop
%%IncludeResource: font Helvetica-Oblique
/Helvetica-Oblique findfont
dup length dict begin
  {1 index /FID ne {def} {pop pop} ifelse} forall
  /Encoding ISOLatin1Encoding def
  currentdict
  end
/Font3 exch definefont pop
%%IncludeResource: font Helvetica-BoldOblique
/Helvetica-BoldOblique findfont
dup length dict begin
  {1 index /FID ne {def} {pop pop} ifelse} forall
  /Encoding ISOLatin1Encoding def
  currentdict
  end
/Font4 exch definefont pop
%%IncludeResource: font Symbol
/Symbol findfont
dup length dict begin
  {1 index /FID ne {def} {pop pop} ifelse} forall
  currentdict
  end
/Font5 exch definefont pop
%%EndProlog
%%Page: 1 1
bp
0.00 0.00 432.00 576.00 cl
0.00 0.00 432.00 576.00 cl
0.00 0.00 432.00 576.00 cl
/Font1 findfont 12 s
0 0 0 srgb
48.00 508.72 (PCP-ETH) 0 0 t
48.00 494.89 (Blitzlicht-Photolyse) 0 0 t
/Font1 findfont 9 s
48.00 457.54 (File: Dy) 0 ta
-0.180 (e_0_1_V1_900V_20.dat) tb gr
48.00 334.87 (T) 0 ta
-1.080 (ue Apr  9 22:01:47 2019) tb gr
48.00 430.87 (Fitfunktion:  a + b * e) 0 ta
-0.270 (xp\(-c * t\)) tb gr
48.00 420.50 (t-Inter) 0 ta
0.270 (v) tb
-0.225 (all: 24.000 ... 429.000 ms) tb gr
48.00 410.14 (P) 0 ta
-0.360 (ar) tb
-0.090 (ameter \(Standardabw) tb
-0.090 (eichung\):) tb gr
48.00 399.77 (  a = 0.01298 \(0.00039\)) 0 0 t
48.00 389.40 (  b = 0.19984 \(0.00037\)) 0 0 t
48.00 379.03 (  c = 6.303e+00 \(4.059e-02\) s^-1) 0 0 t
48.00 368.66 (  tau = 1.586e-01 \(1.022e-03\) s) 0 0 t
216.00 345.60 388.80 518.40 cl
0 0 0 srgb
0.75 setlinewidth
[] 0 setdash
1 setlinecap
1 setlinejoin
10.00 setmiterlimit
np
222.40 510.65 m
0.15 -0.59 l
0.14 0.17 l
0.15 0 l
0.14 -0.17 l
0.15 0 l
0.14 -0.29 l
0.15 1.05 l
0.14 -1.18 l
0.15 0.59 l
0.15 -0.30 l
0.14 0.72 l
0.15 -0.59 l
0.14 -0.13 l
0.15 0.72 l
0.14 -0.29 l
0.15 0.46 l
0.14 0.13 l
0.15 0 l
0.15 -0.30 l
0.14 0.17 l
0.15 0.29 l
0.14 0 l
0.15 -0.16 l
0.14 -0.43 l
0.15 0.73 l
0.15 0.59 l
0.14 -1.78 l
0.15 1.05 l
0.14 -0.46 l
0.15 0.46 l
0.14 -0.46 l
0.15 0 l
0.14 0.17 l
0.15 0 l
0.15 -0.17 l
0.14 0.89 l
0.15 -0.29 l
0.14 0.16 l
0.15 -0.16 l
0.14 0.59 l
0.15 -0.43 l
0.14 0.59 l
0.15 -0.89 l
0.15 0.73 l
0.14 -0.43 l
0.15 0.29 l
0.14 -1.05 l
0.15 0.46 l
0.14 -0.16 l
0.15 0.75 l
0.14 -0.75 l
0.15 -0.30 l
0.15 0.76 l
0.14 -1.35 l
0.15 0.89 l
0.14 0 l
0.15 0.16 l
0.14 0 l
0.15 0.43 l
0.15 -1.02 l
0.14 0.73 l
0.15 -0.73 l
0.14 0.30 l
0.15 -0.59 l
0.14 0.29 l
0.15 0 l
0.14 0.59 l
0.15 -1.05 l
0.15 -0.29 l
0.14 -0.43 l
0.15 0.43 l
0.14 0.16 l
0.15 0 l
0.14 -0.59 l
0.15 1.02 l
0.14 -0.30 l
0.15 0.17 l
0.15 -0.30 l
0.14 0.43 l
0.15 0.29 l
0.14 0.60 l
0.15 -1.02 l
0.14 -0.59 l
0.15 0.72 l
0.14 0.29 l
0.15 0.46 l
0.15 0.14 l
0.14 -1.48 l
0.15 0.59 l
0.14 -0.13 l
0.15 0 l
0.14 0.29 l
0.15 0.30 l
0.15 0 l
0.14 0.88 l
0.15 0 l
0.14 -0.59 l
0.15 -0.16 l
0.14 0.46 l
236.96 471.63 lineto
0.14 -26.24 l
0.15 4.28 l
0.15 -0.42 l
0.14 0 l
0.15 0.59 l
0.14 0.42 l
0.15 0.17 l
0.14 1.31 l
0.15 0.17 l
0.14 -0.17 l
0.15 0.46 l
0.15 0.72 l
0.14 1.32 l
0.15 -0.14 l
0.14 0.14 l
0.15 0.29 l
0.14 -0.29 l
0.15 -0.43 l
0.14 0.89 l
0.15 0.29 l
0.15 0.89 l
0.14 1.31 l
0.15 -1.31 l
0.14 0 l
0.15 1.01 l
0.14 -0.29 l
0.15 -0.30 l
0.15 0.89 l
0.14 -0.13 l
0.15 0 l
0.14 0.59 l
0.15 0.43 l
0.14 0.88 l
0.15 -1.02 l
0.14 1.15 l
0.15 0.59 l
0.15 0.17 l
0.14 0 l
0.15 0.42 l
0.14 0.17 l
0.15 -0.46 l
0.14 -0.13 l
0.15 0.59 l
0.14 0.13 l
0.15 0.46 l
0.15 0.89 l
0.14 0.42 l
0.15 -0.29 l
0.14 -0.59 l
0.15 0.46 l
0.14 0 l
0.15 0.72 l
0.14 0 l
0.15 0.16 l
0.15 1.02 l
0.14 -0.13 l
0.15 0.42 l
0.14 0.30 l
0.15 0.72 l
0.14 -0.56 l
0.15 1.15 l
0.15 0.89 l
0.14 -1.31 l
0.15 0.42 l
0.14 -0.59 l
0.15 0.59 l
0.14 -0.13 l
0.15 -0.16 l
0.14 0.75 l
0.15 1.18 l
0.15 -0.16 l
0.14 -0.59 l
0.15 0.29 l
0.14 -0.13 l
0.15 0.59 l
0.14 0.30 l
0.15 1.02 l
0.14 -0.30 l
0.15 0.89 l
0.15 -0.72 l
0.14 0 l
0.15 1.31 l
0.14 -0.13 l
0.15 0.29 l
0.14 0.89 l
0.15 0 l
0.14 -0.59 l
0.15 0 l
0.15 0.59 l
0.14 -0.59 l
0.15 0 l
0.14 1.02 l
0.15 -0.30 l
0.14 0.72 l
0.15 1.18 l
0.15 0 l
0.14 -0.29 l
0.15 -0.13 l
0.14 0.29 l
251.52 472.94 lineto
0.14 -0.13 l
0.15 0 l
0.14 0 l
0.15 0 l
0.15 0 l
0.14 0.13 l
0.15 1.05 l
0.14 0 l
0.15 0 l
0.14 0.59 l
0.15 -0.16 l
0.14 0.59 l
0.15 -0.13 l
0.15 -0.59 l
0.14 0.89 l
0.15 -0.30 l
0.14 0.43 l
0.15 1.77 l
0.14 -0.59 l
0.15 0.29 l
0.14 0.30 l
0.15 -0.43 l
0.15 -0.59 l
0.14 0.89 l
0.15 0.42 l
0.14 -0.42 l
0.15 0 l
0.14 -0.30 l
0.15 0.59 l
0.14 1.15 l
0.15 0 l
0.15 0.30 l
0.14 0 l
0.15 0.29 l
0.14 -0.59 l
0.15 0.59 l
0.14 -0.13 l
0.15 -0.29 l
0.15 1.31 l
0.14 -1.18 l
0.15 0.59 l
0.14 0.46 l
0.15 0.72 l
0.14 0.16 l
0.15 0 l
0.14 -0.46 l
0.15 0.17 l
0.15 0.29 l
0.14 0.13 l
0.15 0.30 l
0.14 -0.59 l
0.15 -0.59 l
0.14 0.46 l
0.15 1.02 l
0.14 1.05 l
0.15 -0.17 l
0.15 -0.29 l
0.14 0.29 l
0.15 0.46 l
0.14 -0.46 l
0.15 0.59 l
0.14 -0.13 l
0.15 -0.59 l
0.14 0.43 l
0.15 0.46 l
0.15 -0.17 l
0.14 0.76 l
0.15 0.56 l
0.14 -0.14 l
0.15 -0.42 l
0.14 0.42 l
0.15 -0.13 l
0.15 0.13 l
0.14 -0.13 l
0.15 0 l
0.14 0.56 l
0.15 0.16 l
0.14 0.14 l
0.15 -0.14 l
0.14 1.02 l
0.15 0.46 l
0.15 -0.16 l
0.14 -0.89 l
0.15 0.89 l
0.14 -0.89 l
0.15 0.76 l
0.14 0.42 l
0.15 -0.13 l
0.14 -0.16 l
0.15 -0.59 l
0.15 0.88 l
0.14 0.89 l
0.15 -0.13 l
0.14 0.13 l
0.15 -0.43 l
0.14 0.13 l
0.15 -0.13 l
0.14 0 l
0.15 0.89 l
266.08 487.55 lineto
0.14 -0.17 l
0.15 0.46 l
0.14 -0.46 l
0.15 0.17 l
0.14 0.88 l
0.15 0.14 l
0.15 -0.30 l
0.14 -0.43 l
0.15 0.30 l
0.14 -0.16 l
0.15 0.45 l
0.14 -0.45 l
0.15 -0.30 l
0.14 1.48 l
0.15 -1.02 l
0.15 1.18 l
0.14 0 l
0.15 1.02 l
0.14 -0.59 l
0.15 0 l
0.14 -0.43 l
0.15 1.15 l
0.14 -0.85 l
0.15 0.42 l
0.15 -0.13 l
0.14 -0.59 l
0.15 1.31 l
0.14 -0.16 l
0.15 0.46 l
0.14 -0.30 l
0.15 -0.42 l
0.14 1.31 l
0.15 -0.59 l
0.15 -0.16 l
0.14 -0.43 l
0.15 0.59 l
0.14 0 l
0.15 0 l
0.14 0 l
0.15 0.89 l
0.15 0.13 l
0.14 0.16 l
0.15 -0.46 l
0.14 0.30 l
0.15 -0.13 l
0.14 -0.60 l
0.15 0.14 l
0.14 -0.30 l
0.15 0.16 l
0.15 0.89 l
0.14 0.13 l
0.15 0.46 l
0.14 0.30 l
0.15 0.29 l
0.14 -0.29 l
0.15 -0.30 l
0.14 0.13 l
0.15 0.17 l
0.15 -0.17 l
0.14 0.30 l
0.15 -0.43 l
0.14 -0.16 l
0.15 0.75 l
0.14 -0.46 l
0.15 0.89 l
0.14 1.05 l
0.15 -1.05 l
0.15 -0.30 l
0.14 0.59 l
0.15 -0.88 l
0.14 0.46 l
0.15 0.29 l
0.14 -0.75 l
0.15 -0.13 l
0.15 0.88 l
0.14 0 l
0.15 0.73 l
0.14 0.59 l
0.15 -0.59 l
0.14 0.59 l
0.15 0 l
0.14 -0.89 l
0.15 0.46 l
0.15 0.72 l
0.14 -0.72 l
0.15 0 l
0.14 0.59 l
0.15 0.13 l
0.14 -0.29 l
0.15 0.29 l
0.14 -0.59 l
0.15 0 l
0.15 0.59 l
0.14 -0.59 l
0.15 0.30 l
0.14 0.88 l
0.15 -1.18 l
0.14 0.30 l
0.15 0.88 l
280.63 496.08 lineto
0.15 -0.13 l
0.15 0.85 l
0.14 0.17 l
0.15 -0.89 l
0.14 -0.13 l
0.15 -0.29 l
0.14 0.59 l
0.15 -0.30 l
0.15 0 l
0.14 0 l
0.15 0.30 l
0.14 0.72 l
0.15 0.42 l
0.14 -1.01 l
0.15 0.16 l
0.14 0.56 l
0.15 -0.13 l
0.15 -0.43 l
0.14 0.43 l
0.15 0.59 l
0.14 0.13 l
0.15 -0.59 l
0.14 0 l
0.15 0.46 l
0.14 0 l
0.15 -0.30 l
0.15 0.73 l
0.14 0.29 l
0.15 -0.72 l
0.14 0 l
0.15 -0.76 l
0.14 -0.13 l
0.15 0.30 l
0.14 0.42 l
0.15 0.17 l
0.15 0.13 l
0.14 0.46 l
0.15 0.30 l
0.14 0 l
0.15 0 l
0.14 -0.76 l
0.15 -0.13 l
0.14 0.29 l
0.15 0 l
0.15 0.60 l
0.14 -1.19 l
0.15 0.43 l
0.14 1.05 l
0.15 -0.16 l
0.14 -0.59 l
0.15 0.88 l
0.15 -0.29 l
0.14 0.16 l
0.15 -0.29 l
0.14 -0.17 l
0.15 0.17 l
0.14 0.42 l
0.15 0.30 l
0.14 0.46 l
0.15 -0.17 l
0.15 0.89 l
0.14 -1.02 l
0.15 -0.59 l
0.14 0.13 l
0.15 0 l
0.14 -0.72 l
0.15 1.18 l
0.14 -0.46 l
0.15 0.59 l
0.15 0 l
0.14 -0.29 l
0.15 0.75 l
0.14 -0.88 l
0.15 0.72 l
0.14 -0.30 l
0.15 -0.59 l
0.14 1.18 l
0.15 -0.59 l
0.15 0.30 l
0.14 -0.13 l
0.15 -0.46 l
0.14 0.46 l
0.15 0.29 l
0.14 0.30 l
0.15 -0.17 l
0.15 -0.13 l
0.14 0.59 l
0.15 -1.05 l
0.14 0 l
0.15 0 l
0.14 -0.13 l
0.15 0.43 l
0.14 -0.13 l
0.15 1.18 l
0.15 0 l
0.14 0 l
0.15 0.42 l
0.14 -0.29 l
0.15 0.16 l
295.19 500.05 lineto
0.15 0.59 l
0.14 -0.13 l
0.15 0 l
0.15 -0.16 l
0.14 0.16 l
0.15 0.13 l
0.14 -0.13 l
0.15 0.13 l
0.14 0.76 l
0.15 -0.30 l
0.14 -0.88 l
0.15 0.59 l
0.15 0.13 l
0.14 -0.30 l
0.15 0.17 l
0.14 -0.30 l
0.15 1.02 l
0.14 -0.59 l
0.15 0.59 l
0.15 -0.72 l
0.14 1.18 l
0.15 -1.05 l
0.14 1.35 l
0.15 -1.06 l
0.14 -0.29 l
0.15 -0.30 l
0.14 0 l
0.15 0 l
0.15 0.30 l
0.14 -0.13 l
0.15 0.29 l
0.14 0.43 l
0.15 0.30 l
0.14 -0.30 l
0.15 0.30 l
0.14 0.29 l
0.15 -0.72 l
0.15 0.13 l
0.14 -0.30 l
0.15 0.17 l
0.14 -0.46 l
0.15 0.75 l
0.14 1.45 l
0.15 -1.02 l
0.14 0.17 l
0.15 -0.30 l
0.15 -0.30 l
0.14 0.43 l
0.15 -0.89 l
0.14 -0.13 l
0.15 0.43 l
0.14 -0.59 l
0.15 1.35 l
0.15 -0.76 l
0.14 0.59 l
0.15 0 l
0.14 -0.13 l
0.15 0.59 l
0.14 -0.29 l
0.15 0 l
0.14 -0.60 l
0.15 0.60 l
0.15 -1.35 l
0.14 0.59 l
0.15 0.76 l
0.14 -0.60 l
0.15 0.60 l
0.14 -0.46 l
0.15 1.01 l
0.14 -0.26 l
0.15 -0.46 l
0.15 0.17 l
0.14 0.42 l
0.15 -0.29 l
0.14 -0.30 l
0.15 0.17 l
0.14 -0.30 l
0.15 -0.30 l
0.14 2.20 l
0.15 -0.88 l
0.15 0 l
0.14 -0.17 l
0.15 0 l
0.14 -0.85 l
0.15 0.43 l
0.14 0.72 l
0.15 -0.85 l
0.15 0 l
0.14 -0.17 l
0.15 1.02 l
0.14 0.29 l
0.15 -0.59 l
0.14 0.46 l
0.15 0 l
0.14 0 l
0.15 -0.46 l
0.15 0.30 l
0.14 -0.56 l
0.15 0.72 l
309.75 502.71 lineto
0.15 0.59 l
0.14 0.13 l
0.15 0 l
0.14 0.30 l
0.15 0 l
0.15 -0.72 l
0.14 -0.72 l
0.15 0 l
0.14 0.42 l
0.15 0.43 l
0.14 -0.43 l
0.15 0.13 l
0.14 -0.85 l
0.15 0.85 l
0.15 0 l
0.14 0.17 l
0.15 0.72 l
0.14 -0.89 l
0.15 0.89 l
0.14 -0.43 l
0.15 0.13 l
0.15 -0.59 l
0.14 0.17 l
0.15 -0.43 l
0.14 -0.59 l
0.15 0.72 l
0.14 0 l
0.15 0.72 l
0.14 0.76 l
0.15 -0.46 l
0.15 -0.43 l
0.14 -1.01 l
0.15 0.72 l
0.14 0.72 l
0.15 -0.13 l
0.14 -0.76 l
0.15 -0.13 l
0.14 0.72 l
0.15 0.46 l
0.15 -0.16 l
0.14 0.16 l
0.15 0.13 l
0.14 0 l
0.15 -1.18 l
0.14 0.76 l
0.15 0.59 l
0.14 -1.18 l
0.15 0.13 l
0.15 0.59 l
0.14 -0.13 l
0.15 -0.76 l
0.14 0.59 l
0.15 0.46 l
0.14 0.30 l
0.15 -0.30 l
0.15 0 l
0.14 0.89 l
0.15 -0.59 l
0.14 -0.30 l
0.15 -0.59 l
0.14 -0.59 l
0.15 0.89 l
0.14 0.72 l
0.15 0 l
0.15 0.16 l
0.14 0 l
0.15 -0.59 l
0.14 -0.46 l
0.15 0.46 l
0.14 0.43 l
0.15 -0.30 l
0.14 0.46 l
0.15 -1.47 l
0.15 0 l
0.14 0.29 l
0.15 0.13 l
0.14 0.89 l
0.15 -0.13 l
0.14 0.59 l
0.15 -0.16 l
0.14 -0.89 l
0.15 0 l
0.15 0.46 l
0.14 -0.17 l
0.15 -0.29 l
0.14 0.29 l
0.15 -0.29 l
0.14 0.29 l
0.15 0.46 l
0.14 0.30 l
0.15 -0.76 l
0.15 -0.13 l
0.14 0 l
0.15 0.30 l
0.14 0 l
0.15 -0.17 l
0.14 0 l
0.15 0.17 l
0.15 -0.17 l
324.31 503.30 lineto
0.15 1.02 l
0.14 0 l
0.15 1.18 l
0.14 -0.72 l
0.15 -0.89 l
0.14 0 l
0.15 -0.75 l
0.15 0.46 l
0.14 0.29 l
0.15 0 l
0.14 0 l
0.15 0.59 l
0.14 -0.46 l
0.15 0.30 l
0.14 0.59 l
0.15 -0.43 l
0.15 -0.16 l
0.14 -0.13 l
0.15 0.88 l
0.14 0.14 l
0.15 -0.43 l
0.14 -0.30 l
0.15 -0.29 l
0.14 0.59 l
0.15 -1.18 l
0.15 1.77 l
0.14 -0.46 l
0.15 -0.13 l
0.14 0.72 l
0.15 -0.59 l
0.14 -0.13 l
0.15 -0.46 l
0.15 -0.13 l
0.14 -0.76 l
0.15 1.35 l
0.14 0.29 l
0.15 0 l
0.14 0.89 l
0.15 0.13 l
0.14 -0.88 l
0.15 -0.30 l
0.15 0 l
0.14 -0.43 l
0.15 -0.46 l
0.14 0.17 l
0.15 0.43 l
0.14 -0.43 l
0.15 0.43 l
0.14 0 l
0.15 -0.14 l
0.15 0.73 l
0.14 -0.14 l
0.15 0.14 l
0.14 -0.14 l
0.15 -0.29 l
0.14 0 l
0.15 -0.16 l
0.14 0 l
0.15 0.16 l
0.15 -0.16 l
0.14 0 l
0.15 0.59 l
0.14 -0.14 l
0.15 1.02 l
0.14 -0.42 l
0.15 -0.60 l
0.15 -0.59 l
0.14 0.43 l
0.15 -0.43 l
0.14 -0.16 l
0.15 -0.13 l
0.14 0.72 l
0.15 0.30 l
0.14 -0.59 l
0.15 0.45 l
0.15 -0.16 l
0.14 0.16 l
0.15 0.30 l
0.14 -0.46 l
0.15 0.16 l
0.14 0.14 l
0.15 -0.14 l
0.14 -0.59 l
0.15 0 l
0.15 1.61 l
0.14 -1.18 l
0.15 0.30 l
0.14 0.16 l
0.15 -0.30 l
0.14 0.73 l
0.15 -0.89 l
0.14 -0.59 l
0.15 0.89 l
0.15 -0.73 l
0.14 0 l
0.15 0.89 l
0.14 -0.75 l
0.15 1.64 l
0.14 0.13 l
338.87 505.80 lineto
0.15 -0.30 l
0.14 -0.43 l
0.15 0 l
0.14 0.43 l
0.15 0.17 l
0.14 0 l
0.15 -0.46 l
0.14 -0.30 l
0.15 -0.13 l
0.15 0.89 l
0.14 0.29 l
0.15 0 l
0.14 0.13 l
0.15 -0.42 l
0.14 -0.17 l
0.15 -0.72 l
0.14 0.72 l
0.15 0.17 l
0.15 0.13 l
0.14 -0.30 l
0.15 -0.72 l
0.14 1.02 l
0.15 -0.30 l
0.14 0.30 l
0.15 -0.59 l
0.14 0.46 l
0.15 -1.19 l
0.15 0.73 l
0.14 -0.30 l
0.15 0 l
0.14 0.46 l
0.15 -0.30 l
0.14 -1.05 l
0.15 0.89 l
0.15 -0.29 l
0.14 1.18 l
0.15 0.29 l
0.14 -0.29 l
0.15 -0.73 l
0.14 0.43 l
0.15 -0.43 l
0.14 0.60 l
0.15 -0.30 l
0.15 -0.89 l
0.14 0.14 l
0.15 0.75 l
0.14 -0.46 l
0.15 0.89 l
0.14 0.16 l
0.15 -0.29 l
0.14 -0.46 l
0.15 0 l
0.15 0.16 l
0.14 -0.30 l
0.15 0.73 l
0.14 0 l
0.15 0 l
0.14 0 l
0.15 0.16 l
0.14 0.30 l
0.15 0 l
0.15 -0.59 l
0.14 0 l
0.15 0.88 l
0.14 -0.29 l
0.15 -0.76 l
0.14 -0.43 l
0.15 0.14 l
0.15 -0.43 l
0.14 0.29 l
0.15 0.43 l
0.14 0.30 l
0.15 0.29 l
0.14 0 l
0.15 0.30 l
0.14 -1.18 l
0.15 0.59 l
0.15 0.29 l
0.14 -0.29 l
0.15 -0.30 l
0.14 0 l
0.15 -0.13 l
0.14 0.59 l
0.15 -0.16 l
0.14 -0.30 l
0.15 0.17 l
0.15 0 l
0.14 -0.30 l
0.15 -0.30 l
0.14 0.43 l
0.15 -0.29 l
0.14 -0.43 l
0.15 0.43 l
0.14 0.29 l
0.15 0.17 l
0.15 0.59 l
0.14 -0.17 l
0.15 -0.13 l
0.14 -0.46 l
353.43 505.96 lineto
0.14 -0.29 l
0.15 -0.30 l
0.14 0.30 l
0.15 0 l
0.15 -0.17 l
0.14 -0.43 l
0.15 0.60 l
0.14 0.42 l
0.15 -0.59 l
0.14 0.17 l
0.15 -0.30 l
0.15 0.72 l
0.14 0.17 l
0.15 -0.46 l
0.14 -0.89 l
0.15 0.46 l
0.14 -0.59 l
0.15 0.89 l
0.14 0.42 l
0.15 0.17 l
0.15 -0.17 l
0.14 0.76 l
0.15 -1.18 l
0.14 0.42 l
0.15 0 l
0.14 0 l
0.15 -0.13 l
0.14 0.30 l
0.15 -0.89 l
0.15 0 l
0.14 0.13 l
0.15 0 l
0.14 0.59 l
0.15 -0.13 l
0.14 -0.16 l
0.15 0 l
0.14 0.59 l
0.15 -0.72 l
0.15 0.29 l
0.14 -0.46 l
0.15 -0.13 l
0.14 0.72 l
0.15 -0.13 l
0.14 0.59 l
0.15 -0.29 l
0.15 -0.59 l
0.14 0.42 l
0.15 -0.59 l
0.14 0.30 l
0.15 0.46 l
0.14 -1.48 l
0.15 0.72 l
0.14 0.30 l
0.15 0.16 l
0.15 0.43 l
0.14 -0.43 l
0.15 0.43 l
0.14 -0.30 l
0.15 0.30 l
0.14 0.46 l
0.15 -0.89 l
0.14 0 l
0.15 -0.46 l
0.15 0.30 l
0.14 -0.13 l
0.15 0 l
0.14 0.29 l
0.15 0 l
0.14 -0.29 l
0.15 0.42 l
0.14 -0.29 l
0.15 -0.13 l
0.15 -0.30 l
0.14 0.30 l
0.15 0.42 l
0.14 -0.29 l
0.15 -0.73 l
0.14 0.89 l
0.15 -0.16 l
0.15 0.29 l
0.14 0.17 l
0.15 0 l
0.14 0 l
0.15 0 l
0.14 0 l
0.15 -0.46 l
0.14 -0.89 l
0.15 0.46 l
0.15 0.13 l
0.14 0.59 l
0.15 0.30 l
0.14 0.16 l
0.15 0.30 l
0.14 -0.46 l
0.15 0 l
0.14 0.16 l
0.15 0 l
0.15 -0.88 l
0.14 0.13 l
currentpoint o m
367.99 505.50 lineto
0.14 0.46 l
0.15 0.13 l
0.14 0.17 l
0.15 1.01 l
0.14 -1.31 l
0.15 0.72 l
0.15 -1.01 l
0.14 0.88 l
0.15 -0.16 l
0.14 -0.72 l
0.15 0.13 l
0.14 0.29 l
0.15 -0.13 l
0.15 0.13 l
0.14 0.89 l
0.15 0.16 l
0.14 -0.29 l
0.15 0.13 l
0.14 -0.89 l
0.15 0.30 l
0.14 -0.30 l
0.15 -0.29 l
0.15 0.59 l
0.14 -0.43 l
0.15 -0.75 l
0.14 1.05 l
0.15 0.72 l
0.14 -0.89 l
0.15 0.46 l
0.14 0.30 l
0.15 -0.46 l
0.15 -0.43 l
0.14 -0.16 l
0.15 0.75 l
0.14 -0.88 l
0.15 0.88 l
0.14 -0.75 l
0.15 0.59 l
0.14 0.46 l
0.15 -0.30 l
0.15 -0.59 l
0.14 1.02 l
0.15 -0.59 l
0.14 -0.43 l
0.15 -0.29 l
0.14 0.42 l
0.15 -0.29 l
0.15 -0.30 l
0.14 -0.13 l
0.15 0.43 l
0.14 0.16 l
0.15 0.43 l
0.14 -0.13 l
0.15 -0.30 l
0.14 0.72 l
0.15 0 l
0.15 -0.13 l
0.14 -0.88 l
0.15 0 l
0.14 -0.17 l
0.15 0.76 l
0.14 0.13 l
0.15 -0.30 l
0.14 0.46 l
0.15 0.30 l
0.15 -1.05 l
0.14 0.59 l
0.15 0.59 l
0.14 -0.59 l
0.15 -0.43 l
0.14 0 l
0.15 0.43 l
0.14 -0.43 l
0.15 0.59 l
0.15 0.43 l
0.14 0 l
0.15 -0.13 l
0.14 0.29 l
0.15 -0.29 l
0.14 -0.76 l
0.15 -0.29 l
0.15 0.29 l
0.14 0.30 l
0.15 0.16 l
0.14 -0.46 l
0.15 0 l
0.14 0.46 l
0.15 0.43 l
0.14 0.46 l
0.15 -1.05 l
0.15 -0.43 l
0.14 0.72 l
0.15 -0.13 l
0.14 -0.75 l
0.15 0 l
0.14 0.29 l
0.15 0.46 l
0.14 0.30 l
0.15 -0.17 l
o
/bg { 1 1 1 srgb } def
222.40 510.65 0.43 c p3
222.55 510.06 0.43 c p3
222.69 510.23 0.43 c p3
222.84 510.23 0.43 c p3
222.98 510.06 0.43 c p3
223.13 510.06 0.43 c p3
223.27 509.77 0.43 c p3
223.42 510.82 0.43 c p3
223.56 509.64 0.43 c p3
223.71 510.23 0.43 c p3
223.86 509.93 0.43 c p3
224.00 510.65 0.43 c p3
224.15 510.06 0.43 c p3
224.29 509.93 0.43 c p3
224.44 510.65 0.43 c p3
224.58 510.36 0.43 c p3
224.73 510.82 0.43 c p3
224.87 510.95 0.43 c p3
225.02 510.95 0.43 c p3
225.17 510.65 0.43 c p3
225.31 510.82 0.43 c p3
225.46 511.11 0.43 c p3
225.60 511.11 0.43 c p3
225.75 510.95 0.43 c p3
225.89 510.52 0.43 c p3
226.04 511.25 0.43 c p3
226.19 511.84 0.43 c p3
226.33 510.06 0.43 c p3
226.48 511.11 0.43 c p3
226.62 510.65 0.43 c p3
226.77 511.11 0.43 c p3
226.91 510.65 0.43 c p3
227.06 510.65 0.43 c p3
227.20 510.82 0.43 c p3
227.35 510.82 0.43 c p3
227.50 510.65 0.43 c p3
227.64 511.54 0.43 c p3
227.79 511.25 0.43 c p3
227.93 511.41 0.43 c p3
228.08 511.25 0.43 c p3
228.22 511.84 0.43 c p3
228.37 511.41 0.43 c p3
228.51 512.00 0.43 c p3
228.66 511.11 0.43 c p3
228.81 511.84 0.43 c p3
228.95 511.41 0.43 c p3
229.10 511.70 0.43 c p3
229.24 510.65 0.43 c p3
229.39 511.11 0.43 c p3
229.53 510.95 0.43 c p3
229.68 511.70 0.43 c p3
229.82 510.95 0.43 c p3
229.97 510.65 0.43 c p3
230.12 511.41 0.43 c p3
230.26 510.06 0.43 c p3
230.41 510.95 0.43 c p3
230.55 510.95 0.43 c p3
230.70 511.11 0.43 c p3
230.84 511.11 0.43 c p3
230.99 511.54 0.43 c p3
231.14 510.52 0.43 c p3
231.28 511.25 0.43 c p3
231.43 510.52 0.43 c p3
231.57 510.82 0.43 c p3
231.72 510.23 0.43 c p3
231.86 510.52 0.43 c p3
232.01 510.52 0.43 c p3
232.15 511.11 0.43 c p3
232.30 510.06 0.43 c p3
232.45 509.77 0.43 c p3
232.59 509.34 0.43 c p3
232.74 509.77 0.43 c p3
232.88 509.93 0.43 c p3
233.03 509.93 0.43 c p3
233.17 509.34 0.43 c p3
233.32 510.36 0.43 c p3
233.46 510.06 0.43 c p3
233.61 510.23 0.43 c p3
233.76 509.93 0.43 c p3
233.90 510.36 0.43 c p3
234.05 510.65 0.43 c p3
234.19 511.25 0.43 c p3
234.34 510.23 0.43 c p3
234.48 509.64 0.43 c p3
234.63 510.36 0.43 c p3
234.77 510.65 0.43 c p3
234.92 511.11 0.43 c p3
235.07 511.25 0.43 c p3
235.21 509.77 0.43 c p3
235.36 510.36 0.43 c p3
235.50 510.23 0.43 c p3
235.65 510.23 0.43 c p3
235.79 510.52 0.43 c p3
235.94 510.82 0.43 c p3
236.09 510.82 0.43 c p3
236.23 511.70 0.43 c p3
236.38 511.70 0.43 c p3
236.52 511.11 0.43 c p3
236.67 510.95 0.43 c p3
236.81 511.41 0.43 c p3
236.96 471.63 0.43 c p3
237.10 445.39 0.43 c p3
237.25 449.67 0.43 c p3
237.40 449.25 0.43 c p3
237.54 449.25 0.43 c p3
237.69 449.84 0.43 c p3
237.83 450.26 0.43 c p3
237.98 450.43 0.43 c p3
238.12 451.74 0.43 c p3
238.27 451.91 0.43 c p3
238.41 451.74 0.43 c p3
238.56 452.20 0.43 c p3
238.71 452.92 0.43 c p3
238.85 454.24 0.43 c p3
239.00 454.10 0.43 c p3
239.14 454.24 0.43 c p3
239.29 454.53 0.43 c p3
239.43 454.24 0.43 c p3
239.58 453.81 0.43 c p3
239.72 454.70 0.43 c p3
239.87 454.99 0.43 c p3
240.02 455.88 0.43 c p3
240.16 457.19 0.43 c p3
240.31 455.88 0.43 c p3
240.45 455.88 0.43 c p3
240.60 456.89 0.43 c p3
240.74 456.60 0.43 c p3
240.89 456.30 0.43 c p3
241.04 457.19 0.43 c p3
241.18 457.06 0.43 c p3
241.33 457.06 0.43 c p3
241.47 457.65 0.43 c p3
241.62 458.08 0.43 c p3
241.76 458.96 0.43 c p3
241.91 457.94 0.43 c p3
242.05 459.09 0.43 c p3
242.20 459.68 0.43 c p3
242.35 459.85 0.43 c p3
242.49 459.85 0.43 c p3
242.64 460.27 0.43 c p3
242.78 460.44 0.43 c p3
242.93 459.98 0.43 c p3
243.07 459.85 0.43 c p3
243.22 460.44 0.43 c p3
243.36 460.57 0.43 c p3
243.51 461.03 0.43 c p3
243.66 461.92 0.43 c p3
243.80 462.34 0.43 c p3
243.95 462.05 0.43 c p3
244.09 461.46 0.43 c p3
244.24 461.92 0.43 c p3
244.38 461.92 0.43 c p3
244.53 462.64 0.43 c p3
244.67 462.64 0.43 c p3
244.82 462.80 0.43 c p3
244.97 463.82 0.43 c p3
245.11 463.69 0.43 c p3
245.26 464.11 0.43 c p3
245.40 464.41 0.43 c p3
245.55 465.13 0.43 c p3
245.69 464.57 0.43 c p3
245.84 465.72 0.43 c p3
245.99 466.61 0.43 c p3
246.13 465.30 0.43 c p3
246.28 465.72 0.43 c p3
246.42 465.13 0.43 c p3
246.57 465.72 0.43 c p3
246.71 465.59 0.43 c p3
246.86 465.43 0.43 c p3
247.00 466.18 0.43 c p3
247.15 467.36 0.43 c p3
247.30 467.20 0.43 c p3
247.44 466.61 0.43 c p3
247.59 466.90 0.43 c p3
247.73 466.77 0.43 c p3
247.88 467.36 0.43 c p3
248.02 467.66 0.43 c p3
248.17 468.68 0.43 c p3
248.31 468.38 0.43 c p3
248.46 469.27 0.43 c p3
248.61 468.55 0.43 c p3
248.75 468.55 0.43 c p3
248.90 469.86 0.43 c p3
249.04 469.73 0.43 c p3
249.19 470.02 0.43 c p3
249.33 470.91 0.43 c p3
249.48 470.91 0.43 c p3
249.62 470.32 0.43 c p3
249.77 470.32 0.43 c p3
249.92 470.91 0.43 c p3
250.06 470.32 0.43 c p3
250.21 470.32 0.43 c p3
250.35 471.34 0.43 c p3
250.50 471.04 0.43 c p3
250.64 471.76 0.43 c p3
250.79 472.94 0.43 c p3
250.94 472.94 0.43 c p3
251.08 472.65 0.43 c p3
251.23 472.52 0.43 c p3
251.37 472.81 0.43 c p3
251.52 472.94 0.43 c p3
251.66 472.81 0.43 c p3
251.81 472.81 0.43 c p3
251.95 472.81 0.43 c p3
252.10 472.81 0.43 c p3
252.25 472.81 0.43 c p3
252.39 472.94 0.43 c p3
252.54 473.99 0.43 c p3
252.68 473.99 0.43 c p3
252.83 473.99 0.43 c p3
252.97 474.58 0.43 c p3
253.12 474.42 0.43 c p3
253.26 475.01 0.43 c p3
253.41 474.88 0.43 c p3
253.56 474.29 0.43 c p3
253.70 475.18 0.43 c p3
253.85 474.88 0.43 c p3
253.99 475.31 0.43 c p3
254.14 477.08 0.43 c p3
254.28 476.49 0.43 c p3
254.43 476.78 0.43 c p3
254.57 477.08 0.43 c p3
254.72 476.65 0.43 c p3
254.87 476.06 0.43 c p3
255.01 476.95 0.43 c p3
255.16 477.37 0.43 c p3
255.30 476.95 0.43 c p3
255.45 476.95 0.43 c p3
255.59 476.65 0.43 c p3
255.74 477.24 0.43 c p3
255.88 478.39 0.43 c p3
256.03 478.39 0.43 c p3
256.18 478.69 0.43 c p3
256.32 478.69 0.43 c p3
256.47 478.98 0.43 c p3
256.61 478.39 0.43 c p3
256.76 478.98 0.43 c p3
256.90 478.85 0.43 c p3
257.05 478.56 0.43 c p3
257.20 479.87 0.43 c p3
257.34 478.69 0.43 c p3
257.49 479.28 0.43 c p3
257.63 479.74 0.43 c p3
257.78 480.46 0.43 c p3
257.92 480.62 0.43 c p3
258.07 480.62 0.43 c p3
258.21 480.16 0.43 c p3
258.36 480.33 0.43 c p3
258.51 480.62 0.43 c p3
258.65 480.75 0.43 c p3
258.80 481.05 0.43 c p3
258.94 480.46 0.43 c p3
259.09 479.87 0.43 c p3
259.23 480.33 0.43 c p3
259.38 481.35 0.43 c p3
259.52 482.40 0.43 c p3
259.67 482.23 0.43 c p3
259.82 481.94 0.43 c p3
259.96 482.23 0.43 c p3
260.11 482.69 0.43 c p3
260.25 482.23 0.43 c p3
260.40 482.82 0.43 c p3
260.54 482.69 0.43 c p3
260.69 482.10 0.43 c p3
260.83 482.53 0.43 c p3
260.98 482.99 0.43 c p3
261.13 482.82 0.43 c p3
261.27 483.58 0.43 c p3
261.42 484.14 0.43 c p3
261.56 484.00 0.43 c p3
261.71 483.58 0.43 c p3
261.85 484.00 0.43 c p3
262.00 483.87 0.43 c p3
262.15 484.00 0.43 c p3
262.29 483.87 0.43 c p3
262.44 483.87 0.43 c p3
262.58 484.43 0.43 c p3
262.73 484.59 0.43 c p3
262.87 484.73 0.43 c p3
263.02 484.59 0.43 c p3
263.16 485.61 0.43 c p3
263.31 486.07 0.43 c p3
263.46 485.91 0.43 c p3
263.60 485.02 0.43 c p3
263.75 485.91 0.43 c p3
263.89 485.02 0.43 c p3
264.04 485.78 0.43 c p3
264.18 486.20 0.43 c p3
264.33 486.07 0.43 c p3
264.47 485.91 0.43 c p3
264.62 485.32 0.43 c p3
264.77 486.20 0.43 c p3
264.91 487.09 0.43 c p3
265.06 486.96 0.43 c p3
265.20 487.09 0.43 c p3
265.35 486.66 0.43 c p3
265.49 486.79 0.43 c p3
265.64 486.66 0.43 c p3
265.78 486.66 0.43 c p3
265.93 487.55 0.43 c p3
266.08 487.55 0.43 c p3
266.22 487.38 0.43 c p3
266.37 487.84 0.43 c p3
266.51 487.38 0.43 c p3
266.66 487.55 0.43 c p3
266.80 488.43 0.43 c p3
266.95 488.57 0.43 c p3
267.10 488.27 0.43 c p3
267.24 487.84 0.43 c p3
267.39 488.14 0.43 c p3
267.53 487.98 0.43 c p3
267.68 488.43 0.43 c p3
267.82 487.98 0.43 c p3
267.97 487.68 0.43 c p3
268.11 489.16 0.43 c p3
268.26 488.14 0.43 c p3
268.41 489.32 0.43 c p3
268.55 489.32 0.43 c p3
268.70 490.34 0.43 c p3
268.84 489.75 0.43 c p3
268.99 489.75 0.43 c p3
269.13 489.32 0.43 c p3
269.28 490.47 0.43 c p3
269.42 489.62 0.43 c p3
269.57 490.04 0.43 c p3
269.72 489.91 0.43 c p3
269.86 489.32 0.43 c p3
270.01 490.63 0.43 c p3
270.15 490.47 0.43 c p3
270.30 490.93 0.43 c p3
270.44 490.63 0.43 c p3
270.59 490.21 0.43 c p3
270.73 491.52 0.43 c p3
270.88 490.93 0.43 c p3
271.03 490.77 0.43 c p3
271.17 490.34 0.43 c p3
271.32 490.93 0.43 c p3
271.46 490.93 0.43 c p3
271.61 490.93 0.43 c p3
271.75 490.93 0.43 c p3
271.90 491.82 0.43 c p3
272.05 491.95 0.43 c p3
272.19 492.11 0.43 c p3
272.34 491.65 0.43 c p3
272.48 491.95 0.43 c p3
272.63 491.82 0.43 c p3
272.77 491.22 0.43 c p3
272.92 491.36 0.43 c p3
273.06 491.06 0.43 c p3
273.21 491.22 0.43 c p3
273.36 492.11 0.43 c p3
273.50 492.24 0.43 c p3
273.65 492.70 0.43 c p3
273.79 493.00 0.43 c p3
273.94 493.29 0.43 c p3
274.08 493.00 0.43 c p3
274.23 492.70 0.43 c p3
274.37 492.83 0.43 c p3
274.52 493.00 0.43 c p3
274.67 492.83 0.43 c p3
274.81 493.13 0.43 c p3
274.96 492.70 0.43 c p3
275.10 492.54 0.43 c p3
275.25 493.29 0.43 c p3
275.39 492.83 0.43 c p3
275.54 493.72 0.43 c p3
275.68 494.77 0.43 c p3
275.83 493.72 0.43 c p3
275.98 493.42 0.43 c p3
276.12 494.01 0.43 c p3
276.27 493.13 0.43 c p3
276.41 493.59 0.43 c p3
276.56 493.88 0.43 c p3
276.70 493.13 0.43 c p3
276.85 493.00 0.43 c p3
277.00 493.88 0.43 c p3
277.14 493.88 0.43 c p3
277.29 494.61 0.43 c p3
277.43 495.20 0.43 c p3
277.58 494.61 0.43 c p3
277.72 495.20 0.43 c p3
277.87 495.20 0.43 c p3
278.01 494.31 0.43 c p3
278.16 494.77 0.43 c p3
278.31 495.49 0.43 c p3
278.45 494.77 0.43 c p3
278.60 494.77 0.43 c p3
278.74 495.36 0.43 c p3
278.89 495.49 0.43 c p3
279.03 495.20 0.43 c p3
279.18 495.49 0.43 c p3
279.32 494.90 0.43 c p3
279.47 494.90 0.43 c p3
279.62 495.49 0.43 c p3
279.76 494.90 0.43 c p3
279.91 495.20 0.43 c p3
280.05 496.08 0.43 c p3
280.20 494.90 0.43 c p3
280.34 495.20 0.43 c p3
280.49 496.08 0.43 c p3
280.63 496.08 0.43 c p3
280.78 495.95 0.43 c p3
280.93 496.80 0.43 c p3
281.07 496.97 0.43 c p3
281.22 496.08 0.43 c p3
281.36 495.95 0.43 c p3
281.51 495.66 0.43 c p3
281.65 496.25 0.43 c p3
281.80 495.95 0.43 c p3
281.95 495.95 0.43 c p3
282.09 495.95 0.43 c p3
282.24 496.25 0.43 c p3
282.38 496.97 0.43 c p3
282.53 497.39 0.43 c p3
282.67 496.38 0.43 c p3
282.82 496.54 0.43 c p3
282.96 497.10 0.43 c p3
283.11 496.97 0.43 c p3
283.26 496.54 0.43 c p3
283.40 496.97 0.43 c p3
283.55 497.56 0.43 c p3
283.69 497.69 0.43 c p3
283.84 497.10 0.43 c p3
283.98 497.10 0.43 c p3
284.13 497.56 0.43 c p3
284.27 497.56 0.43 c p3
284.42 497.26 0.43 c p3
284.57 497.99 0.43 c p3
284.71 498.28 0.43 c p3
284.86 497.56 0.43 c p3
285.00 497.56 0.43 c p3
285.15 496.80 0.43 c p3
285.29 496.67 0.43 c p3
285.44 496.97 0.43 c p3
285.58 497.39 0.43 c p3
285.73 497.56 0.43 c p3
285.88 497.69 0.43 c p3
286.02 498.15 0.43 c p3
286.17 498.45 0.43 c p3
286.31 498.45 0.43 c p3
286.46 498.45 0.43 c p3
286.60 497.69 0.43 c p3
286.75 497.56 0.43 c p3
286.89 497.85 0.43 c p3
287.04 497.85 0.43 c p3
287.19 498.45 0.43 c p3
287.33 497.26 0.43 c p3
287.48 497.69 0.43 c p3
287.62 498.74 0.43 c p3
287.77 498.58 0.43 c p3
287.91 497.99 0.43 c p3
288.06 498.87 0.43 c p3
288.21 498.58 0.43 c p3
288.35 498.74 0.43 c p3
288.50 498.45 0.43 c p3
288.64 498.28 0.43 c p3
288.79 498.45 0.43 c p3
288.93 498.87 0.43 c p3
289.08 499.17 0.43 c p3
289.22 499.63 0.43 c p3
289.37 499.46 0.43 c p3
289.52 500.35 0.43 c p3
289.66 499.33 0.43 c p3
289.81 498.74 0.43 c p3
289.95 498.87 0.43 c p3
290.10 498.87 0.43 c p3
290.24 498.15 0.43 c p3
290.39 499.33 0.43 c p3
290.53 498.87 0.43 c p3
290.68 499.46 0.43 c p3
290.83 499.46 0.43 c p3
290.97 499.17 0.43 c p3
291.12 499.92 0.43 c p3
291.26 499.04 0.43 c p3
291.41 499.76 0.43 c p3
291.55 499.46 0.43 c p3
291.70 498.87 0.43 c p3
291.84 500.05 0.43 c p3
291.99 499.46 0.43 c p3
292.14 499.76 0.43 c p3
292.28 499.63 0.43 c p3
292.43 499.17 0.43 c p3
292.57 499.63 0.43 c p3
292.72 499.92 0.43 c p3
292.86 500.22 0.43 c p3
293.01 500.05 0.43 c p3
293.16 499.92 0.43 c p3
293.30 500.51 0.43 c p3
293.45 499.46 0.43 c p3
293.59 499.46 0.43 c p3
293.74 499.46 0.43 c p3
293.88 499.33 0.43 c p3
294.03 499.76 0.43 c p3
294.17 499.63 0.43 c p3
294.32 500.81 0.43 c p3
294.47 500.81 0.43 c p3
294.61 500.81 0.43 c p3
294.76 501.23 0.43 c p3
294.90 500.94 0.43 c p3
295.05 501.10 0.43 c p3
295.19 500.05 0.43 c p3
295.34 500.64 0.43 c p3
295.48 500.51 0.43 c p3
295.63 500.51 0.43 c p3
295.78 500.35 0.43 c p3
295.92 500.51 0.43 c p3
296.07 500.64 0.43 c p3
296.21 500.51 0.43 c p3
296.36 500.64 0.43 c p3
296.50 501.40 0.43 c p3
296.65 501.10 0.43 c p3
296.79 500.22 0.43 c p3
296.94 500.81 0.43 c p3
297.09 500.94 0.43 c p3
297.23 500.64 0.43 c p3
297.38 500.81 0.43 c p3
297.52 500.51 0.43 c p3
297.67 501.53 0.43 c p3
297.81 500.94 0.43 c p3
297.96 501.53 0.43 c p3
298.11 500.81 0.43 c p3
298.25 501.99 0.43 c p3
298.40 500.94 0.43 c p3
298.54 502.29 0.43 c p3
298.69 501.23 0.43 c p3
298.83 500.94 0.43 c p3
298.98 500.64 0.43 c p3
299.12 500.64 0.43 c p3
299.27 500.64 0.43 c p3
299.42 500.94 0.43 c p3
299.56 500.81 0.43 c p3
299.71 501.10 0.43 c p3
299.85 501.53 0.43 c p3
300.00 501.83 0.43 c p3
300.14 501.53 0.43 c p3
300.29 501.83 0.43 c p3
300.43 502.12 0.43 c p3
300.58 501.40 0.43 c p3
300.73 501.53 0.43 c p3
300.87 501.23 0.43 c p3
301.02 501.40 0.43 c p3
301.16 500.94 0.43 c p3
301.31 501.69 0.43 c p3
301.45 503.14 0.43 c p3
301.60 502.12 0.43 c p3
301.74 502.29 0.43 c p3
301.89 501.99 0.43 c p3
302.04 501.69 0.43 c p3
302.18 502.12 0.43 c p3
302.33 501.23 0.43 c p3
302.47 501.10 0.43 c p3
302.62 501.53 0.43 c p3
302.76 500.94 0.43 c p3
302.91 502.29 0.43 c p3
303.06 501.53 0.43 c p3
303.20 502.12 0.43 c p3
303.35 502.12 0.43 c p3
303.49 501.99 0.43 c p3
303.64 502.58 0.43 c p3
303.78 502.29 0.43 c p3
303.93 502.29 0.43 c p3
304.07 501.69 0.43 c p3
304.22 502.29 0.43 c p3
304.37 500.94 0.43 c p3
304.51 501.53 0.43 c p3
304.66 502.29 0.43 c p3
304.80 501.69 0.43 c p3
304.95 502.29 0.43 c p3
305.09 501.83 0.43 c p3
305.24 502.84 0.43 c p3
305.38 502.58 0.43 c p3
305.53 502.12 0.43 c p3
305.68 502.29 0.43 c p3
305.82 502.71 0.43 c p3
305.97 502.42 0.43 c p3
306.11 502.12 0.43 c p3
306.26 502.29 0.43 c p3
306.40 501.99 0.43 c p3
306.55 501.69 0.43 c p3
306.69 503.89 0.43 c p3
306.84 503.01 0.43 c p3
306.99 503.01 0.43 c p3
307.13 502.84 0.43 c p3
307.28 502.84 0.43 c p3
307.42 501.99 0.43 c p3
307.57 502.42 0.43 c p3
307.71 503.14 0.43 c p3
307.86 502.29 0.43 c p3
308.01 502.29 0.43 c p3
308.15 502.12 0.43 c p3
308.30 503.14 0.43 c p3
308.44 503.43 0.43 c p3
308.59 502.84 0.43 c p3
308.73 503.30 0.43 c p3
308.88 503.30 0.43 c p3
309.02 503.30 0.43 c p3
309.17 502.84 0.43 c p3
309.32 503.14 0.43 c p3
309.46 502.58 0.43 c p3
309.61 503.30 0.43 c p3
309.75 502.71 0.43 c p3
309.90 503.30 0.43 c p3
310.04 503.43 0.43 c p3
310.19 503.43 0.43 c p3
310.33 503.73 0.43 c p3
310.48 503.73 0.43 c p3
310.63 503.01 0.43 c p3
310.77 502.29 0.43 c p3
310.92 502.29 0.43 c p3
311.06 502.71 0.43 c p3
311.21 503.14 0.43 c p3
311.35 502.71 0.43 c p3
311.50 502.84 0.43 c p3
311.64 501.99 0.43 c p3
311.79 502.84 0.43 c p3
311.94 502.84 0.43 c p3
312.08 503.01 0.43 c p3
312.23 503.73 0.43 c p3
312.37 502.84 0.43 c p3
312.52 503.73 0.43 c p3
312.66 503.30 0.43 c p3
312.81 503.43 0.43 c p3
312.96 502.84 0.43 c p3
313.10 503.01 0.43 c p3
313.25 502.58 0.43 c p3
313.39 501.99 0.43 c p3
313.54 502.71 0.43 c p3
313.68 502.71 0.43 c p3
313.83 503.43 0.43 c p3
313.97 504.19 0.43 c p3
314.12 503.73 0.43 c p3
314.27 503.30 0.43 c p3
314.41 502.29 0.43 c p3
314.56 503.01 0.43 c p3
314.70 503.73 0.43 c p3
314.85 503.60 0.43 c p3
314.99 502.84 0.43 c p3
315.14 502.71 0.43 c p3
315.28 503.43 0.43 c p3
315.43 503.89 0.43 c p3
315.58 503.73 0.43 c p3
315.72 503.89 0.43 c p3
315.87 504.02 0.43 c p3
316.01 504.02 0.43 c p3
316.16 502.84 0.43 c p3
316.30 503.60 0.43 c p3
316.45 504.19 0.43 c p3
316.59 503.01 0.43 c p3
316.74 503.14 0.43 c p3
316.89 503.73 0.43 c p3
317.03 503.60 0.43 c p3
317.18 502.84 0.43 c p3
317.32 503.43 0.43 c p3
317.47 503.89 0.43 c p3
317.61 504.19 0.43 c p3
317.76 503.89 0.43 c p3
317.91 503.89 0.43 c p3
318.05 504.78 0.43 c p3
318.20 504.19 0.43 c p3
318.34 503.89 0.43 c p3
318.49 503.30 0.43 c p3
318.63 502.71 0.43 c p3
318.78 503.60 0.43 c p3
318.92 504.32 0.43 c p3
319.07 504.32 0.43 c p3
319.22 504.48 0.43 c p3
319.36 504.48 0.43 c p3
319.51 503.89 0.43 c p3
319.65 503.43 0.43 c p3
319.80 503.89 0.43 c p3
319.94 504.32 0.43 c p3
320.09 504.02 0.43 c p3
320.23 504.48 0.43 c p3
320.38 503.01 0.43 c p3
320.53 503.01 0.43 c p3
320.67 503.30 0.43 c p3
320.82 503.43 0.43 c p3
320.96 504.32 0.43 c p3
321.11 504.19 0.43 c p3
321.25 504.78 0.43 c p3
321.40 504.62 0.43 c p3
321.54 503.73 0.43 c p3
321.69 503.73 0.43 c p3
321.84 504.19 0.43 c p3
321.98 504.02 0.43 c p3
322.13 503.73 0.43 c p3
322.27 504.02 0.43 c p3
322.42 503.73 0.43 c p3
322.56 504.02 0.43 c p3
322.71 504.48 0.43 c p3
322.85 504.78 0.43 c p3
323.00 504.02 0.43 c p3
323.15 503.89 0.43 c p3
323.29 503.89 0.43 c p3
323.44 504.19 0.43 c p3
323.58 504.19 0.43 c p3
323.73 504.02 0.43 c p3
323.87 504.02 0.43 c p3
324.02 504.19 0.43 c p3
324.17 504.02 0.43 c p3
324.31 503.30 0.43 c p3
324.46 504.32 0.43 c p3
324.60 504.32 0.43 c p3
324.75 505.50 0.43 c p3
324.89 504.78 0.43 c p3
325.04 503.89 0.43 c p3
325.18 503.89 0.43 c p3
325.33 503.14 0.43 c p3
325.48 503.60 0.43 c p3
325.62 503.89 0.43 c p3
325.77 503.89 0.43 c p3
325.91 503.89 0.43 c p3
326.06 504.48 0.43 c p3
326.20 504.02 0.43 c p3
326.35 504.32 0.43 c p3
326.49 504.91 0.43 c p3
326.64 504.48 0.43 c p3
326.79 504.32 0.43 c p3
326.93 504.19 0.43 c p3
327.08 505.07 0.43 c p3
327.22 505.21 0.43 c p3
327.37 504.78 0.43 c p3
327.51 504.48 0.43 c p3
327.66 504.19 0.43 c p3
327.80 504.78 0.43 c p3
327.95 503.60 0.43 c p3
328.10 505.37 0.43 c p3
328.24 504.91 0.43 c p3
328.39 504.78 0.43 c p3
328.53 505.50 0.43 c p3
328.68 504.91 0.43 c p3
328.82 504.78 0.43 c p3
328.97 504.32 0.43 c p3
329.12 504.19 0.43 c p3
329.26 503.43 0.43 c p3
329.41 504.78 0.43 c p3
329.55 505.07 0.43 c p3
329.70 505.07 0.43 c p3
329.84 505.96 0.43 c p3
329.99 506.09 0.43 c p3
330.13 505.21 0.43 c p3
330.28 504.91 0.43 c p3
330.43 504.91 0.43 c p3
330.57 504.48 0.43 c p3
330.72 504.02 0.43 c p3
330.86 504.19 0.43 c p3
331.01 504.62 0.43 c p3
331.15 504.19 0.43 c p3
331.30 504.62 0.43 c p3
331.44 504.62 0.43 c p3
331.59 504.48 0.43 c p3
331.74 505.21 0.43 c p3
331.88 505.07 0.43 c p3
332.03 505.21 0.43 c p3
332.17 505.07 0.43 c p3
332.32 504.78 0.43 c p3
332.46 504.78 0.43 c p3
332.61 504.62 0.43 c p3
332.75 504.62 0.43 c p3
332.90 504.78 0.43 c p3
333.05 504.62 0.43 c p3
333.19 504.62 0.43 c p3
333.34 505.21 0.43 c p3
333.48 505.07 0.43 c p3
333.63 506.09 0.43 c p3
333.77 505.67 0.43 c p3
333.92 505.07 0.43 c p3
334.07 504.48 0.43 c p3
334.21 504.91 0.43 c p3
334.36 504.48 0.43 c p3
334.50 504.32 0.43 c p3
334.65 504.19 0.43 c p3
334.79 504.91 0.43 c p3
334.94 505.21 0.43 c p3
335.08 504.62 0.43 c p3
335.23 505.07 0.43 c p3
335.38 504.91 0.43 c p3
335.52 505.07 0.43 c p3
335.67 505.37 0.43 c p3
335.81 504.91 0.43 c p3
335.96 505.07 0.43 c p3
336.10 505.21 0.43 c p3
336.25 505.07 0.43 c p3
336.39 504.48 0.43 c p3
336.54 504.48 0.43 c p3
336.69 506.09 0.43 c p3
336.83 504.91 0.43 c p3
336.98 505.21 0.43 c p3
337.12 505.37 0.43 c p3
337.27 505.07 0.43 c p3
337.41 505.80 0.43 c p3
337.56 504.91 0.43 c p3
337.70 504.32 0.43 c p3
337.85 505.21 0.43 c p3
338.00 504.48 0.43 c p3
338.14 504.48 0.43 c p3
338.29 505.37 0.43 c p3
338.43 504.62 0.43 c p3
338.58 506.26 0.43 c p3
338.72 506.39 0.43 c p3
338.87 505.80 0.43 c p3
339.02 505.50 0.43 c p3
339.16 505.07 0.43 c p3
339.31 505.07 0.43 c p3
339.45 505.50 0.43 c p3
339.60 505.67 0.43 c p3
339.74 505.67 0.43 c p3
339.89 505.21 0.43 c p3
340.03 504.91 0.43 c p3
340.18 504.78 0.43 c p3
340.33 505.67 0.43 c p3
340.47 505.96 0.43 c p3
340.62 505.96 0.43 c p3
340.76 506.09 0.43 c p3
340.91 505.67 0.43 c p3
341.05 505.50 0.43 c p3
341.20 504.78 0.43 c p3
341.34 505.50 0.43 c p3
341.49 505.67 0.43 c p3
341.64 505.80 0.43 c p3
341.78 505.50 0.43 c p3
341.93 504.78 0.43 c p3
342.07 505.80 0.43 c p3
342.22 505.50 0.43 c p3
342.36 505.80 0.43 c p3
342.51 505.21 0.43 c p3
342.65 505.67 0.43 c p3
342.80 504.48 0.43 c p3
342.95 505.21 0.43 c p3
343.09 504.91 0.43 c p3
343.24 504.91 0.43 c p3
343.38 505.37 0.43 c p3
343.53 505.07 0.43 c p3
343.67 504.02 0.43 c p3
343.82 504.91 0.43 c p3
343.97 504.62 0.43 c p3
344.11 505.80 0.43 c p3
344.26 506.09 0.43 c p3
344.40 505.80 0.43 c p3
344.55 505.07 0.43 c p3
344.69 505.50 0.43 c p3
344.84 505.07 0.43 c p3
344.98 505.67 0.43 c p3
345.13 505.37 0.43 c p3
345.28 504.48 0.43 c p3
345.42 504.62 0.43 c p3
345.57 505.37 0.43 c p3
345.71 504.91 0.43 c p3
345.86 505.80 0.43 c p3
346.00 505.96 0.43 c p3
346.15 505.67 0.43 c p3
346.29 505.21 0.43 c p3
346.44 505.21 0.43 c p3
346.59 505.37 0.43 c p3
346.73 505.07 0.43 c p3
346.88 505.80 0.43 c p3
347.02 505.80 0.43 c p3
347.17 505.80 0.43 c p3
347.31 505.80 0.43 c p3
347.46 505.96 0.43 c p3
347.60 506.26 0.43 c p3
347.75 506.26 0.43 c p3
347.90 505.67 0.43 c p3
348.04 505.67 0.43 c p3
348.19 506.55 0.43 c p3
348.33 506.26 0.43 c p3
348.48 505.50 0.43 c p3
348.62 505.07 0.43 c p3
348.77 505.21 0.43 c p3
348.92 504.78 0.43 c p3
349.06 505.07 0.43 c p3
349.21 505.50 0.43 c p3
349.35 505.80 0.43 c p3
349.50 506.09 0.43 c p3
349.64 506.09 0.43 c p3
349.79 506.39 0.43 c p3
349.93 505.21 0.43 c p3
350.08 505.80 0.43 c p3
350.23 506.09 0.43 c p3
350.37 505.80 0.43 c p3
350.52 505.50 0.43 c p3
350.66 505.50 0.43 c p3
350.81 505.37 0.43 c p3
350.95 505.96 0.43 c p3
351.10 505.80 0.43 c p3
351.24 505.50 0.43 c p3
351.39 505.67 0.43 c p3
351.54 505.67 0.43 c p3
351.68 505.37 0.43 c p3
351.83 505.07 0.43 c p3
351.97 505.50 0.43 c p3
352.12 505.21 0.43 c p3
352.26 504.78 0.43 c p3
352.41 505.21 0.43 c p3
352.55 505.50 0.43 c p3
352.70 505.67 0.43 c p3
352.85 506.26 0.43 c p3
352.99 506.09 0.43 c p3
353.14 505.96 0.43 c p3
353.28 505.50 0.43 c p3
353.43 505.96 0.43 c p3
353.57 505.67 0.43 c p3
353.72 505.37 0.43 c p3
353.86 505.67 0.43 c p3
354.01 505.67 0.43 c p3
354.16 505.50 0.43 c p3
354.30 505.07 0.43 c p3
354.45 505.67 0.43 c p3
354.59 506.09 0.43 c p3
354.74 505.50 0.43 c p3
354.88 505.67 0.43 c p3
355.03 505.37 0.43 c p3
355.18 506.09 0.43 c p3
355.32 506.26 0.43 c p3
355.47 505.80 0.43 c p3
355.61 504.91 0.43 c p3
355.76 505.37 0.43 c p3
355.90 504.78 0.43 c p3
356.05 505.67 0.43 c p3
356.19 506.09 0.43 c p3
356.34 506.26 0.43 c p3
356.49 506.09 0.43 c p3
356.63 506.85 0.43 c p3
356.78 505.67 0.43 c p3
356.92 506.09 0.43 c p3
357.07 506.09 0.43 c p3
357.21 506.09 0.43 c p3
357.36 505.96 0.43 c p3
357.50 506.26 0.43 c p3
357.65 505.37 0.43 c p3
357.80 505.37 0.43 c p3
357.94 505.50 0.43 c p3
358.09 505.50 0.43 c p3
358.23 506.09 0.43 c p3
358.38 505.96 0.43 c p3
358.52 505.80 0.43 c p3
358.67 505.80 0.43 c p3
358.81 506.39 0.43 c p3
358.96 505.67 0.43 c p3
359.11 505.96 0.43 c p3
359.25 505.50 0.43 c p3
359.40 505.37 0.43 c p3
359.54 506.09 0.43 c p3
359.69 505.96 0.43 c p3
359.83 506.55 0.43 c p3
359.98 506.26 0.43 c p3
360.13 505.67 0.43 c p3
360.27 506.09 0.43 c p3
360.42 505.50 0.43 c p3
360.56 505.80 0.43 c p3
360.71 506.26 0.43 c p3
360.85 504.78 0.43 c p3
361.00 505.50 0.43 c p3
361.14 505.80 0.43 c p3
361.29 505.96 0.43 c p3
361.44 506.39 0.43 c p3
361.58 505.96 0.43 c p3
361.73 506.39 0.43 c p3
361.87 506.09 0.43 c p3
362.02 506.39 0.43 c p3
362.16 506.85 0.43 c p3
362.31 505.96 0.43 c p3
362.45 505.96 0.43 c p3
362.60 505.50 0.43 c p3
362.75 505.80 0.43 c p3
362.89 505.67 0.43 c p3
363.04 505.67 0.43 c p3
363.18 505.96 0.43 c p3
363.33 505.96 0.43 c p3
363.47 505.67 0.43 c p3
363.62 506.09 0.43 c p3
363.76 505.80 0.43 c p3
363.91 505.67 0.43 c p3
364.06 505.37 0.43 c p3
364.20 505.67 0.43 c p3
364.35 506.09 0.43 c p3
364.49 505.80 0.43 c p3
364.64 505.07 0.43 c p3
364.78 505.96 0.43 c p3
364.93 505.80 0.43 c p3
365.08 506.09 0.43 c p3
365.22 506.26 0.43 c p3
365.37 506.26 0.43 c p3
365.51 506.26 0.43 c p3
365.66 506.26 0.43 c p3
365.80 506.26 0.43 c p3
365.95 505.80 0.43 c p3
366.09 504.91 0.43 c p3
366.24 505.37 0.43 c p3
366.39 505.50 0.43 c p3
366.53 506.09 0.43 c p3
366.68 506.39 0.43 c p3
366.82 506.55 0.43 c p3
366.97 506.85 0.43 c p3
367.11 506.39 0.43 c p3
367.26 506.39 0.43 c p3
367.40 506.55 0.43 c p3
367.55 506.55 0.43 c p3
367.70 505.67 0.43 c p3
367.84 505.80 0.43 c p3
367.99 505.50 0.43 c p3
368.13 505.96 0.43 c p3
368.28 506.09 0.43 c p3
368.42 506.26 0.43 c p3
368.57 507.27 0.43 c p3
368.71 505.96 0.43 c p3
368.86 506.68 0.43 c p3
369.01 505.67 0.43 c p3
369.15 506.55 0.43 c p3
369.30 506.39 0.43 c p3
369.44 505.67 0.43 c p3
369.59 505.80 0.43 c p3
369.73 506.09 0.43 c p3
369.88 505.96 0.43 c p3
370.03 506.09 0.43 c p3
370.17 506.98 0.43 c p3
370.32 507.14 0.43 c p3
370.46 506.85 0.43 c p3
370.61 506.98 0.43 c p3
370.75 506.09 0.43 c p3
370.90 506.39 0.43 c p3
371.04 506.09 0.43 c p3
371.19 505.80 0.43 c p3
371.34 506.39 0.43 c p3
371.48 505.96 0.43 c p3
371.63 505.21 0.43 c p3
371.77 506.26 0.43 c p3
371.92 506.98 0.43 c p3
372.06 506.09 0.43 c p3
372.21 506.55 0.43 c p3
372.35 506.85 0.43 c p3
372.50 506.39 0.43 c p3
372.65 505.96 0.43 c p3
372.79 505.80 0.43 c p3
372.94 506.55 0.43 c p3
373.08 505.67 0.43 c p3
373.23 506.55 0.43 c p3
373.37 505.80 0.43 c p3
373.52 506.39 0.43 c p3
373.66 506.85 0.43 c p3
373.81 506.55 0.43 c p3
373.96 505.96 0.43 c p3
374.10 506.98 0.43 c p3
374.25 506.39 0.43 c p3
374.39 505.96 0.43 c p3
374.54 505.67 0.43 c p3
374.68 506.09 0.43 c p3
374.83 505.80 0.43 c p3
374.98 505.50 0.43 c p3
375.12 505.37 0.43 c p3
375.27 505.80 0.43 c p3
375.41 505.96 0.43 c p3
375.56 506.39 0.43 c p3
375.70 506.26 0.43 c p3
375.85 505.96 0.43 c p3
375.99 506.68 0.43 c p3
376.14 506.68 0.43 c p3
376.29 506.55 0.43 c p3
376.43 505.67 0.43 c p3
376.58 505.67 0.43 c p3
376.72 505.50 0.43 c p3
376.87 506.26 0.43 c p3
377.01 506.39 0.43 c p3
377.16 506.09 0.43 c p3
377.30 506.55 0.43 c p3
377.45 506.85 0.43 c p3
377.60 505.80 0.43 c p3
377.74 506.39 0.43 c p3
377.89 506.98 0.43 c p3
378.03 506.39 0.43 c p3
378.18 505.96 0.43 c p3
378.32 505.96 0.43 c p3
378.47 506.39 0.43 c p3
378.61 505.96 0.43 c p3
378.76 506.55 0.43 c p3
378.91 506.98 0.43 c p3
379.05 506.98 0.43 c p3
379.20 506.85 0.43 c p3
379.34 507.14 0.43 c p3
379.49 506.85 0.43 c p3
379.63 506.09 0.43 c p3
379.78 505.80 0.43 c p3
379.93 506.09 0.43 c p3
380.07 506.39 0.43 c p3
380.22 506.55 0.43 c p3
380.36 506.09 0.43 c p3
380.51 506.09 0.43 c p3
380.65 506.55 0.43 c p3
380.80 506.98 0.43 c p3
380.94 507.44 0.43 c p3
381.09 506.39 0.43 c p3
381.24 505.96 0.43 c p3
381.38 506.68 0.43 c p3
381.53 506.55 0.43 c p3
381.67 505.80 0.43 c p3
381.82 505.80 0.43 c p3
381.96 506.09 0.43 c p3
382.11 506.55 0.43 c p3
382.25 506.85 0.43 c p3
382.40 506.68 0.43 c p3
0.00 0.00 432.00 576.00 cl
0 0 0 srgb
0.75 setlinewidth
[] 0 setdash
1 setlinecap
1 setlinejoin
10.00 setmiterlimit
np
236.96 345.60 m
145.59 0 l
o
np
236.96 345.60 m
0 -5.76 l
o
np
266.08 345.60 m
0 -5.76 l
o
np
295.19 345.60 m
0 -5.76 l
o
np
324.31 345.60 m
0 -5.76 l
o
np
353.43 345.60 m
0 -5.76 l
o
np
382.55 345.60 m
0 -5.76 l
o
/Font1 findfont 10 s
236.96 329.47 (0) .5 0 t
266.08 329.47 (200) .5 0 t
295.19 329.47 (400) .5 0 t
324.31 329.47 (600) .5 0 t
353.43 329.47 (800) .5 0 t
382.55 329.47 (1000) .5 0 t
np
216.00 352.00 m
0 161.31 l
o
np
216.00 352.00 m
-5.76 0 l
o
np
216.00 378.89 m
-5.76 0 l
o
np
216.00 405.77 m
-5.76 0 l
o
np
216.00 432.66 m
-5.76 0 l
o
np
216.00 459.54 m
-5.76 0 l
o
np
216.00 486.43 m
-5.76 0 l
o
np
216.00 513.31 m
-5.76 0 l
o
209.09 348.41 (0.0) 1 0 t
209.09 375.30 (0.2) 1 0 t
209.09 402.18 (0.4) 1 0 t
209.09 429.07 (0.6) 1 0 t
209.09 455.95 (0.8) 1 0 t
209.09 482.84 (1.0) 1 0 t
209.09 509.72 (1.2) 1 0 t
np
216.00 345.60 m
172.80 0 l
0 172.80 l
-172.80 0 l
0 -172.80 l
o
0.00 0.00 432.00 576.00 cl
/Font1 findfont 10 s
0 0 0 srgb
302.40 313.34 (Zeit / ms \(total\)) .5 0 t
190.66 432.00 (U / V) .5 90 t
216.00 345.60 388.80 518.40 cl
0 0 0 srgb
0.38 setlinewidth
[ 1.12 1.88] 0 setdash
1 setlinecap
1 setlinejoin
10.00 setmiterlimit
np
223.27 345.60 m
0 172.80 l
o
np
235.07 345.60 m
0 172.80 l
o
np
240.45 345.60 m
0 172.80 l
o
np
299.42 345.60 m
0 172.80 l
o
86.40 57.60 388.80 288.00 cl
1 0 0 srgb
1.50 setlinewidth
[] 0 setdash
1 setlinecap
1 setlinejoin
10.00 setmiterlimit
np
97.60 279.47 m
1.41 -6.25 l
1.40 -6.05 l
1.41 -5.86 l
1.41 -5.68 l
1.41 -5.50 l
1.40 -5.34 l
1.41 -5.16 l
1.41 -5.00 l
1.40 -4.85 l
1.41 -4.70 l
1.41 -4.55 l
1.40 -4.41 l
1.41 -4.27 l
1.41 -4.14 l
1.41 -4.00 l
1.40 -3.89 l
1.41 -3.76 l
1.41 -3.65 l
1.40 -3.53 l
1.41 -3.42 l
1.41 -3.31 l
1.40 -3.21 l
1.41 -3.12 l
1.41 -3.01 l
1.41 -2.92 l
1.40 -2.83 l
1.41 -2.74 l
1.41 -2.66 l
1.40 -2.57 l
1.41 -2.49 l
1.41 -2.42 l
1.41 -2.34 l
1.40 -2.26 l
1.41 -2.20 l
1.41 -2.13 l
1.40 -2.06 l
1.41 -2.00 l
1.41 -1.93 l
1.40 -1.87 l
1.41 -1.82 l
1.41 -1.76 l
1.41 -1.70 l
1.40 -1.66 l
1.41 -1.60 l
1.41 -1.54 l
1.40 -1.51 l
1.41 -1.45 l
1.41 -1.41 l
1.40 -1.37 l
1.41 -1.32 l
1.41 -1.28 l
1.41 -1.24 l
1.40 -1.21 l
1.41 -1.16 l
1.41 -1.13 l
1.40 -1.09 l
1.41 -1.06 l
1.41 -1.03 l
1.41 -1.00 l
1.40 -0.96 l
1.41 -0.93 l
1.41 -0.91 l
1.40 -0.87 l
1.41 -0.85 l
1.41 -0.83 l
1.40 -0.79 l
1.41 -0.77 l
1.41 -0.75 l
1.41 -0.73 l
1.40 -0.70 l
1.41 -0.68 l
1.41 -0.66 l
1.40 -0.64 l
1.41 -0.62 l
1.41 -0.60 l
1.40 -0.58 l
1.41 -0.56 l
1.41 -0.54 l
1.41 -0.53 l
1.40 -0.51 l
1.41 -0.50 l
1.41 -0.48 l
1.40 -0.46 l
1.41 -0.45 l
1.41 -0.44 l
1.41 -0.42 l
1.40 -0.41 l
1.41 -0.40 l
1.41 -0.39 l
1.40 -0.37 l
1.41 -0.36 l
1.41 -0.35 l
1.40 -0.34 l
1.41 -0.33 l
1.41 -0.31 l
1.41 -0.31 l
1.40 -0.30 l
1.41 -0.29 l
1.41 -0.28 l
238.30 87.58 lineto
1.41 -0.26 l
1.41 -0.26 l
1.40 -0.25 l
1.41 -0.24 l
1.41 -0.23 l
1.41 -0.22 l
1.40 -0.22 l
1.41 -0.21 l
1.41 -0.20 l
1.40 -0.20 l
1.41 -0.19 l
1.41 -0.19 l
1.40 -0.18 l
1.41 -0.17 l
1.41 -0.17 l
1.41 -0.17 l
1.40 -0.15 l
1.41 -0.16 l
1.41 -0.15 l
1.40 -0.14 l
1.41 -0.14 l
1.41 -0.13 l
1.41 -0.14 l
1.40 -0.12 l
1.41 -0.13 l
1.41 -0.11 l
1.40 -0.12 l
1.41 -0.11 l
1.41 -0.11 l
1.40 -0.11 l
1.41 -0.10 l
1.41 -0.10 l
1.41 -0.09 l
1.40 -0.09 l
1.41 -0.09 l
1.41 -0.09 l
1.40 -0.08 l
1.41 -0.09 l
1.41 -0.07 l
1.40 -0.08 l
1.41 -0.07 l
1.41 -0.08 l
1.41 -0.07 l
1.40 -0.06 l
1.41 -0.07 l
1.41 -0.06 l
1.40 -0.06 l
1.41 -0.06 l
1.41 -0.06 l
1.41 -0.06 l
1.40 -0.05 l
1.41 -0.05 l
1.41 -0.05 l
1.40 -0.05 l
1.41 -0.05 l
1.41 -0.05 l
1.40 -0.04 l
1.41 -0.04 l
1.41 -0.05 l
1.41 -0.04 l
1.40 -0.04 l
1.41 -0.03 l
1.41 -0.04 l
1.40 -0.04 l
1.41 -0.03 l
1.41 -0.03 l
1.40 -0.04 l
1.41 -0.03 l
1.41 -0.03 l
1.41 -0.03 l
1.40 -0.03 l
1.41 -0.02 l
1.41 -0.03 l
1.40 -0.03 l
1.41 -0.02 l
1.41 -0.03 l
1.41 -0.02 l
1.40 -0.02 l
1.41 -0.03 l
1.41 -0.02 l
1.40 -0.02 l
1.41 -0.02 l
1.41 -0.02 l
1.40 -0.02 l
1.41 -0.02 l
1.41 -0.01 l
1.41 -0.02 l
1.40 -0.02 l
1.41 -0.01 l
1.41 -0.02 l
1.40 -0.01 l
1.41 -0.02 l
1.41 -0.01 l
1.40 -0.02 l
1.41 -0.01 l
1.41 -0.01 l
1.41 -0.02 l
1.40 -0.01 l
1.41 -0.01 l
o
0.00 0.00 432.00 576.00 cl
0 0 0 srgb
0.75 setlinewidth
[] 0 setdash
1 setlinecap
1 setlinejoin
10.00 setmiterlimit
np
97.60 57.60 m
280.00 0 l
o
np
97.60 57.60 m
0 -5.76 l
o
np
153.60 57.60 m
0 -5.76 l
o
np
209.60 57.60 m
0 -5.76 l
o
np
265.60 57.60 m
0 -5.76 l
o
np
321.60 57.60 m
0 -5.76 l
o
np
377.60 57.60 m
0 -5.76 l
o
/Font1 findfont 10 s
97.60 41.47 (0) .5 0 t
153.60 41.47 (200) .5 0 t
209.60 41.47 (400) .5 0 t
265.60 41.47 (600) .5 0 t
321.60 41.47 (800) .5 0 t
377.60 41.47 (1000) .5 0 t
np
86.40 66.13 m
0 200.49 l
o
np
86.40 66.13 m
-5.76 0 l
o
np
86.40 116.25 m
-5.76 0 l
o
np
86.40 166.38 m
-5.76 0 l
o
np
86.40 216.50 m
-5.76 0 l
o
np
86.40 266.62 m
-5.76 0 l
o
79.49 62.54 (0.00) 1 0 t
79.49 112.66 (0.05) 1 0 t
79.49 162.79 (0.10) 1 0 t
79.49 212.91 (0.15) 1 0 t
79.49 263.03 (0.20) 1 0 t
np
86.40 57.60 m
302.40 0 l
0 230.40 l
-302.40 0 l
0 -230.40 l
o
0.00 0.00 432.00 576.00 cl
/Font1 findfont 10 s
0 0 0 srgb
237.60 13.82 (Zeit / ms \(nach Puls\)) .5 0 t
49.54 172.80 (Absorbanz A) .5 90 t
86.40 57.60 388.80 288.00 cl
/bg { 1 1 1 srgb } def
0 0 0 srgb
0.75 setlinewidth
[] 0 setdash
1 setlinecap
1 setlinejoin
10.00 setmiterlimit
104.60 250.70 0.65 c p3
104.88 246.45 0.65 c p3
105.16 247.68 0.65 c p3
105.44 248.91 0.65 c p3
105.72 245.23 0.65 c p3
106.00 245.77 0.65 c p3
106.28 245.77 0.65 c p3
106.56 243.33 0.65 c p3
106.84 241.58 0.65 c p3
107.12 237.96 0.65 c p3
107.40 242.12 0.65 c p3
107.68 237.42 0.65 c p3
107.96 235.03 0.65 c p3
108.24 234.36 0.65 c p3
108.52 234.36 0.65 c p3
108.80 232.65 0.65 c p3
109.08 231.99 0.65 c p3
109.36 233.84 0.65 c p3
109.64 234.36 0.65 c p3
109.92 231.99 0.65 c p3
110.20 231.46 0.65 c p3
110.48 229.62 0.65 c p3
110.76 226.10 0.65 c p3
111.04 224.41 0.65 c p3
111.32 225.58 0.65 c p3
111.60 227.92 0.65 c p3
111.88 226.10 0.65 c p3
112.16 226.10 0.65 c p3
112.44 223.25 0.65 c p3
112.72 223.25 0.65 c p3
113.00 222.60 0.65 c p3
113.28 218.62 0.65 c p3
113.56 219.13 0.65 c p3
113.84 217.47 0.65 c p3
114.12 216.33 0.65 c p3
114.40 213.54 0.65 c p3
114.68 215.69 0.65 c p3
114.96 211.27 0.65 c p3
115.24 207.89 0.65 c p3
115.52 212.91 0.65 c p3
115.80 211.27 0.65 c p3
116.08 213.54 0.65 c p3
116.36 211.27 0.65 c p3
116.64 211.78 0.65 c p3
116.92 212.41 0.65 c p3
117.20 209.52 0.65 c p3
117.48 205.04 0.65 c p3
117.76 205.66 0.65 c p3
118.04 207.89 0.65 c p3
118.32 206.77 0.65 c p3
118.60 207.27 0.65 c p3
118.88 205.04 0.65 c p3
119.16 203.92 0.65 c p3
119.44 200.11 0.65 c p3
119.72 201.21 0.65 c p3
120.00 197.91 0.65 c p3
120.28 200.60 0.65 c p3
120.56 200.60 0.65 c p3
120.84 195.72 0.65 c p3
121.12 196.21 0.65 c p3
121.40 195.12 0.65 c p3
121.68 191.86 0.65 c p3
121.96 191.86 0.65 c p3
122.24 194.03 0.65 c p3
122.52 194.03 0.65 c p3
122.80 191.86 0.65 c p3
123.08 194.03 0.65 c p3
123.36 194.03 0.65 c p3
123.64 190.30 0.65 c p3
123.92 191.38 0.65 c p3
124.20 188.75 0.65 c p3
124.48 184.47 0.65 c p3
124.76 184.47 0.65 c p3
125.04 185.54 0.65 c p3
125.32 186.01 0.65 c p3
125.60 184.95 0.65 c p3
125.88 184.47 0.65 c p3
126.16 184.95 0.65 c p3
126.44 184.95 0.65 c p3
126.72 184.95 0.65 c p3
127.00 184.95 0.65 c p3
127.28 184.95 0.65 c p3
127.56 184.47 0.65 c p3
127.84 180.71 0.65 c p3
128.12 180.71 0.65 c p3
128.40 180.71 0.65 c p3
128.68 178.61 0.65 c p3
128.96 179.19 0.65 c p3
129.24 177.09 0.65 c p3
129.52 177.56 0.65 c p3
129.80 179.66 0.65 c p3
130.08 176.51 0.65 c p3
130.36 177.56 0.65 c p3
130.64 176.05 0.65 c p3
130.92 169.84 0.65 c p3
131.20 171.90 0.65 c p3
131.48 170.87 0.65 c p3
131.76 169.84 0.65 c p3
132.04 171.32 0.65 c p3
132.32 173.39 0.65 c p3
132.60 170.29 0.65 c p3
132.88 168.81 0.65 c p3
133.16 170.29 0.65 c p3
133.44 170.29 0.65 c p3
133.72 171.32 0.65 c p3
134.00 169.27 0.65 c p3
134.28 165.29 0.65 c p3
134.56 165.29 0.65 c p3
134.84 164.28 0.65 c p3
135.12 164.28 0.65 c p3
135.40 163.26 0.65 c p3
135.68 165.29 0.65 c p3
135.96 163.26 0.65 c p3
136.24 163.71 0.65 c p3
136.52 164.73 0.65 c p3
136.80 160.23 0.65 c p3
137.08 164.28 0.65 c p3
137.36 162.25 0.65 c p3
137.64 160.68 0.65 c p3
137.92 158.23 0.65 c p3
138.20 157.67 0.65 c p3
138.48 157.67 0.65 c p3
138.76 159.23 0.65 c p3
139.04 158.67 0.65 c p3
139.32 157.67 0.65 c p3
139.60 157.23 0.65 c p3
139.88 156.23 0.65 c p3
140.16 158.23 0.65 c p3
140.44 160.23 0.65 c p3
140.72 158.67 0.65 c p3
141.00 155.23 0.65 c p3
141.28 151.71 0.65 c p3
141.56 152.26 0.65 c p3
141.84 153.25 0.65 c p3
142.12 152.26 0.65 c p3
142.40 150.73 0.65 c p3
142.68 152.26 0.65 c p3
142.96 150.29 0.65 c p3
143.24 150.73 0.65 c p3
143.52 152.70 0.65 c p3
143.80 151.28 0.65 c p3
144.08 149.75 0.65 c p3
144.36 150.29 0.65 c p3
144.64 147.79 0.65 c p3
144.92 145.94 0.65 c p3
145.20 146.38 0.65 c p3
145.48 147.79 0.65 c p3
145.76 146.38 0.65 c p3
146.04 146.81 0.65 c p3
146.32 146.38 0.65 c p3
146.60 146.81 0.65 c p3
146.88 146.81 0.65 c p3
147.16 144.97 0.65 c p3
147.44 144.43 0.65 c p3
147.72 144.00 0.65 c p3
148.00 144.43 0.65 c p3
148.28 141.11 0.65 c p3
148.56 139.61 0.65 c p3
148.84 140.14 0.65 c p3
149.12 143.03 0.65 c p3
149.40 140.14 0.65 c p3
149.68 143.03 0.65 c p3
149.96 140.57 0.65 c p3
150.24 139.18 0.65 c p3
150.52 139.61 0.65 c p3
150.80 140.14 0.65 c p3
151.08 142.07 0.65 c p3
151.36 139.18 0.65 c p3
151.64 136.32 0.65 c p3
151.92 136.74 0.65 c p3
152.20 136.32 0.65 c p3
152.48 137.70 0.65 c p3
152.76 137.27 0.65 c p3
153.04 137.70 0.65 c p3
153.32 137.70 0.65 c p3
153.60 134.84 0.65 c p3
153.88 134.84 0.65 c p3
154.16 135.37 0.65 c p3
154.44 133.89 0.65 c p3
154.72 135.37 0.65 c p3
155.00 134.84 0.65 c p3
155.28 132.00 0.65 c p3
155.56 131.59 0.65 c p3
155.84 132.53 0.65 c p3
156.12 133.89 0.65 c p3
156.40 132.95 0.65 c p3
156.68 133.47 0.65 c p3
156.96 132.00 0.65 c p3
157.24 133.47 0.65 c p3
157.52 134.42 0.65 c p3
157.80 129.71 0.65 c p3
158.08 132.95 0.65 c p3
158.36 129.19 0.65 c p3
158.64 129.19 0.65 c p3
158.92 125.97 0.65 c p3
159.20 127.84 0.65 c p3
159.48 127.84 0.65 c p3
159.76 129.19 0.65 c p3
160.04 125.56 0.65 c p3
160.32 128.25 0.65 c p3
160.60 126.90 0.65 c p3
160.88 127.32 0.65 c p3
161.16 129.19 0.65 c p3
161.44 125.04 0.65 c p3
161.72 125.56 0.65 c p3
162.00 124.12 0.65 c p3
162.28 125.04 0.65 c p3
162.56 126.39 0.65 c p3
162.84 122.27 0.65 c p3
163.12 124.12 0.65 c p3
163.40 124.63 0.65 c p3
163.68 125.97 0.65 c p3
163.96 124.12 0.65 c p3
164.24 124.12 0.65 c p3
164.52 124.12 0.65 c p3
164.80 124.12 0.65 c p3
165.08 121.35 0.65 c p3
165.36 120.94 0.65 c p3
165.64 120.43 0.65 c p3
165.92 121.86 0.65 c p3
166.20 120.94 0.65 c p3
166.48 121.35 0.65 c p3
166.76 123.19 0.65 c p3
167.04 122.78 0.65 c p3
167.32 123.71 0.65 c p3
167.60 123.19 0.65 c p3
167.88 120.43 0.65 c p3
168.16 120.02 0.65 c p3
168.44 118.60 0.65 c p3
168.72 117.69 0.65 c p3
169.00 116.77 0.65 c p3
169.28 117.69 0.65 c p3
169.56 118.60 0.65 c p3
169.84 118.19 0.65 c p3
170.12 117.69 0.65 c p3
170.40 118.19 0.65 c p3
170.68 117.28 0.65 c p3
170.96 118.60 0.65 c p3
171.24 119.11 0.65 c p3
171.52 116.77 0.65 c p3
171.80 118.19 0.65 c p3
172.08 115.46 0.65 c p3
172.36 112.25 0.65 c p3
172.64 115.46 0.65 c p3
172.92 116.37 0.65 c p3
173.20 114.56 0.65 c p3
173.48 117.28 0.65 c p3
173.76 115.87 0.65 c p3
174.04 114.96 0.65 c p3
174.32 117.28 0.65 c p3
174.60 117.69 0.65 c p3
174.88 114.96 0.65 c p3
175.16 114.96 0.65 c p3
175.44 112.75 0.65 c p3
175.72 110.95 0.65 c p3
176.00 112.75 0.65 c p3
176.28 110.95 0.65 c p3
176.56 110.95 0.65 c p3
176.84 113.65 0.65 c p3
177.12 112.25 0.65 c p3
177.40 110.05 0.65 c p3
177.68 112.25 0.65 c p3
177.96 112.25 0.65 c p3
178.24 110.45 0.65 c p3
178.52 110.05 0.65 c p3
178.80 110.95 0.65 c p3
179.08 110.05 0.65 c p3
179.36 111.85 0.65 c p3
179.64 111.85 0.65 c p3
179.92 110.05 0.65 c p3
180.20 111.85 0.65 c p3
180.48 110.95 0.65 c p3
180.76 108.26 0.65 c p3
181.04 111.85 0.65 c p3
181.32 110.95 0.65 c p3
181.60 108.26 0.65 c p3
181.88 108.26 0.65 c p3
182.16 108.66 0.65 c p3
182.44 106.09 0.65 c p3
182.72 105.59 0.65 c p3
183.00 108.26 0.65 c p3
183.28 108.66 0.65 c p3
183.56 109.55 0.65 c p3
183.84 107.77 0.65 c p3
184.12 108.66 0.65 c p3
184.40 108.66 0.65 c p3
184.68 108.66 0.65 c p3
184.96 107.77 0.65 c p3
185.24 105.59 0.65 c p3
185.52 104.31 0.65 c p3
185.80 107.37 0.65 c p3
186.08 106.88 0.65 c p3
186.36 105.20 0.65 c p3
186.64 105.59 0.65 c p3
186.92 106.88 0.65 c p3
187.20 105.59 0.65 c p3
187.48 103.82 0.65 c p3
187.76 103.43 0.65 c p3
188.04 105.20 0.65 c p3
188.32 105.20 0.65 c p3
188.60 103.82 0.65 c p3
188.88 103.82 0.65 c p3
189.16 104.71 0.65 c p3
189.44 102.55 0.65 c p3
189.72 101.67 0.65 c p3
190.00 103.82 0.65 c p3
190.28 103.82 0.65 c p3
190.56 106.09 0.65 c p3
190.84 106.48 0.65 c p3
191.12 105.59 0.65 c p3
191.40 104.31 0.65 c p3
191.68 103.82 0.65 c p3
191.96 103.43 0.65 c p3
192.24 102.06 0.65 c p3
192.52 101.18 0.65 c p3
192.80 101.18 0.65 c p3
193.08 101.18 0.65 c p3
193.36 103.43 0.65 c p3
193.64 103.82 0.65 c p3
193.92 102.94 0.65 c p3
194.20 102.94 0.65 c p3
194.48 101.18 0.65 c p3
194.76 104.71 0.65 c p3
195.04 103.43 0.65 c p3
195.32 100.30 0.65 c p3
195.60 100.79 0.65 c p3
195.88 102.55 0.65 c p3
196.16 99.91 0.65 c p3
196.44 100.79 0.65 c p3
196.72 100.30 0.65 c p3
197.00 101.18 0.65 c p3
197.28 101.67 0.65 c p3
197.56 101.18 0.65 c p3
197.84 99.91 0.65 c p3
198.12 99.04 0.65 c p3
198.40 97.68 0.65 c p3
198.68 98.17 0.65 c p3
198.96 95.56 0.65 c p3
199.24 98.55 0.65 c p3
199.52 100.30 0.65 c p3
199.80 99.91 0.65 c p3
200.08 99.91 0.65 c p3
200.36 102.06 0.65 c p3
200.64 98.55 0.65 c p3
200.92 99.91 0.65 c p3
201.20 98.17 0.65 c p3
201.48 98.17 0.65 c p3
201.76 99.04 0.65 c p3
202.04 96.81 0.65 c p3
202.32 99.43 0.65 c p3
202.60 97.29 0.65 c p3
202.88 98.17 0.65 c p3
203.16 99.91 0.65 c p3
203.44 96.43 0.65 c p3
203.72 98.17 0.65 c p3
204.00 97.29 0.65 c p3
204.28 97.68 0.65 c p3
204.56 99.04 0.65 c p3
204.84 97.68 0.65 c p3
205.12 96.81 0.65 c p3
205.40 95.94 0.65 c p3
205.68 96.43 0.65 c p3
205.96 96.81 0.65 c p3
206.24 95.08 0.65 c p3
206.52 98.17 0.65 c p3
206.80 98.17 0.65 c p3
207.08 98.17 0.65 c p3
207.36 98.55 0.65 c p3
207.64 97.29 0.65 c p3
207.92 97.68 0.65 c p3
208.20 94.21 0.65 c p3
208.48 94.21 0.65 c p3
208.76 94.21 0.65 c p3
209.04 92.97 0.65 c p3
209.32 93.83 0.65 c p3
209.60 93.35 0.65 c p3
209.88 96.43 0.65 c p3
210.16 94.69 0.65 c p3
210.44 95.08 0.65 c p3
210.72 95.08 0.65 c p3
211.00 95.56 0.65 c p3
211.28 95.08 0.65 c p3
211.56 94.69 0.65 c p3
211.84 95.08 0.65 c p3
212.12 94.69 0.65 c p3
212.40 92.49 0.65 c p3
212.68 93.35 0.65 c p3
212.96 95.94 0.65 c p3
213.24 94.21 0.65 c p3
213.52 93.83 0.65 c p3
213.80 94.69 0.65 c p3
214.08 94.21 0.65 c p3
214.36 95.08 0.65 c p3
214.64 92.10 0.65 c p3
214.92 93.83 0.65 c p3
215.20 92.10 0.65 c p3
215.48 94.21 0.65 c p3
215.76 90.77 0.65 c p3
216.04 93.83 0.65 c p3
216.32 89.91 0.65 c p3
216.60 92.97 0.65 c p3
216.88 93.83 0.65 c p3
217.16 94.69 0.65 c p3
217.44 94.69 0.65 c p3
217.72 94.69 0.65 c p3
218.00 93.83 0.65 c p3
216.00 201.60 367.20 247.68 cl
0 0 0 srgb
0.75 setlinewidth
[] 0 setdash
1 setlinecap
1 setlinejoin
10.00 setmiterlimit
221.60 225.69 0.43 c p1
221.95 218.08 0.43 c p1
222.29 223.59 0.43 c p1
222.64 229.10 0.43 c p1
222.98 222.79 0.43 c p1
223.33 226.62 0.43 c p1
223.67 229.12 0.43 c p1
224.02 225.74 0.43 c p1
224.37 224.00 0.43 c p1
224.71 217.75 0.43 c p1
225.06 230.19 0.43 c p1
225.40 221.33 0.43 c p1
225.75 217.99 0.43 c p1
226.09 218.79 0.43 c p1
226.44 221.17 0.43 c p1
226.79 219.41 0.43 c p1
227.13 220.17 0.43 c p1
227.48 226.95 0.43 c p1
227.82 230.54 0.43 c p1
228.17 227.14 0.43 c p1
228.51 228.16 0.43 c p1
228.86 226.02 0.43 c p1
229.20 219.82 0.43 c p1
229.55 218.02 0.43 c p1
229.90 223.05 0.43 c p1
230.24 230.91 0.43 c p1
230.59 228.73 0.43 c p1
230.93 230.92 0.43 c p1
231.28 226.25 0.43 c p1
231.62 228.42 0.43 c p1
231.97 229.02 0.43 c p1
232.32 221.60 0.43 c p1
232.66 224.95 0.43 c p1
233.01 223.07 0.43 c p1
233.35 222.42 0.43 c p1
233.70 217.81 0.43 c p1
234.04 225.05 0.43 c p1
234.39 216.49 0.43 c p1
234.74 210.42 0.43 c p1
235.08 224.50 0.43 c p1
235.43 222.59 0.43 c p1
235.77 230.05 0.43 c p1
236.12 226.59 0.43 c p1
236.46 229.78 0.43 c p1
236.81 233.27 0.43 c p1
237.16 228.29 0.43 c p1
237.50 219.46 0.43 c p1
237.85 222.88 0.43 c p1
238.19 230.18 0.43 c p1
238.54 229.40 0.43 c p1
238.88 232.49 0.43 c p1
239.23 229.01 0.43 c p1
239.58 228.21 0.43 c p1
239.92 220.91 0.43 c p1
240.27 225.41 0.43 c p1
240.61 219.31 0.43 c p1
240.96 227.60 0.43 c p1
241.30 229.41 0.43 c p1
241.65 219.50 0.43 c p1
242.00 222.46 0.43 c p1
242.34 221.62 0.43 c p1
242.69 215.56 0.43 c p1
243.03 217.32 0.43 c p1
243.38 224.28 0.43 c p1
243.72 226.02 0.43 c p1
244.07 222.53 0.43 c p1
244.41 229.46 0.43 c p1
244.76 231.16 0.43 c p1
245.11 223.90 0.43 c p1
245.45 228.17 0.43 c p1
245.80 223.52 0.43 c p1
246.14 214.91 0.43 c p1
246.49 216.56 0.43 c p1
246.83 220.76 0.43 c p1
247.18 223.53 0.43 c p1
247.53 222.59 0.43 c p1
247.87 223.07 0.43 c p1
248.22 225.80 0.43 c p1
248.56 227.39 0.43 c p1
248.91 228.97 0.43 c p1
249.25 230.54 0.43 c p1
249.60 232.10 0.43 c p1
249.95 232.52 0.43 c p1
250.29 225.01 0.43 c p1
250.64 226.55 0.43 c p1
250.98 228.07 0.43 c p1
251.33 224.53 0.43 c p1
251.67 227.43 0.43 c p1
252.02 223.89 0.43 c p1
252.37 226.49 0.43 c p1
252.71 233.00 0.43 c p1
253.06 226.91 0.43 c p1
253.40 230.88 0.43 c p1
253.75 228.70 0.43 c p1
254.09 215.21 0.43 c p1
254.44 221.59 0.43 c p1
254.79 220.53 0.43 c p1
255.13 219.47 0.43 c p1
255.48 224.45 0.43 c p1
255.82 230.81 0.43 c p1
256.17 224.75 0.43 c p1
256.51 222.56 0.43 c p1
256.86 227.49 0.43 c p1
257.20 228.85 0.43 c p1
257.55 232.67 0.43 c p1
257.90 229.07 0.43 c p1
258.24 220.85 0.43 c p1
258.59 222.18 0.43 c p1
258.93 221.05 0.43 c p1
259.28 222.36 0.43 c p1
259.62 221.22 0.43 c p1
259.97 227.39 0.43 c p1
260.32 223.80 0.43 c p1
260.66 226.15 0.43 c p1
261.01 229.86 0.43 c p1
261.35 220.32 0.43 c p1
261.70 231.29 0.43 c p1
262.04 227.66 0.43 c p1
262.39 225.13 0.43 c p1
262.74 220.46 0.43 c p1
263.08 220.35 0.43 c p1
263.43 221.56 0.43 c p1
263.77 226.51 0.43 c p1
264.12 226.37 0.43 c p1
264.46 225.15 0.43 c p1
264.81 225.27 0.43 c p1
265.16 224.04 0.43 c p1
265.50 230.01 0.43 c p1
265.85 235.99 0.43 c p1
266.19 233.39 0.43 c p1
266.54 226.28 0.43 c p1
266.88 218.96 0.43 c p1
267.23 221.41 0.43 c p1
267.58 224.91 0.43 c p1
267.92 223.65 0.43 c p1
268.27 221.07 0.43 c p1
268.61 225.86 0.43 c p1
268.96 222.22 0.43 c p1
269.30 224.36 0.43 c p1
269.65 230.18 0.43 c p1
270.00 227.84 0.43 c p1
270.34 225.23 0.43 c p1
270.69 227.60 0.43 c p1
271.03 222.64 0.43 c p1
271.38 219.26 0.43 c p1
271.72 221.34 0.43 c p1
272.07 225.77 0.43 c p1
272.41 223.41 0.43 c p1
272.76 225.47 0.43 c p1
273.11 225.45 0.43 c p1
273.45 227.50 0.43 c p1
273.80 228.50 0.43 c p1
274.14 225.08 0.43 c p1
274.49 224.78 0.43 c p1
274.83 224.73 0.43 c p1
275.18 226.74 0.43 c p1
275.53 219.72 0.43 c p1
275.87 217.10 0.43 c p1
276.22 219.34 0.43 c p1
276.56 227.24 0.43 c p1
276.91 221.24 0.43 c p1
277.25 229.13 0.43 c p1
277.60 224.14 0.43 c p1
277.95 221.74 0.43 c p1
278.29 223.69 0.43 c p1
278.64 225.89 0.43 c p1
278.98 231.43 0.43 c p1
279.33 225.41 0.43 c p1
279.67 219.43 0.43 c p1
280.02 221.34 0.43 c p1
280.37 221.21 0.43 c p1
280.71 225.40 0.43 c p1
281.06 225.27 0.43 c p1
281.40 227.16 0.43 c p1
281.75 228.03 0.43 c p1
282.09 222.03 0.43 c p1
282.44 222.88 0.43 c p1
282.79 225.00 0.43 c p1
283.13 222.31 0.43 c p1
283.48 226.69 0.43 c p1
283.82 226.26 0.43 c p1
284.17 220.28 0.43 c p1
284.51 220.10 0.43 c p1
284.86 223.18 0.43 c p1
285.20 227.28 0.43 c p1
285.55 225.81 0.43 c p1
285.90 227.88 0.43 c p1
286.24 225.15 0.43 c p1
286.59 229.48 0.43 c p1
286.93 232.54 0.43 c p1
287.28 222.00 0.43 c p1
287.62 230.57 0.43 c p1
287.97 222.30 0.43 c p1
288.32 223.07 0.43 c p1
288.66 216.12 0.43 c p1
289.01 221.36 0.43 c p1
289.35 222.11 0.43 c p1
289.70 226.11 0.43 c p1
290.04 218.14 0.43 c p1
290.39 225.35 0.43 c p1
290.74 222.85 0.43 c p1
291.08 224.57 0.43 c p1
291.43 229.79 0.43 c p1
291.77 220.56 0.43 c p1
292.12 222.52 0.43 c p1
292.46 219.77 0.43 c p1
292.81 222.71 0.43 c p1
293.16 226.63 0.43 c p1
293.50 217.45 0.43 c p1
293.85 222.58 0.43 c p1
294.19 224.51 0.43 c p1
294.54 228.42 0.43 c p1
294.88 224.64 0.43 c p1
295.23 225.32 0.43 c p1
295.58 226.00 0.43 c p1
295.92 226.67 0.43 c p1
296.27 220.68 0.43 c p1
296.61 220.36 0.43 c p1
296.96 219.80 0.43 c p1
297.30 223.88 0.43 c p1
297.65 222.32 0.43 c p1
298.00 223.95 0.43 c p1
298.34 229.02 0.43 c p1
298.69 228.67 0.43 c p1
299.03 231.53 0.43 c p1
299.38 230.92 0.43 c p1
299.72 224.91 0.43 c p1
300.07 224.55 0.43 c p1
300.41 221.75 0.43 c p1
300.76 220.17 0.43 c p1
301.11 218.59 0.43 c p1
301.45 221.39 0.43 c p1
301.80 224.18 0.43 c p1
302.14 223.81 0.43 c p1
302.49 223.18 0.43 c p1
302.83 224.99 0.43 c p1
303.18 223.39 0.43 c p1
303.53 227.14 0.43 c p1
303.87 228.94 0.43 c p1
304.22 223.91 0.43 c p1
304.56 227.89 0.43 c p1
304.91 221.90 0.43 c p1
305.25 214.74 0.43 c p1
305.60 223.03 0.43 c p1
305.95 225.77 0.43 c p1
306.29 221.96 0.43 c p1
306.64 229.06 0.43 c p1
306.98 226.21 0.43 c p1
307.33 224.57 0.43 c p1
307.67 230.69 0.43 c p1
308.02 232.21 0.43 c p1
308.37 226.19 0.43 c p1
308.71 226.72 0.43 c p1
309.06 221.94 0.43 c p1
309.40 218.14 0.43 c p1
309.75 222.98 0.43 c p1
310.09 219.17 0.43 c p1
310.44 219.69 0.43 c p1
310.79 226.69 0.43 c p1
311.13 223.83 0.43 c p1
311.48 219.06 0.43 c p1
311.82 224.84 0.43 c p1
312.17 225.33 0.43 c p1
312.51 221.51 0.43 c p1
312.86 221.05 0.43 c p1
313.20 223.69 0.43 c p1
313.55 222.02 0.43 c p1
313.90 226.82 0.43 c p1
314.24 227.30 0.43 c p1
314.59 223.46 0.43 c p1
314.93 228.25 0.43 c p1
315.28 226.56 0.43 c p1
315.62 220.58 0.43 c p1
315.97 229.65 0.43 c p1
316.32 227.96 0.43 c p1
316.66 221.96 0.43 c p1
317.01 222.42 0.43 c p1
317.35 223.83 0.43 c p1
317.70 218.10 0.43 c p1
318.04 217.36 0.43 c p1
318.39 224.22 0.43 c p1
318.74 225.61 0.43 c p1
319.08 228.20 0.43 c p1
319.43 224.34 0.43 c p1
319.77 226.92 0.43 c p1
320.12 227.35 0.43 c p1
320.46 227.78 0.43 c p1
320.81 226.06 0.43 c p1
321.16 221.26 0.43 c p1
321.50 218.61 0.43 c p1
321.85 226.37 0.43 c p1
322.19 225.60 0.43 c p1
322.54 221.98 0.43 c p1
322.88 223.34 0.43 c p1
323.23 226.83 0.43 c p1
323.58 224.15 0.43 c p1
323.92 220.30 0.43 c p1
324.27 219.76 0.43 c p1
324.61 224.41 0.43 c p1
324.96 224.80 0.43 c p1
325.30 221.89 0.43 c p1
325.65 222.28 0.43 c p1
326.00 224.79 0.43 c p1
326.34 219.99 0.43 c p1
326.69 218.26 0.43 c p1
327.03 223.81 0.43 c p1
327.38 224.19 0.43 c p1
327.72 230.00 0.43 c p1
328.07 231.33 0.43 c p1
328.41 229.56 0.43 c p1
328.76 226.86 0.43 c p1
329.11 226.04 0.43 c p1
329.45 225.46 0.43 c p1
329.80 222.53 0.43 c p1
330.14 220.78 0.43 c p1
330.49 221.14 0.43 c p1
330.83 221.49 0.43 c p1
331.18 227.25 0.43 c p1
331.53 228.54 0.43 c p1
331.87 226.77 0.43 c p1
332.22 227.12 0.43 c p1
332.56 223.23 0.43 c p1
332.91 232.05 0.43 c p1
333.25 229.32 0.43 c p1
333.60 222.14 0.43 c p1
333.95 223.65 0.43 c p1
334.29 228.20 0.43 c p1
334.64 222.20 0.43 c p1
334.98 224.64 0.43 c p1
335.33 223.80 0.43 c p1
335.67 226.23 0.43 c p1
336.02 227.72 0.43 c p1
336.37 226.87 0.43 c p1
336.71 224.15 0.43 c p1
337.06 222.36 0.43 c p1
337.40 219.42 0.43 c p1
337.75 220.89 0.43 c p1
338.09 214.94 0.43 c p1
338.44 222.44 0.43 c p1
338.79 226.95 0.43 c p1
339.13 226.32 0.43 c p1
339.48 226.63 0.43 c p1
339.82 232.08 0.43 c p1
340.17 223.96 0.43 c p1
340.51 227.52 0.43 c p1
340.86 223.62 0.43 c p1
341.20 223.91 0.43 c p1
341.55 226.30 0.43 c p1
341.90 221.24 0.43 c p1
342.24 227.81 0.43 c p1
342.59 222.98 0.43 c p1
342.93 225.35 0.43 c p1
343.28 229.84 0.43 c p1
343.62 221.74 0.43 c p1
343.97 226.20 0.43 c p1
344.32 224.38 0.43 c p1
344.66 225.59 0.43 c p1
345.01 229.12 0.43 c p1
345.35 226.13 0.43 c p1
345.70 224.31 0.43 c p1
346.04 222.49 0.43 c p1
346.39 223.92 0.43 c p1
346.74 225.11 0.43 c p1
347.08 221.21 0.43 c p1
347.43 228.89 0.43 c p1
347.77 229.16 0.43 c p1
348.12 229.41 0.43 c p1
348.46 230.60 0.43 c p1
348.81 227.83 0.43 c p1
349.16 229.02 0.43 c p1
349.50 220.93 0.43 c p1
349.85 221.18 0.43 c p1
350.19 221.43 0.43 c p1
350.54 218.68 0.43 c p1
350.88 221.00 0.43 c p1
351.23 220.09 0.43 c p1
351.58 227.73 0.43 c p1
351.92 223.81 0.43 c p1
352.27 224.97 0.43 c p1
352.61 225.21 0.43 c p1
352.96 226.60 0.43 c p1
353.30 225.68 0.43 c p1
353.65 224.99 0.43 c p1
354.00 226.15 0.43 c p1
354.34 225.46 0.43 c p1
354.69 220.39 0.43 c p1
355.03 222.69 0.43 c p1
355.38 229.15 0.43 c p1
355.72 225.21 0.43 c p1
356.07 224.51 0.43 c p1
356.41 226.81 0.43 c p1
356.76 225.88 0.43 c p1
357.11 228.18 0.43 c p1
357.45 221.25 0.43 c p1
357.80 225.61 0.43 c p1
358.14 221.69 0.43 c p1
358.49 226.96 0.43 c p1
358.83 218.90 0.43 c p1
359.18 226.47 0.43 c p1
359.53 217.27 0.43 c p1
359.87 224.81 0.43 c p1
360.22 227.09 0.43 c p1
360.56 229.38 0.43 c p1
360.91 229.58 0.43 c p1
361.25 229.78 0.43 c p1
361.60 227.91 0.43 c p1
0.00 0.00 432.00 576.00 cl
0 0 0 srgb
0.75 setlinewidth
[] 0 setdash
1 setlinecap
1 setlinejoin
10.00 setmiterlimit
np
247.53 201.60 m
103.70 0 l
o
np
247.53 201.60 m
0 -5.76 l
o
np
282.09 201.60 m
0 -5.76 l
o
np
316.66 201.60 m
0 -5.76 l
o
np
351.23 201.60 m
0 -5.76 l
o
/Font1 findfont 6 s
247.53 185.47 (100) .5 0 t
282.09 185.47 (200) .5 0 t
316.66 185.47 (300) .5 0 t
351.23 185.47 (400) .5 0 t
np
216.00 212.60 m
0 24.08 l
o
np
216.00 212.60 m
-5.76 0 l
o
np
216.00 224.64 m
-5.76 0 l
o
np
216.00 236.68 m
-5.76 0 l
o
209.09 210.44 (-0.005) 1 0 t
209.09 222.49 (0.000) 1 0 t
209.09 234.53 (0.005) 1 0 t
np
216.00 201.60 m
151.20 0 l
0 46.08 l
-151.20 0 l
0 -46.08 l
o
0.00 0.00 432.00 576.00 cl
/Font1 findfont 9 s
0 0 0 srgb
291.60 262.88 (Residuen) .5 0 t
59.04 73.44 401.76 516.96 cl
ep
%%Trailer
%%Pages: 1
%%EOF
