%!PS-Adobe-3.0 EPSF-3.0
%%DocumentNeededResources: font Helvetica
%%+ font Helvetica-Bold
%%+ font Helvetica-Oblique
%%+ font Helvetica-BoldOblique
%%+ font Symbol
%%Title: R Graphics Output
%%Creator: R Software
%%Pages: (atend)
%%BoundingBox: 0 0 432 576
%%EndComments
%%BeginProlog
/bp  { gs sRGB gs } def
% begin .ps.prolog
/gs  { gsave } bind def
/gr  { grestore } bind def
/ep  { showpage gr gr } bind def
/m   { moveto } bind def
/l  { rlineto } bind def
/np  { newpath } bind def
/cp  { closepath } bind def
/f   { fill } bind def
/o   { stroke } bind def
/c   { newpath 0 360 arc } bind def
/r   { 4 2 roll moveto 1 copy 3 -1 roll exch 0 exch rlineto 0 rlineto -1 mul 0 exch rlineto closepath } bind def
/p1  { stroke } bind def
/p2  { gsave bg fill grestore newpath } bind def
/p3  { gsave bg fill grestore stroke } bind def
/p6  { gsave bg eofill grestore newpath } bind def
/p7  { gsave bg eofill grestore stroke } bind def
/t   { 5 -2 roll moveto gsave rotate
       1 index stringwidth pop
       mul neg 0 rmoveto show grestore } bind def
/ta  { 4 -2 roll moveto gsave rotate show } bind def
/tb  { 2 -1 roll 0 rmoveto show } bind def
/cl  { grestore gsave newpath 3 index 3 index moveto 1 index
       4 -1 roll lineto  exch 1 index lineto lineto
       closepath clip newpath } bind def
/rgb { setrgbcolor } bind def
/s   { scalefont setfont } bind def
% end   .ps.prolog
/sRGB { [ /CIEBasedABC
          << /DecodeLMN
               [ { dup 0.03928 le
                        {12.92321 div}
                        {0.055 add 1.055 div 2.4 exp }
                     ifelse
                 } bind dup dup
               ]
             /MatrixLMN [0.412457 0.212673 0.019334
                         0.357576 0.715152 0.119192
                         0.180437 0.072175 0.950301]
             /WhitePoint [0.9505 1.0 1.0890]
           >>
         ] setcolorspace } bind def
/srgb { setcolor } bind def
%%IncludeResource: font Helvetica
/Helvetica findfont
dup length dict begin
  {1 index /FID ne {def} {pop pop} ifelse} forall
  /Encoding ISOLatin1Encoding def
  currentdict
  end
/Font1 exch definefont pop
%%IncludeResource: font Helvetica-Bold
/Helvetica-Bold findfont
dup length dict begin
  {1 index /FID ne {def} {pop pop} ifelse} forall
  /Encoding ISOLatin1Encoding def
  currentdict
  end
/Font2 exch definefont pop
%%IncludeResource: font Helvetica-Oblique
/Helvetica-Oblique findfont
dup length dict begin
  {1 index /FID ne {def} {pop pop} ifelse} forall
  /Encoding ISOLatin1Encoding def
  currentdict
  end
/Font3 exch definefont pop
%%IncludeResource: font Helvetica-BoldOblique
/Helvetica-BoldOblique findfont
dup length dict begin
  {1 index /FID ne {def} {pop pop} ifelse} forall
  /Encoding ISOLatin1Encoding def
  currentdict
  end
/Font4 exch definefont pop
%%IncludeResource: font Symbol
/Symbol findfont
dup length dict begin
  {1 index /FID ne {def} {pop pop} ifelse} forall
  currentdict
  end
/Font5 exch definefont pop
%%EndProlog
%%Page: 1 1
bp
0.00 0.00 432.00 576.00 cl
0.00 0.00 432.00 576.00 cl
0.00 0.00 432.00 576.00 cl
/Font1 findfont 12 s
0 0 0 srgb
48.00 508.72 (PCP-ETH) 0 0 t
48.00 494.89 (Blitzlicht-Photolyse) 0 0 t
/Font1 findfont 9 s
48.00 457.54 (File: Dy) 0 ta
-0.180 (e_0_1_V2_900V) tb
-1.125 (.dat) tb gr
48.00 334.87 (T) 0 ta
-1.080 (ue Apr  9 22:05:42 2019) tb gr
48.00 430.87 (Fitfunktion:  a + b * e) 0 ta
-0.270 (xp\(-c * t\)) tb gr
48.00 420.50 (t-Inter) 0 ta
0.270 (v) tb
-0.225 (all: 120.000 ... 1070.000 ms) tb gr
48.00 410.14 (P) 0 ta
-0.360 (ar) tb
-0.090 (ameter \(Standardabw) tb
-0.090 (eichung\):) tb gr
48.00 399.77 (  a = 0.01168 \(0.00042\)) 0 0 t
48.00 389.40 (  b = 0.26121 \(0.00405\)) 0 0 t
48.00 379.03 (  c = 5.357e+00 \(8.534e-02\) s^-1) 0 0 t
48.00 368.66 (  tau = 1.867e-01 \(2.974e-03\) s) 0 0 t
216.00 345.60 388.80 518.40 cl
0 0 0 srgb
0.75 setlinewidth
[] 0 setdash
1 setlinecap
1 setlinejoin
10.00 setmiterlimit
np
222.40 504.60 m
0.15 0.24 l
0.14 -0.70 l
0.15 0.33 l
0.14 -0.33 l
0.15 0.23 l
0.14 -0.23 l
0.15 0.70 l
0.14 -0.60 l
0.15 0 l
0.15 0 l
0.14 0.47 l
0.15 -0.70 l
0.14 0.83 l
0.15 -0.60 l
0.14 0.47 l
0.15 -0.24 l
0.14 0.47 l
0.15 -0.80 l
0.15 0.33 l
0.14 -0.23 l
0.15 0.60 l
0.14 -0.24 l
0.15 -0.13 l
0.14 -0.46 l
0.15 0.46 l
0.15 -0.33 l
0.14 0.33 l
0.15 -0.56 l
0.14 0.80 l
0.15 -0.24 l
0.14 0.37 l
0.15 -1.29 l
0.14 1.39 l
0.15 -0.80 l
0.15 0.46 l
0.14 -0.82 l
0.15 0.59 l
0.14 -0.23 l
0.15 0.33 l
0.14 -0.23 l
0.15 0.47 l
0.14 -0.47 l
0.15 0.70 l
0.15 -1.16 l
0.14 0.59 l
0.15 0.34 l
0.14 -0.47 l
0.15 0.23 l
0.14 0.24 l
0.15 -0.80 l
0.14 0.56 l
0.15 -0.46 l
0.15 0.36 l
0.14 -0.46 l
0.15 0.33 l
0.14 0.13 l
0.15 0.10 l
0.14 0.24 l
0.15 -0.11 l
0.15 0.11 l
0.14 0 l
0.15 -0.47 l
0.14 -0.10 l
0.15 0.46 l
0.14 -0.13 l
0.15 -0.23 l
0.14 0.60 l
0.15 0 l
0.15 -0.37 l
0.14 0 l
0.15 -0.23 l
0.14 -0.23 l
0.15 0.46 l
0.14 0.13 l
0.15 -0.13 l
0.14 -0.46 l
0.15 0.83 l
0.15 -0.83 l
0.14 0.83 l
0.15 -0.37 l
0.14 0.13 l
0.15 -1.05 l
0.14 1.05 l
0.15 -0.46 l
0.14 0.70 l
0.15 -0.70 l
0.15 0.80 l
0.14 -0.70 l
0.15 -0.10 l
0.14 -0.23 l
0.15 0.69 l
0.14 -0.59 l
0.15 0.83 l
0.15 -0.93 l
0.14 1.26 l
0.15 -0.93 l
0.14 0.47 l
0.15 -1.03 l
0.14 1.26 l
236.96 430.22 lineto
0.14 1.95 l
0.15 3.59 l
0.15 2.89 l
0.14 2.89 l
0.15 1.85 l
0.14 3.35 l
0.15 2.79 l
0.14 2.08 l
0.15 2.89 l
0.14 1.86 l
0.15 2.65 l
0.15 2.09 l
0.14 1.62 l
0.15 1.73 l
0.14 2.78 l
0.15 0.80 l
0.14 1.99 l
0.15 1.13 l
0.14 1.62 l
0.15 1.63 l
0.15 1.62 l
0.14 1.16 l
0.15 1.26 l
0.14 0.83 l
0.15 0.93 l
0.14 1.59 l
0.15 0.93 l
0.15 0.47 l
0.14 1.16 l
0.15 0.59 l
0.14 1.13 l
0.15 -0.23 l
0.14 2.09 l
0.15 -0.47 l
0.14 0.93 l
0.15 0.13 l
0.15 1.26 l
0.14 -0.10 l
0.15 0.34 l
0.14 0.79 l
0.15 0 l
0.14 0.37 l
0.15 1.39 l
0.14 -0.83 l
0.15 0.70 l
0.15 0.36 l
0.14 0.69 l
0.15 0 l
0.14 0.47 l
0.15 0.23 l
0.14 0.34 l
0.15 -0.47 l
0.14 -0.10 l
0.15 1.49 l
0.15 -0.46 l
0.14 0.70 l
0.15 0.46 l
0.14 -0.59 l
0.15 0.59 l
0.14 -0.13 l
0.15 0.59 l
0.15 -0.23 l
0.14 0.57 l
0.15 -0.10 l
0.14 0.56 l
0.15 0.13 l
0.14 -0.59 l
0.15 0.69 l
0.14 0.13 l
0.15 0.11 l
0.15 0.69 l
0.14 -0.23 l
0.15 -0.23 l
0.14 0 l
0.15 0.59 l
0.14 0 l
0.15 -0.46 l
0.14 0.56 l
0.15 0.37 l
0.15 -0.37 l
0.14 0.37 l
0.15 0 l
0.14 -0.37 l
0.15 0.13 l
0.14 1.27 l
0.15 -1.27 l
0.14 0.80 l
0.15 -0.33 l
0.15 0.33 l
0.14 0.23 l
0.15 -0.23 l
0.14 0.13 l
0.15 1.03 l
0.14 -0.93 l
0.15 0.47 l
0.15 0.33 l
0.14 -0.33 l
0.15 0.46 l
0.14 0.34 l
251.52 500.99 lineto
0.14 -0.46 l
0.15 0.36 l
0.14 0.57 l
0.15 -0.10 l
0.15 -0.24 l
0.14 0.11 l
0.15 0.13 l
0.14 0.23 l
0.15 -0.23 l
0.14 0 l
0.15 0.33 l
0.14 0.23 l
0.15 0.23 l
0.15 -0.46 l
0.14 0.70 l
0.15 -0.80 l
0.14 0 l
0.15 0.23 l
0.14 0.80 l
0.15 -0.10 l
0.14 -0.13 l
0.15 -0.70 l
0.15 1.06 l
0.14 -0.60 l
0.15 0.60 l
0.14 -0.47 l
0.15 0.70 l
0.14 -0.23 l
0.15 0.46 l
0.14 -0.82 l
0.15 0.36 l
0.15 0.10 l
0.14 0.59 l
0.15 -0.82 l
0.14 0.36 l
0.15 0.57 l
0.14 -0.47 l
0.15 0.70 l
0.15 -0.23 l
0.14 0 l
0.15 -0.24 l
0.14 0.24 l
0.15 0.13 l
0.14 -0.24 l
0.15 0.70 l
0.14 -0.46 l
0.15 1.16 l
0.15 -0.13 l
0.14 -0.47 l
0.15 -0.80 l
0.14 0.34 l
0.15 0.36 l
0.14 0.10 l
0.15 -0.10 l
0.14 0.33 l
0.15 -0.23 l
0.15 0.23 l
0.14 0 l
0.15 0.13 l
0.14 0.34 l
0.15 -0.80 l
0.14 0.57 l
0.15 0.33 l
0.14 -0.20 l
0.15 0.43 l
0.15 -0.56 l
0.14 0.33 l
0.15 0.23 l
0.14 -0.10 l
0.15 -0.23 l
0.14 0.23 l
0.15 0.34 l
0.15 0.23 l
0.14 -0.57 l
0.15 0.57 l
0.14 -0.34 l
0.15 0.23 l
0.14 0.11 l
0.15 -0.23 l
0.14 0.46 l
0.15 0.36 l
0.15 -0.46 l
0.14 0 l
0.15 0.10 l
0.14 0.59 l
0.15 -0.13 l
0.14 -0.23 l
0.15 0 l
0.14 -0.10 l
0.15 0.10 l
0.15 0 l
0.14 -0.10 l
0.15 0.33 l
0.14 0 l
0.15 0 l
0.14 0.13 l
0.15 0.11 l
0.14 -0.34 l
0.15 0.46 l
266.08 506.20 lineto
0.14 0.59 l
0.15 0.24 l
0.14 -0.36 l
0.15 0.59 l
0.14 -0.59 l
0.15 -0.11 l
0.15 0.23 l
0.14 0 l
0.15 0.47 l
0.14 -0.13 l
0.15 0.13 l
0.14 -0.93 l
0.15 1.03 l
0.14 0 l
0.15 0.23 l
0.15 -0.56 l
0.14 0.33 l
0.15 0.36 l
0.14 -0.46 l
0.15 0.69 l
0.14 0.34 l
0.15 -1.03 l
0.14 0.80 l
0.15 -0.11 l
0.15 -0.23 l
0.14 0.10 l
0.15 0 l
0.14 0.24 l
0.15 0.46 l
0.14 -1.16 l
0.15 0.46 l
0.14 0.13 l
0.15 0.11 l
0.15 -0.11 l
0.14 -0.13 l
0.15 0.37 l
0.14 0.10 l
0.15 -0.34 l
0.14 0.34 l
0.15 0 l
0.15 0.36 l
0.14 -0.13 l
0.15 -0.10 l
0.14 0.10 l
0.15 0.36 l
0.14 -0.59 l
0.15 0.46 l
0.14 -0.46 l
0.15 0.46 l
0.15 -0.23 l
0.14 0.36 l
0.15 -0.82 l
0.14 1.16 l
0.15 -0.24 l
0.14 0 l
0.15 -0.23 l
0.14 -0.10 l
0.15 0.10 l
0.15 0.47 l
0.14 -0.11 l
0.15 -0.36 l
0.14 0.47 l
0.15 -0.34 l
0.14 -0.13 l
0.15 0.70 l
0.14 0.23 l
0.15 -0.33 l
0.15 -0.13 l
0.14 -0.24 l
0.15 0.24 l
0.14 0.23 l
0.15 0.23 l
0.14 -0.57 l
0.15 0.24 l
0.15 0.46 l
0.14 -0.46 l
0.15 0.10 l
0.14 0.46 l
0.15 0.11 l
0.14 -0.21 l
0.15 0.21 l
0.14 -0.57 l
0.15 0.46 l
0.15 -0.33 l
0.14 0.56 l
0.15 -0.56 l
0.14 0.80 l
0.15 -0.57 l
0.14 0.33 l
0.15 -0.23 l
0.14 0 l
0.15 0.23 l
0.15 0 l
0.14 -0.56 l
0.15 0.23 l
0.14 0.21 l
0.15 0.82 l
0.14 -0.70 l
0.15 0.11 l
280.63 510.02 lineto
0.15 0.23 l
0.15 -0.23 l
0.14 0.69 l
0.15 -0.23 l
0.14 -0.23 l
0.15 -0.44 l
0.14 0.33 l
0.15 0.47 l
0.15 0.10 l
0.14 -0.57 l
0.15 0.24 l
0.14 0 l
0.15 0.46 l
0.14 -0.23 l
0.15 0.10 l
0.14 -0.33 l
0.15 0.46 l
0.15 -0.82 l
0.14 0.46 l
0.15 0.13 l
0.14 0.23 l
0.15 -0.46 l
0.14 -0.47 l
0.15 1.03 l
0.14 0.13 l
0.15 -0.69 l
0.15 0.10 l
0.14 -0.34 l
0.15 1.16 l
0.14 -0.59 l
0.15 0.36 l
0.14 -1.05 l
0.15 1.28 l
0.14 -1.16 l
0.15 1.16 l
0.15 -0.46 l
0.14 -0.13 l
0.15 -0.23 l
0.14 0.70 l
0.15 -0.70 l
0.14 0.46 l
0.15 -0.10 l
0.14 0.70 l
0.15 -0.47 l
0.15 -0.59 l
0.14 0.82 l
0.15 -0.69 l
0.14 -0.13 l
0.15 0.59 l
0.14 0 l
0.15 0 l
0.15 -0.13 l
0.14 0.13 l
0.15 -0.13 l
0.14 0.47 l
0.15 -0.23 l
0.14 -0.11 l
0.15 -0.59 l
0.14 0.70 l
0.15 0.23 l
0.15 -0.11 l
0.14 -0.59 l
0.15 0.83 l
0.14 -0.83 l
0.15 0.70 l
0.14 -0.34 l
0.15 -0.36 l
0.14 -0.23 l
0.15 0.70 l
0.15 -0.57 l
0.14 1.16 l
0.15 -0.23 l
0.14 -1.29 l
0.15 0.46 l
0.14 0.36 l
0.15 0.11 l
0.14 0.12 l
0.15 -0.12 l
0.15 -0.11 l
0.14 -0.13 l
0.15 0 l
0.14 0.36 l
0.15 -0.36 l
0.14 0.47 l
0.15 0.23 l
0.15 -0.57 l
0.14 0.57 l
0.15 -0.70 l
0.14 1.06 l
0.15 -1.16 l
0.14 0.80 l
0.15 -0.23 l
0.14 0 l
0.15 -0.47 l
0.15 -0.33 l
0.14 0.69 l
0.15 -0.36 l
0.14 0 l
0.15 -0.46 l
295.19 511.30 lineto
0.15 0.24 l
0.14 -0.70 l
0.15 0.10 l
0.15 0.13 l
0.14 0 l
0.15 -0.23 l
0.14 0.23 l
0.15 -0.23 l
0.14 0.46 l
0.15 0.24 l
0.14 0 l
0.15 -0.60 l
0.15 -0.10 l
0.14 0.23 l
0.15 0 l
0.14 -0.23 l
0.15 0.23 l
0.14 -0.23 l
0.15 0.10 l
0.15 -0.33 l
0.14 0.57 l
0.15 -0.47 l
0.14 -0.10 l
0.15 0.23 l
0.14 0.10 l
0.15 0.47 l
0.14 -0.57 l
0.15 0 l
0.15 0 l
0.14 0.23 l
0.15 0.23 l
0.14 -0.69 l
0.15 0.46 l
0.14 -0.69 l
0.15 0.80 l
0.14 -0.47 l
0.15 0.13 l
0.15 0.10 l
0.14 0.24 l
0.15 -0.11 l
0.14 -0.13 l
0.15 -0.23 l
0.14 0 l
0.15 0.36 l
0.14 0 l
0.15 -0.36 l
0.15 0 l
0.14 -0.46 l
0.15 0.23 l
0.14 -0.23 l
0.15 0.23 l
0.14 -0.10 l
0.15 0.46 l
0.15 -0.59 l
0.14 -0.11 l
0.15 0.80 l
0.14 -0.10 l
0.15 -0.23 l
0.14 -0.47 l
0.15 0.47 l
0.14 0.46 l
0.15 -0.69 l
0.15 0.33 l
0.14 -0.33 l
0.15 0.33 l
0.14 -0.90 l
0.15 0.80 l
0.14 0.10 l
0.15 0.13 l
0.14 -0.36 l
0.15 0.46 l
0.15 -1.03 l
0.14 0.70 l
0.15 0 l
0.14 0 l
0.15 -0.59 l
0.14 0.59 l
0.15 -0.59 l
0.14 0.46 l
0.15 -0.46 l
0.15 0.12 l
0.14 0.34 l
0.15 -0.46 l
0.14 0.23 l
0.15 0 l
0.14 -0.23 l
0.15 -0.44 l
0.15 0.10 l
0.14 0.70 l
0.15 -0.47 l
0.14 0.34 l
0.15 -0.44 l
0.14 0.21 l
0.15 -0.44 l
0.14 0.44 l
0.15 -0.11 l
0.15 0.47 l
0.14 -0.24 l
0.15 0 l
309.75 509.91 lineto
0.15 0 l
0.14 0 l
0.15 -0.10 l
0.14 0.10 l
0.15 0 l
0.15 -0.10 l
0.14 0.90 l
0.15 -0.90 l
0.14 -0.46 l
0.15 0.33 l
0.14 0.23 l
0.15 -0.69 l
0.14 0.59 l
0.15 0.10 l
0.15 -0.33 l
0.14 0 l
0.15 -0.47 l
0.14 0.47 l
0.15 0.44 l
0.14 -0.67 l
0.15 0 l
0.15 0.46 l
0.14 -0.23 l
0.15 -0.36 l
0.14 0.46 l
0.15 0 l
0.14 0.23 l
0.15 -0.56 l
0.14 -0.13 l
0.15 0.36 l
0.15 -0.36 l
0.14 -0.11 l
0.15 0.47 l
0.14 -0.83 l
0.15 0.36 l
0.14 -0.23 l
0.15 0.80 l
0.14 -0.70 l
0.15 0.47 l
0.15 -0.34 l
0.14 0.57 l
0.15 -0.10 l
0.14 -0.23 l
0.15 -0.24 l
0.14 -0.23 l
0.15 0.34 l
0.14 0.23 l
0.15 -0.23 l
0.15 -0.24 l
0.14 0.47 l
0.15 -0.47 l
0.14 0.37 l
0.15 0.23 l
0.14 -0.23 l
0.15 -0.47 l
0.15 0.10 l
0.14 0.37 l
0.15 -0.47 l
0.14 0.57 l
0.15 -0.47 l
0.14 0.13 l
0.15 -0.36 l
0.14 0.47 l
0.15 -0.70 l
0.15 0.36 l
0.14 0.10 l
0.15 0.13 l
0.14 0 l
0.15 -0.36 l
0.14 0.60 l
0.15 -0.37 l
0.14 0.47 l
0.15 -1.26 l
0.15 0.23 l
0.14 0.69 l
0.15 -0.23 l
0.14 0 l
0.15 -0.36 l
0.14 0.46 l
0.15 -0.23 l
0.14 -0.46 l
0.15 0.23 l
0.15 0 l
0.14 0 l
0.15 0.36 l
0.14 -0.36 l
0.15 0.13 l
0.14 -0.13 l
0.15 0.23 l
0.14 -0.46 l
0.15 -0.34 l
0.15 0.93 l
0.14 -0.36 l
0.15 -0.10 l
0.14 0 l
0.15 0.10 l
0.14 0.13 l
0.15 -0.13 l
0.15 -0.33 l
324.31 508.88 lineto
0.15 -0.82 l
0.14 -0.24 l
0.15 0.24 l
0.14 0.23 l
0.15 0.13 l
0.14 0 l
0.15 -0.70 l
0.15 0.10 l
0.14 1.06 l
0.15 -0.82 l
0.14 -0.24 l
0.15 0.13 l
0.14 0.47 l
0.15 -0.36 l
0.14 0.36 l
0.15 -0.36 l
0.15 -0.24 l
0.14 0.37 l
0.15 0 l
0.14 -0.37 l
0.15 0.37 l
0.14 -0.13 l
0.15 0.36 l
0.14 -0.13 l
0.15 -0.47 l
0.15 0.24 l
0.14 -0.24 l
0.15 -0.10 l
0.14 0 l
0.15 0 l
0.14 0.23 l
0.15 0 l
0.15 -0.23 l
0.14 0 l
0.15 0.10 l
0.14 -0.10 l
0.15 0.34 l
0.14 -0.34 l
0.15 0.23 l
0.14 -0.23 l
0.15 0.70 l
0.15 -0.93 l
0.14 0.10 l
0.15 0.13 l
0.14 -0.13 l
0.15 0.47 l
0.14 0 l
0.15 -0.11 l
0.14 0 l
0.15 -0.23 l
0.15 0.70 l
0.14 -0.70 l
0.15 0.34 l
0.14 -0.47 l
0.15 0 l
0.14 0.47 l
0.15 -0.34 l
0.14 -0.69 l
0.15 0.46 l
0.15 0 l
0.14 0 l
0.15 0.23 l
0.14 -0.36 l
0.15 0.23 l
0.14 0.13 l
0.15 0 l
0.15 0.10 l
0.14 -0.23 l
0.15 0.83 l
0.14 -1.39 l
0.15 0.33 l
0.14 -0.33 l
0.15 0.46 l
0.14 0 l
0.15 -0.36 l
0.15 -0.23 l
0.14 0.69 l
0.15 -0.23 l
0.14 -0.10 l
0.15 -0.23 l
0.14 0.33 l
0.15 0.23 l
0.14 -0.23 l
0.15 -0.69 l
0.15 1.05 l
0.14 -0.59 l
0.15 0.23 l
0.14 -0.23 l
0.15 0.46 l
0.14 -0.33 l
0.15 0.33 l
0.14 -1.03 l
0.15 0.57 l
0.15 0.23 l
0.14 -0.33 l
0.15 -0.36 l
0.14 0.92 l
0.15 -0.33 l
0.14 -0.36 l
338.87 507.49 lineto
0.15 -0.13 l
0.14 -0.10 l
0.15 -0.23 l
0.14 0.10 l
0.15 -0.10 l
0.14 0.79 l
0.15 -1.03 l
0.14 0.24 l
0.15 0 l
0.15 0.23 l
0.14 0 l
0.15 -0.47 l
0.14 0.34 l
0.15 0.36 l
0.14 -0.36 l
0.15 -0.10 l
0.14 -0.24 l
0.15 0.34 l
0.15 0 l
0.14 -0.10 l
0.15 0.10 l
0.14 0 l
0.15 0.46 l
0.14 -1.03 l
0.15 0.47 l
0.14 0.46 l
0.15 -0.82 l
0.15 -0.11 l
0.14 0.57 l
0.15 0.13 l
0.14 -0.36 l
0.15 -0.23 l
0.14 0.46 l
0.15 0.59 l
0.15 -0.93 l
0.14 0.24 l
0.15 -0.24 l
0.14 0.34 l
0.15 -0.34 l
0.14 0.34 l
0.15 -0.46 l
0.14 0.59 l
0.15 0 l
0.15 -0.13 l
0.14 0.36 l
0.15 -0.23 l
0.14 0.33 l
0.15 -0.46 l
0.14 0 l
0.15 0.13 l
0.14 -0.13 l
0.15 -0.46 l
0.15 0.23 l
0.14 0.13 l
0.15 0.10 l
0.14 0.23 l
0.15 -0.33 l
0.14 -0.13 l
0.15 -0.11 l
0.14 0 l
0.15 -0.12 l
0.15 0.12 l
0.14 0.57 l
0.15 -0.33 l
0.14 0 l
0.15 -0.24 l
0.14 0.57 l
0.15 -0.23 l
0.15 -0.10 l
0.14 0.10 l
0.15 -0.23 l
0.14 0.23 l
0.15 -0.34 l
0.14 0.57 l
0.15 -0.23 l
0.14 0.13 l
0.15 0.10 l
0.15 -0.80 l
0.14 0.80 l
0.15 -0.57 l
0.14 0.70 l
0.15 -1.16 l
0.14 1.03 l
0.15 -0.33 l
0.14 -0.70 l
0.15 0.34 l
0.15 0.59 l
0.14 -0.36 l
0.15 0.23 l
0.14 -0.57 l
0.15 0.70 l
0.14 -0.70 l
0.15 0.47 l
0.14 -0.36 l
0.15 0.59 l
0.15 -0.47 l
0.14 0.47 l
0.15 -0.23 l
0.14 0.46 l
353.43 507.13 lineto
0.14 0 l
0.15 -0.10 l
0.14 0.10 l
0.15 -0.23 l
0.15 0.36 l
0.14 -0.59 l
0.15 0.12 l
0.14 0.57 l
0.15 0.36 l
0.14 -0.93 l
0.15 0.47 l
0.15 0 l
0.14 -0.23 l
0.15 0.23 l
0.14 -0.23 l
0.15 0 l
0.14 -0.13 l
0.15 0 l
0.14 -0.11 l
0.15 0.47 l
0.15 -0.13 l
0.14 -0.46 l
0.15 0.12 l
0.14 -0.12 l
0.15 0.59 l
0.14 0 l
0.15 -0.23 l
0.14 0.46 l
0.15 -0.70 l
0.15 0 l
0.14 0.47 l
0.15 -0.23 l
0.14 0.33 l
0.15 -0.57 l
0.14 0.34 l
0.15 0.13 l
0.14 0 l
0.15 -0.59 l
0.15 0.46 l
0.14 -0.10 l
0.15 0 l
0.14 0.23 l
0.15 -0.23 l
0.14 -0.24 l
0.15 1.03 l
0.15 -0.92 l
0.14 0.13 l
0.15 0.33 l
0.14 -0.10 l
0.15 -0.36 l
0.14 0.23 l
0.15 -0.34 l
0.14 0.24 l
0.15 0.23 l
0.15 0 l
0.14 -0.23 l
0.15 -0.13 l
0.14 -0.11 l
0.15 0.47 l
0.14 -0.47 l
0.15 0.11 l
0.14 0.69 l
0.15 -0.23 l
0.15 -0.33 l
0.14 0.23 l
0.15 -0.23 l
0.14 0.10 l
0.15 -0.57 l
0.14 0.70 l
0.15 0 l
0.14 0.23 l
0.15 -0.46 l
0.15 0.33 l
0.14 -0.10 l
0.15 0.33 l
0.14 -0.56 l
0.15 0 l
0.14 0.46 l
0.15 -0.36 l
0.15 0.13 l
0.14 0.56 l
0.15 -0.46 l
0.14 -0.46 l
0.15 -0.23 l
0.14 0.23 l
0.15 0.69 l
0.14 -0.80 l
0.15 0.80 l
0.15 -0.10 l
0.14 -0.36 l
0.15 0.59 l
0.14 -0.36 l
0.15 -0.69 l
0.14 0.36 l
0.15 0.23 l
0.14 0.33 l
0.15 0.23 l
0.15 -0.92 l
0.14 0.46 l
currentpoint o m
367.99 507.36 lineto
0.14 0.36 l
0.15 -0.93 l
0.14 0.47 l
0.15 0.33 l
0.14 -0.33 l
0.15 0 l
0.15 0 l
0.14 0.23 l
0.15 0.10 l
0.14 0.13 l
0.15 -0.59 l
0.14 -0.10 l
0.15 0.69 l
0.15 -0.13 l
0.14 0.13 l
0.15 -0.46 l
0.14 0.10 l
0.15 -0.46 l
0.14 0.69 l
0.15 -0.23 l
0.14 -0.10 l
0.15 0 l
0.15 0.10 l
0.14 -0.23 l
0.15 0.46 l
0.14 -0.23 l
0.15 0 l
0.14 0 l
0.15 0 l
0.14 0 l
0.15 0 l
0.15 0.23 l
0.14 -0.10 l
0.15 -0.13 l
0.14 0.36 l
0.15 -0.23 l
0.14 -0.23 l
0.15 0 l
0.14 -0.13 l
0.15 0.13 l
0.15 0.80 l
0.14 -0.80 l
0.15 0.23 l
0.14 0 l
0.15 -0.13 l
0.14 0.23 l
0.15 0 l
0.15 -0.56 l
0.14 0.79 l
0.15 -0.46 l
0.14 0.46 l
0.15 -0.56 l
0.14 0.23 l
0.15 0.46 l
0.14 -0.92 l
0.15 0.33 l
0.15 -0.10 l
0.14 0.69 l
0.15 -0.23 l
0.14 -0.36 l
0.15 0.13 l
0.14 -0.13 l
0.15 0.36 l
0.14 -0.23 l
0.15 0.10 l
0.15 -0.23 l
0.14 0.83 l
0.15 -0.37 l
0.14 -0.46 l
0.15 0.23 l
0.14 0 l
0.15 0 l
0.14 0 l
0.15 -0.46 l
0.15 0.36 l
0.14 -0.13 l
0.15 0.46 l
0.14 -0.33 l
0.15 -0.23 l
0.14 0.56 l
0.15 -0.46 l
0.15 0.13 l
0.14 0.23 l
0.15 -0.23 l
0.14 0.46 l
0.15 -0.23 l
0.14 0.10 l
0.15 -0.23 l
0.14 -0.10 l
0.15 0.10 l
0.15 -0.23 l
0.14 0 l
0.15 0.70 l
0.14 -0.70 l
0.15 0.13 l
0.14 0.23 l
0.15 0.57 l
0.14 -1.03 l
0.15 0.69 l
o
/bg { 1 1 1 srgb } def
222.40 504.60 0.43 c p3
222.55 504.84 0.43 c p3
222.69 504.14 0.43 c p3
222.84 504.47 0.43 c p3
222.98 504.14 0.43 c p3
223.13 504.37 0.43 c p3
223.27 504.14 0.43 c p3
223.42 504.84 0.43 c p3
223.56 504.24 0.43 c p3
223.71 504.24 0.43 c p3
223.86 504.24 0.43 c p3
224.00 504.71 0.43 c p3
224.15 504.01 0.43 c p3
224.29 504.84 0.43 c p3
224.44 504.24 0.43 c p3
224.58 504.71 0.43 c p3
224.73 504.47 0.43 c p3
224.87 504.94 0.43 c p3
225.02 504.14 0.43 c p3
225.17 504.47 0.43 c p3
225.31 504.24 0.43 c p3
225.46 504.84 0.43 c p3
225.60 504.60 0.43 c p3
225.75 504.47 0.43 c p3
225.89 504.01 0.43 c p3
226.04 504.47 0.43 c p3
226.19 504.14 0.43 c p3
226.33 504.47 0.43 c p3
226.48 503.91 0.43 c p3
226.62 504.71 0.43 c p3
226.77 504.47 0.43 c p3
226.91 504.84 0.43 c p3
227.06 503.55 0.43 c p3
227.20 504.94 0.43 c p3
227.35 504.14 0.43 c p3
227.50 504.60 0.43 c p3
227.64 503.78 0.43 c p3
227.79 504.37 0.43 c p3
227.93 504.14 0.43 c p3
228.08 504.47 0.43 c p3
228.22 504.24 0.43 c p3
228.37 504.71 0.43 c p3
228.51 504.24 0.43 c p3
228.66 504.94 0.43 c p3
228.81 503.78 0.43 c p3
228.95 504.37 0.43 c p3
229.10 504.71 0.43 c p3
229.24 504.24 0.43 c p3
229.39 504.47 0.43 c p3
229.53 504.71 0.43 c p3
229.68 503.91 0.43 c p3
229.82 504.47 0.43 c p3
229.97 504.01 0.43 c p3
230.12 504.37 0.43 c p3
230.26 503.91 0.43 c p3
230.41 504.24 0.43 c p3
230.55 504.37 0.43 c p3
230.70 504.47 0.43 c p3
230.84 504.71 0.43 c p3
230.99 504.60 0.43 c p3
231.14 504.71 0.43 c p3
231.28 504.71 0.43 c p3
231.43 504.24 0.43 c p3
231.57 504.14 0.43 c p3
231.72 504.60 0.43 c p3
231.86 504.47 0.43 c p3
232.01 504.24 0.43 c p3
232.15 504.84 0.43 c p3
232.30 504.84 0.43 c p3
232.45 504.47 0.43 c p3
232.59 504.47 0.43 c p3
232.74 504.24 0.43 c p3
232.88 504.01 0.43 c p3
233.03 504.47 0.43 c p3
233.17 504.60 0.43 c p3
233.32 504.47 0.43 c p3
233.46 504.01 0.43 c p3
233.61 504.84 0.43 c p3
233.76 504.01 0.43 c p3
233.90 504.84 0.43 c p3
234.05 504.47 0.43 c p3
234.19 504.60 0.43 c p3
234.34 503.55 0.43 c p3
234.48 504.60 0.43 c p3
234.63 504.14 0.43 c p3
234.77 504.84 0.43 c p3
234.92 504.14 0.43 c p3
235.07 504.94 0.43 c p3
235.21 504.24 0.43 c p3
235.36 504.14 0.43 c p3
235.50 503.91 0.43 c p3
235.65 504.60 0.43 c p3
235.79 504.01 0.43 c p3
235.94 504.84 0.43 c p3
236.09 503.91 0.43 c p3
236.23 505.17 0.43 c p3
236.38 504.24 0.43 c p3
236.52 504.71 0.43 c p3
236.67 503.68 0.43 c p3
236.81 504.94 0.43 c p3
236.96 430.22 0.43 c p3
237.10 432.17 0.43 c p3
237.25 435.76 0.43 c p3
237.40 438.65 0.43 c p3
237.54 441.54 0.43 c p3
237.69 443.39 0.43 c p3
237.83 446.74 0.43 c p3
237.98 449.53 0.43 c p3
238.12 451.61 0.43 c p3
238.27 454.50 0.43 c p3
238.41 456.36 0.43 c p3
238.56 459.01 0.43 c p3
238.71 461.10 0.43 c p3
238.85 462.72 0.43 c p3
239.00 464.45 0.43 c p3
239.14 467.23 0.43 c p3
239.29 468.03 0.43 c p3
239.43 470.02 0.43 c p3
239.58 471.15 0.43 c p3
239.72 472.77 0.43 c p3
239.87 474.40 0.43 c p3
240.02 476.02 0.43 c p3
240.16 477.18 0.43 c p3
240.31 478.44 0.43 c p3
240.45 479.27 0.43 c p3
240.60 480.20 0.43 c p3
240.74 481.79 0.43 c p3
240.89 482.72 0.43 c p3
241.04 483.19 0.43 c p3
241.18 484.35 0.43 c p3
241.33 484.94 0.43 c p3
241.47 486.07 0.43 c p3
241.62 485.84 0.43 c p3
241.76 487.93 0.43 c p3
241.91 487.46 0.43 c p3
242.05 488.39 0.43 c p3
242.20 488.52 0.43 c p3
242.35 489.78 0.43 c p3
242.49 489.68 0.43 c p3
242.64 490.02 0.43 c p3
242.78 490.81 0.43 c p3
242.93 490.81 0.43 c p3
243.07 491.18 0.43 c p3
243.22 492.57 0.43 c p3
243.36 491.74 0.43 c p3
243.51 492.44 0.43 c p3
243.66 492.80 0.43 c p3
243.80 493.49 0.43 c p3
243.95 493.49 0.43 c p3
244.09 493.96 0.43 c p3
244.24 494.19 0.43 c p3
244.38 494.53 0.43 c p3
244.53 494.06 0.43 c p3
244.67 493.96 0.43 c p3
244.82 495.45 0.43 c p3
244.97 494.99 0.43 c p3
245.11 495.69 0.43 c p3
245.26 496.15 0.43 c p3
245.40 495.56 0.43 c p3
245.55 496.15 0.43 c p3
245.69 496.02 0.43 c p3
245.84 496.61 0.43 c p3
245.99 496.38 0.43 c p3
246.13 496.95 0.43 c p3
246.28 496.85 0.43 c p3
246.42 497.41 0.43 c p3
246.57 497.54 0.43 c p3
246.71 496.95 0.43 c p3
246.86 497.64 0.43 c p3
247.00 497.77 0.43 c p3
247.15 497.88 0.43 c p3
247.30 498.57 0.43 c p3
247.44 498.34 0.43 c p3
247.59 498.11 0.43 c p3
247.73 498.11 0.43 c p3
247.88 498.70 0.43 c p3
248.02 498.70 0.43 c p3
248.17 498.24 0.43 c p3
248.31 498.80 0.43 c p3
248.46 499.17 0.43 c p3
248.61 498.80 0.43 c p3
248.75 499.17 0.43 c p3
248.90 499.17 0.43 c p3
249.04 498.80 0.43 c p3
249.19 498.93 0.43 c p3
249.33 500.20 0.43 c p3
249.48 498.93 0.43 c p3
249.62 499.73 0.43 c p3
249.77 499.40 0.43 c p3
249.92 499.73 0.43 c p3
250.06 499.96 0.43 c p3
250.21 499.73 0.43 c p3
250.35 499.86 0.43 c p3
250.50 500.89 0.43 c p3
250.64 499.96 0.43 c p3
250.79 500.43 0.43 c p3
250.94 500.76 0.43 c p3
251.08 500.43 0.43 c p3
251.23 500.89 0.43 c p3
251.37 501.23 0.43 c p3
251.52 500.99 0.43 c p3
251.66 500.53 0.43 c p3
251.81 500.89 0.43 c p3
251.95 501.46 0.43 c p3
252.10 501.36 0.43 c p3
252.25 501.12 0.43 c p3
252.39 501.23 0.43 c p3
252.54 501.36 0.43 c p3
252.68 501.59 0.43 c p3
252.83 501.36 0.43 c p3
252.97 501.36 0.43 c p3
253.12 501.69 0.43 c p3
253.26 501.92 0.43 c p3
253.41 502.15 0.43 c p3
253.56 501.69 0.43 c p3
253.70 502.39 0.43 c p3
253.85 501.59 0.43 c p3
253.99 501.59 0.43 c p3
254.14 501.82 0.43 c p3
254.28 502.62 0.43 c p3
254.43 502.52 0.43 c p3
254.57 502.39 0.43 c p3
254.72 501.69 0.43 c p3
254.87 502.75 0.43 c p3
255.01 502.15 0.43 c p3
255.16 502.75 0.43 c p3
255.30 502.28 0.43 c p3
255.45 502.98 0.43 c p3
255.59 502.75 0.43 c p3
255.74 503.21 0.43 c p3
255.88 502.39 0.43 c p3
256.03 502.75 0.43 c p3
256.18 502.85 0.43 c p3
256.32 503.44 0.43 c p3
256.47 502.62 0.43 c p3
256.61 502.98 0.43 c p3
256.76 503.55 0.43 c p3
256.90 503.08 0.43 c p3
257.05 503.78 0.43 c p3
257.20 503.55 0.43 c p3
257.34 503.55 0.43 c p3
257.49 503.31 0.43 c p3
257.63 503.55 0.43 c p3
257.78 503.68 0.43 c p3
257.92 503.44 0.43 c p3
258.07 504.14 0.43 c p3
258.21 503.68 0.43 c p3
258.36 504.84 0.43 c p3
258.51 504.71 0.43 c p3
258.65 504.24 0.43 c p3
258.80 503.44 0.43 c p3
258.94 503.78 0.43 c p3
259.09 504.14 0.43 c p3
259.23 504.24 0.43 c p3
259.38 504.14 0.43 c p3
259.52 504.47 0.43 c p3
259.67 504.24 0.43 c p3
259.82 504.47 0.43 c p3
259.96 504.47 0.43 c p3
260.11 504.60 0.43 c p3
260.25 504.94 0.43 c p3
260.40 504.14 0.43 c p3
260.54 504.71 0.43 c p3
260.69 505.04 0.43 c p3
260.83 504.84 0.43 c p3
260.98 505.27 0.43 c p3
261.13 504.71 0.43 c p3
261.27 505.04 0.43 c p3
261.42 505.27 0.43 c p3
261.56 505.17 0.43 c p3
261.71 504.94 0.43 c p3
261.85 505.17 0.43 c p3
262.00 505.51 0.43 c p3
262.15 505.74 0.43 c p3
262.29 505.17 0.43 c p3
262.44 505.74 0.43 c p3
262.58 505.40 0.43 c p3
262.73 505.63 0.43 c p3
262.87 505.74 0.43 c p3
263.02 505.51 0.43 c p3
263.16 505.97 0.43 c p3
263.31 506.33 0.43 c p3
263.46 505.87 0.43 c p3
263.60 505.87 0.43 c p3
263.75 505.97 0.43 c p3
263.89 506.56 0.43 c p3
264.04 506.43 0.43 c p3
264.18 506.20 0.43 c p3
264.33 506.20 0.43 c p3
264.47 506.10 0.43 c p3
264.62 506.20 0.43 c p3
264.77 506.20 0.43 c p3
264.91 506.10 0.43 c p3
265.06 506.43 0.43 c p3
265.20 506.43 0.43 c p3
265.35 506.43 0.43 c p3
265.49 506.56 0.43 c p3
265.64 506.67 0.43 c p3
265.78 506.33 0.43 c p3
265.93 506.79 0.43 c p3
266.08 506.20 0.43 c p3
266.22 506.79 0.43 c p3
266.37 507.03 0.43 c p3
266.51 506.67 0.43 c p3
266.66 507.26 0.43 c p3
266.80 506.67 0.43 c p3
266.95 506.56 0.43 c p3
267.10 506.79 0.43 c p3
267.24 506.79 0.43 c p3
267.39 507.26 0.43 c p3
267.53 507.13 0.43 c p3
267.68 507.26 0.43 c p3
267.82 506.33 0.43 c p3
267.97 507.36 0.43 c p3
268.11 507.36 0.43 c p3
268.26 507.59 0.43 c p3
268.41 507.03 0.43 c p3
268.55 507.36 0.43 c p3
268.70 507.72 0.43 c p3
268.84 507.26 0.43 c p3
268.99 507.95 0.43 c p3
269.13 508.29 0.43 c p3
269.28 507.26 0.43 c p3
269.42 508.06 0.43 c p3
269.57 507.95 0.43 c p3
269.72 507.72 0.43 c p3
269.86 507.82 0.43 c p3
270.01 507.82 0.43 c p3
270.15 508.06 0.43 c p3
270.30 508.52 0.43 c p3
270.44 507.36 0.43 c p3
270.59 507.82 0.43 c p3
270.73 507.95 0.43 c p3
270.88 508.06 0.43 c p3
271.03 507.95 0.43 c p3
271.17 507.82 0.43 c p3
271.32 508.19 0.43 c p3
271.46 508.29 0.43 c p3
271.61 507.95 0.43 c p3
271.75 508.29 0.43 c p3
271.90 508.29 0.43 c p3
272.05 508.65 0.43 c p3
272.19 508.52 0.43 c p3
272.34 508.42 0.43 c p3
272.48 508.52 0.43 c p3
272.63 508.88 0.43 c p3
272.77 508.29 0.43 c p3
272.92 508.75 0.43 c p3
273.06 508.29 0.43 c p3
273.21 508.75 0.43 c p3
273.36 508.52 0.43 c p3
273.50 508.88 0.43 c p3
273.65 508.06 0.43 c p3
273.79 509.22 0.43 c p3
273.94 508.98 0.43 c p3
274.08 508.98 0.43 c p3
274.23 508.75 0.43 c p3
274.37 508.65 0.43 c p3
274.52 508.75 0.43 c p3
274.67 509.22 0.43 c p3
274.81 509.11 0.43 c p3
274.96 508.75 0.43 c p3
275.10 509.22 0.43 c p3
275.25 508.88 0.43 c p3
275.39 508.75 0.43 c p3
275.54 509.45 0.43 c p3
275.68 509.68 0.43 c p3
275.83 509.35 0.43 c p3
275.98 509.22 0.43 c p3
276.12 508.98 0.43 c p3
276.27 509.22 0.43 c p3
276.41 509.45 0.43 c p3
276.56 509.68 0.43 c p3
276.70 509.11 0.43 c p3
276.85 509.35 0.43 c p3
277.00 509.81 0.43 c p3
277.14 509.35 0.43 c p3
277.29 509.45 0.43 c p3
277.43 509.91 0.43 c p3
277.58 510.02 0.43 c p3
277.72 509.81 0.43 c p3
277.87 510.02 0.43 c p3
278.01 509.45 0.43 c p3
278.16 509.91 0.43 c p3
278.31 509.58 0.43 c p3
278.45 510.14 0.43 c p3
278.60 509.58 0.43 c p3
278.74 510.38 0.43 c p3
278.89 509.81 0.43 c p3
279.03 510.14 0.43 c p3
279.18 509.91 0.43 c p3
279.32 509.91 0.43 c p3
279.47 510.14 0.43 c p3
279.62 510.14 0.43 c p3
279.76 509.58 0.43 c p3
279.91 509.81 0.43 c p3
280.05 510.02 0.43 c p3
280.20 510.84 0.43 c p3
280.34 510.14 0.43 c p3
280.49 510.25 0.43 c p3
280.63 510.02 0.43 c p3
280.78 510.25 0.43 c p3
280.93 510.02 0.43 c p3
281.07 510.71 0.43 c p3
281.22 510.48 0.43 c p3
281.36 510.25 0.43 c p3
281.51 509.81 0.43 c p3
281.65 510.14 0.43 c p3
281.80 510.61 0.43 c p3
281.95 510.71 0.43 c p3
282.09 510.14 0.43 c p3
282.24 510.38 0.43 c p3
282.38 510.38 0.43 c p3
282.53 510.84 0.43 c p3
282.67 510.61 0.43 c p3
282.82 510.71 0.43 c p3
282.96 510.38 0.43 c p3
283.11 510.84 0.43 c p3
283.26 510.02 0.43 c p3
283.40 510.48 0.43 c p3
283.55 510.61 0.43 c p3
283.69 510.84 0.43 c p3
283.84 510.38 0.43 c p3
283.98 509.91 0.43 c p3
284.13 510.94 0.43 c p3
284.27 511.07 0.43 c p3
284.42 510.38 0.43 c p3
284.57 510.48 0.43 c p3
284.71 510.14 0.43 c p3
284.86 511.30 0.43 c p3
285.00 510.71 0.43 c p3
285.15 511.07 0.43 c p3
285.29 510.02 0.43 c p3
285.44 511.30 0.43 c p3
285.58 510.14 0.43 c p3
285.73 511.30 0.43 c p3
285.88 510.84 0.43 c p3
286.02 510.71 0.43 c p3
286.17 510.48 0.43 c p3
286.31 511.18 0.43 c p3
286.46 510.48 0.43 c p3
286.60 510.94 0.43 c p3
286.75 510.84 0.43 c p3
286.89 511.54 0.43 c p3
287.04 511.07 0.43 c p3
287.19 510.48 0.43 c p3
287.33 511.30 0.43 c p3
287.48 510.61 0.43 c p3
287.62 510.48 0.43 c p3
287.77 511.07 0.43 c p3
287.91 511.07 0.43 c p3
288.06 511.07 0.43 c p3
288.21 510.94 0.43 c p3
288.35 511.07 0.43 c p3
288.50 510.94 0.43 c p3
288.64 511.41 0.43 c p3
288.79 511.18 0.43 c p3
288.93 511.07 0.43 c p3
289.08 510.48 0.43 c p3
289.22 511.18 0.43 c p3
289.37 511.41 0.43 c p3
289.52 511.30 0.43 c p3
289.66 510.71 0.43 c p3
289.81 511.54 0.43 c p3
289.95 510.71 0.43 c p3
290.10 511.41 0.43 c p3
290.24 511.07 0.43 c p3
290.39 510.71 0.43 c p3
290.53 510.48 0.43 c p3
290.68 511.18 0.43 c p3
290.83 510.61 0.43 c p3
290.97 511.77 0.43 c p3
291.12 511.54 0.43 c p3
291.26 510.25 0.43 c p3
291.41 510.71 0.43 c p3
291.55 511.07 0.43 c p3
291.70 511.18 0.43 c p3
291.84 511.30 0.43 c p3
291.99 511.18 0.43 c p3
292.14 511.07 0.43 c p3
292.28 510.94 0.43 c p3
292.43 510.94 0.43 c p3
292.57 511.30 0.43 c p3
292.72 510.94 0.43 c p3
292.86 511.41 0.43 c p3
293.01 511.64 0.43 c p3
293.16 511.07 0.43 c p3
293.30 511.64 0.43 c p3
293.45 510.94 0.43 c p3
293.59 512.00 0.43 c p3
293.74 510.84 0.43 c p3
293.88 511.64 0.43 c p3
294.03 511.41 0.43 c p3
294.17 511.41 0.43 c p3
294.32 510.94 0.43 c p3
294.47 510.61 0.43 c p3
294.61 511.30 0.43 c p3
294.76 510.94 0.43 c p3
294.90 510.94 0.43 c p3
295.05 510.48 0.43 c p3
295.19 511.30 0.43 c p3
295.34 511.54 0.43 c p3
295.48 510.84 0.43 c p3
295.63 510.94 0.43 c p3
295.78 511.07 0.43 c p3
295.92 511.07 0.43 c p3
296.07 510.84 0.43 c p3
296.21 511.07 0.43 c p3
296.36 510.84 0.43 c p3
296.50 511.30 0.43 c p3
296.65 511.54 0.43 c p3
296.79 511.54 0.43 c p3
296.94 510.94 0.43 c p3
297.09 510.84 0.43 c p3
297.23 511.07 0.43 c p3
297.38 511.07 0.43 c p3
297.52 510.84 0.43 c p3
297.67 511.07 0.43 c p3
297.81 510.84 0.43 c p3
297.96 510.94 0.43 c p3
298.11 510.61 0.43 c p3
298.25 511.18 0.43 c p3
298.40 510.71 0.43 c p3
298.54 510.61 0.43 c p3
298.69 510.84 0.43 c p3
298.83 510.94 0.43 c p3
298.98 511.41 0.43 c p3
299.12 510.84 0.43 c p3
299.27 510.84 0.43 c p3
299.42 510.84 0.43 c p3
299.56 511.07 0.43 c p3
299.71 511.30 0.43 c p3
299.85 510.61 0.43 c p3
300.00 511.07 0.43 c p3
300.14 510.38 0.43 c p3
300.29 511.18 0.43 c p3
300.43 510.71 0.43 c p3
300.58 510.84 0.43 c p3
300.73 510.94 0.43 c p3
300.87 511.18 0.43 c p3
301.02 511.07 0.43 c p3
301.16 510.94 0.43 c p3
301.31 510.71 0.43 c p3
301.45 510.71 0.43 c p3
301.60 511.07 0.43 c p3
301.74 511.07 0.43 c p3
301.89 510.71 0.43 c p3
302.04 510.71 0.43 c p3
302.18 510.25 0.43 c p3
302.33 510.48 0.43 c p3
302.47 510.25 0.43 c p3
302.62 510.48 0.43 c p3
302.76 510.38 0.43 c p3
302.91 510.84 0.43 c p3
303.06 510.25 0.43 c p3
303.20 510.14 0.43 c p3
303.35 510.94 0.43 c p3
303.49 510.84 0.43 c p3
303.64 510.61 0.43 c p3
303.78 510.14 0.43 c p3
303.93 510.61 0.43 c p3
304.07 511.07 0.43 c p3
304.22 510.38 0.43 c p3
304.37 510.71 0.43 c p3
304.51 510.38 0.43 c p3
304.66 510.71 0.43 c p3
304.80 509.81 0.43 c p3
304.95 510.61 0.43 c p3
305.09 510.71 0.43 c p3
305.24 510.84 0.43 c p3
305.38 510.48 0.43 c p3
305.53 510.94 0.43 c p3
305.68 509.91 0.43 c p3
305.82 510.61 0.43 c p3
305.97 510.61 0.43 c p3
306.11 510.61 0.43 c p3
306.26 510.02 0.43 c p3
306.40 510.61 0.43 c p3
306.55 510.02 0.43 c p3
306.69 510.48 0.43 c p3
306.84 510.02 0.43 c p3
306.99 510.14 0.43 c p3
307.13 510.48 0.43 c p3
307.28 510.02 0.43 c p3
307.42 510.25 0.43 c p3
307.57 510.25 0.43 c p3
307.71 510.02 0.43 c p3
307.86 509.58 0.43 c p3
308.01 509.68 0.43 c p3
308.15 510.38 0.43 c p3
308.30 509.91 0.43 c p3
308.44 510.25 0.43 c p3
308.59 509.81 0.43 c p3
308.73 510.02 0.43 c p3
308.88 509.58 0.43 c p3
309.02 510.02 0.43 c p3
309.17 509.91 0.43 c p3
309.32 510.38 0.43 c p3
309.46 510.14 0.43 c p3
309.61 510.14 0.43 c p3
309.75 509.91 0.43 c p3
309.90 509.91 0.43 c p3
310.04 509.91 0.43 c p3
310.19 509.81 0.43 c p3
310.33 509.91 0.43 c p3
310.48 509.91 0.43 c p3
310.63 509.81 0.43 c p3
310.77 510.71 0.43 c p3
310.92 509.81 0.43 c p3
311.06 509.35 0.43 c p3
311.21 509.68 0.43 c p3
311.35 509.91 0.43 c p3
311.50 509.22 0.43 c p3
311.64 509.81 0.43 c p3
311.79 509.91 0.43 c p3
311.94 509.58 0.43 c p3
312.08 509.58 0.43 c p3
312.23 509.11 0.43 c p3
312.37 509.58 0.43 c p3
312.52 510.02 0.43 c p3
312.66 509.35 0.43 c p3
312.81 509.35 0.43 c p3
312.96 509.81 0.43 c p3
313.10 509.58 0.43 c p3
313.25 509.22 0.43 c p3
313.39 509.68 0.43 c p3
313.54 509.68 0.43 c p3
313.68 509.91 0.43 c p3
313.83 509.35 0.43 c p3
313.97 509.22 0.43 c p3
314.12 509.58 0.43 c p3
314.27 509.22 0.43 c p3
314.41 509.11 0.43 c p3
314.56 509.58 0.43 c p3
314.70 508.75 0.43 c p3
314.85 509.11 0.43 c p3
314.99 508.88 0.43 c p3
315.14 509.68 0.43 c p3
315.28 508.98 0.43 c p3
315.43 509.45 0.43 c p3
315.58 509.11 0.43 c p3
315.72 509.68 0.43 c p3
315.87 509.58 0.43 c p3
316.01 509.35 0.43 c p3
316.16 509.11 0.43 c p3
316.30 508.88 0.43 c p3
316.45 509.22 0.43 c p3
316.59 509.45 0.43 c p3
316.74 509.22 0.43 c p3
316.89 508.98 0.43 c p3
317.03 509.45 0.43 c p3
317.18 508.98 0.43 c p3
317.32 509.35 0.43 c p3
317.47 509.58 0.43 c p3
317.61 509.35 0.43 c p3
317.76 508.88 0.43 c p3
317.91 508.98 0.43 c p3
318.05 509.35 0.43 c p3
318.20 508.88 0.43 c p3
318.34 509.45 0.43 c p3
318.49 508.98 0.43 c p3
318.63 509.11 0.43 c p3
318.78 508.75 0.43 c p3
318.92 509.22 0.43 c p3
319.07 508.52 0.43 c p3
319.22 508.88 0.43 c p3
319.36 508.98 0.43 c p3
319.51 509.11 0.43 c p3
319.65 509.11 0.43 c p3
319.80 508.75 0.43 c p3
319.94 509.35 0.43 c p3
320.09 508.98 0.43 c p3
320.23 509.45 0.43 c p3
320.38 508.19 0.43 c p3
320.53 508.42 0.43 c p3
320.67 509.11 0.43 c p3
320.82 508.88 0.43 c p3
320.96 508.88 0.43 c p3
321.11 508.52 0.43 c p3
321.25 508.98 0.43 c p3
321.40 508.75 0.43 c p3
321.54 508.29 0.43 c p3
321.69 508.52 0.43 c p3
321.84 508.52 0.43 c p3
321.98 508.52 0.43 c p3
322.13 508.88 0.43 c p3
322.27 508.52 0.43 c p3
322.42 508.65 0.43 c p3
322.56 508.52 0.43 c p3
322.71 508.75 0.43 c p3
322.85 508.29 0.43 c p3
323.00 507.95 0.43 c p3
323.15 508.88 0.43 c p3
323.29 508.52 0.43 c p3
323.44 508.42 0.43 c p3
323.58 508.42 0.43 c p3
323.73 508.52 0.43 c p3
323.87 508.65 0.43 c p3
324.02 508.52 0.43 c p3
324.17 508.19 0.43 c p3
324.31 508.88 0.43 c p3
324.46 508.06 0.43 c p3
324.60 507.82 0.43 c p3
324.75 508.06 0.43 c p3
324.89 508.29 0.43 c p3
325.04 508.42 0.43 c p3
325.18 508.42 0.43 c p3
325.33 507.72 0.43 c p3
325.48 507.82 0.43 c p3
325.62 508.88 0.43 c p3
325.77 508.06 0.43 c p3
325.91 507.82 0.43 c p3
326.06 507.95 0.43 c p3
326.20 508.42 0.43 c p3
326.35 508.06 0.43 c p3
326.49 508.42 0.43 c p3
326.64 508.06 0.43 c p3
326.79 507.82 0.43 c p3
326.93 508.19 0.43 c p3
327.08 508.19 0.43 c p3
327.22 507.82 0.43 c p3
327.37 508.19 0.43 c p3
327.51 508.06 0.43 c p3
327.66 508.42 0.43 c p3
327.80 508.29 0.43 c p3
327.95 507.82 0.43 c p3
328.10 508.06 0.43 c p3
328.24 507.82 0.43 c p3
328.39 507.72 0.43 c p3
328.53 507.72 0.43 c p3
328.68 507.72 0.43 c p3
328.82 507.95 0.43 c p3
328.97 507.95 0.43 c p3
329.12 507.72 0.43 c p3
329.26 507.72 0.43 c p3
329.41 507.82 0.43 c p3
329.55 507.72 0.43 c p3
329.70 508.06 0.43 c p3
329.84 507.72 0.43 c p3
329.99 507.95 0.43 c p3
330.13 507.72 0.43 c p3
330.28 508.42 0.43 c p3
330.43 507.49 0.43 c p3
330.57 507.59 0.43 c p3
330.72 507.72 0.43 c p3
330.86 507.59 0.43 c p3
331.01 508.06 0.43 c p3
331.15 508.06 0.43 c p3
331.30 507.95 0.43 c p3
331.44 507.95 0.43 c p3
331.59 507.72 0.43 c p3
331.74 508.42 0.43 c p3
331.88 507.72 0.43 c p3
332.03 508.06 0.43 c p3
332.17 507.59 0.43 c p3
332.32 507.59 0.43 c p3
332.46 508.06 0.43 c p3
332.61 507.72 0.43 c p3
332.75 507.03 0.43 c p3
332.90 507.49 0.43 c p3
333.05 507.49 0.43 c p3
333.19 507.49 0.43 c p3
333.34 507.72 0.43 c p3
333.48 507.36 0.43 c p3
333.63 507.59 0.43 c p3
333.77 507.72 0.43 c p3
333.92 507.72 0.43 c p3
334.07 507.82 0.43 c p3
334.21 507.59 0.43 c p3
334.36 508.42 0.43 c p3
334.50 507.03 0.43 c p3
334.65 507.36 0.43 c p3
334.79 507.03 0.43 c p3
334.94 507.49 0.43 c p3
335.08 507.49 0.43 c p3
335.23 507.13 0.43 c p3
335.38 506.90 0.43 c p3
335.52 507.59 0.43 c p3
335.67 507.36 0.43 c p3
335.81 507.26 0.43 c p3
335.96 507.03 0.43 c p3
336.10 507.36 0.43 c p3
336.25 507.59 0.43 c p3
336.39 507.36 0.43 c p3
336.54 506.67 0.43 c p3
336.69 507.72 0.43 c p3
336.83 507.13 0.43 c p3
336.98 507.36 0.43 c p3
337.12 507.13 0.43 c p3
337.27 507.59 0.43 c p3
337.41 507.26 0.43 c p3
337.56 507.59 0.43 c p3
337.70 506.56 0.43 c p3
337.85 507.13 0.43 c p3
338.00 507.36 0.43 c p3
338.14 507.03 0.43 c p3
338.29 506.67 0.43 c p3
338.43 507.59 0.43 c p3
338.58 507.26 0.43 c p3
338.72 506.90 0.43 c p3
338.87 507.49 0.43 c p3
339.02 507.36 0.43 c p3
339.16 507.26 0.43 c p3
339.31 507.03 0.43 c p3
339.45 507.13 0.43 c p3
339.60 507.03 0.43 c p3
339.74 507.82 0.43 c p3
339.89 506.79 0.43 c p3
340.03 507.03 0.43 c p3
340.18 507.03 0.43 c p3
340.33 507.26 0.43 c p3
340.47 507.26 0.43 c p3
340.62 506.79 0.43 c p3
340.76 507.13 0.43 c p3
340.91 507.49 0.43 c p3
341.05 507.13 0.43 c p3
341.20 507.03 0.43 c p3
341.34 506.79 0.43 c p3
341.49 507.13 0.43 c p3
341.64 507.13 0.43 c p3
341.78 507.03 0.43 c p3
341.93 507.13 0.43 c p3
342.07 507.13 0.43 c p3
342.22 507.59 0.43 c p3
342.36 506.56 0.43 c p3
342.51 507.03 0.43 c p3
342.65 507.49 0.43 c p3
342.80 506.67 0.43 c p3
342.95 506.56 0.43 c p3
343.09 507.13 0.43 c p3
343.24 507.26 0.43 c p3
343.38 506.90 0.43 c p3
343.53 506.67 0.43 c p3
343.67 507.13 0.43 c p3
343.82 507.72 0.43 c p3
343.97 506.79 0.43 c p3
344.11 507.03 0.43 c p3
344.26 506.79 0.43 c p3
344.40 507.13 0.43 c p3
344.55 506.79 0.43 c p3
344.69 507.13 0.43 c p3
344.84 506.67 0.43 c p3
344.98 507.26 0.43 c p3
345.13 507.26 0.43 c p3
345.28 507.13 0.43 c p3
345.42 507.49 0.43 c p3
345.57 507.26 0.43 c p3
345.71 507.59 0.43 c p3
345.86 507.13 0.43 c p3
346.00 507.13 0.43 c p3
346.15 507.26 0.43 c p3
346.29 507.13 0.43 c p3
346.44 506.67 0.43 c p3
346.59 506.90 0.43 c p3
346.73 507.03 0.43 c p3
346.88 507.13 0.43 c p3
347.02 507.36 0.43 c p3
347.17 507.03 0.43 c p3
347.31 506.90 0.43 c p3
347.46 506.79 0.43 c p3
347.60 506.79 0.43 c p3
347.75 506.67 0.43 c p3
347.90 506.79 0.43 c p3
348.04 507.36 0.43 c p3
348.19 507.03 0.43 c p3
348.33 507.03 0.43 c p3
348.48 506.79 0.43 c p3
348.62 507.36 0.43 c p3
348.77 507.13 0.43 c p3
348.92 507.03 0.43 c p3
349.06 507.13 0.43 c p3
349.21 506.90 0.43 c p3
349.35 507.13 0.43 c p3
349.50 506.79 0.43 c p3
349.64 507.36 0.43 c p3
349.79 507.13 0.43 c p3
349.93 507.26 0.43 c p3
350.08 507.36 0.43 c p3
350.23 506.56 0.43 c p3
350.37 507.36 0.43 c p3
350.52 506.79 0.43 c p3
350.66 507.49 0.43 c p3
350.81 506.33 0.43 c p3
350.95 507.36 0.43 c p3
351.10 507.03 0.43 c p3
351.24 506.33 0.43 c p3
351.39 506.67 0.43 c p3
351.54 507.26 0.43 c p3
351.68 506.90 0.43 c p3
351.83 507.13 0.43 c p3
351.97 506.56 0.43 c p3
352.12 507.26 0.43 c p3
352.26 506.56 0.43 c p3
352.41 507.03 0.43 c p3
352.55 506.67 0.43 c p3
352.70 507.26 0.43 c p3
352.85 506.79 0.43 c p3
352.99 507.26 0.43 c p3
353.14 507.03 0.43 c p3
353.28 507.49 0.43 c p3
353.43 507.13 0.43 c p3
353.57 507.13 0.43 c p3
353.72 507.03 0.43 c p3
353.86 507.13 0.43 c p3
354.01 506.90 0.43 c p3
354.16 507.26 0.43 c p3
354.30 506.67 0.43 c p3
354.45 506.79 0.43 c p3
354.59 507.36 0.43 c p3
354.74 507.72 0.43 c p3
354.88 506.79 0.43 c p3
355.03 507.26 0.43 c p3
355.18 507.26 0.43 c p3
355.32 507.03 0.43 c p3
355.47 507.26 0.43 c p3
355.61 507.03 0.43 c p3
355.76 507.03 0.43 c p3
355.90 506.90 0.43 c p3
356.05 506.90 0.43 c p3
356.19 506.79 0.43 c p3
356.34 507.26 0.43 c p3
356.49 507.13 0.43 c p3
356.63 506.67 0.43 c p3
356.78 506.79 0.43 c p3
356.92 506.67 0.43 c p3
357.07 507.26 0.43 c p3
357.21 507.26 0.43 c p3
357.36 507.03 0.43 c p3
357.50 507.49 0.43 c p3
357.65 506.79 0.43 c p3
357.80 506.79 0.43 c p3
357.94 507.26 0.43 c p3
358.09 507.03 0.43 c p3
358.23 507.36 0.43 c p3
358.38 506.79 0.43 c p3
358.52 507.13 0.43 c p3
358.67 507.26 0.43 c p3
358.81 507.26 0.43 c p3
358.96 506.67 0.43 c p3
359.11 507.13 0.43 c p3
359.25 507.03 0.43 c p3
359.40 507.03 0.43 c p3
359.54 507.26 0.43 c p3
359.69 507.03 0.43 c p3
359.83 506.79 0.43 c p3
359.98 507.82 0.43 c p3
360.13 506.90 0.43 c p3
360.27 507.03 0.43 c p3
360.42 507.36 0.43 c p3
360.56 507.26 0.43 c p3
360.71 506.90 0.43 c p3
360.85 507.13 0.43 c p3
361.00 506.79 0.43 c p3
361.14 507.03 0.43 c p3
361.29 507.26 0.43 c p3
361.44 507.26 0.43 c p3
361.58 507.03 0.43 c p3
361.73 506.90 0.43 c p3
361.87 506.79 0.43 c p3
362.02 507.26 0.43 c p3
362.16 506.79 0.43 c p3
362.31 506.90 0.43 c p3
362.45 507.59 0.43 c p3
362.60 507.36 0.43 c p3
362.75 507.03 0.43 c p3
362.89 507.26 0.43 c p3
363.04 507.03 0.43 c p3
363.18 507.13 0.43 c p3
363.33 506.56 0.43 c p3
363.47 507.26 0.43 c p3
363.62 507.26 0.43 c p3
363.76 507.49 0.43 c p3
363.91 507.03 0.43 c p3
364.06 507.36 0.43 c p3
364.20 507.26 0.43 c p3
364.35 507.59 0.43 c p3
364.49 507.03 0.43 c p3
364.64 507.03 0.43 c p3
364.78 507.49 0.43 c p3
364.93 507.13 0.43 c p3
365.08 507.26 0.43 c p3
365.22 507.82 0.43 c p3
365.37 507.36 0.43 c p3
365.51 506.90 0.43 c p3
365.66 506.67 0.43 c p3
365.80 506.90 0.43 c p3
365.95 507.59 0.43 c p3
366.09 506.79 0.43 c p3
366.24 507.59 0.43 c p3
366.39 507.49 0.43 c p3
366.53 507.13 0.43 c p3
366.68 507.72 0.43 c p3
366.82 507.36 0.43 c p3
366.97 506.67 0.43 c p3
367.11 507.03 0.43 c p3
367.26 507.26 0.43 c p3
367.40 507.59 0.43 c p3
367.55 507.82 0.43 c p3
367.70 506.90 0.43 c p3
367.84 507.36 0.43 c p3
367.99 507.36 0.43 c p3
368.13 507.72 0.43 c p3
368.28 506.79 0.43 c p3
368.42 507.26 0.43 c p3
368.57 507.59 0.43 c p3
368.71 507.26 0.43 c p3
368.86 507.26 0.43 c p3
369.01 507.26 0.43 c p3
369.15 507.49 0.43 c p3
369.30 507.59 0.43 c p3
369.44 507.72 0.43 c p3
369.59 507.13 0.43 c p3
369.73 507.03 0.43 c p3
369.88 507.72 0.43 c p3
370.03 507.59 0.43 c p3
370.17 507.72 0.43 c p3
370.32 507.26 0.43 c p3
370.46 507.36 0.43 c p3
370.61 506.90 0.43 c p3
370.75 507.59 0.43 c p3
370.90 507.36 0.43 c p3
371.04 507.26 0.43 c p3
371.19 507.26 0.43 c p3
371.34 507.36 0.43 c p3
371.48 507.13 0.43 c p3
371.63 507.59 0.43 c p3
371.77 507.36 0.43 c p3
371.92 507.36 0.43 c p3
372.06 507.36 0.43 c p3
372.21 507.36 0.43 c p3
372.35 507.36 0.43 c p3
372.50 507.36 0.43 c p3
372.65 507.59 0.43 c p3
372.79 507.49 0.43 c p3
372.94 507.36 0.43 c p3
373.08 507.72 0.43 c p3
373.23 507.49 0.43 c p3
373.37 507.26 0.43 c p3
373.52 507.26 0.43 c p3
373.66 507.13 0.43 c p3
373.81 507.26 0.43 c p3
373.96 508.06 0.43 c p3
374.10 507.26 0.43 c p3
374.25 507.49 0.43 c p3
374.39 507.49 0.43 c p3
374.54 507.36 0.43 c p3
374.68 507.59 0.43 c p3
374.83 507.59 0.43 c p3
374.98 507.03 0.43 c p3
375.12 507.82 0.43 c p3
375.27 507.36 0.43 c p3
375.41 507.82 0.43 c p3
375.56 507.26 0.43 c p3
375.70 507.49 0.43 c p3
375.85 507.95 0.43 c p3
375.99 507.03 0.43 c p3
376.14 507.36 0.43 c p3
376.29 507.26 0.43 c p3
376.43 507.95 0.43 c p3
376.58 507.72 0.43 c p3
376.72 507.36 0.43 c p3
376.87 507.49 0.43 c p3
377.01 507.36 0.43 c p3
377.16 507.72 0.43 c p3
377.30 507.49 0.43 c p3
377.45 507.59 0.43 c p3
377.60 507.36 0.43 c p3
377.74 508.19 0.43 c p3
377.89 507.82 0.43 c p3
378.03 507.36 0.43 c p3
378.18 507.59 0.43 c p3
378.32 507.59 0.43 c p3
378.47 507.59 0.43 c p3
378.61 507.59 0.43 c p3
378.76 507.13 0.43 c p3
378.91 507.49 0.43 c p3
379.05 507.36 0.43 c p3
379.20 507.82 0.43 c p3
379.34 507.49 0.43 c p3
379.49 507.26 0.43 c p3
379.63 507.82 0.43 c p3
379.78 507.36 0.43 c p3
379.93 507.49 0.43 c p3
380.07 507.72 0.43 c p3
380.22 507.49 0.43 c p3
380.36 507.95 0.43 c p3
380.51 507.72 0.43 c p3
380.65 507.82 0.43 c p3
380.80 507.59 0.43 c p3
380.94 507.49 0.43 c p3
381.09 507.59 0.43 c p3
381.24 507.36 0.43 c p3
381.38 507.36 0.43 c p3
381.53 508.06 0.43 c p3
381.67 507.36 0.43 c p3
381.82 507.49 0.43 c p3
381.96 507.72 0.43 c p3
382.11 508.29 0.43 c p3
382.25 507.26 0.43 c p3
382.40 507.95 0.43 c p3
0.00 0.00 432.00 576.00 cl
0 0 0 srgb
0.75 setlinewidth
[] 0 setdash
1 setlinecap
1 setlinejoin
10.00 setmiterlimit
np
236.96 345.60 m
145.59 0 l
o
np
236.96 345.60 m
0 -5.76 l
o
np
266.08 345.60 m
0 -5.76 l
o
np
295.19 345.60 m
0 -5.76 l
o
np
324.31 345.60 m
0 -5.76 l
o
np
353.43 345.60 m
0 -5.76 l
o
np
382.55 345.60 m
0 -5.76 l
o
/Font1 findfont 10 s
236.96 329.47 (0) .5 0 t
266.08 329.47 (2000) .5 0 t
324.31 329.47 (6000) .5 0 t
382.55 329.47 (10000) .5 0 t
np
216.00 352.00 m
0 158.35 l
o
np
216.00 352.00 m
-5.76 0 l
o
np
216.00 404.78 m
-5.76 0 l
o
np
216.00 457.56 m
-5.76 0 l
o
np
216.00 510.35 m
-5.76 0 l
o
209.09 348.41 (0.0) 1 0 t
209.09 401.19 (0.5) 1 0 t
209.09 453.97 (1.0) 1 0 t
209.09 506.76 (1.5) 1 0 t
np
216.00 345.60 m
172.80 0 l
0 172.80 l
-172.80 0 l
0 -172.80 l
o
0.00 0.00 432.00 576.00 cl
/Font1 findfont 10 s
0 0 0 srgb
302.40 313.34 (Zeit / ms \(total\)) .5 0 t
190.66 432.00 (U / V) .5 90 t
216.00 345.60 388.80 518.40 cl
0 0 0 srgb
0.38 setlinewidth
[ 1.12 1.88] 0 setdash
1 setlinecap
1 setlinejoin
10.00 setmiterlimit
np
223.27 345.60 m
0 172.80 l
o
np
234.77 345.60 m
0 172.80 l
o
np
238.71 345.60 m
0 172.80 l
o
np
252.54 345.60 m
0 172.80 l
o
86.40 57.60 388.80 288.00 cl
1 0 0 srgb
1.50 setlinewidth
[] 0 setdash
1 setlinecap
1 setlinejoin
10.00 setmiterlimit
np
97.60 279.47 m
1.41 -48.20 l
1.40 -36.82 l
1.41 -28.13 l
1.41 -21.49 l
1.41 -16.41 l
1.40 -12.55 l
1.41 -9.58 l
1.41 -7.32 l
1.40 -5.60 l
1.41 -4.27 l
1.41 -3.27 l
1.40 -2.49 l
1.41 -1.91 l
1.41 -1.45 l
1.41 -1.11 l
1.40 -0.85 l
1.41 -0.65 l
1.41 -0.50 l
1.40 -0.38 l
1.41 -0.29 l
1.41 -0.22 l
1.40 -0.17 l
1.41 -0.13 l
1.41 -0.09 l
1.41 -0.08 l
1.40 -0.06 l
1.41 -0.04 l
1.41 -0.04 l
1.40 -0.02 l
1.41 -0.02 l
1.41 -0.02 l
1.41 -0.01 l
1.40 -0.01 l
1.41 0 l
1.41 -0.01 l
1.40 0 l
1.41 0 l
1.41 -0.01 l
1.40 0 l
1.41 0 l
1.41 0 l
1.41 0 l
1.40 0 l
1.41 0 l
1.41 0 l
1.40 0 l
1.41 0 l
1.41 0 l
1.40 0 l
1.41 0 l
1.41 0 l
1.41 0 l
1.40 0 l
1.41 0 l
1.41 0 l
1.40 0 l
1.41 0 l
1.41 0 l
1.41 0 l
1.40 0 l
1.41 0 l
1.41 0 l
1.40 0 l
1.41 0 l
1.41 0 l
1.40 0 l
1.41 0 l
1.41 0 l
1.41 0 l
1.40 0 l
1.41 0 l
1.41 0 l
1.40 0 l
1.41 0 l
1.41 0 l
1.40 0 l
1.41 0 l
1.41 0 l
1.41 0 l
1.40 0 l
1.41 0 l
1.41 0 l
1.40 0 l
1.41 0 l
1.41 0 l
1.41 0 l
1.40 0 l
1.41 0 l
1.41 0 l
1.40 0 l
1.41 0 l
1.41 0 l
1.40 0 l
1.41 0 l
1.41 0 l
1.41 0 l
1.40 0 l
1.41 0 l
1.41 0 l
238.30 75.27 lineto
1.41 0 l
1.41 0 l
1.40 0 l
1.41 0 l
1.41 0 l
1.41 0 l
1.40 0 l
1.41 0 l
1.41 0 l
1.40 0 l
1.41 0 l
1.41 0 l
1.40 0 l
1.41 0 l
1.41 0 l
1.41 0 l
1.40 0 l
1.41 0 l
1.41 0 l
1.40 0 l
1.41 0 l
1.41 0 l
1.41 0 l
1.40 0 l
1.41 0 l
1.41 0 l
1.40 0 l
1.41 0 l
1.41 0 l
1.40 0 l
1.41 0 l
1.41 0 l
1.41 0 l
1.40 0 l
1.41 0 l
1.41 0 l
1.40 0 l
1.41 0 l
1.41 0 l
1.40 0 l
1.41 0 l
1.41 0 l
1.41 0 l
1.40 0 l
1.41 0 l
1.41 0 l
1.40 0 l
1.41 0 l
1.41 0 l
1.41 0 l
1.40 0 l
1.41 0 l
1.41 0 l
1.40 0 l
1.41 0 l
1.41 0 l
1.40 0 l
1.41 0 l
1.41 0 l
1.41 0 l
1.40 0 l
1.41 0 l
1.41 0 l
1.40 0 l
1.41 0 l
1.41 0 l
1.40 0 l
1.41 0 l
1.41 0 l
1.41 0 l
1.40 0 l
1.41 0 l
1.41 0 l
1.40 0 l
1.41 0 l
1.41 0 l
1.41 0 l
1.40 0 l
1.41 0 l
1.41 0 l
1.40 0 l
1.41 0 l
1.41 0 l
1.40 0 l
1.41 0 l
1.41 0 l
1.41 0 l
1.40 0 l
1.41 0 l
1.41 0 l
1.40 0 l
1.41 0 l
1.41 0 l
1.40 0 l
1.41 0 l
1.41 0 l
1.41 0 l
1.40 0 l
1.41 0 l
o
0.00 0.00 432.00 576.00 cl
0 0 0 srgb
0.75 setlinewidth
[] 0 setdash
1 setlinecap
1 setlinejoin
10.00 setmiterlimit
np
97.60 57.60 m
280.00 0 l
o
np
97.60 57.60 m
0 -5.76 l
o
np
153.60 57.60 m
0 -5.76 l
o
np
209.60 57.60 m
0 -5.76 l
o
np
265.60 57.60 m
0 -5.76 l
o
np
321.60 57.60 m
0 -5.76 l
o
np
377.60 57.60 m
0 -5.76 l
o
/Font1 findfont 10 s
97.60 41.47 (0) .5 0 t
153.60 41.47 (2000) .5 0 t
209.60 41.47 (4000) .5 0 t
265.60 41.47 (6000) .5 0 t
321.60 41.47 (8000) .5 0 t
377.60 41.47 (10000) .5 0 t
np
86.40 66.13 m
0 195.44 l
o
np
86.40 66.13 m
-5.76 0 l
o
np
86.40 105.22 m
-5.76 0 l
o
np
86.40 144.31 m
-5.76 0 l
o
np
86.40 183.40 m
-5.76 0 l
o
np
86.40 222.49 m
-5.76 0 l
o
np
86.40 261.57 m
-5.76 0 l
o
79.49 62.54 (0.00) 1 0 t
79.49 101.63 (0.05) 1 0 t
79.49 140.72 (0.10) 1 0 t
79.49 179.81 (0.15) 1 0 t
79.49 218.90 (0.20) 1 0 t
79.49 257.98 (0.25) 1 0 t
np
86.40 57.60 m
302.40 0 l
0 230.40 l
-302.40 0 l
0 -230.40 l
o
0.00 0.00 432.00 576.00 cl
/Font1 findfont 10 s
0 0 0 srgb
237.60 13.82 (Zeit / ms \(nach Puls\)) .5 0 t
49.54 172.80 (Absorbanz A) .5 90 t
86.40 57.60 388.80 288.00 cl
/bg { 1 1 1 srgb } def
0 0 0 srgb
0.75 setlinewidth
[] 0 setdash
1 setlinecap
1 setlinejoin
10.00 setmiterlimit
101.24 179.63 0.65 c p3
101.52 174.61 0.65 c p3
101.80 169.36 0.65 c p3
102.08 161.06 0.65 c p3
102.36 158.71 0.65 c p3
102.64 152.95 0.65 c p3
102.92 149.71 0.65 c p3
103.20 145.11 0.65 c p3
103.48 140.58 0.65 c p3
103.76 136.10 0.65 c p3
104.04 132.94 0.65 c p3
104.32 129.53 0.65 c p3
104.60 127.33 0.65 c p3
104.88 124.86 0.65 c p3
105.16 120.65 0.65 c p3
105.44 118.24 0.65 c p3
105.72 117.03 0.65 c p3
106.00 114.04 0.65 c p3
106.28 112.53 0.65 c p3
106.56 109.64 0.65 c p3
106.84 110.23 0.65 c p3
107.12 104.98 0.65 c p3
107.40 106.14 0.65 c p3
107.68 103.82 0.65 c p3
107.96 103.50 0.65 c p3
108.24 100.37 0.65 c p3
108.52 100.63 0.65 c p3
108.80 99.80 0.65 c p3
109.08 97.84 0.65 c p3
109.36 97.84 0.65 c p3
109.64 96.96 0.65 c p3
109.92 93.58 0.65 c p3
110.20 95.58 0.65 c p3
110.48 93.89 0.65 c p3
110.76 93.02 0.65 c p3
111.04 91.35 0.65 c p3
111.32 91.35 0.65 c p3
111.60 90.24 0.65 c p3
111.88 89.68 0.65 c p3
112.16 88.88 0.65 c p3
112.44 89.99 0.65 c p3
112.72 90.24 0.65 c p3
113.00 86.68 0.65 c p3
113.28 87.78 0.65 c p3
113.56 86.13 0.65 c p3
113.84 85.04 0.65 c p3
114.12 86.44 0.65 c p3
114.40 85.04 0.65 c p3
114.68 85.34 0.65 c p3
114.96 83.95 0.65 c p3
115.24 84.49 0.65 c p3
115.52 83.16 0.65 c p3
115.80 83.40 0.65 c p3
116.08 82.08 0.65 c p3
116.36 81.78 0.65 c p3
116.64 83.16 0.65 c p3
116.92 81.54 0.65 c p3
117.20 81.24 0.65 c p3
117.48 81.00 0.65 c p3
117.76 79.38 0.65 c p3
118.04 79.92 0.65 c p3
118.32 80.46 0.65 c p3
118.60 80.46 0.65 c p3
118.88 79.08 0.65 c p3
119.16 79.08 0.65 c p3
119.44 80.16 0.65 c p3
119.72 78.84 0.65 c p3
120.00 78.01 0.65 c p3
120.28 78.84 0.65 c p3
120.56 78.01 0.65 c p3
120.84 78.01 0.65 c p3
121.12 78.84 0.65 c p3
121.40 78.54 0.65 c p3
121.68 75.64 0.65 c p3
121.96 78.54 0.65 c p3
122.24 76.70 0.65 c p3
122.52 77.47 0.65 c p3
122.80 76.70 0.65 c p3
123.08 76.17 0.65 c p3
123.36 76.70 0.65 c p3
123.64 76.41 0.65 c p3
123.92 74.05 0.65 c p3
124.20 76.17 0.65 c p3
124.48 75.11 0.65 c p3
124.76 74.34 0.65 c p3
125.04 75.11 0.65 c p3
125.32 74.05 0.65 c p3
125.60 73.29 0.65 c p3
125.88 73.81 0.65 c p3
126.16 74.87 0.65 c p3
126.44 74.05 0.65 c p3
126.72 72.76 0.65 c p3
127.00 72.99 0.65 c p3
127.28 73.52 0.65 c p3
127.56 73.29 0.65 c p3
127.84 72.99 0.65 c p3
216.00 201.60 367.20 247.68 cl
0 0 0 srgb
0.75 setlinewidth
[] 0 setdash
1 setlinecap
1 setlinejoin
10.00 setmiterlimit
221.60 234.74 0.43 c p1
223.07 235.88 0.43 c p1
224.55 235.01 0.43 c p1
226.02 221.26 0.43 c p1
227.49 229.73 0.43 c p1
228.97 223.99 0.43 c p1
230.44 227.16 0.43 c p1
231.92 224.26 0.43 c p1
233.39 220.81 0.43 c p1
234.86 216.85 0.43 c p1
236.34 217.31 0.43 c p1
237.81 216.14 0.43 c p1
239.28 219.01 0.43 c p1
240.76 220.27 0.43 c p1
242.23 214.20 0.43 c p1
243.71 214.55 0.43 c p1
245.18 219.11 0.43 c p1
246.65 216.25 0.43 c p1
248.13 218.66 0.43 c p1
249.60 215.31 0.43 c p1
251.07 225.06 0.43 c p1
252.55 211.69 0.43 c p1
254.02 222.91 0.43 c p1
255.49 220.25 0.43 c p1
256.97 225.03 0.43 c p1
258.44 218.57 0.43 c p1
259.92 224.97 0.43 c p1
261.39 226.89 0.43 c p1
262.86 224.13 0.43 c p1
264.34 228.74 0.43 c p1
265.81 229.68 0.43 c p1
267.28 220.67 0.43 c p1
268.76 232.37 0.43 c p1
270.23 229.53 0.43 c p1
271.71 229.66 0.43 c p1
273.18 226.49 0.43 c p1
274.65 229.66 0.43 c p1
276.13 228.34 0.43 c p1
277.60 229.03 0.43 c p1
279.07 228.62 0.43 c p1
280.55 235.48 0.43 c p1
282.02 238.86 0.43 c p1
283.49 227.32 0.43 c p1
284.97 233.78 0.43 c p1
286.44 229.43 0.43 c p1
287.92 227.12 0.43 c p1
289.39 234.42 0.43 c p1
290.86 230.74 0.43 c p1
292.34 233.58 0.43 c p1
293.81 229.73 0.43 c p1
295.28 233.35 0.43 c p1
296.76 229.59 0.43 c p1
298.23 231.88 0.43 c p1
299.71 227.99 0.43 c p1
301.18 228.03 0.43 c p1
302.65 234.56 0.43 c p1
304.13 229.32 0.43 c p1
305.60 229.18 0.43 c p1
307.07 229.22 0.43 c p1
308.55 223.86 0.43 c p1
310.02 226.83 0.43 c p1
311.49 229.75 0.43 c p1
312.97 230.54 0.43 c p1
314.44 225.93 0.43 c p1
315.92 226.64 0.43 c p1
317.39 231.50 0.43 c p1
318.86 227.02 0.43 c p1
320.34 224.38 0.43 c p1
321.81 228.19 0.43 c p1
323.28 225.49 0.43 c p1
324.76 226.00 0.43 c p1
326.23 229.73 0.43 c p1
327.71 229.03 0.43 c p1
329.18 218.16 0.43 c p1
330.65 229.88 0.43 c p1
332.13 223.11 0.43 c p1
333.60 226.48 0.43 c p1
335.07 223.83 0.43 c p1
336.55 222.09 0.43 c p1
338.02 224.48 0.43 c p1
339.49 223.63 0.43 c p1
340.97 214.74 0.43 c p1
342.44 223.26 0.43 c p1
343.92 219.38 0.43 c p1
345.39 216.65 0.43 c p1
346.86 219.86 0.43 c p1
348.34 215.95 0.43 c p1
349.81 213.19 0.43 c p1
351.28 215.44 0.43 c p1
352.76 219.74 0.43 c p1
354.23 216.71 0.43 c p1
355.71 211.86 0.43 c p1
357.18 212.93 0.43 c p1
358.65 215.13 0.43 c p1
360.13 214.36 0.43 c p1
361.60 213.35 0.43 c p1
0.00 0.00 432.00 576.00 cl
0 0 0 srgb
0.75 setlinewidth
[] 0 setdash
1 setlinecap
1 setlinejoin
10.00 setmiterlimit
np
231.92 201.60 m
117.89 0 l
o
np
231.92 201.60 m
0 -5.76 l
o
np
261.39 201.60 m
0 -5.76 l
o
np
290.86 201.60 m
0 -5.76 l
o
np
320.34 201.60 m
0 -5.76 l
o
np
349.81 201.60 m
0 -5.76 l
o
/Font1 findfont 6 s
231.92 185.47 (200) .5 0 t
261.39 185.47 (400) .5 0 t
290.86 185.47 (600) .5 0 t
320.34 185.47 (800) .5 0 t
349.81 185.47 (1000) .5 0 t
np
216.00 206.39 m
0 36.50 l
o
np
216.00 206.39 m
-5.76 0 l
o
np
216.00 212.47 m
-5.76 0 l
o
np
216.00 218.56 m
-5.76 0 l
o
np
216.00 224.64 m
-5.76 0 l
o
np
216.00 230.72 m
-5.76 0 l
o
np
216.00 236.81 m
-5.76 0 l
o
np
216.00 242.89 m
-5.76 0 l
o
209.09 204.23 (-0.006) 1 0 t
209.09 210.32 (-0.004) 1 0 t
209.09 216.40 (-0.002) 1 0 t
209.09 222.49 (0.000) 1 0 t
209.09 228.57 (0.002) 1 0 t
209.09 234.65 (0.004) 1 0 t
209.09 240.74 (0.006) 1 0 t
np
216.00 201.60 m
151.20 0 l
0 46.08 l
-151.20 0 l
0 -46.08 l
o
0.00 0.00 432.00 576.00 cl
/Font1 findfont 9 s
0 0 0 srgb
291.60 262.88 (Residuen) .5 0 t
59.04 73.44 401.76 516.96 cl
ep
%%Trailer
%%Pages: 1
%%EOF
