%!PS-Adobe-3.0 EPSF-3.0
%%DocumentNeededResources: font Helvetica
%%+ font Helvetica-Bold
%%+ font Helvetica-Oblique
%%+ font Helvetica-BoldOblique
%%+ font Symbol
%%Title: R Graphics Output
%%Creator: R Software
%%Pages: (atend)
%%BoundingBox: 0 0 432 576
%%EndComments
%%BeginProlog
/bp  { gs sRGB gs } def
% begin .ps.prolog
/gs  { gsave } bind def
/gr  { grestore } bind def
/ep  { showpage gr gr } bind def
/m   { moveto } bind def
/l  { rlineto } bind def
/np  { newpath } bind def
/cp  { closepath } bind def
/f   { fill } bind def
/o   { stroke } bind def
/c   { newpath 0 360 arc } bind def
/r   { 4 2 roll moveto 1 copy 3 -1 roll exch 0 exch rlineto 0 rlineto -1 mul 0 exch rlineto closepath } bind def
/p1  { stroke } bind def
/p2  { gsave bg fill grestore newpath } bind def
/p3  { gsave bg fill grestore stroke } bind def
/p6  { gsave bg eofill grestore newpath } bind def
/p7  { gsave bg eofill grestore stroke } bind def
/t   { 5 -2 roll moveto gsave rotate
       1 index stringwidth pop
       mul neg 0 rmoveto show grestore } bind def
/ta  { 4 -2 roll moveto gsave rotate show } bind def
/tb  { 2 -1 roll 0 rmoveto show } bind def
/cl  { grestore gsave newpath 3 index 3 index moveto 1 index
       4 -1 roll lineto  exch 1 index lineto lineto
       closepath clip newpath } bind def
/rgb { setrgbcolor } bind def
/s   { scalefont setfont } bind def
% end   .ps.prolog
/sRGB { [ /CIEBasedABC
          << /DecodeLMN
               [ { dup 0.03928 le
                        {12.92321 div}
                        {0.055 add 1.055 div 2.4 exp }
                     ifelse
                 } bind dup dup
               ]
             /MatrixLMN [0.412457 0.212673 0.019334
                         0.357576 0.715152 0.119192
                         0.180437 0.072175 0.950301]
             /WhitePoint [0.9505 1.0 1.0890]
           >>
         ] setcolorspace } bind def
/srgb { setcolor } bind def
%%IncludeResource: font Helvetica
/Helvetica findfont
dup length dict begin
  {1 index /FID ne {def} {pop pop} ifelse} forall
  /Encoding ISOLatin1Encoding def
  currentdict
  end
/Font1 exch definefont pop
%%IncludeResource: font Helvetica-Bold
/Helvetica-Bold findfont
dup length dict begin
  {1 index /FID ne {def} {pop pop} ifelse} forall
  /Encoding ISOLatin1Encoding def
  currentdict
  end
/Font2 exch definefont pop
%%IncludeResource: font Helvetica-Oblique
/Helvetica-Oblique findfont
dup length dict begin
  {1 index /FID ne {def} {pop pop} ifelse} forall
  /Encoding ISOLatin1Encoding def
  currentdict
  end
/Font3 exch definefont pop
%%IncludeResource: font Helvetica-BoldOblique
/Helvetica-BoldOblique findfont
dup length dict begin
  {1 index /FID ne {def} {pop pop} ifelse} forall
  /Encoding ISOLatin1Encoding def
  currentdict
  end
/Font4 exch definefont pop
%%IncludeResource: font Symbol
/Symbol findfont
dup length dict begin
  {1 index /FID ne {def} {pop pop} ifelse} forall
  currentdict
  end
/Font5 exch definefont pop
%%EndProlog
%%Page: 1 1
bp
0.00 0.00 432.00 576.00 cl
0.00 0.00 432.00 576.00 cl
0.00 0.00 432.00 576.00 cl
/Font1 findfont 12 s
0 0 0 srgb
48.00 508.72 (PCP-ETH) 0 0 t
48.00 494.89 (Blitzlicht-Photolyse) 0 0 t
/Font1 findfont 9 s
48.00 457.54 (File: Dy) 0 ta
-0.180 (e_1_2_V3_900V) tb
-1.125 (.dat) tb gr
48.00 334.87 (T) 0 ta
-1.080 (ue Apr  9 22:08:22 2019) tb gr
48.00 430.87 (Fitfunktion:  a + b * e) 0 ta
-0.270 (xp\(-c * t\)) tb gr
48.00 420.50 (t-Inter) 0 ta
0.270 (v) tb
-0.225 (all: 180.000 ... 8830.000 ms) tb gr
48.00 410.14 (P) 0 ta
-0.360 (ar) tb
-0.090 (ameter \(Standardabw) tb
-0.090 (eichung\):) tb gr
48.00 399.77 (  a = -0.00414 \(0.00023\)) 0 0 t
48.00 389.40 (  b = 0.44005 \(0.00112\)) 0 0 t
48.00 379.03 (  c = 8.283e-01 \(3.208e-03\) s^-1) 0 0 t
48.00 368.66 (  tau = 1.207e+00 \(4.675e-03\) s) 0 0 t
216.00 345.60 388.80 518.40 cl
0 0 0 srgb
0.75 setlinewidth
[] 0 setdash
1 setlinecap
1 setlinejoin
10.00 setmiterlimit
np
222.40 507.23 m
0.15 0.39 l
0.14 -0.27 l
0.15 -0.95 l
0.14 0.67 l
0.15 -0.27 l
0.14 -0.12 l
0.15 -0.15 l
0.14 0.27 l
0.15 -0.27 l
0.15 0.97 l
0.14 0.12 l
0.15 -0.55 l
0.14 -0.27 l
0.15 0 l
0.14 0.70 l
0.15 -0.55 l
0.14 -0.27 l
0.15 0.12 l
0.15 -0.67 l
0.14 1.10 l
0.15 -0.43 l
0.14 0.27 l
0.15 0 l
0.14 -0.82 l
0.15 0.55 l
0.15 0.43 l
0.14 -0.55 l
0.15 0.39 l
0.14 0.16 l
0.15 -0.55 l
0.14 0.55 l
0.15 -0.28 l
0.14 -0.55 l
0.15 0.55 l
0.15 -0.42 l
0.14 0.42 l
0.15 -0.27 l
0.14 -0.28 l
0.15 0.13 l
0.14 0.15 l
0.15 0.82 l
0.14 0.12 l
0.15 -0.55 l
0.15 -0.39 l
0.14 0.12 l
0.15 0 l
0.14 0.27 l
0.15 -0.12 l
0.14 -0.15 l
0.15 0 l
0.14 0.43 l
0.15 -0.55 l
0.15 0.12 l
0.14 0.27 l
0.15 -0.27 l
0.14 0.15 l
0.15 -0.42 l
0.14 0.15 l
0.15 0.12 l
0.15 0.55 l
0.14 -0.40 l
0.15 0 l
0.14 -0.15 l
0.15 0.15 l
0.14 -0.55 l
0.15 0.55 l
0.14 0 l
0.15 -0.27 l
0.15 0.67 l
0.14 -0.40 l
0.15 0.12 l
0.14 0.28 l
0.15 -0.67 l
0.14 0.67 l
0.15 0 l
0.14 -0.12 l
0.15 -0.83 l
0.15 0.95 l
0.14 -0.55 l
0.15 0.27 l
0.14 0.55 l
0.15 -0.67 l
0.14 0 l
0.15 0.28 l
0.14 -0.70 l
0.15 1.09 l
0.15 -0.27 l
0.14 -0.12 l
0.15 0 l
0.14 0.12 l
0.15 -0.55 l
0.14 0.27 l
0.15 0.16 l
0.15 -0.70 l
0.14 0.42 l
0.15 0.12 l
0.14 0 l
0.15 -0.27 l
0.14 0.27 l
236.96 398.96 lineto
0.14 0.53 l
0.15 1.38 l
0.15 1.65 l
0.14 1.64 l
0.15 0.27 l
0.14 0.67 l
0.15 0.97 l
0.14 1.22 l
0.15 0.70 l
0.14 0.67 l
0.15 0.82 l
0.15 1.09 l
0.14 0.28 l
0.15 1.21 l
0.14 0.16 l
0.15 1.21 l
0.14 0.55 l
0.15 0.55 l
0.14 0.97 l
0.15 0.12 l
0.15 0.95 l
0.14 1.36 l
0.15 -0.27 l
0.14 1.25 l
0.15 -0.15 l
0.14 1.36 l
0.15 -0.67 l
0.15 1.65 l
0.14 0.12 l
0.15 0.94 l
0.14 0.97 l
0.15 -0.54 l
0.14 1.91 l
0.15 -0.54 l
0.14 0.39 l
0.15 0.70 l
0.15 0.67 l
0.14 1.25 l
0.15 -0.16 l
0.14 0.83 l
0.15 0.27 l
0.14 1.09 l
0.15 0.55 l
0.14 -0.15 l
0.15 0.82 l
0.15 0.43 l
0.14 0.67 l
0.15 0.70 l
0.14 0.12 l
0.15 1.37 l
0.14 -0.55 l
0.15 1.09 l
0.14 -0.27 l
0.15 0.82 l
0.15 -0.27 l
0.14 1.37 l
0.15 0.39 l
0.14 0 l
0.15 1.79 l
0.14 -0.42 l
0.15 1.37 l
0.15 -0.40 l
0.14 0.55 l
0.15 0.39 l
0.14 0.28 l
0.15 1.64 l
0.14 -0.97 l
0.15 1.09 l
0.14 -0.12 l
0.15 0.55 l
0.15 0.55 l
0.14 0.27 l
0.15 0.55 l
0.14 0.82 l
0.15 0.82 l
0.14 0.12 l
0.15 0.40 l
0.14 0.15 l
0.15 0 l
0.15 1.37 l
0.14 -0.16 l
0.15 0.43 l
0.14 0.40 l
0.15 0.70 l
0.14 0.66 l
0.15 0 l
0.14 1.37 l
0.15 -0.94 l
0.15 1.22 l
0.14 -0.12 l
0.15 0.27 l
0.14 0.67 l
0.15 0.27 l
0.14 1.10 l
0.15 -0.98 l
0.15 1.52 l
0.14 -0.54 l
0.15 0.54 l
0.14 1.37 l
251.52 454.52 lineto
0.14 0.15 l
0.15 1.37 l
0.14 -0.42 l
0.15 0.27 l
0.15 0.94 l
0.14 0 l
0.15 -0.24 l
0.14 0.67 l
0.15 1.21 l
0.14 -0.67 l
0.15 0.28 l
0.14 0.94 l
0.15 0.15 l
0.15 0 l
0.14 0.40 l
0.15 0.97 l
0.14 -0.27 l
0.15 0.39 l
0.14 0.16 l
0.15 0.39 l
0.14 0.55 l
0.15 0.55 l
0.15 0.15 l
0.14 0.12 l
0.15 -0.40 l
0.14 1.34 l
0.15 0.15 l
0.14 0 l
0.15 0.28 l
0.14 0.67 l
0.15 0.15 l
0.15 0.39 l
0.14 0.16 l
0.15 0.67 l
0.14 0 l
0.15 0.15 l
0.14 0.39 l
0.15 0.70 l
0.15 0.12 l
0.14 -0.12 l
0.15 0 l
0.14 0.95 l
0.15 -0.13 l
0.14 0.52 l
0.15 0.43 l
0.14 0.67 l
0.15 -0.83 l
0.15 0.16 l
0.14 1.37 l
0.15 -0.55 l
0.14 0.39 l
0.15 -0.39 l
0.14 0.55 l
0.15 0.82 l
0.14 0.54 l
0.15 0.13 l
0.15 0.27 l
0.14 0.43 l
0.15 -0.16 l
0.14 0.43 l
0.15 0 l
0.14 0.12 l
0.15 0 l
0.14 -0.12 l
0.15 0.94 l
0.15 0.94 l
0.14 -0.94 l
0.15 1.10 l
0.14 -0.43 l
0.15 0.97 l
0.14 -0.42 l
0.15 0.55 l
0.15 0.15 l
0.14 0.12 l
0.15 0.42 l
0.14 0.67 l
0.15 -0.67 l
0.14 1.10 l
0.15 -0.15 l
0.14 0 l
0.15 0.42 l
0.15 -0.27 l
0.14 -0.15 l
0.15 0.70 l
0.14 0.94 l
0.15 -0.67 l
0.14 0.12 l
0.15 0.70 l
0.14 0 l
0.15 0.12 l
0.15 0.28 l
0.14 0.54 l
0.15 -0.12 l
0.14 0.12 l
0.15 0.67 l
0.14 0.16 l
0.15 -0.28 l
0.14 0 l
0.15 0.12 l
266.08 480.46 lineto
0.14 1.22 l
0.15 0 l
0.14 -0.27 l
0.15 0.54 l
0.14 -0.54 l
0.15 0.97 l
0.15 0.55 l
0.14 -0.83 l
0.15 0.95 l
0.14 -0.67 l
0.15 0.82 l
0.14 -0.27 l
0.15 0.54 l
0.14 0 l
0.15 0.55 l
0.15 -0.15 l
0.14 0.15 l
0.15 0.55 l
0.14 -0.28 l
0.15 0.40 l
0.14 0.43 l
0.15 -0.70 l
0.14 0.27 l
0.15 0.15 l
0.15 0.28 l
0.14 1.21 l
0.15 -0.67 l
0.14 0.52 l
0.15 -0.12 l
0.14 0.12 l
0.15 0.43 l
0.14 -0.16 l
0.15 0.98 l
0.15 -0.98 l
0.14 0.43 l
0.15 0.39 l
0.14 -0.39 l
0.15 0.67 l
0.14 -0.55 l
0.15 0 l
0.15 0.97 l
0.14 -0.54 l
0.15 0.54 l
0.14 0.83 l
0.15 -0.98 l
0.14 0.43 l
0.15 0.27 l
0.14 0.82 l
0.15 -0.54 l
0.15 0.12 l
0.14 0 l
0.15 -0.67 l
0.14 0.94 l
0.15 0.43 l
0.14 -0.43 l
0.15 -0.12 l
0.14 0.67 l
0.15 0.42 l
0.15 -0.15 l
0.14 0.15 l
0.15 -0.27 l
0.14 0.40 l
0.15 0.15 l
0.14 -0.15 l
0.15 0.54 l
0.14 -0.67 l
0.15 0.28 l
0.15 0.94 l
0.14 -0.67 l
0.15 0.67 l
0.14 0 l
0.15 0.15 l
0.14 -1.37 l
0.15 1.89 l
0.15 0.15 l
0.14 -0.67 l
0.15 0.25 l
0.14 0.15 l
0.15 0 l
0.14 0.67 l
0.15 0.42 l
0.14 -0.82 l
0.15 0 l
0.15 0.94 l
0.14 0.16 l
0.15 -0.55 l
0.14 -1.49 l
0.15 1.61 l
0.14 1.52 l
0.15 -0.70 l
0.14 -0.55 l
0.15 0.28 l
0.15 0.27 l
0.14 -0.12 l
0.15 0.27 l
0.14 0.28 l
0.15 -0.70 l
0.14 1.24 l
0.15 -1.09 l
280.63 494.79 lineto
0.15 0.42 l
0.15 -0.70 l
0.14 -0.82 l
0.15 0.70 l
0.14 0.12 l
0.15 0.43 l
0.14 0 l
0.15 0.12 l
0.15 -0.27 l
0.14 0.54 l
0.15 -0.12 l
0.14 0.40 l
0.15 -0.95 l
0.14 1.10 l
0.15 0.27 l
0.14 -0.27 l
0.15 0.12 l
0.15 0.28 l
0.14 0 l
0.15 -0.55 l
0.14 0.42 l
0.15 0.28 l
0.14 -0.55 l
0.15 0.40 l
0.14 0 l
0.15 -0.13 l
0.15 0.40 l
0.14 0.27 l
0.15 -0.39 l
0.14 -0.15 l
0.15 0.69 l
0.14 0.95 l
0.15 -0.82 l
0.14 0 l
0.15 -0.55 l
0.15 0.97 l
0.14 0 l
0.15 0 l
0.14 -0.15 l
0.15 0.40 l
0.14 -0.67 l
0.15 0.67 l
0.14 0.42 l
0.15 0 l
0.15 -0.15 l
0.14 -0.12 l
0.15 0 l
0.14 0.12 l
0.15 0.70 l
0.14 -0.55 l
0.15 0.40 l
0.15 0.15 l
0.14 -0.43 l
0.15 0.43 l
0.14 -0.43 l
0.15 0.28 l
0.14 0.42 l
0.15 0.28 l
0.14 -0.28 l
0.15 0.28 l
0.15 0.12 l
0.14 -0.40 l
0.15 0.28 l
0.14 -0.16 l
0.15 0.55 l
0.14 0.28 l
0.15 0.15 l
0.14 -0.43 l
0.15 -0.12 l
0.15 -0.15 l
0.14 0.70 l
0.15 -0.55 l
0.14 0 l
0.15 0.12 l
0.14 0.43 l
0.15 0 l
0.14 0.27 l
0.15 -0.27 l
0.15 0.27 l
0.14 0.27 l
0.15 -0.82 l
0.14 0.67 l
0.15 -0.67 l
0.14 1.10 l
0.15 -0.43 l
0.15 0 l
0.14 -0.27 l
0.15 0 l
0.14 0.55 l
0.15 -0.40 l
0.14 0.82 l
0.15 -0.42 l
0.14 -0.55 l
0.15 0.97 l
0.15 -0.42 l
0.14 0.27 l
0.15 0 l
0.14 -0.12 l
0.15 0.67 l
295.19 501.08 lineto
0.15 0.55 l
0.14 -0.43 l
0.15 0 l
0.15 0 l
0.14 0.16 l
0.15 0.27 l
0.14 -0.27 l
0.15 0.39 l
0.14 0 l
0.15 -0.94 l
0.14 0.39 l
0.15 0.43 l
0.15 0.12 l
0.14 0.55 l
0.15 -1.22 l
0.14 0 l
0.15 0.94 l
0.14 0.16 l
0.15 0 l
0.15 0 l
0.14 0 l
0.15 0.39 l
0.14 -0.39 l
0.15 0.82 l
0.14 -0.82 l
0.15 0.27 l
0.14 0 l
0.15 -0.43 l
0.15 0.28 l
0.14 -0.28 l
0.15 0.28 l
0.14 0.42 l
0.15 0.67 l
0.14 -0.82 l
0.15 -0.12 l
0.14 -0.27 l
0.15 0.39 l
0.15 0.43 l
0.14 0.12 l
0.15 -0.55 l
0.14 0 l
0.15 0.43 l
0.14 -0.70 l
0.15 0.55 l
0.14 0.15 l
0.15 0.27 l
0.15 0.12 l
0.14 -0.54 l
0.15 0.15 l
0.14 0.51 l
0.15 -0.66 l
0.14 0.66 l
0.15 -0.12 l
0.15 -0.12 l
0.14 0.24 l
0.15 0.16 l
0.14 -0.40 l
0.15 0.79 l
0.14 -0.79 l
0.15 0.52 l
0.14 -0.94 l
0.15 0.94 l
0.15 -0.28 l
0.14 0.55 l
0.15 -0.12 l
0.14 -0.55 l
0.15 0.55 l
0.14 -0.27 l
0.15 0.27 l
0.14 0.55 l
0.15 -0.28 l
0.15 0.13 l
0.14 -0.13 l
0.15 -0.27 l
0.14 0.82 l
0.15 -0.82 l
0.14 0 l
0.15 0 l
0.14 0 l
0.15 0.55 l
0.15 0 l
0.14 0.55 l
0.15 -0.16 l
0.14 -0.67 l
0.15 0.13 l
0.14 -0.28 l
0.15 -0.27 l
0.15 0.55 l
0.14 0.54 l
0.15 -0.27 l
0.14 -0.27 l
0.15 0.42 l
0.14 -0.82 l
0.15 0 l
0.14 1.10 l
0.15 -0.83 l
0.15 0.28 l
0.14 0 l
0.15 0 l
309.75 505.16 lineto
0.15 -0.12 l
0.14 -0.28 l
0.15 0.40 l
0.14 -0.12 l
0.15 -0.43 l
0.15 0.27 l
0.14 0 l
0.15 0 l
0.14 0.43 l
0.15 0 l
0.14 -0.70 l
0.15 0 l
0.14 1.37 l
0.15 -0.40 l
0.15 0.12 l
0.14 -0.39 l
0.15 0.12 l
0.14 -0.39 l
0.15 0.54 l
0.14 0 l
0.15 0.28 l
0.15 0.12 l
0.14 -0.94 l
0.15 0 l
0.14 -0.16 l
0.15 0.98 l
0.14 0.12 l
0.15 0.15 l
0.14 -0.70 l
0.15 0.70 l
0.15 -0.27 l
0.14 0.12 l
0.15 -0.40 l
0.14 -0.27 l
0.15 0.55 l
0.14 -0.16 l
0.15 0.98 l
0.14 -0.43 l
0.15 0.55 l
0.15 -0.12 l
0.14 -0.70 l
0.15 0.55 l
0.14 -0.40 l
0.15 0.67 l
0.14 -0.55 l
0.15 -0.55 l
0.14 0.83 l
0.15 0 l
0.15 -0.67 l
0.14 0.82 l
0.15 0 l
0.14 -0.43 l
0.15 0.43 l
0.14 -0.15 l
0.15 0 l
0.15 -0.13 l
0.14 -0.15 l
0.15 0.28 l
0.14 0.27 l
0.15 -0.27 l
0.14 0.27 l
0.15 -0.94 l
0.14 0.94 l
0.15 -0.27 l
0.15 0 l
0.14 0.42 l
0.15 -0.55 l
0.14 0.13 l
0.15 0.70 l
0.14 0 l
0.15 -0.70 l
0.14 0.54 l
0.15 0.43 l
0.15 -1.10 l
0.14 -0.42 l
0.15 1.52 l
0.14 -0.43 l
0.15 0.55 l
0.14 -0.27 l
0.15 -0.95 l
0.14 0.28 l
0.15 0.82 l
0.15 0.39 l
0.14 -0.82 l
0.15 -0.12 l
0.14 0.28 l
0.15 -0.16 l
0.14 -0.54 l
0.15 0.27 l
0.14 0.15 l
0.15 0.55 l
0.15 -0.27 l
0.14 -0.55 l
0.15 0.82 l
0.14 -0.15 l
0.15 -0.28 l
0.14 0.43 l
0.15 -0.43 l
0.15 0.16 l
324.31 507.50 lineto
0.15 -0.15 l
0.14 -0.12 l
0.15 0.12 l
0.14 0 l
0.15 -0.28 l
0.14 0.28 l
0.15 -0.28 l
0.15 0.98 l
0.14 -0.43 l
0.15 -1.09 l
0.14 0.70 l
0.15 0.66 l
0.14 0.16 l
0.15 -0.43 l
0.14 -0.27 l
0.15 0.27 l
0.15 -0.27 l
0.14 -0.40 l
0.15 1.37 l
0.14 -0.43 l
0.15 -0.12 l
0.14 0.67 l
0.15 -1.64 l
0.14 0.70 l
0.15 -0.15 l
0.15 0.97 l
0.14 -0.15 l
0.15 0 l
0.14 -0.55 l
0.15 0.27 l
0.14 0.43 l
0.15 -0.70 l
0.15 0.27 l
0.14 -0.12 l
0.15 0 l
0.14 0.12 l
0.15 -0.39 l
0.14 0.55 l
0.15 0.39 l
0.14 0 l
0.15 -0.12 l
0.15 0.12 l
0.14 0 l
0.15 -0.27 l
0.14 0.15 l
0.15 -0.70 l
0.14 0.70 l
0.15 -0.82 l
0.14 0.94 l
0.15 -0.82 l
0.15 0.27 l
0.14 0.28 l
0.15 -0.28 l
0.14 0.43 l
0.15 0 l
0.14 -0.15 l
0.15 0.27 l
0.14 -0.12 l
0.15 -1.09 l
0.15 1.09 l
0.14 -0.15 l
0.15 0.27 l
0.14 -0.12 l
0.15 0.40 l
0.14 -0.40 l
0.15 0.27 l
0.15 0.13 l
0.14 -0.95 l
0.15 0.67 l
0.14 -0.12 l
0.15 0.67 l
0.14 -0.82 l
0.15 0.55 l
0.14 -0.28 l
0.15 -0.55 l
0.15 0.16 l
0.14 -0.16 l
0.15 1.25 l
0.14 -0.97 l
0.15 0.55 l
0.14 -0.13 l
0.15 -0.15 l
0.14 -0.12 l
0.15 0.40 l
0.15 0 l
0.14 -0.55 l
0.15 0.27 l
0.14 0.82 l
0.15 -0.94 l
0.14 0.55 l
0.15 -0.43 l
0.14 0.28 l
0.15 -0.13 l
0.15 0.67 l
0.14 -0.94 l
0.15 0 l
0.14 0.12 l
0.15 0.70 l
0.14 -0.27 l
338.87 508.87 lineto
0.15 0.27 l
0.14 -0.82 l
0.15 0.27 l
0.14 0.55 l
0.15 -0.55 l
0.14 -0.15 l
0.15 1.49 l
0.14 -0.39 l
0.15 -0.95 l
0.15 0.40 l
0.14 0 l
0.15 0 l
0.14 -0.12 l
0.15 0.67 l
0.14 -0.82 l
0.15 0.27 l
0.14 0.27 l
0.15 -0.67 l
0.15 0.28 l
0.14 0.94 l
0.15 -0.55 l
0.14 0 l
0.15 -0.12 l
0.14 -0.15 l
0.15 0.27 l
0.14 -0.12 l
0.15 -0.27 l
0.15 0.79 l
0.14 -0.94 l
0.15 1.09 l
0.14 -0.55 l
0.15 -0.94 l
0.14 0.67 l
0.15 0.39 l
0.15 0.16 l
0.14 0.54 l
0.15 -0.54 l
0.14 -0.82 l
0.15 -0.13 l
0.14 0.79 l
0.15 -0.12 l
0.14 0.82 l
0.15 -0.82 l
0.15 -0.27 l
0.14 0.15 l
0.15 0.40 l
0.14 0 l
0.15 -0.95 l
0.14 1.34 l
0.15 0.15 l
0.14 -1.21 l
0.15 0.12 l
0.15 0 l
0.14 0.67 l
0.15 -0.94 l
0.14 0.27 l
0.15 0 l
0.14 0.27 l
0.15 0 l
0.14 0.55 l
0.15 -0.67 l
0.15 0.52 l
0.14 -0.40 l
0.15 0.55 l
0.14 -0.15 l
0.15 -0.28 l
0.14 0.16 l
0.15 -1.10 l
0.15 0.94 l
0.14 0.70 l
0.15 -0.94 l
0.14 0.67 l
0.15 -0.27 l
0.14 0.39 l
0.15 -0.27 l
0.14 0.42 l
0.15 -0.27 l
0.15 -0.43 l
0.14 0.28 l
0.15 0.15 l
0.14 -0.15 l
0.15 -0.28 l
0.14 0.16 l
0.15 0.39 l
0.14 -0.67 l
0.15 0.67 l
0.15 -0.55 l
0.14 0.55 l
0.15 -0.12 l
0.14 -0.55 l
0.15 0.12 l
0.14 0.28 l
0.15 -0.12 l
0.14 0 l
0.15 0.27 l
0.15 -0.27 l
0.14 0.39 l
0.15 -0.27 l
0.14 0 l
353.43 509.81 lineto
0.14 -0.27 l
0.15 0.27 l
0.14 -0.27 l
0.15 0.67 l
0.15 0.15 l
0.14 -0.70 l
0.15 0.42 l
0.14 0.28 l
0.15 -0.82 l
0.14 1.09 l
0.15 -0.97 l
0.15 0.82 l
0.14 0 l
0.15 -0.40 l
0.14 -0.70 l
0.15 0.70 l
0.14 -0.70 l
0.15 0.43 l
0.14 0.55 l
0.15 -0.15 l
0.15 -0.28 l
0.14 0.15 l
0.15 -0.15 l
0.14 0 l
0.15 -0.12 l
0.14 0.94 l
0.15 -0.39 l
0.14 -0.55 l
0.15 0.40 l
0.15 0.42 l
0.14 -0.82 l
0.15 0.55 l
0.14 -0.15 l
0.15 0.27 l
0.14 -0.12 l
0.15 -0.43 l
0.14 -0.27 l
0.15 0.70 l
0.15 0.27 l
0.14 -0.15 l
0.15 -0.12 l
0.14 -0.55 l
0.15 -0.67 l
0.14 1.34 l
0.15 -0.67 l
0.15 0.12 l
0.14 0.55 l
0.15 0 l
0.14 -0.55 l
0.15 0.55 l
0.14 -0.94 l
0.15 0.12 l
0.14 1.09 l
0.15 0.16 l
0.15 -0.70 l
0.14 0 l
0.15 -0.13 l
0.14 0.28 l
0.15 -0.43 l
0.14 0.55 l
0.15 0.27 l
0.14 -0.67 l
0.15 0.55 l
0.15 0 l
0.14 -0.15 l
0.15 0 l
0.14 0 l
0.15 0.15 l
0.14 -0.27 l
0.15 0.55 l
0.14 -0.83 l
0.15 0 l
0.15 0.55 l
0.14 -0.55 l
0.15 0.28 l
0.14 0.39 l
0.15 -0.12 l
0.14 0.12 l
0.15 -0.39 l
0.15 0.55 l
0.14 -0.83 l
0.15 1.49 l
0.14 -2.19 l
0.15 1.10 l
0.14 -0.12 l
0.15 0.82 l
0.14 -0.82 l
0.15 0.12 l
0.15 0.15 l
0.14 0.28 l
0.15 -0.16 l
0.14 0.28 l
0.15 -0.67 l
0.14 -0.28 l
0.15 1.10 l
0.14 -0.15 l
0.15 -0.12 l
0.15 -0.28 l
0.14 0.28 l
currentpoint o m
367.99 510.75 lineto
0.14 -0.12 l
0.15 0.82 l
0.14 -1.09 l
0.15 0.82 l
0.14 -0.27 l
0.15 -0.83 l
0.15 0.83 l
0.14 -0.28 l
0.15 0 l
0.14 0.82 l
0.15 -0.15 l
0.14 0.15 l
0.15 -0.82 l
0.15 -0.15 l
0.14 0.82 l
0.15 -0.39 l
0.14 0.54 l
0.15 -0.27 l
0.14 0.12 l
0.15 -0.55 l
0.14 0.55 l
0.15 -0.55 l
0.15 -0.54 l
0.14 0.82 l
0.15 -0.12 l
0.14 0.39 l
0.15 -0.12 l
0.14 -0.43 l
0.15 -0.54 l
0.14 1.52 l
0.15 -0.16 l
0.15 -0.66 l
0.14 0.12 l
0.15 0.15 l
0.14 -0.27 l
0.15 -0.70 l
0.14 0.82 l
0.15 0 l
0.14 0.42 l
0.15 -0.70 l
0.15 0.43 l
0.14 0.12 l
0.15 -0.12 l
0.14 0.55 l
0.15 -0.43 l
0.14 -0.39 l
0.15 0 l
0.15 0.94 l
0.14 -0.82 l
0.15 0.27 l
0.14 -0.12 l
0.15 0.27 l
0.14 -0.42 l
0.15 0.27 l
0.14 0.70 l
0.15 -0.97 l
0.15 0.27 l
0.14 -0.12 l
0.15 0.67 l
0.14 -0.55 l
0.15 -0.12 l
0.14 0.12 l
0.15 -0.12 l
0.14 0.27 l
0.15 -0.27 l
0.15 0.67 l
0.14 -0.40 l
0.15 -0.15 l
0.14 0.27 l
0.15 -0.12 l
0.14 0 l
0.15 0.12 l
0.14 -0.54 l
0.15 0.15 l
0.15 0.27 l
0.14 -0.42 l
0.15 0.15 l
0.14 0 l
0.15 0.39 l
0.14 0.28 l
0.15 -0.55 l
0.15 0.15 l
0.14 0 l
0.15 0.28 l
0.14 -0.28 l
0.15 0.28 l
0.14 0 l
0.15 -0.70 l
0.14 0.27 l
0.15 0 l
0.15 0.27 l
0.14 -0.39 l
0.15 0 l
0.14 0.12 l
0.15 -0.27 l
0.14 0.42 l
0.15 0.28 l
0.14 -0.43 l
0.15 -0.12 l
o
/bg { 1 1 1 srgb } def
222.40 507.23 0.43 c p3
222.55 507.62 0.43 c p3
222.69 507.35 0.43 c p3
222.84 506.40 0.43 c p3
222.98 507.07 0.43 c p3
223.13 506.80 0.43 c p3
223.27 506.68 0.43 c p3
223.42 506.53 0.43 c p3
223.56 506.80 0.43 c p3
223.71 506.53 0.43 c p3
223.86 507.50 0.43 c p3
224.00 507.62 0.43 c p3
224.15 507.07 0.43 c p3
224.29 506.80 0.43 c p3
224.44 506.80 0.43 c p3
224.58 507.50 0.43 c p3
224.73 506.95 0.43 c p3
224.87 506.68 0.43 c p3
225.02 506.80 0.43 c p3
225.17 506.13 0.43 c p3
225.31 507.23 0.43 c p3
225.46 506.80 0.43 c p3
225.60 507.07 0.43 c p3
225.75 507.07 0.43 c p3
225.89 506.25 0.43 c p3
226.04 506.80 0.43 c p3
226.19 507.23 0.43 c p3
226.33 506.68 0.43 c p3
226.48 507.07 0.43 c p3
226.62 507.23 0.43 c p3
226.77 506.68 0.43 c p3
226.91 507.23 0.43 c p3
227.06 506.95 0.43 c p3
227.20 506.40 0.43 c p3
227.35 506.95 0.43 c p3
227.50 506.53 0.43 c p3
227.64 506.95 0.43 c p3
227.79 506.68 0.43 c p3
227.93 506.40 0.43 c p3
228.08 506.53 0.43 c p3
228.22 506.68 0.43 c p3
228.37 507.50 0.43 c p3
228.51 507.62 0.43 c p3
228.66 507.07 0.43 c p3
228.81 506.68 0.43 c p3
228.95 506.80 0.43 c p3
229.10 506.80 0.43 c p3
229.24 507.07 0.43 c p3
229.39 506.95 0.43 c p3
229.53 506.80 0.43 c p3
229.68 506.80 0.43 c p3
229.82 507.23 0.43 c p3
229.97 506.68 0.43 c p3
230.12 506.80 0.43 c p3
230.26 507.07 0.43 c p3
230.41 506.80 0.43 c p3
230.55 506.95 0.43 c p3
230.70 506.53 0.43 c p3
230.84 506.68 0.43 c p3
230.99 506.80 0.43 c p3
231.14 507.35 0.43 c p3
231.28 506.95 0.43 c p3
231.43 506.95 0.43 c p3
231.57 506.80 0.43 c p3
231.72 506.95 0.43 c p3
231.86 506.40 0.43 c p3
232.01 506.95 0.43 c p3
232.15 506.95 0.43 c p3
232.30 506.68 0.43 c p3
232.45 507.35 0.43 c p3
232.59 506.95 0.43 c p3
232.74 507.07 0.43 c p3
232.88 507.35 0.43 c p3
233.03 506.68 0.43 c p3
233.17 507.35 0.43 c p3
233.32 507.35 0.43 c p3
233.46 507.23 0.43 c p3
233.61 506.40 0.43 c p3
233.76 507.35 0.43 c p3
233.90 506.80 0.43 c p3
234.05 507.07 0.43 c p3
234.19 507.62 0.43 c p3
234.34 506.95 0.43 c p3
234.48 506.95 0.43 c p3
234.63 507.23 0.43 c p3
234.77 506.53 0.43 c p3
234.92 507.62 0.43 c p3
235.07 507.35 0.43 c p3
235.21 507.23 0.43 c p3
235.36 507.23 0.43 c p3
235.50 507.35 0.43 c p3
235.65 506.80 0.43 c p3
235.79 507.07 0.43 c p3
235.94 507.23 0.43 c p3
236.09 506.53 0.43 c p3
236.23 506.95 0.43 c p3
236.38 507.07 0.43 c p3
236.52 507.07 0.43 c p3
236.67 506.80 0.43 c p3
236.81 507.07 0.43 c p3
236.96 398.96 0.43 c p3
237.10 399.49 0.43 c p3
237.25 400.87 0.43 c p3
237.40 402.52 0.43 c p3
237.54 404.16 0.43 c p3
237.69 404.43 0.43 c p3
237.83 405.10 0.43 c p3
237.98 406.07 0.43 c p3
238.12 407.29 0.43 c p3
238.27 407.99 0.43 c p3
238.41 408.66 0.43 c p3
238.56 409.48 0.43 c p3
238.71 410.57 0.43 c p3
238.85 410.85 0.43 c p3
239.00 412.06 0.43 c p3
239.14 412.22 0.43 c p3
239.29 413.43 0.43 c p3
239.43 413.98 0.43 c p3
239.58 414.53 0.43 c p3
239.72 415.50 0.43 c p3
239.87 415.62 0.43 c p3
240.02 416.57 0.43 c p3
240.16 417.93 0.43 c p3
240.31 417.66 0.43 c p3
240.45 418.91 0.43 c p3
240.60 418.76 0.43 c p3
240.74 420.12 0.43 c p3
240.89 419.45 0.43 c p3
241.04 421.10 0.43 c p3
241.18 421.22 0.43 c p3
241.33 422.16 0.43 c p3
241.47 423.13 0.43 c p3
241.62 422.59 0.43 c p3
241.76 424.50 0.43 c p3
241.91 423.96 0.43 c p3
242.05 424.35 0.43 c p3
242.20 425.05 0.43 c p3
242.35 425.72 0.43 c p3
242.49 426.97 0.43 c p3
242.64 426.81 0.43 c p3
242.78 427.64 0.43 c p3
242.93 427.91 0.43 c p3
243.07 429.00 0.43 c p3
243.22 429.55 0.43 c p3
243.36 429.40 0.43 c p3
243.51 430.22 0.43 c p3
243.66 430.65 0.43 c p3
243.80 431.32 0.43 c p3
243.95 432.02 0.43 c p3
244.09 432.14 0.43 c p3
244.24 433.51 0.43 c p3
244.38 432.96 0.43 c p3
244.53 434.05 0.43 c p3
244.67 433.78 0.43 c p3
244.82 434.60 0.43 c p3
244.97 434.33 0.43 c p3
245.11 435.70 0.43 c p3
245.26 436.09 0.43 c p3
245.40 436.09 0.43 c p3
245.55 437.88 0.43 c p3
245.69 437.46 0.43 c p3
245.84 438.83 0.43 c p3
245.99 438.43 0.43 c p3
246.13 438.98 0.43 c p3
246.28 439.37 0.43 c p3
246.42 439.65 0.43 c p3
246.57 441.29 0.43 c p3
246.71 440.32 0.43 c p3
246.86 441.41 0.43 c p3
247.00 441.29 0.43 c p3
247.15 441.84 0.43 c p3
247.30 442.39 0.43 c p3
247.44 442.66 0.43 c p3
247.59 443.21 0.43 c p3
247.73 444.03 0.43 c p3
247.88 444.85 0.43 c p3
248.02 444.97 0.43 c p3
248.17 445.37 0.43 c p3
248.31 445.52 0.43 c p3
248.46 445.52 0.43 c p3
248.61 446.89 0.43 c p3
248.75 446.73 0.43 c p3
248.90 447.16 0.43 c p3
249.04 447.56 0.43 c p3
249.19 448.26 0.43 c p3
249.33 448.92 0.43 c p3
249.48 448.92 0.43 c p3
249.62 450.29 0.43 c p3
249.77 449.35 0.43 c p3
249.92 450.57 0.43 c p3
250.06 450.45 0.43 c p3
250.21 450.72 0.43 c p3
250.35 451.39 0.43 c p3
250.50 451.66 0.43 c p3
250.64 452.76 0.43 c p3
250.79 451.78 0.43 c p3
250.94 453.30 0.43 c p3
251.08 452.76 0.43 c p3
251.23 453.30 0.43 c p3
251.37 454.67 0.43 c p3
251.52 454.52 0.43 c p3
251.66 454.67 0.43 c p3
251.81 456.04 0.43 c p3
251.95 455.62 0.43 c p3
252.10 455.89 0.43 c p3
252.25 456.83 0.43 c p3
252.39 456.83 0.43 c p3
252.54 456.59 0.43 c p3
252.68 457.26 0.43 c p3
252.83 458.47 0.43 c p3
252.97 457.80 0.43 c p3
253.12 458.08 0.43 c p3
253.26 459.02 0.43 c p3
253.41 459.17 0.43 c p3
253.56 459.17 0.43 c p3
253.70 459.57 0.43 c p3
253.85 460.54 0.43 c p3
253.99 460.27 0.43 c p3
254.14 460.66 0.43 c p3
254.28 460.82 0.43 c p3
254.43 461.21 0.43 c p3
254.57 461.76 0.43 c p3
254.72 462.31 0.43 c p3
254.87 462.46 0.43 c p3
255.01 462.58 0.43 c p3
255.16 462.18 0.43 c p3
255.30 463.52 0.43 c p3
255.45 463.67 0.43 c p3
255.59 463.67 0.43 c p3
255.74 463.95 0.43 c p3
255.88 464.62 0.43 c p3
256.03 464.77 0.43 c p3
256.18 465.16 0.43 c p3
256.32 465.32 0.43 c p3
256.47 465.99 0.43 c p3
256.61 465.99 0.43 c p3
256.76 466.14 0.43 c p3
256.90 466.53 0.43 c p3
257.05 467.23 0.43 c p3
257.20 467.35 0.43 c p3
257.34 467.23 0.43 c p3
257.49 467.23 0.43 c p3
257.63 468.18 0.43 c p3
257.78 468.05 0.43 c p3
257.92 468.57 0.43 c p3
258.07 469.00 0.43 c p3
258.21 469.67 0.43 c p3
258.36 468.84 0.43 c p3
258.51 469.00 0.43 c p3
258.65 470.37 0.43 c p3
258.80 469.82 0.43 c p3
258.94 470.21 0.43 c p3
259.09 469.82 0.43 c p3
259.23 470.37 0.43 c p3
259.38 471.19 0.43 c p3
259.52 471.73 0.43 c p3
259.67 471.86 0.43 c p3
259.82 472.13 0.43 c p3
259.96 472.56 0.43 c p3
260.11 472.40 0.43 c p3
260.25 472.83 0.43 c p3
260.40 472.83 0.43 c p3
260.54 472.95 0.43 c p3
260.69 472.95 0.43 c p3
260.83 472.83 0.43 c p3
260.98 473.77 0.43 c p3
261.13 474.71 0.43 c p3
261.27 473.77 0.43 c p3
261.42 474.87 0.43 c p3
261.56 474.44 0.43 c p3
261.71 475.41 0.43 c p3
261.85 474.99 0.43 c p3
262.00 475.54 0.43 c p3
262.15 475.69 0.43 c p3
262.29 475.81 0.43 c p3
262.44 476.23 0.43 c p3
262.58 476.90 0.43 c p3
262.73 476.23 0.43 c p3
262.87 477.33 0.43 c p3
263.02 477.18 0.43 c p3
263.16 477.18 0.43 c p3
263.31 477.60 0.43 c p3
263.46 477.33 0.43 c p3
263.60 477.18 0.43 c p3
263.75 477.88 0.43 c p3
263.89 478.82 0.43 c p3
264.04 478.15 0.43 c p3
264.18 478.27 0.43 c p3
264.33 478.97 0.43 c p3
264.47 478.97 0.43 c p3
264.62 479.09 0.43 c p3
264.77 479.37 0.43 c p3
264.91 479.91 0.43 c p3
265.06 479.79 0.43 c p3
265.20 479.91 0.43 c p3
265.35 480.58 0.43 c p3
265.49 480.74 0.43 c p3
265.64 480.46 0.43 c p3
265.78 480.46 0.43 c p3
265.93 480.58 0.43 c p3
266.08 480.46 0.43 c p3
266.22 481.68 0.43 c p3
266.37 481.68 0.43 c p3
266.51 481.41 0.43 c p3
266.66 481.95 0.43 c p3
266.80 481.41 0.43 c p3
266.95 482.38 0.43 c p3
267.10 482.93 0.43 c p3
267.24 482.10 0.43 c p3
267.39 483.05 0.43 c p3
267.53 482.38 0.43 c p3
267.68 483.20 0.43 c p3
267.82 482.93 0.43 c p3
267.97 483.47 0.43 c p3
268.11 483.47 0.43 c p3
268.26 484.02 0.43 c p3
268.41 483.87 0.43 c p3
268.55 484.02 0.43 c p3
268.70 484.57 0.43 c p3
268.84 484.29 0.43 c p3
268.99 484.69 0.43 c p3
269.13 485.12 0.43 c p3
269.28 484.42 0.43 c p3
269.42 484.69 0.43 c p3
269.57 484.84 0.43 c p3
269.72 485.12 0.43 c p3
269.86 486.33 0.43 c p3
270.01 485.66 0.43 c p3
270.15 486.18 0.43 c p3
270.30 486.06 0.43 c p3
270.44 486.18 0.43 c p3
270.59 486.61 0.43 c p3
270.73 486.45 0.43 c p3
270.88 487.43 0.43 c p3
271.03 486.45 0.43 c p3
271.17 486.88 0.43 c p3
271.32 487.27 0.43 c p3
271.46 486.88 0.43 c p3
271.61 487.55 0.43 c p3
271.75 487.00 0.43 c p3
271.90 487.00 0.43 c p3
272.05 487.97 0.43 c p3
272.19 487.43 0.43 c p3
272.34 487.97 0.43 c p3
272.48 488.80 0.43 c p3
272.63 487.82 0.43 c p3
272.77 488.25 0.43 c p3
272.92 488.52 0.43 c p3
273.06 489.34 0.43 c p3
273.21 488.80 0.43 c p3
273.36 488.92 0.43 c p3
273.50 488.92 0.43 c p3
273.65 488.25 0.43 c p3
273.79 489.19 0.43 c p3
273.94 489.62 0.43 c p3
274.08 489.19 0.43 c p3
274.23 489.07 0.43 c p3
274.37 489.74 0.43 c p3
274.52 490.16 0.43 c p3
274.67 490.01 0.43 c p3
274.81 490.16 0.43 c p3
274.96 489.89 0.43 c p3
275.10 490.29 0.43 c p3
275.25 490.44 0.43 c p3
275.39 490.29 0.43 c p3
275.54 490.83 0.43 c p3
275.68 490.16 0.43 c p3
275.83 490.44 0.43 c p3
275.98 491.38 0.43 c p3
276.12 490.71 0.43 c p3
276.27 491.38 0.43 c p3
276.41 491.38 0.43 c p3
276.56 491.53 0.43 c p3
276.70 490.16 0.43 c p3
276.85 492.05 0.43 c p3
277.00 492.20 0.43 c p3
277.14 491.53 0.43 c p3
277.29 491.78 0.43 c p3
277.43 491.93 0.43 c p3
277.58 491.93 0.43 c p3
277.72 492.60 0.43 c p3
277.87 493.02 0.43 c p3
278.01 492.20 0.43 c p3
278.16 492.20 0.43 c p3
278.31 493.14 0.43 c p3
278.45 493.30 0.43 c p3
278.60 492.75 0.43 c p3
278.74 491.26 0.43 c p3
278.89 492.87 0.43 c p3
279.03 494.39 0.43 c p3
279.18 493.69 0.43 c p3
279.32 493.14 0.43 c p3
279.47 493.42 0.43 c p3
279.62 493.69 0.43 c p3
279.76 493.57 0.43 c p3
279.91 493.84 0.43 c p3
280.05 494.12 0.43 c p3
280.20 493.42 0.43 c p3
280.34 494.66 0.43 c p3
280.49 493.57 0.43 c p3
280.63 494.79 0.43 c p3
280.78 495.21 0.43 c p3
280.93 494.51 0.43 c p3
281.07 493.69 0.43 c p3
281.22 494.39 0.43 c p3
281.36 494.51 0.43 c p3
281.51 494.94 0.43 c p3
281.65 494.94 0.43 c p3
281.80 495.06 0.43 c p3
281.95 494.79 0.43 c p3
282.09 495.33 0.43 c p3
282.24 495.21 0.43 c p3
282.38 495.61 0.43 c p3
282.53 494.66 0.43 c p3
282.67 495.76 0.43 c p3
282.82 496.03 0.43 c p3
282.96 495.76 0.43 c p3
283.11 495.88 0.43 c p3
283.26 496.16 0.43 c p3
283.40 496.16 0.43 c p3
283.55 495.61 0.43 c p3
283.69 496.03 0.43 c p3
283.84 496.31 0.43 c p3
283.98 495.76 0.43 c p3
284.13 496.16 0.43 c p3
284.27 496.16 0.43 c p3
284.42 496.03 0.43 c p3
284.57 496.43 0.43 c p3
284.71 496.70 0.43 c p3
284.86 496.31 0.43 c p3
285.00 496.16 0.43 c p3
285.15 496.85 0.43 c p3
285.29 497.80 0.43 c p3
285.44 496.98 0.43 c p3
285.58 496.98 0.43 c p3
285.73 496.43 0.43 c p3
285.88 497.40 0.43 c p3
286.02 497.40 0.43 c p3
286.17 497.40 0.43 c p3
286.31 497.25 0.43 c p3
286.46 497.65 0.43 c p3
286.60 496.98 0.43 c p3
286.75 497.65 0.43 c p3
286.89 498.07 0.43 c p3
287.04 498.07 0.43 c p3
287.19 497.92 0.43 c p3
287.33 497.80 0.43 c p3
287.48 497.80 0.43 c p3
287.62 497.92 0.43 c p3
287.77 498.62 0.43 c p3
287.91 498.07 0.43 c p3
288.06 498.47 0.43 c p3
288.21 498.62 0.43 c p3
288.35 498.19 0.43 c p3
288.50 498.62 0.43 c p3
288.64 498.19 0.43 c p3
288.79 498.47 0.43 c p3
288.93 498.89 0.43 c p3
289.08 499.17 0.43 c p3
289.22 498.89 0.43 c p3
289.37 499.17 0.43 c p3
289.52 499.29 0.43 c p3
289.66 498.89 0.43 c p3
289.81 499.17 0.43 c p3
289.95 499.01 0.43 c p3
290.10 499.56 0.43 c p3
290.24 499.84 0.43 c p3
290.39 499.99 0.43 c p3
290.53 499.56 0.43 c p3
290.68 499.44 0.43 c p3
290.83 499.29 0.43 c p3
290.97 499.99 0.43 c p3
291.12 499.44 0.43 c p3
291.26 499.44 0.43 c p3
291.41 499.56 0.43 c p3
291.55 499.99 0.43 c p3
291.70 499.99 0.43 c p3
291.84 500.26 0.43 c p3
291.99 499.99 0.43 c p3
292.14 500.26 0.43 c p3
292.28 500.53 0.43 c p3
292.43 499.71 0.43 c p3
292.57 500.38 0.43 c p3
292.72 499.71 0.43 c p3
292.86 500.81 0.43 c p3
293.01 500.38 0.43 c p3
293.16 500.38 0.43 c p3
293.30 500.11 0.43 c p3
293.45 500.11 0.43 c p3
293.59 500.66 0.43 c p3
293.74 500.26 0.43 c p3
293.88 501.08 0.43 c p3
294.03 500.66 0.43 c p3
294.17 500.11 0.43 c p3
294.32 501.08 0.43 c p3
294.47 500.66 0.43 c p3
294.61 500.93 0.43 c p3
294.76 500.93 0.43 c p3
294.90 500.81 0.43 c p3
295.05 501.48 0.43 c p3
295.19 501.08 0.43 c p3
295.34 501.63 0.43 c p3
295.48 501.20 0.43 c p3
295.63 501.20 0.43 c p3
295.78 501.20 0.43 c p3
295.92 501.36 0.43 c p3
296.07 501.63 0.43 c p3
296.21 501.36 0.43 c p3
296.36 501.75 0.43 c p3
296.50 501.75 0.43 c p3
296.65 500.81 0.43 c p3
296.79 501.20 0.43 c p3
296.94 501.63 0.43 c p3
297.09 501.75 0.43 c p3
297.23 502.30 0.43 c p3
297.38 501.08 0.43 c p3
297.52 501.08 0.43 c p3
297.67 502.02 0.43 c p3
297.81 502.18 0.43 c p3
297.96 502.18 0.43 c p3
298.11 502.18 0.43 c p3
298.25 502.18 0.43 c p3
298.40 502.57 0.43 c p3
298.54 502.18 0.43 c p3
298.69 503.00 0.43 c p3
298.83 502.18 0.43 c p3
298.98 502.45 0.43 c p3
299.12 502.45 0.43 c p3
299.27 502.02 0.43 c p3
299.42 502.30 0.43 c p3
299.56 502.02 0.43 c p3
299.71 502.30 0.43 c p3
299.85 502.72 0.43 c p3
300.00 503.39 0.43 c p3
300.14 502.57 0.43 c p3
300.29 502.45 0.43 c p3
300.43 502.18 0.43 c p3
300.58 502.57 0.43 c p3
300.73 503.00 0.43 c p3
300.87 503.12 0.43 c p3
301.02 502.57 0.43 c p3
301.16 502.57 0.43 c p3
301.31 503.00 0.43 c p3
301.45 502.30 0.43 c p3
301.60 502.85 0.43 c p3
301.74 503.00 0.43 c p3
301.89 503.27 0.43 c p3
302.04 503.39 0.43 c p3
302.18 502.85 0.43 c p3
302.33 503.00 0.43 c p3
302.47 503.51 0.43 c p3
302.62 502.85 0.43 c p3
302.76 503.51 0.43 c p3
302.91 503.39 0.43 c p3
303.06 503.27 0.43 c p3
303.20 503.51 0.43 c p3
303.35 503.67 0.43 c p3
303.49 503.27 0.43 c p3
303.64 504.06 0.43 c p3
303.78 503.27 0.43 c p3
303.93 503.79 0.43 c p3
304.07 502.85 0.43 c p3
304.22 503.79 0.43 c p3
304.37 503.51 0.43 c p3
304.51 504.06 0.43 c p3
304.66 503.94 0.43 c p3
304.80 503.39 0.43 c p3
304.95 503.94 0.43 c p3
305.09 503.67 0.43 c p3
305.24 503.94 0.43 c p3
305.38 504.49 0.43 c p3
305.53 504.21 0.43 c p3
305.68 504.34 0.43 c p3
305.82 504.21 0.43 c p3
305.97 503.94 0.43 c p3
306.11 504.76 0.43 c p3
306.26 503.94 0.43 c p3
306.40 503.94 0.43 c p3
306.55 503.94 0.43 c p3
306.69 503.94 0.43 c p3
306.84 504.49 0.43 c p3
306.99 504.49 0.43 c p3
307.13 505.04 0.43 c p3
307.28 504.88 0.43 c p3
307.42 504.21 0.43 c p3
307.57 504.34 0.43 c p3
307.71 504.06 0.43 c p3
307.86 503.79 0.43 c p3
308.01 504.34 0.43 c p3
308.15 504.88 0.43 c p3
308.30 504.61 0.43 c p3
308.44 504.34 0.43 c p3
308.59 504.76 0.43 c p3
308.73 503.94 0.43 c p3
308.88 503.94 0.43 c p3
309.02 505.04 0.43 c p3
309.17 504.21 0.43 c p3
309.32 504.49 0.43 c p3
309.46 504.49 0.43 c p3
309.61 504.49 0.43 c p3
309.75 505.16 0.43 c p3
309.90 505.04 0.43 c p3
310.04 504.76 0.43 c p3
310.19 505.16 0.43 c p3
310.33 505.04 0.43 c p3
310.48 504.61 0.43 c p3
310.63 504.88 0.43 c p3
310.77 504.88 0.43 c p3
310.92 504.88 0.43 c p3
311.06 505.31 0.43 c p3
311.21 505.31 0.43 c p3
311.35 504.61 0.43 c p3
311.50 504.61 0.43 c p3
311.64 505.98 0.43 c p3
311.79 505.58 0.43 c p3
311.94 505.70 0.43 c p3
312.08 505.31 0.43 c p3
312.23 505.43 0.43 c p3
312.37 505.04 0.43 c p3
312.52 505.58 0.43 c p3
312.66 505.58 0.43 c p3
312.81 505.86 0.43 c p3
312.96 505.98 0.43 c p3
313.10 505.04 0.43 c p3
313.25 505.04 0.43 c p3
313.39 504.88 0.43 c p3
313.54 505.86 0.43 c p3
313.68 505.98 0.43 c p3
313.83 506.13 0.43 c p3
313.97 505.43 0.43 c p3
314.12 506.13 0.43 c p3
314.27 505.86 0.43 c p3
314.41 505.98 0.43 c p3
314.56 505.58 0.43 c p3
314.70 505.31 0.43 c p3
314.85 505.86 0.43 c p3
314.99 505.70 0.43 c p3
315.14 506.68 0.43 c p3
315.28 506.25 0.43 c p3
315.43 506.80 0.43 c p3
315.58 506.68 0.43 c p3
315.72 505.98 0.43 c p3
315.87 506.53 0.43 c p3
316.01 506.13 0.43 c p3
316.16 506.80 0.43 c p3
316.30 506.25 0.43 c p3
316.45 505.70 0.43 c p3
316.59 506.53 0.43 c p3
316.74 506.53 0.43 c p3
316.89 505.86 0.43 c p3
317.03 506.68 0.43 c p3
317.18 506.68 0.43 c p3
317.32 506.25 0.43 c p3
317.47 506.68 0.43 c p3
317.61 506.53 0.43 c p3
317.76 506.53 0.43 c p3
317.91 506.40 0.43 c p3
318.05 506.25 0.43 c p3
318.20 506.53 0.43 c p3
318.34 506.80 0.43 c p3
318.49 506.53 0.43 c p3
318.63 506.80 0.43 c p3
318.78 505.86 0.43 c p3
318.92 506.80 0.43 c p3
319.07 506.53 0.43 c p3
319.22 506.53 0.43 c p3
319.36 506.95 0.43 c p3
319.51 506.40 0.43 c p3
319.65 506.53 0.43 c p3
319.80 507.23 0.43 c p3
319.94 507.23 0.43 c p3
320.09 506.53 0.43 c p3
320.23 507.07 0.43 c p3
320.38 507.50 0.43 c p3
320.53 506.40 0.43 c p3
320.67 505.98 0.43 c p3
320.82 507.50 0.43 c p3
320.96 507.07 0.43 c p3
321.11 507.62 0.43 c p3
321.25 507.35 0.43 c p3
321.40 506.40 0.43 c p3
321.54 506.68 0.43 c p3
321.69 507.50 0.43 c p3
321.84 507.89 0.43 c p3
321.98 507.07 0.43 c p3
322.13 506.95 0.43 c p3
322.27 507.23 0.43 c p3
322.42 507.07 0.43 c p3
322.56 506.53 0.43 c p3
322.71 506.80 0.43 c p3
322.85 506.95 0.43 c p3
323.00 507.50 0.43 c p3
323.15 507.23 0.43 c p3
323.29 506.68 0.43 c p3
323.44 507.50 0.43 c p3
323.58 507.35 0.43 c p3
323.73 507.07 0.43 c p3
323.87 507.50 0.43 c p3
324.02 507.07 0.43 c p3
324.17 507.23 0.43 c p3
324.31 507.50 0.43 c p3
324.46 507.35 0.43 c p3
324.60 507.23 0.43 c p3
324.75 507.35 0.43 c p3
324.89 507.35 0.43 c p3
325.04 507.07 0.43 c p3
325.18 507.35 0.43 c p3
325.33 507.07 0.43 c p3
325.48 508.05 0.43 c p3
325.62 507.62 0.43 c p3
325.77 506.53 0.43 c p3
325.91 507.23 0.43 c p3
326.06 507.89 0.43 c p3
326.20 508.05 0.43 c p3
326.35 507.62 0.43 c p3
326.49 507.35 0.43 c p3
326.64 507.62 0.43 c p3
326.79 507.35 0.43 c p3
326.93 506.95 0.43 c p3
327.08 508.32 0.43 c p3
327.22 507.89 0.43 c p3
327.37 507.77 0.43 c p3
327.51 508.44 0.43 c p3
327.66 506.80 0.43 c p3
327.80 507.50 0.43 c p3
327.95 507.35 0.43 c p3
328.10 508.32 0.43 c p3
328.24 508.17 0.43 c p3
328.39 508.17 0.43 c p3
328.53 507.62 0.43 c p3
328.68 507.89 0.43 c p3
328.82 508.32 0.43 c p3
328.97 507.62 0.43 c p3
329.12 507.89 0.43 c p3
329.26 507.77 0.43 c p3
329.41 507.77 0.43 c p3
329.55 507.89 0.43 c p3
329.70 507.50 0.43 c p3
329.84 508.05 0.43 c p3
329.99 508.44 0.43 c p3
330.13 508.44 0.43 c p3
330.28 508.32 0.43 c p3
330.43 508.44 0.43 c p3
330.57 508.44 0.43 c p3
330.72 508.17 0.43 c p3
330.86 508.32 0.43 c p3
331.01 507.62 0.43 c p3
331.15 508.32 0.43 c p3
331.30 507.50 0.43 c p3
331.44 508.44 0.43 c p3
331.59 507.62 0.43 c p3
331.74 507.89 0.43 c p3
331.88 508.17 0.43 c p3
332.03 507.89 0.43 c p3
332.17 508.32 0.43 c p3
332.32 508.32 0.43 c p3
332.46 508.17 0.43 c p3
332.61 508.44 0.43 c p3
332.75 508.32 0.43 c p3
332.90 507.23 0.43 c p3
333.05 508.32 0.43 c p3
333.19 508.17 0.43 c p3
333.34 508.44 0.43 c p3
333.48 508.32 0.43 c p3
333.63 508.72 0.43 c p3
333.77 508.32 0.43 c p3
333.92 508.59 0.43 c p3
334.07 508.72 0.43 c p3
334.21 507.77 0.43 c p3
334.36 508.44 0.43 c p3
334.50 508.32 0.43 c p3
334.65 508.99 0.43 c p3
334.79 508.17 0.43 c p3
334.94 508.72 0.43 c p3
335.08 508.44 0.43 c p3
335.23 507.89 0.43 c p3
335.38 508.05 0.43 c p3
335.52 507.89 0.43 c p3
335.67 509.14 0.43 c p3
335.81 508.17 0.43 c p3
335.96 508.72 0.43 c p3
336.10 508.59 0.43 c p3
336.25 508.44 0.43 c p3
336.39 508.32 0.43 c p3
336.54 508.72 0.43 c p3
336.69 508.72 0.43 c p3
336.83 508.17 0.43 c p3
336.98 508.44 0.43 c p3
337.12 509.26 0.43 c p3
337.27 508.32 0.43 c p3
337.41 508.87 0.43 c p3
337.56 508.44 0.43 c p3
337.70 508.72 0.43 c p3
337.85 508.59 0.43 c p3
338.00 509.26 0.43 c p3
338.14 508.32 0.43 c p3
338.29 508.32 0.43 c p3
338.43 508.44 0.43 c p3
338.58 509.14 0.43 c p3
338.72 508.87 0.43 c p3
338.87 508.87 0.43 c p3
339.02 509.14 0.43 c p3
339.16 508.32 0.43 c p3
339.31 508.59 0.43 c p3
339.45 509.14 0.43 c p3
339.60 508.59 0.43 c p3
339.74 508.44 0.43 c p3
339.89 509.93 0.43 c p3
340.03 509.54 0.43 c p3
340.18 508.59 0.43 c p3
340.33 508.99 0.43 c p3
340.47 508.99 0.43 c p3
340.62 508.99 0.43 c p3
340.76 508.87 0.43 c p3
340.91 509.54 0.43 c p3
341.05 508.72 0.43 c p3
341.20 508.99 0.43 c p3
341.34 509.26 0.43 c p3
341.49 508.59 0.43 c p3
341.64 508.87 0.43 c p3
341.78 509.81 0.43 c p3
341.93 509.26 0.43 c p3
342.07 509.26 0.43 c p3
342.22 509.14 0.43 c p3
342.36 508.99 0.43 c p3
342.51 509.26 0.43 c p3
342.65 509.14 0.43 c p3
342.80 508.87 0.43 c p3
342.95 509.66 0.43 c p3
343.09 508.72 0.43 c p3
343.24 509.81 0.43 c p3
343.38 509.26 0.43 c p3
343.53 508.32 0.43 c p3
343.67 508.99 0.43 c p3
343.82 509.38 0.43 c p3
343.97 509.54 0.43 c p3
344.11 510.08 0.43 c p3
344.26 509.54 0.43 c p3
344.40 508.72 0.43 c p3
344.55 508.59 0.43 c p3
344.69 509.38 0.43 c p3
344.84 509.26 0.43 c p3
344.98 510.08 0.43 c p3
345.13 509.26 0.43 c p3
345.28 508.99 0.43 c p3
345.42 509.14 0.43 c p3
345.57 509.54 0.43 c p3
345.71 509.54 0.43 c p3
345.86 508.59 0.43 c p3
346.00 509.93 0.43 c p3
346.15 510.08 0.43 c p3
346.29 508.87 0.43 c p3
346.44 508.99 0.43 c p3
346.59 508.99 0.43 c p3
346.73 509.66 0.43 c p3
346.88 508.72 0.43 c p3
347.02 508.99 0.43 c p3
347.17 508.99 0.43 c p3
347.31 509.26 0.43 c p3
347.46 509.26 0.43 c p3
347.60 509.81 0.43 c p3
347.75 509.14 0.43 c p3
347.90 509.66 0.43 c p3
348.04 509.26 0.43 c p3
348.19 509.81 0.43 c p3
348.33 509.66 0.43 c p3
348.48 509.38 0.43 c p3
348.62 509.54 0.43 c p3
348.77 508.44 0.43 c p3
348.92 509.38 0.43 c p3
349.06 510.08 0.43 c p3
349.21 509.14 0.43 c p3
349.35 509.81 0.43 c p3
349.50 509.54 0.43 c p3
349.64 509.93 0.43 c p3
349.79 509.66 0.43 c p3
349.93 510.08 0.43 c p3
350.08 509.81 0.43 c p3
350.23 509.38 0.43 c p3
350.37 509.66 0.43 c p3
350.52 509.81 0.43 c p3
350.66 509.66 0.43 c p3
350.81 509.38 0.43 c p3
350.95 509.54 0.43 c p3
351.10 509.93 0.43 c p3
351.24 509.26 0.43 c p3
351.39 509.93 0.43 c p3
351.54 509.38 0.43 c p3
351.68 509.93 0.43 c p3
351.83 509.81 0.43 c p3
351.97 509.26 0.43 c p3
352.12 509.38 0.43 c p3
352.26 509.66 0.43 c p3
352.41 509.54 0.43 c p3
352.55 509.54 0.43 c p3
352.70 509.81 0.43 c p3
352.85 509.54 0.43 c p3
352.99 509.93 0.43 c p3
353.14 509.66 0.43 c p3
353.28 509.66 0.43 c p3
353.43 509.81 0.43 c p3
353.57 509.54 0.43 c p3
353.72 509.81 0.43 c p3
353.86 509.54 0.43 c p3
354.01 510.21 0.43 c p3
354.16 510.36 0.43 c p3
354.30 509.66 0.43 c p3
354.45 510.08 0.43 c p3
354.59 510.36 0.43 c p3
354.74 509.54 0.43 c p3
354.88 510.63 0.43 c p3
355.03 509.66 0.43 c p3
355.18 510.48 0.43 c p3
355.32 510.48 0.43 c p3
355.47 510.08 0.43 c p3
355.61 509.38 0.43 c p3
355.76 510.08 0.43 c p3
355.90 509.38 0.43 c p3
356.05 509.81 0.43 c p3
356.19 510.36 0.43 c p3
356.34 510.21 0.43 c p3
356.49 509.93 0.43 c p3
356.63 510.08 0.43 c p3
356.78 509.93 0.43 c p3
356.92 509.93 0.43 c p3
357.07 509.81 0.43 c p3
357.21 510.75 0.43 c p3
357.36 510.36 0.43 c p3
357.50 509.81 0.43 c p3
357.65 510.21 0.43 c p3
357.80 510.63 0.43 c p3
357.94 509.81 0.43 c p3
358.09 510.36 0.43 c p3
358.23 510.21 0.43 c p3
358.38 510.48 0.43 c p3
358.52 510.36 0.43 c p3
358.67 509.93 0.43 c p3
358.81 509.66 0.43 c p3
358.96 510.36 0.43 c p3
359.11 510.63 0.43 c p3
359.25 510.48 0.43 c p3
359.40 510.36 0.43 c p3
359.54 509.81 0.43 c p3
359.69 509.14 0.43 c p3
359.83 510.48 0.43 c p3
359.98 509.81 0.43 c p3
360.13 509.93 0.43 c p3
360.27 510.48 0.43 c p3
360.42 510.48 0.43 c p3
360.56 509.93 0.43 c p3
360.71 510.48 0.43 c p3
360.85 509.54 0.43 c p3
361.00 509.66 0.43 c p3
361.14 510.75 0.43 c p3
361.29 510.91 0.43 c p3
361.44 510.21 0.43 c p3
361.58 510.21 0.43 c p3
361.73 510.08 0.43 c p3
361.87 510.36 0.43 c p3
362.02 509.93 0.43 c p3
362.16 510.48 0.43 c p3
362.31 510.75 0.43 c p3
362.45 510.08 0.43 c p3
362.60 510.63 0.43 c p3
362.75 510.63 0.43 c p3
362.89 510.48 0.43 c p3
363.04 510.48 0.43 c p3
363.18 510.48 0.43 c p3
363.33 510.63 0.43 c p3
363.47 510.36 0.43 c p3
363.62 510.91 0.43 c p3
363.76 510.08 0.43 c p3
363.91 510.08 0.43 c p3
364.06 510.63 0.43 c p3
364.20 510.08 0.43 c p3
364.35 510.36 0.43 c p3
364.49 510.75 0.43 c p3
364.64 510.63 0.43 c p3
364.78 510.75 0.43 c p3
364.93 510.36 0.43 c p3
365.08 510.91 0.43 c p3
365.22 510.08 0.43 c p3
365.37 511.57 0.43 c p3
365.51 509.38 0.43 c p3
365.66 510.48 0.43 c p3
365.80 510.36 0.43 c p3
365.95 511.18 0.43 c p3
366.09 510.36 0.43 c p3
366.24 510.48 0.43 c p3
366.39 510.63 0.43 c p3
366.53 510.91 0.43 c p3
366.68 510.75 0.43 c p3
366.82 511.03 0.43 c p3
366.97 510.36 0.43 c p3
367.11 510.08 0.43 c p3
367.26 511.18 0.43 c p3
367.40 511.03 0.43 c p3
367.55 510.91 0.43 c p3
367.70 510.63 0.43 c p3
367.84 510.91 0.43 c p3
367.99 510.75 0.43 c p3
368.13 510.63 0.43 c p3
368.28 511.45 0.43 c p3
368.42 510.36 0.43 c p3
368.57 511.18 0.43 c p3
368.71 510.91 0.43 c p3
368.86 510.08 0.43 c p3
369.01 510.91 0.43 c p3
369.15 510.63 0.43 c p3
369.30 510.63 0.43 c p3
369.44 511.45 0.43 c p3
369.59 511.30 0.43 c p3
369.73 511.45 0.43 c p3
369.88 510.63 0.43 c p3
370.03 510.48 0.43 c p3
370.17 511.30 0.43 c p3
370.32 510.91 0.43 c p3
370.46 511.45 0.43 c p3
370.61 511.18 0.43 c p3
370.75 511.30 0.43 c p3
370.90 510.75 0.43 c p3
371.04 511.30 0.43 c p3
371.19 510.75 0.43 c p3
371.34 510.21 0.43 c p3
371.48 511.03 0.43 c p3
371.63 510.91 0.43 c p3
371.77 511.30 0.43 c p3
371.92 511.18 0.43 c p3
372.06 510.75 0.43 c p3
372.21 510.21 0.43 c p3
372.35 511.73 0.43 c p3
372.50 511.57 0.43 c p3
372.65 510.91 0.43 c p3
372.79 511.03 0.43 c p3
372.94 511.18 0.43 c p3
373.08 510.91 0.43 c p3
373.23 510.21 0.43 c p3
373.37 511.03 0.43 c p3
373.52 511.03 0.43 c p3
373.66 511.45 0.43 c p3
373.81 510.75 0.43 c p3
373.96 511.18 0.43 c p3
374.10 511.30 0.43 c p3
374.25 511.18 0.43 c p3
374.39 511.73 0.43 c p3
374.54 511.30 0.43 c p3
374.68 510.91 0.43 c p3
374.83 510.91 0.43 c p3
374.98 511.85 0.43 c p3
375.12 511.03 0.43 c p3
375.27 511.30 0.43 c p3
375.41 511.18 0.43 c p3
375.56 511.45 0.43 c p3
375.70 511.03 0.43 c p3
375.85 511.30 0.43 c p3
375.99 512.00 0.43 c p3
376.14 511.03 0.43 c p3
376.29 511.30 0.43 c p3
376.43 511.18 0.43 c p3
376.58 511.85 0.43 c p3
376.72 511.30 0.43 c p3
376.87 511.18 0.43 c p3
377.01 511.30 0.43 c p3
377.16 511.18 0.43 c p3
377.30 511.45 0.43 c p3
377.45 511.18 0.43 c p3
377.60 511.85 0.43 c p3
377.74 511.45 0.43 c p3
377.89 511.30 0.43 c p3
378.03 511.57 0.43 c p3
378.18 511.45 0.43 c p3
378.32 511.45 0.43 c p3
378.47 511.57 0.43 c p3
378.61 511.03 0.43 c p3
378.76 511.18 0.43 c p3
378.91 511.45 0.43 c p3
379.05 511.03 0.43 c p3
379.20 511.18 0.43 c p3
379.34 511.18 0.43 c p3
379.49 511.57 0.43 c p3
379.63 511.85 0.43 c p3
379.78 511.30 0.43 c p3
379.93 511.45 0.43 c p3
380.07 511.45 0.43 c p3
380.22 511.73 0.43 c p3
380.36 511.45 0.43 c p3
380.51 511.73 0.43 c p3
380.65 511.73 0.43 c p3
380.80 511.03 0.43 c p3
380.94 511.30 0.43 c p3
381.09 511.30 0.43 c p3
381.24 511.57 0.43 c p3
381.38 511.18 0.43 c p3
381.53 511.18 0.43 c p3
381.67 511.30 0.43 c p3
381.82 511.03 0.43 c p3
381.96 511.45 0.43 c p3
382.11 511.73 0.43 c p3
382.25 511.30 0.43 c p3
382.40 511.18 0.43 c p3
0.00 0.00 432.00 576.00 cl
0 0 0 srgb
0.75 setlinewidth
[] 0 setdash
1 setlinecap
1 setlinejoin
10.00 setmiterlimit
np
236.96 345.60 m
145.59 0 l
o
np
236.96 345.60 m
0 -5.76 l
o
np
266.08 345.60 m
0 -5.76 l
o
np
295.19 345.60 m
0 -5.76 l
o
np
324.31 345.60 m
0 -5.76 l
o
np
353.43 345.60 m
0 -5.76 l
o
np
382.55 345.60 m
0 -5.76 l
o
/Font1 findfont 10 s
236.96 329.47 (0) .5 0 t
266.08 329.47 (2000) .5 0 t
324.31 329.47 (6000) .5 0 t
382.55 329.47 (10000) .5 0 t
np
216.00 352.00 m
0 149.48 l
o
np
216.00 352.00 m
-5.76 0 l
o
np
216.00 376.91 m
-5.76 0 l
o
np
216.00 401.83 m
-5.76 0 l
o
np
216.00 426.74 m
-5.76 0 l
o
np
216.00 451.65 m
-5.76 0 l
o
np
216.00 476.57 m
-5.76 0 l
o
np
216.00 501.48 m
-5.76 0 l
o
209.09 348.41 (0.0) 1 0 t
209.09 373.32 (0.2) 1 0 t
209.09 398.24 (0.4) 1 0 t
209.09 423.15 (0.6) 1 0 t
209.09 448.06 (0.8) 1 0 t
209.09 472.98 (1.0) 1 0 t
209.09 497.89 (1.2) 1 0 t
np
216.00 345.60 m
172.80 0 l
0 172.80 l
-172.80 0 l
0 -172.80 l
o
0.00 0.00 432.00 576.00 cl
/Font1 findfont 10 s
0 0 0 srgb
302.40 313.34 (Zeit / ms \(total\)) .5 0 t
190.66 432.00 (U / V) .5 90 t
216.00 345.60 388.80 518.40 cl
0 0 0 srgb
0.38 setlinewidth
[ 1.12 1.88] 0 setdash
1 setlinecap
1 setlinejoin
10.00 setmiterlimit
np
223.27 345.60 m
0 172.80 l
o
np
234.77 345.60 m
0 172.80 l
o
np
239.58 345.60 m
0 172.80 l
o
np
365.51 345.60 m
0 172.80 l
o
86.40 57.60 388.80 288.00 cl
1 0 0 srgb
1.50 setlinewidth
[] 0 setdash
1 setlinecap
1 setlinejoin
10.00 setmiterlimit
np
97.60 279.47 m
1.41 -8.70 l
1.40 -8.35 l
1.41 -8.00 l
1.41 -7.68 l
1.41 -7.37 l
1.40 -7.06 l
1.41 -6.78 l
1.41 -6.50 l
1.40 -6.24 l
1.41 -5.98 l
1.41 -5.73 l
1.40 -5.51 l
1.41 -5.28 l
1.41 -5.06 l
1.41 -4.86 l
1.40 -4.66 l
1.41 -4.47 l
1.41 -4.29 l
1.40 -4.11 l
1.41 -3.94 l
1.41 -3.79 l
1.40 -3.63 l
1.41 -3.48 l
1.41 -3.34 l
1.41 -3.20 l
1.40 -3.08 l
1.41 -2.94 l
1.41 -2.83 l
1.40 -2.71 l
1.41 -2.61 l
1.41 -2.49 l
1.41 -2.40 l
1.40 -2.29 l
1.41 -2.20 l
1.41 -2.12 l
1.40 -2.02 l
1.41 -1.95 l
1.41 -1.86 l
1.40 -1.79 l
1.41 -1.72 l
1.41 -1.64 l
1.41 -1.58 l
1.40 -1.52 l
1.41 -1.45 l
1.41 -1.39 l
1.40 -1.34 l
1.41 -1.28 l
1.41 -1.23 l
1.40 -1.18 l
1.41 -1.13 l
1.41 -1.09 l
1.41 -1.04 l
1.40 -1.00 l
1.41 -0.96 l
1.41 -0.92 l
1.40 -0.88 l
1.41 -0.84 l
1.41 -0.82 l
1.41 -0.77 l
1.40 -0.75 l
1.41 -0.72 l
1.41 -0.68 l
1.40 -0.66 l
1.41 -0.63 l
1.41 -0.61 l
1.40 -0.58 l
1.41 -0.56 l
1.41 -0.53 l
1.41 -0.52 l
1.40 -0.49 l
1.41 -0.47 l
1.41 -0.45 l
1.40 -0.44 l
1.41 -0.42 l
1.41 -0.39 l
1.40 -0.39 l
1.41 -0.37 l
1.41 -0.35 l
1.41 -0.34 l
1.40 -0.32 l
1.41 -0.31 l
1.41 -0.30 l
1.40 -0.29 l
1.41 -0.27 l
1.41 -0.27 l
1.41 -0.25 l
1.40 -0.24 l
1.41 -0.24 l
1.41 -0.22 l
1.40 -0.21 l
1.41 -0.21 l
1.41 -0.20 l
1.40 -0.18 l
1.41 -0.19 l
1.41 -0.17 l
1.41 -0.17 l
1.40 -0.16 l
1.41 -0.15 l
1.41 -0.15 l
238.30 69.40 lineto
1.41 -0.13 l
1.41 -0.13 l
1.40 -0.13 l
1.41 -0.12 l
1.41 -0.11 l
1.41 -0.11 l
1.40 -0.11 l
1.41 -0.10 l
1.41 -0.10 l
1.40 -0.09 l
1.41 -0.09 l
1.41 -0.08 l
1.40 -0.09 l
1.41 -0.08 l
1.41 -0.07 l
1.41 -0.07 l
1.40 -0.07 l
1.41 -0.07 l
1.41 -0.06 l
1.40 -0.07 l
1.41 -0.05 l
1.41 -0.06 l
1.41 -0.06 l
1.40 -0.05 l
1.41 -0.05 l
1.41 -0.04 l
1.40 -0.05 l
1.41 -0.04 l
1.41 -0.05 l
1.40 -0.04 l
1.41 -0.04 l
1.41 -0.03 l
1.41 -0.04 l
1.40 -0.03 l
1.41 -0.04 l
1.41 -0.03 l
1.40 -0.03 l
1.41 -0.03 l
1.41 -0.03 l
1.40 -0.02 l
1.41 -0.03 l
1.41 -0.02 l
1.41 -0.03 l
1.40 -0.02 l
1.41 -0.02 l
1.41 -0.02 l
1.40 -0.02 l
1.41 -0.02 l
1.41 -0.02 l
1.41 -0.02 l
1.40 -0.01 l
1.41 -0.02 l
1.41 -0.01 l
1.40 -0.02 l
1.41 -0.01 l
1.41 -0.02 l
1.40 -0.01 l
1.41 -0.01 l
1.41 -0.02 l
1.41 -0.01 l
1.40 -0.01 l
1.41 -0.01 l
1.41 -0.01 l
1.40 -0.01 l
1.41 -0.01 l
1.41 -0.01 l
1.40 -0.01 l
1.41 0 l
1.41 -0.01 l
1.41 -0.01 l
1.40 -0.01 l
1.41 0 l
1.41 -0.01 l
1.40 -0.01 l
1.41 0 l
1.41 -0.01 l
1.41 -0.01 l
1.40 0 l
1.41 -0.01 l
1.41 0 l
1.40 -0.01 l
1.41 0 l
1.41 -0.01 l
1.40 0 l
1.41 0 l
1.41 -0.01 l
1.41 0 l
1.40 -0.01 l
1.41 0 l
1.41 0 l
1.40 -0.01 l
1.41 0 l
1.41 0 l
1.40 0 l
1.41 -0.01 l
1.41 0 l
1.41 0 l
1.40 0 l
1.41 -0.01 l
o
0.00 0.00 432.00 576.00 cl
0 0 0 srgb
0.75 setlinewidth
[] 0 setdash
1 setlinecap
1 setlinejoin
10.00 setmiterlimit
np
97.60 57.60 m
280.00 0 l
o
np
97.60 57.60 m
0 -5.76 l
o
np
153.60 57.60 m
0 -5.76 l
o
np
209.60 57.60 m
0 -5.76 l
o
np
265.60 57.60 m
0 -5.76 l
o
np
321.60 57.60 m
0 -5.76 l
o
np
377.60 57.60 m
0 -5.76 l
o
/Font1 findfont 10 s
97.60 41.47 (0) .5 0 t
153.60 41.47 (2000) .5 0 t
209.60 41.47 (4000) .5 0 t
265.60 41.47 (6000) .5 0 t
321.60 41.47 (8000) .5 0 t
377.60 41.47 (10000) .5 0 t
np
86.40 68.08 m
0 193.97 l
o
np
86.40 68.08 m
-5.76 0 l
o
np
86.40 116.58 m
-5.76 0 l
o
np
86.40 165.07 m
-5.76 0 l
o
np
86.40 213.56 m
-5.76 0 l
o
np
86.40 262.05 m
-5.76 0 l
o
79.49 64.49 (0.0) 1 0 t
79.49 112.99 (0.1) 1 0 t
79.49 161.48 (0.2) 1 0 t
79.49 209.97 (0.3) 1 0 t
79.49 258.46 (0.4) 1 0 t
np
86.40 57.60 m
302.40 0 l
0 230.40 l
-302.40 0 l
0 -230.40 l
o
0.00 0.00 432.00 576.00 cl
/Font1 findfont 10 s
0 0 0 srgb
237.60 13.82 (Zeit / ms \(nach Puls\)) .5 0 t
49.54 172.80 (Absorbanz A) .5 90 t
86.40 57.60 388.80 288.00 cl
/bg { 1 1 1 srgb } def
0 0 0 srgb
0.75 setlinewidth
[] 0 setdash
1 setlinecap
1 setlinejoin
10.00 setmiterlimit
102.92 259.16 0.65 c p3
103.20 255.91 0.65 c p3
103.48 255.50 0.65 c p3
103.76 252.40 0.65 c p3
104.04 247.99 0.65 c p3
104.32 248.86 0.65 c p3
104.60 244.90 0.65 c p3
104.88 245.38 0.65 c p3
105.16 241.11 0.65 c p3
105.44 243.19 0.65 c p3
105.72 238.12 0.65 c p3
106.00 237.75 0.65 c p3
106.28 234.90 0.65 c p3
106.56 232.00 0.65 c p3
106.84 233.63 0.65 c p3
107.12 227.99 0.65 c p3
107.40 229.58 0.65 c p3
107.68 228.43 0.65 c p3
107.96 226.40 0.65 c p3
108.24 224.48 0.65 c p3
108.52 220.95 0.65 c p3
108.80 221.38 0.65 c p3
109.08 219.08 0.65 c p3
109.36 218.32 0.65 c p3
109.64 215.30 0.65 c p3
109.92 213.81 0.65 c p3
110.20 214.22 0.65 c p3
110.48 212.00 0.65 c p3
110.76 210.86 0.65 c p3
111.04 209.07 0.65 c p3
111.32 207.22 0.65 c p3
111.60 206.90 0.65 c p3
111.88 203.34 0.65 c p3
112.16 204.76 0.65 c p3
112.44 201.93 0.65 c p3
112.72 202.63 0.65 c p3
113.00 200.53 0.65 c p3
113.28 201.23 0.65 c p3
113.56 197.75 0.65 c p3
113.84 196.76 0.65 c p3
114.12 196.76 0.65 c p3
114.40 192.32 0.65 c p3
114.68 193.36 0.65 c p3
114.96 190.02 0.65 c p3
115.24 190.98 0.65 c p3
115.52 189.65 0.65 c p3
115.80 188.69 0.65 c p3
116.08 188.03 0.65 c p3
116.36 184.13 0.65 c p3
116.64 186.43 0.65 c p3
116.92 183.84 0.65 c p3
117.20 184.13 0.65 c p3
117.48 182.84 0.65 c p3
117.76 181.56 0.65 c p3
118.04 180.92 0.65 c p3
118.32 179.65 0.65 c p3
118.60 177.77 0.65 c p3
118.88 175.90 0.65 c p3
119.16 175.62 0.65 c p3
119.44 174.73 0.65 c p3
119.72 174.38 0.65 c p3
120.00 174.38 0.65 c p3
120.28 171.32 0.65 c p3
120.56 171.66 0.65 c p3
120.84 170.72 0.65 c p3
121.12 169.84 0.65 c p3
121.40 168.31 0.65 c p3
121.68 166.85 0.65 c p3
121.96 166.85 0.65 c p3
122.24 163.90 0.65 c p3
122.52 165.93 0.65 c p3
122.80 163.31 0.65 c p3
123.08 163.57 0.65 c p3
123.36 162.99 0.65 c p3
123.64 161.56 0.65 c p3
123.92 160.98 0.65 c p3
124.20 158.68 0.65 c p3
124.48 160.73 0.65 c p3
124.76 157.54 0.65 c p3
125.04 158.68 0.65 c p3
125.32 157.54 0.65 c p3
125.60 154.72 0.65 c p3
125.88 155.03 0.65 c p3
126.16 154.72 0.65 c p3
126.44 151.93 0.65 c p3
126.72 152.79 0.65 c p3
127.00 152.24 0.65 c p3
127.28 150.33 0.65 c p3
127.56 150.33 0.65 c p3
127.84 150.82 0.65 c p3
128.12 149.48 0.65 c p3
128.40 147.06 0.65 c p3
128.68 148.39 0.65 c p3
128.96 147.84 0.65 c p3
129.24 145.98 0.65 c p3
129.52 145.68 0.65 c p3
129.80 145.68 0.65 c p3
130.08 144.91 0.65 c p3
130.36 143.01 0.65 c p3
130.64 143.54 0.65 c p3
130.92 142.77 0.65 c p3
131.20 142.48 0.65 c p3
131.48 141.71 0.65 c p3
131.76 140.66 0.65 c p3
132.04 139.61 0.65 c p3
132.32 139.32 0.65 c p3
132.60 139.09 0.65 c p3
132.88 139.85 0.65 c p3
133.16 137.30 0.65 c p3
133.44 137.02 0.65 c p3
133.72 137.02 0.65 c p3
134.00 136.50 0.65 c p3
134.28 135.25 0.65 c p3
134.56 134.96 0.65 c p3
134.84 134.23 0.65 c p3
135.12 133.94 0.65 c p3
135.40 132.70 0.65 c p3
135.68 132.70 0.65 c p3
135.96 132.42 0.65 c p3
136.24 131.69 0.65 c p3
136.52 130.41 0.65 c p3
136.80 130.19 0.65 c p3
137.08 130.41 0.65 c p3
137.36 130.41 0.65 c p3
137.64 128.70 0.65 c p3
137.92 128.92 0.65 c p3
138.20 127.98 0.65 c p3
138.48 127.21 0.65 c p3
138.76 126.01 0.65 c p3
139.04 127.49 0.65 c p3
139.32 127.21 0.65 c p3
139.60 124.76 0.65 c p3
139.88 125.74 0.65 c p3
140.16 125.03 0.65 c p3
140.44 125.74 0.65 c p3
140.72 124.76 0.65 c p3
141.00 123.31 0.65 c p3
141.28 122.34 0.65 c p3
141.56 122.13 0.65 c p3
141.84 121.65 0.65 c p3
142.12 120.90 0.65 c p3
142.40 121.17 0.65 c p3
142.68 120.43 0.65 c p3
142.96 120.43 0.65 c p3
143.24 120.21 0.65 c p3
143.52 120.21 0.65 c p3
143.80 120.43 0.65 c p3
144.08 118.79 0.65 c p3
144.36 117.16 0.65 c p3
144.64 118.79 0.65 c p3
144.92 116.90 0.65 c p3
145.20 117.63 0.65 c p3
145.48 115.97 0.65 c p3
145.76 116.69 0.65 c p3
146.04 115.76 0.65 c p3
146.32 115.50 0.65 c p3
146.60 115.29 0.65 c p3
146.88 114.57 0.65 c p3
147.16 113.44 0.65 c p3
147.44 114.57 0.65 c p3
147.72 112.72 0.65 c p3
148.00 112.98 0.65 c p3
148.28 112.98 0.65 c p3
148.56 112.26 0.65 c p3
148.84 112.72 0.65 c p3
149.12 112.98 0.65 c p3
149.40 111.80 0.65 c p3
149.68 110.23 0.65 c p3
149.96 111.35 0.65 c p3
150.24 111.14 0.65 c p3
150.52 109.98 0.65 c p3
150.80 109.98 0.65 c p3
151.08 109.78 0.65 c p3
151.36 109.33 0.65 c p3
151.64 108.42 0.65 c p3
151.92 108.62 0.65 c p3
152.20 108.42 0.65 c p3
152.48 107.32 0.65 c p3
152.76 107.08 0.65 c p3
153.04 107.52 0.65 c p3
153.32 107.52 0.65 c p3
153.60 107.32 0.65 c p3
153.88 107.52 0.65 c p3
154.16 105.54 0.65 c p3
154.44 105.54 0.65 c p3
154.72 105.98 0.65 c p3
155.00 105.09 0.65 c p3
155.28 105.98 0.65 c p3
155.56 104.41 0.65 c p3
155.84 103.52 0.65 c p3
156.12 104.85 0.65 c p3
156.40 103.33 0.65 c p3
156.68 104.41 0.65 c p3
156.96 103.08 0.65 c p3
157.24 103.52 0.65 c p3
157.52 102.64 0.65 c p3
157.80 102.64 0.65 c p3
158.08 101.77 0.65 c p3
158.36 102.01 0.65 c p3
158.64 101.77 0.65 c p3
158.92 100.90 0.65 c p3
159.20 101.33 0.65 c p3
159.48 100.71 0.65 c p3
159.76 100.03 0.65 c p3
160.04 101.14 0.65 c p3
160.32 100.71 0.65 c p3
160.60 100.46 0.65 c p3
160.88 100.03 0.65 c p3
161.16 98.11 0.65 c p3
161.44 99.17 0.65 c p3
161.72 98.35 0.65 c p3
162.00 98.54 0.65 c p3
162.28 98.35 0.65 c p3
162.56 97.69 0.65 c p3
162.84 97.92 0.65 c p3
163.12 96.41 0.65 c p3
163.40 97.92 0.65 c p3
163.68 97.26 0.65 c p3
163.96 96.64 0.65 c p3
164.24 97.26 0.65 c p3
164.52 96.22 0.65 c p3
164.80 97.07 0.65 c p3
165.08 97.07 0.65 c p3
165.36 95.56 0.65 c p3
165.64 96.41 0.65 c p3
165.92 95.56 0.65 c p3
166.20 94.29 0.65 c p3
166.48 95.79 0.65 c p3
166.76 95.13 0.65 c p3
167.04 94.71 0.65 c p3
167.32 93.45 0.65 c p3
167.60 94.29 0.65 c p3
167.88 94.10 0.65 c p3
168.16 94.10 0.65 c p3
168.44 95.13 0.65 c p3
168.72 93.68 0.65 c p3
169.00 93.03 0.65 c p3
169.28 93.68 0.65 c p3
169.56 93.87 0.65 c p3
169.84 92.84 0.65 c p3
170.12 92.19 0.65 c p3
170.40 92.42 0.65 c p3
170.68 92.19 0.65 c p3
170.96 92.61 0.65 c p3
171.24 92.01 0.65 c p3
171.52 91.77 0.65 c p3
171.80 92.01 0.65 c p3
172.08 91.17 0.65 c p3
172.36 92.19 0.65 c p3
172.64 91.77 0.65 c p3
172.92 90.35 0.65 c p3
173.20 91.36 0.65 c p3
173.48 90.35 0.65 c p3
173.76 90.35 0.65 c p3
174.04 90.12 0.65 c p3
174.32 92.19 0.65 c p3
174.60 89.34 0.65 c p3
174.88 89.11 0.65 c p3
175.16 90.12 0.65 c p3
175.44 89.75 0.65 c p3
175.72 89.52 0.65 c p3
176.00 89.52 0.65 c p3
176.28 88.51 0.65 c p3
176.56 87.88 0.65 c p3
176.84 89.11 0.65 c p3
177.12 89.11 0.65 c p3
177.40 87.70 0.65 c p3
177.68 87.47 0.65 c p3
177.96 88.29 0.65 c p3
178.24 90.53 0.65 c p3
178.52 88.11 0.65 c p3
178.80 85.84 0.65 c p3
179.08 86.88 0.65 c p3
179.36 87.70 0.65 c p3
179.64 87.29 0.65 c p3
179.92 86.88 0.65 c p3
180.20 87.06 0.65 c p3
180.48 86.66 0.65 c p3
180.76 86.25 0.65 c p3
181.04 87.29 0.65 c p3
181.32 85.44 0.65 c p3
181.60 87.06 0.65 c p3
181.88 85.26 0.65 c p3
182.16 84.63 0.65 c p3
182.44 85.66 0.65 c p3
182.72 86.88 0.65 c p3
183.00 85.84 0.65 c p3
183.28 85.66 0.65 c p3
183.56 85.04 0.65 c p3
183.84 85.04 0.65 c p3
184.12 84.86 0.65 c p3
184.40 85.26 0.65 c p3
184.68 84.45 0.65 c p3
184.96 84.63 0.65 c p3
185.24 84.05 0.65 c p3
185.52 85.44 0.65 c p3
185.80 83.83 0.65 c p3
186.08 83.43 0.65 c p3
186.36 83.83 0.65 c p3
186.64 83.65 0.65 c p3
186.92 83.25 0.65 c p3
187.20 83.25 0.65 c p3
187.48 84.05 0.65 c p3
187.76 83.43 0.65 c p3
188.04 83.03 0.65 c p3
188.32 83.83 0.65 c p3
188.60 83.25 0.65 c p3
188.88 83.25 0.65 c p3
189.16 83.43 0.65 c p3
189.44 82.85 0.65 c p3
189.72 82.45 0.65 c p3
190.00 83.03 0.65 c p3
190.28 83.25 0.65 c p3
190.56 82.23 0.65 c p3
190.84 80.87 0.65 c p3
191.12 82.06 0.65 c p3
191.40 82.06 0.65 c p3
191.68 82.85 0.65 c p3
191.96 81.44 0.65 c p3
192.24 81.44 0.65 c p3
192.52 81.44 0.65 c p3
192.80 81.66 0.65 c p3
193.08 81.09 0.65 c p3
193.36 82.06 0.65 c p3
193.64 81.09 0.65 c p3
193.92 80.47 0.65 c p3
194.20 80.47 0.65 c p3
194.48 80.69 0.65 c p3
194.76 80.87 0.65 c p3
195.04 80.87 0.65 c p3
195.32 80.69 0.65 c p3
195.60 79.68 0.65 c p3
195.88 80.47 0.65 c p3
196.16 79.90 0.65 c p3
196.44 79.68 0.65 c p3
196.72 80.30 0.65 c p3
197.00 79.68 0.65 c p3
197.28 80.30 0.65 c p3
197.56 79.90 0.65 c p3
197.84 79.29 0.65 c p3
198.12 78.90 0.65 c p3
198.40 79.29 0.65 c p3
198.68 78.90 0.65 c p3
198.96 78.72 0.65 c p3
199.24 79.29 0.65 c p3
199.52 78.90 0.65 c p3
199.80 79.12 0.65 c p3
200.08 78.33 0.65 c p3
200.36 77.94 0.65 c p3
200.64 77.73 0.65 c p3
200.92 78.33 0.65 c p3
201.20 78.51 0.65 c p3
201.48 78.72 0.65 c p3
201.76 77.73 0.65 c p3
202.04 78.51 0.65 c p3
202.32 78.51 0.65 c p3
202.60 78.33 0.65 c p3
202.88 77.73 0.65 c p3
203.16 77.73 0.65 c p3
203.44 77.34 0.65 c p3
203.72 77.73 0.65 c p3
204.00 77.34 0.65 c p3
204.28 76.95 0.65 c p3
204.56 78.12 0.65 c p3
204.84 77.16 0.65 c p3
205.12 78.12 0.65 c p3
205.40 76.56 0.65 c p3
205.68 77.16 0.65 c p3
205.96 77.16 0.65 c p3
206.24 77.55 0.65 c p3
206.52 77.55 0.65 c p3
206.80 76.78 0.65 c p3
207.08 77.34 0.65 c p3
207.36 76.17 0.65 c p3
207.64 76.78 0.65 c p3
207.92 77.55 0.65 c p3
208.20 76.17 0.65 c p3
208.48 76.78 0.65 c p3
208.76 76.39 0.65 c p3
209.04 76.39 0.65 c p3
209.32 76.56 0.65 c p3
209.60 75.62 0.65 c p3
209.88 76.17 0.65 c p3
210.16 75.40 0.65 c p3
210.44 76.00 0.65 c p3
210.72 76.00 0.65 c p3
211.00 76.00 0.65 c p3
211.28 75.79 0.65 c p3
211.56 75.40 0.65 c p3
211.84 75.79 0.65 c p3
212.12 75.23 0.65 c p3
212.40 75.23 0.65 c p3
212.68 76.56 0.65 c p3
212.96 76.00 0.65 c p3
213.24 75.40 0.65 c p3
213.52 75.23 0.65 c p3
213.80 74.46 0.65 c p3
214.08 76.17 0.65 c p3
214.36 76.17 0.65 c p3
214.64 74.85 0.65 c p3
214.92 74.63 0.65 c p3
215.20 74.63 0.65 c p3
215.48 74.63 0.65 c p3
215.76 74.63 0.65 c p3
216.04 74.08 0.65 c p3
216.32 74.63 0.65 c p3
216.60 73.48 0.65 c p3
216.88 74.63 0.65 c p3
217.16 74.25 0.65 c p3
217.44 74.25 0.65 c p3
217.72 74.85 0.65 c p3
218.00 74.46 0.65 c p3
218.28 74.85 0.65 c p3
218.56 74.46 0.65 c p3
218.84 73.87 0.65 c p3
219.12 72.93 0.65 c p3
219.40 74.08 0.65 c p3
219.68 74.25 0.65 c p3
219.96 74.63 0.65 c p3
220.24 74.08 0.65 c p3
220.52 73.48 0.65 c p3
220.80 73.32 0.65 c p3
221.08 74.08 0.65 c p3
221.36 74.08 0.65 c p3
221.64 73.48 0.65 c p3
221.92 74.46 0.65 c p3
222.20 73.70 0.65 c p3
222.48 73.48 0.65 c p3
222.76 73.10 0.65 c p3
223.04 72.93 0.65 c p3
223.32 73.70 0.65 c p3
223.60 73.48 0.65 c p3
223.88 72.76 0.65 c p3
224.16 73.70 0.65 c p3
224.44 72.76 0.65 c p3
224.72 72.93 0.65 c p3
225.00 73.10 0.65 c p3
225.28 72.76 0.65 c p3
225.56 72.55 0.65 c p3
225.84 73.10 0.65 c p3
226.12 72.01 0.65 c p3
226.40 73.10 0.65 c p3
226.68 72.38 0.65 c p3
226.96 73.70 0.65 c p3
227.24 72.38 0.65 c p3
227.52 72.76 0.65 c p3
227.80 72.01 0.65 c p3
228.08 72.17 0.65 c p3
228.36 72.93 0.65 c p3
228.64 72.17 0.65 c p3
228.92 72.55 0.65 c p3
229.20 72.17 0.65 c p3
229.48 71.42 0.65 c p3
229.76 71.79 0.65 c p3
230.04 71.63 0.65 c p3
230.32 71.79 0.65 c p3
230.60 72.17 0.65 c p3
230.88 71.04 0.65 c p3
231.16 72.17 0.65 c p3
231.44 72.17 0.65 c p3
231.72 72.17 0.65 c p3
232.00 72.17 0.65 c p3
232.28 71.42 0.65 c p3
232.56 71.42 0.65 c p3
232.84 70.66 0.65 c p3
233.12 70.87 0.65 c p3
233.40 71.79 0.65 c p3
233.68 71.63 0.65 c p3
233.96 72.01 0.65 c p3
234.24 72.38 0.65 c p3
234.52 71.63 0.65 c p3
234.80 70.87 0.65 c p3
235.08 71.25 0.65 c p3
235.36 71.63 0.65 c p3
235.64 71.04 0.65 c p3
235.92 72.17 0.65 c p3
236.20 72.17 0.65 c p3
236.48 70.66 0.65 c p3
236.76 71.79 0.65 c p3
237.04 71.42 0.65 c p3
237.32 71.42 0.65 c p3
237.60 71.42 0.65 c p3
237.88 70.49 0.65 c p3
238.16 70.66 0.65 c p3
238.44 71.04 0.65 c p3
238.72 70.49 0.65 c p3
239.00 70.66 0.65 c p3
239.28 71.25 0.65 c p3
239.56 70.87 0.65 c p3
239.84 70.87 0.65 c p3
240.12 70.87 0.65 c p3
240.40 70.29 0.65 c p3
240.68 70.29 0.65 c p3
240.96 71.25 0.65 c p3
241.24 71.25 0.65 c p3
241.52 69.37 0.65 c p3
241.80 69.91 0.65 c p3
242.08 69.74 0.65 c p3
242.36 70.29 0.65 c p3
242.64 70.12 0.65 c p3
242.92 70.66 0.65 c p3
243.20 69.91 0.65 c p3
243.48 69.91 0.65 c p3
243.76 69.53 0.65 c p3
244.04 69.37 0.65 c p3
244.32 70.66 0.65 c p3
244.60 70.66 0.65 c p3
244.88 70.87 0.65 c p3
245.16 69.53 0.65 c p3
245.44 69.37 0.65 c p3
245.72 69.16 0.65 c p3
246.00 70.12 0.65 c p3
246.28 69.16 0.65 c p3
246.56 69.53 0.65 c p3
246.84 69.37 0.65 c p3
247.12 69.91 0.65 c p3
247.40 70.29 0.65 c p3
247.68 69.53 0.65 c p3
247.96 69.74 0.65 c p3
248.24 68.41 0.65 c p3
248.52 68.99 0.65 c p3
248.80 68.25 0.65 c p3
249.08 68.41 0.65 c p3
249.36 69.37 0.65 c p3
249.64 68.62 0.65 c p3
249.92 69.16 0.65 c p3
250.20 68.25 0.65 c p3
250.48 68.99 0.65 c p3
250.76 69.74 0.65 c p3
251.04 68.62 0.65 c p3
251.32 68.62 0.65 c p3
251.60 69.53 0.65 c p3
251.88 68.41 0.65 c p3
252.16 68.41 0.65 c p3
252.44 68.99 0.65 c p3
252.72 68.41 0.65 c p3
253.00 68.62 0.65 c p3
253.28 68.62 0.65 c p3
253.56 68.79 0.65 c p3
253.84 68.99 0.65 c p3
254.12 68.62 0.65 c p3
254.40 68.25 0.65 c p3
254.68 68.62 0.65 c p3
254.96 68.25 0.65 c p3
255.24 69.53 0.65 c p3
255.52 68.25 0.65 c p3
255.80 68.62 0.65 c p3
256.08 68.62 0.65 c p3
256.36 68.04 0.65 c p3
256.64 68.79 0.65 c p3
256.92 68.62 0.65 c p3
257.20 67.67 0.65 c p3
257.48 67.67 0.65 c p3
257.76 68.62 0.65 c p3
258.04 67.88 0.65 c p3
258.32 67.30 0.65 c p3
258.60 68.79 0.65 c p3
258.88 69.37 0.65 c p3
259.16 67.30 0.65 c p3
259.44 67.88 0.65 c p3
259.72 67.13 0.65 c p3
260.00 67.51 0.65 c p3
260.28 68.79 0.65 c p3
260.56 68.41 0.65 c p3
260.84 67.30 0.65 c p3
261.12 66.76 0.65 c p3
261.40 67.88 0.65 c p3
261.68 68.04 0.65 c p3
261.96 67.67 0.65 c p3
262.24 67.88 0.65 c p3
262.52 68.62 0.65 c p3
262.80 68.25 0.65 c p3
263.08 68.04 0.65 c p3
263.36 67.30 0.65 c p3
263.64 67.67 0.65 c p3
263.92 68.41 0.65 c p3
264.20 67.30 0.65 c p3
264.48 67.51 0.65 c p3
264.76 67.88 0.65 c p3
265.04 67.30 0.65 c p3
265.32 67.88 0.65 c p3
265.60 67.67 0.65 c p3
265.88 67.30 0.65 c p3
266.16 67.51 0.65 c p3
266.44 67.67 0.65 c p3
266.72 67.51 0.65 c p3
267.00 67.51 0.65 c p3
267.28 67.88 0.65 c p3
267.56 67.51 0.65 c p3
267.84 67.88 0.65 c p3
268.12 66.56 0.65 c p3
268.40 67.13 0.65 c p3
268.68 68.62 0.65 c p3
268.96 67.67 0.65 c p3
269.24 66.76 0.65 c p3
269.52 66.56 0.65 c p3
269.80 67.13 0.65 c p3
270.08 67.51 0.65 c p3
270.36 67.13 0.65 c p3
270.64 67.51 0.65 c p3
270.92 68.04 0.65 c p3
271.20 66.19 0.65 c p3
271.48 66.76 0.65 c p3
271.76 66.93 0.65 c p3
272.04 66.03 0.65 c p3
272.32 68.25 0.65 c p3
272.60 67.30 0.65 c p3
272.88 67.51 0.65 c p3
273.16 66.19 0.65 c p3
273.44 66.39 0.65 c p3
273.72 66.39 0.65 c p3
274.00 67.13 0.65 c p3
274.28 66.76 0.65 c p3
274.56 66.19 0.65 c p3
274.84 67.13 0.65 c p3
275.12 66.76 0.65 c p3
275.40 66.93 0.65 c p3
275.68 66.93 0.65 c p3
275.96 66.76 0.65 c p3
276.24 67.30 0.65 c p3
276.52 66.56 0.65 c p3
276.80 66.03 0.65 c p3
277.08 66.03 0.65 c p3
277.36 66.19 0.65 c p3
277.64 66.03 0.65 c p3
277.92 66.03 0.65 c p3
278.20 66.39 0.65 c p3
278.48 66.19 0.65 c p3
278.76 67.13 0.65 c p3
279.04 66.19 0.65 c p3
279.32 67.30 0.65 c p3
279.60 66.03 0.65 c p3
279.88 67.13 0.65 c p3
280.16 66.76 0.65 c p3
280.44 66.39 0.65 c p3
280.72 66.76 0.65 c p3
281.00 66.19 0.65 c p3
281.28 66.19 0.65 c p3
281.56 66.39 0.65 c p3
281.84 66.03 0.65 c p3
282.12 66.19 0.65 c p3
282.40 67.67 0.65 c p3
282.68 66.19 0.65 c p3
282.96 66.39 0.65 c p3
283.24 66.03 0.65 c p3
283.52 66.19 0.65 c p3
283.80 65.66 0.65 c p3
284.08 66.19 0.65 c p3
284.36 65.82 0.65 c p3
284.64 65.66 0.65 c p3
284.92 66.93 0.65 c p3
285.20 66.03 0.65 c p3
285.48 66.19 0.65 c p3
285.76 65.29 0.65 c p3
286.04 66.39 0.65 c p3
286.32 65.66 0.65 c p3
286.60 66.03 0.65 c p3
286.88 66.76 0.65 c p3
287.16 66.56 0.65 c p3
287.44 66.76 0.65 c p3
287.72 65.09 0.65 c p3
288.00 66.39 0.65 c p3
288.28 65.66 0.65 c p3
288.56 65.82 0.65 c p3
288.84 66.03 0.65 c p3
289.12 66.19 0.65 c p3
289.40 65.66 0.65 c p3
289.68 65.66 0.65 c p3
289.96 66.39 0.65 c p3
290.24 66.03 0.65 c p3
290.52 64.92 0.65 c p3
290.80 66.19 0.65 c p3
291.08 65.45 0.65 c p3
291.36 66.03 0.65 c p3
291.64 65.66 0.65 c p3
291.92 65.82 0.65 c p3
292.20 64.92 0.65 c p3
292.48 66.19 0.65 c p3
292.76 66.19 0.65 c p3
293.04 66.03 0.65 c p3
293.32 65.09 0.65 c p3
293.60 65.45 0.65 c p3
293.88 65.45 0.65 c p3
294.16 65.09 0.65 c p3
294.44 66.19 0.65 c p3
294.72 65.82 0.65 c p3
295.00 65.09 0.65 c p3
295.28 65.82 0.65 c p3
295.56 66.03 0.65 c p3
295.84 64.03 0.65 c p3
296.12 64.56 0.65 c p3
296.40 65.82 0.65 c p3
296.68 65.29 0.65 c p3
296.96 65.29 0.65 c p3
297.24 65.29 0.65 c p3
297.52 65.45 0.65 c p3
297.80 64.56 0.65 c p3
298.08 65.66 0.65 c p3
298.36 65.29 0.65 c p3
298.64 64.92 0.65 c p3
298.92 65.82 0.65 c p3
299.20 65.45 0.65 c p3
299.48 64.19 0.65 c p3
299.76 64.92 0.65 c p3
300.04 64.92 0.65 c p3
300.32 65.09 0.65 c p3
300.60 65.29 0.65 c p3
300.88 64.92 0.65 c p3
301.16 65.09 0.65 c p3
301.44 65.45 0.65 c p3
301.72 64.39 0.65 c p3
302.00 65.66 0.65 c p3
302.28 64.19 0.65 c p3
302.56 64.92 0.65 c p3
302.84 66.19 0.65 c p3
303.12 65.29 0.65 c p3
303.40 64.76 0.65 c p3
303.68 64.56 0.65 c p3
303.96 63.83 0.65 c p3
304.24 64.56 0.65 c p3
304.52 65.66 0.65 c p3
304.80 65.82 0.65 c p3
305.08 64.76 0.65 c p3
305.36 64.92 0.65 c p3
305.64 63.83 0.65 c p3
305.92 64.92 0.65 c p3
306.20 65.29 0.65 c p3
306.48 65.09 0.65 c p3
306.76 64.56 0.65 c p3
307.04 64.56 0.65 c p3
307.32 65.82 0.65 c p3
307.60 64.03 0.65 c p3
307.88 63.83 0.65 c p3
308.16 65.45 0.65 c p3
308.44 65.29 0.65 c p3
308.72 65.29 0.65 c p3
309.00 64.39 0.65 c p3
309.28 65.66 0.65 c p3
309.56 65.29 0.65 c p3
309.84 65.29 0.65 c p3
310.12 64.92 0.65 c p3
310.40 64.92 0.65 c p3
310.68 64.19 0.65 c p3
310.96 65.09 0.65 c p3
311.24 64.39 0.65 c p3
311.52 64.92 0.65 c p3
311.80 64.19 0.65 c p3
312.08 64.39 0.65 c p3
312.36 64.76 0.65 c p3
312.64 64.56 0.65 c p3
312.92 66.03 0.65 c p3
313.20 64.76 0.65 c p3
313.48 63.83 0.65 c p3
313.76 65.09 0.65 c p3
314.04 64.19 0.65 c p3
314.32 64.56 0.65 c p3
314.60 64.03 0.65 c p3
314.88 64.39 0.65 c p3
315.16 63.83 0.65 c p3
315.44 64.19 0.65 c p3
315.72 64.76 0.65 c p3
316.00 64.39 0.65 c p3
316.28 64.19 0.65 c p3
316.56 64.39 0.65 c p3
316.84 64.76 0.65 c p3
317.12 64.56 0.65 c p3
317.40 64.03 0.65 c p3
317.68 64.92 0.65 c p3
317.96 64.03 0.65 c p3
318.24 64.76 0.65 c p3
318.52 64.03 0.65 c p3
318.80 64.19 0.65 c p3
319.08 64.92 0.65 c p3
319.36 64.76 0.65 c p3
319.64 64.39 0.65 c p3
319.92 64.56 0.65 c p3
320.20 64.56 0.65 c p3
320.48 64.19 0.65 c p3
320.76 64.56 0.65 c p3
321.04 64.03 0.65 c p3
321.32 64.39 0.65 c p3
321.60 64.39 0.65 c p3
321.88 64.19 0.65 c p3
322.16 64.56 0.65 c p3
322.44 64.19 0.65 c p3
322.72 64.56 0.65 c p3
323.00 63.66 0.65 c p3
323.28 63.46 0.65 c p3
323.56 64.39 0.65 c p3
323.84 63.83 0.65 c p3
324.12 63.46 0.65 c p3
324.40 64.56 0.65 c p3
324.68 63.10 0.65 c p3
324.96 64.39 0.65 c p3
325.24 63.30 0.65 c p3
325.52 63.30 0.65 c p3
325.80 63.83 0.65 c p3
326.08 64.76 0.65 c p3
326.36 63.83 0.65 c p3
326.64 64.76 0.65 c p3
326.92 64.19 0.65 c p3
327.20 63.46 0.65 c p3
327.48 63.66 0.65 c p3
327.76 64.03 0.65 c p3
328.04 63.83 0.65 c p3
328.32 64.03 0.65 c p3
328.60 64.03 0.65 c p3
328.88 64.19 0.65 c p3
329.16 62.94 0.65 c p3
329.44 63.46 0.65 c p3
329.72 64.19 0.65 c p3
330.00 63.66 0.65 c p3
330.28 63.10 0.65 c p3
330.56 64.19 0.65 c p3
330.84 63.46 0.65 c p3
331.12 63.66 0.65 c p3
331.40 63.30 0.65 c p3
331.68 63.46 0.65 c p3
331.96 64.03 0.65 c p3
332.24 64.39 0.65 c p3
332.52 63.46 0.65 c p3
332.80 63.10 0.65 c p3
333.08 63.30 0.65 c p3
333.36 63.46 0.65 c p3
333.64 64.19 0.65 c p3
333.92 65.09 0.65 c p3
334.20 63.30 0.65 c p3
334.48 64.19 0.65 c p3
334.76 64.03 0.65 c p3
335.04 63.30 0.65 c p3
335.32 63.30 0.65 c p3
335.60 64.03 0.65 c p3
335.88 63.30 0.65 c p3
336.16 64.56 0.65 c p3
336.44 64.39 0.65 c p3
336.72 62.94 0.65 c p3
337.00 62.74 0.65 c p3
337.28 63.66 0.65 c p3
337.56 63.66 0.65 c p3
337.84 63.83 0.65 c p3
338.12 63.46 0.65 c p3
338.40 64.03 0.65 c p3
338.68 63.30 0.65 c p3
338.96 62.94 0.65 c p3
339.24 63.83 0.65 c p3
339.52 63.10 0.65 c p3
339.80 63.10 0.65 c p3
340.08 63.30 0.65 c p3
340.36 63.30 0.65 c p3
340.64 63.30 0.65 c p3
340.92 63.10 0.65 c p3
341.20 63.46 0.65 c p3
341.48 62.74 0.65 c p3
341.76 63.83 0.65 c p3
342.04 63.83 0.65 c p3
342.32 63.10 0.65 c p3
342.60 63.83 0.65 c p3
342.88 63.46 0.65 c p3
343.16 62.94 0.65 c p3
343.44 63.10 0.65 c p3
343.72 62.94 0.65 c p3
344.00 63.46 0.65 c p3
344.28 62.74 0.65 c p3
344.56 63.83 0.65 c p3
344.84 61.85 0.65 c p3
345.12 64.76 0.65 c p3
216.00 201.60 367.20 247.68 cl
0 0 0 srgb
0.75 setlinewidth
[] 0 setdash
1 setlinecap
1 setlinejoin
10.00 setmiterlimit
221.60 238.86 0.43 c p1
221.76 236.55 0.43 c p1
221.92 237.99 0.43 c p1
222.09 235.85 0.43 c p1
222.25 231.95 0.43 c p1
222.41 235.03 0.43 c p1
222.57 231.71 0.43 c p1
222.73 234.23 0.43 c p1
222.89 230.46 0.43 c p1
223.06 235.06 0.43 c p1
223.22 230.21 0.43 c p1
223.38 231.55 0.43 c p1
223.54 229.60 0.43 c p1
223.70 227.57 0.43 c p1
223.87 231.50 0.43 c p1
224.03 225.82 0.43 c p1
224.19 229.68 0.43 c p1
224.35 229.90 0.43 c p1
224.51 228.95 0.43 c p1
224.68 228.12 0.43 c p1
224.84 225.16 0.43 c p1
225.00 227.40 0.43 c p1
225.16 226.04 0.43 c p1
225.32 226.69 0.43 c p1
225.48 224.34 0.43 c p1
225.65 224.00 0.43 c p1
225.81 226.16 0.43 c p1
225.97 224.83 0.43 c p1
226.13 224.91 0.43 c p1
226.29 224.13 0.43 c p1
226.46 223.25 0.43 c p1
226.62 224.37 0.43 c p1
226.78 221.20 0.43 c p1
226.94 224.60 0.43 c p1
227.10 222.37 0.43 c p1
227.26 224.80 0.43 c p1
227.43 223.51 0.43 c p1
227.59 225.91 0.43 c p1
227.75 222.78 0.43 c p1
227.91 222.92 0.43 c p1
228.07 224.36 0.43 c p1
228.24 219.91 0.43 c p1
228.40 222.71 0.43 c p1
228.56 219.69 0.43 c p1
228.72 222.35 0.43 c p1
228.88 221.98 0.43 c p1
229.05 222.08 0.43 c p1
229.21 222.57 0.43 c p1
229.37 218.75 0.43 c p1
229.53 223.14 0.43 c p1
229.69 221.03 0.43 c p1
229.85 222.72 0.43 c p1
230.02 222.33 0.43 c p1
230.18 221.93 0.43 c p1
230.34 222.37 0.43 c p1
230.50 221.96 0.43 c p1
230.66 220.73 0.43 c p1
230.83 219.51 0.43 c p1
230.99 220.38 0.43 c p1
231.15 220.43 0.43 c p1
231.31 221.19 0.43 c p1
231.47 222.40 0.43 c p1
231.63 219.56 0.43 c p1
231.80 221.20 0.43 c p1
231.96 221.13 0.43 c p1
232.12 221.14 0.43 c p1
232.28 220.27 0.43 c p1
232.44 219.50 0.43 c p1
232.61 220.64 0.43 c p1
232.77 217.87 0.43 c p1
232.93 221.67 0.43 c p1
233.09 219.33 0.43 c p1
233.25 220.77 0.43 c p1
233.42 221.10 0.43 c p1
233.58 220.30 0.43 c p1
233.74 220.61 0.43 c p1
233.90 218.64 0.43 c p1
234.06 222.40 0.43 c p1
234.22 219.24 0.43 c p1
234.39 221.79 0.43 c p1
234.55 221.32 0.43 c p1
234.71 218.61 0.43 c p1
234.87 220.03 0.43 c p1
235.03 220.63 0.43 c p1
235.20 217.94 0.43 c p1
235.36 220.08 0.43 c p1
235.52 220.32 0.43 c p1
235.68 218.79 0.43 c p1
235.84 219.75 0.43 c p1
236.00 221.36 0.43 c p1
236.17 220.53 0.43 c p1
236.33 218.28 0.43 c p1
236.49 220.97 0.43 c p1
236.65 221.18 0.43 c p1
236.81 219.63 0.43 c p1
236.98 220.15 0.43 c p1
237.14 221.06 0.43 c p1
237.30 220.93 0.43 c p1
237.46 219.31 0.43 c p1
237.62 220.90 0.43 c p1
237.78 220.76 0.43 c p1
237.95 221.24 0.43 c p1
238.11 221.09 0.43 c p1
238.27 220.55 0.43 c p1
238.43 220.01 0.43 c p1
238.59 220.47 0.43 c p1
238.76 221.00 0.43 c p1
238.92 222.82 0.43 c p1
239.08 220.28 0.43 c p1
239.24 220.71 0.43 c p1
239.40 221.52 0.43 c p1
239.57 221.63 0.43 c p1
239.73 220.77 0.43 c p1
239.89 221.18 0.43 c p1
240.05 220.98 0.43 c p1
240.21 221.38 0.43 c p1
240.37 220.51 0.43 c p1
240.54 221.27 0.43 c p1
240.70 221.66 0.43 c p1
240.86 221.44 0.43 c p1
241.02 220.49 0.43 c p1
241.18 220.93 0.43 c p1
241.35 221.95 0.43 c p1
241.51 222.68 0.43 c p1
241.67 221.13 0.43 c p1
241.83 222.13 0.43 c p1
241.99 221.60 0.43 c p1
242.15 221.28 0.43 c p1
242.32 220.39 0.43 c p1
242.48 223.03 0.43 c p1
242.64 223.35 0.43 c p1
242.80 220.79 0.43 c p1
242.96 222.75 0.43 c p1
243.13 222.48 0.43 c p1
243.29 224.08 0.43 c p1
243.45 223.44 0.43 c p1
243.61 222.17 0.43 c p1
243.77 221.54 0.43 c p1
243.94 221.89 0.43 c p1
244.10 221.89 0.43 c p1
244.26 221.54 0.43 c p1
244.42 222.51 0.43 c p1
244.58 222.15 0.43 c p1
244.74 222.76 0.43 c p1
244.91 223.09 0.43 c p1
245.07 223.69 0.43 c p1
245.23 224.57 0.43 c p1
245.39 223.00 0.43 c p1
245.55 221.44 0.43 c p1
245.72 224.17 0.43 c p1
245.88 222.26 0.43 c p1
246.04 223.80 0.43 c p1
246.20 222.16 0.43 c p1
246.36 223.69 0.43 c p1
246.52 223.01 0.43 c p1
246.69 223.22 0.43 c p1
246.85 223.50 0.43 c p1
247.01 223.09 0.43 c p1
247.17 222.14 0.43 c p1
247.33 224.17 0.43 c p1
247.50 222.26 0.43 c p1
247.66 223.13 0.43 c p1
247.82 223.65 0.43 c p1
247.98 223.22 0.43 c p1
248.14 224.35 0.43 c p1
248.31 225.19 0.43 c p1
248.47 224.15 0.43 c p1
248.63 222.58 0.43 c p1
248.79 224.55 0.43 c p1
248.95 224.77 0.43 c p1
249.11 223.73 0.43 c p1
249.28 224.21 0.43 c p1
249.44 224.43 0.43 c p1
249.60 224.31 0.43 c p1
249.76 223.59 0.43 c p1
249.92 224.32 0.43 c p1
250.09 224.52 0.43 c p1
250.25 223.53 0.43 c p1
250.41 223.66 0.43 c p1
250.57 224.71 0.43 c p1
250.73 225.16 0.43 c p1
250.89 225.35 0.43 c p1
251.06 226.05 0.43 c p1
251.22 223.87 0.43 c p1
251.38 224.31 0.43 c p1
251.54 225.33 0.43 c p1
251.70 224.58 0.43 c p1
251.87 226.18 0.43 c p1
252.03 224.52 0.43 c p1
252.19 223.77 0.43 c p1
252.35 225.94 0.43 c p1
252.51 224.34 0.43 c p1
252.68 226.17 0.43 c p1
252.84 224.83 0.43 c p1
253.00 225.82 0.43 c p1
253.16 225.05 0.43 c p1
253.32 225.45 0.43 c p1
253.48 224.68 0.43 c p1
253.65 225.39 0.43 c p1
253.81 225.46 0.43 c p1
253.97 224.69 0.43 c p1
254.13 225.64 0.43 c p1
254.29 225.19 0.43 c p1
254.46 224.67 0.43 c p1
254.62 226.51 0.43 c p1
254.78 226.30 0.43 c p1
254.94 226.34 0.43 c p1
255.10 226.13 0.43 c p1
255.26 223.96 0.43 c p1
255.43 225.70 0.43 c p1
255.59 224.98 0.43 c p1
255.75 225.58 0.43 c p1
255.91 225.67 0.43 c p1
256.07 225.14 0.43 c p1
256.24 225.79 0.43 c p1
256.40 224.12 0.43 c p1
256.56 226.46 0.43 c p1
256.72 225.92 0.43 c p1
256.88 225.43 0.43 c p1
257.05 226.57 0.43 c p1
257.21 225.52 0.43 c p1
257.37 226.97 0.43 c p1
257.53 227.28 0.43 c p1
257.69 225.60 0.43 c p1
257.85 227.04 0.43 c p1
258.02 226.23 0.43 c p1
258.18 224.86 0.43 c p1
258.34 227.15 0.43 c p1
258.50 226.58 0.43 c p1
258.66 226.33 0.43 c p1
258.83 224.95 0.43 c p1
258.99 226.36 0.43 c p1
259.15 226.41 0.43 c p1
259.31 226.70 0.43 c p1
259.47 228.35 0.43 c p1
259.63 226.72 0.43 c p1
259.80 226.14 0.43 c p1
259.96 227.28 0.43 c p1
260.12 227.81 0.43 c p1
260.28 226.73 0.43 c p1
260.44 226.15 0.43 c p1
260.61 226.72 0.43 c p1
260.77 226.69 0.43 c p1
260.93 227.51 0.43 c p1
261.09 226.98 0.43 c p1
261.25 226.93 0.43 c p1
261.42 227.50 0.43 c p1
261.58 226.66 0.43 c p1
261.74 228.26 0.43 c p1
261.90 227.96 0.43 c p1
262.06 226.33 0.43 c p1
262.22 227.92 0.43 c p1
262.39 226.83 0.43 c p1
262.55 227.07 0.43 c p1
262.71 227.02 0.43 c p1
262.87 230.00 0.43 c p1
263.03 226.47 0.43 c p1
263.20 226.41 0.43 c p1
263.36 227.97 0.43 c p1
263.52 227.72 0.43 c p1
263.68 227.65 0.43 c p1
263.84 227.88 0.43 c p1
264.00 226.78 0.43 c p1
264.17 226.17 0.43 c p1
264.33 228.02 0.43 c p1
264.49 228.24 0.43 c p1
264.65 226.60 0.43 c p1
264.81 226.52 0.43 c p1
264.98 227.82 0.43 c p1
265.14 230.99 0.43 c p1
265.30 228.01 0.43 c p1
265.46 225.23 0.43 c p1
265.62 226.81 0.43 c p1
265.78 228.10 0.43 c p1
265.95 227.77 0.43 c p1
266.11 227.43 0.43 c p1
266.27 227.88 0.43 c p1
266.43 227.54 0.43 c p1
266.59 227.20 0.43 c p1
266.76 228.78 0.43 c p1
266.92 226.53 0.43 c p1
267.08 228.87 0.43 c p1
267.24 226.68 0.43 c p1
267.40 226.05 0.43 c p1
267.57 227.60 0.43 c p1
267.73 229.40 0.43 c p1
267.89 228.21 0.43 c p1
268.05 228.16 0.43 c p1
268.21 227.52 0.43 c p1
268.37 227.70 0.43 c p1
268.54 227.64 0.43 c p1
268.70 228.36 0.43 c p1
268.86 227.47 0.43 c p1
269.02 227.88 0.43 c p1
269.18 227.29 0.43 c p1
269.35 229.30 0.43 c p1
269.51 227.34 0.43 c p1
269.67 226.99 0.43 c p1
269.83 227.68 0.43 c p1
269.99 227.62 0.43 c p1
270.15 227.26 0.43 c p1
270.32 227.42 0.43 c p1
270.48 228.64 0.43 c p1
270.64 227.98 0.43 c p1
270.80 227.62 0.43 c p1
270.96 228.83 0.43 c p1
271.13 228.23 0.43 c p1
271.29 228.39 0.43 c p1
271.45 228.78 0.43 c p1
271.61 228.17 0.43 c p1
271.77 227.80 0.43 c p1
271.94 228.71 0.43 c p1
272.10 229.15 0.43 c p1
272.26 227.96 0.43 c p1
272.42 226.30 0.43 c p1
272.58 228.02 0.43 c p1
272.74 228.17 0.43 c p1
272.91 229.36 0.43 c p1
273.07 227.64 0.43 c p1
273.23 227.78 0.43 c p1
273.39 227.92 0.43 c p1
273.55 228.36 0.43 c p1
273.72 227.74 0.43 c p1
273.88 229.16 0.43 c p1
274.04 228.01 0.43 c p1
274.20 227.34 0.43 c p1
274.36 227.47 0.43 c p1
274.52 227.89 0.43 c p1
274.69 228.26 0.43 c p1
274.85 228.39 0.43 c p1
275.01 228.29 0.43 c p1
275.17 227.09 0.43 c p1
275.33 228.26 0.43 c p1
275.50 227.63 0.43 c p1
275.66 227.47 0.43 c p1
275.82 228.40 0.43 c p1
275.98 227.72 0.43 c p1
276.14 228.65 0.43 c p1
276.31 228.25 0.43 c p1
276.47 227.56 0.43 c p1
276.63 227.17 0.43 c p1
276.79 227.80 0.43 c p1
276.95 227.40 0.43 c p1
277.11 227.29 0.43 c p1
277.28 228.15 0.43 c p1
277.44 227.75 0.43 c p1
277.60 228.15 0.43 c p1
277.76 227.23 0.43 c p1
277.92 226.83 0.43 c p1
278.09 226.65 0.43 c p1
278.25 227.56 0.43 c p1
278.41 227.90 0.43 c p1
278.57 228.30 0.43 c p1
278.73 227.09 0.43 c p1
278.89 228.23 0.43 c p1
279.06 228.33 0.43 c p1
279.22 228.21 0.43 c p1
279.38 227.51 0.43 c p1
279.54 227.61 0.43 c p1
279.70 227.20 0.43 c p1
279.87 227.82 0.43 c p1
280.03 227.40 0.43 c p1
280.19 226.99 0.43 c p1
280.35 228.63 0.43 c p1
280.51 227.47 0.43 c p1
280.68 228.83 0.43 c p1
280.84 226.87 0.43 c p1
281.00 227.76 0.43 c p1
281.16 227.86 0.43 c p1
281.32 228.47 0.43 c p1
281.48 228.56 0.43 c p1
281.65 227.63 0.43 c p1
281.81 228.46 0.43 c p1
281.97 227.01 0.43 c p1
282.13 227.90 0.43 c p1
282.29 229.02 0.43 c p1
282.46 227.28 0.43 c p1
282.62 228.17 0.43 c p1
282.78 227.74 0.43 c p1
282.94 227.83 0.43 c p1
283.10 228.14 0.43 c p1
283.26 226.98 0.43 c p1
283.43 227.80 0.43 c p1
283.59 226.86 0.43 c p1
283.75 227.74 0.43 c p1
283.91 227.82 0.43 c p1
284.07 227.91 0.43 c p1
284.24 227.70 0.43 c p1
284.40 227.27 0.43 c p1
284.56 227.86 0.43 c p1
284.72 227.21 0.43 c p1
284.88 227.29 0.43 c p1
285.05 229.12 0.43 c p1
285.21 228.46 0.43 c p1
285.37 227.74 0.43 c p1
285.53 227.59 0.43 c p1
285.69 226.65 0.43 c p1
285.85 228.99 0.43 c p1
286.02 229.06 0.43 c p1
286.18 227.38 0.43 c p1
286.34 227.17 0.43 c p1
286.50 227.25 0.43 c p1
286.66 227.32 0.43 c p1
286.83 227.39 0.43 c p1
286.99 226.73 0.43 c p1
287.15 227.53 0.43 c p1
287.31 226.08 0.43 c p1
287.47 227.67 0.43 c p1
287.63 227.23 0.43 c p1
287.80 227.30 0.43 c p1
287.96 228.15 0.43 c p1
288.12 227.71 0.43 c p1
288.28 228.29 0.43 c p1
288.44 227.84 0.43 c p1
288.61 227.12 0.43 c p1
288.77 225.95 0.43 c p1
288.93 227.53 0.43 c p1
289.09 227.82 0.43 c p1
289.25 228.39 0.43 c p1
289.42 227.72 0.43 c p1
289.58 227.00 0.43 c p1
289.74 226.83 0.43 c p1
289.90 227.90 0.43 c p1
290.06 227.96 0.43 c p1
290.22 227.24 0.43 c p1
290.39 228.59 0.43 c p1
290.55 227.64 0.43 c p1
290.71 227.41 0.43 c p1
290.87 226.97 0.43 c p1
291.03 226.80 0.43 c p1
291.20 227.87 0.43 c p1
291.36 227.64 0.43 c p1
291.52 226.75 0.43 c p1
291.68 228.03 0.43 c p1
291.84 226.86 0.43 c p1
292.00 227.14 0.43 c p1
292.17 227.41 0.43 c p1
292.33 227.02 0.43 c p1
292.49 226.79 0.43 c p1
292.65 227.57 0.43 c p1
292.81 226.18 0.43 c p1
292.98 227.68 0.43 c p1
293.14 226.78 0.43 c p1
293.30 228.56 0.43 c p1
293.46 226.88 0.43 c p1
293.62 227.43 0.43 c p1
293.78 226.48 0.43 c p1
293.95 226.75 0.43 c p1
294.11 227.81 0.43 c p1
294.27 226.85 0.43 c p1
294.43 227.40 0.43 c p1
294.59 226.95 0.43 c p1
294.76 225.99 0.43 c p1
294.92 226.54 0.43 c p1
295.08 226.36 0.43 c p1
295.24 226.63 0.43 c p1
295.40 227.18 0.43 c p1
295.57 225.72 0.43 c p1
295.73 227.27 0.43 c p1
295.89 227.31 0.43 c p1
296.05 227.36 0.43 c p1
296.21 227.40 0.43 c p1
296.37 226.45 0.43 c p1
296.54 226.49 0.43 c p1
296.70 225.53 0.43 c p1
296.86 225.85 0.43 c p1
297.02 227.12 0.43 c p1
297.18 226.94 0.43 c p1
297.35 227.48 0.43 c p1
297.51 228.02 0.43 c p1
297.67 227.06 0.43 c p1
297.83 226.10 0.43 c p1
297.99 226.64 0.43 c p1
298.15 227.18 0.43 c p1
298.32 226.44 0.43 c p1
298.48 227.98 0.43 c p1
298.64 228.02 0.43 c p1
298.80 226.06 0.43 c p1
298.96 227.60 0.43 c p1
299.13 227.13 0.43 c p1
299.29 227.17 0.43 c p1
299.45 227.21 0.43 c p1
299.61 226.03 0.43 c p1
299.77 226.29 0.43 c p1
299.94 226.82 0.43 c p1
300.10 226.14 0.43 c p1
300.26 226.39 0.43 c p1
300.42 227.20 0.43 c p1
300.58 226.74 0.43 c p1
300.74 226.78 0.43 c p1
300.91 226.81 0.43 c p1
301.07 226.07 0.43 c p1
301.23 226.11 0.43 c p1
301.39 227.41 0.43 c p1
301.55 227.45 0.43 c p1
301.72 224.99 0.43 c p1
301.88 225.74 0.43 c p1
302.04 225.55 0.43 c p1
302.20 226.30 0.43 c p1
302.36 226.12 0.43 c p1
302.52 226.87 0.43 c p1
302.69 225.90 0.43 c p1
302.85 225.93 0.43 c p1
303.01 225.47 0.43 c p1
303.17 225.28 0.43 c p1
303.33 227.02 0.43 c p1
303.50 227.05 0.43 c p1
303.66 227.36 0.43 c p1
303.82 225.62 0.43 c p1
303.98 225.43 0.43 c p1
304.14 225.19 0.43 c p1
304.31 226.48 0.43 c p1
304.47 225.24 0.43 c p1
304.63 225.77 0.43 c p1
304.79 225.58 0.43 c p1
304.95 226.32 0.43 c p1
305.11 226.84 0.43 c p1
305.28 225.88 0.43 c p1
305.44 226.18 0.43 c p1
305.60 224.45 0.43 c p1
305.76 225.25 0.43 c p1
305.92 224.29 0.43 c p1
306.09 224.53 0.43 c p1
306.25 225.82 0.43 c p1
306.41 224.86 0.43 c p1
306.57 225.60 0.43 c p1
306.73 224.42 0.43 c p1
306.89 225.43 0.43 c p1
307.06 226.44 0.43 c p1
307.22 224.99 0.43 c p1
307.38 225.01 0.43 c p1
307.54 226.24 0.43 c p1
307.70 224.79 0.43 c p1
307.87 224.81 0.43 c p1
308.03 225.60 0.43 c p1
308.19 224.86 0.43 c p1
308.35 225.16 0.43 c p1
308.51 225.18 0.43 c p1
308.68 225.42 0.43 c p1
308.84 225.72 0.43 c p1
309.00 225.25 0.43 c p1
309.16 224.78 0.43 c p1
309.32 225.29 0.43 c p1
309.48 224.82 0.43 c p1
309.65 226.55 0.43 c p1
309.81 224.87 0.43 c p1
309.97 225.38 0.43 c p1
310.13 225.40 0.43 c p1
310.29 224.66 0.43 c p1
310.46 225.67 0.43 c p1
310.62 225.47 0.43 c p1
310.78 224.23 0.43 c p1
310.94 224.25 0.43 c p1
311.10 225.53 0.43 c p1
311.26 224.57 0.43 c p1
311.43 223.82 0.43 c p1
311.59 225.81 0.43 c p1
311.75 226.60 0.43 c p1
311.91 223.88 0.43 c p1
312.07 224.67 0.43 c p1
312.24 223.70 0.43 c p1
312.40 224.21 0.43 c p1
312.56 225.93 0.43 c p1
312.72 225.45 0.43 c p1
312.88 224.00 0.43 c p1
313.05 223.31 0.43 c p1
313.21 224.80 0.43 c p1
313.37 225.03 0.43 c p1
313.53 224.56 0.43 c p1
313.69 224.85 0.43 c p1
313.85 225.85 0.43 c p1
314.02 225.38 0.43 c p1
314.18 225.12 0.43 c p1
314.34 224.16 0.43 c p1
314.50 224.67 0.43 c p1
314.66 225.67 0.43 c p1
314.83 224.21 0.43 c p1
314.99 224.50 0.43 c p1
315.15 225.01 0.43 c p1
315.31 224.26 0.43 c p1
315.47 225.04 0.43 c p1
315.63 224.78 0.43 c p1
315.80 224.31 0.43 c p1
315.96 224.60 0.43 c p1
316.12 224.83 0.43 c p1
316.28 224.63 0.43 c p1
316.44 224.65 0.43 c p1
316.61 225.15 0.43 c p1
316.77 224.68 0.43 c p1
316.93 225.18 0.43 c p1
317.09 223.46 0.43 c p1
317.25 224.23 0.43 c p1
317.42 226.21 0.43 c p1
317.58 224.97 0.43 c p1
317.74 223.79 0.43 c p1
317.90 223.53 0.43 c p1
318.06 224.30 0.43 c p1
318.22 224.81 0.43 c p1
318.39 224.33 0.43 c p1
318.55 224.84 0.43 c p1
318.71 225.56 0.43 c p1
318.87 223.13 0.43 c p1
319.03 223.90 0.43 c p1
319.20 224.13 0.43 c p1
319.36 222.95 0.43 c p1
319.52 225.90 0.43 c p1
319.68 224.66 0.43 c p1
319.84 224.95 0.43 c p1
320.00 223.22 0.43 c p1
320.17 223.50 0.43 c p1
320.33 223.52 0.43 c p1
320.49 224.51 0.43 c p1
320.65 224.03 0.43 c p1
320.81 223.28 0.43 c p1
320.98 224.54 0.43 c p1
321.14 224.07 0.43 c p1
321.30 224.30 0.43 c p1
321.46 224.31 0.43 c p1
321.62 224.10 0.43 c p1
321.78 224.82 0.43 c p1
321.95 223.86 0.43 c p1
322.11 223.16 0.43 c p1
322.27 223.18 0.43 c p1
322.43 223.40 0.43 c p1
322.59 223.20 0.43 c p1
322.76 223.21 0.43 c p1
322.92 223.71 0.43 c p1
323.08 223.45 0.43 c p1
323.24 224.71 0.43 c p1
323.40 223.47 0.43 c p1
323.57 224.95 0.43 c p1
323.73 223.28 0.43 c p1
323.89 224.75 0.43 c p1
324.05 224.27 0.43 c p1
324.21 223.79 0.43 c p1
324.37 224.29 0.43 c p1
324.54 223.54 0.43 c p1
324.70 223.55 0.43 c p1
324.86 223.84 0.43 c p1
325.02 223.36 0.43 c p1
325.18 223.59 0.43 c p1
325.35 225.55 0.43 c p1
325.51 223.60 0.43 c p1
325.67 223.89 0.43 c p1
325.83 223.41 0.43 c p1
325.99 223.63 0.43 c p1
326.15 222.94 0.43 c p1
326.32 223.65 0.43 c p1
326.48 223.18 0.43 c p1
326.64 222.97 0.43 c p1
326.80 224.66 0.43 c p1
326.96 223.47 0.43 c p1
327.13 223.70 0.43 c p1
327.29 222.52 0.43 c p1
327.45 223.99 0.43 c p1
327.61 223.02 0.43 c p1
327.77 223.52 0.43 c p1
327.94 224.50 0.43 c p1
328.10 224.24 0.43 c p1
328.26 224.52 0.43 c p1
328.42 222.31 0.43 c p1
328.58 224.05 0.43 c p1
328.74 223.08 0.43 c p1
328.91 223.31 0.43 c p1
329.07 223.58 0.43 c p1
329.23 223.81 0.43 c p1
329.39 223.11 0.43 c p1
329.55 223.12 0.43 c p1
329.72 224.10 0.43 c p1
329.88 223.62 0.43 c p1
330.04 222.18 0.43 c p1
330.20 223.86 0.43 c p1
330.36 222.89 0.43 c p1
330.52 223.66 0.43 c p1
330.69 223.18 0.43 c p1
330.85 223.40 0.43 c p1
331.01 222.22 0.43 c p1
331.17 223.90 0.43 c p1
331.33 223.91 0.43 c p1
331.50 223.70 0.43 c p1
331.66 222.47 0.43 c p1
331.82 222.96 0.43 c p1
331.98 222.97 0.43 c p1
332.14 222.49 0.43 c p1
332.31 223.95 0.43 c p1
332.47 223.47 0.43 c p1
332.63 222.51 0.43 c p1
332.79 223.49 0.43 c p1
332.95 223.76 0.43 c p1
333.11 221.13 0.43 c p1
333.28 221.84 0.43 c p1
333.44 223.51 0.43 c p1
333.60 222.82 0.43 c p1
333.76 222.82 0.43 c p1
333.92 222.83 0.43 c p1
334.09 223.05 0.43 c p1
334.25 221.87 0.43 c p1
334.41 223.33 0.43 c p1
334.57 222.85 0.43 c p1
334.73 222.38 0.43 c p1
334.89 223.57 0.43 c p1
335.06 223.09 0.43 c p1
335.22 221.43 0.43 c p1
335.38 222.40 0.43 c p1
335.54 222.41 0.43 c p1
335.70 222.63 0.43 c p1
335.87 222.90 0.43 c p1
336.03 222.42 0.43 c p1
336.19 222.64 0.43 c p1
336.35 223.14 0.43 c p1
336.51 221.74 0.43 c p1
336.68 223.42 0.43 c p1
336.84 221.48 0.43 c p1
337.00 222.46 0.43 c p1
337.16 224.14 0.43 c p1
337.32 222.95 0.43 c p1
337.48 222.26 0.43 c p1
337.65 221.99 0.43 c p1
337.81 221.03 0.43 c p1
337.97 222.00 0.43 c p1
338.13 223.46 0.43 c p1
338.29 223.69 0.43 c p1
338.46 222.29 0.43 c p1
338.62 222.51 0.43 c p1
338.78 221.06 0.43 c p1
338.94 222.52 0.43 c p1
339.10 223.01 0.43 c p1
339.26 222.74 0.43 c p1
339.43 222.05 0.43 c p1
339.59 222.05 0.43 c p1
339.75 223.73 0.43 c p1
339.91 221.37 0.43 c p1
340.07 221.10 0.43 c p1
340.24 223.26 0.43 c p1
340.40 223.05 0.43 c p1
340.56 223.05 0.43 c p1
340.72 221.87 0.43 c p1
340.88 223.55 0.43 c p1
341.05 223.06 0.43 c p1
341.21 223.07 0.43 c p1
341.37 222.59 0.43 c p1
341.53 222.59 0.43 c p1
341.69 221.63 0.43 c p1
341.85 222.82 0.43 c p1
342.02 221.91 0.43 c p1
342.18 222.61 0.43 c p1
342.34 221.65 0.43 c p1
342.50 221.92 0.43 c p1
342.66 222.41 0.43 c p1
342.83 222.14 0.43 c p1
342.99 224.09 0.43 c p1
343.15 222.42 0.43 c p1
343.31 221.19 0.43 c p1
343.47 222.86 0.43 c p1
343.63 221.68 0.43 c p1
343.80 222.17 0.43 c p1
343.96 221.47 0.43 c p1
344.12 221.96 0.43 c p1
344.28 221.21 0.43 c p1
344.44 221.70 0.43 c p1
344.61 222.45 0.43 c p1
344.77 221.97 0.43 c p1
344.93 221.71 0.43 c p1
345.09 221.98 0.43 c p1
345.25 222.47 0.43 c p1
345.42 222.20 0.43 c p1
345.58 221.51 0.43 c p1
345.74 222.69 0.43 c p1
345.90 221.52 0.43 c p1
346.06 222.49 0.43 c p1
346.22 221.52 0.43 c p1
346.39 221.74 0.43 c p1
346.55 222.71 0.43 c p1
346.71 222.50 0.43 c p1
346.87 222.02 0.43 c p1
347.03 222.24 0.43 c p1
347.20 222.24 0.43 c p1
347.36 221.76 0.43 c p1
347.52 222.25 0.43 c p1
347.68 221.55 0.43 c p1
347.84 222.04 0.43 c p1
348.00 222.04 0.43 c p1
348.17 221.78 0.43 c p1
348.33 222.26 0.43 c p1
348.49 221.78 0.43 c p1
348.65 222.27 0.43 c p1
348.81 221.09 0.43 c p1
348.98 220.83 0.43 c p1
349.14 222.06 0.43 c p1
349.30 221.31 0.43 c p1
349.46 220.84 0.43 c p1
349.62 222.29 0.43 c p1
349.78 220.36 0.43 c p1
349.95 222.08 0.43 c p1
350.11 220.63 0.43 c p1
350.27 220.64 0.43 c p1
350.43 221.33 0.43 c p1
350.59 222.57 0.43 c p1
350.76 221.34 0.43 c p1
350.92 222.58 0.43 c p1
351.08 221.83 0.43 c p1
351.24 220.87 0.43 c p1
351.40 221.14 0.43 c p1
351.57 221.62 0.43 c p1
351.73 221.36 0.43 c p1
351.89 221.63 0.43 c p1
352.05 221.63 0.43 c p1
352.21 221.84 0.43 c p1
352.37 220.19 0.43 c p1
352.54 220.89 0.43 c p1
352.70 221.85 0.43 c p1
352.86 221.16 0.43 c p1
353.02 220.41 0.43 c p1
353.18 221.86 0.43 c p1
353.35 220.90 0.43 c p1
353.51 221.17 0.43 c p1
353.67 220.69 0.43 c p1
353.83 220.91 0.43 c p1
353.99 221.66 0.43 c p1
354.15 222.14 0.43 c p1
354.32 220.91 0.43 c p1
354.48 220.43 0.43 c p1
354.64 220.70 0.43 c p1
354.80 220.92 0.43 c p1
354.96 221.88 0.43 c p1
355.13 223.07 0.43 c p1
355.29 220.71 0.43 c p1
355.45 221.89 0.43 c p1
355.61 221.68 0.43 c p1
355.77 220.72 0.43 c p1
355.94 220.72 0.43 c p1
356.10 221.68 0.43 c p1
356.26 220.72 0.43 c p1
356.42 222.39 0.43 c p1
356.58 222.17 0.43 c p1
356.74 220.25 0.43 c p1
356.91 219.99 0.43 c p1
357.07 221.22 0.43 c p1
357.23 221.22 0.43 c p1
357.39 221.43 0.43 c p1
357.55 220.95 0.43 c p1
357.72 221.70 0.43 c p1
357.88 220.74 0.43 c p1
358.04 220.27 0.43 c p1
358.20 221.44 0.43 c p1
358.36 220.48 0.43 c p1
358.52 220.48 0.43 c p1
358.69 220.75 0.43 c p1
358.85 220.75 0.43 c p1
359.01 220.76 0.43 c p1
359.17 220.49 0.43 c p1
359.33 220.97 0.43 c p1
359.50 220.01 0.43 c p1
359.66 221.46 0.43 c p1
359.82 221.46 0.43 c p1
359.98 220.50 0.43 c p1
360.14 221.46 0.43 c p1
360.31 220.98 0.43 c p1
360.47 220.29 0.43 c p1
360.63 220.51 0.43 c p1
360.79 220.29 0.43 c p1
360.95 220.99 0.43 c p1
361.11 220.03 0.43 c p1
361.28 221.47 0.43 c p1
361.44 218.87 0.43 c p1
361.60 222.71 0.43 c p1
0.00 0.00 432.00 576.00 cl
0 0 0 srgb
0.75 setlinewidth
[] 0 setdash
1 setlinecap
1 setlinejoin
10.00 setmiterlimit
np
218.52 201.60 m
129.48 0 l
o
np
218.52 201.60 m
0 -5.76 l
o
np
250.89 201.60 m
0 -5.76 l
o
np
283.26 201.60 m
0 -5.76 l
o
np
315.63 201.60 m
0 -5.76 l
o
np
348.00 201.60 m
0 -5.76 l
o
/Font1 findfont 6 s
218.52 185.47 (0) .5 0 t
250.89 185.47 (2000) .5 0 t
283.26 185.47 (4000) .5 0 t
315.63 185.47 (6000) .5 0 t
348.00 185.47 (8000) .5 0 t
np
216.00 205.42 m
0 38.44 l
o
np
216.00 205.42 m
-5.76 0 l
o
np
216.00 211.83 m
-5.76 0 l
o
np
216.00 218.23 m
-5.76 0 l
o
np
216.00 224.64 m
-5.76 0 l
o
np
216.00 231.05 m
-5.76 0 l
o
np
216.00 237.45 m
-5.76 0 l
o
np
216.00 243.86 m
-5.76 0 l
o
209.09 203.27 (-0.03) 1 0 t
209.09 209.67 (-0.02) 1 0 t
209.09 216.08 (-0.01) 1 0 t
209.09 222.49 (0.00) 1 0 t
209.09 228.89 (0.01) 1 0 t
209.09 235.30 (0.02) 1 0 t
209.09 241.71 (0.03) 1 0 t
np
216.00 201.60 m
151.20 0 l
0 46.08 l
-151.20 0 l
0 -46.08 l
o
0.00 0.00 432.00 576.00 cl
/Font1 findfont 9 s
0 0 0 srgb
291.60 262.88 (Residuen) .5 0 t
59.04 73.44 401.76 516.96 cl
ep
%%Trailer
%%Pages: 1
%%EOF
