%!PS-Adobe-3.0 EPSF-3.0
%%DocumentNeededResources: font Helvetica
%%+ font Helvetica-Bold
%%+ font Helvetica-Oblique
%%+ font Helvetica-BoldOblique
%%+ font Symbol
%%Title: R Graphics Output
%%Creator: R Software
%%Pages: (atend)
%%BoundingBox: 0 0 432 576
%%EndComments
%%BeginProlog
/bp  { gs sRGB gs } def
% begin .ps.prolog
/gs  { gsave } bind def
/gr  { grestore } bind def
/ep  { showpage gr gr } bind def
/m   { moveto } bind def
/l  { rlineto } bind def
/np  { newpath } bind def
/cp  { closepath } bind def
/f   { fill } bind def
/o   { stroke } bind def
/c   { newpath 0 360 arc } bind def
/r   { 4 2 roll moveto 1 copy 3 -1 roll exch 0 exch rlineto 0 rlineto -1 mul 0 exch rlineto closepath } bind def
/p1  { stroke } bind def
/p2  { gsave bg fill grestore newpath } bind def
/p3  { gsave bg fill grestore stroke } bind def
/p6  { gsave bg eofill grestore newpath } bind def
/p7  { gsave bg eofill grestore stroke } bind def
/t   { 5 -2 roll moveto gsave rotate
       1 index stringwidth pop
       mul neg 0 rmoveto show grestore } bind def
/ta  { 4 -2 roll moveto gsave rotate show } bind def
/tb  { 2 -1 roll 0 rmoveto show } bind def
/cl  { grestore gsave newpath 3 index 3 index moveto 1 index
       4 -1 roll lineto  exch 1 index lineto lineto
       closepath clip newpath } bind def
/rgb { setrgbcolor } bind def
/s   { scalefont setfont } bind def
% end   .ps.prolog
/sRGB { [ /CIEBasedABC
          << /DecodeLMN
               [ { dup 0.03928 le
                        {12.92321 div}
                        {0.055 add 1.055 div 2.4 exp }
                     ifelse
                 } bind dup dup
               ]
             /MatrixLMN [0.412457 0.212673 0.019334
                         0.357576 0.715152 0.119192
                         0.180437 0.072175 0.950301]
             /WhitePoint [0.9505 1.0 1.0890]
           >>
         ] setcolorspace } bind def
/srgb { setcolor } bind def
%%IncludeResource: font Helvetica
/Helvetica findfont
dup length dict begin
  {1 index /FID ne {def} {pop pop} ifelse} forall
  /Encoding ISOLatin1Encoding def
  currentdict
  end
/Font1 exch definefont pop
%%IncludeResource: font Helvetica-Bold
/Helvetica-Bold findfont
dup length dict begin
  {1 index /FID ne {def} {pop pop} ifelse} forall
  /Encoding ISOLatin1Encoding def
  currentdict
  end
/Font2 exch definefont pop
%%IncludeResource: font Helvetica-Oblique
/Helvetica-Oblique findfont
dup length dict begin
  {1 index /FID ne {def} {pop pop} ifelse} forall
  /Encoding ISOLatin1Encoding def
  currentdict
  end
/Font3 exch definefont pop
%%IncludeResource: font Helvetica-BoldOblique
/Helvetica-BoldOblique findfont
dup length dict begin
  {1 index /FID ne {def} {pop pop} ifelse} forall
  /Encoding ISOLatin1Encoding def
  currentdict
  end
/Font4 exch definefont pop
%%IncludeResource: font Symbol
/Symbol findfont
dup length dict begin
  {1 index /FID ne {def} {pop pop} ifelse} forall
  currentdict
  end
/Font5 exch definefont pop
%%EndProlog
%%Page: 1 1
bp
0.00 0.00 432.00 576.00 cl
0.00 0.00 432.00 576.00 cl
0.00 0.00 432.00 576.00 cl
/Font1 findfont 12 s
0 0 0 srgb
48.00 508.72 (PCP-ETH) 0 0 t
48.00 494.89 (Blitzlicht-Photolyse) 0 0 t
/Font1 findfont 9 s
48.00 457.54 (File: Dy) 0 ta
-0.180 (e_0_1_V3_900V) tb
-1.125 (.dat) tb gr
48.00 334.87 (T) 0 ta
-1.080 (ue Apr  9 22:07:20 2019) tb gr
48.00 430.87 (Fitfunktion:  a + b * e) 0 ta
-0.270 (xp\(-c * t\)) tb gr
48.00 420.50 (t-Inter) 0 ta
0.270 (v) tb
-0.225 (all: 90.000 ... 2020.000 ms) tb gr
48.00 410.14 (P) 0 ta
-0.360 (ar) tb
-0.090 (ameter \(Standardabw) tb
-0.090 (eichung\):) tb gr
48.00 399.77 (  a = 0.00220 \(0.00052\)) 0 0 t
48.00 389.40 (  b = 0.23237 \(0.00479\)) 0 0 t
48.00 379.03 (  c = 4.228e+00 \(9.898e-02\) s^-1) 0 0 t
48.00 368.66 (  tau = 2.365e-01 \(5.536e-03\) s) 0 0 t
216.00 345.60 388.80 518.40 cl
0 0 0 srgb
0.75 setlinewidth
[] 0 setdash
1 setlinecap
1 setlinejoin
10.00 setmiterlimit
np
222.40 504.61 m
0.15 0 l
0.14 -0.23 l
0.15 0.56 l
0.14 -0.44 l
0.15 0.11 l
0.14 -0.47 l
0.15 0.60 l
0.14 -0.70 l
0.15 0.34 l
0.15 0 l
0.14 0.56 l
0.15 -0.44 l
0.14 0.57 l
0.15 -0.93 l
0.14 0.60 l
0.15 -0.47 l
0.14 0.67 l
0.15 -0.33 l
0.15 0.56 l
0.14 -0.79 l
0.15 0.23 l
0.14 -0.57 l
0.15 0.90 l
0.14 -1.03 l
0.15 0.93 l
0.15 -0.57 l
0.14 0.47 l
0.15 -0.13 l
0.14 -0.11 l
0.15 -0.12 l
0.14 0.46 l
0.15 -0.93 l
0.14 0.70 l
0.15 -0.47 l
0.15 0.36 l
0.14 -0.12 l
0.15 0.79 l
0.14 -0.67 l
0.15 0.34 l
0.14 -0.70 l
0.15 0.36 l
0.14 -0.23 l
0.15 0.67 l
0.15 -0.56 l
0.14 0.92 l
0.15 -0.80 l
0.14 -0.23 l
0.15 -0.23 l
0.14 0.90 l
0.15 -0.44 l
0.14 0 l
0.15 -0.46 l
0.15 0.46 l
0.14 -0.36 l
0.15 0 l
0.14 0.36 l
0.15 0.57 l
0.14 -0.13 l
0.15 -0.20 l
0.15 -0.24 l
0.14 0 l
0.15 -0.12 l
0.14 0.23 l
0.15 -0.34 l
0.14 0.47 l
0.15 0.10 l
0.14 -0.23 l
0.15 0.13 l
0.15 0 l
0.14 -0.36 l
0.15 0.56 l
0.14 -0.44 l
0.15 -0.12 l
0.14 0.36 l
0.15 0.33 l
0.14 -0.46 l
0.15 0 l
0.15 -0.57 l
0.14 1.03 l
0.15 -0.46 l
0.14 0.23 l
0.15 -0.57 l
0.14 0.80 l
0.15 -1.16 l
0.14 0.59 l
0.15 -0.23 l
0.15 0.11 l
0.14 0.12 l
0.15 -0.36 l
0.14 -0.33 l
0.15 0.46 l
0.14 0.47 l
0.15 0 l
0.15 -0.47 l
0.14 0.47 l
0.15 -0.47 l
0.14 0.90 l
0.15 -0.90 l
0.14 0.23 l
236.96 430.17 lineto
0.14 3.44 l
0.15 3.72 l
0.15 2.32 l
0.14 1.96 l
0.15 3.01 l
0.14 2.76 l
0.15 2.91 l
0.14 2.42 l
0.15 2.55 l
0.14 2.42 l
0.15 2.19 l
0.15 1.72 l
0.14 1.76 l
0.15 1.85 l
0.14 2.65 l
0.15 0.70 l
0.14 2.75 l
0.15 0.70 l
0.14 2.55 l
0.15 0.46 l
0.15 1.86 l
0.14 1.39 l
0.15 0.23 l
0.14 1.62 l
0.15 1.37 l
0.14 0.13 l
0.15 2.32 l
0.15 -0.83 l
0.14 1.98 l
0.15 -0.23 l
0.14 1.83 l
0.15 -0.10 l
0.14 1.03 l
0.15 0.59 l
0.14 0.57 l
0.15 0.13 l
0.15 0.92 l
0.14 0.24 l
0.15 1.36 l
0.14 -0.23 l
0.15 0 l
0.14 0.93 l
0.15 0.23 l
0.14 0.46 l
0.15 0.36 l
0.15 0 l
0.14 0.70 l
0.15 0.33 l
0.14 -0.10 l
0.15 0 l
0.14 1.03 l
0.15 -0.80 l
0.14 0.57 l
0.15 0.23 l
0.15 0.23 l
0.14 0.34 l
0.15 0.23 l
0.14 0.13 l
0.15 0.69 l
0.14 -0.36 l
0.15 0.23 l
0.15 -0.23 l
0.14 0 l
0.15 0.47 l
0.14 0.92 l
0.15 -1.62 l
0.14 1.52 l
0.15 0.10 l
0.14 0.47 l
0.15 -0.93 l
0.15 0.46 l
0.14 0.23 l
0.15 0.36 l
0.14 -0.36 l
0.15 0.47 l
0.14 0 l
0.15 -0.11 l
0.14 0.34 l
0.15 0.59 l
0.15 -0.23 l
0.14 1.26 l
0.15 -1.49 l
0.14 0.69 l
0.15 0 l
0.14 -0.23 l
0.15 0.23 l
0.14 0.24 l
0.15 0.10 l
0.15 0 l
0.14 0 l
0.15 0.46 l
0.14 -0.36 l
0.15 0.23 l
0.14 -0.10 l
0.15 0.70 l
0.15 -0.60 l
0.14 -0.10 l
0.15 0.80 l
0.14 -0.23 l
251.52 500.44 lineto
0.14 0.69 l
0.15 -0.80 l
0.14 0.80 l
0.15 -0.23 l
0.15 0.59 l
0.14 -0.23 l
0.15 0.10 l
0.14 0.13 l
0.15 -0.23 l
0.14 0.33 l
0.15 -0.10 l
0.14 0 l
0.15 0.70 l
0.15 -0.13 l
0.14 -0.34 l
0.15 -0.23 l
0.14 1.16 l
0.15 -0.70 l
0.14 0.70 l
0.15 -0.23 l
0.14 -0.23 l
0.15 0.46 l
0.15 -0.13 l
0.14 -0.10 l
0.15 0 l
0.14 0 l
0.15 0.23 l
0.14 0.23 l
0.15 0.11 l
0.14 0 l
0.15 -0.11 l
0.15 -0.23 l
0.14 0.70 l
0.15 -0.24 l
0.14 0.24 l
0.15 -0.13 l
0.14 0.59 l
0.15 -0.46 l
0.15 0.33 l
0.14 -0.10 l
0.15 -0.13 l
0.14 0.36 l
0.15 0.57 l
0.14 -0.34 l
0.15 0 l
0.14 -0.69 l
0.15 0.56 l
0.15 -0.10 l
0.14 0.69 l
0.15 -0.82 l
0.14 0.70 l
0.15 -0.24 l
0.14 0.80 l
0.15 -0.67 l
0.14 0.57 l
0.15 -0.57 l
0.15 0.57 l
0.14 -0.46 l
0.15 0.69 l
0.14 -0.13 l
0.15 -0.10 l
0.14 -0.57 l
0.15 0.80 l
0.14 -0.23 l
0.15 0 l
0.15 0.10 l
0.14 -0.20 l
0.15 0 l
0.14 0.20 l
0.15 -0.10 l
0.14 0.57 l
0.15 -0.34 l
0.15 0.10 l
0.14 -0.56 l
0.15 0.80 l
0.14 0.59 l
0.15 -0.59 l
0.14 0 l
0.15 0.46 l
0.14 0 l
0.15 0.13 l
0.15 -0.36 l
0.14 0.69 l
0.15 -0.56 l
0.14 0.10 l
0.15 0.23 l
0.14 0.47 l
0.15 -0.80 l
0.14 0.69 l
0.15 0.11 l
0.15 0 l
0.14 -0.34 l
0.15 0.57 l
0.14 -0.57 l
0.15 0 l
0.14 0.10 l
0.15 0.13 l
0.14 0 l
0.15 0.34 l
266.08 506.93 lineto
0.14 0.33 l
0.15 -0.57 l
0.14 0.24 l
0.15 0.33 l
0.14 0.13 l
0.15 -0.13 l
0.15 0 l
0.14 -0.23 l
0.15 0.13 l
0.14 0 l
0.15 0.23 l
0.14 -0.23 l
0.15 0.33 l
0.14 -0.46 l
0.15 0.36 l
0.15 -0.46 l
0.14 0.79 l
0.15 -0.10 l
0.14 0.46 l
0.15 -0.36 l
0.14 0.83 l
0.15 -0.70 l
0.14 -0.23 l
0.15 -0.59 l
0.15 1.05 l
0.14 -0.23 l
0.15 0.34 l
0.14 -0.57 l
0.15 0.57 l
0.14 0 l
0.15 0 l
0.14 -0.11 l
0.15 0.34 l
0.15 -0.23 l
0.14 0.46 l
0.15 -0.23 l
0.14 -0.57 l
0.15 0.70 l
0.14 -0.36 l
0.15 0.13 l
0.15 0.33 l
0.14 -0.10 l
0.15 0.23 l
0.14 -0.13 l
0.15 -0.10 l
0.14 -0.13 l
0.15 0.36 l
0.14 0 l
0.15 0.23 l
0.15 -0.46 l
0.14 0.23 l
0.15 0.34 l
0.14 0 l
0.15 -0.34 l
0.14 0.80 l
0.15 -0.70 l
0.14 0.13 l
0.15 0.11 l
0.15 0.12 l
0.14 -0.36 l
0.15 0.13 l
0.14 -0.23 l
0.15 0.80 l
0.14 -0.46 l
0.15 0.59 l
0.14 -0.36 l
0.15 0.13 l
0.15 -0.13 l
0.14 0.56 l
0.15 -0.56 l
0.14 0.92 l
0.15 -0.46 l
0.14 -0.10 l
0.15 -0.47 l
0.15 0.80 l
0.14 -0.33 l
0.15 -0.13 l
0.14 -0.10 l
0.15 0.43 l
0.14 -0.20 l
0.15 0.33 l
0.14 -0.33 l
0.15 0.20 l
0.15 -0.10 l
0.14 0.57 l
0.15 -0.90 l
0.14 0.56 l
0.15 0.23 l
0.14 0.24 l
0.15 -0.47 l
0.14 0.57 l
0.15 -0.80 l
0.15 0.34 l
0.14 -0.34 l
0.15 0.70 l
0.14 -0.93 l
0.15 0.93 l
0.14 -0.13 l
0.15 0.46 l
280.63 509.81 lineto
0.15 0.57 l
0.15 0.46 l
0.14 -0.23 l
0.15 -0.10 l
0.14 -0.13 l
0.15 0.13 l
0.14 0.46 l
0.15 -0.23 l
0.15 -0.13 l
0.14 -0.46 l
0.15 0.82 l
0.14 -0.36 l
0.15 0.13 l
0.14 0 l
0.15 0.23 l
0.14 -0.13 l
0.15 -0.23 l
0.15 0.13 l
0.14 0.10 l
0.15 0 l
0.14 -0.23 l
0.15 -0.23 l
0.14 0.59 l
0.15 -0.36 l
0.14 0.82 l
0.15 -1.39 l
0.15 0.80 l
0.14 0.36 l
0.15 0 l
0.14 -0.23 l
0.15 -0.36 l
0.14 0.59 l
0.15 0 l
0.14 0 l
0.15 0.23 l
0.15 -0.23 l
0.14 -0.13 l
0.15 -0.23 l
0.14 0.93 l
0.15 -1.16 l
0.14 0.46 l
0.15 0.60 l
0.14 -0.60 l
0.15 0.36 l
0.15 0.11 l
0.14 -0.80 l
0.15 0.56 l
0.14 0.24 l
0.15 -0.24 l
0.14 -0.10 l
0.15 0.23 l
0.15 -0.23 l
0.14 -0.13 l
0.15 0.13 l
0.14 0 l
0.15 -0.36 l
0.14 0.59 l
0.15 -0.13 l
0.14 -0.33 l
0.15 0 l
0.15 0.70 l
0.14 -0.47 l
0.15 0.34 l
0.14 -0.24 l
0.15 0.60 l
0.14 -0.47 l
0.15 -0.36 l
0.14 -0.23 l
0.15 0.36 l
0.15 0.10 l
0.14 0.37 l
0.15 -0.60 l
0.14 0 l
0.15 0.23 l
0.14 0.13 l
0.15 0.11 l
0.14 0.23 l
0.15 -0.47 l
0.15 0.47 l
0.14 -0.70 l
0.15 0.47 l
0.14 -0.80 l
0.15 0.80 l
0.14 -0.57 l
0.15 0.33 l
0.15 -0.10 l
0.14 0.57 l
0.15 -0.10 l
0.14 0.10 l
0.15 0 l
0.14 -0.10 l
0.15 -0.13 l
0.14 -0.47 l
0.15 0.23 l
0.15 0 l
0.14 0.37 l
0.15 0 l
0.14 0 l
0.15 -0.60 l
295.19 511.67 lineto
0.15 0.33 l
0.14 -0.70 l
0.15 0.13 l
0.15 -0.13 l
0.14 0.13 l
0.15 -0.13 l
0.14 0.37 l
0.15 -0.93 l
0.14 0.69 l
0.15 -0.46 l
0.14 0.33 l
0.15 -0.56 l
0.15 0.69 l
0.14 0.24 l
0.15 -0.24 l
0.14 -0.69 l
0.15 0.10 l
0.14 0.46 l
0.15 0.60 l
0.15 -0.23 l
0.14 -0.37 l
0.15 -0.10 l
0.14 0.34 l
0.15 0 l
0.14 -0.34 l
0.15 0 l
0.14 0.80 l
0.15 -0.80 l
0.15 0 l
0.14 -0.59 l
0.15 1.06 l
0.14 -0.83 l
0.15 0.70 l
0.14 -1.16 l
0.15 0.92 l
0.14 -0.33 l
0.15 0.33 l
0.15 -0.56 l
0.14 0.56 l
0.15 -0.10 l
0.14 0.70 l
0.15 -0.60 l
0.14 0 l
0.15 -0.46 l
0.14 0.46 l
0.15 -0.23 l
0.15 -0.33 l
0.14 -0.13 l
0.15 0.69 l
0.14 -0.10 l
0.15 0 l
0.14 -0.36 l
0.15 0.36 l
0.15 -0.23 l
0.14 0.33 l
0.15 -0.69 l
0.14 0.46 l
0.15 -0.69 l
0.14 0.23 l
0.15 -0.10 l
0.14 0 l
0.15 0.33 l
0.15 0.46 l
0.14 -0.46 l
0.15 -0.46 l
0.14 0.23 l
0.15 0.36 l
0.14 -0.36 l
0.15 0.13 l
0.14 -0.13 l
0.15 0.36 l
0.15 0 l
0.14 -0.36 l
0.15 -0.57 l
0.14 0.70 l
0.15 -0.36 l
0.14 0.36 l
0.15 -0.36 l
0.14 0 l
0.15 0.23 l
0.15 0.23 l
0.14 -0.46 l
0.15 -0.23 l
0.14 0.59 l
0.15 0 l
0.14 -0.47 l
0.15 0.11 l
0.15 -0.57 l
0.14 0.80 l
0.15 -0.90 l
0.14 0.90 l
0.15 -0.70 l
0.14 0.70 l
0.15 -0.10 l
0.14 0.33 l
0.15 -1.26 l
0.15 0.80 l
0.14 -0.11 l
0.15 0 l
309.75 510.15 lineto
0.15 -0.57 l
0.14 0.69 l
0.15 0.34 l
0.14 -0.57 l
0.15 -0.13 l
0.15 -0.10 l
0.14 0.34 l
0.15 -0.34 l
0.14 0 l
0.15 0.10 l
0.14 0.13 l
0.15 -0.56 l
0.14 0.67 l
0.15 -0.57 l
0.15 0.13 l
0.14 0.10 l
0.15 0 l
0.14 0.10 l
0.15 0.13 l
0.14 -0.56 l
0.15 0.56 l
0.15 -0.23 l
0.14 -0.10 l
0.15 0.10 l
0.14 0.10 l
0.15 -0.79 l
0.14 0.36 l
0.15 0 l
0.14 0.23 l
0.15 -0.13 l
0.15 -0.23 l
0.14 0 l
0.15 0.13 l
0.14 0.10 l
0.15 -0.10 l
0.14 0.43 l
0.15 -0.43 l
0.14 0.43 l
0.15 -0.79 l
0.15 0.12 l
0.14 0 l
0.15 0.34 l
0.14 0.46 l
0.15 -0.92 l
0.14 1.26 l
0.15 -1.26 l
0.14 0.23 l
0.15 0 l
0.15 0.36 l
0.14 -0.70 l
0.15 0.11 l
0.14 0.12 l
0.15 -0.12 l
0.14 -0.11 l
0.15 0.47 l
0.15 -0.24 l
0.14 0.11 l
0.15 -0.57 l
0.14 0.70 l
0.15 -0.47 l
0.14 0.57 l
0.15 -0.70 l
0.14 -0.10 l
0.15 0.23 l
0.15 0.11 l
0.14 0.12 l
0.15 -0.59 l
0.14 0 l
0.15 0.23 l
0.14 0.13 l
0.15 0.11 l
0.14 -0.11 l
0.15 -0.23 l
0.15 0.10 l
0.14 0.24 l
0.15 -0.70 l
0.14 0.36 l
0.15 0.34 l
0.14 0 l
0.15 -0.34 l
0.14 0.10 l
0.15 -0.23 l
0.15 0 l
0.14 -0.10 l
0.15 0 l
0.14 -0.47 l
0.15 0.24 l
0.14 -0.13 l
0.15 0.46 l
0.14 -0.23 l
0.15 0 l
0.15 0.13 l
0.14 0.23 l
0.15 -0.59 l
0.14 0.69 l
0.15 -0.46 l
0.14 -0.23 l
0.15 0.69 l
0.15 -0.46 l
324.31 508.55 lineto
0.15 0.10 l
0.14 -0.57 l
0.15 0.11 l
0.14 0.13 l
0.15 0.33 l
0.14 -0.57 l
0.15 0.24 l
0.15 -0.36 l
0.14 0.23 l
0.15 0.23 l
0.14 0.13 l
0.15 -0.59 l
0.14 0.23 l
0.15 0.13 l
0.14 0.10 l
0.15 -0.80 l
0.15 0.93 l
0.14 0 l
0.15 -0.59 l
0.14 -0.24 l
0.15 0.13 l
0.14 0.23 l
0.15 0 l
0.14 -0.12 l
0.15 0.12 l
0.15 -0.12 l
0.14 -0.34 l
0.15 0.34 l
0.14 -0.24 l
0.15 0.13 l
0.14 0.23 l
0.15 0 l
0.15 -0.12 l
0.14 -0.34 l
0.15 0.34 l
0.14 -0.57 l
0.15 0.33 l
0.14 -0.46 l
0.15 0.70 l
0.14 -0.70 l
0.15 0.82 l
0.15 -0.46 l
0.14 0.10 l
0.15 -0.33 l
0.14 0.57 l
0.15 -0.24 l
0.14 -0.33 l
0.15 0.10 l
0.14 0.23 l
0.15 -0.10 l
0.15 0.23 l
0.14 -1.16 l
0.15 0.93 l
0.14 0 l
0.15 0 l
0.14 -0.59 l
0.15 0.82 l
0.14 -0.46 l
0.15 0.57 l
0.15 -0.24 l
0.14 0 l
0.15 -0.69 l
0.14 0.69 l
0.15 -0.46 l
0.14 0.59 l
0.15 -0.23 l
0.15 -0.36 l
0.14 -0.23 l
0.15 0.59 l
0.14 -0.13 l
0.15 0.59 l
0.14 -1.28 l
0.15 0.13 l
0.14 0.79 l
0.15 0.24 l
0.15 -0.70 l
0.14 0.23 l
0.15 -0.80 l
0.14 0.57 l
0.15 0 l
0.14 -0.10 l
0.15 -0.23 l
0.14 0.33 l
0.15 0 l
0.15 -0.57 l
0.14 1.16 l
0.15 -0.23 l
0.14 -0.46 l
0.15 -0.13 l
0.14 0.36 l
0.15 -0.23 l
0.14 0 l
0.15 0.46 l
0.15 -0.82 l
0.14 0.82 l
0.15 -0.46 l
0.14 0.33 l
0.15 -0.80 l
0.14 0.47 l
338.87 506.93 lineto
0.15 0.10 l
0.14 0.13 l
0.15 0.46 l
0.14 -0.36 l
0.15 0.36 l
0.14 -0.69 l
0.15 0.46 l
0.14 -0.36 l
0.15 0.46 l
0.15 -0.80 l
0.14 0.93 l
0.15 -0.69 l
0.14 0.33 l
0.15 -0.69 l
0.14 1.05 l
0.15 -0.69 l
0.14 0 l
0.15 -0.13 l
0.15 1.05 l
0.14 -0.59 l
0.15 -0.57 l
0.14 0 l
0.15 0.24 l
0.14 -0.13 l
0.15 0.23 l
0.14 -0.10 l
0.15 0.69 l
0.15 -0.59 l
0.14 -0.57 l
0.15 1.16 l
0.14 -0.36 l
0.15 0.13 l
0.14 -0.82 l
0.15 0.36 l
0.15 0.33 l
0.14 -0.23 l
0.15 0.23 l
0.14 -0.57 l
0.15 1.03 l
0.14 -1.15 l
0.15 0.46 l
0.14 -0.57 l
0.15 0.80 l
0.15 -0.23 l
0.14 0 l
0.15 -0.23 l
0.14 0.59 l
0.15 -0.93 l
0.14 0.80 l
0.15 -0.23 l
0.14 -0.57 l
0.15 0.23 l
0.15 -0.12 l
0.14 0.12 l
0.15 0.24 l
0.14 -0.13 l
0.15 0 l
0.14 0.13 l
0.15 0.10 l
0.14 -0.46 l
0.15 0.12 l
0.15 0.24 l
0.14 0.23 l
0.15 -0.47 l
0.14 0.24 l
0.15 -0.24 l
0.14 0.24 l
0.15 -0.13 l
0.15 0.46 l
0.14 -0.10 l
0.15 -0.59 l
0.14 0.12 l
0.15 0 l
0.14 -0.23 l
0.15 0.70 l
0.14 -0.13 l
0.15 -0.23 l
0.15 0 l
0.14 0.23 l
0.15 -0.34 l
0.14 0.11 l
0.15 0.13 l
0.14 -0.13 l
0.15 -0.93 l
0.14 1.39 l
0.15 -0.57 l
0.15 0 l
0.14 -0.59 l
0.15 0.93 l
0.14 0 l
0.15 -0.10 l
0.14 0 l
0.15 -0.13 l
0.14 -0.11 l
0.15 -0.12 l
0.15 0.23 l
0.14 -0.57 l
0.15 0.70 l
0.14 0 l
353.43 506.80 lineto
0.14 -0.11 l
0.15 0.57 l
0.14 -0.46 l
0.15 0 l
0.15 0 l
0.14 -0.47 l
0.15 0.60 l
0.14 -0.60 l
0.15 0.24 l
0.14 0.36 l
0.15 0.23 l
0.15 -0.93 l
0.14 0 l
0.15 0.23 l
0.14 0.70 l
0.15 -0.59 l
0.14 0.36 l
0.15 -0.70 l
0.14 0.46 l
0.15 -0.12 l
0.15 0.36 l
0.14 0 l
0.15 0 l
0.14 -0.24 l
0.15 0.34 l
0.14 -0.70 l
0.15 0.36 l
0.14 0.11 l
0.15 -0.47 l
0.15 0 l
0.14 0.60 l
0.15 0.46 l
0.14 -0.59 l
0.15 -0.11 l
0.14 0.47 l
0.15 0.10 l
0.14 0.13 l
0.15 -1.16 l
0.15 0.10 l
0.14 0.47 l
0.15 0.92 l
0.14 -0.56 l
0.15 -0.47 l
0.14 -0.12 l
0.15 0.69 l
0.15 -0.57 l
0.14 0.34 l
0.15 -0.57 l
0.14 0.70 l
0.15 -0.47 l
0.14 -0.23 l
0.15 -0.23 l
0.14 1.16 l
0.15 -0.70 l
0.15 0.93 l
0.14 -0.82 l
0.15 0 l
0.14 -0.11 l
0.15 1.03 l
0.14 -1.72 l
0.15 1.03 l
0.14 -0.57 l
0.15 0.47 l
0.15 -0.13 l
0.14 0.23 l
0.15 -0.93 l
0.14 0.93 l
0.15 -0.34 l
0.14 0.11 l
0.15 -0.34 l
0.14 0.57 l
0.15 -0.34 l
0.15 -0.12 l
0.14 0.36 l
0.15 0.10 l
0.14 -0.23 l
0.15 0.13 l
0.14 -0.36 l
0.15 0.23 l
0.15 0.23 l
0.14 0.36 l
0.15 -1.39 l
0.14 1.16 l
0.15 -0.59 l
0.14 0.59 l
0.15 -0.59 l
0.14 0.59 l
0.15 0 l
0.15 -0.47 l
0.14 -0.23 l
0.15 0.70 l
0.14 -0.59 l
0.15 0.12 l
0.14 0.24 l
0.15 0.46 l
0.14 -0.13 l
0.15 -0.10 l
0.15 -0.36 l
0.14 0 l
currentpoint o m
367.99 507.03 lineto
0.14 0.13 l
0.15 -0.70 l
0.14 0.23 l
0.15 -0.59 l
0.14 0.93 l
0.15 -0.23 l
0.15 0.13 l
0.14 -0.47 l
0.15 0.93 l
0.14 -0.59 l
0.15 0.23 l
0.14 -0.70 l
0.15 0.70 l
0.15 0.13 l
0.14 -0.13 l
0.15 -0.23 l
0.14 0.59 l
0.15 -0.46 l
0.14 0.46 l
0.15 -0.36 l
0.14 -0.46 l
0.15 0.12 l
0.15 0.70 l
0.14 -0.59 l
0.15 0.36 l
0.14 -0.13 l
0.15 0.23 l
0.14 -0.33 l
0.15 0 l
0.14 0 l
0.15 0.23 l
0.15 -0.23 l
0.14 -0.13 l
0.15 0.82 l
0.14 -0.46 l
0.15 -0.13 l
0.14 0 l
0.15 0.36 l
0.14 -0.13 l
0.15 -0.10 l
0.15 -0.13 l
0.14 -0.23 l
0.15 0.36 l
0.14 0.10 l
0.15 -0.23 l
0.14 -0.46 l
0.15 0.82 l
0.15 0 l
0.14 0.33 l
0.15 -0.69 l
0.14 0.13 l
0.15 -0.23 l
0.14 0.56 l
0.15 -0.69 l
0.14 0.36 l
0.15 0 l
0.15 -0.23 l
0.14 0.23 l
0.15 -0.23 l
0.14 0.33 l
0.15 -0.10 l
0.14 -0.70 l
0.15 0.70 l
0.14 0.33 l
0.15 -0.80 l
0.15 0.47 l
0.14 0 l
0.15 -0.70 l
0.14 0.93 l
0.15 -0.46 l
0.14 0.23 l
0.15 -0.23 l
0.14 0.46 l
0.15 -0.46 l
0.15 0.33 l
0.14 -0.33 l
0.15 -0.24 l
0.14 0.57 l
0.15 0 l
0.14 -0.10 l
0.15 0 l
0.15 -0.36 l
0.14 0.36 l
0.15 0.10 l
0.14 -0.23 l
0.15 -0.10 l
0.14 0.92 l
0.15 -0.46 l
0.14 -0.23 l
0.15 -0.13 l
0.15 0 l
0.14 0.36 l
0.15 -0.13 l
0.14 -0.46 l
0.15 0.36 l
0.14 0.10 l
0.15 -0.10 l
0.14 0.23 l
0.15 0.10 l
o
/bg { 1 1 1 srgb } def
222.40 504.61 0.43 c p3
222.55 504.61 0.43 c p3
222.69 504.38 0.43 c p3
222.84 504.94 0.43 c p3
222.98 504.50 0.43 c p3
223.13 504.61 0.43 c p3
223.27 504.14 0.43 c p3
223.42 504.74 0.43 c p3
223.56 504.04 0.43 c p3
223.71 504.38 0.43 c p3
223.86 504.38 0.43 c p3
224.00 504.94 0.43 c p3
224.15 504.50 0.43 c p3
224.29 505.07 0.43 c p3
224.44 504.14 0.43 c p3
224.58 504.74 0.43 c p3
224.73 504.27 0.43 c p3
224.87 504.94 0.43 c p3
225.02 504.61 0.43 c p3
225.17 505.17 0.43 c p3
225.31 504.38 0.43 c p3
225.46 504.61 0.43 c p3
225.60 504.04 0.43 c p3
225.75 504.94 0.43 c p3
225.89 503.91 0.43 c p3
226.04 504.84 0.43 c p3
226.19 504.27 0.43 c p3
226.33 504.74 0.43 c p3
226.48 504.61 0.43 c p3
226.62 504.50 0.43 c p3
226.77 504.38 0.43 c p3
226.91 504.84 0.43 c p3
227.06 503.91 0.43 c p3
227.20 504.61 0.43 c p3
227.35 504.14 0.43 c p3
227.50 504.50 0.43 c p3
227.64 504.38 0.43 c p3
227.79 505.17 0.43 c p3
227.93 504.50 0.43 c p3
228.08 504.84 0.43 c p3
228.22 504.14 0.43 c p3
228.37 504.50 0.43 c p3
228.51 504.27 0.43 c p3
228.66 504.94 0.43 c p3
228.81 504.38 0.43 c p3
228.95 505.30 0.43 c p3
229.10 504.50 0.43 c p3
229.24 504.27 0.43 c p3
229.39 504.04 0.43 c p3
229.53 504.94 0.43 c p3
229.68 504.50 0.43 c p3
229.82 504.50 0.43 c p3
229.97 504.04 0.43 c p3
230.12 504.50 0.43 c p3
230.26 504.14 0.43 c p3
230.41 504.14 0.43 c p3
230.55 504.50 0.43 c p3
230.70 505.07 0.43 c p3
230.84 504.94 0.43 c p3
230.99 504.74 0.43 c p3
231.14 504.50 0.43 c p3
231.28 504.50 0.43 c p3
231.43 504.38 0.43 c p3
231.57 504.61 0.43 c p3
231.72 504.27 0.43 c p3
231.86 504.74 0.43 c p3
232.01 504.84 0.43 c p3
232.15 504.61 0.43 c p3
232.30 504.74 0.43 c p3
232.45 504.74 0.43 c p3
232.59 504.38 0.43 c p3
232.74 504.94 0.43 c p3
232.88 504.50 0.43 c p3
233.03 504.38 0.43 c p3
233.17 504.74 0.43 c p3
233.32 505.07 0.43 c p3
233.46 504.61 0.43 c p3
233.61 504.61 0.43 c p3
233.76 504.04 0.43 c p3
233.90 505.07 0.43 c p3
234.05 504.61 0.43 c p3
234.19 504.84 0.43 c p3
234.34 504.27 0.43 c p3
234.48 505.07 0.43 c p3
234.63 503.91 0.43 c p3
234.77 504.50 0.43 c p3
234.92 504.27 0.43 c p3
235.07 504.38 0.43 c p3
235.21 504.50 0.43 c p3
235.36 504.14 0.43 c p3
235.50 503.81 0.43 c p3
235.65 504.27 0.43 c p3
235.79 504.74 0.43 c p3
235.94 504.74 0.43 c p3
236.09 504.27 0.43 c p3
236.23 504.74 0.43 c p3
236.38 504.27 0.43 c p3
236.52 505.17 0.43 c p3
236.67 504.27 0.43 c p3
236.81 504.50 0.43 c p3
236.96 430.17 0.43 c p3
237.10 433.61 0.43 c p3
237.25 437.33 0.43 c p3
237.40 439.65 0.43 c p3
237.54 441.61 0.43 c p3
237.69 444.62 0.43 c p3
237.83 447.38 0.43 c p3
237.98 450.29 0.43 c p3
238.12 452.71 0.43 c p3
238.27 455.26 0.43 c p3
238.41 457.68 0.43 c p3
238.56 459.87 0.43 c p3
238.71 461.59 0.43 c p3
238.85 463.35 0.43 c p3
239.00 465.20 0.43 c p3
239.14 467.85 0.43 c p3
239.29 468.55 0.43 c p3
239.43 471.30 0.43 c p3
239.58 472.00 0.43 c p3
239.72 474.55 0.43 c p3
239.87 475.01 0.43 c p3
240.02 476.87 0.43 c p3
240.16 478.26 0.43 c p3
240.31 478.49 0.43 c p3
240.45 480.11 0.43 c p3
240.60 481.48 0.43 c p3
240.74 481.61 0.43 c p3
240.89 483.93 0.43 c p3
241.04 483.10 0.43 c p3
241.18 485.08 0.43 c p3
241.33 484.85 0.43 c p3
241.47 486.68 0.43 c p3
241.62 486.58 0.43 c p3
241.76 487.61 0.43 c p3
241.91 488.20 0.43 c p3
242.05 488.77 0.43 c p3
242.20 488.90 0.43 c p3
242.35 489.82 0.43 c p3
242.49 490.06 0.43 c p3
242.64 491.42 0.43 c p3
242.78 491.19 0.43 c p3
242.93 491.19 0.43 c p3
243.07 492.12 0.43 c p3
243.22 492.35 0.43 c p3
243.36 492.81 0.43 c p3
243.51 493.17 0.43 c p3
243.66 493.17 0.43 c p3
243.80 493.87 0.43 c p3
243.95 494.20 0.43 c p3
244.09 494.10 0.43 c p3
244.24 494.10 0.43 c p3
244.38 495.13 0.43 c p3
244.53 494.33 0.43 c p3
244.67 494.90 0.43 c p3
244.82 495.13 0.43 c p3
244.97 495.36 0.43 c p3
245.11 495.70 0.43 c p3
245.26 495.93 0.43 c p3
245.40 496.06 0.43 c p3
245.55 496.75 0.43 c p3
245.69 496.39 0.43 c p3
245.84 496.62 0.43 c p3
245.99 496.39 0.43 c p3
246.13 496.39 0.43 c p3
246.28 496.86 0.43 c p3
246.42 497.78 0.43 c p3
246.57 496.16 0.43 c p3
246.71 497.68 0.43 c p3
246.86 497.78 0.43 c p3
247.00 498.25 0.43 c p3
247.15 497.32 0.43 c p3
247.30 497.78 0.43 c p3
247.44 498.01 0.43 c p3
247.59 498.37 0.43 c p3
247.73 498.01 0.43 c p3
247.88 498.48 0.43 c p3
248.02 498.48 0.43 c p3
248.17 498.37 0.43 c p3
248.31 498.71 0.43 c p3
248.46 499.30 0.43 c p3
248.61 499.07 0.43 c p3
248.75 500.33 0.43 c p3
248.90 498.84 0.43 c p3
249.04 499.53 0.43 c p3
249.19 499.53 0.43 c p3
249.33 499.30 0.43 c p3
249.48 499.53 0.43 c p3
249.62 499.77 0.43 c p3
249.77 499.87 0.43 c p3
249.92 499.87 0.43 c p3
250.06 499.87 0.43 c p3
250.21 500.33 0.43 c p3
250.35 499.97 0.43 c p3
250.50 500.20 0.43 c p3
250.64 500.10 0.43 c p3
250.79 500.80 0.43 c p3
250.94 500.20 0.43 c p3
251.08 500.10 0.43 c p3
251.23 500.90 0.43 c p3
251.37 500.67 0.43 c p3
251.52 500.44 0.43 c p3
251.66 501.13 0.43 c p3
251.81 500.33 0.43 c p3
251.95 501.13 0.43 c p3
252.10 500.90 0.43 c p3
252.25 501.49 0.43 c p3
252.39 501.26 0.43 c p3
252.54 501.36 0.43 c p3
252.68 501.49 0.43 c p3
252.83 501.26 0.43 c p3
252.97 501.59 0.43 c p3
253.12 501.49 0.43 c p3
253.26 501.49 0.43 c p3
253.41 502.19 0.43 c p3
253.56 502.06 0.43 c p3
253.70 501.72 0.43 c p3
253.85 501.49 0.43 c p3
253.99 502.65 0.43 c p3
254.14 501.95 0.43 c p3
254.28 502.65 0.43 c p3
254.43 502.42 0.43 c p3
254.57 502.19 0.43 c p3
254.72 502.65 0.43 c p3
254.87 502.52 0.43 c p3
255.01 502.42 0.43 c p3
255.16 502.42 0.43 c p3
255.30 502.42 0.43 c p3
255.45 502.65 0.43 c p3
255.59 502.88 0.43 c p3
255.74 502.99 0.43 c p3
255.88 502.99 0.43 c p3
256.03 502.88 0.43 c p3
256.18 502.65 0.43 c p3
256.32 503.35 0.43 c p3
256.47 503.11 0.43 c p3
256.61 503.35 0.43 c p3
256.76 503.22 0.43 c p3
256.90 503.81 0.43 c p3
257.05 503.35 0.43 c p3
257.20 503.68 0.43 c p3
257.34 503.58 0.43 c p3
257.49 503.45 0.43 c p3
257.63 503.81 0.43 c p3
257.78 504.38 0.43 c p3
257.92 504.04 0.43 c p3
258.07 504.04 0.43 c p3
258.21 503.35 0.43 c p3
258.36 503.91 0.43 c p3
258.51 503.81 0.43 c p3
258.65 504.50 0.43 c p3
258.80 503.68 0.43 c p3
258.94 504.38 0.43 c p3
259.09 504.14 0.43 c p3
259.23 504.94 0.43 c p3
259.38 504.27 0.43 c p3
259.52 504.84 0.43 c p3
259.67 504.27 0.43 c p3
259.82 504.84 0.43 c p3
259.96 504.38 0.43 c p3
260.11 505.07 0.43 c p3
260.25 504.94 0.43 c p3
260.40 504.84 0.43 c p3
260.54 504.27 0.43 c p3
260.69 505.07 0.43 c p3
260.83 504.84 0.43 c p3
260.98 504.84 0.43 c p3
261.13 504.94 0.43 c p3
261.27 504.74 0.43 c p3
261.42 504.74 0.43 c p3
261.56 504.94 0.43 c p3
261.71 504.84 0.43 c p3
261.85 505.41 0.43 c p3
262.00 505.07 0.43 c p3
262.15 505.17 0.43 c p3
262.29 504.61 0.43 c p3
262.44 505.41 0.43 c p3
262.58 506.00 0.43 c p3
262.73 505.41 0.43 c p3
262.87 505.41 0.43 c p3
263.02 505.87 0.43 c p3
263.16 505.87 0.43 c p3
263.31 506.00 0.43 c p3
263.46 505.64 0.43 c p3
263.60 506.33 0.43 c p3
263.75 505.77 0.43 c p3
263.89 505.87 0.43 c p3
264.04 506.10 0.43 c p3
264.18 506.57 0.43 c p3
264.33 505.77 0.43 c p3
264.47 506.46 0.43 c p3
264.62 506.57 0.43 c p3
264.77 506.57 0.43 c p3
264.91 506.23 0.43 c p3
265.06 506.80 0.43 c p3
265.20 506.23 0.43 c p3
265.35 506.23 0.43 c p3
265.49 506.33 0.43 c p3
265.64 506.46 0.43 c p3
265.78 506.46 0.43 c p3
265.93 506.80 0.43 c p3
266.08 506.93 0.43 c p3
266.22 507.26 0.43 c p3
266.37 506.69 0.43 c p3
266.51 506.93 0.43 c p3
266.66 507.26 0.43 c p3
266.80 507.39 0.43 c p3
266.95 507.26 0.43 c p3
267.10 507.26 0.43 c p3
267.24 507.03 0.43 c p3
267.39 507.16 0.43 c p3
267.53 507.16 0.43 c p3
267.68 507.39 0.43 c p3
267.82 507.16 0.43 c p3
267.97 507.49 0.43 c p3
268.11 507.03 0.43 c p3
268.26 507.39 0.43 c p3
268.41 506.93 0.43 c p3
268.55 507.72 0.43 c p3
268.70 507.62 0.43 c p3
268.84 508.08 0.43 c p3
268.99 507.72 0.43 c p3
269.13 508.55 0.43 c p3
269.28 507.85 0.43 c p3
269.42 507.62 0.43 c p3
269.57 507.03 0.43 c p3
269.72 508.08 0.43 c p3
269.86 507.85 0.43 c p3
270.01 508.19 0.43 c p3
270.15 507.62 0.43 c p3
270.30 508.19 0.43 c p3
270.44 508.19 0.43 c p3
270.59 508.19 0.43 c p3
270.73 508.08 0.43 c p3
270.88 508.42 0.43 c p3
271.03 508.19 0.43 c p3
271.17 508.65 0.43 c p3
271.32 508.42 0.43 c p3
271.46 507.85 0.43 c p3
271.61 508.55 0.43 c p3
271.75 508.19 0.43 c p3
271.90 508.32 0.43 c p3
272.05 508.65 0.43 c p3
272.19 508.55 0.43 c p3
272.34 508.78 0.43 c p3
272.48 508.65 0.43 c p3
272.63 508.55 0.43 c p3
272.77 508.42 0.43 c p3
272.92 508.78 0.43 c p3
273.06 508.78 0.43 c p3
273.21 509.01 0.43 c p3
273.36 508.55 0.43 c p3
273.50 508.78 0.43 c p3
273.65 509.12 0.43 c p3
273.79 509.12 0.43 c p3
273.94 508.78 0.43 c p3
274.08 509.58 0.43 c p3
274.23 508.88 0.43 c p3
274.37 509.01 0.43 c p3
274.52 509.12 0.43 c p3
274.67 509.24 0.43 c p3
274.81 508.88 0.43 c p3
274.96 509.01 0.43 c p3
275.10 508.78 0.43 c p3
275.25 509.58 0.43 c p3
275.39 509.12 0.43 c p3
275.54 509.71 0.43 c p3
275.68 509.35 0.43 c p3
275.83 509.48 0.43 c p3
275.98 509.35 0.43 c p3
276.12 509.91 0.43 c p3
276.27 509.35 0.43 c p3
276.41 510.27 0.43 c p3
276.56 509.81 0.43 c p3
276.70 509.71 0.43 c p3
276.85 509.24 0.43 c p3
277.00 510.04 0.43 c p3
277.14 509.71 0.43 c p3
277.29 509.58 0.43 c p3
277.43 509.48 0.43 c p3
277.58 509.91 0.43 c p3
277.72 509.71 0.43 c p3
277.87 510.04 0.43 c p3
278.01 509.71 0.43 c p3
278.16 509.91 0.43 c p3
278.31 509.81 0.43 c p3
278.45 510.38 0.43 c p3
278.60 509.48 0.43 c p3
278.74 510.04 0.43 c p3
278.89 510.27 0.43 c p3
279.03 510.51 0.43 c p3
279.18 510.04 0.43 c p3
279.32 510.61 0.43 c p3
279.47 509.81 0.43 c p3
279.62 510.15 0.43 c p3
279.76 509.81 0.43 c p3
279.91 510.51 0.43 c p3
280.05 509.58 0.43 c p3
280.20 510.51 0.43 c p3
280.34 510.38 0.43 c p3
280.49 510.84 0.43 c p3
280.63 509.81 0.43 c p3
280.78 510.38 0.43 c p3
280.93 510.84 0.43 c p3
281.07 510.61 0.43 c p3
281.22 510.51 0.43 c p3
281.36 510.38 0.43 c p3
281.51 510.51 0.43 c p3
281.65 510.97 0.43 c p3
281.80 510.74 0.43 c p3
281.95 510.61 0.43 c p3
282.09 510.15 0.43 c p3
282.24 510.97 0.43 c p3
282.38 510.61 0.43 c p3
282.53 510.74 0.43 c p3
282.67 510.74 0.43 c p3
282.82 510.97 0.43 c p3
282.96 510.84 0.43 c p3
283.11 510.61 0.43 c p3
283.26 510.74 0.43 c p3
283.40 510.84 0.43 c p3
283.55 510.84 0.43 c p3
283.69 510.61 0.43 c p3
283.84 510.38 0.43 c p3
283.98 510.97 0.43 c p3
284.13 510.61 0.43 c p3
284.27 511.43 0.43 c p3
284.42 510.04 0.43 c p3
284.57 510.84 0.43 c p3
284.71 511.20 0.43 c p3
284.86 511.20 0.43 c p3
285.00 510.97 0.43 c p3
285.15 510.61 0.43 c p3
285.29 511.20 0.43 c p3
285.44 511.20 0.43 c p3
285.58 511.20 0.43 c p3
285.73 511.43 0.43 c p3
285.88 511.20 0.43 c p3
286.02 511.07 0.43 c p3
286.17 510.84 0.43 c p3
286.31 511.77 0.43 c p3
286.46 510.61 0.43 c p3
286.60 511.07 0.43 c p3
286.75 511.67 0.43 c p3
286.89 511.07 0.43 c p3
287.04 511.43 0.43 c p3
287.19 511.54 0.43 c p3
287.33 510.74 0.43 c p3
287.48 511.30 0.43 c p3
287.62 511.54 0.43 c p3
287.77 511.30 0.43 c p3
287.91 511.20 0.43 c p3
288.06 511.43 0.43 c p3
288.21 511.20 0.43 c p3
288.35 511.07 0.43 c p3
288.50 511.20 0.43 c p3
288.64 511.20 0.43 c p3
288.79 510.84 0.43 c p3
288.93 511.43 0.43 c p3
289.08 511.30 0.43 c p3
289.22 510.97 0.43 c p3
289.37 510.97 0.43 c p3
289.52 511.67 0.43 c p3
289.66 511.20 0.43 c p3
289.81 511.54 0.43 c p3
289.95 511.30 0.43 c p3
290.10 511.90 0.43 c p3
290.24 511.43 0.43 c p3
290.39 511.07 0.43 c p3
290.53 510.84 0.43 c p3
290.68 511.20 0.43 c p3
290.83 511.30 0.43 c p3
290.97 511.67 0.43 c p3
291.12 511.07 0.43 c p3
291.26 511.07 0.43 c p3
291.41 511.30 0.43 c p3
291.55 511.43 0.43 c p3
291.70 511.54 0.43 c p3
291.84 511.77 0.43 c p3
291.99 511.30 0.43 c p3
292.14 511.77 0.43 c p3
292.28 511.07 0.43 c p3
292.43 511.54 0.43 c p3
292.57 510.74 0.43 c p3
292.72 511.54 0.43 c p3
292.86 510.97 0.43 c p3
293.01 511.30 0.43 c p3
293.16 511.20 0.43 c p3
293.30 511.77 0.43 c p3
293.45 511.67 0.43 c p3
293.59 511.77 0.43 c p3
293.74 511.77 0.43 c p3
293.88 511.67 0.43 c p3
294.03 511.54 0.43 c p3
294.17 511.07 0.43 c p3
294.32 511.30 0.43 c p3
294.47 511.30 0.43 c p3
294.61 511.67 0.43 c p3
294.76 511.67 0.43 c p3
294.90 511.67 0.43 c p3
295.05 511.07 0.43 c p3
295.19 511.67 0.43 c p3
295.34 512.00 0.43 c p3
295.48 511.30 0.43 c p3
295.63 511.43 0.43 c p3
295.78 511.30 0.43 c p3
295.92 511.43 0.43 c p3
296.07 511.30 0.43 c p3
296.21 511.67 0.43 c p3
296.36 510.74 0.43 c p3
296.50 511.43 0.43 c p3
296.65 510.97 0.43 c p3
296.79 511.30 0.43 c p3
296.94 510.74 0.43 c p3
297.09 511.43 0.43 c p3
297.23 511.67 0.43 c p3
297.38 511.43 0.43 c p3
297.52 510.74 0.43 c p3
297.67 510.84 0.43 c p3
297.81 511.30 0.43 c p3
297.96 511.90 0.43 c p3
298.11 511.67 0.43 c p3
298.25 511.30 0.43 c p3
298.40 511.20 0.43 c p3
298.54 511.54 0.43 c p3
298.69 511.54 0.43 c p3
298.83 511.20 0.43 c p3
298.98 511.20 0.43 c p3
299.12 512.00 0.43 c p3
299.27 511.20 0.43 c p3
299.42 511.20 0.43 c p3
299.56 510.61 0.43 c p3
299.71 511.67 0.43 c p3
299.85 510.84 0.43 c p3
300.00 511.54 0.43 c p3
300.14 510.38 0.43 c p3
300.29 511.30 0.43 c p3
300.43 510.97 0.43 c p3
300.58 511.30 0.43 c p3
300.73 510.74 0.43 c p3
300.87 511.30 0.43 c p3
301.02 511.20 0.43 c p3
301.16 511.90 0.43 c p3
301.31 511.30 0.43 c p3
301.45 511.30 0.43 c p3
301.60 510.84 0.43 c p3
301.74 511.30 0.43 c p3
301.89 511.07 0.43 c p3
302.04 510.74 0.43 c p3
302.18 510.61 0.43 c p3
302.33 511.30 0.43 c p3
302.47 511.20 0.43 c p3
302.62 511.20 0.43 c p3
302.76 510.84 0.43 c p3
302.91 511.20 0.43 c p3
303.06 510.97 0.43 c p3
303.20 511.30 0.43 c p3
303.35 510.61 0.43 c p3
303.49 511.07 0.43 c p3
303.64 510.38 0.43 c p3
303.78 510.61 0.43 c p3
303.93 510.51 0.43 c p3
304.07 510.51 0.43 c p3
304.22 510.84 0.43 c p3
304.37 511.30 0.43 c p3
304.51 510.84 0.43 c p3
304.66 510.38 0.43 c p3
304.80 510.61 0.43 c p3
304.95 510.97 0.43 c p3
305.09 510.61 0.43 c p3
305.24 510.74 0.43 c p3
305.38 510.61 0.43 c p3
305.53 510.97 0.43 c p3
305.68 510.97 0.43 c p3
305.82 510.61 0.43 c p3
305.97 510.04 0.43 c p3
306.11 510.74 0.43 c p3
306.26 510.38 0.43 c p3
306.40 510.74 0.43 c p3
306.55 510.38 0.43 c p3
306.69 510.38 0.43 c p3
306.84 510.61 0.43 c p3
306.99 510.84 0.43 c p3
307.13 510.38 0.43 c p3
307.28 510.15 0.43 c p3
307.42 510.74 0.43 c p3
307.57 510.74 0.43 c p3
307.71 510.27 0.43 c p3
307.86 510.38 0.43 c p3
308.01 509.81 0.43 c p3
308.15 510.61 0.43 c p3
308.30 509.71 0.43 c p3
308.44 510.61 0.43 c p3
308.59 509.91 0.43 c p3
308.73 510.61 0.43 c p3
308.88 510.51 0.43 c p3
309.02 510.84 0.43 c p3
309.17 509.58 0.43 c p3
309.32 510.38 0.43 c p3
309.46 510.27 0.43 c p3
309.61 510.27 0.43 c p3
309.75 510.15 0.43 c p3
309.90 509.58 0.43 c p3
310.04 510.27 0.43 c p3
310.19 510.61 0.43 c p3
310.33 510.04 0.43 c p3
310.48 509.91 0.43 c p3
310.63 509.81 0.43 c p3
310.77 510.15 0.43 c p3
310.92 509.81 0.43 c p3
311.06 509.81 0.43 c p3
311.21 509.91 0.43 c p3
311.35 510.04 0.43 c p3
311.50 509.48 0.43 c p3
311.64 510.15 0.43 c p3
311.79 509.58 0.43 c p3
311.94 509.71 0.43 c p3
312.08 509.81 0.43 c p3
312.23 509.81 0.43 c p3
312.37 509.91 0.43 c p3
312.52 510.04 0.43 c p3
312.66 509.48 0.43 c p3
312.81 510.04 0.43 c p3
312.96 509.81 0.43 c p3
313.10 509.71 0.43 c p3
313.25 509.81 0.43 c p3
313.39 509.91 0.43 c p3
313.54 509.12 0.43 c p3
313.68 509.48 0.43 c p3
313.83 509.48 0.43 c p3
313.97 509.71 0.43 c p3
314.12 509.58 0.43 c p3
314.27 509.35 0.43 c p3
314.41 509.35 0.43 c p3
314.56 509.48 0.43 c p3
314.70 509.58 0.43 c p3
314.85 509.48 0.43 c p3
314.99 509.91 0.43 c p3
315.14 509.48 0.43 c p3
315.28 509.91 0.43 c p3
315.43 509.12 0.43 c p3
315.58 509.24 0.43 c p3
315.72 509.24 0.43 c p3
315.87 509.58 0.43 c p3
316.01 510.04 0.43 c p3
316.16 509.12 0.43 c p3
316.30 510.38 0.43 c p3
316.45 509.12 0.43 c p3
316.59 509.35 0.43 c p3
316.74 509.35 0.43 c p3
316.89 509.71 0.43 c p3
317.03 509.01 0.43 c p3
317.18 509.12 0.43 c p3
317.32 509.24 0.43 c p3
317.47 509.12 0.43 c p3
317.61 509.01 0.43 c p3
317.76 509.48 0.43 c p3
317.91 509.24 0.43 c p3
318.05 509.35 0.43 c p3
318.20 508.78 0.43 c p3
318.34 509.48 0.43 c p3
318.49 509.01 0.43 c p3
318.63 509.58 0.43 c p3
318.78 508.88 0.43 c p3
318.92 508.78 0.43 c p3
319.07 509.01 0.43 c p3
319.22 509.12 0.43 c p3
319.36 509.24 0.43 c p3
319.51 508.65 0.43 c p3
319.65 508.65 0.43 c p3
319.80 508.88 0.43 c p3
319.94 509.01 0.43 c p3
320.09 509.12 0.43 c p3
320.23 509.01 0.43 c p3
320.38 508.78 0.43 c p3
320.53 508.88 0.43 c p3
320.67 509.12 0.43 c p3
320.82 508.42 0.43 c p3
320.96 508.78 0.43 c p3
321.11 509.12 0.43 c p3
321.25 509.12 0.43 c p3
321.40 508.78 0.43 c p3
321.54 508.88 0.43 c p3
321.69 508.65 0.43 c p3
321.84 508.65 0.43 c p3
321.98 508.55 0.43 c p3
322.13 508.55 0.43 c p3
322.27 508.08 0.43 c p3
322.42 508.32 0.43 c p3
322.56 508.19 0.43 c p3
322.71 508.65 0.43 c p3
322.85 508.42 0.43 c p3
323.00 508.42 0.43 c p3
323.15 508.55 0.43 c p3
323.29 508.78 0.43 c p3
323.44 508.19 0.43 c p3
323.58 508.88 0.43 c p3
323.73 508.42 0.43 c p3
323.87 508.19 0.43 c p3
324.02 508.88 0.43 c p3
324.17 508.42 0.43 c p3
324.31 508.55 0.43 c p3
324.46 508.65 0.43 c p3
324.60 508.08 0.43 c p3
324.75 508.19 0.43 c p3
324.89 508.32 0.43 c p3
325.04 508.65 0.43 c p3
325.18 508.08 0.43 c p3
325.33 508.32 0.43 c p3
325.48 507.96 0.43 c p3
325.62 508.19 0.43 c p3
325.77 508.42 0.43 c p3
325.91 508.55 0.43 c p3
326.06 507.96 0.43 c p3
326.20 508.19 0.43 c p3
326.35 508.32 0.43 c p3
326.49 508.42 0.43 c p3
326.64 507.62 0.43 c p3
326.79 508.55 0.43 c p3
326.93 508.55 0.43 c p3
327.08 507.96 0.43 c p3
327.22 507.72 0.43 c p3
327.37 507.85 0.43 c p3
327.51 508.08 0.43 c p3
327.66 508.08 0.43 c p3
327.80 507.96 0.43 c p3
327.95 508.08 0.43 c p3
328.10 507.96 0.43 c p3
328.24 507.62 0.43 c p3
328.39 507.96 0.43 c p3
328.53 507.72 0.43 c p3
328.68 507.85 0.43 c p3
328.82 508.08 0.43 c p3
328.97 508.08 0.43 c p3
329.12 507.96 0.43 c p3
329.26 507.62 0.43 c p3
329.41 507.96 0.43 c p3
329.55 507.39 0.43 c p3
329.70 507.72 0.43 c p3
329.84 507.26 0.43 c p3
329.99 507.96 0.43 c p3
330.13 507.26 0.43 c p3
330.28 508.08 0.43 c p3
330.43 507.62 0.43 c p3
330.57 507.72 0.43 c p3
330.72 507.39 0.43 c p3
330.86 507.96 0.43 c p3
331.01 507.72 0.43 c p3
331.15 507.39 0.43 c p3
331.30 507.49 0.43 c p3
331.44 507.72 0.43 c p3
331.59 507.62 0.43 c p3
331.74 507.85 0.43 c p3
331.88 506.69 0.43 c p3
332.03 507.62 0.43 c p3
332.17 507.62 0.43 c p3
332.32 507.62 0.43 c p3
332.46 507.03 0.43 c p3
332.61 507.85 0.43 c p3
332.75 507.39 0.43 c p3
332.90 507.96 0.43 c p3
333.05 507.72 0.43 c p3
333.19 507.72 0.43 c p3
333.34 507.03 0.43 c p3
333.48 507.72 0.43 c p3
333.63 507.26 0.43 c p3
333.77 507.85 0.43 c p3
333.92 507.62 0.43 c p3
334.07 507.26 0.43 c p3
334.21 507.03 0.43 c p3
334.36 507.62 0.43 c p3
334.50 507.49 0.43 c p3
334.65 508.08 0.43 c p3
334.79 506.80 0.43 c p3
334.94 506.93 0.43 c p3
335.08 507.72 0.43 c p3
335.23 507.96 0.43 c p3
335.38 507.26 0.43 c p3
335.52 507.49 0.43 c p3
335.67 506.69 0.43 c p3
335.81 507.26 0.43 c p3
335.96 507.26 0.43 c p3
336.10 507.16 0.43 c p3
336.25 506.93 0.43 c p3
336.39 507.26 0.43 c p3
336.54 507.26 0.43 c p3
336.69 506.69 0.43 c p3
336.83 507.85 0.43 c p3
336.98 507.62 0.43 c p3
337.12 507.16 0.43 c p3
337.27 507.03 0.43 c p3
337.41 507.39 0.43 c p3
337.56 507.16 0.43 c p3
337.70 507.16 0.43 c p3
337.85 507.62 0.43 c p3
338.00 506.80 0.43 c p3
338.14 507.62 0.43 c p3
338.29 507.16 0.43 c p3
338.43 507.49 0.43 c p3
338.58 506.69 0.43 c p3
338.72 507.16 0.43 c p3
338.87 506.93 0.43 c p3
339.02 507.03 0.43 c p3
339.16 507.16 0.43 c p3
339.31 507.62 0.43 c p3
339.45 507.26 0.43 c p3
339.60 507.62 0.43 c p3
339.74 506.93 0.43 c p3
339.89 507.39 0.43 c p3
340.03 507.03 0.43 c p3
340.18 507.49 0.43 c p3
340.33 506.69 0.43 c p3
340.47 507.62 0.43 c p3
340.62 506.93 0.43 c p3
340.76 507.26 0.43 c p3
340.91 506.57 0.43 c p3
341.05 507.62 0.43 c p3
341.20 506.93 0.43 c p3
341.34 506.93 0.43 c p3
341.49 506.80 0.43 c p3
341.64 507.85 0.43 c p3
341.78 507.26 0.43 c p3
341.93 506.69 0.43 c p3
342.07 506.69 0.43 c p3
342.22 506.93 0.43 c p3
342.36 506.80 0.43 c p3
342.51 507.03 0.43 c p3
342.65 506.93 0.43 c p3
342.80 507.62 0.43 c p3
342.95 507.03 0.43 c p3
343.09 506.46 0.43 c p3
343.24 507.62 0.43 c p3
343.38 507.26 0.43 c p3
343.53 507.39 0.43 c p3
343.67 506.57 0.43 c p3
343.82 506.93 0.43 c p3
343.97 507.26 0.43 c p3
344.11 507.03 0.43 c p3
344.26 507.26 0.43 c p3
344.40 506.69 0.43 c p3
344.55 507.72 0.43 c p3
344.69 506.57 0.43 c p3
344.84 507.03 0.43 c p3
344.98 506.46 0.43 c p3
345.13 507.26 0.43 c p3
345.28 507.03 0.43 c p3
345.42 507.03 0.43 c p3
345.57 506.80 0.43 c p3
345.71 507.39 0.43 c p3
345.86 506.46 0.43 c p3
346.00 507.26 0.43 c p3
346.15 507.03 0.43 c p3
346.29 506.46 0.43 c p3
346.44 506.69 0.43 c p3
346.59 506.57 0.43 c p3
346.73 506.69 0.43 c p3
346.88 506.93 0.43 c p3
347.02 506.80 0.43 c p3
347.17 506.80 0.43 c p3
347.31 506.93 0.43 c p3
347.46 507.03 0.43 c p3
347.60 506.57 0.43 c p3
347.75 506.69 0.43 c p3
347.90 506.93 0.43 c p3
348.04 507.16 0.43 c p3
348.19 506.69 0.43 c p3
348.33 506.93 0.43 c p3
348.48 506.69 0.43 c p3
348.62 506.93 0.43 c p3
348.77 506.80 0.43 c p3
348.92 507.26 0.43 c p3
349.06 507.16 0.43 c p3
349.21 506.57 0.43 c p3
349.35 506.69 0.43 c p3
349.50 506.69 0.43 c p3
349.64 506.46 0.43 c p3
349.79 507.16 0.43 c p3
349.93 507.03 0.43 c p3
350.08 506.80 0.43 c p3
350.23 506.80 0.43 c p3
350.37 507.03 0.43 c p3
350.52 506.69 0.43 c p3
350.66 506.80 0.43 c p3
350.81 506.93 0.43 c p3
350.95 506.80 0.43 c p3
351.10 505.87 0.43 c p3
351.24 507.26 0.43 c p3
351.39 506.69 0.43 c p3
351.54 506.69 0.43 c p3
351.68 506.10 0.43 c p3
351.83 507.03 0.43 c p3
351.97 507.03 0.43 c p3
352.12 506.93 0.43 c p3
352.26 506.93 0.43 c p3
352.41 506.80 0.43 c p3
352.55 506.69 0.43 c p3
352.70 506.57 0.43 c p3
352.85 506.80 0.43 c p3
352.99 506.23 0.43 c p3
353.14 506.93 0.43 c p3
353.28 506.93 0.43 c p3
353.43 506.80 0.43 c p3
353.57 506.69 0.43 c p3
353.72 507.26 0.43 c p3
353.86 506.80 0.43 c p3
354.01 506.80 0.43 c p3
354.16 506.80 0.43 c p3
354.30 506.33 0.43 c p3
354.45 506.93 0.43 c p3
354.59 506.33 0.43 c p3
354.74 506.57 0.43 c p3
354.88 506.93 0.43 c p3
355.03 507.16 0.43 c p3
355.18 506.23 0.43 c p3
355.32 506.23 0.43 c p3
355.47 506.46 0.43 c p3
355.61 507.16 0.43 c p3
355.76 506.57 0.43 c p3
355.90 506.93 0.43 c p3
356.05 506.23 0.43 c p3
356.19 506.69 0.43 c p3
356.34 506.57 0.43 c p3
356.49 506.93 0.43 c p3
356.63 506.93 0.43 c p3
356.78 506.93 0.43 c p3
356.92 506.69 0.43 c p3
357.07 507.03 0.43 c p3
357.21 506.33 0.43 c p3
357.36 506.69 0.43 c p3
357.50 506.80 0.43 c p3
357.65 506.33 0.43 c p3
357.80 506.33 0.43 c p3
357.94 506.93 0.43 c p3
358.09 507.39 0.43 c p3
358.23 506.80 0.43 c p3
358.38 506.69 0.43 c p3
358.52 507.16 0.43 c p3
358.67 507.26 0.43 c p3
358.81 507.39 0.43 c p3
358.96 506.23 0.43 c p3
359.11 506.33 0.43 c p3
359.25 506.80 0.43 c p3
359.40 507.72 0.43 c p3
359.54 507.16 0.43 c p3
359.69 506.69 0.43 c p3
359.83 506.57 0.43 c p3
359.98 507.26 0.43 c p3
360.13 506.69 0.43 c p3
360.27 507.03 0.43 c p3
360.42 506.46 0.43 c p3
360.56 507.16 0.43 c p3
360.71 506.69 0.43 c p3
360.85 506.46 0.43 c p3
361.00 506.23 0.43 c p3
361.14 507.39 0.43 c p3
361.29 506.69 0.43 c p3
361.44 507.62 0.43 c p3
361.58 506.80 0.43 c p3
361.73 506.80 0.43 c p3
361.87 506.69 0.43 c p3
362.02 507.72 0.43 c p3
362.16 506.00 0.43 c p3
362.31 507.03 0.43 c p3
362.45 506.46 0.43 c p3
362.60 506.93 0.43 c p3
362.75 506.80 0.43 c p3
362.89 507.03 0.43 c p3
363.04 506.10 0.43 c p3
363.18 507.03 0.43 c p3
363.33 506.69 0.43 c p3
363.47 506.80 0.43 c p3
363.62 506.46 0.43 c p3
363.76 507.03 0.43 c p3
363.91 506.69 0.43 c p3
364.06 506.57 0.43 c p3
364.20 506.93 0.43 c p3
364.35 507.03 0.43 c p3
364.49 506.80 0.43 c p3
364.64 506.93 0.43 c p3
364.78 506.57 0.43 c p3
364.93 506.80 0.43 c p3
365.08 507.03 0.43 c p3
365.22 507.39 0.43 c p3
365.37 506.00 0.43 c p3
365.51 507.16 0.43 c p3
365.66 506.57 0.43 c p3
365.80 507.16 0.43 c p3
365.95 506.57 0.43 c p3
366.09 507.16 0.43 c p3
366.24 507.16 0.43 c p3
366.39 506.69 0.43 c p3
366.53 506.46 0.43 c p3
366.68 507.16 0.43 c p3
366.82 506.57 0.43 c p3
366.97 506.69 0.43 c p3
367.11 506.93 0.43 c p3
367.26 507.39 0.43 c p3
367.40 507.26 0.43 c p3
367.55 507.16 0.43 c p3
367.70 506.80 0.43 c p3
367.84 506.80 0.43 c p3
367.99 507.03 0.43 c p3
368.13 507.16 0.43 c p3
368.28 506.46 0.43 c p3
368.42 506.69 0.43 c p3
368.57 506.10 0.43 c p3
368.71 507.03 0.43 c p3
368.86 506.80 0.43 c p3
369.01 506.93 0.43 c p3
369.15 506.46 0.43 c p3
369.30 507.39 0.43 c p3
369.44 506.80 0.43 c p3
369.59 507.03 0.43 c p3
369.73 506.33 0.43 c p3
369.88 507.03 0.43 c p3
370.03 507.16 0.43 c p3
370.17 507.03 0.43 c p3
370.32 506.80 0.43 c p3
370.46 507.39 0.43 c p3
370.61 506.93 0.43 c p3
370.75 507.39 0.43 c p3
370.90 507.03 0.43 c p3
371.04 506.57 0.43 c p3
371.19 506.69 0.43 c p3
371.34 507.39 0.43 c p3
371.48 506.80 0.43 c p3
371.63 507.16 0.43 c p3
371.77 507.03 0.43 c p3
371.92 507.26 0.43 c p3
372.06 506.93 0.43 c p3
372.21 506.93 0.43 c p3
372.35 506.93 0.43 c p3
372.50 507.16 0.43 c p3
372.65 506.93 0.43 c p3
372.79 506.80 0.43 c p3
372.94 507.62 0.43 c p3
373.08 507.16 0.43 c p3
373.23 507.03 0.43 c p3
373.37 507.03 0.43 c p3
373.52 507.39 0.43 c p3
373.66 507.26 0.43 c p3
373.81 507.16 0.43 c p3
373.96 507.03 0.43 c p3
374.10 506.80 0.43 c p3
374.25 507.16 0.43 c p3
374.39 507.26 0.43 c p3
374.54 507.03 0.43 c p3
374.68 506.57 0.43 c p3
374.83 507.39 0.43 c p3
374.98 507.39 0.43 c p3
375.12 507.72 0.43 c p3
375.27 507.03 0.43 c p3
375.41 507.16 0.43 c p3
375.56 506.93 0.43 c p3
375.70 507.49 0.43 c p3
375.85 506.80 0.43 c p3
375.99 507.16 0.43 c p3
376.14 507.16 0.43 c p3
376.29 506.93 0.43 c p3
376.43 507.16 0.43 c p3
376.58 506.93 0.43 c p3
376.72 507.26 0.43 c p3
376.87 507.16 0.43 c p3
377.01 506.46 0.43 c p3
377.16 507.16 0.43 c p3
377.30 507.49 0.43 c p3
377.45 506.69 0.43 c p3
377.60 507.16 0.43 c p3
377.74 507.16 0.43 c p3
377.89 506.46 0.43 c p3
378.03 507.39 0.43 c p3
378.18 506.93 0.43 c p3
378.32 507.16 0.43 c p3
378.47 506.93 0.43 c p3
378.61 507.39 0.43 c p3
378.76 506.93 0.43 c p3
378.91 507.26 0.43 c p3
379.05 506.93 0.43 c p3
379.20 506.69 0.43 c p3
379.34 507.26 0.43 c p3
379.49 507.26 0.43 c p3
379.63 507.16 0.43 c p3
379.78 507.16 0.43 c p3
379.93 506.80 0.43 c p3
380.07 507.16 0.43 c p3
380.22 507.26 0.43 c p3
380.36 507.03 0.43 c p3
380.51 506.93 0.43 c p3
380.65 507.85 0.43 c p3
380.80 507.39 0.43 c p3
380.94 507.16 0.43 c p3
381.09 507.03 0.43 c p3
381.24 507.03 0.43 c p3
381.38 507.39 0.43 c p3
381.53 507.26 0.43 c p3
381.67 506.80 0.43 c p3
381.82 507.16 0.43 c p3
381.96 507.26 0.43 c p3
382.11 507.16 0.43 c p3
382.25 507.39 0.43 c p3
382.40 507.49 0.43 c p3
0.00 0.00 432.00 576.00 cl
0 0 0 srgb
0.75 setlinewidth
[] 0 setdash
1 setlinecap
1 setlinejoin
10.00 setmiterlimit
np
236.96 345.60 m
145.59 0 l
o
np
236.96 345.60 m
0 -5.76 l
o
np
266.08 345.60 m
0 -5.76 l
o
np
295.19 345.60 m
0 -5.76 l
o
np
324.31 345.60 m
0 -5.76 l
o
np
353.43 345.60 m
0 -5.76 l
o
np
382.55 345.60 m
0 -5.76 l
o
/Font1 findfont 10 s
236.96 329.47 (0) .5 0 t
266.08 329.47 (2000) .5 0 t
324.31 329.47 (6000) .5 0 t
382.55 329.47 (10000) .5 0 t
np
216.00 352.00 m
0 158.24 l
o
np
216.00 352.00 m
-5.76 0 l
o
np
216.00 404.75 m
-5.76 0 l
o
np
216.00 457.50 m
-5.76 0 l
o
np
216.00 510.24 m
-5.76 0 l
o
209.09 348.41 (0.0) 1 0 t
209.09 401.16 (0.5) 1 0 t
209.09 453.91 (1.0) 1 0 t
209.09 506.65 (1.5) 1 0 t
np
216.00 345.60 m
172.80 0 l
0 172.80 l
-172.80 0 l
0 -172.80 l
o
0.00 0.00 432.00 576.00 cl
/Font1 findfont 10 s
0 0 0 srgb
302.40 313.34 (Zeit / ms \(total\)) .5 0 t
190.66 432.00 (U / V) .5 90 t
216.00 345.60 388.80 518.40 cl
0 0 0 srgb
0.38 setlinewidth
[ 1.12 1.88] 0 setdash
1 setlinecap
1 setlinejoin
10.00 setmiterlimit
np
224.73 345.60 m
0 172.80 l
o
np
235.21 345.60 m
0 172.80 l
o
np
238.27 345.60 m
0 172.80 l
o
np
266.37 345.60 m
0 172.80 l
o
86.40 57.60 388.80 288.00 cl
1 0 0 srgb
1.50 setlinewidth
[] 0 setdash
1 setlinecap
1 setlinejoin
10.00 setmiterlimit
np
97.60 279.47 m
1.41 -40.46 l
1.40 -32.71 l
1.41 -26.45 l
1.41 -21.38 l
1.41 -17.30 l
1.40 -13.98 l
1.41 -11.30 l
1.41 -9.14 l
1.40 -7.40 l
1.41 -5.97 l
1.41 -4.83 l
1.40 -3.91 l
1.41 -3.16 l
1.41 -2.56 l
1.41 -2.06 l
1.40 -1.67 l
1.41 -1.35 l
1.41 -1.09 l
1.40 -0.89 l
1.41 -0.71 l
1.41 -0.58 l
1.40 -0.46 l
1.41 -0.38 l
1.41 -0.31 l
1.41 -0.24 l
1.40 -0.20 l
1.41 -0.16 l
1.41 -0.13 l
1.40 -0.11 l
1.41 -0.09 l
1.41 -0.06 l
1.41 -0.06 l
1.40 -0.05 l
1.41 -0.03 l
1.41 -0.03 l
1.40 -0.03 l
1.41 -0.01 l
1.41 -0.02 l
1.40 -0.01 l
1.41 -0.01 l
1.41 -0.01 l
1.41 -0.01 l
1.40 0 l
1.41 -0.01 l
1.41 0 l
1.40 0 l
1.41 -0.01 l
1.41 0 l
1.40 0 l
1.41 0 l
1.41 0 l
1.41 0 l
1.40 0 l
1.41 0 l
1.41 0 l
1.40 0 l
1.41 0 l
1.41 0 l
1.41 0 l
1.40 -0.01 l
1.41 0 l
1.41 0 l
1.40 0 l
1.41 0 l
1.41 0 l
1.40 0 l
1.41 0 l
1.41 0 l
1.41 0 l
1.40 0 l
1.41 0 l
1.41 0 l
1.40 0 l
1.41 0 l
1.41 0 l
1.40 0 l
1.41 0 l
1.41 0 l
1.41 0 l
1.40 0 l
1.41 0 l
1.41 0 l
1.40 0 l
1.41 0 l
1.41 0 l
1.41 0 l
1.40 0 l
1.41 0 l
1.41 0 l
1.40 0 l
1.41 0 l
1.41 0 l
1.40 0 l
1.41 0 l
1.41 0 l
1.41 0 l
1.40 0 l
1.41 0 l
1.41 0 l
238.30 68.13 lineto
1.41 0 l
1.41 0 l
1.40 0 l
1.41 0 l
1.41 0 l
1.41 0 l
1.40 0 l
1.41 0 l
1.41 0 l
1.40 0 l
1.41 0 l
1.41 0 l
1.40 0 l
1.41 0 l
1.41 0 l
1.41 0 l
1.40 0 l
1.41 0 l
1.41 0 l
1.40 0 l
1.41 0 l
1.41 0 l
1.41 0 l
1.40 0 l
1.41 0 l
1.41 0 l
1.40 0 l
1.41 0 l
1.41 0 l
1.40 0 l
1.41 0 l
1.41 0 l
1.41 0 l
1.40 0 l
1.41 0 l
1.41 0 l
1.40 0 l
1.41 0 l
1.41 0 l
1.40 0 l
1.41 0 l
1.41 0 l
1.41 0 l
1.40 0 l
1.41 0 l
1.41 0 l
1.40 0 l
1.41 0 l
1.41 0 l
1.41 0 l
1.40 0 l
1.41 0 l
1.41 0 l
1.40 0 l
1.41 0 l
1.41 0 l
1.40 0 l
1.41 0 l
1.41 0 l
1.41 0 l
1.40 0 l
1.41 0 l
1.41 0 l
1.40 0 l
1.41 0 l
1.41 0 l
1.40 0 l
1.41 0 l
1.41 0 l
1.41 0 l
1.40 0 l
1.41 0 l
1.41 0 l
1.40 0 l
1.41 0 l
1.41 0 l
1.41 0 l
1.40 0 l
1.41 0 l
1.41 0 l
1.40 0 l
1.41 0 l
1.41 0 l
1.40 0 l
1.41 0 l
1.41 0 l
1.41 0 l
1.40 0 l
1.41 0 l
1.41 0 l
1.40 0 l
1.41 0 l
1.41 0 l
1.40 0 l
1.41 0 l
1.41 0 l
1.41 0 l
1.40 0 l
1.41 0 l
o
0.00 0.00 432.00 576.00 cl
0 0 0 srgb
0.75 setlinewidth
[] 0 setdash
1 setlinecap
1 setlinejoin
10.00 setmiterlimit
np
97.60 57.60 m
280.00 0 l
o
np
97.60 57.60 m
0 -5.76 l
o
np
153.60 57.60 m
0 -5.76 l
o
np
209.60 57.60 m
0 -5.76 l
o
np
265.60 57.60 m
0 -5.76 l
o
np
321.60 57.60 m
0 -5.76 l
o
np
377.60 57.60 m
0 -5.76 l
o
/Font1 findfont 10 s
97.60 41.47 (0) .5 0 t
153.60 41.47 (2000) .5 0 t
209.60 41.47 (4000) .5 0 t
265.60 41.47 (6000) .5 0 t
321.60 41.47 (8000) .5 0 t
377.60 41.47 (10000) .5 0 t
np
86.40 66.13 m
0 181.90 l
o
np
86.40 66.13 m
-5.76 0 l
o
np
86.40 111.61 m
-5.76 0 l
o
np
86.40 157.08 m
-5.76 0 l
o
np
86.40 202.55 m
-5.76 0 l
o
np
86.40 248.03 m
-5.76 0 l
o
79.49 62.54 (0.00) 1 0 t
79.49 108.02 (0.05) 1 0 t
79.49 153.49 (0.10) 1 0 t
79.49 198.96 (0.15) 1 0 t
79.49 244.44 (0.20) 1 0 t
np
86.40 57.60 m
302.40 0 l
0 230.40 l
-302.40 0 l
0 -230.40 l
o
0.00 0.00 432.00 576.00 cl
/Font1 findfont 10 s
0 0 0 srgb
237.60 13.82 (Zeit / ms \(nach Puls\)) .5 0 t
49.54 172.80 (Absorbanz A) .5 90 t
86.40 57.60 388.80 288.00 cl
/bg { 1 1 1 srgb } def
0 0 0 srgb
0.75 setlinewidth
[] 0 setdash
1 setlinecap
1 setlinejoin
10.00 setmiterlimit
100.40 220.28 0.65 c p3
100.68 211.12 0.65 c p3
100.96 203.02 0.65 c p3
101.24 196.75 0.65 c p3
101.52 190.49 0.65 c p3
101.80 183.97 0.65 c p3
102.08 174.82 0.65 c p3
102.36 172.45 0.65 c p3
102.64 163.22 0.65 c p3
102.92 160.93 0.65 c p3
103.20 152.62 0.65 c p3
103.48 151.13 0.65 c p3
103.76 145.22 0.65 c p3
104.04 140.85 0.65 c p3
104.32 140.12 0.65 c p3
104.60 135.09 0.65 c p3
104.88 130.90 0.65 c p3
105.16 130.51 0.65 c p3
105.44 123.51 0.65 c p3
105.72 125.98 0.65 c p3
106.00 120.05 0.65 c p3
106.28 120.74 0.65 c p3
106.56 115.34 0.65 c p3
106.84 115.64 0.65 c p3
107.12 112.63 0.65 c p3
107.40 110.91 0.65 c p3
107.68 109.27 0.65 c p3
107.96 108.90 0.65 c p3
108.24 106.23 0.65 c p3
108.52 105.57 0.65 c p3
108.80 101.68 0.65 c p3
109.08 102.34 0.65 c p3
109.36 102.34 0.65 c p3
109.64 99.71 0.65 c p3
109.92 99.06 0.65 c p3
110.20 97.76 0.65 c p3
110.48 96.75 0.65 c p3
110.76 96.75 0.65 c p3
111.04 94.81 0.65 c p3
111.32 93.88 0.65 c p3
111.60 94.16 0.65 c p3
111.88 94.16 0.65 c p3
112.16 91.31 0.65 c p3
112.44 93.52 0.65 c p3
112.72 91.95 0.65 c p3
113.00 91.31 0.65 c p3
113.28 90.67 0.65 c p3
113.56 89.75 0.65 c p3
113.84 89.11 0.65 c p3
114.12 88.76 0.65 c p3
114.40 86.86 0.65 c p3
114.68 87.84 0.65 c p3
114.96 87.21 0.65 c p3
115.24 87.84 0.65 c p3
115.52 87.84 0.65 c p3
115.80 86.58 0.65 c p3
116.08 84.06 0.65 c p3
116.36 88.48 0.65 c p3
116.64 84.34 0.65 c p3
116.92 84.06 0.65 c p3
117.20 82.80 0.65 c p3
117.48 85.31 0.65 c p3
117.76 84.06 0.65 c p3
118.04 83.43 0.65 c p3
118.32 82.45 0.65 c p3
118.60 83.43 0.65 c p3
118.88 82.18 0.65 c p3
119.16 82.18 0.65 c p3
119.44 82.45 0.65 c p3
119.72 81.55 0.65 c p3
120.00 79.96 0.65 c p3
120.28 80.58 0.65 c p3
120.56 77.21 0.65 c p3
120.84 81.21 0.65 c p3
121.12 79.34 0.65 c p3
121.40 79.34 0.65 c p3
121.68 79.96 0.65 c p3
121.96 79.34 0.65 c p3
122.24 78.72 0.65 c p3
122.52 78.44 0.65 c p3
122.80 78.44 0.65 c p3
123.08 78.44 0.65 c p3
123.36 77.21 0.65 c p3
123.64 78.17 0.65 c p3
123.92 77.55 0.65 c p3
124.20 77.83 0.65 c p3
124.48 75.97 0.65 c p3
124.76 77.55 0.65 c p3
125.04 77.83 0.65 c p3
125.32 75.70 0.65 c p3
125.60 76.32 0.65 c p3
125.88 76.93 0.65 c p3
126.16 75.09 0.65 c p3
126.44 77.21 0.65 c p3
126.72 75.09 0.65 c p3
127.00 75.70 0.65 c p3
127.28 74.13 0.65 c p3
127.56 74.75 0.65 c p3
127.84 74.47 0.65 c p3
128.12 74.13 0.65 c p3
128.40 74.75 0.65 c p3
128.68 73.86 0.65 c p3
128.96 74.13 0.65 c p3
129.24 74.13 0.65 c p3
129.52 72.30 0.65 c p3
129.80 72.64 0.65 c p3
130.08 73.52 0.65 c p3
130.36 74.13 0.65 c p3
130.64 71.08 0.65 c p3
130.92 72.91 0.65 c p3
131.20 71.08 0.65 c p3
131.48 71.69 0.65 c p3
131.76 72.30 0.65 c p3
132.04 71.08 0.65 c p3
132.32 71.42 0.65 c p3
132.60 71.69 0.65 c p3
132.88 71.69 0.65 c p3
133.16 71.69 0.65 c p3
133.44 71.08 0.65 c p3
133.72 70.48 0.65 c p3
134.00 70.21 0.65 c p3
134.28 70.21 0.65 c p3
134.56 70.48 0.65 c p3
134.84 71.08 0.65 c p3
135.12 69.26 0.65 c p3
135.40 69.87 0.65 c p3
135.68 69.26 0.65 c p3
135.96 69.60 0.65 c p3
136.24 68.06 0.65 c p3
136.52 69.26 0.65 c p3
136.80 68.39 0.65 c p3
137.08 68.66 0.65 c p3
137.36 68.99 0.65 c p3
137.64 68.06 0.65 c p3
137.92 66.58 0.65 c p3
138.20 67.45 0.65 c p3
138.48 67.45 0.65 c p3
138.76 69.26 0.65 c p3
139.04 67.79 0.65 c p3
139.32 68.06 0.65 c p3
139.60 66.25 0.65 c p3
139.88 68.39 0.65 c p3
140.16 66.58 0.65 c p3
140.44 67.19 0.65 c p3
140.72 65.12 0.65 c p3
141.00 66.85 0.65 c p3
141.28 65.38 0.65 c p3
141.56 66.85 0.65 c p3
141.84 65.38 0.65 c p3
142.12 66.58 0.65 c p3
142.40 64.79 0.65 c p3
142.68 65.12 0.65 c p3
142.96 65.38 0.65 c p3
143.24 66.85 0.65 c p3
143.52 64.79 0.65 c p3
143.80 65.38 0.65 c p3
144.08 65.38 0.65 c p3
144.36 65.12 0.65 c p3
144.64 65.65 0.65 c p3
144.92 65.65 0.65 c p3
145.20 65.12 0.65 c p3
145.48 65.38 0.65 c p3
145.76 63.92 0.65 c p3
146.04 64.79 0.65 c p3
146.32 64.52 0.65 c p3
146.60 65.98 0.65 c p3
146.88 63.92 0.65 c p3
147.16 62.40 0.65 c p3
147.44 63.92 0.65 c p3
147.72 63.92 0.65 c p3
148.00 62.73 0.65 c p3
148.28 62.73 0.65 c p3
148.56 62.40 0.65 c p3
148.84 63.33 0.65 c p3
149.12 61.54 0.65 c p3
149.40 63.00 0.65 c p3
149.68 62.73 0.65 c p3
149.96 62.14 0.65 c p3
150.24 60.95 0.65 c p3
150.52 63.00 0.65 c p3
150.80 61.21 0.65 c p3
151.08 60.95 0.65 c p3
151.36 60.95 0.65 c p3
151.64 61.81 0.65 c p3
151.92 60.36 0.65 c p3
152.20 61.81 0.65 c p3
152.48 61.81 0.65 c p3
152.76 61.54 0.65 c p3
153.04 61.21 0.65 c p3
153.32 61.21 0.65 c p3
153.60 60.36 0.65 c p3
153.88 60.03 0.65 c p3
154.16 59.18 0.65 c p3
154.44 60.62 0.65 c p3
216.00 201.60 367.20 247.68 cl
0 0 0 srgb
0.75 setlinewidth
[] 0 setdash
1 setlinecap
1 setlinejoin
10.00 setmiterlimit
221.60 238.86 0.43 c p1
222.33 235.31 0.43 c p1
223.05 232.60 0.43 c p1
223.78 231.56 0.43 c p1
224.50 230.30 0.43 c p1
225.23 228.55 0.43 c p1
225.95 223.86 0.43 c p1
226.68 226.03 0.43 c p1
227.40 220.86 0.43 c p1
228.13 222.72 0.43 c p1
228.85 218.16 0.43 c p1
229.58 220.52 0.43 c p1
230.30 218.12 0.43 c p1
231.03 217.16 0.43 c p1
231.76 219.84 0.43 c p1
232.48 217.91 0.43 c p1
233.21 216.72 0.43 c p1
233.93 219.34 0.43 c p1
234.66 214.96 0.43 c p1
235.38 220.32 0.43 c p1
236.11 216.82 0.43 c p1
236.83 220.10 0.43 c p1
237.56 216.94 0.43 c p1
238.28 219.60 0.43 c p1
239.01 218.72 0.43 c p1
239.73 219.09 0.43 c p1
240.46 219.46 0.43 c p1
241.19 221.06 0.43 c p1
241.91 220.19 0.43 c p1
242.64 221.32 0.43 c p1
243.36 219.03 0.43 c p1
244.09 221.39 0.43 c p1
244.81 223.00 0.43 c p1
245.54 221.81 0.43 c p1
246.26 222.61 0.43 c p1
246.99 222.67 0.43 c p1
247.71 222.98 0.43 c p1
248.44 224.28 0.43 c p1
249.16 223.51 0.43 c p1
249.89 223.73 0.43 c p1
250.62 225.18 0.43 c p1
251.34 226.27 0.43 c p1
252.07 224.36 0.43 c p1
252.79 227.67 0.43 c p1
253.52 227.00 0.43 c p1
254.24 227.26 0.43 c p1
254.97 227.49 0.43 c p1
255.69 227.38 0.43 c p1
256.42 227.54 0.43 c p1
257.14 227.95 0.43 c p1
257.87 226.73 0.43 c p1
258.59 228.47 0.43 c p1
259.32 228.50 0.43 c p1
260.05 229.82 0.43 c p1
260.77 230.46 0.43 c p1
261.50 229.75 0.43 c p1
262.22 227.71 0.43 c p1
262.95 232.86 0.43 c p1
263.67 229.09 0.43 c p1
264.40 229.32 0.43 c p1
265.12 228.50 0.43 c p1
265.85 231.59 0.43 c p1
266.57 230.73 0.43 c p1
267.30 230.51 0.43 c p1
268.02 229.91 0.43 c p1
268.75 231.32 0.43 c p1
269.48 230.40 0.43 c p1
270.20 230.77 0.43 c p1
270.93 231.41 0.43 c p1
271.65 230.81 0.43 c p1
272.38 229.47 0.43 c p1
273.10 230.43 0.43 c p1
273.83 227.22 0.43 c p1
274.55 231.66 0.43 c p1
275.28 229.99 0.43 c p1
276.00 230.25 0.43 c p1
276.73 231.15 0.43 c p1
277.45 230.74 0.43 c p1
278.18 230.33 0.43 c p1
278.91 230.26 0.43 c p1
279.63 230.47 0.43 c p1
280.36 230.67 0.43 c p1
281.08 229.58 0.43 c p1
281.81 230.77 0.43 c p1
282.53 230.30 0.43 c p1
283.26 230.76 0.43 c p1
283.98 229.00 0.43 c p1
284.71 230.79 0.43 c p1
285.43 231.23 0.43 c p1
286.16 229.17 0.43 c p1
286.88 229.94 0.43 c p1
287.61 230.72 0.43 c p1
288.34 228.93 0.43 c p1
289.06 231.25 0.43 c p1
289.79 229.16 0.43 c p1
290.51 229.91 0.43 c p1
291.24 228.39 0.43 c p1
291.96 229.13 0.43 c p1
292.69 228.95 0.43 c p1
293.41 228.69 0.43 c p1
294.14 229.42 0.43 c p1
294.86 228.58 0.43 c p1
295.59 228.95 0.43 c p1
296.32 229.03 0.43 c p1
297.04 227.20 0.43 c p1
297.77 227.62 0.43 c p1
298.49 228.61 0.43 c p1
299.22 229.32 0.43 c p1
299.94 226.21 0.43 c p1
300.67 228.17 0.43 c p1
301.39 226.33 0.43 c p1
302.12 227.02 0.43 c p1
302.84 227.71 0.43 c p1
303.57 226.49 0.43 c p1
304.29 226.90 0.43 c p1
305.02 227.22 0.43 c p1
305.75 227.27 0.43 c p1
306.47 227.31 0.43 c p1
307.20 226.73 0.43 c p1
307.92 226.13 0.43 c p1
308.65 225.89 0.43 c p1
309.37 225.93 0.43 c p1
310.10 226.25 0.43 c p1
310.82 226.91 0.43 c p1
311.55 225.05 0.43 c p1
312.27 225.71 0.43 c p1
313.00 225.12 0.43 c p1
313.72 225.49 0.43 c p1
314.45 223.92 0.43 c p1
315.18 225.20 0.43 c p1
315.90 224.32 0.43 c p1
316.63 224.62 0.43 c p1
317.35 224.99 0.43 c p1
318.08 224.04 0.43 c p1
318.80 222.53 0.43 c p1
319.53 223.45 0.43 c p1
320.25 223.47 0.43 c p1
320.98 225.38 0.43 c p1
321.70 223.86 0.43 c p1
322.43 224.15 0.43 c p1
323.15 222.29 0.43 c p1
323.88 224.54 0.43 c p1
324.61 222.67 0.43 c p1
325.33 223.31 0.43 c p1
326.06 221.18 0.43 c p1
326.78 222.99 0.43 c p1
327.51 221.48 0.43 c p1
328.23 223.02 0.43 c p1
328.96 221.51 0.43 c p1
329.68 222.76 0.43 c p1
330.41 220.91 0.43 c p1
331.13 221.26 0.43 c p1
331.86 221.55 0.43 c p1
332.58 223.08 0.43 c p1
333.31 220.94 0.43 c p1
334.04 221.58 0.43 c p1
334.76 221.58 0.43 c p1
335.49 221.32 0.43 c p1
336.21 221.88 0.43 c p1
336.94 221.88 0.43 c p1
337.66 221.34 0.43 c p1
338.39 221.62 0.43 c p1
339.11 220.11 0.43 c p1
339.84 221.01 0.43 c p1
340.56 220.74 0.43 c p1
341.29 222.27 0.43 c p1
342.01 220.13 0.43 c p1
342.74 218.56 0.43 c p1
343.47 220.14 0.43 c p1
344.19 220.15 0.43 c p1
344.92 218.91 0.43 c p1
345.64 218.92 0.43 c p1
346.37 218.58 0.43 c p1
347.09 219.55 0.43 c p1
347.82 217.70 0.43 c p1
348.54 219.21 0.43 c p1
349.27 218.94 0.43 c p1
349.99 218.32 0.43 c p1
350.72 217.09 0.43 c p1
351.44 219.22 0.43 c p1
352.17 217.37 0.43 c p1
352.90 217.10 0.43 c p1
353.62 217.10 0.43 c p1
354.35 218.00 0.43 c p1
355.07 216.49 0.43 c p1
355.80 218.00 0.43 c p1
356.52 218.01 0.43 c p1
357.25 217.73 0.43 c p1
357.97 217.39 0.43 c p1
358.70 217.40 0.43 c p1
359.42 216.51 0.43 c p1
360.15 216.17 0.43 c p1
360.87 215.28 0.43 c p1
361.60 216.79 0.43 c p1
0.00 0.00 432.00 576.00 cl
0 0 0 srgb
0.75 setlinewidth
[] 0 setdash
1 setlinecap
1 setlinejoin
10.00 setmiterlimit
np
250.62 201.60 m
108.80 0 l
o
np
250.62 201.60 m
0 -5.76 l
o
np
286.88 201.60 m
0 -5.76 l
o
np
323.15 201.60 m
0 -5.76 l
o
np
359.42 201.60 m
0 -5.76 l
o
/Font1 findfont 6 s
250.62 185.47 (500) .5 0 t
286.88 185.47 (1000) .5 0 t
323.15 185.47 (1500) .5 0 t
359.42 185.47 (2000) .5 0 t
np
216.00 205.73 m
0 37.82 l
o
np
216.00 205.73 m
-5.76 0 l
o
np
216.00 215.19 m
-5.76 0 l
o
np
216.00 224.64 m
-5.76 0 l
o
np
216.00 234.09 m
-5.76 0 l
o
np
216.00 243.55 m
-5.76 0 l
o
209.09 203.58 (-0.02) 1 0 t
209.09 213.03 (-0.01) 1 0 t
209.09 222.49 (0.00) 1 0 t
209.09 231.94 (0.01) 1 0 t
209.09 241.40 (0.02) 1 0 t
np
216.00 201.60 m
151.20 0 l
0 46.08 l
-151.20 0 l
0 -46.08 l
o
0.00 0.00 432.00 576.00 cl
/Font1 findfont 9 s
0 0 0 srgb
291.60 262.88 (Residuen) .5 0 t
59.04 73.44 401.76 516.96 cl
ep
%%Trailer
%%Pages: 1
%%EOF
