%!PS-Adobe-3.0 EPSF-3.0
%%DocumentNeededResources: font Helvetica
%%+ font Helvetica-Bold
%%+ font Helvetica-Oblique
%%+ font Helvetica-BoldOblique
%%+ font Symbol
%%Title: R Graphics Output
%%Creator: R Software
%%Pages: (atend)
%%BoundingBox: 0 0 432 576
%%EndComments
%%BeginProlog
/bp  { gs sRGB gs } def
% begin .ps.prolog
/gs  { gsave } bind def
/gr  { grestore } bind def
/ep  { showpage gr gr } bind def
/m   { moveto } bind def
/l  { rlineto } bind def
/np  { newpath } bind def
/cp  { closepath } bind def
/f   { fill } bind def
/o   { stroke } bind def
/c   { newpath 0 360 arc } bind def
/r   { 4 2 roll moveto 1 copy 3 -1 roll exch 0 exch rlineto 0 rlineto -1 mul 0 exch rlineto closepath } bind def
/p1  { stroke } bind def
/p2  { gsave bg fill grestore newpath } bind def
/p3  { gsave bg fill grestore stroke } bind def
/p6  { gsave bg eofill grestore newpath } bind def
/p7  { gsave bg eofill grestore stroke } bind def
/t   { 5 -2 roll moveto gsave rotate
       1 index stringwidth pop
       mul neg 0 rmoveto show grestore } bind def
/ta  { 4 -2 roll moveto gsave rotate show } bind def
/tb  { 2 -1 roll 0 rmoveto show } bind def
/cl  { grestore gsave newpath 3 index 3 index moveto 1 index
       4 -1 roll lineto  exch 1 index lineto lineto
       closepath clip newpath } bind def
/rgb { setrgbcolor } bind def
/s   { scalefont setfont } bind def
% end   .ps.prolog
/sRGB { [ /CIEBasedABC
          << /DecodeLMN
               [ { dup 0.03928 le
                        {12.92321 div}
                        {0.055 add 1.055 div 2.4 exp }
                     ifelse
                 } bind dup dup
               ]
             /MatrixLMN [0.412457 0.212673 0.019334
                         0.357576 0.715152 0.119192
                         0.180437 0.072175 0.950301]
             /WhitePoint [0.9505 1.0 1.0890]
           >>
         ] setcolorspace } bind def
/srgb { setcolor } bind def
%%IncludeResource: font Helvetica
/Helvetica findfont
dup length dict begin
  {1 index /FID ne {def} {pop pop} ifelse} forall
  /Encoding ISOLatin1Encoding def
  currentdict
  end
/Font1 exch definefont pop
%%IncludeResource: font Helvetica-Bold
/Helvetica-Bold findfont
dup length dict begin
  {1 index /FID ne {def} {pop pop} ifelse} forall
  /Encoding ISOLatin1Encoding def
  currentdict
  end
/Font2 exch definefont pop
%%IncludeResource: font Helvetica-Oblique
/Helvetica-Oblique findfont
dup length dict begin
  {1 index /FID ne {def} {pop pop} ifelse} forall
  /Encoding ISOLatin1Encoding def
  currentdict
  end
/Font3 exch definefont pop
%%IncludeResource: font Helvetica-BoldOblique
/Helvetica-BoldOblique findfont
dup length dict begin
  {1 index /FID ne {def} {pop pop} ifelse} forall
  /Encoding ISOLatin1Encoding def
  currentdict
  end
/Font4 exch definefont pop
%%IncludeResource: font Symbol
/Symbol findfont
dup length dict begin
  {1 index /FID ne {def} {pop pop} ifelse} forall
  currentdict
  end
/Font5 exch definefont pop
%%EndProlog
%%Page: 1 1
bp
0.00 0.00 432.00 576.00 cl
0.00 0.00 432.00 576.00 cl
0.00 0.00 432.00 576.00 cl
/Font1 findfont 12 s
0 0 0 srgb
48.00 508.72 (PCP-ETH) 0 0 t
48.00 494.89 (Blitzlicht-Photolyse) 0 0 t
/Font1 findfont 9 s
48.00 457.54 (File: Dy) 0 ta
-0.180 (e_1_3_V1_900V) tb
-1.125 (.dat) tb gr
48.00 334.87 (T) 0 ta
-1.080 (ue Apr  9 22:08:32 2019) tb gr
48.00 430.87 (Fitfunktion:  a + b * e) 0 ta
-0.270 (xp\(-c * t\)) tb gr
48.00 420.50 (t-Inter) 0 ta
0.270 (v) tb
-0.225 (all: 180.000 ... 5030.000 ms) tb gr
48.00 410.14 (P) 0 ta
-0.360 (ar) tb
-0.090 (ameter \(Standardabw) tb
-0.090 (eichung\):) tb gr
48.00 399.77 (  a = 0.00378 \(0.00030\)) 0 0 t
48.00 389.40 (  b = 0.39688 \(0.00132\)) 0 0 t
48.00 379.03 (  c = 1.189e+00 \(6.141e-03\) s^-1) 0 0 t
48.00 368.66 (  tau = 8.412e-01 \(4.346e-03\) s) 0 0 t
216.00 345.60 388.80 518.40 cl
0 0 0 srgb
0.75 setlinewidth
[] 0 setdash
1 setlinecap
1 setlinejoin
10.00 setmiterlimit
np
222.40 510.58 m
0.15 0.47 l
0.14 -0.23 l
0.15 0.34 l
0.14 -0.82 l
0.15 0.58 l
0.14 -0.34 l
0.15 0 l
0.14 0.24 l
0.15 -0.24 l
0.15 0.82 l
0.14 -0.35 l
0.15 -0.47 l
0.14 0.58 l
0.15 -0.34 l
0.14 0.47 l
0.15 -0.24 l
0.14 0.11 l
0.15 -0.24 l
0.15 -0.10 l
0.14 0.10 l
0.15 0.37 l
0.14 -0.47 l
0.15 0.58 l
0.14 -0.58 l
0.15 0.34 l
0.15 -0.34 l
0.14 0.23 l
0.15 -0.23 l
0.14 -0.24 l
0.15 0.47 l
0.14 -0.13 l
0.15 0.24 l
0.14 -0.11 l
0.15 -0.13 l
0.15 0.13 l
0.14 -0.47 l
0.15 0.47 l
0.14 -0.47 l
0.15 0.58 l
0.14 -0.34 l
0.15 0.47 l
0.14 -0.37 l
0.15 0.48 l
0.15 -0.58 l
0.14 0 l
0.15 0.23 l
0.14 0.35 l
0.15 -0.35 l
0.14 -0.23 l
0.15 -0.24 l
0.14 0.71 l
0.15 -0.24 l
0.15 0 l
0.14 -0.36 l
0.15 -0.11 l
0.14 0 l
0.15 0.47 l
0.14 -0.36 l
0.15 0.60 l
0.15 -0.13 l
0.14 -0.82 l
0.15 0.58 l
0.14 -0.23 l
0.15 0.13 l
0.14 0 l
0.15 -0.61 l
0.14 1.42 l
0.15 -0.94 l
0.15 0.71 l
0.14 -0.48 l
0.15 0.37 l
0.14 0.24 l
0.15 -0.71 l
0.14 -0.37 l
0.15 0.37 l
0.14 0.47 l
0.15 -0.60 l
0.15 -0.11 l
0.14 0.34 l
0.15 0.37 l
0.14 -0.60 l
0.15 0.13 l
0.14 0.23 l
0.15 -0.47 l
0.14 0 l
0.15 0.24 l
0.15 0.58 l
0.14 -0.24 l
0.15 0.24 l
0.14 -0.48 l
0.15 0.24 l
0.14 0.24 l
0.15 -0.11 l
0.15 0 l
0.14 -0.47 l
0.15 0.23 l
0.14 -0.23 l
0.15 0.81 l
0.14 -0.58 l
236.96 401.34 lineto
0.14 0.93 l
0.15 2.12 l
0.15 1.42 l
0.14 1.42 l
0.15 1.99 l
0.14 1.19 l
0.15 1.07 l
0.14 1.40 l
0.15 1.42 l
0.14 1.18 l
0.15 1.79 l
0.15 0.10 l
0.14 1.76 l
0.15 1.08 l
0.14 0.71 l
0.15 1.29 l
0.14 0.47 l
0.15 1.89 l
0.14 1.42 l
0.15 0.11 l
0.15 0.95 l
0.14 0.94 l
0.15 1.29 l
0.14 1.18 l
0.15 0 l
0.14 1.32 l
0.15 0.71 l
0.15 1.39 l
0.14 0.71 l
0.15 0.13 l
0.14 0.82 l
0.15 2.02 l
0.14 -0.24 l
0.15 0.69 l
0.14 0.84 l
0.15 0.58 l
0.15 1.42 l
0.14 0.23 l
0.15 0.13 l
0.14 1.19 l
0.15 0.34 l
0.14 0.81 l
0.15 1.19 l
0.14 0.84 l
0.15 0.47 l
0.15 0.10 l
0.14 0.85 l
0.15 0.47 l
0.14 0.92 l
0.15 0.60 l
0.14 0.24 l
0.15 0.71 l
0.14 0 l
0.15 1.18 l
0.15 0.95 l
0.14 0.24 l
0.15 0.81 l
0.14 0.34 l
0.15 0 l
0.14 1.42 l
0.15 0.24 l
0.15 0.23 l
0.14 1.08 l
0.15 1.05 l
0.14 -0.71 l
0.15 0.85 l
0.14 0.57 l
0.15 1.29 l
0.14 0.13 l
0.15 0.24 l
0.15 0.34 l
0.14 1.66 l
0.15 -1.29 l
0.14 1.18 l
0.15 0.58 l
0.14 0.95 l
0.15 -0.37 l
0.14 0.84 l
0.15 0.81 l
0.15 0.37 l
0.14 0.34 l
0.15 0.85 l
0.14 0 l
0.15 -0.14 l
0.14 0.14 l
0.15 1.18 l
0.14 0.68 l
0.15 -0.10 l
0.15 0.81 l
0.14 0.24 l
0.15 -0.24 l
0.14 1.79 l
0.15 -0.47 l
0.14 0.81 l
0.15 0.24 l
0.15 0.23 l
0.14 -0.10 l
0.15 1.42 l
0.14 -0.48 l
251.52 472.94 lineto
0.14 0 l
0.15 0.10 l
0.14 0.24 l
0.15 1.08 l
0.15 0 l
0.14 -0.24 l
0.15 0.24 l
0.14 1.52 l
0.15 -0.23 l
0.14 0 l
0.15 0.23 l
0.14 0.48 l
0.15 0.47 l
0.15 0.24 l
0.14 0.36 l
0.15 0.58 l
0.14 0.24 l
0.15 -0.13 l
0.14 0.94 l
0.15 0.37 l
0.14 0 l
0.15 0.48 l
0.15 -0.37 l
0.14 0.71 l
0.15 0.47 l
0.14 0.24 l
0.15 -0.24 l
0.14 0.60 l
0.15 0.24 l
0.14 0.24 l
0.15 0.47 l
0.15 -0.24 l
0.14 0.71 l
0.15 0.11 l
0.14 0.47 l
0.15 0.48 l
0.14 -0.24 l
0.15 0.24 l
0.15 0.57 l
0.14 0.14 l
0.15 0 l
0.14 0.57 l
0.15 0 l
0.14 0.24 l
0.15 0.13 l
0.14 0.47 l
0.15 0.24 l
0.15 0.47 l
0.14 -0.13 l
0.15 0.13 l
0.14 0.11 l
0.15 0.37 l
0.14 0.34 l
0.15 0.71 l
0.14 -0.13 l
0.15 0.23 l
0.15 -0.23 l
0.14 0.71 l
0.15 0.47 l
0.14 -0.34 l
0.15 -0.24 l
0.14 0.34 l
0.15 0.24 l
0.14 0.71 l
0.15 -0.95 l
0.15 1.55 l
0.14 -0.36 l
0.15 0.23 l
0.14 0 l
0.15 0.24 l
0.14 0.13 l
0.15 0.24 l
0.15 -0.48 l
0.14 1.06 l
0.15 0 l
0.14 0 l
0.15 0 l
0.14 1.18 l
0.15 -0.11 l
0.14 -0.23 l
0.15 0.10 l
0.15 0.24 l
0.14 0.24 l
0.15 0.34 l
0.14 -0.11 l
0.15 0.71 l
0.14 -0.84 l
0.15 1.18 l
0.14 -1.18 l
0.15 0.95 l
0.15 0.13 l
0.14 0.23 l
0.15 0 l
0.14 0.48 l
0.15 0.23 l
0.14 -0.36 l
0.15 0.36 l
0.14 0 l
0.15 0 l
266.08 495.36 lineto
0.14 0.95 l
0.15 -0.61 l
0.14 0 l
0.15 0.71 l
0.14 -0.23 l
0.15 -0.11 l
0.15 0.11 l
0.14 0.47 l
0.15 0.47 l
0.14 -0.23 l
0.15 0.13 l
0.14 0.10 l
0.15 0.37 l
0.14 0 l
0.15 -0.37 l
0.15 0.37 l
0.14 0.11 l
0.15 0.57 l
0.14 -0.10 l
0.15 0.34 l
0.14 -0.34 l
0.15 0.58 l
0.14 -0.69 l
0.15 1.29 l
0.15 -0.94 l
0.14 0.47 l
0.15 0 l
0.14 0.23 l
0.15 0.24 l
0.14 0.24 l
0.15 0 l
0.14 0 l
0.15 0.34 l
0.15 -0.71 l
0.14 1.08 l
0.15 -0.24 l
0.14 0.47 l
0.15 -0.36 l
0.14 -0.24 l
0.15 0.95 l
0.15 -0.71 l
0.14 0.47 l
0.15 -0.24 l
0.14 0.48 l
0.15 0 l
0.14 0.84 l
0.15 -0.48 l
0.14 -0.23 l
0.15 0.10 l
0.15 0.24 l
0.14 -0.11 l
0.15 0.58 l
0.14 -0.34 l
0.15 0.34 l
0.14 -0.10 l
0.15 0.58 l
0.14 -0.58 l
0.15 0.47 l
0.15 0.11 l
0.14 -0.24 l
0.15 -0.11 l
0.14 0.11 l
0.15 0.47 l
0.14 0.13 l
0.15 -0.23 l
0.14 -0.13 l
0.15 0.81 l
0.15 0.13 l
0.14 -0.34 l
0.15 -0.71 l
0.14 1.29 l
0.15 -0.58 l
0.14 0.34 l
0.15 0.24 l
0.15 0 l
0.14 0.23 l
0.15 -0.47 l
0.14 0.11 l
0.15 0.36 l
0.14 0.35 l
0.15 -0.35 l
0.14 -0.23 l
0.15 -0.24 l
0.15 1.18 l
0.14 -0.23 l
0.15 0.47 l
0.14 -0.24 l
0.15 -0.23 l
0.14 0.47 l
0.15 0.24 l
0.14 -0.71 l
0.15 0.71 l
0.15 -0.24 l
0.14 0.24 l
0.15 -1.08 l
0.14 0.60 l
0.15 0.95 l
0.14 0 l
0.15 -0.84 l
280.63 505.14 lineto
0.15 -0.34 l
0.15 -0.13 l
0.14 0.36 l
0.15 0.11 l
0.14 0.13 l
0.15 0.24 l
0.14 -0.37 l
0.15 -0.11 l
0.15 1.06 l
0.14 -1.06 l
0.15 0.58 l
0.14 -0.10 l
0.15 0.34 l
0.14 -0.24 l
0.15 -0.23 l
0.14 0.60 l
0.15 -0.37 l
0.15 0.37 l
0.14 0.24 l
0.15 0 l
0.14 -0.37 l
0.15 0.60 l
0.14 -0.60 l
0.15 0.60 l
0.14 -0.36 l
0.15 0.36 l
0.15 -0.36 l
0.14 0.71 l
0.15 -0.24 l
0.14 0.95 l
0.15 -1.42 l
0.14 0.60 l
0.15 0.24 l
0.14 0.10 l
0.15 -0.94 l
0.15 0.60 l
0.14 0.24 l
0.15 0.10 l
0.14 -0.10 l
0.15 0.34 l
0.14 -0.34 l
0.15 0.23 l
0.14 -0.36 l
0.15 0.36 l
0.15 -0.36 l
0.14 0.71 l
0.15 -0.24 l
0.14 -0.11 l
0.15 0.11 l
0.14 0.13 l
0.15 0 l
0.15 -0.24 l
0.14 -0.13 l
0.15 0.84 l
0.14 0.21 l
0.15 -0.68 l
0.14 0.11 l
0.15 0.13 l
0.14 0.10 l
0.15 0.24 l
0.15 -0.24 l
0.14 0 l
0.15 0.47 l
0.14 0.24 l
0.15 -0.94 l
0.14 0.57 l
0.15 -0.44 l
0.14 0.57 l
0.15 0 l
0.15 0.35 l
0.14 -0.92 l
0.15 0.81 l
0.14 -0.47 l
0.15 0.71 l
0.14 -0.71 l
0.15 0.47 l
0.14 0.24 l
0.15 -0.61 l
0.15 0.13 l
0.14 0.71 l
0.15 -1.05 l
0.14 1.05 l
0.15 -0.60 l
0.14 0.37 l
0.15 -0.24 l
0.15 0.58 l
0.14 -0.47 l
0.15 0.36 l
0.14 -1.05 l
0.15 0.82 l
0.14 0 l
0.15 -0.48 l
0.14 0.48 l
0.15 0.34 l
0.15 -0.11 l
0.14 0.24 l
0.15 -0.24 l
0.14 -0.36 l
0.15 0.71 l
295.19 509.40 lineto
0.15 -0.84 l
0.14 0.60 l
0.15 -0.84 l
0.15 1.18 l
0.14 -1.05 l
0.15 0.95 l
0.14 -0.48 l
0.15 0.48 l
0.14 -0.71 l
0.15 0.23 l
0.14 -0.13 l
0.15 0.84 l
0.15 -0.36 l
0.14 0.13 l
0.15 0 l
0.14 0.23 l
0.15 -0.47 l
0.14 0.34 l
0.15 0 l
0.15 0.24 l
0.14 -0.71 l
0.15 0.95 l
0.14 -0.48 l
0.15 0.84 l
0.14 -0.94 l
0.15 0.81 l
0.14 -0.34 l
0.15 -0.37 l
0.15 0.13 l
0.14 0.11 l
0.15 -0.11 l
0.14 0 l
0.15 0 l
0.14 0.11 l
0.15 -0.24 l
0.14 0.24 l
0.15 0.13 l
0.15 -0.13 l
0.14 0.37 l
0.15 -0.61 l
0.14 -0.23 l
0.15 0.60 l
0.14 -0.13 l
0.15 0.13 l
0.14 0 l
0.15 -0.24 l
0.15 0.24 l
0.14 0.11 l
0.15 -0.58 l
0.14 0.10 l
0.15 0.61 l
0.14 0.23 l
0.15 -0.47 l
0.15 -0.13 l
0.14 -0.11 l
0.15 0.48 l
0.14 0.10 l
0.15 -0.23 l
0.14 -0.11 l
0.15 0 l
0.14 0.34 l
0.15 0 l
0.15 0 l
0.14 -0.23 l
0.15 0.13 l
0.14 0 l
0.15 -0.71 l
0.14 0.81 l
0.15 0.61 l
0.14 -0.71 l
0.15 -0.24 l
0.15 0.58 l
0.14 -0.24 l
0.15 0 l
0.14 0.24 l
0.15 0.13 l
0.14 0 l
0.15 -0.24 l
0.14 0 l
0.15 0.24 l
0.15 0.34 l
0.14 -0.71 l
0.15 0.37 l
0.14 0.24 l
0.15 -0.13 l
0.14 -0.35 l
0.15 0.11 l
0.15 0.24 l
0.14 -0.11 l
0.15 -0.13 l
0.14 -0.34 l
0.15 0 l
0.14 0.34 l
0.15 0 l
0.14 -0.11 l
0.15 0.48 l
0.15 -0.61 l
0.14 0.71 l
0.15 -0.58 l
309.75 510.58 lineto
0.15 0 l
0.14 0.11 l
0.15 -0.71 l
0.14 0.60 l
0.15 0.47 l
0.15 -0.23 l
0.14 -0.24 l
0.15 0.34 l
0.14 -0.58 l
0.15 0.24 l
0.14 -0.13 l
0.15 0.37 l
0.14 0 l
0.15 0 l
0.15 -0.37 l
0.14 0.37 l
0.15 -0.24 l
0.14 0.11 l
0.15 0 l
0.14 0.13 l
0.15 -0.71 l
0.15 0.81 l
0.14 0 l
0.15 0 l
0.14 -0.23 l
0.15 -0.11 l
0.14 0 l
0.15 0.34 l
0.14 0 l
0.15 0 l
0.15 -0.10 l
0.14 0.10 l
0.15 0 l
0.14 -0.23 l
0.15 0.13 l
0.14 0.10 l
0.15 -0.58 l
0.14 0.71 l
0.15 -0.23 l
0.15 0.47 l
0.14 -0.60 l
0.15 0.60 l
0.14 -0.71 l
0.15 0.71 l
0.14 -0.71 l
0.15 0.34 l
0.14 -0.34 l
0.15 0.82 l
0.15 -0.35 l
0.14 0.35 l
0.15 0 l
0.14 -0.11 l
0.15 -0.47 l
0.14 0.34 l
0.15 -0.34 l
0.15 0.47 l
0.14 0.11 l
0.15 -0.35 l
0.14 -0.36 l
0.15 0.13 l
0.14 0.47 l
0.15 0 l
0.14 -0.60 l
0.15 0.23 l
0.15 0 l
0.14 0.24 l
0.15 -0.47 l
0.14 0.36 l
0.15 -0.13 l
0.14 0.24 l
0.15 -0.34 l
0.14 0.23 l
0.15 0.35 l
0.15 0 l
0.14 -0.58 l
0.15 0 l
0.14 0.10 l
0.15 0.48 l
0.14 -0.11 l
0.15 0 l
0.14 0 l
0.15 0.47 l
0.15 -1.31 l
0.14 0.84 l
0.15 -0.37 l
0.14 0.84 l
0.15 -0.94 l
0.14 0.10 l
0.15 0.13 l
0.14 0.24 l
0.15 0.11 l
0.15 -0.24 l
0.14 0 l
0.15 0.47 l
0.14 -0.81 l
0.15 0.10 l
0.14 0.37 l
0.15 -0.13 l
0.15 -0.24 l
324.31 510.92 lineto
0.15 0 l
0.14 0.24 l
0.15 0.13 l
0.14 -0.13 l
0.15 -0.24 l
0.14 0 l
0.15 -0.10 l
0.15 0.58 l
0.14 -0.48 l
0.15 -0.23 l
0.14 0.23 l
0.15 0 l
0.14 0.37 l
0.15 0.34 l
0.14 -0.81 l
0.15 0.34 l
0.15 0.24 l
0.14 0 l
0.15 -0.58 l
0.14 0 l
0.15 -0.24 l
0.14 0.82 l
0.15 -0.71 l
0.14 0.94 l
0.15 -0.71 l
0.15 0.37 l
0.14 0.47 l
0.15 -0.94 l
0.14 0.34 l
0.15 0.13 l
0.14 -0.47 l
0.15 0.10 l
0.15 0 l
0.14 0.37 l
0.15 -0.47 l
0.14 0.58 l
0.15 -0.35 l
0.14 0.71 l
0.15 -0.84 l
0.14 0.48 l
0.15 -0.48 l
0.15 0.48 l
0.14 -0.11 l
0.15 -0.60 l
0.14 -0.11 l
0.15 0.34 l
0.14 0.13 l
0.15 0 l
0.14 0.11 l
0.15 0.47 l
0.15 -0.23 l
0.14 -0.24 l
0.15 -0.24 l
0.14 0.48 l
0.15 -0.24 l
0.14 0.47 l
0.15 -0.47 l
0.14 -0.11 l
0.15 -0.23 l
0.15 0.47 l
0.14 -0.37 l
0.15 0.48 l
0.14 -0.58 l
0.15 0.81 l
0.14 -0.71 l
0.15 0.48 l
0.15 -0.71 l
0.14 0.60 l
0.15 -0.37 l
0.14 0.48 l
0.15 -0.35 l
0.14 0.58 l
0.15 -0.34 l
0.14 0 l
0.15 -0.95 l
0.15 0.95 l
0.14 0 l
0.15 0 l
0.14 -0.24 l
0.15 0.71 l
0.14 -1.18 l
0.15 0.47 l
0.14 0.95 l
0.15 -0.71 l
0.15 -0.13 l
0.14 0 l
0.15 -0.47 l
0.14 0.60 l
0.15 0.47 l
0.14 -0.94 l
0.15 0.58 l
0.14 -0.48 l
0.15 0.24 l
0.15 0.13 l
0.14 0.24 l
0.15 -0.13 l
0.14 -0.58 l
0.15 0.10 l
0.14 0.95 l
338.87 511.16 lineto
0.15 -0.24 l
0.14 0.48 l
0.15 -0.71 l
0.14 0.47 l
0.15 0 l
0.14 0.24 l
0.15 -0.58 l
0.14 0.10 l
0.15 0.13 l
0.15 0.48 l
0.14 -0.61 l
0.15 0.48 l
0.14 -0.35 l
0.15 0.11 l
0.14 -0.47 l
0.15 0.71 l
0.14 -0.35 l
0.15 0.24 l
0.15 -0.47 l
0.14 0.58 l
0.15 -0.58 l
0.14 0.71 l
0.15 -0.37 l
0.14 -0.24 l
0.15 0.37 l
0.14 0.11 l
0.15 -0.95 l
0.15 1.08 l
0.14 -0.37 l
0.15 0.13 l
0.14 -0.71 l
0.15 1.18 l
0.14 -0.71 l
0.15 0.35 l
0.15 -0.24 l
0.14 0.13 l
0.15 0.11 l
0.14 0 l
0.15 -0.35 l
0.14 0.35 l
0.15 -0.11 l
0.14 -0.37 l
0.15 0 l
0.15 0.37 l
0.14 0.24 l
0.15 -0.61 l
0.14 0 l
0.15 0.84 l
0.14 -0.23 l
0.15 0.10 l
0.14 -0.58 l
0.15 0 l
0.15 -0.13 l
0.14 0.48 l
0.15 -0.24 l
0.14 0.47 l
0.15 -0.34 l
0.14 0.11 l
0.15 -1.19 l
0.14 1.08 l
0.15 0.11 l
0.15 -0.48 l
0.14 0 l
0.15 0.37 l
0.14 -0.37 l
0.15 0.61 l
0.14 -0.71 l
0.15 0.10 l
0.15 0.48 l
0.14 0.36 l
0.15 -1.07 l
0.14 0.84 l
0.15 -0.61 l
0.14 0.48 l
0.15 -0.58 l
0.14 0.71 l
0.15 -0.24 l
0.15 -0.24 l
0.14 -0.23 l
0.15 0.34 l
0.14 -0.24 l
0.15 0.48 l
0.14 -0.82 l
0.15 0.24 l
0.14 0.34 l
0.15 -0.24 l
0.15 0.13 l
0.14 -0.47 l
0.15 0.58 l
0.14 0.47 l
0.15 -0.58 l
0.14 0.35 l
0.15 -0.71 l
0.14 0.47 l
0.15 0 l
0.15 -0.11 l
0.14 -0.23 l
0.15 0.58 l
0.14 -0.58 l
353.43 510.58 lineto
0.14 0.24 l
0.15 0.10 l
0.14 0.13 l
0.15 0.11 l
0.15 -0.24 l
0.14 -0.23 l
0.15 0.13 l
0.14 0.47 l
0.15 -0.60 l
0.14 0.60 l
0.15 -0.24 l
0.15 0.35 l
0.14 -0.48 l
0.15 0.13 l
0.14 -0.13 l
0.15 0.48 l
0.14 -0.24 l
0.15 -0.34 l
0.14 0.81 l
0.15 -0.34 l
0.15 -0.47 l
0.14 0.47 l
0.15 0.47 l
0.14 -0.84 l
0.15 0 l
0.14 0.37 l
0.15 -0.84 l
0.14 0.24 l
0.15 0.13 l
0.15 0.34 l
0.14 -0.58 l
0.15 0.47 l
0.14 0.11 l
0.15 -0.11 l
0.14 0 l
0.15 0.11 l
0.14 0.13 l
0.15 -0.13 l
0.15 0 l
0.14 0 l
0.15 -0.11 l
0.14 0.71 l
0.15 -0.47 l
0.14 -0.13 l
0.15 -0.24 l
0.15 0.61 l
0.14 -0.84 l
0.15 0.84 l
0.14 -0.61 l
0.15 0.37 l
0.14 -0.47 l
0.15 0.34 l
0.14 -0.34 l
0.15 0.47 l
0.15 -0.47 l
0.14 0.58 l
0.15 -0.82 l
0.14 0.71 l
0.15 -0.71 l
0.14 0.95 l
0.15 -0.71 l
0.14 0.81 l
0.15 -0.71 l
0.15 0 l
0.14 0.24 l
0.15 0.24 l
0.14 -1.42 l
0.15 1.18 l
0.14 -0.34 l
0.15 0.58 l
0.14 -0.95 l
0.15 0.60 l
0.15 0 l
0.14 0 l
0.15 0 l
0.14 -0.13 l
0.15 0.24 l
0.14 0.60 l
0.15 -1.07 l
0.15 0.47 l
0.14 -0.47 l
0.15 0.36 l
0.14 -0.36 l
0.15 0.47 l
0.14 -0.82 l
0.15 0.82 l
0.14 -0.71 l
0.15 1.08 l
0.15 -0.84 l
0.14 0.60 l
0.15 -0.71 l
0.14 0.58 l
0.15 -0.34 l
0.14 0.47 l
0.15 -0.37 l
0.14 -0.23 l
0.15 0 l
0.15 0.36 l
0.14 -0.23 l
currentpoint o m
367.99 510.82 lineto
0.14 -0.48 l
0.15 0.71 l
0.14 -0.47 l
0.15 0.24 l
0.14 -0.13 l
0.15 0.23 l
0.15 0.24 l
0.14 -0.11 l
0.15 -0.23 l
0.14 0.10 l
0.15 0.48 l
0.14 -0.35 l
0.15 -0.36 l
0.15 0.36 l
0.14 -0.23 l
0.15 0 l
0.14 0 l
0.15 0.34 l
0.14 -0.11 l
0.15 0.24 l
0.14 -0.71 l
0.15 0.34 l
0.15 -0.10 l
0.14 0.10 l
0.15 0.13 l
0.14 -0.47 l
0.15 0.58 l
0.14 0.13 l
0.15 -0.71 l
0.14 0.58 l
0.15 -0.34 l
0.15 0.10 l
0.14 -0.10 l
0.15 0.23 l
0.14 -0.36 l
0.15 0.36 l
0.14 -0.47 l
0.15 0.58 l
0.14 -0.71 l
0.15 0.71 l
0.15 -0.58 l
0.14 0.34 l
0.15 0.13 l
0.14 -0.13 l
0.15 -0.23 l
0.14 0 l
0.15 -0.11 l
0.15 0.82 l
0.14 -0.58 l
0.15 0.58 l
0.14 -0.58 l
0.15 0.10 l
0.14 0.13 l
0.15 -0.13 l
0.14 0.24 l
0.15 -0.24 l
0.15 0 l
0.14 -0.23 l
0.15 0.23 l
0.14 0.13 l
0.15 -0.13 l
0.14 -0.58 l
0.15 0 l
0.14 0.71 l
0.15 -0.36 l
0.15 0 l
0.14 0.13 l
0.15 0.34 l
0.14 -0.34 l
0.15 -0.71 l
0.14 0.47 l
0.15 0.58 l
0.14 -0.24 l
0.15 0 l
0.15 -0.47 l
0.14 0.47 l
0.15 -0.10 l
0.14 0.23 l
0.15 -1.31 l
0.14 1.55 l
0.15 -0.24 l
0.15 0.35 l
0.14 -0.71 l
0.15 0.60 l
0.14 -0.37 l
0.15 -0.10 l
0.14 -0.37 l
0.15 0.37 l
0.14 -0.24 l
0.15 0.82 l
0.15 -0.95 l
0.14 0.37 l
0.15 -0.37 l
0.14 0.60 l
0.15 -0.84 l
0.14 0.71 l
0.15 0 l
0.14 -0.34 l
0.15 -0.60 l
o
/bg { 1 1 1 srgb } def
222.40 510.58 0.43 c p3
222.55 511.05 0.43 c p3
222.69 510.82 0.43 c p3
222.84 511.16 0.43 c p3
222.98 510.34 0.43 c p3
223.13 510.92 0.43 c p3
223.27 510.58 0.43 c p3
223.42 510.58 0.43 c p3
223.56 510.82 0.43 c p3
223.71 510.58 0.43 c p3
223.86 511.40 0.43 c p3
224.00 511.05 0.43 c p3
224.15 510.58 0.43 c p3
224.29 511.16 0.43 c p3
224.44 510.82 0.43 c p3
224.58 511.29 0.43 c p3
224.73 511.05 0.43 c p3
224.87 511.16 0.43 c p3
225.02 510.92 0.43 c p3
225.17 510.82 0.43 c p3
225.31 510.92 0.43 c p3
225.46 511.29 0.43 c p3
225.60 510.82 0.43 c p3
225.75 511.40 0.43 c p3
225.89 510.82 0.43 c p3
226.04 511.16 0.43 c p3
226.19 510.82 0.43 c p3
226.33 511.05 0.43 c p3
226.48 510.82 0.43 c p3
226.62 510.58 0.43 c p3
226.77 511.05 0.43 c p3
226.91 510.92 0.43 c p3
227.06 511.16 0.43 c p3
227.20 511.05 0.43 c p3
227.35 510.92 0.43 c p3
227.50 511.05 0.43 c p3
227.64 510.58 0.43 c p3
227.79 511.05 0.43 c p3
227.93 510.58 0.43 c p3
228.08 511.16 0.43 c p3
228.22 510.82 0.43 c p3
228.37 511.29 0.43 c p3
228.51 510.92 0.43 c p3
228.66 511.40 0.43 c p3
228.81 510.82 0.43 c p3
228.95 510.82 0.43 c p3
229.10 511.05 0.43 c p3
229.24 511.40 0.43 c p3
229.39 511.05 0.43 c p3
229.53 510.82 0.43 c p3
229.68 510.58 0.43 c p3
229.82 511.29 0.43 c p3
229.97 511.05 0.43 c p3
230.12 511.05 0.43 c p3
230.26 510.69 0.43 c p3
230.41 510.58 0.43 c p3
230.55 510.58 0.43 c p3
230.70 511.05 0.43 c p3
230.84 510.69 0.43 c p3
230.99 511.29 0.43 c p3
231.14 511.16 0.43 c p3
231.28 510.34 0.43 c p3
231.43 510.92 0.43 c p3
231.57 510.69 0.43 c p3
231.72 510.82 0.43 c p3
231.86 510.82 0.43 c p3
232.01 510.21 0.43 c p3
232.15 511.63 0.43 c p3
232.30 510.69 0.43 c p3
232.45 511.40 0.43 c p3
232.59 510.92 0.43 c p3
232.74 511.29 0.43 c p3
232.88 511.53 0.43 c p3
233.03 510.82 0.43 c p3
233.17 510.45 0.43 c p3
233.32 510.82 0.43 c p3
233.46 511.29 0.43 c p3
233.61 510.69 0.43 c p3
233.76 510.58 0.43 c p3
233.90 510.92 0.43 c p3
234.05 511.29 0.43 c p3
234.19 510.69 0.43 c p3
234.34 510.82 0.43 c p3
234.48 511.05 0.43 c p3
234.63 510.58 0.43 c p3
234.77 510.58 0.43 c p3
234.92 510.82 0.43 c p3
235.07 511.40 0.43 c p3
235.21 511.16 0.43 c p3
235.36 511.40 0.43 c p3
235.50 510.92 0.43 c p3
235.65 511.16 0.43 c p3
235.79 511.40 0.43 c p3
235.94 511.29 0.43 c p3
236.09 511.29 0.43 c p3
236.23 510.82 0.43 c p3
236.38 511.05 0.43 c p3
236.52 510.82 0.43 c p3
236.67 511.63 0.43 c p3
236.81 511.05 0.43 c p3
236.96 401.34 0.43 c p3
237.10 402.27 0.43 c p3
237.25 404.39 0.43 c p3
237.40 405.81 0.43 c p3
237.54 407.23 0.43 c p3
237.69 409.22 0.43 c p3
237.83 410.41 0.43 c p3
237.98 411.48 0.43 c p3
238.12 412.88 0.43 c p3
238.27 414.30 0.43 c p3
238.41 415.48 0.43 c p3
238.56 417.27 0.43 c p3
238.71 417.37 0.43 c p3
238.85 419.13 0.43 c p3
239.00 420.21 0.43 c p3
239.14 420.92 0.43 c p3
239.29 422.21 0.43 c p3
239.43 422.68 0.43 c p3
239.58 424.57 0.43 c p3
239.72 425.99 0.43 c p3
239.87 426.10 0.43 c p3
240.02 427.05 0.43 c p3
240.16 427.99 0.43 c p3
240.31 429.28 0.43 c p3
240.45 430.46 0.43 c p3
240.60 430.46 0.43 c p3
240.74 431.78 0.43 c p3
240.89 432.49 0.43 c p3
241.04 433.88 0.43 c p3
241.18 434.59 0.43 c p3
241.33 434.72 0.43 c p3
241.47 435.54 0.43 c p3
241.62 437.56 0.43 c p3
241.76 437.32 0.43 c p3
241.91 438.01 0.43 c p3
242.05 438.85 0.43 c p3
242.20 439.43 0.43 c p3
242.35 440.85 0.43 c p3
242.49 441.08 0.43 c p3
242.64 441.21 0.43 c p3
242.78 442.40 0.43 c p3
242.93 442.74 0.43 c p3
243.07 443.55 0.43 c p3
243.22 444.74 0.43 c p3
243.36 445.58 0.43 c p3
243.51 446.05 0.43 c p3
243.66 446.15 0.43 c p3
243.80 447.00 0.43 c p3
243.95 447.47 0.43 c p3
244.09 448.39 0.43 c p3
244.24 448.99 0.43 c p3
244.38 449.23 0.43 c p3
244.53 449.94 0.43 c p3
244.67 449.94 0.43 c p3
244.82 451.12 0.43 c p3
244.97 452.07 0.43 c p3
245.11 452.31 0.43 c p3
245.26 453.12 0.43 c p3
245.40 453.46 0.43 c p3
245.55 453.46 0.43 c p3
245.69 454.88 0.43 c p3
245.84 455.12 0.43 c p3
245.99 455.35 0.43 c p3
246.13 456.43 0.43 c p3
246.28 457.48 0.43 c p3
246.42 456.77 0.43 c p3
246.57 457.62 0.43 c p3
246.71 458.19 0.43 c p3
246.86 459.48 0.43 c p3
247.00 459.61 0.43 c p3
247.15 459.85 0.43 c p3
247.30 460.19 0.43 c p3
247.44 461.85 0.43 c p3
247.59 460.56 0.43 c p3
247.73 461.74 0.43 c p3
247.88 462.32 0.43 c p3
248.02 463.27 0.43 c p3
248.17 462.90 0.43 c p3
248.31 463.74 0.43 c p3
248.46 464.55 0.43 c p3
248.61 464.92 0.43 c p3
248.75 465.26 0.43 c p3
248.90 466.11 0.43 c p3
249.04 466.11 0.43 c p3
249.19 465.97 0.43 c p3
249.33 466.11 0.43 c p3
249.48 467.29 0.43 c p3
249.62 467.97 0.43 c p3
249.77 467.87 0.43 c p3
249.92 468.68 0.43 c p3
250.06 468.92 0.43 c p3
250.21 468.68 0.43 c p3
250.35 470.47 0.43 c p3
250.50 470.00 0.43 c p3
250.64 470.81 0.43 c p3
250.79 471.05 0.43 c p3
250.94 471.28 0.43 c p3
251.08 471.18 0.43 c p3
251.23 472.60 0.43 c p3
251.37 472.12 0.43 c p3
251.52 472.94 0.43 c p3
251.66 472.94 0.43 c p3
251.81 473.04 0.43 c p3
251.95 473.28 0.43 c p3
252.10 474.36 0.43 c p3
252.25 474.36 0.43 c p3
252.39 474.12 0.43 c p3
252.54 474.36 0.43 c p3
252.68 475.88 0.43 c p3
252.83 475.65 0.43 c p3
252.97 475.65 0.43 c p3
253.12 475.88 0.43 c p3
253.26 476.36 0.43 c p3
253.41 476.83 0.43 c p3
253.56 477.07 0.43 c p3
253.70 477.43 0.43 c p3
253.85 478.01 0.43 c p3
253.99 478.25 0.43 c p3
254.14 478.12 0.43 c p3
254.28 479.06 0.43 c p3
254.43 479.43 0.43 c p3
254.57 479.43 0.43 c p3
254.72 479.91 0.43 c p3
254.87 479.54 0.43 c p3
255.01 480.25 0.43 c p3
255.16 480.72 0.43 c p3
255.30 480.96 0.43 c p3
255.45 480.72 0.43 c p3
255.59 481.32 0.43 c p3
255.74 481.56 0.43 c p3
255.88 481.80 0.43 c p3
256.03 482.27 0.43 c p3
256.18 482.03 0.43 c p3
256.32 482.74 0.43 c p3
256.47 482.85 0.43 c p3
256.61 483.32 0.43 c p3
256.76 483.80 0.43 c p3
256.90 483.56 0.43 c p3
257.05 483.80 0.43 c p3
257.20 484.37 0.43 c p3
257.34 484.51 0.43 c p3
257.49 484.51 0.43 c p3
257.63 485.08 0.43 c p3
257.78 485.08 0.43 c p3
257.92 485.32 0.43 c p3
258.07 485.45 0.43 c p3
258.21 485.92 0.43 c p3
258.36 486.16 0.43 c p3
258.51 486.63 0.43 c p3
258.65 486.50 0.43 c p3
258.80 486.63 0.43 c p3
258.94 486.74 0.43 c p3
259.09 487.11 0.43 c p3
259.23 487.45 0.43 c p3
259.38 488.16 0.43 c p3
259.52 488.03 0.43 c p3
259.67 488.26 0.43 c p3
259.82 488.03 0.43 c p3
259.96 488.74 0.43 c p3
260.11 489.21 0.43 c p3
260.25 488.87 0.43 c p3
260.40 488.63 0.43 c p3
260.54 488.97 0.43 c p3
260.69 489.21 0.43 c p3
260.83 489.92 0.43 c p3
260.98 488.97 0.43 c p3
261.13 490.52 0.43 c p3
261.27 490.16 0.43 c p3
261.42 490.39 0.43 c p3
261.56 490.39 0.43 c p3
261.71 490.63 0.43 c p3
261.85 490.76 0.43 c p3
262.00 491.00 0.43 c p3
262.15 490.52 0.43 c p3
262.29 491.58 0.43 c p3
262.44 491.58 0.43 c p3
262.58 491.58 0.43 c p3
262.73 491.58 0.43 c p3
262.87 492.76 0.43 c p3
263.02 492.65 0.43 c p3
263.16 492.42 0.43 c p3
263.31 492.52 0.43 c p3
263.46 492.76 0.43 c p3
263.60 493.00 0.43 c p3
263.75 493.34 0.43 c p3
263.89 493.23 0.43 c p3
264.04 493.94 0.43 c p3
264.18 493.10 0.43 c p3
264.33 494.28 0.43 c p3
264.47 493.10 0.43 c p3
264.62 494.05 0.43 c p3
264.77 494.18 0.43 c p3
264.91 494.41 0.43 c p3
265.06 494.41 0.43 c p3
265.20 494.89 0.43 c p3
265.35 495.12 0.43 c p3
265.49 494.76 0.43 c p3
265.64 495.12 0.43 c p3
265.78 495.12 0.43 c p3
265.93 495.12 0.43 c p3
266.08 495.36 0.43 c p3
266.22 496.31 0.43 c p3
266.37 495.70 0.43 c p3
266.51 495.70 0.43 c p3
266.66 496.41 0.43 c p3
266.80 496.18 0.43 c p3
266.95 496.07 0.43 c p3
267.10 496.18 0.43 c p3
267.24 496.65 0.43 c p3
267.39 497.12 0.43 c p3
267.53 496.89 0.43 c p3
267.68 497.02 0.43 c p3
267.82 497.12 0.43 c p3
267.97 497.49 0.43 c p3
268.11 497.49 0.43 c p3
268.26 497.12 0.43 c p3
268.41 497.49 0.43 c p3
268.55 497.60 0.43 c p3
268.70 498.17 0.43 c p3
268.84 498.07 0.43 c p3
268.99 498.41 0.43 c p3
269.13 498.07 0.43 c p3
269.28 498.65 0.43 c p3
269.42 497.96 0.43 c p3
269.57 499.25 0.43 c p3
269.72 498.31 0.43 c p3
269.86 498.78 0.43 c p3
270.01 498.78 0.43 c p3
270.15 499.01 0.43 c p3
270.30 499.25 0.43 c p3
270.44 499.49 0.43 c p3
270.59 499.49 0.43 c p3
270.73 499.49 0.43 c p3
270.88 499.83 0.43 c p3
271.03 499.12 0.43 c p3
271.17 500.20 0.43 c p3
271.32 499.96 0.43 c p3
271.46 500.43 0.43 c p3
271.61 500.07 0.43 c p3
271.75 499.83 0.43 c p3
271.90 500.78 0.43 c p3
272.05 500.07 0.43 c p3
272.19 500.54 0.43 c p3
272.34 500.30 0.43 c p3
272.48 500.78 0.43 c p3
272.63 500.78 0.43 c p3
272.77 501.62 0.43 c p3
272.92 501.14 0.43 c p3
273.06 500.91 0.43 c p3
273.21 501.01 0.43 c p3
273.36 501.25 0.43 c p3
273.50 501.14 0.43 c p3
273.65 501.72 0.43 c p3
273.79 501.38 0.43 c p3
273.94 501.72 0.43 c p3
274.08 501.62 0.43 c p3
274.23 502.20 0.43 c p3
274.37 501.62 0.43 c p3
274.52 502.09 0.43 c p3
274.67 502.20 0.43 c p3
274.81 501.96 0.43 c p3
274.96 501.85 0.43 c p3
275.10 501.96 0.43 c p3
275.25 502.43 0.43 c p3
275.39 502.56 0.43 c p3
275.54 502.33 0.43 c p3
275.68 502.20 0.43 c p3
275.83 503.01 0.43 c p3
275.98 503.14 0.43 c p3
276.12 502.80 0.43 c p3
276.27 502.09 0.43 c p3
276.41 503.38 0.43 c p3
276.56 502.80 0.43 c p3
276.70 503.14 0.43 c p3
276.85 503.38 0.43 c p3
277.00 503.38 0.43 c p3
277.14 503.61 0.43 c p3
277.29 503.14 0.43 c p3
277.43 503.25 0.43 c p3
277.58 503.61 0.43 c p3
277.72 503.96 0.43 c p3
277.87 503.61 0.43 c p3
278.01 503.38 0.43 c p3
278.16 503.14 0.43 c p3
278.31 504.32 0.43 c p3
278.45 504.09 0.43 c p3
278.60 504.56 0.43 c p3
278.74 504.32 0.43 c p3
278.89 504.09 0.43 c p3
279.03 504.56 0.43 c p3
279.18 504.80 0.43 c p3
279.32 504.09 0.43 c p3
279.47 504.80 0.43 c p3
279.62 504.56 0.43 c p3
279.76 504.80 0.43 c p3
279.91 503.72 0.43 c p3
280.05 504.32 0.43 c p3
280.20 505.27 0.43 c p3
280.34 505.27 0.43 c p3
280.49 504.43 0.43 c p3
280.63 505.14 0.43 c p3
280.78 504.80 0.43 c p3
280.93 504.67 0.43 c p3
281.07 505.03 0.43 c p3
281.22 505.14 0.43 c p3
281.36 505.27 0.43 c p3
281.51 505.51 0.43 c p3
281.65 505.14 0.43 c p3
281.80 505.03 0.43 c p3
281.95 506.09 0.43 c p3
282.09 505.03 0.43 c p3
282.24 505.61 0.43 c p3
282.38 505.51 0.43 c p3
282.53 505.85 0.43 c p3
282.67 505.61 0.43 c p3
282.82 505.38 0.43 c p3
282.96 505.98 0.43 c p3
283.11 505.61 0.43 c p3
283.26 505.98 0.43 c p3
283.40 506.22 0.43 c p3
283.55 506.22 0.43 c p3
283.69 505.85 0.43 c p3
283.84 506.45 0.43 c p3
283.98 505.85 0.43 c p3
284.13 506.45 0.43 c p3
284.27 506.09 0.43 c p3
284.42 506.45 0.43 c p3
284.57 506.09 0.43 c p3
284.71 506.80 0.43 c p3
284.86 506.56 0.43 c p3
285.00 507.51 0.43 c p3
285.15 506.09 0.43 c p3
285.29 506.69 0.43 c p3
285.44 506.93 0.43 c p3
285.58 507.03 0.43 c p3
285.73 506.09 0.43 c p3
285.88 506.69 0.43 c p3
286.02 506.93 0.43 c p3
286.17 507.03 0.43 c p3
286.31 506.93 0.43 c p3
286.46 507.27 0.43 c p3
286.60 506.93 0.43 c p3
286.75 507.16 0.43 c p3
286.89 506.80 0.43 c p3
287.04 507.16 0.43 c p3
287.19 506.80 0.43 c p3
287.33 507.51 0.43 c p3
287.48 507.27 0.43 c p3
287.62 507.16 0.43 c p3
287.77 507.27 0.43 c p3
287.91 507.40 0.43 c p3
288.06 507.40 0.43 c p3
288.21 507.16 0.43 c p3
288.35 507.03 0.43 c p3
288.50 507.87 0.43 c p3
288.64 508.08 0.43 c p3
288.79 507.40 0.43 c p3
288.93 507.51 0.43 c p3
289.08 507.64 0.43 c p3
289.22 507.74 0.43 c p3
289.37 507.98 0.43 c p3
289.52 507.74 0.43 c p3
289.66 507.74 0.43 c p3
289.81 508.21 0.43 c p3
289.95 508.45 0.43 c p3
290.10 507.51 0.43 c p3
290.24 508.08 0.43 c p3
290.39 507.64 0.43 c p3
290.53 508.21 0.43 c p3
290.68 508.21 0.43 c p3
290.83 508.56 0.43 c p3
290.97 507.64 0.43 c p3
291.12 508.45 0.43 c p3
291.26 507.98 0.43 c p3
291.41 508.69 0.43 c p3
291.55 507.98 0.43 c p3
291.70 508.45 0.43 c p3
291.84 508.69 0.43 c p3
291.99 508.08 0.43 c p3
292.14 508.21 0.43 c p3
292.28 508.92 0.43 c p3
292.43 507.87 0.43 c p3
292.57 508.92 0.43 c p3
292.72 508.32 0.43 c p3
292.86 508.69 0.43 c p3
293.01 508.45 0.43 c p3
293.16 509.03 0.43 c p3
293.30 508.56 0.43 c p3
293.45 508.92 0.43 c p3
293.59 507.87 0.43 c p3
293.74 508.69 0.43 c p3
293.88 508.69 0.43 c p3
294.03 508.21 0.43 c p3
294.17 508.69 0.43 c p3
294.32 509.03 0.43 c p3
294.47 508.92 0.43 c p3
294.61 509.16 0.43 c p3
294.76 508.92 0.43 c p3
294.90 508.56 0.43 c p3
295.05 509.27 0.43 c p3
295.19 509.40 0.43 c p3
295.34 508.56 0.43 c p3
295.48 509.16 0.43 c p3
295.63 508.32 0.43 c p3
295.78 509.50 0.43 c p3
295.92 508.45 0.43 c p3
296.07 509.40 0.43 c p3
296.21 508.92 0.43 c p3
296.36 509.40 0.43 c p3
296.50 508.69 0.43 c p3
296.65 508.92 0.43 c p3
296.79 508.79 0.43 c p3
296.94 509.63 0.43 c p3
297.09 509.27 0.43 c p3
297.23 509.40 0.43 c p3
297.38 509.40 0.43 c p3
297.52 509.63 0.43 c p3
297.67 509.16 0.43 c p3
297.81 509.50 0.43 c p3
297.96 509.50 0.43 c p3
298.11 509.74 0.43 c p3
298.25 509.03 0.43 c p3
298.40 509.98 0.43 c p3
298.54 509.50 0.43 c p3
298.69 510.34 0.43 c p3
298.83 509.40 0.43 c p3
298.98 510.21 0.43 c p3
299.12 509.87 0.43 c p3
299.27 509.50 0.43 c p3
299.42 509.63 0.43 c p3
299.56 509.74 0.43 c p3
299.71 509.63 0.43 c p3
299.85 509.63 0.43 c p3
300.00 509.63 0.43 c p3
300.14 509.74 0.43 c p3
300.29 509.50 0.43 c p3
300.43 509.74 0.43 c p3
300.58 509.87 0.43 c p3
300.73 509.74 0.43 c p3
300.87 510.11 0.43 c p3
301.02 509.50 0.43 c p3
301.16 509.27 0.43 c p3
301.31 509.87 0.43 c p3
301.45 509.74 0.43 c p3
301.60 509.87 0.43 c p3
301.74 509.87 0.43 c p3
301.89 509.63 0.43 c p3
302.04 509.87 0.43 c p3
302.18 509.98 0.43 c p3
302.33 509.40 0.43 c p3
302.47 509.50 0.43 c p3
302.62 510.11 0.43 c p3
302.76 510.34 0.43 c p3
302.91 509.87 0.43 c p3
303.06 509.74 0.43 c p3
303.20 509.63 0.43 c p3
303.35 510.11 0.43 c p3
303.49 510.21 0.43 c p3
303.64 509.98 0.43 c p3
303.78 509.87 0.43 c p3
303.93 509.87 0.43 c p3
304.07 510.21 0.43 c p3
304.22 510.21 0.43 c p3
304.37 510.21 0.43 c p3
304.51 509.98 0.43 c p3
304.66 510.11 0.43 c p3
304.80 510.11 0.43 c p3
304.95 509.40 0.43 c p3
305.09 510.21 0.43 c p3
305.24 510.82 0.43 c p3
305.38 510.11 0.43 c p3
305.53 509.87 0.43 c p3
305.68 510.45 0.43 c p3
305.82 510.21 0.43 c p3
305.97 510.21 0.43 c p3
306.11 510.45 0.43 c p3
306.26 510.58 0.43 c p3
306.40 510.58 0.43 c p3
306.55 510.34 0.43 c p3
306.69 510.34 0.43 c p3
306.84 510.58 0.43 c p3
306.99 510.92 0.43 c p3
307.13 510.21 0.43 c p3
307.28 510.58 0.43 c p3
307.42 510.82 0.43 c p3
307.57 510.69 0.43 c p3
307.71 510.34 0.43 c p3
307.86 510.45 0.43 c p3
308.01 510.69 0.43 c p3
308.15 510.58 0.43 c p3
308.30 510.45 0.43 c p3
308.44 510.11 0.43 c p3
308.59 510.11 0.43 c p3
308.73 510.45 0.43 c p3
308.88 510.45 0.43 c p3
309.02 510.34 0.43 c p3
309.17 510.82 0.43 c p3
309.32 510.21 0.43 c p3
309.46 510.92 0.43 c p3
309.61 510.34 0.43 c p3
309.75 510.58 0.43 c p3
309.90 510.58 0.43 c p3
310.04 510.69 0.43 c p3
310.19 509.98 0.43 c p3
310.33 510.58 0.43 c p3
310.48 511.05 0.43 c p3
310.63 510.82 0.43 c p3
310.77 510.58 0.43 c p3
310.92 510.92 0.43 c p3
311.06 510.34 0.43 c p3
311.21 510.58 0.43 c p3
311.35 510.45 0.43 c p3
311.50 510.82 0.43 c p3
311.64 510.82 0.43 c p3
311.79 510.82 0.43 c p3
311.94 510.45 0.43 c p3
312.08 510.82 0.43 c p3
312.23 510.58 0.43 c p3
312.37 510.69 0.43 c p3
312.52 510.69 0.43 c p3
312.66 510.82 0.43 c p3
312.81 510.11 0.43 c p3
312.96 510.92 0.43 c p3
313.10 510.92 0.43 c p3
313.25 510.92 0.43 c p3
313.39 510.69 0.43 c p3
313.54 510.58 0.43 c p3
313.68 510.58 0.43 c p3
313.83 510.92 0.43 c p3
313.97 510.92 0.43 c p3
314.12 510.92 0.43 c p3
314.27 510.82 0.43 c p3
314.41 510.92 0.43 c p3
314.56 510.92 0.43 c p3
314.70 510.69 0.43 c p3
314.85 510.82 0.43 c p3
314.99 510.92 0.43 c p3
315.14 510.34 0.43 c p3
315.28 511.05 0.43 c p3
315.43 510.82 0.43 c p3
315.58 511.29 0.43 c p3
315.72 510.69 0.43 c p3
315.87 511.29 0.43 c p3
316.01 510.58 0.43 c p3
316.16 511.29 0.43 c p3
316.30 510.58 0.43 c p3
316.45 510.92 0.43 c p3
316.59 510.58 0.43 c p3
316.74 511.40 0.43 c p3
316.89 511.05 0.43 c p3
317.03 511.40 0.43 c p3
317.18 511.40 0.43 c p3
317.32 511.29 0.43 c p3
317.47 510.82 0.43 c p3
317.61 511.16 0.43 c p3
317.76 510.82 0.43 c p3
317.91 511.29 0.43 c p3
318.05 511.40 0.43 c p3
318.20 511.05 0.43 c p3
318.34 510.69 0.43 c p3
318.49 510.82 0.43 c p3
318.63 511.29 0.43 c p3
318.78 511.29 0.43 c p3
318.92 510.69 0.43 c p3
319.07 510.92 0.43 c p3
319.22 510.92 0.43 c p3
319.36 511.16 0.43 c p3
319.51 510.69 0.43 c p3
319.65 511.05 0.43 c p3
319.80 510.92 0.43 c p3
319.94 511.16 0.43 c p3
320.09 510.82 0.43 c p3
320.23 511.05 0.43 c p3
320.38 511.40 0.43 c p3
320.53 511.40 0.43 c p3
320.67 510.82 0.43 c p3
320.82 510.82 0.43 c p3
320.96 510.92 0.43 c p3
321.11 511.40 0.43 c p3
321.25 511.29 0.43 c p3
321.40 511.29 0.43 c p3
321.54 511.29 0.43 c p3
321.69 511.76 0.43 c p3
321.84 510.45 0.43 c p3
321.98 511.29 0.43 c p3
322.13 510.92 0.43 c p3
322.27 511.76 0.43 c p3
322.42 510.82 0.43 c p3
322.56 510.92 0.43 c p3
322.71 511.05 0.43 c p3
322.85 511.29 0.43 c p3
323.00 511.40 0.43 c p3
323.15 511.16 0.43 c p3
323.29 511.16 0.43 c p3
323.44 511.63 0.43 c p3
323.58 510.82 0.43 c p3
323.73 510.92 0.43 c p3
323.87 511.29 0.43 c p3
324.02 511.16 0.43 c p3
324.17 510.92 0.43 c p3
324.31 510.92 0.43 c p3
324.46 510.92 0.43 c p3
324.60 511.16 0.43 c p3
324.75 511.29 0.43 c p3
324.89 511.16 0.43 c p3
325.04 510.92 0.43 c p3
325.18 510.92 0.43 c p3
325.33 510.82 0.43 c p3
325.48 511.40 0.43 c p3
325.62 510.92 0.43 c p3
325.77 510.69 0.43 c p3
325.91 510.92 0.43 c p3
326.06 510.92 0.43 c p3
326.20 511.29 0.43 c p3
326.35 511.63 0.43 c p3
326.49 510.82 0.43 c p3
326.64 511.16 0.43 c p3
326.79 511.40 0.43 c p3
326.93 511.40 0.43 c p3
327.08 510.82 0.43 c p3
327.22 510.82 0.43 c p3
327.37 510.58 0.43 c p3
327.51 511.40 0.43 c p3
327.66 510.69 0.43 c p3
327.80 511.63 0.43 c p3
327.95 510.92 0.43 c p3
328.10 511.29 0.43 c p3
328.24 511.76 0.43 c p3
328.39 510.82 0.43 c p3
328.53 511.16 0.43 c p3
328.68 511.29 0.43 c p3
328.82 510.82 0.43 c p3
328.97 510.92 0.43 c p3
329.12 510.92 0.43 c p3
329.26 511.29 0.43 c p3
329.41 510.82 0.43 c p3
329.55 511.40 0.43 c p3
329.70 511.05 0.43 c p3
329.84 511.76 0.43 c p3
329.99 510.92 0.43 c p3
330.13 511.40 0.43 c p3
330.28 510.92 0.43 c p3
330.43 511.40 0.43 c p3
330.57 511.29 0.43 c p3
330.72 510.69 0.43 c p3
330.86 510.58 0.43 c p3
331.01 510.92 0.43 c p3
331.15 511.05 0.43 c p3
331.30 511.05 0.43 c p3
331.44 511.16 0.43 c p3
331.59 511.63 0.43 c p3
331.74 511.40 0.43 c p3
331.88 511.16 0.43 c p3
332.03 510.92 0.43 c p3
332.17 511.40 0.43 c p3
332.32 511.16 0.43 c p3
332.46 511.63 0.43 c p3
332.61 511.16 0.43 c p3
332.75 511.05 0.43 c p3
332.90 510.82 0.43 c p3
333.05 511.29 0.43 c p3
333.19 510.92 0.43 c p3
333.34 511.40 0.43 c p3
333.48 510.82 0.43 c p3
333.63 511.63 0.43 c p3
333.77 510.92 0.43 c p3
333.92 511.40 0.43 c p3
334.07 510.69 0.43 c p3
334.21 511.29 0.43 c p3
334.36 510.92 0.43 c p3
334.50 511.40 0.43 c p3
334.65 511.05 0.43 c p3
334.79 511.63 0.43 c p3
334.94 511.29 0.43 c p3
335.08 511.29 0.43 c p3
335.23 510.34 0.43 c p3
335.38 511.29 0.43 c p3
335.52 511.29 0.43 c p3
335.67 511.29 0.43 c p3
335.81 511.05 0.43 c p3
335.96 511.76 0.43 c p3
336.10 510.58 0.43 c p3
336.25 511.05 0.43 c p3
336.39 512.00 0.43 c p3
336.54 511.29 0.43 c p3
336.69 511.16 0.43 c p3
336.83 511.16 0.43 c p3
336.98 510.69 0.43 c p3
337.12 511.29 0.43 c p3
337.27 511.76 0.43 c p3
337.41 510.82 0.43 c p3
337.56 511.40 0.43 c p3
337.70 510.92 0.43 c p3
337.85 511.16 0.43 c p3
338.00 511.29 0.43 c p3
338.14 511.53 0.43 c p3
338.29 511.40 0.43 c p3
338.43 510.82 0.43 c p3
338.58 510.92 0.43 c p3
338.72 511.87 0.43 c p3
338.87 511.16 0.43 c p3
339.02 510.92 0.43 c p3
339.16 511.40 0.43 c p3
339.31 510.69 0.43 c p3
339.45 511.16 0.43 c p3
339.60 511.16 0.43 c p3
339.74 511.40 0.43 c p3
339.89 510.82 0.43 c p3
340.03 510.92 0.43 c p3
340.18 511.05 0.43 c p3
340.33 511.53 0.43 c p3
340.47 510.92 0.43 c p3
340.62 511.40 0.43 c p3
340.76 511.05 0.43 c p3
340.91 511.16 0.43 c p3
341.05 510.69 0.43 c p3
341.20 511.40 0.43 c p3
341.34 511.05 0.43 c p3
341.49 511.29 0.43 c p3
341.64 510.82 0.43 c p3
341.78 511.40 0.43 c p3
341.93 510.82 0.43 c p3
342.07 511.53 0.43 c p3
342.22 511.16 0.43 c p3
342.36 510.92 0.43 c p3
342.51 511.29 0.43 c p3
342.65 511.40 0.43 c p3
342.80 510.45 0.43 c p3
342.95 511.53 0.43 c p3
343.09 511.16 0.43 c p3
343.24 511.29 0.43 c p3
343.38 510.58 0.43 c p3
343.53 511.76 0.43 c p3
343.67 511.05 0.43 c p3
343.82 511.40 0.43 c p3
343.97 511.16 0.43 c p3
344.11 511.29 0.43 c p3
344.26 511.40 0.43 c p3
344.40 511.40 0.43 c p3
344.55 511.05 0.43 c p3
344.69 511.40 0.43 c p3
344.84 511.29 0.43 c p3
344.98 510.92 0.43 c p3
345.13 510.92 0.43 c p3
345.28 511.29 0.43 c p3
345.42 511.53 0.43 c p3
345.57 510.92 0.43 c p3
345.71 510.92 0.43 c p3
345.86 511.76 0.43 c p3
346.00 511.53 0.43 c p3
346.15 511.63 0.43 c p3
346.29 511.05 0.43 c p3
346.44 511.05 0.43 c p3
346.59 510.92 0.43 c p3
346.73 511.40 0.43 c p3
346.88 511.16 0.43 c p3
347.02 511.63 0.43 c p3
347.17 511.29 0.43 c p3
347.31 511.40 0.43 c p3
347.46 510.21 0.43 c p3
347.60 511.29 0.43 c p3
347.75 511.40 0.43 c p3
347.90 510.92 0.43 c p3
348.04 510.92 0.43 c p3
348.19 511.29 0.43 c p3
348.33 510.92 0.43 c p3
348.48 511.53 0.43 c p3
348.62 510.82 0.43 c p3
348.77 510.92 0.43 c p3
348.92 511.40 0.43 c p3
349.06 511.76 0.43 c p3
349.21 510.69 0.43 c p3
349.35 511.53 0.43 c p3
349.50 510.92 0.43 c p3
349.64 511.40 0.43 c p3
349.79 510.82 0.43 c p3
349.93 511.53 0.43 c p3
350.08 511.29 0.43 c p3
350.23 511.05 0.43 c p3
350.37 510.82 0.43 c p3
350.52 511.16 0.43 c p3
350.66 510.92 0.43 c p3
350.81 511.40 0.43 c p3
350.95 510.58 0.43 c p3
351.10 510.82 0.43 c p3
351.24 511.16 0.43 c p3
351.39 510.92 0.43 c p3
351.54 511.05 0.43 c p3
351.68 510.58 0.43 c p3
351.83 511.16 0.43 c p3
351.97 511.63 0.43 c p3
352.12 511.05 0.43 c p3
352.26 511.40 0.43 c p3
352.41 510.69 0.43 c p3
352.55 511.16 0.43 c p3
352.70 511.16 0.43 c p3
352.85 511.05 0.43 c p3
352.99 510.82 0.43 c p3
353.14 511.40 0.43 c p3
353.28 510.82 0.43 c p3
353.43 510.58 0.43 c p3
353.57 510.82 0.43 c p3
353.72 510.92 0.43 c p3
353.86 511.05 0.43 c p3
354.01 511.16 0.43 c p3
354.16 510.92 0.43 c p3
354.30 510.69 0.43 c p3
354.45 510.82 0.43 c p3
354.59 511.29 0.43 c p3
354.74 510.69 0.43 c p3
354.88 511.29 0.43 c p3
355.03 511.05 0.43 c p3
355.18 511.40 0.43 c p3
355.32 510.92 0.43 c p3
355.47 511.05 0.43 c p3
355.61 510.92 0.43 c p3
355.76 511.40 0.43 c p3
355.90 511.16 0.43 c p3
356.05 510.82 0.43 c p3
356.19 511.63 0.43 c p3
356.34 511.29 0.43 c p3
356.49 510.82 0.43 c p3
356.63 511.29 0.43 c p3
356.78 511.76 0.43 c p3
356.92 510.92 0.43 c p3
357.07 510.92 0.43 c p3
357.21 511.29 0.43 c p3
357.36 510.45 0.43 c p3
357.50 510.69 0.43 c p3
357.65 510.82 0.43 c p3
357.80 511.16 0.43 c p3
357.94 510.58 0.43 c p3
358.09 511.05 0.43 c p3
358.23 511.16 0.43 c p3
358.38 511.05 0.43 c p3
358.52 511.05 0.43 c p3
358.67 511.16 0.43 c p3
358.81 511.29 0.43 c p3
358.96 511.16 0.43 c p3
359.11 511.16 0.43 c p3
359.25 511.16 0.43 c p3
359.40 511.05 0.43 c p3
359.54 511.76 0.43 c p3
359.69 511.29 0.43 c p3
359.83 511.16 0.43 c p3
359.98 510.92 0.43 c p3
360.13 511.53 0.43 c p3
360.27 510.69 0.43 c p3
360.42 511.53 0.43 c p3
360.56 510.92 0.43 c p3
360.71 511.29 0.43 c p3
360.85 510.82 0.43 c p3
361.00 511.16 0.43 c p3
361.14 510.82 0.43 c p3
361.29 511.29 0.43 c p3
361.44 510.82 0.43 c p3
361.58 511.40 0.43 c p3
361.73 510.58 0.43 c p3
361.87 511.29 0.43 c p3
362.02 510.58 0.43 c p3
362.16 511.53 0.43 c p3
362.31 510.82 0.43 c p3
362.45 511.63 0.43 c p3
362.60 510.92 0.43 c p3
362.75 510.92 0.43 c p3
362.89 511.16 0.43 c p3
363.04 511.40 0.43 c p3
363.18 509.98 0.43 c p3
363.33 511.16 0.43 c p3
363.47 510.82 0.43 c p3
363.62 511.40 0.43 c p3
363.76 510.45 0.43 c p3
363.91 511.05 0.43 c p3
364.06 511.05 0.43 c p3
364.20 511.05 0.43 c p3
364.35 511.05 0.43 c p3
364.49 510.92 0.43 c p3
364.64 511.16 0.43 c p3
364.78 511.76 0.43 c p3
364.93 510.69 0.43 c p3
365.08 511.16 0.43 c p3
365.22 510.69 0.43 c p3
365.37 511.05 0.43 c p3
365.51 510.69 0.43 c p3
365.66 511.16 0.43 c p3
365.80 510.34 0.43 c p3
365.95 511.16 0.43 c p3
366.09 510.45 0.43 c p3
366.24 511.53 0.43 c p3
366.39 510.69 0.43 c p3
366.53 511.29 0.43 c p3
366.68 510.58 0.43 c p3
366.82 511.16 0.43 c p3
366.97 510.82 0.43 c p3
367.11 511.29 0.43 c p3
367.26 510.92 0.43 c p3
367.40 510.69 0.43 c p3
367.55 510.69 0.43 c p3
367.70 511.05 0.43 c p3
367.84 510.82 0.43 c p3
367.99 510.82 0.43 c p3
368.13 510.34 0.43 c p3
368.28 511.05 0.43 c p3
368.42 510.58 0.43 c p3
368.57 510.82 0.43 c p3
368.71 510.69 0.43 c p3
368.86 510.92 0.43 c p3
369.01 511.16 0.43 c p3
369.15 511.05 0.43 c p3
369.30 510.82 0.43 c p3
369.44 510.92 0.43 c p3
369.59 511.40 0.43 c p3
369.73 511.05 0.43 c p3
369.88 510.69 0.43 c p3
370.03 511.05 0.43 c p3
370.17 510.82 0.43 c p3
370.32 510.82 0.43 c p3
370.46 510.82 0.43 c p3
370.61 511.16 0.43 c p3
370.75 511.05 0.43 c p3
370.90 511.29 0.43 c p3
371.04 510.58 0.43 c p3
371.19 510.92 0.43 c p3
371.34 510.82 0.43 c p3
371.48 510.92 0.43 c p3
371.63 511.05 0.43 c p3
371.77 510.58 0.43 c p3
371.92 511.16 0.43 c p3
372.06 511.29 0.43 c p3
372.21 510.58 0.43 c p3
372.35 511.16 0.43 c p3
372.50 510.82 0.43 c p3
372.65 510.92 0.43 c p3
372.79 510.82 0.43 c p3
372.94 511.05 0.43 c p3
373.08 510.69 0.43 c p3
373.23 511.05 0.43 c p3
373.37 510.58 0.43 c p3
373.52 511.16 0.43 c p3
373.66 510.45 0.43 c p3
373.81 511.16 0.43 c p3
373.96 510.58 0.43 c p3
374.10 510.92 0.43 c p3
374.25 511.05 0.43 c p3
374.39 510.92 0.43 c p3
374.54 510.69 0.43 c p3
374.68 510.69 0.43 c p3
374.83 510.58 0.43 c p3
374.98 511.40 0.43 c p3
375.12 510.82 0.43 c p3
375.27 511.40 0.43 c p3
375.41 510.82 0.43 c p3
375.56 510.92 0.43 c p3
375.70 511.05 0.43 c p3
375.85 510.92 0.43 c p3
375.99 511.16 0.43 c p3
376.14 510.92 0.43 c p3
376.29 510.92 0.43 c p3
376.43 510.69 0.43 c p3
376.58 510.92 0.43 c p3
376.72 511.05 0.43 c p3
376.87 510.92 0.43 c p3
377.01 510.34 0.43 c p3
377.16 510.34 0.43 c p3
377.30 511.05 0.43 c p3
377.45 510.69 0.43 c p3
377.60 510.69 0.43 c p3
377.74 510.82 0.43 c p3
377.89 511.16 0.43 c p3
378.03 510.82 0.43 c p3
378.18 510.11 0.43 c p3
378.32 510.58 0.43 c p3
378.47 511.16 0.43 c p3
378.61 510.92 0.43 c p3
378.76 510.92 0.43 c p3
378.91 510.45 0.43 c p3
379.05 510.92 0.43 c p3
379.20 510.82 0.43 c p3
379.34 511.05 0.43 c p3
379.49 509.74 0.43 c p3
379.63 511.29 0.43 c p3
379.78 511.05 0.43 c p3
379.93 511.40 0.43 c p3
380.07 510.69 0.43 c p3
380.22 511.29 0.43 c p3
380.36 510.92 0.43 c p3
380.51 510.82 0.43 c p3
380.65 510.45 0.43 c p3
380.80 510.82 0.43 c p3
380.94 510.58 0.43 c p3
381.09 511.40 0.43 c p3
381.24 510.45 0.43 c p3
381.38 510.82 0.43 c p3
381.53 510.45 0.43 c p3
381.67 511.05 0.43 c p3
381.82 510.21 0.43 c p3
381.96 510.92 0.43 c p3
382.11 510.92 0.43 c p3
382.25 510.58 0.43 c p3
382.40 509.98 0.43 c p3
0.00 0.00 432.00 576.00 cl
0 0 0 srgb
0.75 setlinewidth
[] 0 setdash
1 setlinecap
1 setlinejoin
10.00 setmiterlimit
np
236.96 345.60 m
145.59 0 l
o
np
236.96 345.60 m
0 -5.76 l
o
np
266.08 345.60 m
0 -5.76 l
o
np
295.19 345.60 m
0 -5.76 l
o
np
324.31 345.60 m
0 -5.76 l
o
np
353.43 345.60 m
0 -5.76 l
o
np
382.55 345.60 m
0 -5.76 l
o
/Font1 findfont 10 s
236.96 329.47 (0) .5 0 t
266.08 329.47 (2000) .5 0 t
324.31 329.47 (6000) .5 0 t
382.55 329.47 (10000) .5 0 t
np
216.00 352.00 m
0 161.49 l
o
np
216.00 352.00 m
-5.76 0 l
o
np
216.00 405.83 m
-5.76 0 l
o
np
216.00 459.66 m
-5.76 0 l
o
np
216.00 513.49 m
-5.76 0 l
o
209.09 348.41 (0.0) 1 0 t
209.09 402.24 (0.5) 1 0 t
209.09 456.07 (1.0) 1 0 t
209.09 509.90 (1.5) 1 0 t
np
216.00 345.60 m
172.80 0 l
0 172.80 l
-172.80 0 l
0 -172.80 l
o
0.00 0.00 432.00 576.00 cl
/Font1 findfont 10 s
0 0 0 srgb
302.40 313.34 (Zeit / ms \(total\)) .5 0 t
190.66 432.00 (U / V) .5 90 t
216.00 345.60 388.80 518.40 cl
0 0 0 srgb
0.38 setlinewidth
[ 1.12 1.88] 0 setdash
1 setlinecap
1 setlinejoin
10.00 setmiterlimit
np
223.71 345.60 m
0 172.80 l
o
np
234.77 345.60 m
0 172.80 l
o
np
239.58 345.60 m
0 172.80 l
o
np
310.19 345.60 m
0 172.80 l
o
86.40 57.60 388.80 288.00 cl
1 0 0 srgb
1.50 setlinewidth
[] 0 setdash
1 setlinecap
1 setlinejoin
10.00 setmiterlimit
np
97.60 279.47 m
1.41 -12.26 l
1.40 -11.54 l
1.41 -10.87 l
1.41 -10.25 l
1.41 -9.65 l
1.40 -9.09 l
1.41 -8.56 l
1.41 -8.07 l
1.40 -7.60 l
1.41 -7.15 l
1.41 -6.75 l
1.40 -6.35 l
1.41 -5.98 l
1.41 -5.64 l
1.41 -5.31 l
1.40 -5.00 l
1.41 -4.71 l
1.41 -4.44 l
1.40 -4.18 l
1.41 -3.94 l
1.41 -3.71 l
1.40 -3.49 l
1.41 -3.30 l
1.41 -3.10 l
1.41 -2.92 l
1.40 -2.75 l
1.41 -2.59 l
1.41 -2.45 l
1.40 -2.30 l
1.41 -2.17 l
1.41 -2.04 l
1.41 -1.92 l
1.40 -1.81 l
1.41 -1.71 l
1.41 -1.61 l
1.40 -1.51 l
1.41 -1.43 l
1.41 -1.34 l
1.40 -1.27 l
1.41 -1.19 l
1.41 -1.12 l
1.41 -1.06 l
1.40 -1.00 l
1.41 -0.94 l
1.41 -0.88 l
1.40 -0.83 l
1.41 -0.79 l
1.41 -0.74 l
1.40 -0.70 l
1.41 -0.65 l
1.41 -0.62 l
1.41 -0.58 l
1.40 -0.55 l
1.41 -0.52 l
1.41 -0.48 l
1.40 -0.46 l
1.41 -0.43 l
1.41 -0.41 l
1.41 -0.38 l
1.40 -0.37 l
1.41 -0.34 l
1.41 -0.32 l
1.40 -0.30 l
1.41 -0.28 l
1.41 -0.27 l
1.40 -0.25 l
1.41 -0.24 l
1.41 -0.22 l
1.41 -0.22 l
1.40 -0.19 l
1.41 -0.19 l
1.41 -0.18 l
1.40 -0.16 l
1.41 -0.16 l
1.41 -0.15 l
1.40 -0.14 l
1.41 -0.13 l
1.41 -0.12 l
1.41 -0.12 l
1.40 -0.11 l
1.41 -0.10 l
1.41 -0.10 l
1.40 -0.09 l
1.41 -0.08 l
1.41 -0.08 l
1.41 -0.08 l
1.40 -0.07 l
1.41 -0.07 l
1.41 -0.06 l
1.40 -0.06 l
1.41 -0.06 l
1.41 -0.05 l
1.40 -0.05 l
1.41 -0.05 l
1.41 -0.05 l
1.41 -0.04 l
1.40 -0.04 l
1.41 -0.04 l
1.41 -0.03 l
238.30 68.69 lineto
1.41 -0.03 l
1.41 -0.03 l
1.40 -0.03 l
1.41 -0.03 l
1.41 -0.02 l
1.41 -0.03 l
1.40 -0.02 l
1.41 -0.02 l
1.41 -0.02 l
1.40 -0.02 l
1.41 -0.01 l
1.41 -0.02 l
1.40 -0.01 l
1.41 -0.02 l
1.41 -0.01 l
1.41 -0.01 l
1.40 -0.02 l
1.41 -0.01 l
1.41 -0.01 l
1.40 -0.01 l
1.41 -0.01 l
1.41 -0.01 l
1.41 -0.01 l
1.40 0 l
1.41 -0.01 l
1.41 -0.01 l
1.40 0 l
1.41 -0.01 l
1.41 -0.01 l
1.40 0 l
1.41 -0.01 l
1.41 0 l
1.41 -0.01 l
1.40 0 l
1.41 -0.01 l
1.41 0 l
1.40 0 l
1.41 -0.01 l
1.41 0 l
1.40 0 l
1.41 -0.01 l
1.41 0 l
1.41 0 l
1.40 0 l
1.41 0 l
1.41 -0.01 l
1.40 0 l
1.41 0 l
1.41 0 l
1.41 0 l
1.40 -0.01 l
1.41 0 l
1.41 0 l
1.40 0 l
1.41 0 l
1.41 0 l
1.40 0 l
1.41 0 l
1.41 -0.01 l
1.41 0 l
1.40 0 l
1.41 0 l
1.41 0 l
1.40 0 l
1.41 0 l
1.41 0 l
1.40 0 l
1.41 0 l
1.41 0 l
1.41 0 l
1.40 0 l
1.41 0 l
1.41 0 l
1.40 -0.01 l
1.41 0 l
1.41 0 l
1.41 0 l
1.40 0 l
1.41 0 l
1.41 0 l
1.40 0 l
1.41 0 l
1.41 0 l
1.40 0 l
1.41 0 l
1.41 0 l
1.41 0 l
1.40 0 l
1.41 0 l
1.41 0 l
1.40 0 l
1.41 0 l
1.41 0 l
1.40 0 l
1.41 0 l
1.41 0 l
1.41 0 l
1.40 0 l
1.41 0 l
o
0.00 0.00 432.00 576.00 cl
0 0 0 srgb
0.75 setlinewidth
[] 0 setdash
1 setlinecap
1 setlinejoin
10.00 setmiterlimit
np
97.60 57.60 m
280.00 0 l
o
np
97.60 57.60 m
0 -5.76 l
o
np
153.60 57.60 m
0 -5.76 l
o
np
209.60 57.60 m
0 -5.76 l
o
np
265.60 57.60 m
0 -5.76 l
o
np
321.60 57.60 m
0 -5.76 l
o
np
377.60 57.60 m
0 -5.76 l
o
/Font1 findfont 10 s
97.60 41.47 (0) .5 0 t
153.60 41.47 (2000) .5 0 t
209.60 41.47 (4000) .5 0 t
265.60 41.47 (6000) .5 0 t
321.60 41.47 (8000) .5 0 t
377.60 41.47 (10000) .5 0 t
np
86.40 66.13 m
0 212.98 l
o
np
86.40 66.13 m
-5.76 0 l
o
np
86.40 119.38 m
-5.76 0 l
o
np
86.40 172.62 m
-5.76 0 l
o
np
86.40 225.87 m
-5.76 0 l
o
np
86.40 279.11 m
-5.76 0 l
o
79.49 62.54 (0.0) 1 0 t
79.49 115.79 (0.1) 1 0 t
79.49 169.03 (0.2) 1 0 t
79.49 222.28 (0.3) 1 0 t
79.49 275.52 (0.4) 1 0 t
np
86.40 57.60 m
302.40 0 l
0 230.40 l
-302.40 0 l
0 -230.40 l
o
0.00 0.00 432.00 576.00 cl
/Font1 findfont 10 s
0 0 0 srgb
237.60 13.82 (Zeit / ms \(nach Puls\)) .5 0 t
49.54 172.80 (Absorbanz A) .5 90 t
86.40 57.60 388.80 288.00 cl
/bg { 1 1 1 srgb } def
0 0 0 srgb
0.75 setlinewidth
[] 0 setdash
1 setlinecap
1 setlinejoin
10.00 setmiterlimit
102.92 247.40 0.65 c p3
103.20 242.92 0.65 c p3
103.48 242.59 0.65 c p3
103.76 239.66 0.65 c p3
104.04 236.76 0.65 c p3
104.32 232.88 0.65 c p3
104.60 229.36 0.65 c p3
104.88 229.36 0.65 c p3
105.16 225.52 0.65 c p3
105.44 223.47 0.65 c p3
105.72 219.51 0.65 c p3
106.00 217.51 0.65 c p3
106.28 217.14 0.65 c p3
106.56 214.88 0.65 c p3
106.84 209.34 0.65 c p3
107.12 209.98 0.65 c p3
107.40 208.14 0.65 c p3
107.68 205.88 0.65 c p3
107.96 204.35 0.65 c p3
108.24 200.63 0.65 c p3
108.52 200.01 0.65 c p3
108.80 199.67 0.65 c p3
109.08 196.62 0.65 c p3
109.36 195.75 0.65 c p3
109.64 193.68 0.65 c p3
109.92 190.72 0.65 c p3
110.20 188.63 0.65 c p3
110.48 187.46 0.65 c p3
110.76 187.20 0.65 c p3
111.04 185.15 0.65 c p3
111.32 184.00 0.65 c p3
111.60 181.78 0.65 c p3
111.88 180.33 0.65 c p3
112.16 179.77 0.65 c p3
112.44 178.09 0.65 c p3
112.72 178.09 0.65 c p3
113.00 175.31 0.65 c p3
113.28 173.12 0.65 c p3
113.56 172.57 0.65 c p3
113.84 170.70 0.65 c p3
114.12 169.92 0.65 c p3
114.40 169.92 0.65 c p3
114.68 166.71 0.65 c p3
114.96 166.18 0.65 c p3
115.24 165.65 0.65 c p3
115.52 163.25 0.65 c p3
115.80 160.93 0.65 c p3
116.08 162.49 0.65 c p3
116.36 160.64 0.65 c p3
116.64 159.38 0.65 c p3
116.92 156.59 0.65 c p3
117.20 156.31 0.65 c p3
117.48 155.80 0.65 c p3
117.76 155.07 0.65 c p3
118.04 151.56 0.65 c p3
118.32 154.29 0.65 c p3
118.60 151.78 0.65 c p3
118.88 150.56 0.65 c p3
119.16 148.59 0.65 c p3
119.44 149.36 0.65 c p3
119.72 147.61 0.65 c p3
120.00 145.93 0.65 c p3
120.28 145.17 0.65 c p3
120.56 144.47 0.65 c p3
120.84 142.76 0.65 c p3
121.12 142.76 0.65 c p3
121.40 143.03 0.65 c p3
121.68 142.76 0.65 c p3
121.96 140.38 0.65 c p3
122.24 139.01 0.65 c p3
122.52 139.22 0.65 c p3
122.80 137.60 0.65 c p3
123.08 137.13 0.65 c p3
123.36 137.60 0.65 c p3
123.64 134.09 0.65 c p3
123.92 135.01 0.65 c p3
124.20 133.42 0.65 c p3
124.48 132.96 0.65 c p3
124.76 132.50 0.65 c p3
125.04 132.71 0.65 c p3
125.32 129.97 0.65 c p3
125.60 130.88 0.65 c p3
125.88 129.31 0.65 c p3
126.16 129.31 0.65 c p3
126.44 129.11 0.65 c p3
126.72 128.66 0.65 c p3
127.00 126.61 0.65 c p3
127.28 126.61 0.65 c p3
127.56 127.06 0.65 c p3
127.84 126.61 0.65 c p3
128.12 123.75 0.65 c p3
128.40 124.19 0.65 c p3
128.68 124.19 0.65 c p3
128.96 123.75 0.65 c p3
129.24 122.87 0.65 c p3
129.52 121.99 0.65 c p3
129.80 121.55 0.65 c p3
130.08 120.87 0.65 c p3
130.36 119.81 0.65 c p3
130.64 119.38 0.65 c p3
130.92 119.62 0.65 c p3
131.20 117.89 0.65 c p3
131.48 117.22 0.65 c p3
131.76 117.22 0.65 c p3
132.04 116.36 0.65 c p3
132.32 117.03 0.65 c p3
132.60 115.75 0.65 c p3
132.88 114.90 0.65 c p3
133.16 114.47 0.65 c p3
133.44 114.90 0.65 c p3
133.72 113.81 0.65 c p3
134.00 113.39 0.65 c p3
134.28 112.97 0.65 c p3
134.56 112.13 0.65 c p3
134.84 112.55 0.65 c p3
135.12 111.29 0.65 c p3
135.40 111.10 0.65 c p3
135.68 110.27 0.65 c p3
135.96 109.44 0.65 c p3
136.24 109.85 0.65 c p3
136.52 109.44 0.65 c p3
136.80 108.42 0.65 c p3
137.08 108.19 0.65 c p3
137.36 108.19 0.65 c p3
137.64 107.19 0.65 c p3
137.92 107.19 0.65 c p3
138.20 106.78 0.65 c p3
138.48 106.55 0.65 c p3
138.76 105.73 0.65 c p3
139.04 105.32 0.65 c p3
139.32 104.51 0.65 c p3
139.60 104.73 0.65 c p3
139.88 104.51 0.65 c p3
140.16 104.33 0.65 c p3
140.44 103.70 0.65 c p3
140.72 103.11 0.65 c p3
141.00 101.90 0.65 c p3
141.28 102.13 0.65 c p3
141.56 101.73 0.65 c p3
141.84 102.13 0.65 c p3
142.12 100.92 0.65 c p3
142.40 100.13 0.65 c p3
142.68 100.70 0.65 c p3
142.96 101.10 0.65 c p3
143.24 100.52 0.65 c p3
143.52 100.13 0.65 c p3
143.80 98.93 0.65 c p3
144.08 100.52 0.65 c p3
144.36 97.92 0.65 c p3
144.64 98.54 0.65 c p3
144.92 98.14 0.65 c p3
145.20 98.14 0.65 c p3
145.48 97.75 0.65 c p3
145.76 97.53 0.65 c p3
146.04 97.13 0.65 c p3
146.32 97.92 0.65 c p3
146.60 96.17 0.65 c p3
146.88 96.17 0.65 c p3
147.16 96.17 0.65 c p3
147.44 96.17 0.65 c p3
147.72 94.22 0.65 c p3
148.00 94.39 0.65 c p3
148.28 94.78 0.65 c p3
148.56 94.61 0.65 c p3
148.84 94.22 0.65 c p3
149.12 93.83 0.65 c p3
149.40 93.27 0.65 c p3
149.68 93.45 0.65 c p3
149.96 92.29 0.65 c p3
150.24 93.66 0.65 c p3
150.52 91.73 0.65 c p3
150.80 93.66 0.65 c p3
151.08 92.11 0.65 c p3
151.36 91.90 0.65 c p3
151.64 91.52 0.65 c p3
151.92 91.52 0.65 c p3
152.20 90.75 0.65 c p3
152.48 90.37 0.65 c p3
152.76 90.96 0.65 c p3
153.04 90.37 0.65 c p3
153.32 90.37 0.65 c p3
153.60 90.37 0.65 c p3
153.88 89.99 0.65 c p3
154.16 88.46 0.65 c p3
154.44 89.43 0.65 c p3
154.72 89.43 0.65 c p3
155.00 88.30 0.65 c p3
155.28 88.67 0.65 c p3
155.56 88.84 0.65 c p3
155.84 88.67 0.65 c p3
156.12 87.92 0.65 c p3
156.40 87.16 0.65 c p3
156.68 87.54 0.65 c p3
156.96 87.33 0.65 c p3
157.24 87.16 0.65 c p3
157.52 86.58 0.65 c p3
157.80 86.58 0.65 c p3
158.08 87.16 0.65 c p3
158.36 86.58 0.65 c p3
158.64 86.41 0.65 c p3
158.92 85.49 0.65 c p3
159.20 85.66 0.65 c p3
159.48 85.12 0.65 c p3
159.76 85.66 0.65 c p3
160.04 84.75 0.65 c p3
160.32 85.83 0.65 c p3
160.60 83.79 0.65 c p3
160.88 85.28 0.65 c p3
161.16 84.54 0.65 c p3
161.44 84.54 0.65 c p3
161.72 84.17 0.65 c p3
162.00 83.79 0.65 c p3
162.28 83.42 0.65 c p3
162.56 83.42 0.65 c p3
162.84 83.42 0.65 c p3
163.12 82.89 0.65 c p3
163.40 84.00 0.65 c p3
163.68 82.31 0.65 c p3
163.96 82.68 0.65 c p3
164.24 81.94 0.65 c p3
164.52 82.52 0.65 c p3
164.80 82.89 0.65 c p3
165.08 81.41 0.65 c p3
165.36 82.52 0.65 c p3
165.64 81.78 0.65 c p3
165.92 82.15 0.65 c p3
166.20 81.41 0.65 c p3
166.48 81.41 0.65 c p3
166.76 80.11 0.65 c p3
167.04 80.84 0.65 c p3
167.32 81.21 0.65 c p3
167.60 81.04 0.65 c p3
167.88 80.68 0.65 c p3
168.16 80.84 0.65 c p3
168.44 79.95 0.65 c p3
168.72 80.47 0.65 c p3
169.00 79.95 0.65 c p3
169.28 80.11 0.65 c p3
169.56 79.22 0.65 c p3
169.84 80.11 0.65 c p3
170.12 79.38 0.65 c p3
170.40 79.22 0.65 c p3
170.68 79.58 0.65 c p3
170.96 79.74 0.65 c p3
171.24 79.58 0.65 c p3
171.52 78.85 0.65 c p3
171.80 78.65 0.65 c p3
172.08 79.01 0.65 c p3
172.36 79.22 0.65 c p3
172.64 77.97 0.65 c p3
172.92 77.76 0.65 c p3
173.20 78.29 0.65 c p3
173.48 79.38 0.65 c p3
173.76 77.40 0.65 c p3
174.04 78.29 0.65 c p3
174.32 77.76 0.65 c p3
174.60 77.40 0.65 c p3
174.88 77.40 0.65 c p3
175.16 77.04 0.65 c p3
175.44 77.76 0.65 c p3
175.72 77.60 0.65 c p3
176.00 77.04 0.65 c p3
176.28 76.52 0.65 c p3
176.56 77.04 0.65 c p3
176.84 77.40 0.65 c p3
177.12 77.76 0.65 c p3
177.40 75.96 0.65 c p3
177.68 76.32 0.65 c p3
177.96 75.60 0.65 c p3
178.24 75.96 0.65 c p3
178.52 76.32 0.65 c p3
178.80 75.60 0.65 c p3
179.08 75.24 0.65 c p3
179.36 76.32 0.65 c p3
179.64 75.24 0.65 c p3
179.92 75.60 0.65 c p3
180.20 75.24 0.65 c p3
180.48 76.88 0.65 c p3
180.76 75.96 0.65 c p3
181.04 74.53 0.65 c p3
181.32 74.53 0.65 c p3
181.60 75.80 0.65 c p3
181.88 74.73 0.65 c p3
182.16 75.24 0.65 c p3
182.44 75.44 0.65 c p3
182.72 74.89 0.65 c p3
183.00 74.73 0.65 c p3
183.28 74.53 0.65 c p3
183.56 74.17 0.65 c p3
183.84 74.73 0.65 c p3
184.12 74.89 0.65 c p3
184.40 73.30 0.65 c p3
184.68 74.89 0.65 c p3
184.96 74.01 0.65 c p3
185.24 74.17 0.65 c p3
185.52 73.66 0.65 c p3
185.80 74.01 0.65 c p3
186.08 74.37 0.65 c p3
186.36 73.46 0.65 c p3
186.64 74.01 0.65 c p3
186.92 73.46 0.65 c p3
187.20 73.11 0.65 c p3
187.48 73.11 0.65 c p3
187.76 73.66 0.65 c p3
188.04 72.75 0.65 c p3
188.32 73.66 0.65 c p3
188.60 72.75 0.65 c p3
188.88 73.30 0.65 c p3
189.16 72.75 0.65 c p3
189.44 73.30 0.65 c p3
189.72 72.24 0.65 c p3
190.00 72.59 0.65 c p3
190.28 71.18 0.65 c p3
190.56 73.30 0.65 c p3
190.84 72.40 0.65 c p3
191.12 72.04 0.65 c p3
191.40 71.89 0.65 c p3
191.68 73.30 0.65 c p3
191.96 72.40 0.65 c p3
192.24 72.04 0.65 c p3
192.52 71.89 0.65 c p3
192.80 72.04 0.65 c p3
193.08 71.53 0.65 c p3
193.36 72.04 0.65 c p3
193.64 71.69 0.65 c p3
193.92 72.24 0.65 c p3
194.20 71.69 0.65 c p3
194.48 72.24 0.65 c p3
194.76 71.18 0.65 c p3
195.04 71.53 0.65 c p3
195.32 71.69 0.65 c p3
195.60 71.53 0.65 c p3
195.88 71.34 0.65 c p3
196.16 71.34 0.65 c p3
196.44 71.69 0.65 c p3
196.72 71.89 0.65 c p3
197.00 70.64 0.65 c p3
197.28 70.32 0.65 c p3
197.56 71.34 0.65 c p3
197.84 71.18 0.65 c p3
198.12 70.99 0.65 c p3
198.40 70.83 0.65 c p3
198.68 70.48 0.65 c p3
198.96 70.83 0.65 c p3
199.24 70.83 0.65 c p3
199.52 70.13 0.65 c p3
199.80 69.78 0.65 c p3
200.08 71.18 0.65 c p3
200.36 70.32 0.65 c p3
200.64 70.99 0.65 c p3
200.92 70.13 0.65 c p3
201.20 70.13 0.65 c p3
201.48 69.62 0.65 c p3
201.76 70.99 0.65 c p3
202.04 69.78 0.65 c p3
202.32 70.48 0.65 c p3
202.60 69.43 0.65 c p3
202.88 70.48 0.65 c p3
203.16 69.78 0.65 c p3
203.44 69.43 0.65 c p3
203.72 70.32 0.65 c p3
204.00 70.13 0.65 c p3
204.28 69.08 0.65 c p3
204.56 70.64 0.65 c p3
204.84 69.08 0.65 c p3
205.12 69.97 0.65 c p3
205.40 69.43 0.65 c p3
205.68 69.78 0.65 c p3
205.96 68.93 0.65 c p3
206.24 69.62 0.65 c p3
206.52 69.08 0.65 c p3
206.80 70.64 0.65 c p3
207.08 69.43 0.65 c p3
207.36 69.43 0.65 c p3
207.64 70.13 0.65 c p3
207.92 69.43 0.65 c p3
208.20 68.93 0.65 c p3
208.48 69.08 0.65 c p3
208.76 68.73 0.65 c p3
209.04 69.08 0.65 c p3
209.32 69.62 0.65 c p3
209.60 68.58 0.65 c p3
209.88 68.39 0.65 c p3
210.16 69.62 0.65 c p3
210.44 68.73 0.65 c p3
210.72 69.97 0.65 c p3
211.00 68.23 0.65 c p3
211.28 69.78 0.65 c p3
211.56 68.39 0.65 c p3
211.84 69.08 0.65 c p3
212.12 68.39 0.65 c p3
212.40 69.43 0.65 c p3
212.68 69.08 0.65 c p3
212.96 69.28 0.65 c p3
213.24 68.04 0.65 c p3
213.52 68.58 0.65 c p3
213.80 68.39 0.65 c p3
214.08 68.39 0.65 c p3
214.36 68.04 0.65 c p3
214.64 68.73 0.65 c p3
214.92 68.23 0.65 c p3
215.20 68.23 0.65 c p3
215.48 67.88 0.65 c p3
215.76 68.93 0.65 c p3
216.04 67.54 0.65 c p3
216.32 68.23 0.65 c p3
216.60 67.00 0.65 c p3
216.88 68.39 0.65 c p3
217.16 67.19 0.65 c p3
217.44 67.69 0.65 c p3
217.72 68.23 0.65 c p3
218.00 68.04 0.65 c p3
218.28 67.88 0.65 c p3
218.56 68.04 0.65 c p3
218.84 68.04 0.65 c p3
219.12 68.04 0.65 c p3
219.40 67.88 0.65 c p3
219.68 68.23 0.65 c p3
219.96 67.88 0.65 c p3
220.24 67.69 0.65 c p3
220.52 67.88 0.65 c p3
220.80 67.35 0.65 c p3
221.08 68.23 0.65 c p3
221.36 68.58 0.65 c p3
221.64 67.69 0.65 c p3
221.92 67.88 0.65 c p3
222.20 67.69 0.65 c p3
222.48 67.69 0.65 c p3
222.76 68.04 0.65 c p3
223.04 67.69 0.65 c p3
223.32 67.54 0.65 c p3
223.60 68.39 0.65 c p3
223.88 68.23 0.65 c p3
224.16 67.35 0.65 c p3
224.44 67.00 0.65 c p3
224.72 67.69 0.65 c p3
225.00 67.88 0.65 c p3
225.28 68.04 0.65 c p3
225.56 67.35 0.65 c p3
225.84 67.19 0.65 c p3
226.12 67.54 0.65 c p3
226.40 67.69 0.65 c p3
226.68 67.69 0.65 c p3
226.96 67.19 0.65 c p3
227.24 67.19 0.65 c p3
227.52 67.19 0.65 c p3
227.80 67.54 0.65 c p3
228.08 67.35 0.65 c p3
228.36 67.35 0.65 c p3
228.64 68.39 0.65 c p3
228.92 67.19 0.65 c p3
229.20 66.31 0.65 c p3
229.48 67.35 0.65 c p3
229.76 67.69 0.65 c p3
230.04 66.85 0.65 c p3
230.32 67.19 0.65 c p3
230.60 67.19 0.65 c p3
230.88 66.85 0.65 c p3
231.16 66.65 0.65 c p3
231.44 66.65 0.65 c p3
231.72 67.00 0.65 c p3
232.00 67.00 0.65 c p3
232.28 66.65 0.65 c p3
232.56 66.16 0.65 c p3
232.84 67.19 0.65 c p3
233.12 66.65 0.65 c p3
233.40 66.31 0.65 c p3
233.68 66.50 0.65 c p3
233.96 67.00 0.65 c p3
234.24 66.85 0.65 c p3
234.52 66.50 0.65 c p3
234.80 66.65 0.65 c p3
235.08 66.85 0.65 c p3
235.36 67.35 0.65 c p3
235.64 67.35 0.65 c p3
235.92 66.85 0.65 c p3
236.20 66.85 0.65 c p3
236.48 67.00 0.65 c p3
236.76 66.31 0.65 c p3
237.04 67.19 0.65 c p3
237.32 66.16 0.65 c p3
237.60 67.00 0.65 c p3
237.88 66.65 0.65 c p3
238.16 66.65 0.65 c p3
238.44 66.50 0.65 c p3
238.72 67.54 0.65 c p3
216.00 201.60 367.20 247.68 cl
0 0 0 srgb
0.75 setlinewidth
[] 0 setdash
1 setlinecap
1 setlinejoin
10.00 setmiterlimit
221.60 238.86 0.43 c p1
221.89 235.54 0.43 c p1
222.18 237.73 0.43 c p1
222.47 236.41 0.43 c p1
222.75 235.11 0.43 c p1
223.04 232.46 0.43 c p1
223.33 230.28 0.43 c p1
223.62 232.76 0.43 c p1
223.91 230.08 0.43 c p1
224.20 229.76 0.43 c p1
224.49 226.85 0.43 c p1
224.78 226.55 0.43 c p1
225.06 228.39 0.43 c p1
225.35 227.67 0.43 c p1
225.64 222.57 0.43 c p1
225.93 225.67 0.43 c p1
226.22 225.43 0.43 c p1
226.51 224.63 0.43 c p1
226.80 224.75 0.43 c p1
227.08 221.93 0.43 c p1
227.37 223.23 0.43 c p1
227.66 224.87 0.43 c p1
227.95 222.88 0.43 c p1
228.24 223.76 0.43 c p1
228.53 223.03 0.43 c p1
228.82 221.06 0.43 c p1
229.11 220.25 0.43 c p1
229.39 220.65 0.43 c p1
229.68 222.23 0.43 c p1
229.97 221.39 0.43 c p1
230.26 221.74 0.43 c p1
230.55 220.64 0.43 c p1
230.84 220.55 0.43 c p1
231.13 221.62 0.43 c p1
231.41 221.17 0.43 c p1
231.70 222.95 0.43 c p1
231.99 221.00 0.43 c p1
232.28 219.80 0.43 c p1
232.57 220.78 0.43 c p1
232.86 219.98 0.43 c p1
233.15 220.61 0.43 c p1
233.44 222.26 0.43 c p1
233.72 219.61 0.43 c p1
234.01 220.51 0.43 c p1
234.30 221.40 0.43 c p1
234.59 219.77 0.43 c p1
234.88 218.24 0.43 c p1
235.17 221.86 0.43 c p1
235.46 220.92 0.43 c p1
235.74 220.73 0.43 c p1
236.03 218.50 0.43 c p1
236.32 219.59 0.43 c p1
236.61 220.36 0.43 c p1
236.90 220.82 0.43 c p1
237.19 217.55 0.43 c p1
237.48 222.58 0.43 c p1
237.76 220.62 0.43 c p1
238.05 220.37 0.43 c p1
238.34 219.08 0.43 c p1
238.63 221.44 0.43 c p1
238.92 220.43 0.43 c p1
239.21 219.49 0.43 c p1
239.50 219.77 0.43 c p1
239.79 220.11 0.43 c p1
240.07 219.08 0.43 c p1
240.36 220.32 0.43 c p1
240.65 221.91 0.43 c p1
240.94 222.76 0.43 c p1
241.23 220.78 0.43 c p1
241.52 220.14 0.43 c p1
241.81 221.59 0.43 c p1
242.09 220.59 0.43 c p1
242.38 221.10 0.43 c p1
242.67 222.86 0.43 c p1
242.96 219.28 0.43 c p1
243.25 221.62 0.43 c p1
243.54 220.59 0.43 c p1
243.83 221.05 0.43 c p1
244.12 221.50 0.43 c p1
244.40 222.83 0.43 c p1
244.69 220.21 0.43 c p1
244.98 222.45 0.43 c p1
245.27 221.38 0.43 c p1
245.56 222.39 0.43 c p1
245.85 223.11 0.43 c p1
246.14 223.49 0.43 c p1
246.42 221.72 0.43 c p1
246.71 222.68 0.43 c p1
247.00 224.22 0.43 c p1
247.29 224.56 0.43 c p1
247.58 221.66 0.43 c p1
247.87 223.16 0.43 c p1
248.16 224.06 0.43 c p1
248.45 224.37 0.43 c p1
248.73 224.07 0.43 c p1
249.02 223.77 0.43 c p1
249.31 224.04 0.43 c p1
249.60 223.99 0.43 c p1
249.89 223.41 0.43 c p1
250.18 223.66 0.43 c p1
250.47 224.80 0.43 c p1
250.75 223.30 0.43 c p1
251.04 223.21 0.43 c p1
251.33 224.00 0.43 c p1
251.62 223.64 0.43 c p1
251.91 225.30 0.43 c p1
252.20 224.35 0.43 c p1
252.49 223.97 0.43 c p1
252.78 224.14 0.43 c p1
253.06 225.45 0.43 c p1
253.35 224.73 0.43 c p1
253.64 224.88 0.43 c p1
253.93 225.03 0.43 c p1
254.22 224.61 0.43 c p1
254.51 225.87 0.43 c p1
254.80 224.87 0.43 c p1
255.08 225.30 0.43 c p1
255.37 224.86 0.43 c p1
255.66 224.41 0.43 c p1
255.95 225.62 0.43 c p1
256.24 225.71 0.43 c p1
256.53 225.00 0.43 c p1
256.82 225.32 0.43 c p1
257.11 225.95 0.43 c p1
257.39 225.22 0.43 c p1
257.68 225.83 0.43 c p1
257.97 225.88 0.43 c p1
258.26 226.17 0.43 c p1
258.55 225.67 0.43 c p1
258.84 225.70 0.43 c p1
259.13 225.19 0.43 c p1
259.41 226.06 0.43 c p1
259.70 226.32 0.43 c p1
259.99 226.63 0.43 c p1
260.28 226.33 0.43 c p1
260.57 226.10 0.43 c p1
260.86 225.02 0.43 c p1
261.15 225.84 0.43 c p1
261.44 225.83 0.43 c p1
261.72 226.88 0.43 c p1
262.01 225.78 0.43 c p1
262.30 225.22 0.43 c p1
262.59 226.49 0.43 c p1
262.88 227.51 0.43 c p1
263.17 227.23 0.43 c p1
263.46 227.18 0.43 c p1
263.74 226.06 0.43 c p1
264.03 228.65 0.43 c p1
264.32 225.64 0.43 c p1
264.61 226.92 0.43 c p1
264.90 226.84 0.43 c p1
265.19 227.29 0.43 c p1
265.48 227.20 0.43 c p1
265.76 227.35 0.43 c p1
266.05 227.25 0.43 c p1
266.34 228.73 0.43 c p1
266.63 226.82 0.43 c p1
266.92 227.24 0.43 c p1
267.21 227.65 0.43 c p1
267.50 228.05 0.43 c p1
267.79 225.85 0.43 c p1
268.07 226.48 0.43 c p1
268.36 227.39 0.43 c p1
268.65 227.55 0.43 c p1
268.94 227.41 0.43 c p1
269.23 227.27 0.43 c p1
269.52 226.90 0.43 c p1
269.81 227.50 0.43 c p1
270.09 226.32 0.43 c p1
270.38 228.51 0.43 c p1
270.67 226.29 0.43 c p1
270.96 229.22 0.43 c p1
271.25 227.51 0.43 c p1
271.54 227.56 0.43 c p1
271.83 227.39 0.43 c p1
272.12 227.73 0.43 c p1
272.40 227.04 0.43 c p1
272.69 226.85 0.43 c p1
272.98 227.97 0.43 c p1
273.27 227.50 0.43 c p1
273.56 227.81 0.43 c p1
273.85 228.13 0.43 c p1
274.14 227.93 0.43 c p1
274.42 226.20 0.43 c p1
274.71 227.80 0.43 c p1
275.00 228.10 0.43 c p1
275.29 226.87 0.43 c p1
275.58 227.67 0.43 c p1
275.87 228.18 0.43 c p1
276.16 228.24 0.43 c p1
276.45 227.51 0.43 c p1
276.73 226.78 0.43 c p1
277.02 227.56 0.43 c p1
277.31 227.55 0.43 c p1
277.60 227.60 0.43 c p1
277.89 227.08 0.43 c p1
278.18 227.34 0.43 c p1
278.47 228.38 0.43 c p1
278.75 227.86 0.43 c p1
279.04 227.89 0.43 c p1
279.33 226.91 0.43 c p1
279.62 227.38 0.43 c p1
279.91 226.90 0.43 c p1
280.20 227.87 0.43 c p1
280.49 226.88 0.43 c p1
280.78 228.56 0.43 c p1
281.06 226.08 0.43 c p1
281.35 228.30 0.43 c p1
281.64 227.53 0.43 c p1
281.93 227.76 0.43 c p1
282.22 227.48 0.43 c p1
282.51 227.20 0.43 c p1
282.80 226.92 0.43 c p1
283.08 227.14 0.43 c p1
283.37 227.35 0.43 c p1
283.66 226.84 0.43 c p1
283.95 228.54 0.43 c p1
284.24 226.49 0.43 c p1
284.53 227.18 0.43 c p1
284.82 226.40 0.43 c p1
285.11 227.36 0.43 c p1
285.39 228.05 0.43 c p1
285.68 226.27 0.43 c p1
285.97 227.94 0.43 c p1
286.26 227.14 0.43 c p1
286.55 227.82 0.43 c p1
286.84 227.02 0.43 c p1
287.13 227.20 0.43 c p1
287.41 225.64 0.43 c p1
287.70 226.79 0.43 c p1
287.99 227.46 0.43 c p1
288.28 227.41 0.43 c p1
288.57 227.09 0.43 c p1
288.86 227.48 0.43 c p1
289.15 226.45 0.43 c p1
289.44 227.32 0.43 c p1
289.72 226.78 0.43 c p1
290.01 227.15 0.43 c p1
290.30 226.12 0.43 c p1
290.59 227.47 0.43 c p1
290.88 226.65 0.43 c p1
291.17 226.59 0.43 c p1
291.46 227.23 0.43 c p1
291.74 227.59 0.43 c p1
292.03 227.52 0.43 c p1
292.32 226.70 0.43 c p1
292.61 226.57 0.43 c p1
292.90 227.20 0.43 c p1
293.19 227.61 0.43 c p1
293.48 226.08 0.43 c p1
293.76 225.95 0.43 c p1
294.05 226.79 0.43 c p1
294.34 228.38 0.43 c p1
294.63 225.87 0.43 c p1
294.92 227.19 0.43 c p1
295.21 226.62 0.43 c p1
295.50 226.26 0.43 c p1
295.79 226.39 0.43 c p1
296.07 226.03 0.43 c p1
296.36 227.12 0.43 c p1
296.65 227.03 0.43 c p1
296.94 226.40 0.43 c p1
297.23 225.82 0.43 c p1
297.52 226.64 0.43 c p1
297.81 227.24 0.43 c p1
298.09 227.83 0.43 c p1
298.38 225.54 0.43 c p1
298.67 226.13 0.43 c p1
298.96 225.29 0.43 c p1
299.25 225.88 0.43 c p1
299.54 226.46 0.43 c p1
299.83 225.61 0.43 c p1
300.12 225.24 0.43 c p1
300.40 226.78 0.43 c p1
300.69 225.45 0.43 c p1
300.98 226.03 0.43 c p1
301.27 225.65 0.43 c p1
301.56 227.94 0.43 c p1
301.85 226.81 0.43 c p1
302.14 224.99 0.43 c p1
302.42 225.09 0.43 c p1
302.71 226.88 0.43 c p1
303.00 225.55 0.43 c p1
303.29 226.33 0.43 c p1
303.58 226.68 0.43 c p1
303.87 226.03 0.43 c p1
304.16 225.91 0.43 c p1
304.45 225.73 0.43 c p1
304.73 225.35 0.43 c p1
305.02 226.17 0.43 c p1
305.31 226.47 0.43 c p1
305.60 224.44 0.43 c p1
305.89 226.64 0.43 c p1
306.18 225.56 0.43 c p1
306.47 225.85 0.43 c p1
306.75 225.25 0.43 c p1
307.04 225.80 0.43 c p1
307.33 226.35 0.43 c p1
307.62 225.22 0.43 c p1
307.91 226.03 0.43 c p1
308.20 225.37 0.43 c p1
308.49 224.97 0.43 c p1
308.78 225.05 0.43 c p1
309.06 225.86 0.43 c p1
309.35 224.72 0.43 c p1
309.64 226.00 0.43 c p1
309.93 224.86 0.43 c p1
310.22 225.67 0.43 c p1
310.51 225.00 0.43 c p1
310.80 225.81 0.43 c p1
311.08 224.46 0.43 c p1
311.37 224.99 0.43 c p1
311.66 223.18 0.43 c p1
311.95 226.07 0.43 c p1
312.24 224.93 0.43 c p1
312.53 224.52 0.43 c p1
312.82 224.37 0.43 c p1
313.11 226.32 0.43 c p1
313.39 225.18 0.43 c p1
313.68 224.77 0.43 c p1
313.97 224.62 0.43 c p1
314.26 224.89 0.43 c p1
314.55 224.26 0.43 c p1
314.84 225.00 0.43 c p1
315.13 224.59 0.43 c p1
315.41 225.38 0.43 c p1
315.70 224.70 0.43 c p1
315.99 225.49 0.43 c p1
316.28 224.13 0.43 c p1
316.57 224.66 0.43 c p1
316.86 224.92 0.43 c p1
317.15 224.76 0.43 c p1
317.44 224.55 0.43 c p1
317.72 224.60 0.43 c p1
318.01 225.12 0.43 c p1
318.30 225.44 0.43 c p1
318.59 223.82 0.43 c p1
318.88 223.45 0.43 c p1
319.17 224.85 0.43 c p1
319.46 224.69 0.43 c p1
319.74 224.48 0.43 c p1
320.03 224.32 0.43 c p1
320.32 223.89 0.43 c p1
320.61 224.41 0.43 c p1
320.90 224.45 0.43 c p1
321.19 223.56 0.43 c p1
321.48 223.14 0.43 c p1
321.76 225.05 0.43 c p1
322.05 223.95 0.43 c p1
322.34 224.88 0.43 c p1
322.63 223.78 0.43 c p1
322.92 223.82 0.43 c p1
323.21 223.18 0.43 c p1
323.50 225.04 0.43 c p1
323.79 223.47 0.43 c p1
324.07 224.45 0.43 c p1
324.36 223.08 0.43 c p1
324.65 224.52 0.43 c p1
324.94 223.63 0.43 c p1
325.23 223.20 0.43 c p1
325.52 224.43 0.43 c p1
325.81 224.21 0.43 c p1
326.09 222.84 0.43 c p1
326.38 224.95 0.43 c p1
326.67 222.91 0.43 c p1
326.96 224.14 0.43 c p1
327.25 223.45 0.43 c p1
327.54 223.95 0.43 c p1
327.83 222.85 0.43 c p1
328.12 223.81 0.43 c p1
328.40 223.12 0.43 c p1
328.69 225.23 0.43 c p1
328.98 223.65 0.43 c p1
329.27 223.68 0.43 c p1
329.56 224.65 0.43 c p1
329.85 223.74 0.43 c p1
330.14 223.10 0.43 c p1
330.42 223.34 0.43 c p1
330.71 222.91 0.43 c p1
331.00 223.40 0.43 c p1
331.29 224.15 0.43 c p1
331.58 222.79 0.43 c p1
331.87 222.56 0.43 c p1
332.16 224.24 0.43 c p1
332.45 223.08 0.43 c p1
332.73 224.76 0.43 c p1
333.02 222.46 0.43 c p1
333.31 224.56 0.43 c p1
333.60 222.72 0.43 c p1
333.89 223.68 0.43 c p1
334.18 222.78 0.43 c p1
334.47 224.20 0.43 c p1
334.75 223.76 0.43 c p1
335.04 224.04 0.43 c p1
335.33 222.41 0.43 c p1
335.62 223.16 0.43 c p1
335.91 222.93 0.43 c p1
336.20 222.95 0.43 c p1
336.49 222.51 0.43 c p1
336.78 223.46 0.43 c p1
337.06 222.81 0.43 c p1
337.35 222.84 0.43 c p1
337.64 222.40 0.43 c p1
337.93 223.81 0.43 c p1
338.22 221.98 0.43 c p1
338.51 222.93 0.43 c p1
338.80 221.30 0.43 c p1
339.08 223.17 0.43 c p1
339.37 221.60 0.43 c p1
339.66 222.29 0.43 c p1
339.95 223.03 0.43 c p1
340.24 222.79 0.43 c p1
340.53 222.61 0.43 c p1
340.82 222.83 0.43 c p1
341.11 222.85 0.43 c p1
341.39 222.87 0.43 c p1
341.68 222.69 0.43 c p1
341.97 223.17 0.43 c p1
342.26 222.72 0.43 c p1
342.55 222.49 0.43 c p1
342.84 222.76 0.43 c p1
343.13 222.06 0.43 c p1
343.41 223.26 0.43 c p1
343.70 223.74 0.43 c p1
343.99 222.57 0.43 c p1
344.28 222.85 0.43 c p1
344.57 222.61 0.43 c p1
344.86 222.63 0.43 c p1
345.15 223.10 0.43 c p1
345.44 222.66 0.43 c p1
345.72 222.47 0.43 c p1
346.01 223.62 0.43 c p1
346.30 223.43 0.43 c p1
346.59 222.26 0.43 c p1
346.88 221.81 0.43 c p1
347.17 222.75 0.43 c p1
347.46 223.03 0.43 c p1
347.74 223.25 0.43 c p1
348.03 222.34 0.43 c p1
348.32 222.15 0.43 c p1
348.61 222.62 0.43 c p1
348.90 222.84 0.43 c p1
349.19 222.86 0.43 c p1
349.48 222.20 0.43 c p1
349.76 222.22 0.43 c p1
350.05 222.23 0.43 c p1
350.34 222.70 0.43 c p1
350.63 222.46 0.43 c p1
350.92 222.47 0.43 c p1
351.21 223.87 0.43 c p1
351.50 222.29 0.43 c p1
351.79 221.13 0.43 c p1
352.07 222.52 0.43 c p1
352.36 223.00 0.43 c p1
352.65 221.88 0.43 c p1
352.94 222.36 0.43 c p1
353.23 222.37 0.43 c p1
353.52 221.92 0.43 c p1
353.81 221.67 0.43 c p1
354.09 221.69 0.43 c p1
354.38 222.16 0.43 c p1
354.67 222.17 0.43 c p1
354.96 221.72 0.43 c p1
355.25 221.07 0.43 c p1
355.54 222.46 0.43 c p1
355.83 221.75 0.43 c p1
356.12 221.30 0.43 c p1
356.40 221.57 0.43 c p1
356.69 222.24 0.43 c p1
356.98 222.05 0.43 c p1
357.27 221.60 0.43 c p1
357.56 221.81 0.43 c p1
357.85 222.08 0.43 c p1
358.14 222.76 0.43 c p1
358.42 222.76 0.43 c p1
358.71 222.11 0.43 c p1
359.00 222.12 0.43 c p1
359.29 222.33 0.43 c p1
359.58 221.42 0.43 c p1
359.87 222.61 0.43 c p1
360.16 221.23 0.43 c p1
360.45 222.37 0.43 c p1
360.73 221.92 0.43 c p1
361.02 221.92 0.43 c p1
361.31 221.73 0.43 c p1
361.60 223.12 0.43 c p1
0.00 0.00 432.00 576.00 cl
0 0 0 srgb
0.75 setlinewidth
[] 0 setdash
1 setlinecap
1 setlinejoin
10.00 setmiterlimit
np
216.12 201.60 m
144.33 0 l
o
np
216.12 201.60 m
0 -5.76 l
o
np
244.98 201.60 m
0 -5.76 l
o
np
273.85 201.60 m
0 -5.76 l
o
np
302.71 201.60 m
0 -5.76 l
o
np
331.58 201.60 m
0 -5.76 l
o
np
360.45 201.60 m
0 -5.76 l
o
/Font1 findfont 6 s
216.12 185.47 (0) .5 0 t
244.98 185.47 (1000) .5 0 t
273.85 185.47 (2000) .5 0 t
302.71 185.47 (3000) .5 0 t
331.58 185.47 (4000) .5 0 t
360.45 185.47 (5000) .5 0 t
np
216.00 203.33 m
0 42.62 l
o
np
216.00 203.33 m
-5.76 0 l
o
np
216.00 210.43 m
-5.76 0 l
o
np
216.00 217.54 m
-5.76 0 l
o
np
216.00 224.64 m
-5.76 0 l
o
np
216.00 231.74 m
-5.76 0 l
o
np
216.00 238.85 m
-5.76 0 l
o
np
216.00 245.95 m
-5.76 0 l
o
209.09 201.17 (-0.03) 1 0 t
209.09 208.28 (-0.02) 1 0 t
209.09 215.38 (-0.01) 1 0 t
209.09 222.49 (0.00) 1 0 t
209.09 229.59 (0.01) 1 0 t
209.09 236.70 (0.02) 1 0 t
209.09 243.80 (0.03) 1 0 t
np
216.00 201.60 m
151.20 0 l
0 46.08 l
-151.20 0 l
0 -46.08 l
o
0.00 0.00 432.00 576.00 cl
/Font1 findfont 9 s
0 0 0 srgb
291.60 262.88 (Residuen) .5 0 t
59.04 73.44 401.76 516.96 cl
ep
%%Trailer
%%Pages: 1
%%EOF
