%!PS-Adobe-3.0 EPSF-3.0
%%DocumentNeededResources: font Helvetica
%%+ font Helvetica-Bold
%%+ font Helvetica-Oblique
%%+ font Helvetica-BoldOblique
%%+ font Symbol
%%Title: R Graphics Output
%%Creator: R Software
%%Pages: (atend)
%%BoundingBox: 0 0 432 576
%%EndComments
%%BeginProlog
/bp  { gs sRGB gs } def
% begin .ps.prolog
/gs  { gsave } bind def
/gr  { grestore } bind def
/ep  { showpage gr gr } bind def
/m   { moveto } bind def
/l  { rlineto } bind def
/np  { newpath } bind def
/cp  { closepath } bind def
/f   { fill } bind def
/o   { stroke } bind def
/c   { newpath 0 360 arc } bind def
/r   { 4 2 roll moveto 1 copy 3 -1 roll exch 0 exch rlineto 0 rlineto -1 mul 0 exch rlineto closepath } bind def
/p1  { stroke } bind def
/p2  { gsave bg fill grestore newpath } bind def
/p3  { gsave bg fill grestore stroke } bind def
/p6  { gsave bg eofill grestore newpath } bind def
/p7  { gsave bg eofill grestore stroke } bind def
/t   { 5 -2 roll moveto gsave rotate
       1 index stringwidth pop
       mul neg 0 rmoveto show grestore } bind def
/ta  { 4 -2 roll moveto gsave rotate show } bind def
/tb  { 2 -1 roll 0 rmoveto show } bind def
/cl  { grestore gsave newpath 3 index 3 index moveto 1 index
       4 -1 roll lineto  exch 1 index lineto lineto
       closepath clip newpath } bind def
/rgb { setrgbcolor } bind def
/s   { scalefont setfont } bind def
% end   .ps.prolog
/sRGB { [ /CIEBasedABC
          << /DecodeLMN
               [ { dup 0.03928 le
                        {12.92321 div}
                        {0.055 add 1.055 div 2.4 exp }
                     ifelse
                 } bind dup dup
               ]
             /MatrixLMN [0.412457 0.212673 0.019334
                         0.357576 0.715152 0.119192
                         0.180437 0.072175 0.950301]
             /WhitePoint [0.9505 1.0 1.0890]
           >>
         ] setcolorspace } bind def
/srgb { setcolor } bind def
%%IncludeResource: font Helvetica
/Helvetica findfont
dup length dict begin
  {1 index /FID ne {def} {pop pop} ifelse} forall
  /Encoding ISOLatin1Encoding def
  currentdict
  end
/Font1 exch definefont pop
%%IncludeResource: font Helvetica-Bold
/Helvetica-Bold findfont
dup length dict begin
  {1 index /FID ne {def} {pop pop} ifelse} forall
  /Encoding ISOLatin1Encoding def
  currentdict
  end
/Font2 exch definefont pop
%%IncludeResource: font Helvetica-Oblique
/Helvetica-Oblique findfont
dup length dict begin
  {1 index /FID ne {def} {pop pop} ifelse} forall
  /Encoding ISOLatin1Encoding def
  currentdict
  end
/Font3 exch definefont pop
%%IncludeResource: font Helvetica-BoldOblique
/Helvetica-BoldOblique findfont
dup length dict begin
  {1 index /FID ne {def} {pop pop} ifelse} forall
  /Encoding ISOLatin1Encoding def
  currentdict
  end
/Font4 exch definefont pop
%%IncludeResource: font Symbol
/Symbol findfont
dup length dict begin
  {1 index /FID ne {def} {pop pop} ifelse} forall
  currentdict
  end
/Font5 exch definefont pop
%%EndProlog
%%Page: 1 1
bp
0.00 0.00 432.00 576.00 cl
0.00 0.00 432.00 576.00 cl
0.00 0.00 432.00 576.00 cl
/Font1 findfont 12 s
0 0 0 srgb
48.00 508.72 (PCP-ETH) 0 0 t
48.00 494.89 (Blitzlicht-Photolyse) 0 0 t
/Font1 findfont 9 s
48.00 457.54 (File: Dy) 0 ta
-0.180 (e_1_4_V2_900V) tb
-1.125 (.dat) tb gr
48.00 334.87 (T) 0 ta
-1.080 (ue Apr  9 22:09:11 2019) tb gr
48.00 430.87 (Fitfunktion:  a + b * e) 0 ta
-0.270 (xp\(-c * t\)) tb gr
48.00 420.50 (t-Inter) 0 ta
0.270 (v) tb
-0.225 (all: 180.000 ... 5640.000 ms) tb gr
48.00 410.14 (P) 0 ta
-0.360 (ar) tb
-0.090 (ameter \(Standardabw) tb
-0.090 (eichung\):) tb gr
48.00 399.77 (  a = -0.00440 \(0.00045\)) 0 0 t
48.00 389.40 (  b = 0.41169 \(0.00221\)) 0 0 t
48.00 379.03 (  c = 1.171e+00 \(9.349e-03\) s^-1) 0 0 t
48.00 368.66 (  tau = 8.538e-01 \(6.815e-03\) s) 0 0 t
216.00 345.60 388.80 518.40 cl
0 0 0 srgb
0.75 setlinewidth
[] 0 setdash
1 setlinecap
1 setlinejoin
10.00 setmiterlimit
np
222.40 508.08 m
0.15 -0.60 l
0.14 0.69 l
0.15 -0.69 l
0.14 0.49 l
0.15 -0.20 l
0.14 0.31 l
0.15 -0.51 l
0.14 0.60 l
0.15 -0.29 l
0.15 0 l
0.14 0.09 l
0.15 0 l
0.14 -0.20 l
0.15 0.31 l
0.14 0 l
0.15 -0.11 l
0.14 -0.09 l
0.15 0.49 l
0.15 -0.49 l
0.14 0.49 l
0.15 -0.40 l
0.14 0.51 l
0.15 -0.40 l
0.14 0.20 l
0.15 0.09 l
0.15 -0.40 l
0.14 -0.20 l
0.15 0.20 l
0.14 0.20 l
0.15 -0.40 l
0.14 0.11 l
0.15 0.29 l
0.14 -0.20 l
0.15 -0.09 l
0.15 -0.20 l
0.14 0.49 l
0.15 0.11 l
0.14 -0.11 l
0.15 -0.60 l
0.14 0.51 l
0.15 -0.20 l
0.14 0.20 l
0.15 0.09 l
0.15 -0.29 l
0.14 0.29 l
0.15 -0.09 l
0.14 0 l
0.15 0.09 l
0.14 -0.29 l
0.15 0.20 l
0.14 -0.20 l
0.15 0.29 l
0.15 -0.40 l
0.14 0.40 l
0.15 -0.09 l
0.14 0.20 l
0.15 -0.20 l
0.14 0 l
0.15 0 l
0.15 0.40 l
0.14 -0.80 l
0.15 0.69 l
0.14 -0.49 l
0.15 0.20 l
0.14 -0.31 l
0.15 0.51 l
0.14 -0.20 l
0.15 0.20 l
0.15 -0.71 l
0.14 0.60 l
0.15 -0.40 l
0.14 0.71 l
0.15 -0.40 l
0.14 0.20 l
0.15 -0.11 l
0.14 0.11 l
0.15 -0.31 l
0.15 0.31 l
0.14 -0.51 l
0.15 0.31 l
0.14 0.40 l
0.15 -0.20 l
0.14 -0.31 l
0.15 0.40 l
0.14 -0.69 l
0.15 0.69 l
0.15 -0.20 l
0.14 -0.20 l
0.15 -0.60 l
0.14 0.51 l
0.15 0.20 l
0.14 0.61 l
0.15 -0.52 l
0.15 0.31 l
0.14 -0.60 l
0.15 0.49 l
0.14 -0.29 l
0.15 0.20 l
0.14 -0.20 l
236.96 393.42 lineto
0.14 1.40 l
0.15 1.20 l
0.15 2.42 l
0.14 1.30 l
0.15 1.81 l
0.14 1.72 l
0.15 1.30 l
0.14 1.91 l
0.15 1.11 l
0.14 2.11 l
0.15 1.41 l
0.15 0.90 l
0.14 1.90 l
0.15 1.01 l
0.14 1.12 l
0.15 1.59 l
0.14 0.71 l
0.15 1.50 l
0.14 0.61 l
0.15 1.70 l
0.15 0.71 l
0.14 1.21 l
0.15 1.59 l
0.14 0.61 l
0.15 0.60 l
0.14 1.61 l
0.15 0.90 l
0.15 1.12 l
0.14 0.49 l
0.15 1.01 l
0.14 1.01 l
0.15 1.09 l
0.14 0.52 l
0.15 1.30 l
0.14 0.20 l
0.15 0.72 l
0.15 1.29 l
0.14 0.81 l
0.15 0.40 l
0.14 1.71 l
0.15 0.60 l
0.14 0.49 l
0.15 0.92 l
0.14 0.40 l
0.15 0.90 l
0.15 0.60 l
0.14 0.12 l
0.15 1.70 l
0.14 0.20 l
0.15 0.69 l
0.14 1.01 l
0.15 0.61 l
0.14 0.40 l
0.15 1.30 l
0.15 -0.20 l
0.14 0.51 l
0.15 1.21 l
0.14 0.60 l
0.15 0.21 l
0.14 0.60 l
0.15 -0.31 l
0.15 1.90 l
0.14 0.20 l
0.15 0.31 l
0.14 0.50 l
0.15 0.71 l
0.14 0.70 l
0.15 0.80 l
0.14 0 l
0.15 0 l
0.15 1.21 l
0.14 0.41 l
0.15 0.09 l
0.14 1.00 l
0.15 -0.20 l
0.14 0.92 l
0.15 0.29 l
0.14 0.52 l
0.15 0.49 l
0.15 0.89 l
0.14 -0.09 l
0.15 0.41 l
0.14 0.60 l
0.15 0.29 l
0.14 0.41 l
0.15 0.11 l
0.14 0.40 l
0.15 1.30 l
0.15 -0.20 l
0.14 0.49 l
0.15 0.72 l
0.14 0.69 l
0.15 0.20 l
0.14 0.20 l
0.15 -0.29 l
0.15 0.70 l
0.14 0 l
0.15 1.41 l
0.14 -0.81 l
251.52 471.70 lineto
0.14 0.20 l
0.15 0.29 l
0.14 0.81 l
0.15 0 l
0.15 0.40 l
0.14 0.51 l
0.15 0.50 l
0.14 -0.09 l
0.15 0.29 l
0.14 0.11 l
0.15 0.69 l
0.14 0.32 l
0.15 0.09 l
0.15 0.69 l
0.14 -0.29 l
0.15 1.10 l
0.14 -0.29 l
0.15 0.49 l
0.14 0 l
0.15 0.72 l
0.14 0.09 l
0.15 -0.09 l
0.15 0.60 l
0.14 0 l
0.15 0.09 l
0.14 0.92 l
0.15 0.29 l
0.14 0.31 l
0.15 -0.40 l
0.14 0.40 l
0.15 0.18 l
0.15 0 l
0.14 0.31 l
0.15 0.50 l
0.14 0.20 l
0.15 0.60 l
0.14 -0.40 l
0.15 0.20 l
0.15 0.52 l
0.14 0.09 l
0.15 0.40 l
0.14 0.20 l
0.15 0.20 l
0.14 0.41 l
0.15 0 l
0.14 0.51 l
0.15 0.09 l
0.15 0.20 l
0.14 -0.49 l
0.15 1.10 l
0.14 -0.21 l
0.15 0.30 l
0.14 0.31 l
0.15 0 l
0.14 0 l
0.15 0.20 l
0.15 0.40 l
0.14 0.41 l
0.15 0.20 l
0.14 0.40 l
0.15 -0.40 l
0.14 0.29 l
0.15 0.51 l
0.14 -0.11 l
0.15 0.32 l
0.15 0.29 l
0.14 0.40 l
0.15 -0.20 l
0.14 -0.29 l
0.15 0.80 l
0.14 0.20 l
0.15 0.18 l
0.15 0.21 l
0.14 0.20 l
0.15 0.11 l
0.14 0.09 l
0.15 0.31 l
0.14 0.29 l
0.15 -0.20 l
0.14 0.20 l
0.15 0.41 l
0.15 0 l
0.14 0.31 l
0.15 0.29 l
0.14 0.20 l
0.15 0 l
0.14 -0.09 l
0.15 0.50 l
0.14 -0.61 l
0.15 0.92 l
0.15 0.20 l
0.14 -0.20 l
0.15 0.29 l
0.14 0.60 l
0.15 -0.69 l
0.14 0.90 l
0.15 -0.21 l
0.14 0 l
0.15 -0.09 l
266.08 493.60 lineto
0.14 0.31 l
0.15 -0.20 l
0.14 0.49 l
0.15 0.40 l
0.14 0.11 l
0.15 -0.71 l
0.15 0.40 l
0.14 0.20 l
0.15 0.81 l
0.14 -0.70 l
0.15 0.50 l
0.14 0.31 l
0.15 -0.40 l
0.14 0.20 l
0.15 0.09 l
0.15 0.51 l
0.14 -0.20 l
0.15 0.20 l
0.14 0.50 l
0.15 -0.09 l
0.14 0 l
0.15 0.40 l
0.14 0.29 l
0.15 -0.29 l
0.15 0.20 l
0.14 -0.11 l
0.15 -0.09 l
0.14 0.40 l
0.15 0.29 l
0.14 0.50 l
0.15 -0.70 l
0.14 1.10 l
0.15 -0.69 l
0.15 0.49 l
0.14 0 l
0.15 0.31 l
0.14 0.20 l
0.15 0.09 l
0.14 -0.40 l
0.15 0.40 l
0.15 0.11 l
0.14 -0.11 l
0.15 -0.29 l
0.14 0.40 l
0.15 0.21 l
0.14 0.20 l
0.15 0 l
0.14 0.49 l
0.15 -0.20 l
0.15 0.51 l
0.14 -0.31 l
0.15 0.11 l
0.14 -0.11 l
0.15 0.20 l
0.14 0 l
0.15 0.40 l
0.14 0 l
0.15 0.32 l
0.15 0.09 l
0.14 0.11 l
0.15 -0.11 l
0.14 0.51 l
0.15 -0.60 l
0.14 0.29 l
0.15 -0.09 l
0.14 0.49 l
0.15 -0.20 l
0.15 0.52 l
0.14 -0.52 l
0.15 0.11 l
0.14 0.09 l
0.15 0.90 l
0.14 -0.49 l
0.15 0.11 l
0.15 0.09 l
0.14 0.11 l
0.15 0.29 l
0.14 0.09 l
0.15 -0.49 l
0.14 0.49 l
0.15 0.20 l
0.14 -0.09 l
0.15 0.29 l
0.15 0.52 l
0.14 -0.41 l
0.15 0.09 l
0.14 -0.40 l
0.15 0.72 l
0.14 -0.41 l
0.15 0.30 l
0.14 -0.21 l
0.15 0.41 l
0.15 0.31 l
0.14 0.09 l
0.15 -0.40 l
0.14 0.20 l
0.15 0 l
0.14 0.40 l
0.15 -0.09 l
280.63 504.37 lineto
0.15 -0.21 l
0.15 0 l
0.14 -0.11 l
0.15 0.20 l
0.14 0.32 l
0.15 0 l
0.14 -0.12 l
0.15 0.61 l
0.15 -0.20 l
0.14 -0.29 l
0.15 0.09 l
0.14 0.31 l
0.15 -0.20 l
0.14 0.09 l
0.15 -0.41 l
0.14 0.61 l
0.15 0 l
0.15 0.11 l
0.14 -0.20 l
0.15 0.40 l
0.14 0.09 l
0.15 -0.29 l
0.14 0 l
0.15 0.40 l
0.14 0 l
0.15 0.21 l
0.15 -0.92 l
0.14 0.71 l
0.15 0.21 l
0.14 0.29 l
0.15 0 l
0.14 0.20 l
0.15 -0.40 l
0.14 0.20 l
0.15 0 l
0.15 0.11 l
0.14 0.09 l
0.15 0.20 l
0.14 0 l
0.15 -0.29 l
0.14 0 l
0.15 0.69 l
0.14 -0.40 l
0.15 -0.20 l
0.15 0.09 l
0.14 0.51 l
0.15 -0.20 l
0.14 0.29 l
0.15 -0.20 l
0.14 0.20 l
0.15 0 l
0.15 -0.09 l
0.14 0.29 l
0.15 -0.40 l
0.14 0.20 l
0.15 0.41 l
0.14 -0.21 l
0.15 0.52 l
0.14 -0.72 l
0.15 0.41 l
0.15 -0.09 l
0.14 0.40 l
0.15 0 l
0.14 0 l
0.15 -0.52 l
0.14 0.52 l
0.15 -0.11 l
0.14 -0.41 l
0.15 0.21 l
0.15 0.51 l
0.14 0.20 l
0.15 0.40 l
0.14 -0.80 l
0.15 0.80 l
0.14 -0.60 l
0.15 0.20 l
0.14 -0.20 l
0.15 -0.31 l
0.15 0.31 l
0.14 0.49 l
0.15 -0.40 l
0.14 0.51 l
0.15 0 l
0.14 -0.11 l
0.15 -0.20 l
0.15 0.40 l
0.14 -0.09 l
0.15 0 l
0.14 0.09 l
0.15 0.41 l
0.14 -0.70 l
0.15 0.29 l
0.14 0.52 l
0.15 0.09 l
0.15 -0.40 l
0.14 0 l
0.15 -0.21 l
0.14 0.41 l
0.15 0 l
295.19 508.48 lineto
0.15 0 l
0.14 0.70 l
0.15 -0.40 l
0.15 0.20 l
0.14 0.11 l
0.15 0.40 l
0.14 -0.60 l
0.15 0 l
0.14 0.20 l
0.15 0.09 l
0.14 0.40 l
0.15 -0.20 l
0.15 -0.40 l
0.14 0.40 l
0.15 0 l
0.14 -0.40 l
0.15 0.31 l
0.14 0.29 l
0.15 -0.20 l
0.15 -0.09 l
0.14 -0.20 l
0.15 0.49 l
0.14 -0.40 l
0.15 0 l
0.14 0.40 l
0.15 -0.09 l
0.14 0.20 l
0.15 0 l
0.15 0.09 l
0.14 -0.29 l
0.15 0.29 l
0.14 0 l
0.15 -0.09 l
0.14 0 l
0.15 0.50 l
0.14 -0.29 l
0.15 0.20 l
0.15 -0.20 l
0.14 -0.12 l
0.15 0.41 l
0.14 -0.09 l
0.15 0 l
0.14 -0.20 l
0.15 0.20 l
0.14 -0.52 l
0.15 0.32 l
0.15 0.08 l
0.14 -0.20 l
0.15 0.12 l
0.14 0.29 l
0.15 0.11 l
0.14 -0.11 l
0.15 0.31 l
0.15 -0.31 l
0.14 0.11 l
0.15 -0.32 l
0.14 0.21 l
0.15 0.40 l
0.14 -0.49 l
0.15 0.09 l
0.14 0.60 l
0.15 -0.20 l
0.15 -0.29 l
0.14 -0.20 l
0.15 0.20 l
0.14 0 l
0.15 -0.20 l
0.14 0.29 l
0.15 -0.09 l
0.14 0.38 l
0.15 -0.38 l
0.15 -0.11 l
0.14 0.40 l
0.15 0 l
0.14 -0.40 l
0.15 0.60 l
0.14 -0.11 l
0.15 0.20 l
0.14 -0.29 l
0.15 0.20 l
0.15 0.09 l
0.14 -0.49 l
0.15 0.20 l
0.14 0.09 l
0.15 0 l
0.14 0.20 l
0.15 -0.20 l
0.15 0.31 l
0.14 -0.60 l
0.15 0.60 l
0.14 0.20 l
0.15 -0.60 l
0.14 0.60 l
0.15 -0.40 l
0.14 -0.20 l
0.15 0.60 l
0.15 -0.60 l
0.14 0.40 l
0.15 -0.11 l
309.75 510.99 lineto
0.15 -0.49 l
0.14 0.29 l
0.15 -0.29 l
0.14 0.18 l
0.15 0.31 l
0.15 0.29 l
0.14 -0.49 l
0.15 0.09 l
0.14 0.20 l
0.15 0 l
0.14 0 l
0.15 -0.09 l
0.14 -0.11 l
0.15 0.52 l
0.15 -0.41 l
0.14 -0.11 l
0.15 0.20 l
0.14 0.20 l
0.15 -0.09 l
0.14 -0.20 l
0.15 0.20 l
0.15 -0.40 l
0.14 0.20 l
0.15 0.41 l
0.14 -0.52 l
0.15 0 l
0.14 0.20 l
0.15 0.41 l
0.14 -0.30 l
0.15 -0.11 l
0.15 0.20 l
0.14 0.21 l
0.15 -0.70 l
0.14 0 l
0.15 0.61 l
0.14 0 l
0.15 -0.52 l
0.14 0.40 l
0.15 -0.09 l
0.15 0.21 l
0.14 -0.61 l
0.15 0.70 l
0.14 -0.21 l
0.15 0.21 l
0.14 -0.70 l
0.15 0.20 l
0.14 0.41 l
0.15 -0.21 l
0.15 0.09 l
0.14 -0.29 l
0.15 -0.11 l
0.14 0 l
0.15 0.52 l
0.14 0 l
0.15 -0.52 l
0.15 0.20 l
0.14 0.11 l
0.15 0.21 l
0.14 -0.32 l
0.15 -0.20 l
0.14 0.11 l
0.15 0.50 l
0.14 -0.09 l
0.15 -0.32 l
0.15 0 l
0.14 0.41 l
0.15 -0.41 l
0.14 0.11 l
0.15 0.30 l
0.14 -0.30 l
0.15 0 l
0.14 0 l
0.15 0.41 l
0.15 0 l
0.14 -0.20 l
0.15 -0.52 l
0.14 0.61 l
0.15 0 l
0.14 -0.41 l
0.15 -0.20 l
0.14 -0.29 l
0.15 0.69 l
0.15 -0.09 l
0.14 -0.20 l
0.15 0.09 l
0.14 0.52 l
0.15 -0.61 l
0.14 0.61 l
0.15 -0.32 l
0.14 0.21 l
0.15 -0.30 l
0.15 0.09 l
0.14 0.61 l
0.15 -0.09 l
0.14 -0.31 l
0.15 0.11 l
0.14 -0.32 l
0.15 0.32 l
0.15 -0.61 l
324.31 511.28 lineto
0.15 0 l
0.14 -0.49 l
0.15 0 l
0.14 0.81 l
0.15 -0.32 l
0.14 -0.20 l
0.15 0.52 l
0.15 -0.20 l
0.14 -0.32 l
0.15 0.20 l
0.14 -0.20 l
0.15 0.92 l
0.14 -0.51 l
0.15 -0.21 l
0.14 0.41 l
0.15 -0.09 l
0.15 -0.20 l
0.14 0.20 l
0.15 -0.32 l
0.14 -0.09 l
0.15 -0.20 l
0.14 0.20 l
0.15 0.09 l
0.14 -0.09 l
0.15 -0.31 l
0.15 0.81 l
0.14 -0.41 l
0.15 0.61 l
0.14 -0.81 l
0.15 -0.29 l
0.14 0.09 l
0.15 0.40 l
0.15 -0.09 l
0.14 0.09 l
0.15 -0.29 l
0.14 0.41 l
0.15 -0.21 l
0.14 0 l
0.15 0.50 l
0.14 -0.50 l
0.15 0.30 l
0.15 0.11 l
0.14 -0.20 l
0.15 0 l
0.14 0.09 l
0.15 -0.21 l
0.14 -0.20 l
0.15 0.72 l
0.14 -0.61 l
0.15 0.09 l
0.15 0.21 l
0.14 -0.09 l
0.15 -0.12 l
0.14 0.12 l
0.15 -0.41 l
0.14 0 l
0.15 0 l
0.14 0.29 l
0.15 -0.09 l
0.15 0.41 l
0.14 -0.52 l
0.15 0.32 l
0.14 0.09 l
0.15 -0.30 l
0.14 0.21 l
0.15 0.20 l
0.15 -0.41 l
0.14 0.09 l
0.15 -0.09 l
0.14 0 l
0.15 0.09 l
0.14 -0.09 l
0.15 -0.20 l
0.14 0.20 l
0.15 -0.11 l
0.15 0.20 l
0.14 -0.09 l
0.15 0.21 l
0.14 -0.52 l
0.15 0.11 l
0.14 0.20 l
0.15 0.09 l
0.14 -0.49 l
0.15 0.29 l
0.15 -0.40 l
0.14 0.81 l
0.15 -0.21 l
0.14 -0.40 l
0.15 -0.29 l
0.14 0.81 l
0.15 -0.52 l
0.14 0.40 l
0.15 -0.29 l
0.15 0.29 l
0.14 0.12 l
0.15 -0.21 l
0.14 -0.20 l
0.15 0.09 l
0.14 -0.49 l
338.87 511.08 lineto
0.15 -0.09 l
0.14 0 l
0.15 -0.11 l
0.14 0.40 l
0.15 -0.29 l
0.14 0.29 l
0.15 -0.40 l
0.14 0.61 l
0.15 -0.50 l
0.15 0 l
0.14 0.41 l
0.15 -0.52 l
0.14 0.20 l
0.15 -0.09 l
0.14 0.09 l
0.15 0.11 l
0.14 -0.20 l
0.15 -0.11 l
0.15 -0.38 l
0.14 0.58 l
0.15 -0.09 l
0.14 0 l
0.15 -0.31 l
0.14 0.60 l
0.15 -0.40 l
0.14 0.31 l
0.15 -0.20 l
0.15 -0.20 l
0.14 0.09 l
0.15 0.52 l
0.14 -0.61 l
0.15 0.40 l
0.14 -0.31 l
0.15 0.31 l
0.15 -0.40 l
0.14 0.09 l
0.15 -0.20 l
0.14 0.20 l
0.15 0 l
0.14 0 l
0.15 -0.38 l
0.14 0.29 l
0.15 0 l
0.15 0.20 l
0.14 -0.11 l
0.15 0.52 l
0.14 -0.41 l
0.15 -0.40 l
0.14 0.09 l
0.15 -0.09 l
0.14 0.20 l
0.15 0.09 l
0.15 0.11 l
0.14 0.29 l
0.15 -0.60 l
0.14 -0.09 l
0.15 0 l
0.14 0.29 l
0.15 -0.38 l
0.14 0.38 l
0.15 -0.38 l
0.15 0.38 l
0.14 -0.20 l
0.15 0 l
0.14 0.20 l
0.15 -0.49 l
0.14 0.40 l
0.15 0.20 l
0.15 -0.31 l
0.14 0 l
0.15 0.31 l
0.14 -0.20 l
0.15 -0.20 l
0.14 0.09 l
0.15 0.11 l
0.14 0.09 l
0.15 0.20 l
0.15 -0.09 l
0.14 -0.31 l
0.15 -0.09 l
0.14 -0.40 l
0.15 0.20 l
0.14 0.11 l
0.15 0.38 l
0.14 -0.29 l
0.15 0.09 l
0.15 0.31 l
0.14 -0.40 l
0.15 0.40 l
0.14 -0.40 l
0.15 0.20 l
0.14 0 l
0.15 -0.20 l
0.14 0.40 l
0.15 -0.60 l
0.15 0.49 l
0.14 -0.09 l
0.15 0.20 l
0.14 -0.69 l
353.43 510.50 lineto
0.14 0 l
0.15 0.09 l
0.14 0 l
0.15 0 l
0.15 0.09 l
0.14 0.11 l
0.15 -0.20 l
0.14 0.20 l
0.15 -0.20 l
0.14 -0.09 l
0.15 0 l
0.15 0.29 l
0.14 -0.20 l
0.15 0.09 l
0.14 -0.18 l
0.15 -0.11 l
0.14 0.49 l
0.15 -0.29 l
0.14 -0.09 l
0.15 0.38 l
0.15 -0.20 l
0.14 -0.09 l
0.15 0.09 l
0.14 0.11 l
0.15 -0.11 l
0.14 -0.09 l
0.15 -0.20 l
0.14 0 l
0.15 0.11 l
0.15 -0.20 l
0.14 0 l
0.15 0.20 l
0.14 0.29 l
0.15 0 l
0.14 -0.60 l
0.15 0.40 l
0.14 -0.09 l
0.15 0.29 l
0.15 -0.60 l
0.14 0.20 l
0.15 -0.29 l
0.14 0.49 l
0.15 -0.09 l
0.14 -0.11 l
0.15 -0.09 l
0.15 -0.11 l
0.14 0.20 l
0.15 0.20 l
0.14 -0.20 l
0.15 0.11 l
0.14 -0.40 l
0.15 0.29 l
0.14 0 l
0.15 0.40 l
0.15 -0.29 l
0.14 -0.31 l
0.15 0.11 l
0.14 0 l
0.15 0.29 l
0.14 -0.29 l
0.15 -0.40 l
0.14 0.49 l
0.15 -0.09 l
0.15 0.09 l
0.14 0.20 l
0.15 -0.09 l
0.14 -0.20 l
0.15 0.49 l
0.14 -0.69 l
0.15 0.20 l
0.14 0.09 l
0.15 -0.29 l
0.15 0 l
0.14 0.49 l
0.15 -0.40 l
0.14 -0.21 l
0.15 0 l
0.14 0.41 l
0.15 0 l
0.15 -0.09 l
0.14 0.49 l
0.15 -0.60 l
0.14 0.31 l
0.15 -0.40 l
0.14 0 l
0.15 0.09 l
0.14 -0.09 l
0.15 0.49 l
0.15 -0.49 l
0.14 0.20 l
0.15 0.20 l
0.14 -0.20 l
0.15 -0.32 l
0.14 0.32 l
0.15 -0.40 l
0.14 0.20 l
0.15 0.29 l
0.15 -0.29 l
0.14 0.09 l
currentpoint o m
367.99 509.98 lineto
0.14 0.41 l
0.15 -0.20 l
0.14 0.31 l
0.15 -0.40 l
0.14 0.09 l
0.15 0.11 l
0.15 0 l
0.14 0 l
0.15 -0.11 l
0.14 -0.09 l
0.15 0.09 l
0.14 0 l
0.15 0 l
0.15 -0.09 l
0.14 0.20 l
0.15 -0.40 l
0.14 0 l
0.15 0.69 l
0.14 -0.90 l
0.15 0.61 l
0.14 -0.40 l
0.15 0.20 l
0.15 -0.20 l
0.14 0.08 l
0.15 0.21 l
0.14 0.11 l
0.15 -0.20 l
0.14 0 l
0.15 -0.12 l
0.14 0 l
0.15 0.21 l
0.15 0 l
0.14 0.11 l
0.15 -0.11 l
0.14 -0.50 l
0.15 0.29 l
0.14 0.21 l
0.15 -0.09 l
0.14 -0.32 l
0.15 0 l
0.15 -0.20 l
0.14 0.61 l
0.15 -0.41 l
0.14 0.41 l
0.15 -0.50 l
0.14 0.41 l
0.15 -0.41 l
0.15 0.50 l
0.14 -0.09 l
0.15 -0.32 l
0.14 0.12 l
0.15 -0.21 l
0.14 0.09 l
0.15 0.32 l
0.14 -0.32 l
0.15 0.12 l
0.15 0.60 l
0.14 -0.60 l
0.15 -0.21 l
0.14 0.21 l
0.15 -0.21 l
0.14 0.29 l
0.15 0 l
0.14 0 l
0.15 0.12 l
0.15 -0.52 l
0.14 0.52 l
0.15 -0.41 l
0.14 -0.20 l
0.15 0.81 l
0.14 -0.20 l
0.15 0 l
0.14 0 l
0.15 -0.52 l
0.15 0.20 l
0.14 0.12 l
0.15 0.08 l
0.14 -0.40 l
0.15 0 l
0.14 0.40 l
0.15 -0.20 l
0.15 0.12 l
0.14 -0.12 l
0.15 0.12 l
0.14 -0.21 l
0.15 0.29 l
0.14 0 l
0.15 -0.08 l
0.14 -0.32 l
0.15 0.61 l
0.15 -0.41 l
0.14 0 l
0.15 -0.40 l
0.14 0.20 l
0.15 -0.09 l
0.14 0.49 l
0.15 -0.49 l
0.14 0.29 l
0.15 -0.20 l
o
/bg { 1 1 1 srgb } def
222.40 508.08 0.43 c p3
222.55 507.48 0.43 c p3
222.69 508.17 0.43 c p3
222.84 507.48 0.43 c p3
222.98 507.97 0.43 c p3
223.13 507.77 0.43 c p3
223.27 508.08 0.43 c p3
223.42 507.57 0.43 c p3
223.56 508.17 0.43 c p3
223.71 507.88 0.43 c p3
223.86 507.88 0.43 c p3
224.00 507.97 0.43 c p3
224.15 507.97 0.43 c p3
224.29 507.77 0.43 c p3
224.44 508.08 0.43 c p3
224.58 508.08 0.43 c p3
224.73 507.97 0.43 c p3
224.87 507.88 0.43 c p3
225.02 508.37 0.43 c p3
225.17 507.88 0.43 c p3
225.31 508.37 0.43 c p3
225.46 507.97 0.43 c p3
225.60 508.48 0.43 c p3
225.75 508.08 0.43 c p3
225.89 508.28 0.43 c p3
226.04 508.37 0.43 c p3
226.19 507.97 0.43 c p3
226.33 507.77 0.43 c p3
226.48 507.97 0.43 c p3
226.62 508.17 0.43 c p3
226.77 507.77 0.43 c p3
226.91 507.88 0.43 c p3
227.06 508.17 0.43 c p3
227.20 507.97 0.43 c p3
227.35 507.88 0.43 c p3
227.50 507.68 0.43 c p3
227.64 508.17 0.43 c p3
227.79 508.28 0.43 c p3
227.93 508.17 0.43 c p3
228.08 507.57 0.43 c p3
228.22 508.08 0.43 c p3
228.37 507.88 0.43 c p3
228.51 508.08 0.43 c p3
228.66 508.17 0.43 c p3
228.81 507.88 0.43 c p3
228.95 508.17 0.43 c p3
229.10 508.08 0.43 c p3
229.24 508.08 0.43 c p3
229.39 508.17 0.43 c p3
229.53 507.88 0.43 c p3
229.68 508.08 0.43 c p3
229.82 507.88 0.43 c p3
229.97 508.17 0.43 c p3
230.12 507.77 0.43 c p3
230.26 508.17 0.43 c p3
230.41 508.08 0.43 c p3
230.55 508.28 0.43 c p3
230.70 508.08 0.43 c p3
230.84 508.08 0.43 c p3
230.99 508.08 0.43 c p3
231.14 508.48 0.43 c p3
231.28 507.68 0.43 c p3
231.43 508.37 0.43 c p3
231.57 507.88 0.43 c p3
231.72 508.08 0.43 c p3
231.86 507.77 0.43 c p3
232.01 508.28 0.43 c p3
232.15 508.08 0.43 c p3
232.30 508.28 0.43 c p3
232.45 507.57 0.43 c p3
232.59 508.17 0.43 c p3
232.74 507.77 0.43 c p3
232.88 508.48 0.43 c p3
233.03 508.08 0.43 c p3
233.17 508.28 0.43 c p3
233.32 508.17 0.43 c p3
233.46 508.28 0.43 c p3
233.61 507.97 0.43 c p3
233.76 508.28 0.43 c p3
233.90 507.77 0.43 c p3
234.05 508.08 0.43 c p3
234.19 508.48 0.43 c p3
234.34 508.28 0.43 c p3
234.48 507.97 0.43 c p3
234.63 508.37 0.43 c p3
234.77 507.68 0.43 c p3
234.92 508.37 0.43 c p3
235.07 508.17 0.43 c p3
235.21 507.97 0.43 c p3
235.36 507.37 0.43 c p3
235.50 507.88 0.43 c p3
235.65 508.08 0.43 c p3
235.79 508.69 0.43 c p3
235.94 508.17 0.43 c p3
236.09 508.48 0.43 c p3
236.23 507.88 0.43 c p3
236.38 508.37 0.43 c p3
236.52 508.08 0.43 c p3
236.67 508.28 0.43 c p3
236.81 508.08 0.43 c p3
236.96 393.42 0.43 c p3
237.10 394.82 0.43 c p3
237.25 396.02 0.43 c p3
237.40 398.44 0.43 c p3
237.54 399.74 0.43 c p3
237.69 401.55 0.43 c p3
237.83 403.27 0.43 c p3
237.98 404.57 0.43 c p3
238.12 406.48 0.43 c p3
238.27 407.59 0.43 c p3
238.41 409.70 0.43 c p3
238.56 411.11 0.43 c p3
238.71 412.01 0.43 c p3
238.85 413.91 0.43 c p3
239.00 414.92 0.43 c p3
239.14 416.04 0.43 c p3
239.29 417.63 0.43 c p3
239.43 418.34 0.43 c p3
239.58 419.84 0.43 c p3
239.72 420.45 0.43 c p3
239.87 422.15 0.43 c p3
240.02 422.86 0.43 c p3
240.16 424.07 0.43 c p3
240.31 425.66 0.43 c p3
240.45 426.27 0.43 c p3
240.60 426.87 0.43 c p3
240.74 428.48 0.43 c p3
240.89 429.38 0.43 c p3
241.04 430.50 0.43 c p3
241.18 430.99 0.43 c p3
241.33 432.00 0.43 c p3
241.47 433.01 0.43 c p3
241.62 434.10 0.43 c p3
241.76 434.62 0.43 c p3
241.91 435.92 0.43 c p3
242.05 436.12 0.43 c p3
242.20 436.84 0.43 c p3
242.35 438.13 0.43 c p3
242.49 438.94 0.43 c p3
242.64 439.34 0.43 c p3
242.78 441.05 0.43 c p3
242.93 441.65 0.43 c p3
243.07 442.14 0.43 c p3
243.22 443.06 0.43 c p3
243.36 443.46 0.43 c p3
243.51 444.36 0.43 c p3
243.66 444.96 0.43 c p3
243.80 445.08 0.43 c p3
243.95 446.78 0.43 c p3
244.09 446.98 0.43 c p3
244.24 447.67 0.43 c p3
244.38 448.68 0.43 c p3
244.53 449.29 0.43 c p3
244.67 449.69 0.43 c p3
244.82 450.99 0.43 c p3
244.97 450.79 0.43 c p3
245.11 451.30 0.43 c p3
245.26 452.51 0.43 c p3
245.40 453.11 0.43 c p3
245.55 453.32 0.43 c p3
245.69 453.92 0.43 c p3
245.84 453.61 0.43 c p3
245.99 455.51 0.43 c p3
246.13 455.71 0.43 c p3
246.28 456.02 0.43 c p3
246.42 456.52 0.43 c p3
246.57 457.23 0.43 c p3
246.71 457.93 0.43 c p3
246.86 458.73 0.43 c p3
247.00 458.73 0.43 c p3
247.15 458.73 0.43 c p3
247.30 459.94 0.43 c p3
247.44 460.35 0.43 c p3
247.59 460.44 0.43 c p3
247.73 461.44 0.43 c p3
247.88 461.24 0.43 c p3
248.02 462.16 0.43 c p3
248.17 462.45 0.43 c p3
248.31 462.97 0.43 c p3
248.46 463.46 0.43 c p3
248.61 464.35 0.43 c p3
248.75 464.26 0.43 c p3
248.90 464.67 0.43 c p3
249.04 465.27 0.43 c p3
249.19 465.56 0.43 c p3
249.33 465.97 0.43 c p3
249.48 466.08 0.43 c p3
249.62 466.48 0.43 c p3
249.77 467.78 0.43 c p3
249.92 467.58 0.43 c p3
250.06 468.07 0.43 c p3
250.21 468.79 0.43 c p3
250.35 469.48 0.43 c p3
250.50 469.68 0.43 c p3
250.64 469.88 0.43 c p3
250.79 469.59 0.43 c p3
250.94 470.29 0.43 c p3
251.08 470.29 0.43 c p3
251.23 471.70 0.43 c p3
251.37 470.89 0.43 c p3
251.52 471.70 0.43 c p3
251.66 471.90 0.43 c p3
251.81 472.19 0.43 c p3
251.95 473.00 0.43 c p3
252.10 473.00 0.43 c p3
252.25 473.40 0.43 c p3
252.39 473.91 0.43 c p3
252.54 474.41 0.43 c p3
252.68 474.32 0.43 c p3
252.83 474.61 0.43 c p3
252.97 474.72 0.43 c p3
253.12 475.41 0.43 c p3
253.26 475.73 0.43 c p3
253.41 475.82 0.43 c p3
253.56 476.51 0.43 c p3
253.70 476.22 0.43 c p3
253.85 477.32 0.43 c p3
253.99 477.03 0.43 c p3
254.14 477.52 0.43 c p3
254.28 477.52 0.43 c p3
254.43 478.24 0.43 c p3
254.57 478.33 0.43 c p3
254.72 478.24 0.43 c p3
254.87 478.84 0.43 c p3
255.01 478.84 0.43 c p3
255.16 478.93 0.43 c p3
255.30 479.85 0.43 c p3
255.45 480.14 0.43 c p3
255.59 480.45 0.43 c p3
255.74 480.05 0.43 c p3
255.88 480.45 0.43 c p3
256.03 480.63 0.43 c p3
256.18 480.63 0.43 c p3
256.32 480.94 0.43 c p3
256.47 481.44 0.43 c p3
256.61 481.64 0.43 c p3
256.76 482.24 0.43 c p3
256.90 481.84 0.43 c p3
257.05 482.04 0.43 c p3
257.20 482.56 0.43 c p3
257.34 482.65 0.43 c p3
257.49 483.05 0.43 c p3
257.63 483.25 0.43 c p3
257.78 483.45 0.43 c p3
257.92 483.86 0.43 c p3
258.07 483.86 0.43 c p3
258.21 484.37 0.43 c p3
258.36 484.46 0.43 c p3
258.51 484.66 0.43 c p3
258.65 484.17 0.43 c p3
258.80 485.27 0.43 c p3
258.94 485.06 0.43 c p3
259.09 485.36 0.43 c p3
259.23 485.67 0.43 c p3
259.38 485.67 0.43 c p3
259.52 485.67 0.43 c p3
259.67 485.87 0.43 c p3
259.82 486.27 0.43 c p3
259.96 486.68 0.43 c p3
260.11 486.88 0.43 c p3
260.25 487.28 0.43 c p3
260.40 486.88 0.43 c p3
260.54 487.17 0.43 c p3
260.69 487.68 0.43 c p3
260.83 487.57 0.43 c p3
260.98 487.89 0.43 c p3
261.13 488.18 0.43 c p3
261.27 488.58 0.43 c p3
261.42 488.38 0.43 c p3
261.56 488.09 0.43 c p3
261.71 488.89 0.43 c p3
261.85 489.09 0.43 c p3
262.00 489.27 0.43 c p3
262.15 489.48 0.43 c p3
262.29 489.68 0.43 c p3
262.44 489.79 0.43 c p3
262.58 489.88 0.43 c p3
262.73 490.19 0.43 c p3
262.87 490.48 0.43 c p3
263.02 490.28 0.43 c p3
263.16 490.48 0.43 c p3
263.31 490.89 0.43 c p3
263.46 490.89 0.43 c p3
263.60 491.20 0.43 c p3
263.75 491.49 0.43 c p3
263.89 491.69 0.43 c p3
264.04 491.69 0.43 c p3
264.18 491.60 0.43 c p3
264.33 492.10 0.43 c p3
264.47 491.49 0.43 c p3
264.62 492.41 0.43 c p3
264.77 492.61 0.43 c p3
264.91 492.41 0.43 c p3
265.06 492.70 0.43 c p3
265.20 493.30 0.43 c p3
265.35 492.61 0.43 c p3
265.49 493.51 0.43 c p3
265.64 493.30 0.43 c p3
265.78 493.30 0.43 c p3
265.93 493.21 0.43 c p3
266.08 493.60 0.43 c p3
266.22 493.91 0.43 c p3
266.37 493.71 0.43 c p3
266.51 494.20 0.43 c p3
266.66 494.60 0.43 c p3
266.80 494.71 0.43 c p3
266.95 494.00 0.43 c p3
267.10 494.40 0.43 c p3
267.24 494.60 0.43 c p3
267.39 495.41 0.43 c p3
267.53 494.71 0.43 c p3
267.68 495.21 0.43 c p3
267.82 495.52 0.43 c p3
267.97 495.12 0.43 c p3
268.11 495.32 0.43 c p3
268.26 495.41 0.43 c p3
268.41 495.92 0.43 c p3
268.55 495.72 0.43 c p3
268.70 495.92 0.43 c p3
268.84 496.42 0.43 c p3
268.99 496.33 0.43 c p3
269.13 496.33 0.43 c p3
269.28 496.73 0.43 c p3
269.42 497.02 0.43 c p3
269.57 496.73 0.43 c p3
269.72 496.93 0.43 c p3
269.86 496.82 0.43 c p3
270.01 496.73 0.43 c p3
270.15 497.13 0.43 c p3
270.30 497.42 0.43 c p3
270.44 497.92 0.43 c p3
270.59 497.22 0.43 c p3
270.73 498.32 0.43 c p3
270.88 497.63 0.43 c p3
271.03 498.12 0.43 c p3
271.17 498.12 0.43 c p3
271.32 498.43 0.43 c p3
271.46 498.63 0.43 c p3
271.61 498.72 0.43 c p3
271.75 498.32 0.43 c p3
271.90 498.72 0.43 c p3
272.05 498.83 0.43 c p3
272.19 498.72 0.43 c p3
272.34 498.43 0.43 c p3
272.48 498.83 0.43 c p3
272.63 499.04 0.43 c p3
272.77 499.24 0.43 c p3
272.92 499.24 0.43 c p3
273.06 499.73 0.43 c p3
273.21 499.53 0.43 c p3
273.36 500.04 0.43 c p3
273.50 499.73 0.43 c p3
273.65 499.84 0.43 c p3
273.79 499.73 0.43 c p3
273.94 499.93 0.43 c p3
274.08 499.93 0.43 c p3
274.23 500.33 0.43 c p3
274.37 500.33 0.43 c p3
274.52 500.65 0.43 c p3
274.67 500.74 0.43 c p3
274.81 500.85 0.43 c p3
274.96 500.74 0.43 c p3
275.10 501.25 0.43 c p3
275.25 500.65 0.43 c p3
275.39 500.94 0.43 c p3
275.54 500.85 0.43 c p3
275.68 501.34 0.43 c p3
275.83 501.14 0.43 c p3
275.98 501.66 0.43 c p3
276.12 501.14 0.43 c p3
276.27 501.25 0.43 c p3
276.41 501.34 0.43 c p3
276.56 502.24 0.43 c p3
276.70 501.75 0.43 c p3
276.85 501.86 0.43 c p3
277.00 501.95 0.43 c p3
277.14 502.06 0.43 c p3
277.29 502.35 0.43 c p3
277.43 502.44 0.43 c p3
277.58 501.95 0.43 c p3
277.72 502.44 0.43 c p3
277.87 502.64 0.43 c p3
278.01 502.55 0.43 c p3
278.16 502.84 0.43 c p3
278.31 503.36 0.43 c p3
278.45 502.95 0.43 c p3
278.60 503.04 0.43 c p3
278.74 502.64 0.43 c p3
278.89 503.36 0.43 c p3
279.03 502.95 0.43 c p3
279.18 503.25 0.43 c p3
279.32 503.04 0.43 c p3
279.47 503.45 0.43 c p3
279.62 503.76 0.43 c p3
279.76 503.85 0.43 c p3
279.91 503.45 0.43 c p3
280.05 503.65 0.43 c p3
280.20 503.65 0.43 c p3
280.34 504.05 0.43 c p3
280.49 503.96 0.43 c p3
280.63 504.37 0.43 c p3
280.78 504.16 0.43 c p3
280.93 504.16 0.43 c p3
281.07 504.05 0.43 c p3
281.22 504.25 0.43 c p3
281.36 504.57 0.43 c p3
281.51 504.57 0.43 c p3
281.65 504.45 0.43 c p3
281.80 505.06 0.43 c p3
281.95 504.86 0.43 c p3
282.09 504.57 0.43 c p3
282.24 504.66 0.43 c p3
282.38 504.97 0.43 c p3
282.53 504.77 0.43 c p3
282.67 504.86 0.43 c p3
282.82 504.45 0.43 c p3
282.96 505.06 0.43 c p3
283.11 505.06 0.43 c p3
283.26 505.17 0.43 c p3
283.40 504.97 0.43 c p3
283.55 505.37 0.43 c p3
283.69 505.46 0.43 c p3
283.84 505.17 0.43 c p3
283.98 505.17 0.43 c p3
284.13 505.57 0.43 c p3
284.27 505.57 0.43 c p3
284.42 505.78 0.43 c p3
284.57 504.86 0.43 c p3
284.71 505.57 0.43 c p3
284.86 505.78 0.43 c p3
285.00 506.07 0.43 c p3
285.15 506.07 0.43 c p3
285.29 506.27 0.43 c p3
285.44 505.87 0.43 c p3
285.58 506.07 0.43 c p3
285.73 506.07 0.43 c p3
285.88 506.18 0.43 c p3
286.02 506.27 0.43 c p3
286.17 506.47 0.43 c p3
286.31 506.47 0.43 c p3
286.46 506.18 0.43 c p3
286.60 506.18 0.43 c p3
286.75 506.87 0.43 c p3
286.89 506.47 0.43 c p3
287.04 506.27 0.43 c p3
287.19 506.36 0.43 c p3
287.33 506.87 0.43 c p3
287.48 506.67 0.43 c p3
287.62 506.96 0.43 c p3
287.77 506.76 0.43 c p3
287.91 506.96 0.43 c p3
288.06 506.96 0.43 c p3
288.21 506.87 0.43 c p3
288.35 507.16 0.43 c p3
288.50 506.76 0.43 c p3
288.64 506.96 0.43 c p3
288.79 507.37 0.43 c p3
288.93 507.16 0.43 c p3
289.08 507.68 0.43 c p3
289.22 506.96 0.43 c p3
289.37 507.37 0.43 c p3
289.52 507.28 0.43 c p3
289.66 507.68 0.43 c p3
289.81 507.68 0.43 c p3
289.95 507.68 0.43 c p3
290.10 507.16 0.43 c p3
290.24 507.68 0.43 c p3
290.39 507.57 0.43 c p3
290.53 507.16 0.43 c p3
290.68 507.37 0.43 c p3
290.83 507.88 0.43 c p3
290.97 508.08 0.43 c p3
291.12 508.48 0.43 c p3
291.26 507.68 0.43 c p3
291.41 508.48 0.43 c p3
291.55 507.88 0.43 c p3
291.70 508.08 0.43 c p3
291.84 507.88 0.43 c p3
291.99 507.57 0.43 c p3
292.14 507.88 0.43 c p3
292.28 508.37 0.43 c p3
292.43 507.97 0.43 c p3
292.57 508.48 0.43 c p3
292.72 508.48 0.43 c p3
292.86 508.37 0.43 c p3
293.01 508.17 0.43 c p3
293.16 508.57 0.43 c p3
293.30 508.48 0.43 c p3
293.45 508.48 0.43 c p3
293.59 508.57 0.43 c p3
293.74 508.98 0.43 c p3
293.88 508.28 0.43 c p3
294.03 508.57 0.43 c p3
294.17 509.09 0.43 c p3
294.32 509.18 0.43 c p3
294.47 508.78 0.43 c p3
294.61 508.78 0.43 c p3
294.76 508.57 0.43 c p3
294.90 508.98 0.43 c p3
295.05 508.98 0.43 c p3
295.19 508.48 0.43 c p3
295.34 508.48 0.43 c p3
295.48 509.18 0.43 c p3
295.63 508.78 0.43 c p3
295.78 508.98 0.43 c p3
295.92 509.09 0.43 c p3
296.07 509.49 0.43 c p3
296.21 508.89 0.43 c p3
296.36 508.89 0.43 c p3
296.50 509.09 0.43 c p3
296.65 509.18 0.43 c p3
296.79 509.58 0.43 c p3
296.94 509.38 0.43 c p3
297.09 508.98 0.43 c p3
297.23 509.38 0.43 c p3
297.38 509.38 0.43 c p3
297.52 508.98 0.43 c p3
297.67 509.29 0.43 c p3
297.81 509.58 0.43 c p3
297.96 509.38 0.43 c p3
298.11 509.29 0.43 c p3
298.25 509.09 0.43 c p3
298.40 509.58 0.43 c p3
298.54 509.18 0.43 c p3
298.69 509.18 0.43 c p3
298.83 509.58 0.43 c p3
298.98 509.49 0.43 c p3
299.12 509.69 0.43 c p3
299.27 509.69 0.43 c p3
299.42 509.78 0.43 c p3
299.56 509.49 0.43 c p3
299.71 509.78 0.43 c p3
299.85 509.78 0.43 c p3
300.00 509.69 0.43 c p3
300.14 509.69 0.43 c p3
300.29 510.19 0.43 c p3
300.43 509.90 0.43 c p3
300.58 510.10 0.43 c p3
300.73 509.90 0.43 c p3
300.87 509.78 0.43 c p3
301.02 510.19 0.43 c p3
301.16 510.10 0.43 c p3
301.31 510.10 0.43 c p3
301.45 509.90 0.43 c p3
301.60 510.10 0.43 c p3
301.74 509.58 0.43 c p3
301.89 509.90 0.43 c p3
302.04 509.98 0.43 c p3
302.18 509.78 0.43 c p3
302.33 509.90 0.43 c p3
302.47 510.19 0.43 c p3
302.62 510.30 0.43 c p3
302.76 510.19 0.43 c p3
302.91 510.50 0.43 c p3
303.06 510.19 0.43 c p3
303.20 510.30 0.43 c p3
303.35 509.98 0.43 c p3
303.49 510.19 0.43 c p3
303.64 510.59 0.43 c p3
303.78 510.10 0.43 c p3
303.93 510.19 0.43 c p3
304.07 510.79 0.43 c p3
304.22 510.59 0.43 c p3
304.37 510.30 0.43 c p3
304.51 510.10 0.43 c p3
304.66 510.30 0.43 c p3
304.80 510.30 0.43 c p3
304.95 510.10 0.43 c p3
305.09 510.39 0.43 c p3
305.24 510.30 0.43 c p3
305.38 510.68 0.43 c p3
305.53 510.30 0.43 c p3
305.68 510.19 0.43 c p3
305.82 510.59 0.43 c p3
305.97 510.59 0.43 c p3
306.11 510.19 0.43 c p3
306.26 510.79 0.43 c p3
306.40 510.68 0.43 c p3
306.55 510.88 0.43 c p3
306.69 510.59 0.43 c p3
306.84 510.79 0.43 c p3
306.99 510.88 0.43 c p3
307.13 510.39 0.43 c p3
307.28 510.59 0.43 c p3
307.42 510.68 0.43 c p3
307.57 510.68 0.43 c p3
307.71 510.88 0.43 c p3
307.86 510.68 0.43 c p3
308.01 510.99 0.43 c p3
308.15 510.39 0.43 c p3
308.30 510.99 0.43 c p3
308.44 511.19 0.43 c p3
308.59 510.59 0.43 c p3
308.73 511.19 0.43 c p3
308.88 510.79 0.43 c p3
309.02 510.59 0.43 c p3
309.17 511.19 0.43 c p3
309.32 510.59 0.43 c p3
309.46 510.99 0.43 c p3
309.61 510.88 0.43 c p3
309.75 510.99 0.43 c p3
309.90 510.50 0.43 c p3
310.04 510.79 0.43 c p3
310.19 510.50 0.43 c p3
310.33 510.68 0.43 c p3
310.48 510.99 0.43 c p3
310.63 511.28 0.43 c p3
310.77 510.79 0.43 c p3
310.92 510.88 0.43 c p3
311.06 511.08 0.43 c p3
311.21 511.08 0.43 c p3
311.35 511.08 0.43 c p3
311.50 510.99 0.43 c p3
311.64 510.88 0.43 c p3
311.79 511.40 0.43 c p3
311.94 510.99 0.43 c p3
312.08 510.88 0.43 c p3
312.23 511.08 0.43 c p3
312.37 511.28 0.43 c p3
312.52 511.19 0.43 c p3
312.66 510.99 0.43 c p3
312.81 511.19 0.43 c p3
312.96 510.79 0.43 c p3
313.10 510.99 0.43 c p3
313.25 511.40 0.43 c p3
313.39 510.88 0.43 c p3
313.54 510.88 0.43 c p3
313.68 511.08 0.43 c p3
313.83 511.49 0.43 c p3
313.97 511.19 0.43 c p3
314.12 511.08 0.43 c p3
314.27 511.28 0.43 c p3
314.41 511.49 0.43 c p3
314.56 510.79 0.43 c p3
314.70 510.79 0.43 c p3
314.85 511.40 0.43 c p3
314.99 511.40 0.43 c p3
315.14 510.88 0.43 c p3
315.28 511.28 0.43 c p3
315.43 511.19 0.43 c p3
315.58 511.40 0.43 c p3
315.72 510.79 0.43 c p3
315.87 511.49 0.43 c p3
316.01 511.28 0.43 c p3
316.16 511.49 0.43 c p3
316.30 510.79 0.43 c p3
316.45 510.99 0.43 c p3
316.59 511.40 0.43 c p3
316.74 511.19 0.43 c p3
316.89 511.28 0.43 c p3
317.03 510.99 0.43 c p3
317.18 510.88 0.43 c p3
317.32 510.88 0.43 c p3
317.47 511.40 0.43 c p3
317.61 511.40 0.43 c p3
317.76 510.88 0.43 c p3
317.91 511.08 0.43 c p3
318.05 511.19 0.43 c p3
318.20 511.40 0.43 c p3
318.34 511.08 0.43 c p3
318.49 510.88 0.43 c p3
318.63 510.99 0.43 c p3
318.78 511.49 0.43 c p3
318.92 511.40 0.43 c p3
319.07 511.08 0.43 c p3
319.22 511.08 0.43 c p3
319.36 511.49 0.43 c p3
319.51 511.08 0.43 c p3
319.65 511.19 0.43 c p3
319.80 511.49 0.43 c p3
319.94 511.19 0.43 c p3
320.09 511.19 0.43 c p3
320.23 511.19 0.43 c p3
320.38 511.60 0.43 c p3
320.53 511.60 0.43 c p3
320.67 511.40 0.43 c p3
320.82 510.88 0.43 c p3
320.96 511.49 0.43 c p3
321.11 511.49 0.43 c p3
321.25 511.08 0.43 c p3
321.40 510.88 0.43 c p3
321.54 510.59 0.43 c p3
321.69 511.28 0.43 c p3
321.84 511.19 0.43 c p3
321.98 510.99 0.43 c p3
322.13 511.08 0.43 c p3
322.27 511.60 0.43 c p3
322.42 510.99 0.43 c p3
322.56 511.60 0.43 c p3
322.71 511.28 0.43 c p3
322.85 511.49 0.43 c p3
323.00 511.19 0.43 c p3
323.15 511.28 0.43 c p3
323.29 511.89 0.43 c p3
323.44 511.80 0.43 c p3
323.58 511.49 0.43 c p3
323.73 511.60 0.43 c p3
323.87 511.28 0.43 c p3
324.02 511.60 0.43 c p3
324.17 510.99 0.43 c p3
324.31 511.28 0.43 c p3
324.46 511.28 0.43 c p3
324.60 510.79 0.43 c p3
324.75 510.79 0.43 c p3
324.89 511.60 0.43 c p3
325.04 511.28 0.43 c p3
325.18 511.08 0.43 c p3
325.33 511.60 0.43 c p3
325.48 511.40 0.43 c p3
325.62 511.08 0.43 c p3
325.77 511.28 0.43 c p3
325.91 511.08 0.43 c p3
326.06 512.00 0.43 c p3
326.20 511.49 0.43 c p3
326.35 511.28 0.43 c p3
326.49 511.69 0.43 c p3
326.64 511.60 0.43 c p3
326.79 511.40 0.43 c p3
326.93 511.60 0.43 c p3
327.08 511.28 0.43 c p3
327.22 511.19 0.43 c p3
327.37 510.99 0.43 c p3
327.51 511.19 0.43 c p3
327.66 511.28 0.43 c p3
327.80 511.19 0.43 c p3
327.95 510.88 0.43 c p3
328.10 511.69 0.43 c p3
328.24 511.28 0.43 c p3
328.39 511.89 0.43 c p3
328.53 511.08 0.43 c p3
328.68 510.79 0.43 c p3
328.82 510.88 0.43 c p3
328.97 511.28 0.43 c p3
329.12 511.19 0.43 c p3
329.26 511.28 0.43 c p3
329.41 510.99 0.43 c p3
329.55 511.40 0.43 c p3
329.70 511.19 0.43 c p3
329.84 511.19 0.43 c p3
329.99 511.69 0.43 c p3
330.13 511.19 0.43 c p3
330.28 511.49 0.43 c p3
330.43 511.60 0.43 c p3
330.57 511.40 0.43 c p3
330.72 511.40 0.43 c p3
330.86 511.49 0.43 c p3
331.01 511.28 0.43 c p3
331.15 511.08 0.43 c p3
331.30 511.80 0.43 c p3
331.44 511.19 0.43 c p3
331.59 511.28 0.43 c p3
331.74 511.49 0.43 c p3
331.88 511.40 0.43 c p3
332.03 511.28 0.43 c p3
332.17 511.40 0.43 c p3
332.32 510.99 0.43 c p3
332.46 510.99 0.43 c p3
332.61 510.99 0.43 c p3
332.75 511.28 0.43 c p3
332.90 511.19 0.43 c p3
333.05 511.60 0.43 c p3
333.19 511.08 0.43 c p3
333.34 511.40 0.43 c p3
333.48 511.49 0.43 c p3
333.63 511.19 0.43 c p3
333.77 511.40 0.43 c p3
333.92 511.60 0.43 c p3
334.07 511.19 0.43 c p3
334.21 511.28 0.43 c p3
334.36 511.19 0.43 c p3
334.50 511.19 0.43 c p3
334.65 511.28 0.43 c p3
334.79 511.19 0.43 c p3
334.94 510.99 0.43 c p3
335.08 511.19 0.43 c p3
335.23 511.08 0.43 c p3
335.38 511.28 0.43 c p3
335.52 511.19 0.43 c p3
335.67 511.40 0.43 c p3
335.81 510.88 0.43 c p3
335.96 510.99 0.43 c p3
336.10 511.19 0.43 c p3
336.25 511.28 0.43 c p3
336.39 510.79 0.43 c p3
336.54 511.08 0.43 c p3
336.69 510.68 0.43 c p3
336.83 511.49 0.43 c p3
336.98 511.28 0.43 c p3
337.12 510.88 0.43 c p3
337.27 510.59 0.43 c p3
337.41 511.40 0.43 c p3
337.56 510.88 0.43 c p3
337.70 511.28 0.43 c p3
337.85 510.99 0.43 c p3
338.00 511.28 0.43 c p3
338.14 511.40 0.43 c p3
338.29 511.19 0.43 c p3
338.43 510.99 0.43 c p3
338.58 511.08 0.43 c p3
338.72 510.59 0.43 c p3
338.87 511.08 0.43 c p3
339.02 510.99 0.43 c p3
339.16 510.99 0.43 c p3
339.31 510.88 0.43 c p3
339.45 511.28 0.43 c p3
339.60 510.99 0.43 c p3
339.74 511.28 0.43 c p3
339.89 510.88 0.43 c p3
340.03 511.49 0.43 c p3
340.18 510.99 0.43 c p3
340.33 510.99 0.43 c p3
340.47 511.40 0.43 c p3
340.62 510.88 0.43 c p3
340.76 511.08 0.43 c p3
340.91 510.99 0.43 c p3
341.05 511.08 0.43 c p3
341.20 511.19 0.43 c p3
341.34 510.99 0.43 c p3
341.49 510.88 0.43 c p3
341.64 510.50 0.43 c p3
341.78 511.08 0.43 c p3
341.93 510.99 0.43 c p3
342.07 510.99 0.43 c p3
342.22 510.68 0.43 c p3
342.36 511.28 0.43 c p3
342.51 510.88 0.43 c p3
342.65 511.19 0.43 c p3
342.80 510.99 0.43 c p3
342.95 510.79 0.43 c p3
343.09 510.88 0.43 c p3
343.24 511.40 0.43 c p3
343.38 510.79 0.43 c p3
343.53 511.19 0.43 c p3
343.67 510.88 0.43 c p3
343.82 511.19 0.43 c p3
343.97 510.79 0.43 c p3
344.11 510.88 0.43 c p3
344.26 510.68 0.43 c p3
344.40 510.88 0.43 c p3
344.55 510.88 0.43 c p3
344.69 510.88 0.43 c p3
344.84 510.50 0.43 c p3
344.98 510.79 0.43 c p3
345.13 510.79 0.43 c p3
345.28 510.99 0.43 c p3
345.42 510.88 0.43 c p3
345.57 511.40 0.43 c p3
345.71 510.99 0.43 c p3
345.86 510.59 0.43 c p3
346.00 510.68 0.43 c p3
346.15 510.59 0.43 c p3
346.29 510.79 0.43 c p3
346.44 510.88 0.43 c p3
346.59 510.99 0.43 c p3
346.73 511.28 0.43 c p3
346.88 510.68 0.43 c p3
347.02 510.59 0.43 c p3
347.17 510.59 0.43 c p3
347.31 510.88 0.43 c p3
347.46 510.50 0.43 c p3
347.60 510.88 0.43 c p3
347.75 510.50 0.43 c p3
347.90 510.88 0.43 c p3
348.04 510.68 0.43 c p3
348.19 510.68 0.43 c p3
348.33 510.88 0.43 c p3
348.48 510.39 0.43 c p3
348.62 510.79 0.43 c p3
348.77 510.99 0.43 c p3
348.92 510.68 0.43 c p3
349.06 510.68 0.43 c p3
349.21 510.99 0.43 c p3
349.35 510.79 0.43 c p3
349.50 510.59 0.43 c p3
349.64 510.68 0.43 c p3
349.79 510.79 0.43 c p3
349.93 510.88 0.43 c p3
350.08 511.08 0.43 c p3
350.23 510.99 0.43 c p3
350.37 510.68 0.43 c p3
350.52 510.59 0.43 c p3
350.66 510.19 0.43 c p3
350.81 510.39 0.43 c p3
350.95 510.50 0.43 c p3
351.10 510.88 0.43 c p3
351.24 510.59 0.43 c p3
351.39 510.68 0.43 c p3
351.54 510.99 0.43 c p3
351.68 510.59 0.43 c p3
351.83 510.99 0.43 c p3
351.97 510.59 0.43 c p3
352.12 510.79 0.43 c p3
352.26 510.79 0.43 c p3
352.41 510.59 0.43 c p3
352.55 510.99 0.43 c p3
352.70 510.39 0.43 c p3
352.85 510.88 0.43 c p3
352.99 510.79 0.43 c p3
353.14 510.99 0.43 c p3
353.28 510.30 0.43 c p3
353.43 510.50 0.43 c p3
353.57 510.50 0.43 c p3
353.72 510.59 0.43 c p3
353.86 510.59 0.43 c p3
354.01 510.59 0.43 c p3
354.16 510.68 0.43 c p3
354.30 510.79 0.43 c p3
354.45 510.59 0.43 c p3
354.59 510.79 0.43 c p3
354.74 510.59 0.43 c p3
354.88 510.50 0.43 c p3
355.03 510.50 0.43 c p3
355.18 510.79 0.43 c p3
355.32 510.59 0.43 c p3
355.47 510.68 0.43 c p3
355.61 510.50 0.43 c p3
355.76 510.39 0.43 c p3
355.90 510.88 0.43 c p3
356.05 510.59 0.43 c p3
356.19 510.50 0.43 c p3
356.34 510.88 0.43 c p3
356.49 510.68 0.43 c p3
356.63 510.59 0.43 c p3
356.78 510.68 0.43 c p3
356.92 510.79 0.43 c p3
357.07 510.68 0.43 c p3
357.21 510.59 0.43 c p3
357.36 510.39 0.43 c p3
357.50 510.39 0.43 c p3
357.65 510.50 0.43 c p3
357.80 510.30 0.43 c p3
357.94 510.30 0.43 c p3
358.09 510.50 0.43 c p3
358.23 510.79 0.43 c p3
358.38 510.79 0.43 c p3
358.52 510.19 0.43 c p3
358.67 510.59 0.43 c p3
358.81 510.50 0.43 c p3
358.96 510.79 0.43 c p3
359.11 510.19 0.43 c p3
359.25 510.39 0.43 c p3
359.40 510.10 0.43 c p3
359.54 510.59 0.43 c p3
359.69 510.50 0.43 c p3
359.83 510.39 0.43 c p3
359.98 510.30 0.43 c p3
360.13 510.19 0.43 c p3
360.27 510.39 0.43 c p3
360.42 510.59 0.43 c p3
360.56 510.39 0.43 c p3
360.71 510.50 0.43 c p3
360.85 510.10 0.43 c p3
361.00 510.39 0.43 c p3
361.14 510.39 0.43 c p3
361.29 510.79 0.43 c p3
361.44 510.50 0.43 c p3
361.58 510.19 0.43 c p3
361.73 510.30 0.43 c p3
361.87 510.30 0.43 c p3
362.02 510.59 0.43 c p3
362.16 510.30 0.43 c p3
362.31 509.90 0.43 c p3
362.45 510.39 0.43 c p3
362.60 510.30 0.43 c p3
362.75 510.39 0.43 c p3
362.89 510.59 0.43 c p3
363.04 510.50 0.43 c p3
363.18 510.30 0.43 c p3
363.33 510.79 0.43 c p3
363.47 510.10 0.43 c p3
363.62 510.30 0.43 c p3
363.76 510.39 0.43 c p3
363.91 510.10 0.43 c p3
364.06 510.10 0.43 c p3
364.20 510.59 0.43 c p3
364.35 510.19 0.43 c p3
364.49 509.98 0.43 c p3
364.64 509.98 0.43 c p3
364.78 510.39 0.43 c p3
364.93 510.39 0.43 c p3
365.08 510.30 0.43 c p3
365.22 510.79 0.43 c p3
365.37 510.19 0.43 c p3
365.51 510.50 0.43 c p3
365.66 510.10 0.43 c p3
365.80 510.10 0.43 c p3
365.95 510.19 0.43 c p3
366.09 510.10 0.43 c p3
366.24 510.59 0.43 c p3
366.39 510.10 0.43 c p3
366.53 510.30 0.43 c p3
366.68 510.50 0.43 c p3
366.82 510.30 0.43 c p3
366.97 509.98 0.43 c p3
367.11 510.30 0.43 c p3
367.26 509.90 0.43 c p3
367.40 510.10 0.43 c p3
367.55 510.39 0.43 c p3
367.70 510.10 0.43 c p3
367.84 510.19 0.43 c p3
367.99 509.98 0.43 c p3
368.13 510.39 0.43 c p3
368.28 510.19 0.43 c p3
368.42 510.50 0.43 c p3
368.57 510.10 0.43 c p3
368.71 510.19 0.43 c p3
368.86 510.30 0.43 c p3
369.01 510.30 0.43 c p3
369.15 510.30 0.43 c p3
369.30 510.19 0.43 c p3
369.44 510.10 0.43 c p3
369.59 510.19 0.43 c p3
369.73 510.19 0.43 c p3
369.88 510.19 0.43 c p3
370.03 510.10 0.43 c p3
370.17 510.30 0.43 c p3
370.32 509.90 0.43 c p3
370.46 509.90 0.43 c p3
370.61 510.59 0.43 c p3
370.75 509.69 0.43 c p3
370.90 510.30 0.43 c p3
371.04 509.90 0.43 c p3
371.19 510.10 0.43 c p3
371.34 509.90 0.43 c p3
371.48 509.98 0.43 c p3
371.63 510.19 0.43 c p3
371.77 510.30 0.43 c p3
371.92 510.10 0.43 c p3
372.06 510.10 0.43 c p3
372.21 509.98 0.43 c p3
372.35 509.98 0.43 c p3
372.50 510.19 0.43 c p3
372.65 510.19 0.43 c p3
372.79 510.30 0.43 c p3
372.94 510.19 0.43 c p3
373.08 509.69 0.43 c p3
373.23 509.98 0.43 c p3
373.37 510.19 0.43 c p3
373.52 510.10 0.43 c p3
373.66 509.78 0.43 c p3
373.81 509.78 0.43 c p3
373.96 509.58 0.43 c p3
374.10 510.19 0.43 c p3
374.25 509.78 0.43 c p3
374.39 510.19 0.43 c p3
374.54 509.69 0.43 c p3
374.68 510.10 0.43 c p3
374.83 509.69 0.43 c p3
374.98 510.19 0.43 c p3
375.12 510.10 0.43 c p3
375.27 509.78 0.43 c p3
375.41 509.90 0.43 c p3
375.56 509.69 0.43 c p3
375.70 509.78 0.43 c p3
375.85 510.10 0.43 c p3
375.99 509.78 0.43 c p3
376.14 509.90 0.43 c p3
376.29 510.50 0.43 c p3
376.43 509.90 0.43 c p3
376.58 509.69 0.43 c p3
376.72 509.90 0.43 c p3
376.87 509.69 0.43 c p3
377.01 509.98 0.43 c p3
377.16 509.98 0.43 c p3
377.30 509.98 0.43 c p3
377.45 510.10 0.43 c p3
377.60 509.58 0.43 c p3
377.74 510.10 0.43 c p3
377.89 509.69 0.43 c p3
378.03 509.49 0.43 c p3
378.18 510.30 0.43 c p3
378.32 510.10 0.43 c p3
378.47 510.10 0.43 c p3
378.61 510.10 0.43 c p3
378.76 509.58 0.43 c p3
378.91 509.78 0.43 c p3
379.05 509.90 0.43 c p3
379.20 509.98 0.43 c p3
379.34 509.58 0.43 c p3
379.49 509.58 0.43 c p3
379.63 509.98 0.43 c p3
379.78 509.78 0.43 c p3
379.93 509.90 0.43 c p3
380.07 509.78 0.43 c p3
380.22 509.90 0.43 c p3
380.36 509.69 0.43 c p3
380.51 509.98 0.43 c p3
380.65 509.98 0.43 c p3
380.80 509.90 0.43 c p3
380.94 509.58 0.43 c p3
381.09 510.19 0.43 c p3
381.24 509.78 0.43 c p3
381.38 509.78 0.43 c p3
381.53 509.38 0.43 c p3
381.67 509.58 0.43 c p3
381.82 509.49 0.43 c p3
381.96 509.98 0.43 c p3
382.11 509.49 0.43 c p3
382.25 509.78 0.43 c p3
382.40 509.58 0.43 c p3
0.00 0.00 432.00 576.00 cl
0 0 0 srgb
0.75 setlinewidth
[] 0 setdash
1 setlinecap
1 setlinejoin
10.00 setmiterlimit
np
236.96 345.60 m
145.59 0 l
o
np
236.96 345.60 m
0 -5.76 l
o
np
266.08 345.60 m
0 -5.76 l
o
np
295.19 345.60 m
0 -5.76 l
o
np
324.31 345.60 m
0 -5.76 l
o
np
353.43 345.60 m
0 -5.76 l
o
np
382.55 345.60 m
0 -5.76 l
o
/Font1 findfont 10 s
236.96 329.47 (0) .5 0 t
266.08 329.47 (2000) .5 0 t
324.31 329.47 (6000) .5 0 t
382.55 329.47 (10000) .5 0 t
np
216.00 352.00 m
0 137.56 l
o
np
216.00 352.00 m
-5.76 0 l
o
np
216.00 397.85 m
-5.76 0 l
o
np
216.00 443.71 m
-5.76 0 l
o
np
216.00 489.56 m
-5.76 0 l
o
209.09 348.41 (0.0) 1 0 t
209.09 394.26 (0.5) 1 0 t
209.09 440.12 (1.0) 1 0 t
209.09 485.97 (1.5) 1 0 t
np
216.00 345.60 m
172.80 0 l
0 172.80 l
-172.80 0 l
0 -172.80 l
o
0.00 0.00 432.00 576.00 cl
/Font1 findfont 10 s
0 0 0 srgb
302.40 313.34 (Zeit / ms \(total\)) .5 0 t
190.66 432.00 (U / V) .5 90 t
216.00 345.60 388.80 518.40 cl
0 0 0 srgb
0.38 setlinewidth
[ 1.12 1.88] 0 setdash
1 setlinecap
1 setlinejoin
10.00 setmiterlimit
np
223.27 345.60 m
0 172.80 l
o
np
234.34 345.60 m
0 172.80 l
o
np
239.58 345.60 m
0 172.80 l
o
np
319.07 345.60 m
0 172.80 l
o
86.40 57.60 388.80 288.00 cl
1 0 0 srgb
1.50 setlinewidth
[] 0 setdash
1 setlinecap
1 setlinejoin
10.00 setmiterlimit
np
97.60 279.47 m
1.41 -12.20 l
1.40 -11.49 l
1.41 -10.84 l
1.41 -10.23 l
1.41 -9.63 l
1.40 -9.09 l
1.41 -8.56 l
1.41 -8.08 l
1.40 -7.61 l
1.41 -7.18 l
1.41 -6.77 l
1.40 -6.39 l
1.41 -6.01 l
1.41 -5.68 l
1.41 -5.35 l
1.40 -5.04 l
1.41 -4.75 l
1.41 -4.49 l
1.40 -4.22 l
1.41 -3.99 l
1.41 -3.76 l
1.40 -3.54 l
1.41 -3.34 l
1.41 -3.15 l
1.41 -2.97 l
1.40 -2.80 l
1.41 -2.64 l
1.41 -2.49 l
1.40 -2.34 l
1.41 -2.22 l
1.41 -2.08 l
1.41 -1.97 l
1.40 -1.85 l
1.41 -1.75 l
1.41 -1.65 l
1.40 -1.55 l
1.41 -1.47 l
1.41 -1.38 l
1.40 -1.30 l
1.41 -1.23 l
1.41 -1.16 l
1.41 -1.09 l
1.40 -1.03 l
1.41 -0.97 l
1.41 -0.92 l
1.40 -0.86 l
1.41 -0.81 l
1.41 -0.77 l
1.40 -0.72 l
1.41 -0.68 l
1.41 -0.65 l
1.41 -0.60 l
1.40 -0.57 l
1.41 -0.54 l
1.41 -0.51 l
1.40 -0.48 l
1.41 -0.45 l
1.41 -0.43 l
1.41 -0.40 l
1.40 -0.38 l
1.41 -0.35 l
1.41 -0.34 l
1.40 -0.32 l
1.41 -0.30 l
1.41 -0.28 l
1.40 -0.26 l
1.41 -0.25 l
1.41 -0.24 l
1.41 -0.22 l
1.40 -0.21 l
1.41 -0.20 l
1.41 -0.19 l
1.40 -0.17 l
1.41 -0.17 l
1.41 -0.16 l
1.40 -0.14 l
1.41 -0.14 l
1.41 -0.13 l
1.41 -0.13 l
1.40 -0.11 l
1.41 -0.11 l
1.41 -0.11 l
1.40 -0.10 l
1.41 -0.09 l
1.41 -0.09 l
1.41 -0.08 l
1.40 -0.07 l
1.41 -0.08 l
1.41 -0.07 l
1.40 -0.06 l
1.41 -0.06 l
1.41 -0.06 l
1.40 -0.05 l
1.41 -0.05 l
1.41 -0.05 l
1.41 -0.05 l
1.40 -0.04 l
1.41 -0.04 l
1.41 -0.04 l
238.30 66.72 lineto
1.41 -0.03 l
1.41 -0.03 l
1.40 -0.03 l
1.41 -0.03 l
1.41 -0.03 l
1.41 -0.02 l
1.40 -0.03 l
1.41 -0.02 l
1.41 -0.02 l
1.40 -0.02 l
1.41 -0.02 l
1.41 -0.02 l
1.40 -0.01 l
1.41 -0.02 l
1.41 -0.01 l
1.41 -0.02 l
1.40 -0.01 l
1.41 -0.01 l
1.41 -0.01 l
1.40 -0.02 l
1.41 -0.01 l
1.41 -0.01 l
1.41 -0.01 l
1.40 0 l
1.41 -0.01 l
1.41 -0.01 l
1.40 -0.01 l
1.41 0 l
1.41 -0.01 l
1.40 -0.01 l
1.41 0 l
1.41 -0.01 l
1.41 0 l
1.40 -0.01 l
1.41 0 l
1.41 -0.01 l
1.40 0 l
1.41 -0.01 l
1.41 0 l
1.40 0 l
1.41 -0.01 l
1.41 0 l
1.41 0 l
1.40 0 l
1.41 -0.01 l
1.41 0 l
1.40 0 l
1.41 0 l
1.41 -0.01 l
1.41 0 l
1.40 0 l
1.41 0 l
1.41 0 l
1.40 0 l
1.41 -0.01 l
1.41 0 l
1.40 0 l
1.41 0 l
1.41 0 l
1.41 0 l
1.40 0 l
1.41 0 l
1.41 0 l
1.40 0 l
1.41 -0.01 l
1.41 0 l
1.40 0 l
1.41 0 l
1.41 0 l
1.41 0 l
1.40 0 l
1.41 0 l
1.41 0 l
1.40 0 l
1.41 0 l
1.41 0 l
1.41 0 l
1.40 0 l
1.41 0 l
1.41 0 l
1.40 0 l
1.41 0 l
1.41 0 l
1.40 0 l
1.41 0 l
1.41 0 l
1.41 0 l
1.40 -0.01 l
1.41 0 l
1.41 0 l
1.40 0 l
1.41 0 l
1.41 0 l
1.40 0 l
1.41 0 l
1.41 0 l
1.41 0 l
1.40 0 l
1.41 0 l
o
0.00 0.00 432.00 576.00 cl
0 0 0 srgb
0.75 setlinewidth
[] 0 setdash
1 setlinecap
1 setlinejoin
10.00 setmiterlimit
np
97.60 57.60 m
280.00 0 l
o
np
97.60 57.60 m
0 -5.76 l
o
np
153.60 57.60 m
0 -5.76 l
o
np
209.60 57.60 m
0 -5.76 l
o
np
265.60 57.60 m
0 -5.76 l
o
np
321.60 57.60 m
0 -5.76 l
o
np
377.60 57.60 m
0 -5.76 l
o
/Font1 findfont 10 s
97.60 41.47 (0) .5 0 t
153.60 41.47 (2000) .5 0 t
209.60 41.47 (4000) .5 0 t
265.60 41.47 (6000) .5 0 t
321.60 41.47 (8000) .5 0 t
377.60 41.47 (10000) .5 0 t
np
86.40 68.41 m
0 207.28 l
o
np
86.40 68.41 m
-5.76 0 l
o
np
86.40 120.23 m
-5.76 0 l
o
np
86.40 172.05 m
-5.76 0 l
o
np
86.40 223.87 m
-5.76 0 l
o
np
86.40 275.69 m
-5.76 0 l
o
79.49 64.82 (0.0) 1 0 t
79.49 116.64 (0.1) 1 0 t
79.49 168.46 (0.2) 1 0 t
79.49 220.28 (0.3) 1 0 t
79.49 272.10 (0.4) 1 0 t
np
86.40 57.60 m
302.40 0 l
0 230.40 l
-302.40 0 l
0 -230.40 l
o
0.00 0.00 432.00 576.00 cl
/Font1 findfont 10 s
0 0 0 srgb
237.60 13.82 (Zeit / ms \(nach Puls\)) .5 0 t
49.54 172.80 (Absorbanz A) .5 90 t
86.40 57.60 388.80 288.00 cl
/bg { 1 1 1 srgb } def
0 0 0 srgb
0.75 setlinewidth
[] 0 setdash
1 setlinecap
1 setlinejoin
10.00 setmiterlimit
102.92 255.89 0.65 c p3
103.20 253.89 0.65 c p3
103.48 248.36 0.65 c p3
103.76 246.08 0.65 c p3
104.04 242.27 0.65 c p3
104.32 237.36 0.65 c p3
104.60 235.52 0.65 c p3
104.88 233.69 0.65 c p3
105.16 228.90 0.65 c p3
105.44 226.28 0.65 c p3
105.72 223.05 0.65 c p3
106.00 221.64 0.65 c p3
106.28 218.79 0.65 c p3
106.56 215.97 0.65 c p3
106.84 212.94 0.65 c p3
107.12 211.54 0.65 c p3
107.40 208.03 0.65 c p3
107.68 207.49 0.65 c p3
107.96 205.58 0.65 c p3
108.24 202.16 0.65 c p3
108.52 200.06 0.65 c p3
108.80 199.02 0.65 c p3
109.08 194.68 0.65 c p3
109.36 193.16 0.65 c p3
109.64 191.92 0.65 c p3
109.92 189.64 0.65 c p3
110.20 188.65 0.65 c p3
110.48 186.46 0.65 c p3
110.76 184.99 0.65 c p3
111.04 184.72 0.65 c p3
111.32 180.64 0.65 c p3
111.60 180.16 0.65 c p3
111.88 178.52 0.65 c p3
112.16 176.17 0.65 c p3
112.44 174.76 0.65 c p3
112.72 173.83 0.65 c p3
113.00 170.86 0.65 c p3
113.28 171.32 0.65 c p3
113.56 170.15 0.65 c p3
113.84 167.43 0.65 c p3
114.12 166.08 0.65 c p3
114.40 165.63 0.65 c p3
114.68 164.29 0.65 c p3
114.96 164.98 0.65 c p3
115.24 160.81 0.65 c p3
115.52 160.37 0.65 c p3
115.80 159.69 0.65 c p3
116.08 158.63 0.65 c p3
116.36 157.09 0.65 c p3
116.64 155.61 0.65 c p3
116.92 153.90 0.65 c p3
117.20 153.90 0.65 c p3
117.48 153.90 0.65 c p3
117.76 151.37 0.65 c p3
118.04 150.53 0.65 c p3
118.32 150.34 0.65 c p3
118.60 148.26 0.65 c p3
118.88 148.68 0.65 c p3
119.16 146.79 0.65 c p3
119.44 146.20 0.65 c p3
119.72 145.15 0.65 c p3
120.00 144.16 0.65 c p3
120.28 142.35 0.65 c p3
120.56 142.53 0.65 c p3
120.84 141.73 0.65 c p3
121.12 140.52 0.65 c p3
121.40 139.95 0.65 c p3
121.68 139.15 0.65 c p3
121.96 138.93 0.65 c p3
122.24 138.13 0.65 c p3
122.52 135.60 0.65 c p3
122.80 135.99 0.65 c p3
123.08 135.03 0.65 c p3
123.36 133.65 0.65 c p3
123.64 132.31 0.65 c p3
123.92 131.93 0.65 c p3
124.20 131.54 0.65 c p3
124.48 132.10 0.65 c p3
124.76 130.77 0.65 c p3
125.04 130.77 0.65 c p3
125.32 128.11 0.65 c p3
125.60 129.63 0.65 c p3
125.88 128.11 0.65 c p3
126.16 127.73 0.65 c p3
126.44 127.18 0.65 c p3
126.72 125.68 0.65 c p3
127.00 125.68 0.65 c p3
127.28 124.93 0.65 c p3
127.56 123.98 0.65 c p3
127.84 123.07 0.65 c p3
128.12 123.23 0.65 c p3
128.40 122.70 0.65 c p3
128.68 122.49 0.65 c p3
128.96 121.22 0.65 c p3
129.24 120.65 0.65 c p3
129.52 120.49 0.65 c p3
129.80 119.23 0.65 c p3
130.08 119.76 0.65 c p3
130.36 117.78 0.65 c p3
130.64 118.30 0.65 c p3
130.92 117.42 0.65 c p3
131.20 117.42 0.65 c p3
131.48 116.14 0.65 c p3
131.76 115.98 0.65 c p3
132.04 116.14 0.65 c p3
132.32 115.06 0.65 c p3
132.60 115.06 0.65 c p3
132.88 114.90 0.65 c p3
133.16 113.28 0.65 c p3
133.44 112.77 0.65 c p3
133.72 112.22 0.65 c p3
134.00 112.93 0.65 c p3
134.28 112.22 0.65 c p3
134.56 111.91 0.65 c p3
134.84 111.91 0.65 c p3
135.12 111.36 0.65 c p3
135.40 110.50 0.65 c p3
135.68 110.15 0.65 c p3
135.96 109.10 0.65 c p3
136.24 109.80 0.65 c p3
136.52 109.45 0.65 c p3
136.80 108.56 0.65 c p3
137.08 108.41 0.65 c p3
137.36 107.71 0.65 c p3
137.64 107.37 0.65 c p3
137.92 107.02 0.65 c p3
138.20 106.33 0.65 c p3
138.48 106.33 0.65 c p3
138.76 105.46 0.65 c p3
139.04 105.30 0.65 c p3
139.32 104.96 0.65 c p3
139.60 105.80 0.65 c p3
139.88 103.94 0.65 c p3
140.16 104.28 0.65 c p3
140.44 103.79 0.65 c p3
140.72 103.26 0.65 c p3
141.00 103.26 0.65 c p3
141.28 103.26 0.65 c p3
141.56 102.92 0.65 c p3
141.84 102.24 0.65 c p3
142.12 101.57 0.65 c p3
142.40 101.23 0.65 c p3
142.68 100.56 0.65 c p3
142.96 101.23 0.65 c p3
143.24 100.75 0.65 c p3
143.52 99.89 0.65 c p3
143.80 100.08 0.65 c p3
144.08 99.56 0.65 c p3
144.36 99.08 0.65 c p3
144.64 98.41 0.65 c p3
144.92 98.74 0.65 c p3
145.20 99.23 0.65 c p3
145.48 97.90 0.65 c p3
145.76 97.56 0.65 c p3
146.04 97.27 0.65 c p3
146.32 96.94 0.65 c p3
146.60 96.61 0.65 c p3
146.88 96.43 0.65 c p3
147.16 96.28 0.65 c p3
147.44 95.77 0.65 c p3
147.72 95.30 0.65 c p3
148.00 95.63 0.65 c p3
148.28 95.30 0.65 c p3
148.56 94.64 0.65 c p3
148.84 94.64 0.65 c p3
149.12 94.14 0.65 c p3
149.40 93.67 0.65 c p3
149.68 93.34 0.65 c p3
149.96 93.34 0.65 c p3
150.24 93.49 0.65 c p3
150.52 92.69 0.65 c p3
150.80 93.67 0.65 c p3
151.08 92.19 0.65 c p3
151.36 91.87 0.65 c p3
151.64 92.19 0.65 c p3
151.92 91.72 0.65 c p3
152.20 90.76 0.65 c p3
152.48 91.87 0.65 c p3
152.76 90.44 0.65 c p3
153.04 90.76 0.65 c p3
153.32 90.76 0.65 c p3
153.60 90.90 0.65 c p3
153.88 90.30 0.65 c p3
154.16 89.80 0.65 c p3
154.44 90.12 0.65 c p3
154.72 89.34 0.65 c p3
155.00 88.70 0.65 c p3
155.28 88.52 0.65 c p3
155.56 89.66 0.65 c p3
155.84 89.02 0.65 c p3
156.12 88.70 0.65 c p3
156.40 87.43 0.65 c p3
156.68 88.52 0.65 c p3
156.96 87.75 0.65 c p3
157.24 87.26 0.65 c p3
157.52 87.89 0.65 c p3
157.80 87.57 0.65 c p3
158.08 87.43 0.65 c p3
158.36 86.62 0.65 c p3
158.64 86.94 0.65 c p3
158.92 86.62 0.65 c p3
159.20 85.86 0.65 c p3
159.48 86.00 0.65 c p3
159.76 86.00 0.65 c p3
160.04 85.37 0.65 c p3
160.32 84.92 0.65 c p3
160.60 85.37 0.65 c p3
160.88 85.06 0.65 c p3
161.16 85.23 0.65 c p3
161.44 85.37 0.65 c p3
161.72 84.74 0.65 c p3
162.00 84.29 0.65 c p3
162.28 83.53 0.65 c p3
162.56 84.60 0.65 c p3
162.84 82.91 0.65 c p3
163.12 83.98 0.65 c p3
163.40 83.22 0.65 c p3
163.68 83.22 0.65 c p3
163.96 82.74 0.65 c p3
164.24 82.43 0.65 c p3
164.52 82.29 0.65 c p3
164.80 82.91 0.65 c p3
165.08 82.29 0.65 c p3
165.36 82.12 0.65 c p3
165.64 82.29 0.65 c p3
165.92 82.74 0.65 c p3
166.20 82.12 0.65 c p3
166.48 81.81 0.65 c p3
166.76 81.50 0.65 c p3
167.04 81.50 0.65 c p3
167.32 80.75 0.65 c p3
167.60 81.06 0.65 c p3
167.88 80.27 0.65 c p3
168.16 80.75 0.65 c p3
168.44 80.58 0.65 c p3
168.72 80.75 0.65 c p3
169.00 80.44 0.65 c p3
169.28 80.44 0.65 c p3
169.56 79.83 0.65 c p3
169.84 79.83 0.65 c p3
170.12 79.36 0.65 c p3
170.40 79.22 0.65 c p3
170.68 79.05 0.65 c p3
170.96 79.22 0.65 c p3
171.24 78.44 0.65 c p3
171.52 79.36 0.65 c p3
171.80 78.92 0.65 c p3
172.08 79.05 0.65 c p3
172.36 78.31 0.65 c p3
172.64 78.61 0.65 c p3
172.92 77.84 0.65 c p3
173.20 78.61 0.65 c p3
173.48 78.44 0.65 c p3
173.76 78.31 0.65 c p3
174.04 76.96 0.65 c p3
174.32 77.70 0.65 c p3
174.60 77.53 0.65 c p3
174.88 77.40 0.65 c p3
175.16 77.23 0.65 c p3
175.44 76.79 0.65 c p3
175.72 76.66 0.65 c p3
176.00 77.40 0.65 c p3
176.28 76.66 0.65 c p3
176.56 76.36 0.65 c p3
176.84 76.49 0.65 c p3
177.12 76.06 0.65 c p3
177.40 75.29 0.65 c p3
177.68 75.89 0.65 c p3
177.96 75.76 0.65 c p3
178.24 76.36 0.65 c p3
178.52 75.29 0.65 c p3
178.80 75.89 0.65 c p3
179.08 75.46 0.65 c p3
179.36 75.76 0.65 c p3
179.64 75.16 0.65 c p3
179.92 74.69 0.65 c p3
180.20 74.56 0.65 c p3
180.48 75.16 0.65 c p3
180.76 74.86 0.65 c p3
181.04 74.86 0.65 c p3
181.32 74.26 0.65 c p3
181.60 74.39 0.65 c p3
181.88 73.80 0.65 c p3
182.16 74.10 0.65 c p3
182.44 74.10 0.65 c p3
182.72 74.26 0.65 c p3
183.00 73.96 0.65 c p3
183.28 73.50 0.65 c p3
183.56 73.50 0.65 c p3
183.84 73.67 0.65 c p3
184.12 72.78 0.65 c p3
184.40 73.07 0.65 c p3
184.68 73.50 0.65 c p3
184.96 73.37 0.65 c p3
185.24 72.91 0.65 c p3
185.52 73.20 0.65 c p3
185.80 73.07 0.65 c p3
186.08 73.67 0.65 c p3
186.36 72.78 0.65 c p3
186.64 72.78 0.65 c p3
186.92 72.61 0.65 c p3
187.20 72.91 0.65 c p3
187.48 72.32 0.65 c p3
187.76 72.18 0.65 c p3
188.04 72.61 0.65 c p3
188.32 72.61 0.65 c p3
188.60 72.02 0.65 c p3
188.88 72.02 0.65 c p3
189.16 71.72 0.65 c p3
189.44 73.07 0.65 c p3
189.72 72.02 0.65 c p3
190.00 71.72 0.65 c p3
190.28 71.30 0.65 c p3
190.56 71.30 0.65 c p3
190.84 71.00 0.65 c p3
191.12 71.59 0.65 c p3
191.40 71.30 0.65 c p3
191.68 71.30 0.65 c p3
191.96 71.14 0.65 c p3
192.24 71.00 0.65 c p3
192.52 70.71 0.65 c p3
192.80 70.71 0.65 c p3
193.08 71.14 0.65 c p3
193.36 71.14 0.65 c p3
193.64 70.12 0.65 c p3
193.92 70.71 0.65 c p3
194.20 71.00 0.65 c p3
194.48 70.87 0.65 c p3
194.76 70.12 0.65 c p3
195.04 70.42 0.65 c p3
195.32 69.99 0.65 c p3
195.60 70.29 0.65 c p3
195.88 69.99 0.65 c p3
196.16 69.99 0.65 c p3
196.44 70.12 0.65 c p3
196.72 69.70 0.65 c p3
197.00 70.29 0.65 c p3
197.28 69.99 0.65 c p3
197.56 69.41 0.65 c p3
197.84 69.70 0.65 c p3
198.12 68.96 0.65 c p3
198.40 69.99 0.65 c p3
198.68 69.41 0.65 c p3
198.96 69.54 0.65 c p3
199.24 68.96 0.65 c p3
199.52 68.96 0.65 c p3
199.80 68.96 0.65 c p3
200.08 69.70 0.65 c p3
200.36 68.96 0.65 c p3
200.64 69.12 0.65 c p3
200.92 69.70 0.65 c p3
201.20 69.41 0.65 c p3
201.48 68.67 0.65 c p3
201.76 68.37 0.65 c p3
202.04 67.79 0.65 c p3
202.32 68.96 0.65 c p3
202.60 67.79 0.65 c p3
202.88 68.67 0.65 c p3
203.16 68.37 0.65 c p3
203.44 68.67 0.65 c p3
203.72 69.12 0.65 c p3
204.00 68.67 0.65 c p3
204.28 67.96 0.65 c p3
204.56 68.54 0.65 c p3
204.84 67.79 0.65 c p3
205.12 67.79 0.65 c p3
205.40 67.96 0.65 c p3
205.68 68.25 0.65 c p3
205.96 67.67 0.65 c p3
206.24 67.79 0.65 c p3
206.52 67.79 0.65 c p3
206.80 67.67 0.65 c p3
207.08 67.09 0.65 c p3
207.36 68.08 0.65 c p3
207.64 67.67 0.65 c p3
207.92 66.93 0.65 c p3
208.20 66.80 0.65 c p3
208.48 67.38 0.65 c p3
208.76 67.38 0.65 c p3
209.04 67.67 0.65 c p3
209.32 67.09 0.65 c p3
209.60 67.09 0.65 c p3
209.88 67.79 0.65 c p3
210.16 67.79 0.65 c p3
210.44 66.80 0.65 c p3
210.72 67.38 0.65 c p3
211.00 67.09 0.65 c p3
211.28 66.93 0.65 c p3
211.56 66.35 0.65 c p3
211.84 67.22 0.65 c p3
212.12 67.22 0.65 c p3
212.40 66.93 0.65 c p3
212.68 66.80 0.65 c p3
212.96 66.22 0.65 c p3
213.24 66.51 0.65 c p3
213.52 67.09 0.65 c p3
213.80 66.51 0.65 c p3
214.08 66.51 0.65 c p3
214.36 67.09 0.65 c p3
214.64 66.64 0.65 c p3
214.92 66.22 0.65 c p3
215.20 66.51 0.65 c p3
215.48 66.64 0.65 c p3
215.76 66.93 0.65 c p3
216.04 66.22 0.65 c p3
216.32 66.80 0.65 c p3
216.60 66.80 0.65 c p3
216.88 66.22 0.65 c p3
217.16 66.35 0.65 c p3
217.44 66.06 0.65 c p3
217.72 66.06 0.65 c p3
218.00 65.93 0.65 c p3
218.28 66.35 0.65 c p3
218.56 65.93 0.65 c p3
218.84 65.93 0.65 c p3
219.12 66.06 0.65 c p3
219.40 66.06 0.65 c p3
219.68 65.36 0.65 c p3
219.96 65.77 0.65 c p3
220.24 65.49 0.65 c p3
220.52 65.77 0.65 c p3
220.80 65.93 0.65 c p3
221.08 65.36 0.65 c p3
221.36 65.49 0.65 c p3
221.64 65.49 0.65 c p3
221.92 65.77 0.65 c p3
222.20 65.49 0.65 c p3
222.48 66.22 0.65 c p3
222.76 65.77 0.65 c p3
223.04 65.65 0.65 c p3
223.32 65.93 0.65 c p3
223.60 65.77 0.65 c p3
223.88 65.36 0.65 c p3
224.16 65.20 0.65 c p3
224.44 65.36 0.65 c p3
224.72 64.91 0.65 c p3
225.00 65.36 0.65 c p3
225.28 65.20 0.65 c p3
225.56 65.65 0.65 c p3
225.84 65.36 0.65 c p3
226.12 64.79 0.65 c p3
226.40 65.49 0.65 c p3
226.68 65.36 0.65 c p3
226.96 64.50 0.65 c p3
227.24 64.79 0.65 c p3
227.52 65.20 0.65 c p3
227.80 65.49 0.65 c p3
228.08 65.20 0.65 c p3
228.36 65.20 0.65 c p3
228.64 65.49 0.65 c p3
228.92 65.07 0.65 c p3
229.20 65.20 0.65 c p3
229.48 64.66 0.65 c p3
229.76 65.20 0.65 c p3
230.04 65.36 0.65 c p3
230.32 64.79 0.65 c p3
230.60 64.79 0.65 c p3
230.88 65.36 0.65 c p3
231.16 64.50 0.65 c p3
231.44 64.66 0.65 c p3
231.72 64.37 0.65 c p3
232.00 64.79 0.65 c p3
232.28 64.50 0.65 c p3
232.56 64.37 0.65 c p3
232.84 65.07 0.65 c p3
233.12 64.79 0.65 c p3
233.40 64.66 0.65 c p3
233.68 64.66 0.65 c p3
233.96 64.37 0.65 c p3
234.24 64.66 0.65 c p3
234.52 64.22 0.65 c p3
234.80 65.07 0.65 c p3
235.08 64.22 0.65 c p3
235.36 63.93 0.65 c p3
235.64 64.79 0.65 c p3
235.92 63.93 0.65 c p3
236.20 64.50 0.65 c p3
236.48 64.79 0.65 c p3
236.76 63.93 0.65 c p3
237.04 64.79 0.65 c p3
237.32 64.22 0.65 c p3
237.60 64.37 0.65 c p3
237.88 64.22 0.65 c p3
238.16 64.91 0.65 c p3
238.44 64.50 0.65 c p3
238.72 64.91 0.65 c p3
239.00 64.66 0.65 c p3
239.28 64.22 0.65 c p3
239.56 63.80 0.65 c p3
239.84 64.50 0.65 c p3
240.12 64.37 0.65 c p3
240.40 64.09 0.65 c p3
240.68 64.09 0.65 c p3
240.96 64.09 0.65 c p3
241.24 64.22 0.65 c p3
241.52 64.37 0.65 c p3
241.80 63.65 0.65 c p3
242.08 64.22 0.65 c p3
242.36 64.37 0.65 c p3
242.64 64.09 0.65 c p3
242.92 63.80 0.65 c p3
243.20 63.93 0.65 c p3
243.48 64.22 0.65 c p3
243.76 63.93 0.65 c p3
244.04 64.50 0.65 c p3
244.32 64.22 0.65 c p3
244.60 63.65 0.65 c p3
244.88 64.37 0.65 c p3
245.16 64.37 0.65 c p3
245.44 64.09 0.65 c p3
245.72 63.52 0.65 c p3
246.00 63.93 0.65 c p3
246.28 64.09 0.65 c p3
246.56 63.80 0.65 c p3
246.84 63.52 0.65 c p3
247.12 64.50 0.65 c p3
247.40 64.50 0.65 c p3
247.68 63.65 0.65 c p3
247.96 63.65 0.65 c p3
248.24 64.37 0.65 c p3
248.52 63.80 0.65 c p3
248.80 63.93 0.65 c p3
249.08 63.65 0.65 c p3
249.36 64.50 0.65 c p3
249.64 63.52 0.65 c p3
249.92 63.80 0.65 c p3
250.20 63.52 0.65 c p3
250.48 64.50 0.65 c p3
250.76 64.22 0.65 c p3
251.04 63.65 0.65 c p3
251.32 63.93 0.65 c p3
251.60 63.80 0.65 c p3
251.88 64.22 0.65 c p3
252.16 64.37 0.65 c p3
252.44 64.37 0.65 c p3
252.72 63.65 0.65 c p3
253.00 63.65 0.65 c p3
253.28 64.37 0.65 c p3
253.56 64.09 0.65 c p3
253.84 63.93 0.65 c p3
254.12 63.65 0.65 c p3
254.40 64.09 0.65 c p3
254.68 64.37 0.65 c p3
254.96 64.22 0.65 c p3
255.24 63.52 0.65 c p3
255.52 63.65 0.65 c p3
255.80 64.09 0.65 c p3
216.00 201.60 367.20 247.68 cl
0 0 0 srgb
0.75 setlinewidth
[] 0 setdash
1 setlinecap
1 setlinejoin
10.00 setmiterlimit
221.60 238.86 0.43 c p1
221.86 238.86 0.43 c p1
222.11 236.19 0.43 c p1
222.37 235.93 0.43 c p1
222.63 234.52 0.43 c p1
222.88 232.26 0.43 c p1
223.14 232.29 0.43 c p1
223.39 232.31 0.43 c p1
223.65 230.09 0.43 c p1
223.91 229.48 0.43 c p1
224.16 228.40 0.43 c p1
224.42 228.67 0.43 c p1
224.68 227.84 0.43 c p1
224.93 227.03 0.43 c p1
225.19 226.04 0.43 c p1
225.45 226.25 0.43 c p1
225.70 224.87 0.43 c p1
225.96 225.70 0.43 c p1
226.22 225.49 0.43 c p1
226.47 224.14 0.43 c p1
226.73 223.76 0.43 c p1
226.98 224.16 0.43 c p1
227.24 222.07 0.43 c p1
227.50 222.08 0.43 c p1
227.75 222.30 0.43 c p1
228.01 221.71 0.43 c p1
228.27 222.08 0.43 c p1
228.52 221.53 0.43 c p1
228.78 221.52 0.43 c p1
229.04 222.39 0.43 c p1
229.29 220.40 0.43 c p1
229.55 221.09 0.43 c p1
229.81 220.90 0.43 c p1
230.06 220.15 0.43 c p1
230.32 220.11 0.43 c p1
230.57 220.42 0.43 c p1
230.83 219.18 0.43 c p1
231.09 220.50 0.43 c p1
231.34 220.59 0.43 c p1
231.60 219.50 0.43 c p1
231.86 219.44 0.43 c p1
232.11 220.03 0.43 c p1
232.37 219.95 0.43 c p1
232.63 221.38 0.43 c p1
232.88 219.15 0.43 c p1
233.14 219.72 0.43 c p1
233.39 220.09 0.43 c p1
233.65 220.16 0.43 c p1
233.91 219.87 0.43 c p1
234.16 219.61 0.43 c p1
234.42 219.17 0.43 c p1
234.68 220.00 0.43 c p1
234.93 220.82 0.43 c p1
235.19 219.73 0.43 c p1
235.45 219.90 0.43 c p1
235.70 220.55 0.43 c p1
235.96 219.78 0.43 c p1
236.22 220.86 0.43 c p1
236.47 220.21 0.43 c p1
236.73 220.52 0.43 c p1
236.98 220.49 0.43 c p1
237.24 220.48 0.43 c p1
237.50 219.86 0.43 c p1
237.75 220.71 0.43 c p1
238.01 220.82 0.43 c p1
238.27 220.62 0.43 c p1
238.52 220.88 0.43 c p1
238.78 220.97 0.43 c p1
239.04 221.49 0.43 c p1
239.29 221.57 0.43 c p1
239.55 220.33 0.43 c p1
239.81 221.28 0.43 c p1
240.06 221.21 0.43 c p1
240.32 220.81 0.43 c p1
240.57 220.45 0.43 c p1
240.83 220.78 0.43 c p1
241.09 221.11 0.43 c p1
241.34 222.14 0.43 c p1
241.60 221.76 0.43 c p1
241.86 222.35 0.43 c p1
242.11 220.94 0.43 c p1
242.37 222.67 0.43 c p1
242.63 222.11 0.43 c p1
242.88 222.39 0.43 c p1
243.14 222.55 0.43 c p1
243.39 221.98 0.43 c p1
243.65 222.53 0.43 c p1
243.91 222.51 0.43 c p1
244.16 222.33 0.43 c p1
244.42 222.19 0.43 c p1
244.68 222.83 0.43 c p1
244.93 222.95 0.43 c p1
245.19 223.31 0.43 c p1
245.45 222.87 0.43 c p1
245.70 222.94 0.43 c p1
245.96 223.32 0.43 c p1
246.22 222.86 0.43 c p1
246.47 223.74 0.43 c p1
246.73 222.74 0.43 c p1
246.98 223.60 0.43 c p1
247.24 223.41 0.43 c p1
247.50 223.87 0.43 c p1
247.75 223.36 0.43 c p1
248.01 223.70 0.43 c p1
248.27 224.26 0.43 c p1
248.52 223.90 0.43 c p1
248.78 224.33 0.43 c p1
249.04 224.64 0.43 c p1
249.29 223.85 0.43 c p1
249.55 223.89 0.43 c p1
249.81 223.89 0.43 c p1
250.06 224.84 0.43 c p1
250.32 224.71 0.43 c p1
250.57 224.88 0.43 c p1
250.83 225.27 0.43 c p1
251.09 225.26 0.43 c p1
251.34 225.00 0.43 c p1
251.60 225.12 0.43 c p1
251.86 224.72 0.43 c p1
252.11 225.61 0.43 c p1
252.37 225.72 0.43 c p1
252.63 225.42 0.43 c p1
252.88 225.66 0.43 c p1
253.14 225.50 0.43 c p1
253.39 225.60 0.43 c p1
253.65 225.69 0.43 c p1
253.91 225.51 0.43 c p1
254.16 225.85 0.43 c p1
254.42 225.53 0.43 c p1
254.68 225.75 0.43 c p1
254.93 225.82 0.43 c p1
255.19 226.78 0.43 c p1
255.45 225.70 0.43 c p1
255.70 226.28 0.43 c p1
255.96 226.22 0.43 c p1
256.22 226.14 0.43 c p1
256.47 226.44 0.43 c p1
256.73 226.75 0.43 c p1
256.98 226.79 0.43 c p1
257.24 226.58 0.43 c p1
257.50 226.37 0.43 c p1
257.75 226.40 0.43 c p1
258.01 226.19 0.43 c p1
258.27 226.97 0.43 c p1
258.52 226.89 0.43 c p1
258.78 226.52 0.43 c p1
259.04 226.93 0.43 c p1
259.29 226.81 0.43 c p1
259.55 226.72 0.43 c p1
259.81 226.49 0.43 c p1
260.06 226.99 0.43 c p1
260.32 227.61 0.43 c p1
260.57 226.87 0.43 c p1
260.83 226.87 0.43 c p1
261.09 226.90 0.43 c p1
261.34 226.90 0.43 c p1
261.60 226.89 0.43 c p1
261.86 227.00 0.43 c p1
262.11 227.12 0.43 c p1
262.37 226.98 0.43 c p1
262.63 226.85 0.43 c p1
262.88 227.33 0.43 c p1
263.14 227.31 0.43 c p1
263.39 227.04 0.43 c p1
263.65 227.26 0.43 c p1
263.91 227.10 0.43 c p1
264.16 226.96 0.43 c p1
264.42 226.93 0.43 c p1
264.68 227.14 0.43 c p1
264.93 227.46 0.43 c p1
265.19 227.07 0.43 c p1
265.45 228.00 0.43 c p1
265.70 227.10 0.43 c p1
265.96 227.06 0.43 c p1
266.22 227.49 0.43 c p1
266.47 227.34 0.43 c p1
266.73 226.81 0.43 c p1
266.98 227.83 0.43 c p1
267.24 226.94 0.43 c p1
267.50 227.37 0.43 c p1
267.75 227.55 0.43 c p1
268.01 227.84 0.43 c p1
268.27 227.57 0.43 c p1
268.52 227.37 0.43 c p1
268.78 227.78 0.43 c p1
269.04 227.37 0.43 c p1
269.29 227.07 0.43 c p1
269.55 227.10 0.43 c p1
269.81 228.12 0.43 c p1
270.06 227.80 0.43 c p1
270.32 227.73 0.43 c p1
270.57 226.94 0.43 c p1
270.83 227.92 0.43 c p1
271.09 227.49 0.43 c p1
271.34 227.28 0.43 c p1
271.60 227.91 0.43 c p1
271.86 227.82 0.43 c p1
272.11 227.87 0.43 c p1
272.37 227.41 0.43 c p1
272.63 227.79 0.43 c p1
272.88 227.70 0.43 c p1
273.14 227.27 0.43 c p1
273.39 227.51 0.43 c p1
273.65 227.65 0.43 c p1
273.91 227.32 0.43 c p1
274.16 227.12 0.43 c p1
274.42 227.59 0.43 c p1
274.68 227.49 0.43 c p1
274.93 227.75 0.43 c p1
275.19 227.99 0.43 c p1
275.45 227.65 0.43 c p1
275.70 227.44 0.43 c p1
275.96 226.99 0.43 c p1
276.22 227.92 0.43 c p1
276.47 226.78 0.43 c p1
276.73 227.70 0.43 c p1
276.98 227.25 0.43 c p1
277.24 227.37 0.43 c p1
277.50 227.13 0.43 c p1
277.75 227.01 0.43 c p1
278.01 227.02 0.43 c p1
278.27 227.60 0.43 c p1
278.52 227.25 0.43 c p1
278.78 227.23 0.43 c p1
279.04 227.47 0.43 c p1
279.29 227.91 0.43 c p1
279.55 227.55 0.43 c p1
279.81 227.43 0.43 c p1
280.06 227.30 0.43 c p1
280.32 227.40 0.43 c p1
280.57 226.94 0.43 c p1
280.83 227.27 0.43 c p1
281.09 226.78 0.43 c p1
281.34 227.24 0.43 c p1
281.60 227.21 0.43 c p1
281.86 227.43 0.43 c p1
282.11 227.30 0.43 c p1
282.37 227.39 0.43 c p1
282.63 227.03 0.43 c p1
282.88 227.12 0.43 c p1
283.14 226.85 0.43 c p1
283.39 226.84 0.43 c p1
283.65 226.80 0.43 c p1
283.91 227.02 0.43 c p1
284.16 226.52 0.43 c p1
284.42 227.29 0.43 c p1
284.68 227.05 0.43 c p1
284.93 227.23 0.43 c p1
285.19 226.76 0.43 c p1
285.45 227.07 0.43 c p1
285.70 226.57 0.43 c p1
285.96 227.23 0.43 c p1
286.22 227.18 0.43 c p1
286.47 227.15 0.43 c p1
286.73 226.22 0.43 c p1
286.98 226.85 0.43 c p1
287.24 226.80 0.43 c p1
287.50 226.78 0.43 c p1
287.75 226.72 0.43 c p1
288.01 226.47 0.43 c p1
288.27 226.44 0.43 c p1
288.52 227.06 0.43 c p1
288.78 226.58 0.43 c p1
289.04 226.43 0.43 c p1
289.29 226.59 0.43 c p1
289.55 226.34 0.43 c p1
289.81 225.83 0.43 c p1
290.06 226.34 0.43 c p1
290.32 226.31 0.43 c p1
290.57 226.82 0.43 c p1
290.83 226.09 0.43 c p1
291.09 226.60 0.43 c p1
291.34 226.34 0.43 c p1
291.60 226.62 0.43 c p1
291.86 226.24 0.43 c p1
292.11 225.95 0.43 c p1
292.37 225.91 0.43 c p1
292.63 226.41 0.43 c p1
292.88 226.25 0.43 c p1
293.14 226.31 0.43 c p1
293.39 225.92 0.43 c p1
293.65 226.07 0.43 c p1
293.91 225.68 0.43 c p1
294.16 225.96 0.43 c p1
294.42 226.01 0.43 c p1
294.68 226.19 0.43 c p1
294.93 226.02 0.43 c p1
295.19 225.72 0.43 c p1
295.45 225.78 0.43 c p1
295.70 225.95 0.43 c p1
295.96 225.33 0.43 c p1
296.22 225.61 0.43 c p1
296.47 225.98 0.43 c p1
296.73 225.93 0.43 c p1
296.98 225.63 0.43 c p1
297.24 225.90 0.43 c p1
297.50 225.85 0.43 c p1
297.75 226.34 0.43 c p1
298.01 225.72 0.43 c p1
298.27 225.76 0.43 c p1
298.52 225.68 0.43 c p1
298.78 225.95 0.43 c p1
299.04 225.55 0.43 c p1
299.29 225.50 0.43 c p1
299.55 225.86 0.43 c p1
299.81 225.90 0.43 c p1
300.06 225.50 0.43 c p1
300.32 225.54 0.43 c p1
300.57 225.36 0.43 c p1
300.83 226.41 0.43 c p1
301.09 225.66 0.43 c p1
301.34 225.48 0.43 c p1
301.60 225.20 0.43 c p1
301.86 225.24 0.43 c p1
302.11 225.06 0.43 c p1
302.37 225.54 0.43 c p1
302.63 225.35 0.43 c p1
302.88 225.39 0.43 c p1
303.14 225.30 0.43 c p1
303.39 225.24 0.43 c p1
303.65 225.06 0.43 c p1
303.91 225.09 0.43 c p1
304.16 225.44 0.43 c p1
304.42 225.48 0.43 c p1
304.68 224.75 0.43 c p1
304.93 225.23 0.43 c p1
305.19 225.48 0.43 c p1
305.45 225.42 0.43 c p1
305.70 224.89 0.43 c p1
305.96 225.14 0.43 c p1
306.22 224.85 0.43 c p1
306.47 225.10 0.43 c p1
306.73 224.91 0.43 c p1
306.98 224.95 0.43 c p1
307.24 225.07 0.43 c p1
307.50 224.79 0.43 c p1
307.75 225.25 0.43 c p1
308.01 225.06 0.43 c p1
308.27 224.65 0.43 c p1
308.52 224.90 0.43 c p1
308.78 224.37 0.43 c p1
309.04 225.18 0.43 c p1
309.29 224.77 0.43 c p1
309.55 224.89 0.43 c p1
309.81 224.48 0.43 c p1
310.06 224.51 0.43 c p1
310.32 224.53 0.43 c p1
310.57 225.12 0.43 c p1
310.83 224.58 0.43 c p1
311.09 224.73 0.43 c p1
311.34 225.19 0.43 c p1
311.60 225.00 0.43 c p1
311.86 224.47 0.43 c p1
312.11 224.27 0.43 c p1
312.37 223.86 0.43 c p1
312.63 224.76 0.43 c p1
312.88 223.91 0.43 c p1
313.14 224.58 0.43 c p1
313.39 224.39 0.43 c p1
313.65 224.63 0.43 c p1
313.91 224.99 0.43 c p1
314.16 224.67 0.43 c p1
314.42 224.16 0.43 c p1
314.68 224.62 0.43 c p1
314.93 224.09 0.43 c p1
315.19 224.11 0.43 c p1
315.45 224.25 0.43 c p1
315.70 224.49 0.43 c p1
315.96 224.07 0.43 c p1
316.22 224.19 0.43 c p1
316.47 224.21 0.43 c p1
316.73 224.13 0.43 c p1
316.98 223.72 0.43 c p1
317.24 224.48 0.43 c p1
317.50 224.19 0.43 c p1
317.75 223.65 0.43 c p1
318.01 223.57 0.43 c p1
318.27 224.03 0.43 c p1
318.52 224.04 0.43 c p1
318.78 224.28 0.43 c p1
319.04 223.86 0.43 c p1
319.29 223.88 0.43 c p1
319.55 224.43 0.43 c p1
319.81 224.44 0.43 c p1
320.06 223.71 0.43 c p1
320.32 224.16 0.43 c p1
320.57 223.96 0.43 c p1
320.83 223.86 0.43 c p1
321.09 223.44 0.43 c p1
321.34 224.11 0.43 c p1
321.60 224.12 0.43 c p1
321.86 223.92 0.43 c p1
322.11 223.84 0.43 c p1
322.37 223.43 0.43 c p1
322.63 223.66 0.43 c p1
322.88 224.10 0.43 c p1
323.14 223.69 0.43 c p1
323.39 223.70 0.43 c p1
323.65 224.15 0.43 c p1
323.91 223.82 0.43 c p1
324.16 223.53 0.43 c p1
324.42 223.76 0.43 c p1
324.68 223.87 0.43 c p1
324.93 224.10 0.43 c p1
325.19 223.58 0.43 c p1
325.45 224.03 0.43 c p1
325.70 224.04 0.43 c p1
325.96 223.62 0.43 c p1
326.22 223.73 0.43 c p1
326.47 223.52 0.43 c p1
326.73 223.54 0.43 c p1
326.98 223.45 0.43 c p1
327.24 223.78 0.43 c p1
327.50 223.48 0.43 c p1
327.75 223.49 0.43 c p1
328.01 223.60 0.43 c p1
328.27 223.61 0.43 c p1
328.52 223.09 0.43 c p1
328.78 223.42 0.43 c p1
329.04 223.21 0.43 c p1
329.29 223.44 0.43 c p1
329.55 223.57 0.43 c p1
329.81 223.15 0.43 c p1
330.06 223.26 0.43 c p1
330.32 223.27 0.43 c p1
330.57 223.49 0.43 c p1
330.83 223.29 0.43 c p1
331.09 223.85 0.43 c p1
331.34 223.52 0.43 c p1
331.60 223.44 0.43 c p1
331.86 223.66 0.43 c p1
332.11 223.55 0.43 c p1
332.37 223.25 0.43 c p1
332.63 223.14 0.43 c p1
332.88 223.27 0.43 c p1
333.14 222.94 0.43 c p1
333.39 223.29 0.43 c p1
333.65 223.18 0.43 c p1
333.91 223.52 0.43 c p1
334.16 223.31 0.43 c p1
334.42 222.89 0.43 c p1
334.68 223.43 0.43 c p1
334.93 223.34 0.43 c p1
335.19 222.71 0.43 c p1
335.45 222.93 0.43 c p1
335.70 223.25 0.43 c p1
335.96 223.47 0.43 c p1
336.22 223.26 0.43 c p1
336.47 223.27 0.43 c p1
336.73 223.49 0.43 c p1
336.98 223.19 0.43 c p1
337.24 223.29 0.43 c p1
337.50 222.90 0.43 c p1
337.75 223.31 0.43 c p1
338.01 223.43 0.43 c p1
338.27 223.01 0.43 c p1
338.52 223.02 0.43 c p1
338.78 223.46 0.43 c p1
339.04 222.82 0.43 c p1
339.29 222.95 0.43 c p1
339.55 222.74 0.43 c p1
339.81 223.05 0.43 c p1
340.06 222.85 0.43 c p1
340.32 222.76 0.43 c p1
340.57 223.29 0.43 c p1
340.83 223.08 0.43 c p1
341.09 222.99 0.43 c p1
341.34 223.00 0.43 c p1
341.60 222.79 0.43 c p1
341.86 223.01 0.43 c p1
342.11 222.68 0.43 c p1
342.37 223.33 0.43 c p1
342.63 222.70 0.43 c p1
342.88 222.49 0.43 c p1
343.14 223.14 0.43 c p1
343.39 222.50 0.43 c p1
343.65 222.93 0.43 c p1
343.91 223.15 0.43 c p1
344.16 222.52 0.43 c p1
344.42 223.16 0.43 c p1
344.68 222.74 0.43 c p1
344.93 222.87 0.43 c p1
345.19 222.75 0.43 c p1
345.45 223.28 0.43 c p1
345.70 222.98 0.43 c p1
345.96 223.29 0.43 c p1
346.22 223.11 0.43 c p1
346.47 222.78 0.43 c p1
346.73 222.48 0.43 c p1
346.98 223.00 0.43 c p1
347.24 222.91 0.43 c p1
347.50 222.70 0.43 c p1
347.75 222.71 0.43 c p1
348.01 222.71 0.43 c p1
348.27 222.81 0.43 c p1
348.52 222.94 0.43 c p1
348.78 222.39 0.43 c p1
349.04 222.83 0.43 c p1
349.29 222.95 0.43 c p1
349.55 222.74 0.43 c p1
349.81 222.53 0.43 c p1
350.06 222.63 0.43 c p1
350.32 222.85 0.43 c p1
350.57 222.64 0.43 c p1
350.83 223.07 0.43 c p1
351.09 222.86 0.43 c p1
351.34 222.44 0.43 c p1
351.60 222.99 0.43 c p1
351.86 222.99 0.43 c p1
352.11 222.78 0.43 c p1
352.37 222.36 0.43 c p1
352.63 222.67 0.43 c p1
352.88 222.79 0.43 c p1
353.14 222.58 0.43 c p1
353.39 222.37 0.43 c p1
353.65 223.11 0.43 c p1
353.91 223.12 0.43 c p1
354.16 222.48 0.43 c p1
354.42 222.48 0.43 c p1
354.68 223.03 0.43 c p1
354.93 222.61 0.43 c p1
355.19 222.71 0.43 c p1
355.45 222.50 0.43 c p1
355.70 223.14 0.43 c p1
355.96 222.41 0.43 c p1
356.22 222.62 0.43 c p1
356.47 222.41 0.43 c p1
356.73 223.15 0.43 c p1
356.98 222.94 0.43 c p1
357.24 222.52 0.43 c p1
357.50 222.73 0.43 c p1
357.75 222.64 0.43 c p1
358.01 222.95 0.43 c p1
358.27 223.08 0.43 c p1
358.52 223.08 0.43 c p1
358.78 222.54 0.43 c p1
359.04 222.54 0.43 c p1
359.29 223.09 0.43 c p1
359.55 222.88 0.43 c p1
359.81 222.76 0.43 c p1
360.06 222.55 0.43 c p1
360.32 222.88 0.43 c p1
360.57 223.10 0.43 c p1
360.83 222.98 0.43 c p1
361.09 222.46 0.43 c p1
361.34 222.56 0.43 c p1
361.60 222.90 0.43 c p1
0.00 0.00 432.00 576.00 cl
0 0 0 srgb
0.75 setlinewidth
[] 0 setdash
1 setlinecap
1 setlinejoin
10.00 setmiterlimit
np
216.73 201.60 m
128.20 0 l
o
np
216.73 201.60 m
0 -5.76 l
o
np
242.37 201.60 m
0 -5.76 l
o
np
268.01 201.60 m
0 -5.76 l
o
np
293.65 201.60 m
0 -5.76 l
o
np
319.29 201.60 m
0 -5.76 l
o
np
344.93 201.60 m
0 -5.76 l
o
/Font1 findfont 6 s
216.73 185.47 (0) .5 0 t
242.37 185.47 (1000) .5 0 t
268.01 185.47 (2000) .5 0 t
293.65 185.47 (3000) .5 0 t
319.29 185.47 (4000) .5 0 t
344.93 185.47 (5000) .5 0 t
np
216.00 209.11 m
0 31.06 l
o
np
216.00 209.11 m
-5.76 0 l
o
np
216.00 216.88 m
-5.76 0 l
o
np
216.00 224.64 m
-5.76 0 l
o
np
216.00 232.40 m
-5.76 0 l
o
np
216.00 240.17 m
-5.76 0 l
o
209.09 206.96 (-0.04) 1 0 t
209.09 214.72 (-0.02) 1 0 t
209.09 222.49 (0.00) 1 0 t
209.09 230.25 (0.02) 1 0 t
209.09 238.01 (0.04) 1 0 t
np
216.00 201.60 m
151.20 0 l
0 46.08 l
-151.20 0 l
0 -46.08 l
o
0.00 0.00 432.00 576.00 cl
/Font1 findfont 9 s
0 0 0 srgb
291.60 262.88 (Residuen) .5 0 t
59.04 73.44 401.76 516.96 cl
ep
%%Trailer
%%Pages: 1
%%EOF
