%!PS-Adobe-3.0 EPSF-3.0
%%DocumentNeededResources: font Helvetica
%%+ font Helvetica-Bold
%%+ font Helvetica-Oblique
%%+ font Helvetica-BoldOblique
%%+ font Symbol
%%Title: R Graphics Output
%%Creator: R Software
%%Pages: (atend)
%%BoundingBox: 0 0 432 576
%%EndComments
%%BeginProlog
/bp  { gs sRGB gs } def
% begin .ps.prolog
/gs  { gsave } bind def
/gr  { grestore } bind def
/ep  { showpage gr gr } bind def
/m   { moveto } bind def
/l  { rlineto } bind def
/np  { newpath } bind def
/cp  { closepath } bind def
/f   { fill } bind def
/o   { stroke } bind def
/c   { newpath 0 360 arc } bind def
/r   { 4 2 roll moveto 1 copy 3 -1 roll exch 0 exch rlineto 0 rlineto -1 mul 0 exch rlineto closepath } bind def
/p1  { stroke } bind def
/p2  { gsave bg fill grestore newpath } bind def
/p3  { gsave bg fill grestore stroke } bind def
/p6  { gsave bg eofill grestore newpath } bind def
/p7  { gsave bg eofill grestore stroke } bind def
/t   { 5 -2 roll moveto gsave rotate
       1 index stringwidth pop
       mul neg 0 rmoveto show grestore } bind def
/ta  { 4 -2 roll moveto gsave rotate show } bind def
/tb  { 2 -1 roll 0 rmoveto show } bind def
/cl  { grestore gsave newpath 3 index 3 index moveto 1 index
       4 -1 roll lineto  exch 1 index lineto lineto
       closepath clip newpath } bind def
/rgb { setrgbcolor } bind def
/s   { scalefont setfont } bind def
% end   .ps.prolog
/sRGB { [ /CIEBasedABC
          << /DecodeLMN
               [ { dup 0.03928 le
                        {12.92321 div}
                        {0.055 add 1.055 div 2.4 exp }
                     ifelse
                 } bind dup dup
               ]
             /MatrixLMN [0.412457 0.212673 0.019334
                         0.357576 0.715152 0.119192
                         0.180437 0.072175 0.950301]
             /WhitePoint [0.9505 1.0 1.0890]
           >>
         ] setcolorspace } bind def
/srgb { setcolor } bind def
%%IncludeResource: font Helvetica
/Helvetica findfont
dup length dict begin
  {1 index /FID ne {def} {pop pop} ifelse} forall
  /Encoding ISOLatin1Encoding def
  currentdict
  end
/Font1 exch definefont pop
%%IncludeResource: font Helvetica-Bold
/Helvetica-Bold findfont
dup length dict begin
  {1 index /FID ne {def} {pop pop} ifelse} forall
  /Encoding ISOLatin1Encoding def
  currentdict
  end
/Font2 exch definefont pop
%%IncludeResource: font Helvetica-Oblique
/Helvetica-Oblique findfont
dup length dict begin
  {1 index /FID ne {def} {pop pop} ifelse} forall
  /Encoding ISOLatin1Encoding def
  currentdict
  end
/Font3 exch definefont pop
%%IncludeResource: font Helvetica-BoldOblique
/Helvetica-BoldOblique findfont
dup length dict begin
  {1 index /FID ne {def} {pop pop} ifelse} forall
  /Encoding ISOLatin1Encoding def
  currentdict
  end
/Font4 exch definefont pop
%%IncludeResource: font Symbol
/Symbol findfont
dup length dict begin
  {1 index /FID ne {def} {pop pop} ifelse} forall
  currentdict
  end
/Font5 exch definefont pop
%%EndProlog
%%Page: 1 1
bp
0.00 0.00 432.00 576.00 cl
0.00 0.00 432.00 576.00 cl
0.00 0.00 432.00 576.00 cl
/Font1 findfont 12 s
0 0 0 srgb
48.00 508.72 (PCP-ETH) 0 0 t
48.00 494.89 (Blitzlicht-Photolyse) 0 0 t
/Font1 findfont 9 s
48.00 457.54 (File: Dy) 0 ta
-0.180 (e_0_1_V1_900V_25.dat) tb gr
48.00 334.87 (T) 0 ta
-1.080 (ue Apr  9 22:02:46 2019) tb gr
48.00 430.87 (Fitfunktion:  a + b * e) 0 ta
-0.270 (xp\(-c * t\)) tb gr
48.00 420.50 (t-Inter) 0 ta
0.270 (v) tb
-0.225 (all: 17.000 ... 251.000 ms) tb gr
48.00 410.14 (P) 0 ta
-0.360 (ar) tb
-0.090 (ameter \(Standardabw) tb
-0.090 (eichung\):) tb gr
48.00 399.77 (  a = -0.00050 \(0.00041\)) 0 0 t
48.00 389.40 (  b = 0.09315 \(0.00039\)) 0 0 t
48.00 379.03 (  c = 1.063e+01 \(1.575e-01\) s^-1) 0 0 t
48.00 368.66 (  tau = 9.404e-02 \(1.393e-03\) s) 0 0 t
216.00 345.60 388.80 518.40 cl
0 0 0 srgb
0.75 setlinewidth
[] 0 setdash
1 setlinecap
1 setlinejoin
10.00 setmiterlimit
np
222.40 511.49 m
0.15 -0.11 l
0.14 0 l
0.15 0.11 l
0.14 -0.11 l
0.15 0 l
0.14 -0.15 l
0.15 -0.25 l
0.14 0.51 l
0.15 -0.26 l
0.15 0 l
0.14 -0.11 l
0.15 -0.14 l
0.14 0 l
0.15 0.14 l
0.14 -0.51 l
0.15 0.62 l
0.14 0.51 l
0.15 -0.25 l
0.15 0.25 l
0.14 -0.11 l
0.15 -0.51 l
0.14 0.51 l
0.15 -0.25 l
0.14 0.11 l
0.15 0.25 l
0.15 0.15 l
0.14 -0.66 l
0.15 0.51 l
0.14 -1.13 l
0.15 0.77 l
0.14 -0.26 l
0.15 0.11 l
0.14 -0.37 l
0.15 0.37 l
0.15 -0.11 l
0.14 0.26 l
0.15 -0.26 l
0.14 -0.26 l
0.15 0.52 l
0.14 0 l
0.15 -0.15 l
0.14 0.26 l
0.15 0.14 l
0.15 -0.14 l
0.14 0.14 l
0.15 -0.40 l
0.14 -0.37 l
0.15 0.12 l
0.14 0.25 l
0.15 -0.11 l
0.14 0.37 l
0.15 -0.77 l
0.15 0.51 l
0.14 0.51 l
0.15 -0.36 l
0.14 -0.15 l
0.15 -0.25 l
0.14 0.40 l
0.15 0.62 l
0.15 -0.62 l
0.14 0 l
0.15 0.36 l
0.14 -0.51 l
0.15 0.40 l
0.14 0.26 l
0.15 0.11 l
0.14 -0.88 l
0.15 0.77 l
0.15 -0.51 l
0.14 -0.26 l
0.15 0.26 l
0.14 -0.40 l
0.15 0.25 l
0.14 -0.62 l
0.15 0.77 l
0.14 -0.77 l
0.15 0.62 l
0.15 -0.25 l
0.14 0.25 l
0.15 0.66 l
0.14 -0.15 l
0.15 -0.36 l
0.14 0.11 l
0.15 0 l
0.14 -0.11 l
0.15 0 l
0.15 0 l
0.14 -0.15 l
0.15 -0.25 l
0.14 0.40 l
0.15 -0.52 l
0.14 0.77 l
0.15 -1.16 l
0.15 0.65 l
0.14 -0.26 l
0.15 0.52 l
0.14 0 l
0.15 0.11 l
0.14 0.25 l
236.96 477.09 lineto
0.14 1.89 l
0.15 1.41 l
0.15 0.51 l
0.14 0.76 l
0.15 0.66 l
0.14 -0.14 l
0.15 0.62 l
0.14 0.26 l
0.15 0.14 l
0.14 -0.40 l
0.15 0.77 l
0.15 1.16 l
0.14 0.51 l
0.15 0.77 l
0.14 0 l
0.15 -0.77 l
0.14 0.63 l
0.15 -0.51 l
0.14 0.91 l
0.15 0.25 l
0.15 1.02 l
0.14 -1.27 l
0.15 1.39 l
0.14 0 l
0.15 0.76 l
0.14 -0.25 l
0.15 0.37 l
0.15 -0.12 l
0.14 0.12 l
0.15 0.25 l
0.14 -0.25 l
0.15 0.14 l
0.14 -0.14 l
0.15 0.25 l
0.14 0.15 l
0.15 1.27 l
0.15 0 l
0.14 0.37 l
0.15 1.17 l
0.14 -0.66 l
0.15 -0.36 l
0.14 0.11 l
0.15 -0.26 l
0.14 1.03 l
0.15 0.65 l
0.15 -0.26 l
0.14 -0.25 l
0.15 0.25 l
0.14 0.12 l
0.15 0.39 l
0.14 0.77 l
0.15 -0.25 l
0.14 0.48 l
0.15 -0.11 l
0.15 0.25 l
0.14 0.26 l
0.15 -0.51 l
0.14 1.02 l
0.15 -0.14 l
0.14 -0.26 l
0.15 1.02 l
0.15 0.51 l
0.14 0.15 l
0.15 0.25 l
0.14 -0.40 l
0.15 0 l
0.14 -0.11 l
0.15 0.88 l
0.14 -0.51 l
0.15 -0.11 l
0.15 -0.26 l
0.14 0.51 l
0.15 0.37 l
0.14 0.26 l
0.15 0.25 l
0.14 0.40 l
0.15 0.88 l
0.14 -0.11 l
0.15 -0.66 l
0.15 0.51 l
0.14 0.15 l
0.15 0.25 l
0.14 -0.14 l
0.15 0.65 l
0.14 -1.02 l
0.15 0.77 l
0.14 0.37 l
0.15 0.37 l
0.15 -0.63 l
0.14 0.51 l
0.15 -0.14 l
0.14 0.51 l
0.15 0.51 l
0.14 -0.88 l
0.15 0.37 l
0.15 -0.51 l
0.14 0.14 l
0.15 0.26 l
0.14 0.62 l
251.52 500.78 lineto
0.14 0 l
0.15 0.40 l
0.14 -0.51 l
0.15 0.11 l
0.15 -0.37 l
0.14 0.11 l
0.15 0.15 l
0.14 0.37 l
0.15 -0.12 l
0.14 0 l
0.15 0.12 l
0.14 -0.12 l
0.15 0.37 l
0.15 0.40 l
0.14 0.26 l
0.15 0 l
0.14 -0.15 l
0.15 0.77 l
0.14 0.14 l
0.15 -0.40 l
0.14 -0.11 l
0.15 -0.40 l
0.15 0.77 l
0.14 0.26 l
0.15 0.25 l
0.14 0.14 l
0.15 0.51 l
0.14 -0.65 l
0.15 0 l
0.14 0.14 l
0.15 0.26 l
0.15 0 l
0.14 0.51 l
0.15 -0.77 l
0.14 0.63 l
0.15 -0.63 l
0.14 0.26 l
0.15 0.11 l
0.15 0.26 l
0.14 0.62 l
0.15 0.26 l
0.14 -0.11 l
0.15 0.51 l
0.14 -0.40 l
0.15 -0.26 l
0.14 -0.37 l
0.15 0.52 l
0.15 -0.15 l
0.14 0.15 l
0.15 0.36 l
0.14 -0.51 l
0.15 -0.11 l
0.14 0.11 l
0.15 0.77 l
0.14 0.14 l
0.15 0.26 l
0.15 -0.14 l
0.14 0.14 l
0.15 0.25 l
0.14 -0.39 l
0.15 0.14 l
0.14 0.25 l
0.15 -0.39 l
0.14 0.14 l
0.15 0.62 l
0.15 0.14 l
0.14 0.26 l
0.15 0 l
0.14 -0.77 l
0.15 0.12 l
0.14 0.39 l
0.15 -0.14 l
0.15 0 l
0.14 0.66 l
0.15 -0.91 l
0.14 0.25 l
0.15 0.26 l
0.14 -1.28 l
0.15 1.42 l
0.14 0 l
0.15 0 l
0.15 0.37 l
0.14 0.14 l
0.15 0.51 l
0.14 -0.14 l
0.15 -0.77 l
0.14 -0.11 l
0.15 0 l
0.14 0.51 l
0.15 -0.77 l
0.15 0 l
0.14 0.63 l
0.15 0.14 l
0.14 -0.40 l
0.15 0.26 l
0.14 0 l
0.15 0.65 l
0.14 0.26 l
0.15 -0.40 l
266.08 508.19 lineto
0.14 -0.25 l
0.15 0.25 l
0.14 -0.91 l
0.15 0.15 l
0.14 -0.51 l
0.15 0.88 l
0.15 0.25 l
0.14 -0.25 l
0.15 0.91 l
0.14 -0.77 l
0.15 0 l
0.14 0.37 l
0.15 -0.63 l
0.14 0 l
0.15 0 l
0.15 0.26 l
0.14 0.11 l
0.15 -0.37 l
0.14 0.37 l
0.15 -0.25 l
0.14 0.25 l
0.15 0.51 l
0.14 0.15 l
0.15 0.25 l
0.15 0.11 l
0.14 -0.76 l
0.15 -0.12 l
0.14 0.12 l
0.15 -0.12 l
0.14 0.12 l
0.15 0.14 l
0.14 0.11 l
0.15 -0.11 l
0.15 -0.65 l
0.14 0.65 l
0.15 0 l
0.14 0.88 l
0.15 -0.11 l
0.14 0 l
0.15 0.25 l
0.15 -0.25 l
0.14 -0.66 l
0.15 0 l
0.14 0.51 l
0.15 -0.25 l
0.14 -0.11 l
0.15 0.36 l
0.14 -0.36 l
0.15 0.11 l
0.15 0 l
0.14 0.91 l
0.15 -0.91 l
0.14 0.40 l
0.15 0.25 l
0.14 0 l
0.15 -0.14 l
0.14 -0.26 l
0.15 0.52 l
0.15 -0.26 l
0.14 0.14 l
0.15 -0.65 l
0.14 0.25 l
0.15 0.66 l
0.14 0 l
0.15 -0.14 l
0.14 0.25 l
0.15 -0.11 l
0.15 -0.14 l
0.14 -0.52 l
0.15 -0.25 l
0.14 1.02 l
0.15 -0.62 l
0.14 0.37 l
0.15 -0.63 l
0.15 -0.14 l
0.14 0.25 l
0.15 0.52 l
0.14 0.36 l
0.15 0.15 l
0.14 -0.26 l
0.15 0 l
0.14 -0.37 l
0.15 0.37 l
0.15 -0.11 l
0.14 -0.14 l
0.15 -0.12 l
0.14 0.12 l
0.15 -0.12 l
0.14 -0.14 l
0.15 0.62 l
0.14 -0.36 l
0.15 -0.12 l
0.15 0.37 l
0.14 -0.11 l
0.15 -0.14 l
0.14 0.14 l
0.15 0 l
0.14 -0.26 l
0.15 0.63 l
280.63 508.96 lineto
0.15 0.63 l
0.15 0.14 l
0.14 0 l
0.15 0.99 l
0.14 -0.62 l
0.15 0 l
0.14 0 l
0.15 -0.77 l
0.15 0.51 l
0.14 -0.37 l
0.15 0.37 l
0.14 -0.37 l
0.15 0.12 l
0.14 -0.26 l
0.15 0.14 l
0.14 0.12 l
0.15 0.88 l
0.15 -0.12 l
0.14 -0.14 l
0.15 0.77 l
0.14 -0.37 l
0.15 -0.14 l
0.14 -0.88 l
0.15 0.62 l
0.14 -0.37 l
0.15 0.11 l
0.15 0.26 l
0.14 -0.37 l
0.15 0.77 l
0.14 -0.51 l
0.15 0.37 l
0.14 -0.63 l
0.15 0.37 l
0.14 -0.62 l
0.15 0.76 l
0.15 -0.40 l
0.14 0.26 l
0.15 0.51 l
0.14 -0.77 l
0.15 -0.11 l
0.14 -0.37 l
0.15 0.74 l
0.14 0.14 l
0.15 0.51 l
0.15 0 l
0.14 0.12 l
0.15 -0.37 l
0.14 -0.40 l
0.15 -0.11 l
0.14 0.11 l
0.15 -0.26 l
0.15 -0.62 l
0.14 0.40 l
0.15 -0.14 l
0.14 0.25 l
0.15 -0.11 l
0.14 0.48 l
0.15 0 l
0.14 0.65 l
0.15 -0.25 l
0.15 0.25 l
0.14 -0.51 l
0.15 0.12 l
0.14 -0.26 l
0.15 0.26 l
0.14 -0.26 l
0.15 -0.48 l
0.14 0.62 l
0.15 -0.51 l
0.15 -0.25 l
0.14 0.36 l
0.15 0.40 l
0.14 0 l
0.15 -0.14 l
0.14 0 l
0.15 0.77 l
0.14 -0.88 l
0.15 -0.26 l
0.15 0.37 l
0.14 0.40 l
0.15 -0.77 l
0.14 0.26 l
0.15 -0.26 l
0.14 0.51 l
0.15 0.37 l
0.15 -0.37 l
0.14 0.12 l
0.15 0.25 l
0.14 -0.25 l
0.15 -0.63 l
0.14 0.63 l
0.15 -0.74 l
0.14 0.11 l
0.15 0.37 l
0.15 -0.99 l
0.14 0.62 l
0.15 0.37 l
0.14 0.26 l
0.15 -0.26 l
295.19 510.98 lineto
0.15 -0.51 l
0.14 0.65 l
0.15 -0.40 l
0.15 -0.11 l
0.14 -0.26 l
0.15 0 l
0.14 -0.51 l
0.15 0.11 l
0.14 0.15 l
0.15 0.11 l
0.14 -0.11 l
0.15 0.11 l
0.15 0.40 l
0.14 0.62 l
0.15 -0.37 l
0.14 -0.65 l
0.15 0.51 l
0.14 -0.25 l
0.15 -0.52 l
0.15 0.15 l
0.14 -0.37 l
0.15 0 l
0.14 0.48 l
0.15 -0.11 l
0.14 0.51 l
0.15 -0.40 l
0.14 0.65 l
0.15 -0.14 l
0.15 0.51 l
0.14 -1.39 l
0.15 0.11 l
0.14 0.40 l
0.15 -0.14 l
0.14 -0.26 l
0.15 0 l
0.14 -0.11 l
0.15 -0.25 l
0.15 0.14 l
0.14 0.99 l
0.15 -0.11 l
0.14 -0.26 l
0.15 0.26 l
0.14 0 l
0.15 0 l
0.14 -0.77 l
0.15 0.37 l
0.15 0 l
0.14 -0.37 l
0.15 0.11 l
0.14 0 l
0.15 0.15 l
0.14 -0.26 l
0.15 0.63 l
0.15 0.25 l
0.14 0.40 l
0.15 -0.26 l
0.14 -0.39 l
0.15 0.65 l
0.14 -0.65 l
0.15 0 l
0.14 -0.37 l
0.15 -0.15 l
0.15 0 l
0.14 0.52 l
0.15 -0.52 l
0.14 -0.11 l
0.15 1.54 l
0.14 -0.77 l
0.15 -0.66 l
0.14 0.26 l
0.15 0.14 l
0.15 -0.14 l
0.14 -0.26 l
0.15 0.52 l
0.14 -0.74 l
0.15 0.62 l
0.14 -0.62 l
0.15 0.74 l
0.14 0.39 l
0.15 -0.39 l
0.15 0.51 l
0.14 0 l
0.15 -0.51 l
0.14 0.39 l
0.15 -0.91 l
0.14 0.77 l
0.15 -0.51 l
0.15 0 l
0.14 -0.62 l
0.15 0.36 l
0.14 0 l
0.15 0.40 l
0.14 0.12 l
0.15 -0.26 l
0.14 0.40 l
0.15 0.51 l
0.15 -0.91 l
0.14 0.26 l
0.15 0 l
309.75 509.73 lineto
0.15 0.99 l
0.14 -0.51 l
0.15 -0.11 l
0.14 0.11 l
0.15 -0.11 l
0.15 0.51 l
0.14 -1.02 l
0.15 1.39 l
0.14 0 l
0.15 -0.63 l
0.14 -0.14 l
0.15 -0.26 l
0.14 -0.48 l
0.15 0.26 l
0.15 0.62 l
0.14 -0.25 l
0.15 -0.15 l
0.14 0.26 l
0.15 -0.26 l
0.14 0.52 l
0.15 0 l
0.15 0.65 l
0.14 -0.26 l
0.15 -0.39 l
0.14 -0.12 l
0.15 0.12 l
0.14 -0.12 l
0.15 -0.14 l
0.14 -0.74 l
0.15 0.63 l
0.15 -0.26 l
0.14 -0.25 l
0.15 0.76 l
0.14 0.26 l
0.15 0.25 l
0.14 -0.14 l
0.15 -0.51 l
0.14 0.14 l
0.15 0 l
0.15 -0.40 l
0.14 -0.22 l
0.15 0.48 l
0.14 -0.37 l
0.15 0 l
0.14 0.37 l
0.15 0.26 l
0.14 0.14 l
0.15 0.37 l
0.15 -1.03 l
0.14 -0.11 l
0.15 0.26 l
0.14 0.51 l
0.15 -0.77 l
0.14 0.26 l
0.15 -0.63 l
0.15 0.48 l
0.14 0 l
0.15 0.40 l
0.14 0.26 l
0.15 0 l
0.14 0.11 l
0.15 -0.11 l
0.14 -0.40 l
0.15 0.51 l
0.15 -0.77 l
0.14 0.40 l
0.15 -0.25 l
0.14 -0.77 l
0.15 0.26 l
0.14 0.25 l
0.15 0.63 l
0.14 0.39 l
0.15 0 l
0.15 -0.65 l
0.14 -0.26 l
0.15 0.15 l
0.14 -0.51 l
0.15 0.51 l
0.14 1.02 l
0.15 -1.02 l
0.14 -0.15 l
0.15 -0.11 l
0.15 0.37 l
0.14 0.65 l
0.15 -0.39 l
0.14 1.02 l
0.15 -1.14 l
0.14 0.12 l
0.15 -1.00 l
0.14 0.88 l
0.15 -1.02 l
0.15 0.40 l
0.14 0 l
0.15 0.11 l
0.14 0.51 l
0.15 0.12 l
0.14 -0.26 l
0.15 0.40 l
0.15 -0.88 l
324.31 510.35 lineto
0.15 -0.14 l
0.14 -0.74 l
0.15 0.88 l
0.14 -0.51 l
0.15 0.11 l
0.14 -0.36 l
0.15 1.02 l
0.15 -0.66 l
0.14 0.52 l
0.15 0.25 l
0.14 -0.51 l
0.15 0.26 l
0.14 -0.12 l
0.15 -0.25 l
0.14 0 l
0.15 -0.15 l
0.15 -0.48 l
0.14 0.12 l
0.15 0.25 l
0.14 0.37 l
0.15 0.51 l
0.14 0.77 l
0.15 -0.51 l
0.14 -0.26 l
0.15 -0.37 l
0.15 -0.25 l
0.14 0.25 l
0.15 0 l
0.14 -1.13 l
0.15 0.73 l
0.14 0 l
0.15 -0.48 l
0.15 0.26 l
0.14 0 l
0.15 0.88 l
0.14 -0.26 l
0.15 -0.40 l
0.14 0 l
0.15 0.15 l
0.14 0.76 l
0.15 -0.91 l
0.15 -0.11 l
0.14 0.37 l
0.15 0.26 l
0.14 -0.63 l
0.15 0.63 l
0.14 0 l
0.15 0.14 l
0.14 0 l
0.15 -0.66 l
0.15 -0.11 l
0.14 0.51 l
0.15 0.26 l
0.14 -0.88 l
0.15 0.37 l
0.14 -0.15 l
0.15 -0.11 l
0.14 0.11 l
0.15 0.26 l
0.15 0.14 l
0.14 0.12 l
0.15 -0.26 l
0.14 0.65 l
0.15 -0.25 l
0.14 -0.51 l
0.15 -0.26 l
0.15 0 l
0.14 0.11 l
0.15 -0.22 l
0.14 0.37 l
0.15 -0.77 l
0.14 0.51 l
0.15 -0.11 l
0.14 0.74 l
0.15 0 l
0.15 0.76 l
0.14 -1.02 l
0.15 0.40 l
0.14 0 l
0.15 -0.77 l
0.14 0.37 l
0.15 -0.11 l
0.14 -0.51 l
0.15 -0.37 l
0.15 0.51 l
0.14 0.22 l
0.15 0.52 l
0.14 0.25 l
0.15 -0.51 l
0.14 0.26 l
0.15 -0.12 l
0.14 -0.40 l
0.15 0.15 l
0.15 -0.37 l
0.14 0.37 l
0.15 0.11 l
0.14 0 l
0.15 0 l
0.14 -0.48 l
338.87 510.21 lineto
0.15 0.26 l
0.14 0.39 l
0.15 0 l
0.14 -0.76 l
0.15 0.25 l
0.14 0.12 l
0.15 0.14 l
0.14 -1.02 l
0.15 0.14 l
0.15 -0.26 l
0.14 0.37 l
0.15 0 l
0.14 -0.62 l
0.15 0.62 l
0.14 0.63 l
0.15 0.25 l
0.14 -0.37 l
0.15 0 l
0.15 0.37 l
0.14 -0.62 l
0.15 -0.51 l
0.14 -0.12 l
0.15 0.48 l
0.14 0.15 l
0.15 0 l
0.14 -0.51 l
0.15 0.36 l
0.15 0.26 l
0.14 0.40 l
0.15 0.25 l
0.14 -0.39 l
0.15 -0.26 l
0.14 -0.48 l
0.15 0.37 l
0.15 -0.63 l
0.14 0.48 l
0.15 0.40 l
0.14 -0.40 l
0.15 -0.22 l
0.14 0.11 l
0.15 0.63 l
0.14 0 l
0.15 -0.26 l
0.15 0.40 l
0.14 0 l
0.15 -0.51 l
0.14 0.25 l
0.15 -0.51 l
0.14 -0.11 l
0.15 -0.40 l
0.14 0.26 l
0.15 0 l
0.15 0.36 l
0.14 0 l
0.15 0.66 l
0.14 -0.66 l
0.15 0.52 l
0.14 0.14 l
0.15 0 l
0.14 0.25 l
0.15 -0.25 l
0.15 -0.40 l
0.14 0 l
0.15 0.14 l
0.14 0.12 l
0.15 -0.37 l
0.14 0.11 l
0.15 -0.11 l
0.15 -0.37 l
0.14 0.48 l
0.15 0.26 l
0.14 0.14 l
0.15 -0.66 l
0.14 0.66 l
0.15 -0.88 l
0.14 0 l
0.15 0.11 l
0.15 -0.11 l
0.14 0.74 l
0.15 -0.37 l
0.14 -0.37 l
0.15 0.22 l
0.14 0.15 l
0.15 0.25 l
0.14 0.12 l
0.15 -0.12 l
0.15 -0.14 l
0.14 -0.74 l
0.15 0.74 l
0.14 -0.48 l
0.15 0 l
0.14 -0.26 l
0.15 0.37 l
0.14 -0.25 l
0.15 -0.12 l
0.15 0.37 l
0.14 0.51 l
0.15 0.12 l
0.14 0 l
353.43 510.72 lineto
0.14 -0.88 l
0.15 0.51 l
0.14 -0.14 l
0.15 -0.26 l
0.15 0.40 l
0.14 -0.88 l
0.15 0.74 l
0.14 0 l
0.15 -0.62 l
0.14 0.51 l
0.15 -0.15 l
0.15 -0.22 l
0.14 0.37 l
0.15 0.11 l
0.14 0.26 l
0.15 -0.63 l
0.14 0.26 l
0.15 -0.26 l
0.14 0.11 l
0.15 0 l
0.15 -0.11 l
0.14 0.63 l
0.15 0.25 l
0.14 -0.62 l
0.15 0.51 l
0.14 0.25 l
0.15 -0.51 l
0.14 -0.51 l
0.15 0.51 l
0.15 0 l
0.14 -0.40 l
0.15 -0.48 l
0.14 0.48 l
0.15 -0.11 l
0.14 0 l
0.15 0.37 l
0.14 0.14 l
0.15 0.12 l
0.15 0.14 l
0.14 -0.77 l
0.15 0.63 l
0.14 -0.37 l
0.15 -0.51 l
0.14 0.51 l
0.15 0 l
0.15 0 l
0.14 -0.37 l
0.15 0.11 l
0.14 0.37 l
0.15 0.26 l
0.14 -0.52 l
0.15 -0.11 l
0.14 0.51 l
0.15 -0.62 l
0.15 0 l
0.14 0.11 l
0.15 0 l
0.14 -0.25 l
0.15 0.36 l
0.14 0.15 l
0.15 0.76 l
0.14 -0.39 l
0.15 0.39 l
0.15 -0.51 l
0.14 -0.76 l
0.15 0.25 l
0.14 0.11 l
0.15 -0.11 l
0.14 -0.37 l
0.15 0 l
0.14 0 l
0.15 -0.25 l
0.15 0.25 l
0.14 0.48 l
0.15 0.52 l
0.14 -0.88 l
0.15 0.51 l
0.14 0.11 l
0.15 -0.62 l
0.15 0.51 l
0.14 -0.51 l
0.15 0 l
0.14 0 l
0.15 -0.12 l
0.14 0.63 l
0.15 0.11 l
0.14 -0.37 l
0.15 0.37 l
0.15 -0.11 l
0.14 0.51 l
0.15 -0.66 l
0.14 -0.36 l
0.15 0.36 l
0.14 -0.22 l
0.15 0.22 l
0.14 -0.22 l
0.15 0.48 l
0.15 -0.74 l
0.14 0.74 l
currentpoint o m
367.99 510.10 lineto
0.14 0.51 l
0.15 -0.51 l
0.14 0.25 l
0.15 0.12 l
0.14 -0.37 l
0.15 -0.51 l
0.15 0.62 l
0.14 -0.37 l
0.15 0.11 l
0.14 -0.36 l
0.15 0.36 l
0.14 -0.88 l
0.15 0.52 l
0.15 0.25 l
0.14 0.26 l
0.15 0.37 l
0.14 0.14 l
0.15 -0.66 l
0.14 0.52 l
0.15 -0.26 l
0.14 -0.26 l
0.15 -0.22 l
0.15 0.22 l
0.14 -0.48 l
0.15 0 l
0.14 -0.25 l
0.15 0.37 l
0.14 0.36 l
0.15 0.40 l
0.14 0.12 l
0.15 -0.26 l
0.15 0 l
0.14 0.26 l
0.15 -0.74 l
0.14 0.22 l
0.15 -0.88 l
0.14 0.40 l
0.15 0.48 l
0.14 -0.22 l
0.15 0.48 l
0.15 -0.62 l
0.14 0 l
0.15 0.62 l
0.14 0.14 l
0.15 -0.14 l
0.14 0.14 l
0.15 0.26 l
0.15 -0.40 l
0.14 -0.62 l
0.15 0.14 l
0.14 0 l
0.15 0.22 l
0.14 -0.62 l
0.15 0 l
0.14 0.77 l
0.15 -0.77 l
0.15 0.62 l
0.14 -0.22 l
0.15 0.88 l
0.14 -0.51 l
0.15 0.37 l
0.14 0.14 l
0.15 -0.14 l
0.14 -0.12 l
0.15 0 l
0.15 -0.14 l
0.14 -0.99 l
0.15 -0.15 l
0.14 0.40 l
0.15 0 l
0.14 0.26 l
0.15 -0.40 l
0.14 0.14 l
0.15 1.25 l
0.15 -0.77 l
0.14 0.40 l
0.15 -0.51 l
0.14 0.37 l
0.15 0 l
0.14 -0.37 l
0.15 0.37 l
0.15 -0.62 l
0.14 0.25 l
0.15 0.11 l
0.14 -0.62 l
0.15 0.26 l
0.14 -0.12 l
0.15 1.00 l
0.14 -0.26 l
0.15 -0.26 l
0.15 0 l
0.14 0.15 l
0.15 0 l
0.14 -1.03 l
0.15 0.88 l
0.14 -0.22 l
0.15 -0.26 l
0.14 0.37 l
0.15 0.26 l
o
/bg { 1 1 1 srgb } def
222.40 511.49 0.43 c p3
222.55 511.38 0.43 c p3
222.69 511.38 0.43 c p3
222.84 511.49 0.43 c p3
222.98 511.38 0.43 c p3
223.13 511.38 0.43 c p3
223.27 511.23 0.43 c p3
223.42 510.98 0.43 c p3
223.56 511.49 0.43 c p3
223.71 511.23 0.43 c p3
223.86 511.23 0.43 c p3
224.00 511.12 0.43 c p3
224.15 510.98 0.43 c p3
224.29 510.98 0.43 c p3
224.44 511.12 0.43 c p3
224.58 510.61 0.43 c p3
224.73 511.23 0.43 c p3
224.87 511.74 0.43 c p3
225.02 511.49 0.43 c p3
225.17 511.74 0.43 c p3
225.31 511.63 0.43 c p3
225.46 511.12 0.43 c p3
225.60 511.63 0.43 c p3
225.75 511.38 0.43 c p3
225.89 511.49 0.43 c p3
226.04 511.74 0.43 c p3
226.19 511.89 0.43 c p3
226.33 511.23 0.43 c p3
226.48 511.74 0.43 c p3
226.62 510.61 0.43 c p3
226.77 511.38 0.43 c p3
226.91 511.12 0.43 c p3
227.06 511.23 0.43 c p3
227.20 510.86 0.43 c p3
227.35 511.23 0.43 c p3
227.50 511.12 0.43 c p3
227.64 511.38 0.43 c p3
227.79 511.12 0.43 c p3
227.93 510.86 0.43 c p3
228.08 511.38 0.43 c p3
228.22 511.38 0.43 c p3
228.37 511.23 0.43 c p3
228.51 511.49 0.43 c p3
228.66 511.63 0.43 c p3
228.81 511.49 0.43 c p3
228.95 511.63 0.43 c p3
229.10 511.23 0.43 c p3
229.24 510.86 0.43 c p3
229.39 510.98 0.43 c p3
229.53 511.23 0.43 c p3
229.68 511.12 0.43 c p3
229.82 511.49 0.43 c p3
229.97 510.72 0.43 c p3
230.12 511.23 0.43 c p3
230.26 511.74 0.43 c p3
230.41 511.38 0.43 c p3
230.55 511.23 0.43 c p3
230.70 510.98 0.43 c p3
230.84 511.38 0.43 c p3
230.99 512.00 0.43 c p3
231.14 511.38 0.43 c p3
231.28 511.38 0.43 c p3
231.43 511.74 0.43 c p3
231.57 511.23 0.43 c p3
231.72 511.63 0.43 c p3
231.86 511.89 0.43 c p3
232.01 512.00 0.43 c p3
232.15 511.12 0.43 c p3
232.30 511.89 0.43 c p3
232.45 511.38 0.43 c p3
232.59 511.12 0.43 c p3
232.74 511.38 0.43 c p3
232.88 510.98 0.43 c p3
233.03 511.23 0.43 c p3
233.17 510.61 0.43 c p3
233.32 511.38 0.43 c p3
233.46 510.61 0.43 c p3
233.61 511.23 0.43 c p3
233.76 510.98 0.43 c p3
233.90 511.23 0.43 c p3
234.05 511.89 0.43 c p3
234.19 511.74 0.43 c p3
234.34 511.38 0.43 c p3
234.48 511.49 0.43 c p3
234.63 511.49 0.43 c p3
234.77 511.38 0.43 c p3
234.92 511.38 0.43 c p3
235.07 511.38 0.43 c p3
235.21 511.23 0.43 c p3
235.36 510.98 0.43 c p3
235.50 511.38 0.43 c p3
235.65 510.86 0.43 c p3
235.79 511.63 0.43 c p3
235.94 510.47 0.43 c p3
236.09 511.12 0.43 c p3
236.23 510.86 0.43 c p3
236.38 511.38 0.43 c p3
236.52 511.38 0.43 c p3
236.67 511.49 0.43 c p3
236.81 511.74 0.43 c p3
236.96 477.09 0.43 c p3
237.10 478.98 0.43 c p3
237.25 480.39 0.43 c p3
237.40 480.90 0.43 c p3
237.54 481.66 0.43 c p3
237.69 482.32 0.43 c p3
237.83 482.18 0.43 c p3
237.98 482.80 0.43 c p3
238.12 483.06 0.43 c p3
238.27 483.20 0.43 c p3
238.41 482.80 0.43 c p3
238.56 483.57 0.43 c p3
238.71 484.73 0.43 c p3
238.85 485.24 0.43 c p3
239.00 486.01 0.43 c p3
239.14 486.01 0.43 c p3
239.29 485.24 0.43 c p3
239.43 485.87 0.43 c p3
239.58 485.36 0.43 c p3
239.72 486.27 0.43 c p3
239.87 486.52 0.43 c p3
240.02 487.54 0.43 c p3
240.16 486.27 0.43 c p3
240.31 487.66 0.43 c p3
240.45 487.66 0.43 c p3
240.60 488.42 0.43 c p3
240.74 488.17 0.43 c p3
240.89 488.54 0.43 c p3
241.04 488.42 0.43 c p3
241.18 488.54 0.43 c p3
241.33 488.79 0.43 c p3
241.47 488.54 0.43 c p3
241.62 488.68 0.43 c p3
241.76 488.54 0.43 c p3
241.91 488.79 0.43 c p3
242.05 488.94 0.43 c p3
242.20 490.21 0.43 c p3
242.35 490.21 0.43 c p3
242.49 490.58 0.43 c p3
242.64 491.75 0.43 c p3
242.78 491.09 0.43 c p3
242.93 490.73 0.43 c p3
243.07 490.84 0.43 c p3
243.22 490.58 0.43 c p3
243.36 491.61 0.43 c p3
243.51 492.26 0.43 c p3
243.66 492.00 0.43 c p3
243.80 491.75 0.43 c p3
243.95 492.00 0.43 c p3
244.09 492.12 0.43 c p3
244.24 492.51 0.43 c p3
244.38 493.28 0.43 c p3
244.53 493.03 0.43 c p3
244.67 493.51 0.43 c p3
244.82 493.40 0.43 c p3
244.97 493.65 0.43 c p3
245.11 493.91 0.43 c p3
245.26 493.40 0.43 c p3
245.40 494.42 0.43 c p3
245.55 494.28 0.43 c p3
245.69 494.02 0.43 c p3
245.84 495.04 0.43 c p3
245.99 495.55 0.43 c p3
246.13 495.70 0.43 c p3
246.28 495.95 0.43 c p3
246.42 495.55 0.43 c p3
246.57 495.55 0.43 c p3
246.71 495.44 0.43 c p3
246.86 496.32 0.43 c p3
247.00 495.81 0.43 c p3
247.15 495.70 0.43 c p3
247.30 495.44 0.43 c p3
247.44 495.95 0.43 c p3
247.59 496.32 0.43 c p3
247.73 496.58 0.43 c p3
247.88 496.83 0.43 c p3
248.02 497.23 0.43 c p3
248.17 498.11 0.43 c p3
248.31 498.00 0.43 c p3
248.46 497.34 0.43 c p3
248.61 497.85 0.43 c p3
248.75 498.00 0.43 c p3
248.90 498.25 0.43 c p3
249.04 498.11 0.43 c p3
249.19 498.76 0.43 c p3
249.33 497.74 0.43 c p3
249.48 498.51 0.43 c p3
249.62 498.88 0.43 c p3
249.77 499.25 0.43 c p3
249.92 498.62 0.43 c p3
250.06 499.13 0.43 c p3
250.21 498.99 0.43 c p3
250.35 499.50 0.43 c p3
250.50 500.01 0.43 c p3
250.64 499.13 0.43 c p3
250.79 499.50 0.43 c p3
250.94 498.99 0.43 c p3
251.08 499.13 0.43 c p3
251.23 499.39 0.43 c p3
251.37 500.01 0.43 c p3
251.52 500.78 0.43 c p3
251.66 500.78 0.43 c p3
251.81 501.18 0.43 c p3
251.95 500.67 0.43 c p3
252.10 500.78 0.43 c p3
252.25 500.41 0.43 c p3
252.39 500.52 0.43 c p3
252.54 500.67 0.43 c p3
252.68 501.04 0.43 c p3
252.83 500.92 0.43 c p3
252.97 500.92 0.43 c p3
253.12 501.04 0.43 c p3
253.26 500.92 0.43 c p3
253.41 501.29 0.43 c p3
253.56 501.69 0.43 c p3
253.70 501.95 0.43 c p3
253.85 501.95 0.43 c p3
253.99 501.80 0.43 c p3
254.14 502.57 0.43 c p3
254.28 502.71 0.43 c p3
254.43 502.31 0.43 c p3
254.57 502.20 0.43 c p3
254.72 501.80 0.43 c p3
254.87 502.57 0.43 c p3
255.01 502.83 0.43 c p3
255.16 503.08 0.43 c p3
255.30 503.22 0.43 c p3
255.45 503.73 0.43 c p3
255.59 503.08 0.43 c p3
255.74 503.08 0.43 c p3
255.88 503.22 0.43 c p3
256.03 503.48 0.43 c p3
256.18 503.48 0.43 c p3
256.32 503.99 0.43 c p3
256.47 503.22 0.43 c p3
256.61 503.85 0.43 c p3
256.76 503.22 0.43 c p3
256.90 503.48 0.43 c p3
257.05 503.59 0.43 c p3
257.20 503.85 0.43 c p3
257.34 504.47 0.43 c p3
257.49 504.73 0.43 c p3
257.63 504.62 0.43 c p3
257.78 505.13 0.43 c p3
257.92 504.73 0.43 c p3
258.07 504.47 0.43 c p3
258.21 504.10 0.43 c p3
258.36 504.62 0.43 c p3
258.51 504.47 0.43 c p3
258.65 504.62 0.43 c p3
258.80 504.98 0.43 c p3
258.94 504.47 0.43 c p3
259.09 504.36 0.43 c p3
259.23 504.47 0.43 c p3
259.38 505.24 0.43 c p3
259.52 505.38 0.43 c p3
259.67 505.64 0.43 c p3
259.82 505.50 0.43 c p3
259.96 505.64 0.43 c p3
260.11 505.89 0.43 c p3
260.25 505.50 0.43 c p3
260.40 505.64 0.43 c p3
260.54 505.89 0.43 c p3
260.69 505.50 0.43 c p3
260.83 505.64 0.43 c p3
260.98 506.26 0.43 c p3
261.13 506.40 0.43 c p3
261.27 506.66 0.43 c p3
261.42 506.66 0.43 c p3
261.56 505.89 0.43 c p3
261.71 506.01 0.43 c p3
261.85 506.40 0.43 c p3
262.00 506.26 0.43 c p3
262.15 506.26 0.43 c p3
262.29 506.92 0.43 c p3
262.44 506.01 0.43 c p3
262.58 506.26 0.43 c p3
262.73 506.52 0.43 c p3
262.87 505.24 0.43 c p3
263.02 506.66 0.43 c p3
263.16 506.66 0.43 c p3
263.31 506.66 0.43 c p3
263.46 507.03 0.43 c p3
263.60 507.17 0.43 c p3
263.75 507.68 0.43 c p3
263.89 507.54 0.43 c p3
264.04 506.77 0.43 c p3
264.18 506.66 0.43 c p3
264.33 506.66 0.43 c p3
264.47 507.17 0.43 c p3
264.62 506.40 0.43 c p3
264.77 506.40 0.43 c p3
264.91 507.03 0.43 c p3
265.06 507.17 0.43 c p3
265.20 506.77 0.43 c p3
265.35 507.03 0.43 c p3
265.49 507.03 0.43 c p3
265.64 507.68 0.43 c p3
265.78 507.94 0.43 c p3
265.93 507.54 0.43 c p3
266.08 508.19 0.43 c p3
266.22 507.94 0.43 c p3
266.37 508.19 0.43 c p3
266.51 507.28 0.43 c p3
266.66 507.43 0.43 c p3
266.80 506.92 0.43 c p3
266.95 507.80 0.43 c p3
267.10 508.05 0.43 c p3
267.24 507.80 0.43 c p3
267.39 508.71 0.43 c p3
267.53 507.94 0.43 c p3
267.68 507.94 0.43 c p3
267.82 508.31 0.43 c p3
267.97 507.68 0.43 c p3
268.11 507.68 0.43 c p3
268.26 507.68 0.43 c p3
268.41 507.94 0.43 c p3
268.55 508.05 0.43 c p3
268.70 507.68 0.43 c p3
268.84 508.05 0.43 c p3
268.99 507.80 0.43 c p3
269.13 508.05 0.43 c p3
269.28 508.56 0.43 c p3
269.42 508.71 0.43 c p3
269.57 508.96 0.43 c p3
269.72 509.07 0.43 c p3
269.86 508.31 0.43 c p3
270.01 508.19 0.43 c p3
270.15 508.31 0.43 c p3
270.30 508.19 0.43 c p3
270.44 508.31 0.43 c p3
270.59 508.45 0.43 c p3
270.73 508.56 0.43 c p3
270.88 508.45 0.43 c p3
271.03 507.80 0.43 c p3
271.17 508.45 0.43 c p3
271.32 508.45 0.43 c p3
271.46 509.33 0.43 c p3
271.61 509.22 0.43 c p3
271.75 509.22 0.43 c p3
271.90 509.47 0.43 c p3
272.05 509.22 0.43 c p3
272.19 508.56 0.43 c p3
272.34 508.56 0.43 c p3
272.48 509.07 0.43 c p3
272.63 508.82 0.43 c p3
272.77 508.71 0.43 c p3
272.92 509.07 0.43 c p3
273.06 508.71 0.43 c p3
273.21 508.82 0.43 c p3
273.36 508.82 0.43 c p3
273.50 509.73 0.43 c p3
273.65 508.82 0.43 c p3
273.79 509.22 0.43 c p3
273.94 509.47 0.43 c p3
274.08 509.47 0.43 c p3
274.23 509.33 0.43 c p3
274.37 509.07 0.43 c p3
274.52 509.59 0.43 c p3
274.67 509.33 0.43 c p3
274.81 509.47 0.43 c p3
274.96 508.82 0.43 c p3
275.10 509.07 0.43 c p3
275.25 509.73 0.43 c p3
275.39 509.73 0.43 c p3
275.54 509.59 0.43 c p3
275.68 509.84 0.43 c p3
275.83 509.73 0.43 c p3
275.98 509.59 0.43 c p3
276.12 509.07 0.43 c p3
276.27 508.82 0.43 c p3
276.41 509.84 0.43 c p3
276.56 509.22 0.43 c p3
276.70 509.59 0.43 c p3
276.85 508.96 0.43 c p3
277.00 508.82 0.43 c p3
277.14 509.07 0.43 c p3
277.29 509.59 0.43 c p3
277.43 509.95 0.43 c p3
277.58 510.10 0.43 c p3
277.72 509.84 0.43 c p3
277.87 509.84 0.43 c p3
278.01 509.47 0.43 c p3
278.16 509.84 0.43 c p3
278.31 509.73 0.43 c p3
278.45 509.59 0.43 c p3
278.60 509.47 0.43 c p3
278.74 509.59 0.43 c p3
278.89 509.47 0.43 c p3
279.03 509.33 0.43 c p3
279.18 509.95 0.43 c p3
279.32 509.59 0.43 c p3
279.47 509.47 0.43 c p3
279.62 509.84 0.43 c p3
279.76 509.73 0.43 c p3
279.91 509.59 0.43 c p3
280.05 509.73 0.43 c p3
280.20 509.73 0.43 c p3
280.34 509.47 0.43 c p3
280.49 510.10 0.43 c p3
280.63 508.96 0.43 c p3
280.78 509.59 0.43 c p3
280.93 509.73 0.43 c p3
281.07 509.73 0.43 c p3
281.22 510.72 0.43 c p3
281.36 510.10 0.43 c p3
281.51 510.10 0.43 c p3
281.65 510.10 0.43 c p3
281.80 509.33 0.43 c p3
281.95 509.84 0.43 c p3
282.09 509.47 0.43 c p3
282.24 509.84 0.43 c p3
282.38 509.47 0.43 c p3
282.53 509.59 0.43 c p3
282.67 509.33 0.43 c p3
282.82 509.47 0.43 c p3
282.96 509.59 0.43 c p3
283.11 510.47 0.43 c p3
283.26 510.35 0.43 c p3
283.40 510.21 0.43 c p3
283.55 510.98 0.43 c p3
283.69 510.61 0.43 c p3
283.84 510.47 0.43 c p3
283.98 509.59 0.43 c p3
284.13 510.21 0.43 c p3
284.27 509.84 0.43 c p3
284.42 509.95 0.43 c p3
284.57 510.21 0.43 c p3
284.71 509.84 0.43 c p3
284.86 510.61 0.43 c p3
285.00 510.10 0.43 c p3
285.15 510.47 0.43 c p3
285.29 509.84 0.43 c p3
285.44 510.21 0.43 c p3
285.58 509.59 0.43 c p3
285.73 510.35 0.43 c p3
285.88 509.95 0.43 c p3
286.02 510.21 0.43 c p3
286.17 510.72 0.43 c p3
286.31 509.95 0.43 c p3
286.46 509.84 0.43 c p3
286.60 509.47 0.43 c p3
286.75 510.21 0.43 c p3
286.89 510.35 0.43 c p3
287.04 510.86 0.43 c p3
287.19 510.86 0.43 c p3
287.33 510.98 0.43 c p3
287.48 510.61 0.43 c p3
287.62 510.21 0.43 c p3
287.77 510.10 0.43 c p3
287.91 510.21 0.43 c p3
288.06 509.95 0.43 c p3
288.21 509.33 0.43 c p3
288.35 509.73 0.43 c p3
288.50 509.59 0.43 c p3
288.64 509.84 0.43 c p3
288.79 509.73 0.43 c p3
288.93 510.21 0.43 c p3
289.08 510.21 0.43 c p3
289.22 510.86 0.43 c p3
289.37 510.61 0.43 c p3
289.52 510.86 0.43 c p3
289.66 510.35 0.43 c p3
289.81 510.47 0.43 c p3
289.95 510.21 0.43 c p3
290.10 510.47 0.43 c p3
290.24 510.21 0.43 c p3
290.39 509.73 0.43 c p3
290.53 510.35 0.43 c p3
290.68 509.84 0.43 c p3
290.83 509.59 0.43 c p3
290.97 509.95 0.43 c p3
291.12 510.35 0.43 c p3
291.26 510.35 0.43 c p3
291.41 510.21 0.43 c p3
291.55 510.21 0.43 c p3
291.70 510.98 0.43 c p3
291.84 510.10 0.43 c p3
291.99 509.84 0.43 c p3
292.14 510.21 0.43 c p3
292.28 510.61 0.43 c p3
292.43 509.84 0.43 c p3
292.57 510.10 0.43 c p3
292.72 509.84 0.43 c p3
292.86 510.35 0.43 c p3
293.01 510.72 0.43 c p3
293.16 510.35 0.43 c p3
293.30 510.47 0.43 c p3
293.45 510.72 0.43 c p3
293.59 510.47 0.43 c p3
293.74 509.84 0.43 c p3
293.88 510.47 0.43 c p3
294.03 509.73 0.43 c p3
294.17 509.84 0.43 c p3
294.32 510.21 0.43 c p3
294.47 509.22 0.43 c p3
294.61 509.84 0.43 c p3
294.76 510.21 0.43 c p3
294.90 510.47 0.43 c p3
295.05 510.21 0.43 c p3
295.19 510.98 0.43 c p3
295.34 510.47 0.43 c p3
295.48 511.12 0.43 c p3
295.63 510.72 0.43 c p3
295.78 510.61 0.43 c p3
295.92 510.35 0.43 c p3
296.07 510.35 0.43 c p3
296.21 509.84 0.43 c p3
296.36 509.95 0.43 c p3
296.50 510.10 0.43 c p3
296.65 510.21 0.43 c p3
296.79 510.10 0.43 c p3
296.94 510.21 0.43 c p3
297.09 510.61 0.43 c p3
297.23 511.23 0.43 c p3
297.38 510.86 0.43 c p3
297.52 510.21 0.43 c p3
297.67 510.72 0.43 c p3
297.81 510.47 0.43 c p3
297.96 509.95 0.43 c p3
298.11 510.10 0.43 c p3
298.25 509.73 0.43 c p3
298.40 509.73 0.43 c p3
298.54 510.21 0.43 c p3
298.69 510.10 0.43 c p3
298.83 510.61 0.43 c p3
298.98 510.21 0.43 c p3
299.12 510.86 0.43 c p3
299.27 510.72 0.43 c p3
299.42 511.23 0.43 c p3
299.56 509.84 0.43 c p3
299.71 509.95 0.43 c p3
299.85 510.35 0.43 c p3
300.00 510.21 0.43 c p3
300.14 509.95 0.43 c p3
300.29 509.95 0.43 c p3
300.43 509.84 0.43 c p3
300.58 509.59 0.43 c p3
300.73 509.73 0.43 c p3
300.87 510.72 0.43 c p3
301.02 510.61 0.43 c p3
301.16 510.35 0.43 c p3
301.31 510.61 0.43 c p3
301.45 510.61 0.43 c p3
301.60 510.61 0.43 c p3
301.74 509.84 0.43 c p3
301.89 510.21 0.43 c p3
302.04 510.21 0.43 c p3
302.18 509.84 0.43 c p3
302.33 509.95 0.43 c p3
302.47 509.95 0.43 c p3
302.62 510.10 0.43 c p3
302.76 509.84 0.43 c p3
302.91 510.47 0.43 c p3
303.06 510.72 0.43 c p3
303.20 511.12 0.43 c p3
303.35 510.86 0.43 c p3
303.49 510.47 0.43 c p3
303.64 511.12 0.43 c p3
303.78 510.47 0.43 c p3
303.93 510.47 0.43 c p3
304.07 510.10 0.43 c p3
304.22 509.95 0.43 c p3
304.37 509.95 0.43 c p3
304.51 510.47 0.43 c p3
304.66 509.95 0.43 c p3
304.80 509.84 0.43 c p3
304.95 511.38 0.43 c p3
305.09 510.61 0.43 c p3
305.24 509.95 0.43 c p3
305.38 510.21 0.43 c p3
305.53 510.35 0.43 c p3
305.68 510.21 0.43 c p3
305.82 509.95 0.43 c p3
305.97 510.47 0.43 c p3
306.11 509.73 0.43 c p3
306.26 510.35 0.43 c p3
306.40 509.73 0.43 c p3
306.55 510.47 0.43 c p3
306.69 510.86 0.43 c p3
306.84 510.47 0.43 c p3
306.99 510.98 0.43 c p3
307.13 510.98 0.43 c p3
307.28 510.47 0.43 c p3
307.42 510.86 0.43 c p3
307.57 509.95 0.43 c p3
307.71 510.72 0.43 c p3
307.86 510.21 0.43 c p3
308.01 510.21 0.43 c p3
308.15 509.59 0.43 c p3
308.30 509.95 0.43 c p3
308.44 509.95 0.43 c p3
308.59 510.35 0.43 c p3
308.73 510.47 0.43 c p3
308.88 510.21 0.43 c p3
309.02 510.61 0.43 c p3
309.17 511.12 0.43 c p3
309.32 510.21 0.43 c p3
309.46 510.47 0.43 c p3
309.61 510.47 0.43 c p3
309.75 509.73 0.43 c p3
309.90 510.72 0.43 c p3
310.04 510.21 0.43 c p3
310.19 510.10 0.43 c p3
310.33 510.21 0.43 c p3
310.48 510.10 0.43 c p3
310.63 510.61 0.43 c p3
310.77 509.59 0.43 c p3
310.92 510.98 0.43 c p3
311.06 510.98 0.43 c p3
311.21 510.35 0.43 c p3
311.35 510.21 0.43 c p3
311.50 509.95 0.43 c p3
311.64 509.47 0.43 c p3
311.79 509.73 0.43 c p3
311.94 510.35 0.43 c p3
312.08 510.10 0.43 c p3
312.23 509.95 0.43 c p3
312.37 510.21 0.43 c p3
312.52 509.95 0.43 c p3
312.66 510.47 0.43 c p3
312.81 510.47 0.43 c p3
312.96 511.12 0.43 c p3
313.10 510.86 0.43 c p3
313.25 510.47 0.43 c p3
313.39 510.35 0.43 c p3
313.54 510.47 0.43 c p3
313.68 510.35 0.43 c p3
313.83 510.21 0.43 c p3
313.97 509.47 0.43 c p3
314.12 510.10 0.43 c p3
314.27 509.84 0.43 c p3
314.41 509.59 0.43 c p3
314.56 510.35 0.43 c p3
314.70 510.61 0.43 c p3
314.85 510.86 0.43 c p3
314.99 510.72 0.43 c p3
315.14 510.21 0.43 c p3
315.28 510.35 0.43 c p3
315.43 510.35 0.43 c p3
315.58 509.95 0.43 c p3
315.72 509.73 0.43 c p3
315.87 510.21 0.43 c p3
316.01 509.84 0.43 c p3
316.16 509.84 0.43 c p3
316.30 510.21 0.43 c p3
316.45 510.47 0.43 c p3
316.59 510.61 0.43 c p3
316.74 510.98 0.43 c p3
316.89 509.95 0.43 c p3
317.03 509.84 0.43 c p3
317.18 510.10 0.43 c p3
317.32 510.61 0.43 c p3
317.47 509.84 0.43 c p3
317.61 510.10 0.43 c p3
317.76 509.47 0.43 c p3
317.91 509.95 0.43 c p3
318.05 509.95 0.43 c p3
318.20 510.35 0.43 c p3
318.34 510.61 0.43 c p3
318.49 510.61 0.43 c p3
318.63 510.72 0.43 c p3
318.78 510.61 0.43 c p3
318.92 510.21 0.43 c p3
319.07 510.72 0.43 c p3
319.22 509.95 0.43 c p3
319.36 510.35 0.43 c p3
319.51 510.10 0.43 c p3
319.65 509.33 0.43 c p3
319.80 509.59 0.43 c p3
319.94 509.84 0.43 c p3
320.09 510.47 0.43 c p3
320.23 510.86 0.43 c p3
320.38 510.86 0.43 c p3
320.53 510.21 0.43 c p3
320.67 509.95 0.43 c p3
320.82 510.10 0.43 c p3
320.96 509.59 0.43 c p3
321.11 510.10 0.43 c p3
321.25 511.12 0.43 c p3
321.40 510.10 0.43 c p3
321.54 509.95 0.43 c p3
321.69 509.84 0.43 c p3
321.84 510.21 0.43 c p3
321.98 510.86 0.43 c p3
322.13 510.47 0.43 c p3
322.27 511.49 0.43 c p3
322.42 510.35 0.43 c p3
322.56 510.47 0.43 c p3
322.71 509.47 0.43 c p3
322.85 510.35 0.43 c p3
323.00 509.33 0.43 c p3
323.15 509.73 0.43 c p3
323.29 509.73 0.43 c p3
323.44 509.84 0.43 c p3
323.58 510.35 0.43 c p3
323.73 510.47 0.43 c p3
323.87 510.21 0.43 c p3
324.02 510.61 0.43 c p3
324.17 509.73 0.43 c p3
324.31 510.35 0.43 c p3
324.46 510.21 0.43 c p3
324.60 509.47 0.43 c p3
324.75 510.35 0.43 c p3
324.89 509.84 0.43 c p3
325.04 509.95 0.43 c p3
325.18 509.59 0.43 c p3
325.33 510.61 0.43 c p3
325.48 509.95 0.43 c p3
325.62 510.47 0.43 c p3
325.77 510.72 0.43 c p3
325.91 510.21 0.43 c p3
326.06 510.47 0.43 c p3
326.20 510.35 0.43 c p3
326.35 510.10 0.43 c p3
326.49 510.10 0.43 c p3
326.64 509.95 0.43 c p3
326.79 509.47 0.43 c p3
326.93 509.59 0.43 c p3
327.08 509.84 0.43 c p3
327.22 510.21 0.43 c p3
327.37 510.72 0.43 c p3
327.51 511.49 0.43 c p3
327.66 510.98 0.43 c p3
327.80 510.72 0.43 c p3
327.95 510.35 0.43 c p3
328.10 510.10 0.43 c p3
328.24 510.35 0.43 c p3
328.39 510.35 0.43 c p3
328.53 509.22 0.43 c p3
328.68 509.95 0.43 c p3
328.82 509.95 0.43 c p3
328.97 509.47 0.43 c p3
329.12 509.73 0.43 c p3
329.26 509.73 0.43 c p3
329.41 510.61 0.43 c p3
329.55 510.35 0.43 c p3
329.70 509.95 0.43 c p3
329.84 509.95 0.43 c p3
329.99 510.10 0.43 c p3
330.13 510.86 0.43 c p3
330.28 509.95 0.43 c p3
330.43 509.84 0.43 c p3
330.57 510.21 0.43 c p3
330.72 510.47 0.43 c p3
330.86 509.84 0.43 c p3
331.01 510.47 0.43 c p3
331.15 510.47 0.43 c p3
331.30 510.61 0.43 c p3
331.44 510.61 0.43 c p3
331.59 509.95 0.43 c p3
331.74 509.84 0.43 c p3
331.88 510.35 0.43 c p3
332.03 510.61 0.43 c p3
332.17 509.73 0.43 c p3
332.32 510.10 0.43 c p3
332.46 509.95 0.43 c p3
332.61 509.84 0.43 c p3
332.75 509.95 0.43 c p3
332.90 510.21 0.43 c p3
333.05 510.35 0.43 c p3
333.19 510.47 0.43 c p3
333.34 510.21 0.43 c p3
333.48 510.86 0.43 c p3
333.63 510.61 0.43 c p3
333.77 510.10 0.43 c p3
333.92 509.84 0.43 c p3
334.07 509.84 0.43 c p3
334.21 509.95 0.43 c p3
334.36 509.73 0.43 c p3
334.50 510.10 0.43 c p3
334.65 509.33 0.43 c p3
334.79 509.84 0.43 c p3
334.94 509.73 0.43 c p3
335.08 510.47 0.43 c p3
335.23 510.47 0.43 c p3
335.38 511.23 0.43 c p3
335.52 510.21 0.43 c p3
335.67 510.61 0.43 c p3
335.81 510.61 0.43 c p3
335.96 509.84 0.43 c p3
336.10 510.21 0.43 c p3
336.25 510.10 0.43 c p3
336.39 509.59 0.43 c p3
336.54 509.22 0.43 c p3
336.69 509.73 0.43 c p3
336.83 509.95 0.43 c p3
336.98 510.47 0.43 c p3
337.12 510.72 0.43 c p3
337.27 510.21 0.43 c p3
337.41 510.47 0.43 c p3
337.56 510.35 0.43 c p3
337.70 509.95 0.43 c p3
337.85 510.10 0.43 c p3
338.00 509.73 0.43 c p3
338.14 510.10 0.43 c p3
338.29 510.21 0.43 c p3
338.43 510.21 0.43 c p3
338.58 510.21 0.43 c p3
338.72 509.73 0.43 c p3
338.87 510.21 0.43 c p3
339.02 510.47 0.43 c p3
339.16 510.86 0.43 c p3
339.31 510.86 0.43 c p3
339.45 510.10 0.43 c p3
339.60 510.35 0.43 c p3
339.74 510.47 0.43 c p3
339.89 510.61 0.43 c p3
340.03 509.59 0.43 c p3
340.18 509.73 0.43 c p3
340.33 509.47 0.43 c p3
340.47 509.84 0.43 c p3
340.62 509.84 0.43 c p3
340.76 509.22 0.43 c p3
340.91 509.84 0.43 c p3
341.05 510.47 0.43 c p3
341.20 510.72 0.43 c p3
341.34 510.35 0.43 c p3
341.49 510.35 0.43 c p3
341.64 510.72 0.43 c p3
341.78 510.10 0.43 c p3
341.93 509.59 0.43 c p3
342.07 509.47 0.43 c p3
342.22 509.95 0.43 c p3
342.36 510.10 0.43 c p3
342.51 510.10 0.43 c p3
342.65 509.59 0.43 c p3
342.80 509.95 0.43 c p3
342.95 510.21 0.43 c p3
343.09 510.61 0.43 c p3
343.24 510.86 0.43 c p3
343.38 510.47 0.43 c p3
343.53 510.21 0.43 c p3
343.67 509.73 0.43 c p3
343.82 510.10 0.43 c p3
343.97 509.47 0.43 c p3
344.11 509.95 0.43 c p3
344.26 510.35 0.43 c p3
344.40 509.95 0.43 c p3
344.55 509.73 0.43 c p3
344.69 509.84 0.43 c p3
344.84 510.47 0.43 c p3
344.98 510.47 0.43 c p3
345.13 510.21 0.43 c p3
345.28 510.61 0.43 c p3
345.42 510.61 0.43 c p3
345.57 510.10 0.43 c p3
345.71 510.35 0.43 c p3
345.86 509.84 0.43 c p3
346.00 509.73 0.43 c p3
346.15 509.33 0.43 c p3
346.29 509.59 0.43 c p3
346.44 509.59 0.43 c p3
346.59 509.95 0.43 c p3
346.73 509.95 0.43 c p3
346.88 510.61 0.43 c p3
347.02 509.95 0.43 c p3
347.17 510.47 0.43 c p3
347.31 510.61 0.43 c p3
347.46 510.61 0.43 c p3
347.60 510.86 0.43 c p3
347.75 510.61 0.43 c p3
347.90 510.21 0.43 c p3
348.04 510.21 0.43 c p3
348.19 510.35 0.43 c p3
348.33 510.47 0.43 c p3
348.48 510.10 0.43 c p3
348.62 510.21 0.43 c p3
348.77 510.10 0.43 c p3
348.92 509.73 0.43 c p3
349.06 510.21 0.43 c p3
349.21 510.47 0.43 c p3
349.35 510.61 0.43 c p3
349.50 509.95 0.43 c p3
349.64 510.61 0.43 c p3
349.79 509.73 0.43 c p3
349.93 509.73 0.43 c p3
350.08 509.84 0.43 c p3
350.23 509.73 0.43 c p3
350.37 510.47 0.43 c p3
350.52 510.10 0.43 c p3
350.66 509.73 0.43 c p3
350.81 509.95 0.43 c p3
350.95 510.10 0.43 c p3
351.10 510.35 0.43 c p3
351.24 510.47 0.43 c p3
351.39 510.35 0.43 c p3
351.54 510.21 0.43 c p3
351.68 509.47 0.43 c p3
351.83 510.21 0.43 c p3
351.97 509.73 0.43 c p3
352.12 509.73 0.43 c p3
352.26 509.47 0.43 c p3
352.41 509.84 0.43 c p3
352.55 509.59 0.43 c p3
352.70 509.47 0.43 c p3
352.85 509.84 0.43 c p3
352.99 510.35 0.43 c p3
353.14 510.47 0.43 c p3
353.28 510.47 0.43 c p3
353.43 510.72 0.43 c p3
353.57 509.84 0.43 c p3
353.72 510.35 0.43 c p3
353.86 510.21 0.43 c p3
354.01 509.95 0.43 c p3
354.16 510.35 0.43 c p3
354.30 509.47 0.43 c p3
354.45 510.21 0.43 c p3
354.59 510.21 0.43 c p3
354.74 509.59 0.43 c p3
354.88 510.10 0.43 c p3
355.03 509.95 0.43 c p3
355.18 509.73 0.43 c p3
355.32 510.10 0.43 c p3
355.47 510.21 0.43 c p3
355.61 510.47 0.43 c p3
355.76 509.84 0.43 c p3
355.90 510.10 0.43 c p3
356.05 509.84 0.43 c p3
356.19 509.95 0.43 c p3
356.34 509.95 0.43 c p3
356.49 509.84 0.43 c p3
356.63 510.47 0.43 c p3
356.78 510.72 0.43 c p3
356.92 510.10 0.43 c p3
357.07 510.61 0.43 c p3
357.21 510.86 0.43 c p3
357.36 510.35 0.43 c p3
357.50 509.84 0.43 c p3
357.65 510.35 0.43 c p3
357.80 510.35 0.43 c p3
357.94 509.95 0.43 c p3
358.09 509.47 0.43 c p3
358.23 509.95 0.43 c p3
358.38 509.84 0.43 c p3
358.52 509.84 0.43 c p3
358.67 510.21 0.43 c p3
358.81 510.35 0.43 c p3
358.96 510.47 0.43 c p3
359.11 510.61 0.43 c p3
359.25 509.84 0.43 c p3
359.40 510.47 0.43 c p3
359.54 510.10 0.43 c p3
359.69 509.59 0.43 c p3
359.83 510.10 0.43 c p3
359.98 510.10 0.43 c p3
360.13 510.10 0.43 c p3
360.27 509.73 0.43 c p3
360.42 509.84 0.43 c p3
360.56 510.21 0.43 c p3
360.71 510.47 0.43 c p3
360.85 509.95 0.43 c p3
361.00 509.84 0.43 c p3
361.14 510.35 0.43 c p3
361.29 509.73 0.43 c p3
361.44 509.73 0.43 c p3
361.58 509.84 0.43 c p3
361.73 509.84 0.43 c p3
361.87 509.59 0.43 c p3
362.02 509.95 0.43 c p3
362.16 510.10 0.43 c p3
362.31 510.86 0.43 c p3
362.45 510.47 0.43 c p3
362.60 510.86 0.43 c p3
362.75 510.35 0.43 c p3
362.89 509.59 0.43 c p3
363.04 509.84 0.43 c p3
363.18 509.95 0.43 c p3
363.33 509.84 0.43 c p3
363.47 509.47 0.43 c p3
363.62 509.47 0.43 c p3
363.76 509.47 0.43 c p3
363.91 509.22 0.43 c p3
364.06 509.47 0.43 c p3
364.20 509.95 0.43 c p3
364.35 510.47 0.43 c p3
364.49 509.59 0.43 c p3
364.64 510.10 0.43 c p3
364.78 510.21 0.43 c p3
364.93 509.59 0.43 c p3
365.08 510.10 0.43 c p3
365.22 509.59 0.43 c p3
365.37 509.59 0.43 c p3
365.51 509.59 0.43 c p3
365.66 509.47 0.43 c p3
365.80 510.10 0.43 c p3
365.95 510.21 0.43 c p3
366.09 509.84 0.43 c p3
366.24 510.21 0.43 c p3
366.39 510.10 0.43 c p3
366.53 510.61 0.43 c p3
366.68 509.95 0.43 c p3
366.82 509.59 0.43 c p3
366.97 509.95 0.43 c p3
367.11 509.73 0.43 c p3
367.26 509.95 0.43 c p3
367.40 509.73 0.43 c p3
367.55 510.21 0.43 c p3
367.70 509.47 0.43 c p3
367.84 510.21 0.43 c p3
367.99 510.10 0.43 c p3
368.13 510.61 0.43 c p3
368.28 510.10 0.43 c p3
368.42 510.35 0.43 c p3
368.57 510.47 0.43 c p3
368.71 510.10 0.43 c p3
368.86 509.59 0.43 c p3
369.01 510.21 0.43 c p3
369.15 509.84 0.43 c p3
369.30 509.95 0.43 c p3
369.44 509.59 0.43 c p3
369.59 509.95 0.43 c p3
369.73 509.07 0.43 c p3
369.88 509.59 0.43 c p3
370.03 509.84 0.43 c p3
370.17 510.10 0.43 c p3
370.32 510.47 0.43 c p3
370.46 510.61 0.43 c p3
370.61 509.95 0.43 c p3
370.75 510.47 0.43 c p3
370.90 510.21 0.43 c p3
371.04 509.95 0.43 c p3
371.19 509.73 0.43 c p3
371.34 509.95 0.43 c p3
371.48 509.47 0.43 c p3
371.63 509.47 0.43 c p3
371.77 509.22 0.43 c p3
371.92 509.59 0.43 c p3
372.06 509.95 0.43 c p3
372.21 510.35 0.43 c p3
372.35 510.47 0.43 c p3
372.50 510.21 0.43 c p3
372.65 510.21 0.43 c p3
372.79 510.47 0.43 c p3
372.94 509.73 0.43 c p3
373.08 509.95 0.43 c p3
373.23 509.07 0.43 c p3
373.37 509.47 0.43 c p3
373.52 509.95 0.43 c p3
373.66 509.73 0.43 c p3
373.81 510.21 0.43 c p3
373.96 509.59 0.43 c p3
374.10 509.59 0.43 c p3
374.25 510.21 0.43 c p3
374.39 510.35 0.43 c p3
374.54 510.21 0.43 c p3
374.68 510.35 0.43 c p3
374.83 510.61 0.43 c p3
374.98 510.21 0.43 c p3
375.12 509.59 0.43 c p3
375.27 509.73 0.43 c p3
375.41 509.73 0.43 c p3
375.56 509.95 0.43 c p3
375.70 509.33 0.43 c p3
375.85 509.33 0.43 c p3
375.99 510.10 0.43 c p3
376.14 509.33 0.43 c p3
376.29 509.95 0.43 c p3
376.43 509.73 0.43 c p3
376.58 510.61 0.43 c p3
376.72 510.10 0.43 c p3
376.87 510.47 0.43 c p3
377.01 510.61 0.43 c p3
377.16 510.47 0.43 c p3
377.30 510.35 0.43 c p3
377.45 510.35 0.43 c p3
377.60 510.21 0.43 c p3
377.74 509.22 0.43 c p3
377.89 509.07 0.43 c p3
378.03 509.47 0.43 c p3
378.18 509.47 0.43 c p3
378.32 509.73 0.43 c p3
378.47 509.33 0.43 c p3
378.61 509.47 0.43 c p3
378.76 510.72 0.43 c p3
378.91 509.95 0.43 c p3
379.05 510.35 0.43 c p3
379.20 509.84 0.43 c p3
379.34 510.21 0.43 c p3
379.49 510.21 0.43 c p3
379.63 509.84 0.43 c p3
379.78 510.21 0.43 c p3
379.93 509.59 0.43 c p3
380.07 509.84 0.43 c p3
380.22 509.95 0.43 c p3
380.36 509.33 0.43 c p3
380.51 509.59 0.43 c p3
380.65 509.47 0.43 c p3
380.80 510.47 0.43 c p3
380.94 510.21 0.43 c p3
381.09 509.95 0.43 c p3
381.24 509.95 0.43 c p3
381.38 510.10 0.43 c p3
381.53 510.10 0.43 c p3
381.67 509.07 0.43 c p3
381.82 509.95 0.43 c p3
381.96 509.73 0.43 c p3
382.11 509.47 0.43 c p3
382.25 509.84 0.43 c p3
382.40 510.10 0.43 c p3
0.00 0.00 432.00 576.00 cl
0 0 0 srgb
0.75 setlinewidth
[] 0 setdash
1 setlinecap
1 setlinejoin
10.00 setmiterlimit
np
236.96 345.60 m
145.59 0 l
o
np
236.96 345.60 m
0 -5.76 l
o
np
266.08 345.60 m
0 -5.76 l
o
np
295.19 345.60 m
0 -5.76 l
o
np
324.31 345.60 m
0 -5.76 l
o
np
353.43 345.60 m
0 -5.76 l
o
np
382.55 345.60 m
0 -5.76 l
o
/Font1 findfont 10 s
236.96 329.47 (0) .5 0 t
266.08 329.47 (200) .5 0 t
295.19 329.47 (400) .5 0 t
324.31 329.47 (600) .5 0 t
353.43 329.47 (800) .5 0 t
382.55 329.47 (1000) .5 0 t
np
216.00 352.00 m
0 162.88 l
o
np
216.00 352.00 m
-5.76 0 l
o
np
216.00 375.27 m
-5.76 0 l
o
np
216.00 398.54 m
-5.76 0 l
o
np
216.00 421.80 m
-5.76 0 l
o
np
216.00 445.07 m
-5.76 0 l
o
np
216.00 468.34 m
-5.76 0 l
o
np
216.00 491.61 m
-5.76 0 l
o
np
216.00 514.88 m
-5.76 0 l
o
209.09 348.41 (0.0) 1 0 t
209.09 371.68 (0.2) 1 0 t
209.09 394.95 (0.4) 1 0 t
209.09 418.21 (0.6) 1 0 t
209.09 441.48 (0.8) 1 0 t
209.09 464.75 (1.0) 1 0 t
209.09 488.02 (1.2) 1 0 t
209.09 511.29 (1.4) 1 0 t
np
216.00 345.60 m
172.80 0 l
0 172.80 l
-172.80 0 l
0 -172.80 l
o
0.00 0.00 432.00 576.00 cl
/Font1 findfont 10 s
0 0 0 srgb
302.40 313.34 (Zeit / ms \(total\)) .5 0 t
190.66 432.00 (U / V) .5 90 t
216.00 345.60 388.80 518.40 cl
0 0 0 srgb
0.38 setlinewidth
[ 1.12 1.88] 0 setdash
1 setlinecap
1 setlinejoin
10.00 setmiterlimit
np
223.27 345.60 m
0 172.80 l
o
np
234.77 345.60 m
0 172.80 l
o
np
239.43 345.60 m
0 172.80 l
o
np
273.50 345.60 m
0 172.80 l
o
86.40 57.60 388.80 288.00 cl
1 0 0 srgb
1.50 setlinewidth
[] 0 setdash
1 setlinecap
1 setlinejoin
10.00 setmiterlimit
np
97.60 279.47 m
1.41 -11.10 l
1.40 -10.53 l
1.41 -9.97 l
1.41 -9.46 l
1.41 -8.96 l
1.40 -8.50 l
1.41 -8.06 l
1.41 -7.63 l
1.40 -7.24 l
1.41 -6.87 l
1.41 -6.50 l
1.40 -6.17 l
1.41 -5.85 l
1.41 -5.54 l
1.41 -5.25 l
1.40 -4.98 l
1.41 -4.72 l
1.41 -4.48 l
1.40 -4.24 l
1.41 -4.02 l
1.41 -3.81 l
1.40 -3.62 l
1.41 -3.42 l
1.41 -3.25 l
1.41 -3.08 l
1.40 -2.92 l
1.41 -2.77 l
1.41 -2.62 l
1.40 -2.49 l
1.41 -2.35 l
1.41 -2.24 l
1.41 -2.11 l
1.40 -2.01 l
1.41 -1.91 l
1.41 -1.80 l
1.40 -1.71 l
1.41 -1.62 l
1.41 -1.54 l
1.40 -1.46 l
1.41 -1.38 l
1.41 -1.31 l
1.41 -1.24 l
1.40 -1.17 l
1.41 -1.12 l
1.41 -1.06 l
1.40 -1.00 l
1.41 -0.95 l
1.41 -0.90 l
1.40 -0.86 l
1.41 -0.80 l
1.41 -0.77 l
1.41 -0.73 l
1.40 -0.69 l
1.41 -0.65 l
1.41 -0.62 l
1.40 -0.59 l
1.41 -0.56 l
1.41 -0.52 l
1.41 -0.50 l
1.40 -0.48 l
1.41 -0.45 l
1.41 -0.43 l
1.40 -0.40 l
1.41 -0.38 l
1.41 -0.37 l
1.40 -0.34 l
1.41 -0.33 l
1.41 -0.31 l
1.41 -0.29 l
1.40 -0.28 l
1.41 -0.26 l
1.41 -0.25 l
1.40 -0.24 l
1.41 -0.22 l
1.41 -0.21 l
1.40 -0.21 l
1.41 -0.19 l
1.41 -0.18 l
1.41 -0.17 l
1.40 -0.16 l
1.41 -0.16 l
1.41 -0.14 l
1.40 -0.14 l
1.41 -0.13 l
1.41 -0.13 l
1.41 -0.12 l
1.40 -0.11 l
1.41 -0.11 l
1.41 -0.10 l
1.40 -0.09 l
1.41 -0.09 l
1.41 -0.09 l
1.40 -0.08 l
1.41 -0.08 l
1.41 -0.07 l
1.41 -0.07 l
1.40 -0.07 l
1.41 -0.06 l
1.41 -0.06 l
238.30 67.15 lineto
1.41 -0.06 l
1.41 -0.05 l
1.40 -0.04 l
1.41 -0.05 l
1.41 -0.04 l
1.41 -0.04 l
1.40 -0.04 l
1.41 -0.04 l
1.41 -0.03 l
1.40 -0.03 l
1.41 -0.04 l
1.41 -0.02 l
1.40 -0.03 l
1.41 -0.03 l
1.41 -0.02 l
1.41 -0.03 l
1.40 -0.02 l
1.41 -0.02 l
1.41 -0.02 l
1.40 -0.02 l
1.41 -0.02 l
1.41 -0.02 l
1.41 -0.01 l
1.40 -0.02 l
1.41 -0.01 l
1.41 -0.02 l
1.40 -0.01 l
1.41 -0.01 l
1.41 -0.02 l
1.40 -0.01 l
1.41 -0.01 l
1.41 -0.01 l
1.41 -0.01 l
1.40 -0.01 l
1.41 0 l
1.41 -0.01 l
1.40 -0.01 l
1.41 -0.01 l
1.41 0 l
1.40 -0.01 l
1.41 -0.01 l
1.41 0 l
1.41 -0.01 l
1.40 0 l
1.41 -0.01 l
1.41 0 l
1.40 -0.01 l
1.41 0 l
1.41 -0.01 l
1.41 0 l
1.40 -0.01 l
1.41 0 l
1.41 0 l
1.40 0 l
1.41 -0.01 l
1.41 0 l
1.40 0 l
1.41 -0.01 l
1.41 0 l
1.41 0 l
1.40 0 l
1.41 0 l
1.41 -0.01 l
1.40 0 l
1.41 0 l
1.41 0 l
1.40 0 l
1.41 0 l
1.41 -0.01 l
1.41 0 l
1.40 0 l
1.41 0 l
1.41 0 l
1.40 0 l
1.41 0 l
1.41 0 l
1.41 -0.01 l
1.40 0 l
1.41 0 l
1.41 0 l
1.40 0 l
1.41 0 l
1.41 0 l
1.40 0 l
1.41 0 l
1.41 0 l
1.41 0 l
1.40 0 l
1.41 0 l
1.41 0 l
1.40 0 l
1.41 0 l
1.41 0 l
1.40 -0.01 l
1.41 0 l
1.41 0 l
1.41 0 l
1.40 0 l
1.41 0 l
o
0.00 0.00 432.00 576.00 cl
0 0 0 srgb
0.75 setlinewidth
[] 0 setdash
1 setlinecap
1 setlinejoin
10.00 setmiterlimit
np
97.60 57.60 m
280.00 0 l
o
np
97.60 57.60 m
0 -5.76 l
o
np
153.60 57.60 m
0 -5.76 l
o
np
209.60 57.60 m
0 -5.76 l
o
np
265.60 57.60 m
0 -5.76 l
o
np
321.60 57.60 m
0 -5.76 l
o
np
377.60 57.60 m
0 -5.76 l
o
/Font1 findfont 10 s
97.60 41.47 (0) .5 0 t
153.60 41.47 (200) .5 0 t
209.60 41.47 (400) .5 0 t
265.60 41.47 (600) .5 0 t
321.60 41.47 (800) .5 0 t
377.60 41.47 (1000) .5 0 t
np
86.40 67.27 m
0 183.22 l
o
np
86.40 67.27 m
-5.76 0 l
o
np
86.40 113.07 m
-5.76 0 l
o
np
86.40 158.88 m
-5.76 0 l
o
np
86.40 204.69 m
-5.76 0 l
o
np
86.40 250.49 m
-5.76 0 l
o
79.49 63.68 (0.00) 1 0 t
79.49 109.48 (0.02) 1 0 t
79.49 155.29 (0.04) 1 0 t
79.49 201.10 (0.06) 1 0 t
79.49 246.90 (0.08) 1 0 t
np
86.40 57.60 m
302.40 0 l
0 230.40 l
-302.40 0 l
0 -230.40 l
o
0.00 0.00 432.00 576.00 cl
/Font1 findfont 10 s
0 0 0 srgb
237.60 13.82 (Zeit / ms \(nach Puls\)) .5 0 t
49.54 172.80 (Absorbanz A) .5 90 t
86.40 57.60 388.80 288.00 cl
/bg { 1 1 1 srgb } def
0 0 0 srgb
0.75 setlinewidth
[] 0 setdash
1 setlinecap
1 setlinejoin
10.00 setmiterlimit
102.64 240.39 0.65 c p3
102.92 244.19 0.65 c p3
103.20 237.44 0.65 c p3
103.48 235.54 0.65 c p3
103.76 228.01 0.65 c p3
104.04 237.44 0.65 c p3
104.32 227.18 0.65 c p3
104.60 227.18 0.65 c p3
104.88 221.57 0.65 c p3
105.16 223.44 0.65 c p3
105.44 220.74 0.65 c p3
105.72 221.57 0.65 c p3
106.00 220.74 0.65 c p3
106.28 218.88 0.65 c p3
106.56 220.74 0.65 c p3
106.84 219.71 0.65 c p3
107.12 220.74 0.65 c p3
107.40 218.88 0.65 c p3
107.68 217.85 0.65 c p3
107.96 208.61 0.65 c p3
108.24 208.61 0.65 c p3
108.52 205.96 0.65 c p3
108.80 197.63 0.65 c p3
109.08 202.29 0.65 c p3
109.36 204.94 0.65 c p3
109.64 204.12 0.65 c p3
109.92 205.96 0.65 c p3
110.20 198.64 0.65 c p3
110.48 194.00 0.65 c p3
110.76 195.81 0.65 c p3
111.04 197.63 0.65 c p3
111.32 195.81 0.65 c p3
111.60 195.01 0.65 c p3
111.88 192.19 0.65 c p3
112.16 186.77 0.65 c p3
112.44 188.58 0.65 c p3
112.72 185.18 0.65 c p3
113.00 185.97 0.65 c p3
113.28 184.18 0.65 c p3
113.56 182.38 0.65 c p3
113.84 185.97 0.65 c p3
114.12 178.81 0.65 c p3
114.40 179.80 0.65 c p3
114.68 181.59 0.65 c p3
114.96 174.45 0.65 c p3
115.24 170.90 0.65 c p3
115.52 169.92 0.65 c p3
115.80 168.15 0.65 c p3
116.08 170.90 0.65 c p3
116.36 170.90 0.65 c p3
116.64 171.69 0.65 c p3
116.92 165.60 0.65 c p3
117.20 169.13 0.65 c p3
117.48 169.92 0.65 c p3
117.76 171.69 0.65 c p3
118.04 168.15 0.65 c p3
118.32 165.60 0.65 c p3
118.60 163.84 0.65 c p3
118.88 162.09 0.65 c p3
119.16 159.36 0.65 c p3
119.44 153.35 0.65 c p3
119.72 154.12 0.65 c p3
120.00 158.58 0.65 c p3
120.28 155.09 0.65 c p3
120.56 154.12 0.65 c p3
120.84 152.38 0.65 c p3
121.12 153.35 0.65 c p3
121.40 148.91 0.65 c p3
121.68 155.86 0.65 c p3
121.96 150.64 0.65 c p3
122.24 148.14 0.65 c p3
122.52 145.64 0.65 c p3
122.80 149.87 0.65 c p3
123.08 146.41 0.65 c p3
123.36 147.37 0.65 c p3
123.64 143.92 0.65 c p3
123.92 140.48 0.65 c p3
124.20 146.41 0.65 c p3
124.48 143.92 0.65 c p3
124.76 147.37 0.65 c p3
125.04 146.41 0.65 c p3
125.32 144.68 0.65 c p3
125.60 140.48 0.65 c p3
125.88 135.33 0.65 c p3
126.16 135.33 0.65 c p3
126.44 132.68 0.65 c p3
126.72 136.09 0.65 c p3
127.00 135.33 0.65 c p3
127.28 137.81 0.65 c p3
127.56 137.05 0.65 c p3
127.84 136.09 0.65 c p3
128.12 133.63 0.65 c p3
128.40 134.39 0.65 c p3
128.68 134.39 0.65 c p3
128.96 133.63 0.65 c p3
129.24 134.39 0.65 c p3
129.52 131.92 0.65 c p3
129.80 129.28 0.65 c p3
130.08 127.58 0.65 c p3
130.36 127.58 0.65 c p3
130.64 128.52 0.65 c p3
130.92 123.44 0.65 c p3
131.20 122.51 0.65 c p3
131.48 125.13 0.65 c p3
131.76 125.89 0.65 c p3
132.04 128.52 0.65 c p3
132.32 123.44 0.65 c p3
132.60 121.76 0.65 c p3
132.88 120.07 0.65 c p3
133.16 119.14 0.65 c p3
133.44 115.78 0.65 c p3
133.72 120.07 0.65 c p3
134.00 120.07 0.65 c p3
134.28 119.14 0.65 c p3
134.56 117.46 0.65 c p3
134.84 117.46 0.65 c p3
135.12 114.11 0.65 c p3
135.40 119.14 0.65 c p3
135.68 115.03 0.65 c p3
135.96 119.14 0.65 c p3
136.24 117.46 0.65 c p3
136.52 116.71 0.65 c p3
136.80 115.03 0.65 c p3
137.08 110.95 0.65 c p3
137.36 109.28 0.65 c p3
137.64 110.02 0.65 c p3
137.92 106.70 0.65 c p3
138.20 109.28 0.65 c p3
138.48 110.95 0.65 c p3
138.76 113.36 0.65 c p3
139.04 110.02 0.65 c p3
139.32 110.95 0.65 c p3
139.60 110.02 0.65 c p3
139.88 107.62 0.65 c p3
140.16 110.95 0.65 c p3
140.44 111.69 0.65 c p3
140.72 110.95 0.65 c p3
141.00 105.96 0.65 c p3
141.28 105.04 0.65 c p3
141.56 103.38 0.65 c p3
141.84 104.30 0.65 c p3
142.12 103.38 0.65 c p3
142.40 101.73 0.65 c p3
142.68 104.30 0.65 c p3
142.96 103.38 0.65 c p3
143.24 101.73 0.65 c p3
143.52 104.30 0.65 c p3
143.80 103.38 0.65 c p3
144.08 99.34 0.65 c p3
144.36 98.43 0.65 c p3
144.64 96.78 0.65 c p3
144.92 96.78 0.65 c p3
145.20 101.73 0.65 c p3
145.48 100.99 0.65 c p3
145.76 98.43 0.65 c p3
146.04 99.34 0.65 c p3
146.32 99.34 0.65 c p3
146.60 95.14 0.65 c p3
146.88 100.99 0.65 c p3
147.16 99.34 0.65 c p3
147.44 97.70 0.65 c p3
147.72 105.96 0.65 c p3
148.00 96.78 0.65 c p3
148.28 96.78 0.65 c p3
148.56 96.78 0.65 c p3
148.84 94.41 0.65 c p3
149.12 93.50 0.65 c p3
149.40 90.23 0.65 c p3
149.68 91.14 0.65 c p3
149.96 96.05 0.65 c p3
150.24 96.78 0.65 c p3
150.52 96.78 0.65 c p3
150.80 93.50 0.65 c p3
151.08 98.43 0.65 c p3
151.36 98.43 0.65 c p3
151.64 94.41 0.65 c p3
151.92 93.50 0.65 c p3
152.20 96.05 0.65 c p3
152.48 94.41 0.65 c p3
152.76 94.41 0.65 c p3
153.04 90.23 0.65 c p3
153.32 88.60 0.65 c p3
153.60 91.14 0.65 c p3
153.88 86.97 0.65 c p3
154.16 88.60 0.65 c p3
154.44 86.97 0.65 c p3
154.72 92.77 0.65 c p3
155.00 91.86 0.65 c p3
155.28 95.14 0.65 c p3
155.56 89.50 0.65 c p3
155.84 87.87 0.65 c p3
156.12 89.50 0.65 c p3
156.40 83.72 0.65 c p3
156.68 88.60 0.65 c p3
156.96 88.60 0.65 c p3
157.24 86.24 0.65 c p3
157.52 90.23 0.65 c p3
157.80 90.23 0.65 c p3
158.08 90.23 0.65 c p3
158.36 88.60 0.65 c p3
158.64 87.87 0.65 c p3
158.92 90.23 0.65 c p3
159.20 87.87 0.65 c p3
159.48 89.50 0.65 c p3
159.76 87.87 0.65 c p3
160.04 84.62 0.65 c p3
160.32 83.72 0.65 c p3
160.60 82.10 0.65 c p3
160.88 81.38 0.65 c p3
161.16 86.24 0.65 c p3
161.44 86.97 0.65 c p3
161.72 86.24 0.65 c p3
162.00 86.97 0.65 c p3
162.28 86.24 0.65 c p3
162.56 85.34 0.65 c p3
162.84 84.62 0.65 c p3
163.12 85.34 0.65 c p3
163.40 89.50 0.65 c p3
163.68 85.34 0.65 c p3
163.96 85.34 0.65 c p3
164.24 79.76 0.65 c p3
164.52 80.48 0.65 c p3
164.80 80.48 0.65 c p3
165.08 78.86 0.65 c p3
165.36 80.48 0.65 c p3
165.64 84.62 0.65 c p3
165.92 84.62 0.65 c p3
166.20 81.38 0.65 c p3
166.48 83.00 0.65 c p3
166.76 83.72 0.65 c p3
167.04 81.38 0.65 c p3
167.32 83.72 0.65 c p3
167.60 83.00 0.65 c p3
167.88 83.00 0.65 c p3
168.16 77.25 0.65 c p3
216.00 201.60 367.20 247.68 cl
0 0 0 srgb
0.75 setlinewidth
[] 0 setdash
1 setlinecap
1 setlinejoin
10.00 setmiterlimit
221.60 221.25 0.43 c p1
222.20 231.29 0.43 c p1
222.80 222.59 0.43 c p1
223.39 222.47 0.43 c p1
223.99 212.33 0.43 c p1
224.59 232.18 0.43 c p1
225.19 217.14 0.43 c p1
225.79 220.24 0.43 c p1
226.39 213.37 0.43 c p1
226.98 219.71 0.43 c p1
227.58 217.94 0.43 c p1
228.18 222.37 0.43 c p1
228.78 223.84 0.43 c p1
229.38 223.45 0.43 c p1
229.98 229.61 0.43 c p1
230.57 230.63 0.43 c p1
231.17 235.27 0.43 c p1
231.77 234.76 0.43 c p1
232.37 235.69 0.43 c p1
232.97 222.05 0.43 c p1
233.57 224.74 0.43 c p1
234.16 222.71 0.43 c p1
234.76 210.62 0.43 c p1
235.36 221.48 0.43 c p1
235.96 228.74 0.43 c p1
236.56 229.86 0.43 c p1
237.16 235.63 0.43 c p1
237.75 225.19 0.43 c p1
238.35 219.44 0.43 c p1
238.95 225.10 0.43 c p1
239.55 230.75 0.43 c p1
240.15 229.93 0.43 c p1
240.75 230.87 0.43 c p1
241.34 228.23 0.43 c p1
241.94 220.96 0.43 c p1
242.54 226.45 0.43 c p1
243.14 222.71 0.43 c p1
243.74 226.37 0.43 c p1
244.34 225.42 0.43 c p1
244.93 224.44 0.43 c p1
245.53 232.98 0.43 c p1
246.13 222.45 0.43 c p1
246.73 226.34 0.43 c p1
247.33 231.61 0.43 c p1
247.92 221.07 0.43 c p1
248.52 216.85 0.43 c p1
249.12 217.16 0.43 c p1
249.72 216.05 0.43 c p1
250.32 222.92 0.43 c p1
250.92 224.90 0.43 c p1
251.51 228.25 0.43 c p1
252.11 219.42 0.43 c p1
252.71 227.58 0.43 c p1
253.31 230.87 0.43 c p1
253.91 235.89 0.43 c p1
254.51 231.48 0.43 c p1
255.10 228.81 0.43 c p1
255.70 227.51 0.43 c p1
256.30 226.20 0.43 c p1
256.90 223.15 0.43 c p1
257.50 214.27 0.43 c p1
258.10 217.38 0.43 c p1
258.69 227.00 0.43 c p1
259.29 222.52 0.43 c p1
259.89 222.50 0.43 c p1
260.49 221.09 0.43 c p1
261.09 224.45 0.43 c p1
261.69 218.23 0.43 c p1
262.28 232.16 0.43 c p1
262.88 224.52 0.43 c p1
263.48 221.67 0.43 c p1
264.08 218.82 0.43 c p1
264.68 227.86 0.43 c p1
265.28 223.26 0.43 c p1
265.87 226.48 0.43 c p1
266.47 221.87 0.43 c p1
267.07 217.26 0.43 c p1
267.67 229.24 0.43 c p1
268.27 226.28 0.43 c p1
268.86 233.83 0.43 c p1
269.46 233.56 0.43 c p1
270.06 231.91 0.43 c p1
270.66 225.85 0.43 c p1
271.26 218.13 0.43 c p1
271.86 219.50 0.43 c p1
272.45 216.15 0.43 c p1
273.05 223.53 0.43 c p1
273.65 223.50 0.43 c p1
274.25 229.19 0.43 c p1
274.85 229.14 0.43 c p1
275.45 228.73 0.43 c p1
276.04 225.63 0.43 c p1
276.64 228.23 0.43 c p1
277.24 229.47 0.43 c p1
277.84 229.35 0.43 c p1
278.44 231.91 0.43 c p1
279.04 228.75 0.43 c p1
279.63 225.25 0.43 c p1
280.23 223.42 0.43 c p1
280.83 224.59 0.43 c p1
281.43 227.41 0.43 c p1
282.03 219.56 0.43 c p1
282.63 219.02 0.43 c p1
283.22 224.79 0.43 c p1
283.82 227.23 0.43 c p1
284.42 232.99 0.43 c p1
285.02 225.07 0.43 c p1
285.62 223.16 0.43 c p1
286.22 221.23 0.43 c p1
286.81 220.62 0.43 c p1
287.41 215.71 0.43 c p1
288.01 224.34 0.43 c p1
288.61 225.35 0.43 c p1
289.21 224.70 0.43 c p1
289.81 222.71 0.43 c p1
290.40 223.70 0.43 c p1
291.00 218.73 0.43 c p1
291.60 228.60 0.43 c p1
292.20 222.29 0.43 c p1
292.80 230.49 0.43 c p1
293.39 228.45 0.43 c p1
293.99 228.05 0.43 c p1
294.59 225.99 0.43 c p1
295.19 219.66 0.43 c p1
295.79 217.61 0.43 c p1
296.39 219.80 0.43 c p1
296.98 214.78 0.43 c p1
297.58 220.23 0.43 c p1
298.18 224.03 0.43 c p1
298.78 229.15 0.43 c p1
299.38 224.07 0.43 c p1
299.98 226.54 0.43 c p1
300.57 225.72 0.43 c p1
301.17 222.28 0.43 c p1
301.77 228.97 0.43 c p1
302.37 231.08 0.43 c p1
302.97 230.55 0.43 c p1
303.57 222.49 0.43 c p1
304.16 221.63 0.43 c p1
304.76 219.46 0.43 c p1
305.36 221.84 0.43 c p1
305.96 220.96 0.43 c p1
306.56 218.77 0.43 c p1
307.16 224.05 0.43 c p1
307.75 223.14 0.43 c p1
308.35 220.93 0.43 c p1
308.95 226.19 0.43 c p1
309.55 225.26 0.43 c p1
310.15 218.80 0.43 c p1
310.75 217.87 0.43 c p1
311.34 215.63 0.43 c p1
311.94 216.30 0.43 c p1
312.54 225.72 0.43 c p1
313.14 225.07 0.43 c p1
313.74 221.18 0.43 c p1
314.34 223.44 0.43 c p1
314.93 224.08 0.43 c p1
315.53 217.26 0.43 c p1
316.13 228.25 0.43 c p1
316.73 225.94 0.43 c p1
317.33 223.63 0.43 c p1
317.92 238.86 0.43 c p1
318.52 223.21 0.43 c p1
319.12 223.80 0.43 c p1
319.72 224.38 0.43 c p1
320.32 220.76 0.43 c p1
320.92 219.72 0.43 c p1
321.51 214.49 0.43 c p1
322.11 216.66 0.43 c p1
322.71 225.91 0.43 c p1
323.31 227.76 0.43 c p1
323.91 228.30 0.43 c p1
324.51 223.02 0.43 c p1
325.10 232.27 0.43 c p1
325.70 232.80 0.43 c p1
326.30 226.20 0.43 c p1
326.90 225.11 0.43 c p1
327.50 230.13 0.43 c p1
328.10 227.73 0.43 c p1
328.69 228.22 0.43 c p1
329.29 221.31 0.43 c p1
329.89 218.91 0.43 c p1
330.49 223.89 0.43 c p1
331.09 216.98 0.43 c p1
331.69 220.34 0.43 c p1
332.28 217.92 0.43 c p1
332.88 228.66 0.43 c p1
333.48 227.51 0.43 c p1
334.08 233.76 0.43 c p1
334.68 224.22 0.43 c p1
335.28 221.78 0.43 c p1
335.87 225.10 0.43 c p1
336.47 215.29 0.43 c p1
337.07 224.36 0.43 c p1
337.67 224.78 0.43 c p1
338.27 221.04 0.43 c p1
338.86 228.51 0.43 c p1
339.46 228.92 0.43 c p1
340.06 229.32 0.43 c p1
340.66 226.84 0.43 c p1
341.26 225.95 0.43 c p1
341.86 230.52 0.43 c p1
342.45 226.73 0.43 c p1
343.05 230.01 0.43 c p1
343.65 227.50 0.43 c p1
344.25 222.12 0.43 c p1
344.85 220.89 0.43 c p1
345.45 218.39 0.43 c p1
346.04 217.48 0.43 c p1
346.64 226.46 0.43 c p1
347.24 228.10 0.43 c p1
347.84 227.17 0.43 c p1
348.44 228.81 0.43 c p1
349.04 227.87 0.43 c p1
349.63 226.61 0.43 c p1
350.23 225.67 0.43 c p1
350.83 227.29 0.43 c p1
351.43 234.99 0.43 c p1
352.03 227.95 0.43 c p1
352.63 228.27 0.43 c p1
353.22 218.71 0.43 c p1
353.82 220.30 0.43 c p1
354.42 220.62 0.43 c p1
355.02 218.07 0.43 c p1
355.62 221.23 0.43 c p1
356.22 228.87 0.43 c p1
356.81 229.17 0.43 c p1
357.41 223.73 0.43 c p1
358.01 226.89 0.43 c p1
358.61 228.46 0.43 c p1
359.21 224.61 0.43 c p1
359.81 229.04 0.43 c p1
360.40 228.04 0.43 c p1
361.00 228.32 0.43 c p1
361.60 218.42 0.43 c p1
0.00 0.00 432.00 576.00 cl
0 0 0 srgb
0.75 setlinewidth
[] 0 setdash
1 setlinecap
1 setlinejoin
10.00 setmiterlimit
np
240.75 201.60 m
119.65 0 l
o
np
240.75 201.60 m
0 -5.76 l
o
np
270.66 201.60 m
0 -5.76 l
o
np
300.57 201.60 m
0 -5.76 l
o
np
330.49 201.60 m
0 -5.76 l
o
np
360.40 201.60 m
0 -5.76 l
o
/Font1 findfont 6 s
240.75 185.47 (50) .5 0 t
270.66 185.47 (100) .5 0 t
300.57 185.47 (150) .5 0 t
330.49 185.47 (200) .5 0 t
360.40 185.47 (250) .5 0 t
np
216.00 208.42 m
0 32.44 l
o
np
216.00 208.42 m
-5.76 0 l
o
np
216.00 216.53 m
-5.76 0 l
o
np
216.00 224.64 m
-5.76 0 l
o
np
216.00 232.75 m
-5.76 0 l
o
np
216.00 240.86 m
-5.76 0 l
o
209.09 206.27 (-0.004) 1 0 t
209.09 214.38 (-0.002) 1 0 t
209.09 222.49 (0.000) 1 0 t
209.09 230.60 (0.002) 1 0 t
209.09 238.71 (0.004) 1 0 t
np
216.00 201.60 m
151.20 0 l
0 46.08 l
-151.20 0 l
0 -46.08 l
o
0.00 0.00 432.00 576.00 cl
/Font1 findfont 9 s
0 0 0 srgb
291.60 262.88 (Residuen) .5 0 t
59.04 73.44 401.76 516.96 cl
ep
%%Trailer
%%Pages: 1
%%EOF
