%!PS-Adobe-3.0 EPSF-3.0
%%DocumentNeededResources: font Helvetica
%%+ font Helvetica-Bold
%%+ font Helvetica-Oblique
%%+ font Helvetica-BoldOblique
%%+ font Symbol
%%Title: R Graphics Output
%%Creator: R Software
%%Pages: (atend)
%%BoundingBox: 0 0 432 576
%%EndComments
%%BeginProlog
/bp  { gs sRGB gs } def
% begin .ps.prolog
/gs  { gsave } bind def
/gr  { grestore } bind def
/ep  { showpage gr gr } bind def
/m   { moveto } bind def
/l  { rlineto } bind def
/np  { newpath } bind def
/cp  { closepath } bind def
/f   { fill } bind def
/o   { stroke } bind def
/c   { newpath 0 360 arc } bind def
/r   { 4 2 roll moveto 1 copy 3 -1 roll exch 0 exch rlineto 0 rlineto -1 mul 0 exch rlineto closepath } bind def
/p1  { stroke } bind def
/p2  { gsave bg fill grestore newpath } bind def
/p3  { gsave bg fill grestore stroke } bind def
/p6  { gsave bg eofill grestore newpath } bind def
/p7  { gsave bg eofill grestore stroke } bind def
/t   { 5 -2 roll moveto gsave rotate
       1 index stringwidth pop
       mul neg 0 rmoveto show grestore } bind def
/ta  { 4 -2 roll moveto gsave rotate show } bind def
/tb  { 2 -1 roll 0 rmoveto show } bind def
/cl  { grestore gsave newpath 3 index 3 index moveto 1 index
       4 -1 roll lineto  exch 1 index lineto lineto
       closepath clip newpath } bind def
/rgb { setrgbcolor } bind def
/s   { scalefont setfont } bind def
% end   .ps.prolog
/sRGB { [ /CIEBasedABC
          << /DecodeLMN
               [ { dup 0.03928 le
                        {12.92321 div}
                        {0.055 add 1.055 div 2.4 exp }
                     ifelse
                 } bind dup dup
               ]
             /MatrixLMN [0.412457 0.212673 0.019334
                         0.357576 0.715152 0.119192
                         0.180437 0.072175 0.950301]
             /WhitePoint [0.9505 1.0 1.0890]
           >>
         ] setcolorspace } bind def
/srgb { setcolor } bind def
%%IncludeResource: font Helvetica
/Helvetica findfont
dup length dict begin
  {1 index /FID ne {def} {pop pop} ifelse} forall
  /Encoding ISOLatin1Encoding def
  currentdict
  end
/Font1 exch definefont pop
%%IncludeResource: font Helvetica-Bold
/Helvetica-Bold findfont
dup length dict begin
  {1 index /FID ne {def} {pop pop} ifelse} forall
  /Encoding ISOLatin1Encoding def
  currentdict
  end
/Font2 exch definefont pop
%%IncludeResource: font Helvetica-Oblique
/Helvetica-Oblique findfont
dup length dict begin
  {1 index /FID ne {def} {pop pop} ifelse} forall
  /Encoding ISOLatin1Encoding def
  currentdict
  end
/Font3 exch definefont pop
%%IncludeResource: font Helvetica-BoldOblique
/Helvetica-BoldOblique findfont
dup length dict begin
  {1 index /FID ne {def} {pop pop} ifelse} forall
  /Encoding ISOLatin1Encoding def
  currentdict
  end
/Font4 exch definefont pop
%%IncludeResource: font Symbol
/Symbol findfont
dup length dict begin
  {1 index /FID ne {def} {pop pop} ifelse} forall
  currentdict
  end
/Font5 exch definefont pop
%%EndProlog
%%Page: 1 1
bp
0.00 0.00 432.00 576.00 cl
0.00 0.00 432.00 576.00 cl
0.00 0.00 432.00 576.00 cl
/Font1 findfont 12 s
0 0 0 srgb
48.00 508.72 (PCP-ETH) 0 0 t
48.00 494.89 (Blitzlicht-Photolyse) 0 0 t
/Font1 findfont 9 s
48.00 457.54 (File: Dy) 0 ta
-0.180 (e_0_1_V1_900V_30.dat) tb gr
48.00 334.87 (T) 0 ta
-1.080 (ue Apr  9 22:03:00 2019) tb gr
48.00 430.87 (Fitfunktion:  a + b * e) 0 ta
-0.270 (xp\(-c * t\)) tb gr
48.00 420.50 (t-Inter) 0 ta
0.270 (v) tb
-0.225 (all: 14.000 ... 266.000 ms) tb gr
48.00 410.14 (P) 0 ta
-0.360 (ar) tb
-0.090 (ameter \(Standardabw) tb
-0.090 (eichung\):) tb gr
48.00 399.77 (  a = -0.00371 \(0.00032\)) 0 0 t
48.00 389.40 (  b = 0.25596 \(0.00067\)) 0 0 t
48.00 379.03 (  c = 1.440e+01 \(8.388e-02\) s^-1) 0 0 t
48.00 368.66 (  tau = 6.942e-02 \(4.042e-04\) s) 0 0 t
216.00 345.60 388.80 518.40 cl
0 0 0 srgb
0.75 setlinewidth
[] 0 setdash
1 setlinecap
1 setlinejoin
10.00 setmiterlimit
np
222.40 511.68 m
0.15 -0.54 l
0.14 0.44 l
0.15 0.10 l
0.14 -0.44 l
0.15 0.12 l
0.14 0.32 l
0.15 -0.22 l
0.14 0.22 l
0.15 -0.10 l
0.15 -0.56 l
0.14 0 l
0.15 0.22 l
0.14 0.34 l
0.15 -0.34 l
0.14 0.34 l
0.15 -0.22 l
0.14 0.44 l
0.15 -0.34 l
0.15 0.34 l
0.14 -0.44 l
0.15 0.10 l
0.14 0 l
0.15 0 l
0.14 -0.10 l
0.15 0.10 l
0.15 -0.10 l
0.14 -0.12 l
0.15 0.34 l
0.14 -0.56 l
0.15 0.12 l
0.14 -0.12 l
0.15 -0.44 l
0.14 0.78 l
0.15 0.10 l
0.15 -0.10 l
0.14 0.44 l
0.15 -0.66 l
0.14 0.22 l
0.15 0.44 l
0.14 -0.22 l
0.15 -0.34 l
0.14 0.76 l
0.15 -0.86 l
0.15 0.22 l
0.14 0.32 l
0.15 -0.22 l
0.14 -0.10 l
0.15 0.32 l
0.14 -0.22 l
0.15 -0.32 l
0.14 0.32 l
0.15 0 l
0.15 -0.44 l
0.14 0 l
0.15 0.44 l
0.14 0.12 l
0.15 -0.22 l
0.14 0.54 l
0.15 -0.44 l
0.15 0.44 l
0.14 -0.76 l
0.15 0.44 l
0.14 0 l
0.15 -0.12 l
0.14 0.22 l
0.15 -0.54 l
0.14 0.32 l
0.15 -0.10 l
0.15 0.22 l
0.14 -0.44 l
0.15 0.10 l
0.14 0 l
0.15 -0.32 l
0.14 0.32 l
0.15 0 l
0.14 -0.22 l
0.15 0.44 l
0.15 -0.66 l
0.14 1.10 l
0.15 -0.32 l
0.14 0.10 l
0.15 0 l
0.14 -0.22 l
0.15 0.12 l
0.14 0.10 l
0.15 0.12 l
0.15 -0.56 l
0.14 0 l
0.15 -0.10 l
0.14 0.10 l
0.15 -0.32 l
0.14 0.32 l
0.15 0.34 l
0.15 -0.66 l
0.14 0.32 l
0.15 0.22 l
0.14 -0.22 l
0.15 0 l
0.14 -0.22 l
236.96 438.62 lineto
0.14 2.73 l
0.15 2.35 l
0.15 1.42 l
0.14 0.35 l
0.15 1.74 l
0.14 0.79 l
0.15 0.22 l
0.14 0.98 l
0.15 0.88 l
0.14 -0.10 l
0.15 0.76 l
0.15 1.65 l
0.14 0.88 l
0.15 -0.44 l
0.14 0.89 l
0.15 0.12 l
0.14 0.76 l
0.15 0.88 l
0.14 0.67 l
0.15 0.88 l
0.15 0.10 l
0.14 0.12 l
0.15 1.55 l
0.14 0 l
0.15 0.76 l
0.14 -0.10 l
0.15 0.98 l
0.15 0.54 l
0.14 0.89 l
0.15 0.12 l
0.14 0.76 l
0.15 0.79 l
0.14 0 l
0.15 0.76 l
0.14 0.44 l
0.15 1.10 l
0.15 -0.22 l
0.14 1.21 l
0.15 0.44 l
0.14 0.88 l
0.15 0 l
0.14 0.57 l
0.15 -0.22 l
0.14 1.42 l
0.15 0.22 l
0.15 0.76 l
0.14 1.11 l
0.15 -0.54 l
0.14 0.54 l
0.15 0.22 l
0.14 0.66 l
0.15 0.79 l
0.14 1.20 l
0.15 -0.12 l
0.15 0.34 l
0.14 0.32 l
0.15 0.56 l
0.14 0.54 l
0.15 0.79 l
0.14 0.32 l
0.15 0.44 l
0.15 0.12 l
0.14 0.67 l
0.15 0.32 l
0.14 0.31 l
0.15 0.57 l
0.14 -0.12 l
0.15 0.78 l
0.14 0.22 l
0.15 1.11 l
0.15 0.10 l
0.14 -0.10 l
0.15 0.66 l
0.14 0 l
0.15 0.66 l
0.14 1.08 l
0.15 0.22 l
0.14 0.13 l
0.15 0.32 l
0.15 0.12 l
0.14 0.76 l
0.15 0.22 l
0.14 0.35 l
0.15 0.31 l
0.14 0.45 l
0.15 0 l
0.14 0.78 l
0.15 0.54 l
0.15 -0.76 l
0.14 0.98 l
0.15 0 l
0.14 0.44 l
0.15 0.99 l
0.14 1.10 l
0.15 -0.44 l
0.15 -0.10 l
0.14 -0.12 l
0.15 0.22 l
0.14 1.01 l
251.52 492.73 lineto
0.14 0.22 l
0.15 -0.10 l
0.14 0.54 l
0.15 -0.66 l
0.15 0.66 l
0.14 0.76 l
0.15 0.12 l
0.14 -0.66 l
0.15 0.98 l
0.14 0.13 l
0.15 0.76 l
0.14 -0.76 l
0.15 0.32 l
0.15 0.56 l
0.14 0.44 l
0.15 0.66 l
0.14 0.45 l
0.15 0.44 l
0.14 -0.35 l
0.15 -0.22 l
0.14 0.35 l
0.15 0.41 l
0.15 0.45 l
0.14 0.22 l
0.15 0.12 l
0.14 -0.22 l
0.15 0 l
0.14 0.32 l
0.15 0.78 l
0.14 0 l
0.15 -0.12 l
0.15 0.35 l
0.14 -0.13 l
0.15 1.55 l
0.14 0.34 l
0.15 -1.00 l
0.14 0.34 l
0.15 -0.66 l
0.15 0.54 l
0.14 0.78 l
0.15 0.76 l
0.14 -0.32 l
0.15 0.45 l
0.14 -0.22 l
0.15 -0.13 l
0.14 -0.22 l
0.15 0.89 l
0.15 0.22 l
0.14 0 l
0.15 0.10 l
0.14 0.34 l
0.15 -0.12 l
0.14 0.22 l
0.15 0.44 l
0.14 0.12 l
0.15 -0.22 l
0.15 0.22 l
0.14 0 l
0.15 0.66 l
0.14 0.45 l
0.15 -0.22 l
0.14 -0.57 l
0.15 -0.10 l
0.14 0.54 l
0.15 0.22 l
0.15 0.67 l
0.14 -0.45 l
0.15 -0.22 l
0.14 0.13 l
0.15 0.44 l
0.14 -0.22 l
0.15 0.54 l
0.15 0.12 l
0.14 -0.34 l
0.15 0.56 l
0.14 -0.34 l
0.15 0.56 l
0.14 -0.22 l
0.15 0.22 l
0.14 -0.22 l
0.15 0.10 l
0.15 0.66 l
0.14 0.54 l
0.15 -0.10 l
0.14 -0.22 l
0.15 -0.76 l
0.14 0.32 l
0.15 -0.10 l
0.14 0.22 l
0.15 -0.22 l
0.15 0.76 l
0.14 -0.31 l
0.15 -0.35 l
0.14 0.35 l
0.15 0.98 l
0.14 -0.22 l
0.15 -0.35 l
0.14 -0.10 l
0.15 0.10 l
266.08 508.49 lineto
0.14 -0.34 l
0.15 0.44 l
0.14 -0.44 l
0.15 -0.67 l
0.14 0.57 l
0.15 0.22 l
0.15 0 l
0.14 -0.22 l
0.15 -0.13 l
0.14 -0.09 l
0.15 0.66 l
0.14 -0.12 l
0.15 0.44 l
0.14 -0.44 l
0.15 0.34 l
0.15 -0.44 l
0.14 0.22 l
0.15 0.76 l
0.14 -0.22 l
0.15 -0.22 l
0.14 0.22 l
0.15 -0.44 l
0.14 0.22 l
0.15 0.34 l
0.15 -0.22 l
0.14 -0.34 l
0.15 0.44 l
0.14 -0.54 l
0.15 0.76 l
0.14 0.12 l
0.15 -0.44 l
0.14 0.54 l
0.15 -0.66 l
0.15 0.12 l
0.14 0.76 l
0.15 -0.32 l
0.14 -0.12 l
0.15 0.22 l
0.14 -0.66 l
0.15 0 l
0.15 1.00 l
0.14 0.32 l
0.15 -0.32 l
0.14 -1.00 l
0.15 0.34 l
0.14 -0.12 l
0.15 0.34 l
0.14 0.22 l
0.15 -0.44 l
0.15 0 l
0.14 0.32 l
0.15 -0.10 l
0.14 0.99 l
0.15 -0.55 l
0.14 -0.56 l
0.15 0.22 l
0.14 0.12 l
0.15 0.67 l
0.15 -0.45 l
0.14 0 l
0.15 0.10 l
0.14 0 l
0.15 -0.44 l
0.14 0.66 l
0.15 -0.09 l
0.14 -0.13 l
0.15 -0.66 l
0.15 0.12 l
0.14 0.10 l
0.15 0 l
0.14 0.44 l
0.15 0.22 l
0.14 -0.66 l
0.15 0 l
0.15 -0.22 l
0.14 0.79 l
0.15 0.22 l
0.14 0 l
0.15 -0.35 l
0.14 -0.22 l
0.15 -0.22 l
0.14 0.22 l
0.15 0.22 l
0.15 -0.54 l
0.14 0.10 l
0.15 0.34 l
0.14 -0.12 l
0.15 0.57 l
0.14 -0.13 l
0.15 -0.54 l
0.14 0.32 l
0.15 0 l
0.15 -0.22 l
0.14 0.35 l
0.15 0.22 l
0.14 -0.13 l
0.15 -0.66 l
0.14 0 l
0.15 0.22 l
280.63 509.91 lineto
0.15 -0.10 l
0.15 0.10 l
0.14 0.13 l
0.15 -0.13 l
0.14 0.13 l
0.15 0.44 l
0.14 -1.01 l
0.15 0.44 l
0.15 -0.32 l
0.14 0 l
0.15 0 l
0.14 0.54 l
0.15 -0.54 l
0.14 0.32 l
0.15 -0.44 l
0.14 0 l
0.15 0.66 l
0.15 -0.09 l
0.14 -0.13 l
0.15 0.45 l
0.14 -0.67 l
0.15 -0.22 l
0.14 0 l
0.15 0.89 l
0.14 -0.45 l
0.15 -0.22 l
0.15 -0.22 l
0.14 -0.10 l
0.15 0 l
0.14 0.67 l
0.15 -0.67 l
0.14 -0.44 l
0.15 0.54 l
0.14 0.34 l
0.15 0 l
0.15 0.10 l
0.14 0 l
0.15 -0.66 l
0.14 0.22 l
0.15 0.44 l
0.14 0.13 l
0.15 -0.45 l
0.14 0 l
0.15 -0.12 l
0.15 0 l
0.14 0.34 l
0.15 -0.44 l
0.14 0 l
0.15 0.32 l
0.14 -0.44 l
0.15 0 l
0.15 0.34 l
0.14 0.10 l
0.15 -0.10 l
0.14 0.22 l
0.15 -0.22 l
0.14 -0.34 l
0.15 0.44 l
0.14 0.22 l
0.15 0.22 l
0.15 -0.22 l
0.14 -0.10 l
0.15 -0.78 l
0.14 0 l
0.15 0.44 l
0.14 0 l
0.15 -0.10 l
0.14 -0.34 l
0.15 0.12 l
0.15 0.22 l
0.14 0 l
0.15 -0.22 l
0.14 0.32 l
0.15 -0.10 l
0.14 -0.34 l
0.15 0.44 l
0.14 0.22 l
0.15 0 l
0.15 -0.44 l
0.14 0.34 l
0.15 0 l
0.14 0.10 l
0.15 0 l
0.14 -0.66 l
0.15 -0.32 l
0.15 0.32 l
0.14 0 l
0.15 0.78 l
0.14 -0.12 l
0.15 -0.22 l
0.14 -0.22 l
0.15 -0.44 l
0.14 -0.44 l
0.15 1.00 l
0.15 -0.34 l
0.14 0 l
0.15 0.22 l
0.14 0 l
0.15 -0.10 l
295.19 509.37 lineto
0.15 0.32 l
0.14 -0.10 l
0.15 -0.22 l
0.15 -0.88 l
0.14 0.44 l
0.15 0.88 l
0.14 -0.22 l
0.15 -0.56 l
0.14 -0.32 l
0.15 0 l
0.14 -0.22 l
0.15 0.54 l
0.15 0.12 l
0.14 -0.12 l
0.15 0.12 l
0.14 -0.22 l
0.15 0.54 l
0.14 -0.22 l
0.15 0 l
0.15 -0.22 l
0.14 0.12 l
0.15 -0.56 l
0.14 0.34 l
0.15 0.32 l
0.14 -0.44 l
0.15 0.34 l
0.14 -0.56 l
0.15 0.44 l
0.15 0.44 l
0.14 -0.10 l
0.15 -0.44 l
0.14 0.32 l
0.15 -0.54 l
0.14 0.10 l
0.15 0.66 l
0.14 0 l
0.15 -0.32 l
0.15 0 l
0.14 -0.34 l
0.15 0.12 l
0.14 0.32 l
0.15 -0.22 l
0.14 0 l
0.15 -0.66 l
0.14 0 l
0.15 0.88 l
0.15 -0.32 l
0.14 0 l
0.15 -0.44 l
0.14 -0.22 l
0.15 0.54 l
0.14 0 l
0.15 0.44 l
0.15 -0.10 l
0.14 0 l
0.15 -0.34 l
0.14 -0.22 l
0.15 0.44 l
0.14 0 l
0.15 0 l
0.14 -0.10 l
0.15 0.44 l
0.15 -0.56 l
0.14 -0.22 l
0.15 0.34 l
0.14 0.22 l
0.15 -0.22 l
0.14 -0.22 l
0.15 -0.44 l
0.14 0.22 l
0.15 0.44 l
0.15 0 l
0.14 -0.22 l
0.15 0 l
0.14 -0.22 l
0.15 -0.34 l
0.14 0.44 l
0.15 0.66 l
0.14 0 l
0.15 -0.44 l
0.15 -0.54 l
0.14 0 l
0.15 0.98 l
0.14 0.22 l
0.15 -0.54 l
0.14 -0.12 l
0.15 -0.32 l
0.15 -0.22 l
0.14 0.54 l
0.15 0 l
0.14 0 l
0.15 -0.66 l
0.14 0 l
0.15 0 l
0.14 0.88 l
0.15 -0.44 l
0.15 0.22 l
0.14 0.12 l
0.15 -0.44 l
309.75 508.81 lineto
0.15 0.34 l
0.14 -0.44 l
0.15 -0.34 l
0.14 -0.10 l
0.15 -0.12 l
0.15 0.34 l
0.14 0.44 l
0.15 0.10 l
0.14 0.22 l
0.15 -0.32 l
0.14 -0.78 l
0.15 0 l
0.14 0.66 l
0.15 -0.22 l
0.15 0.12 l
0.14 -0.56 l
0.15 -0.23 l
0.14 0.57 l
0.15 0.22 l
0.14 0.54 l
0.15 -0.66 l
0.15 -0.10 l
0.14 0.10 l
0.15 0 l
0.14 0.66 l
0.15 -0.88 l
0.14 0.12 l
0.15 -0.34 l
0.14 -0.10 l
0.15 0.22 l
0.15 0.66 l
0.14 -0.34 l
0.15 -0.32 l
0.14 0.22 l
0.15 -0.66 l
0.14 0.88 l
0.15 0.10 l
0.14 0.12 l
0.15 0 l
0.15 -0.34 l
0.14 -0.44 l
0.15 0.44 l
0.14 0.44 l
0.15 -0.44 l
0.14 -0.22 l
0.15 0 l
0.14 -0.22 l
0.15 0.88 l
0.15 -0.44 l
0.14 0 l
0.15 -0.54 l
0.14 -0.22 l
0.15 0.44 l
0.14 0.66 l
0.15 0.10 l
0.15 -0.88 l
0.14 0.12 l
0.15 0.22 l
0.14 -0.12 l
0.15 0.66 l
0.14 0 l
0.15 -0.66 l
0.14 0.12 l
0.15 0.10 l
0.15 0.22 l
0.14 0.22 l
0.15 -0.88 l
0.14 -0.10 l
0.15 0.54 l
0.14 -0.32 l
0.15 0.22 l
0.14 0.66 l
0.15 -0.22 l
0.15 -0.44 l
0.14 0.10 l
0.15 -0.76 l
0.14 0.88 l
0.15 0.22 l
0.14 0.10 l
0.15 -0.44 l
0.14 -0.10 l
0.15 -0.44 l
0.15 0.98 l
0.14 -0.44 l
0.15 0.34 l
0.14 -0.66 l
0.15 0.32 l
0.14 -0.22 l
0.15 -0.22 l
0.14 0.34 l
0.15 0 l
0.15 0 l
0.14 -0.12 l
0.15 -0.22 l
0.14 0.66 l
0.15 0 l
0.14 -0.32 l
0.15 0 l
0.15 0 l
324.31 508.05 lineto
0.15 0.22 l
0.14 0.98 l
0.15 -0.54 l
0.14 -0.56 l
0.15 0.12 l
0.14 0.22 l
0.15 0.10 l
0.15 -0.22 l
0.14 0.56 l
0.15 -1.01 l
0.14 0.13 l
0.15 0.22 l
0.14 0.44 l
0.15 0.22 l
0.14 -0.22 l
0.15 -0.56 l
0.15 0.22 l
0.14 0 l
0.15 0.12 l
0.14 0.44 l
0.15 -0.78 l
0.14 0.44 l
0.15 -0.89 l
0.14 0.35 l
0.15 0.54 l
0.15 0.12 l
0.14 -1.01 l
0.15 0.79 l
0.14 -0.57 l
0.15 0 l
0.14 0.57 l
0.15 0.10 l
0.15 -0.54 l
0.14 0.22 l
0.15 0 l
0.14 0.22 l
0.15 0.76 l
0.14 -0.22 l
0.15 -0.76 l
0.14 0.10 l
0.15 0.12 l
0.15 -0.12 l
0.14 0.34 l
0.15 -0.12 l
0.14 0.34 l
0.15 -1.10 l
0.14 0 l
0.15 0.22 l
0.14 0.32 l
0.15 -0.22 l
0.15 0 l
0.14 -0.77 l
0.15 0.89 l
0.14 0.44 l
0.15 0.10 l
0.14 -0.32 l
0.15 0.22 l
0.14 -0.56 l
0.15 0 l
0.15 0.78 l
0.14 -0.34 l
0.15 0 l
0.14 -0.44 l
0.15 0.12 l
0.14 -0.12 l
0.15 0.44 l
0.15 -0.32 l
0.14 -0.22 l
0.15 -0.13 l
0.14 -0.22 l
0.15 1.01 l
0.14 0 l
0.15 -0.44 l
0.14 0.22 l
0.15 -0.79 l
0.15 0.57 l
0.14 0 l
0.15 0.44 l
0.14 0 l
0.15 -0.12 l
0.14 -0.67 l
0.15 0.13 l
0.14 0.66 l
0.15 -0.22 l
0.15 -0.57 l
0.14 0.79 l
0.15 -0.22 l
0.14 0 l
0.15 -0.22 l
0.14 -0.22 l
0.15 0.22 l
0.14 -0.35 l
0.15 0 l
0.15 1.01 l
0.14 -0.34 l
0.15 -0.54 l
0.14 0.32 l
0.15 -0.10 l
0.14 0.32 l
338.87 508.49 lineto
0.15 0.44 l
0.14 -0.44 l
0.15 -0.44 l
0.14 -0.22 l
0.15 0.76 l
0.14 -0.44 l
0.15 0 l
0.14 -0.32 l
0.15 0.66 l
0.15 -0.57 l
0.14 0.57 l
0.15 0.10 l
0.14 0.34 l
0.15 -0.78 l
0.14 0 l
0.15 -0.32 l
0.14 0.66 l
0.15 0.22 l
0.15 -0.34 l
0.14 0.12 l
0.15 0 l
0.14 0.10 l
0.15 -0.22 l
0.14 0.12 l
0.15 -0.34 l
0.14 0.12 l
0.15 0 l
0.15 -0.22 l
0.14 0.44 l
0.15 0 l
0.14 -0.44 l
0.15 -0.44 l
0.14 0.76 l
0.15 0.34 l
0.15 0.22 l
0.14 -0.12 l
0.15 -0.44 l
0.14 -0.22 l
0.15 0.22 l
0.14 0.22 l
0.15 0.12 l
0.14 -0.34 l
0.15 -0.45 l
0.15 0.13 l
0.14 0.54 l
0.15 -0.10 l
0.14 -0.44 l
0.15 0.10 l
0.14 -0.10 l
0.15 -0.22 l
0.14 0.44 l
0.15 0.88 l
0.15 -0.34 l
0.14 -0.66 l
0.15 -0.10 l
0.14 0.22 l
0.15 0.54 l
0.14 -0.44 l
0.15 0.34 l
0.14 -0.56 l
0.15 -0.10 l
0.15 0.10 l
0.14 0.34 l
0.15 -0.34 l
0.14 -0.23 l
0.15 0.23 l
0.14 0 l
0.15 0.22 l
0.15 0.22 l
0.14 -0.22 l
0.15 -0.32 l
0.14 0.22 l
0.15 -0.35 l
0.14 0.35 l
0.15 0.88 l
0.14 -0.78 l
0.15 -0.32 l
0.15 -0.22 l
0.14 0.32 l
0.15 0.12 l
0.14 0.32 l
0.15 0 l
0.14 -0.54 l
0.15 0.54 l
0.14 -0.89 l
0.15 0.22 l
0.15 0.67 l
0.14 -0.76 l
0.15 0.22 l
0.14 0.32 l
0.15 -0.10 l
0.14 -0.22 l
0.15 0.44 l
0.14 0.10 l
0.15 -0.10 l
0.15 -0.12 l
0.14 0 l
0.15 0.34 l
0.14 0.22 l
353.43 508.49 lineto
0.14 0 l
0.15 0.22 l
0.14 -0.56 l
0.15 0.44 l
0.15 0.22 l
0.14 -0.44 l
0.15 -0.32 l
0.14 0.22 l
0.15 -0.66 l
0.14 0.44 l
0.15 0.44 l
0.15 -0.12 l
0.14 0.12 l
0.15 -0.34 l
0.14 -0.45 l
0.15 0.89 l
0.14 0.44 l
0.15 -0.22 l
0.14 -0.89 l
0.15 0.57 l
0.15 -0.44 l
0.14 0.54 l
0.15 0.12 l
0.14 -0.12 l
0.15 0 l
0.14 -0.32 l
0.15 -0.35 l
0.14 0.13 l
0.15 0.32 l
0.15 0 l
0.14 -0.10 l
0.15 0 l
0.14 -0.22 l
0.15 0.10 l
0.14 0.22 l
0.15 0.12 l
0.14 0 l
0.15 -0.34 l
0.15 0.12 l
0.14 0.54 l
0.15 0 l
0.14 -0.32 l
0.15 -0.12 l
0.14 -0.54 l
0.15 0.32 l
0.15 0 l
0.14 0.22 l
0.15 -0.45 l
0.14 0.13 l
0.15 -0.44 l
0.14 0.54 l
0.15 0.44 l
0.14 -0.10 l
0.15 -0.44 l
0.15 0.22 l
0.14 -0.12 l
0.15 0.44 l
0.14 0.44 l
0.15 0.12 l
0.14 -0.66 l
0.15 -0.22 l
0.14 -0.22 l
0.15 0 l
0.15 0.76 l
0.14 -0.22 l
0.15 0 l
0.14 -0.54 l
0.15 0 l
0.14 0 l
0.15 0.32 l
0.14 -0.10 l
0.15 0.10 l
0.15 -0.32 l
0.14 -0.13 l
0.15 0.45 l
0.14 0.34 l
0.15 0.10 l
0.14 -0.54 l
0.15 0.22 l
0.15 -0.66 l
0.14 0.09 l
0.15 0.57 l
0.14 0.22 l
0.15 -0.12 l
0.14 0 l
0.15 -0.76 l
0.14 0.22 l
0.15 0.76 l
0.15 -0.32 l
0.14 -0.22 l
0.15 -0.22 l
0.14 0.22 l
0.15 0.54 l
0.14 -0.66 l
0.15 0.56 l
0.14 0.22 l
0.15 -0.34 l
0.15 0 l
0.14 -0.22 l
currentpoint o m
367.99 508.93 lineto
0.14 0.32 l
0.15 -0.98 l
0.14 -0.12 l
0.15 0.12 l
0.14 0.32 l
0.15 0.12 l
0.15 -0.12 l
0.14 -0.10 l
0.15 -0.44 l
0.14 0.10 l
0.15 0 l
0.14 0.44 l
0.15 -0.32 l
0.15 0.54 l
0.14 -0.76 l
0.15 0.10 l
0.14 0.34 l
0.15 0.44 l
0.14 -0.22 l
0.15 -0.12 l
0.14 -0.10 l
0.15 -0.66 l
0.15 0.76 l
0.14 -0.10 l
0.15 -0.22 l
0.14 0.22 l
0.15 -0.57 l
0.14 0 l
0.15 0.79 l
0.14 -0.22 l
0.15 0 l
0.15 -0.66 l
0.14 -0.22 l
0.15 0.76 l
0.14 0.56 l
0.15 -0.12 l
0.14 -0.66 l
0.15 0.22 l
0.14 0.12 l
0.15 -0.12 l
0.15 0.78 l
0.14 -0.22 l
0.15 -0.22 l
0.14 -0.44 l
0.15 -0.35 l
0.14 0.57 l
0.15 0.22 l
0.15 -0.22 l
0.14 -0.12 l
0.15 0.12 l
0.14 -0.34 l
0.15 0.22 l
0.14 0.34 l
0.15 -0.22 l
0.14 0.22 l
0.15 -0.22 l
0.15 0.32 l
0.14 -0.10 l
0.15 0.44 l
0.14 -0.34 l
0.15 -0.10 l
0.14 -1.01 l
0.15 0.45 l
0.14 0.78 l
0.15 -1.10 l
0.15 0.76 l
0.14 -0.10 l
0.15 -0.22 l
0.14 -0.35 l
0.15 1.11 l
0.14 -0.76 l
0.15 0.22 l
0.14 -0.66 l
0.15 0.66 l
0.15 0.66 l
0.14 -0.56 l
0.15 0.44 l
0.14 -0.44 l
0.15 -0.44 l
0.14 -0.10 l
0.15 0.66 l
0.15 0.10 l
0.14 -0.22 l
0.15 -0.76 l
0.14 0.22 l
0.15 0.32 l
0.14 0.66 l
0.15 -0.10 l
0.14 -0.44 l
0.15 0 l
0.15 -0.44 l
0.14 0.22 l
0.15 0.66 l
0.14 -0.44 l
0.15 0 l
0.14 -0.57 l
0.15 -0.09 l
0.14 0.88 l
0.15 -0.44 l
o
/bg { 1 1 1 srgb } def
222.40 511.68 0.43 c p3
222.55 511.14 0.43 c p3
222.69 511.58 0.43 c p3
222.84 511.68 0.43 c p3
222.98 511.24 0.43 c p3
223.13 511.36 0.43 c p3
223.27 511.68 0.43 c p3
223.42 511.46 0.43 c p3
223.56 511.68 0.43 c p3
223.71 511.58 0.43 c p3
223.86 511.02 0.43 c p3
224.00 511.02 0.43 c p3
224.15 511.24 0.43 c p3
224.29 511.58 0.43 c p3
224.44 511.24 0.43 c p3
224.58 511.58 0.43 c p3
224.73 511.36 0.43 c p3
224.87 511.80 0.43 c p3
225.02 511.46 0.43 c p3
225.17 511.80 0.43 c p3
225.31 511.36 0.43 c p3
225.46 511.46 0.43 c p3
225.60 511.46 0.43 c p3
225.75 511.46 0.43 c p3
225.89 511.36 0.43 c p3
226.04 511.46 0.43 c p3
226.19 511.36 0.43 c p3
226.33 511.24 0.43 c p3
226.48 511.58 0.43 c p3
226.62 511.02 0.43 c p3
226.77 511.14 0.43 c p3
226.91 511.02 0.43 c p3
227.06 510.58 0.43 c p3
227.20 511.36 0.43 c p3
227.35 511.46 0.43 c p3
227.50 511.36 0.43 c p3
227.64 511.80 0.43 c p3
227.79 511.14 0.43 c p3
227.93 511.36 0.43 c p3
228.08 511.80 0.43 c p3
228.22 511.58 0.43 c p3
228.37 511.24 0.43 c p3
228.51 512.00 0.43 c p3
228.66 511.14 0.43 c p3
228.81 511.36 0.43 c p3
228.95 511.68 0.43 c p3
229.10 511.46 0.43 c p3
229.24 511.36 0.43 c p3
229.39 511.68 0.43 c p3
229.53 511.46 0.43 c p3
229.68 511.14 0.43 c p3
229.82 511.46 0.43 c p3
229.97 511.46 0.43 c p3
230.12 511.02 0.43 c p3
230.26 511.02 0.43 c p3
230.41 511.46 0.43 c p3
230.55 511.58 0.43 c p3
230.70 511.36 0.43 c p3
230.84 511.90 0.43 c p3
230.99 511.46 0.43 c p3
231.14 511.90 0.43 c p3
231.28 511.14 0.43 c p3
231.43 511.58 0.43 c p3
231.57 511.58 0.43 c p3
231.72 511.46 0.43 c p3
231.86 511.68 0.43 c p3
232.01 511.14 0.43 c p3
232.15 511.46 0.43 c p3
232.30 511.36 0.43 c p3
232.45 511.58 0.43 c p3
232.59 511.14 0.43 c p3
232.74 511.24 0.43 c p3
232.88 511.24 0.43 c p3
233.03 510.92 0.43 c p3
233.17 511.24 0.43 c p3
233.32 511.24 0.43 c p3
233.46 511.02 0.43 c p3
233.61 511.46 0.43 c p3
233.76 510.80 0.43 c p3
233.90 511.90 0.43 c p3
234.05 511.58 0.43 c p3
234.19 511.68 0.43 c p3
234.34 511.68 0.43 c p3
234.48 511.46 0.43 c p3
234.63 511.58 0.43 c p3
234.77 511.68 0.43 c p3
234.92 511.80 0.43 c p3
235.07 511.24 0.43 c p3
235.21 511.24 0.43 c p3
235.36 511.14 0.43 c p3
235.50 511.24 0.43 c p3
235.65 510.92 0.43 c p3
235.79 511.24 0.43 c p3
235.94 511.58 0.43 c p3
236.09 510.92 0.43 c p3
236.23 511.24 0.43 c p3
236.38 511.46 0.43 c p3
236.52 511.24 0.43 c p3
236.67 511.24 0.43 c p3
236.81 511.02 0.43 c p3
236.96 438.62 0.43 c p3
237.10 441.35 0.43 c p3
237.25 443.70 0.43 c p3
237.40 445.12 0.43 c p3
237.54 445.47 0.43 c p3
237.69 447.21 0.43 c p3
237.83 448.00 0.43 c p3
237.98 448.22 0.43 c p3
238.12 449.20 0.43 c p3
238.27 450.08 0.43 c p3
238.41 449.98 0.43 c p3
238.56 450.74 0.43 c p3
238.71 452.39 0.43 c p3
238.85 453.27 0.43 c p3
239.00 452.83 0.43 c p3
239.14 453.72 0.43 c p3
239.29 453.84 0.43 c p3
239.43 454.60 0.43 c p3
239.58 455.48 0.43 c p3
239.72 456.15 0.43 c p3
239.87 457.03 0.43 c p3
240.02 457.13 0.43 c p3
240.16 457.25 0.43 c p3
240.31 458.80 0.43 c p3
240.45 458.80 0.43 c p3
240.60 459.56 0.43 c p3
240.74 459.46 0.43 c p3
240.89 460.44 0.43 c p3
241.04 460.98 0.43 c p3
241.18 461.87 0.43 c p3
241.33 461.99 0.43 c p3
241.47 462.75 0.43 c p3
241.62 463.54 0.43 c p3
241.76 463.54 0.43 c p3
241.91 464.30 0.43 c p3
242.05 464.74 0.43 c p3
242.20 465.84 0.43 c p3
242.35 465.62 0.43 c p3
242.49 466.83 0.43 c p3
242.64 467.27 0.43 c p3
242.78 468.15 0.43 c p3
242.93 468.15 0.43 c p3
243.07 468.72 0.43 c p3
243.22 468.50 0.43 c p3
243.36 469.92 0.43 c p3
243.51 470.14 0.43 c p3
243.66 470.90 0.43 c p3
243.80 472.01 0.43 c p3
243.95 471.47 0.43 c p3
244.09 472.01 0.43 c p3
244.24 472.23 0.43 c p3
244.38 472.89 0.43 c p3
244.53 473.68 0.43 c p3
244.67 474.88 0.43 c p3
244.82 474.76 0.43 c p3
244.97 475.10 0.43 c p3
245.11 475.42 0.43 c p3
245.26 475.98 0.43 c p3
245.40 476.52 0.43 c p3
245.55 477.31 0.43 c p3
245.69 477.63 0.43 c p3
245.84 478.07 0.43 c p3
245.99 478.19 0.43 c p3
246.13 478.86 0.43 c p3
246.28 479.18 0.43 c p3
246.42 479.49 0.43 c p3
246.57 480.06 0.43 c p3
246.71 479.94 0.43 c p3
246.86 480.72 0.43 c p3
247.00 480.94 0.43 c p3
247.15 482.05 0.43 c p3
247.30 482.15 0.43 c p3
247.44 482.05 0.43 c p3
247.59 482.71 0.43 c p3
247.73 482.71 0.43 c p3
247.88 483.37 0.43 c p3
248.02 484.45 0.43 c p3
248.17 484.67 0.43 c p3
248.31 484.80 0.43 c p3
248.46 485.12 0.43 c p3
248.61 485.24 0.43 c p3
248.75 486.00 0.43 c p3
248.90 486.22 0.43 c p3
249.04 486.57 0.43 c p3
249.19 486.88 0.43 c p3
249.33 487.33 0.43 c p3
249.48 487.33 0.43 c p3
249.62 488.11 0.43 c p3
249.77 488.65 0.43 c p3
249.92 487.89 0.43 c p3
250.06 488.87 0.43 c p3
250.21 488.87 0.43 c p3
250.35 489.31 0.43 c p3
250.50 490.30 0.43 c p3
250.64 491.40 0.43 c p3
250.79 490.96 0.43 c p3
250.94 490.86 0.43 c p3
251.08 490.74 0.43 c p3
251.23 490.96 0.43 c p3
251.37 491.97 0.43 c p3
251.52 492.73 0.43 c p3
251.66 492.95 0.43 c p3
251.81 492.85 0.43 c p3
251.95 493.39 0.43 c p3
252.10 492.73 0.43 c p3
252.25 493.39 0.43 c p3
252.39 494.15 0.43 c p3
252.54 494.27 0.43 c p3
252.68 493.61 0.43 c p3
252.83 494.59 0.43 c p3
252.97 494.72 0.43 c p3
253.12 495.48 0.43 c p3
253.26 494.72 0.43 c p3
253.41 495.04 0.43 c p3
253.56 495.60 0.43 c p3
253.70 496.04 0.43 c p3
253.85 496.70 0.43 c p3
253.99 497.15 0.43 c p3
254.14 497.59 0.43 c p3
254.28 497.24 0.43 c p3
254.43 497.02 0.43 c p3
254.57 497.37 0.43 c p3
254.72 497.78 0.43 c p3
254.87 498.23 0.43 c p3
255.01 498.45 0.43 c p3
255.16 498.57 0.43 c p3
255.30 498.35 0.43 c p3
255.45 498.35 0.43 c p3
255.59 498.67 0.43 c p3
255.74 499.45 0.43 c p3
255.88 499.45 0.43 c p3
256.03 499.33 0.43 c p3
256.18 499.68 0.43 c p3
256.32 499.55 0.43 c p3
256.47 501.10 0.43 c p3
256.61 501.44 0.43 c p3
256.76 500.44 0.43 c p3
256.90 500.78 0.43 c p3
257.05 500.12 0.43 c p3
257.20 500.66 0.43 c p3
257.34 501.44 0.43 c p3
257.49 502.20 0.43 c p3
257.63 501.88 0.43 c p3
257.78 502.33 0.43 c p3
257.92 502.11 0.43 c p3
258.07 501.98 0.43 c p3
258.21 501.76 0.43 c p3
258.36 502.65 0.43 c p3
258.51 502.87 0.43 c p3
258.65 502.87 0.43 c p3
258.80 502.97 0.43 c p3
258.94 503.31 0.43 c p3
259.09 503.19 0.43 c p3
259.23 503.41 0.43 c p3
259.38 503.85 0.43 c p3
259.52 503.97 0.43 c p3
259.67 503.75 0.43 c p3
259.82 503.97 0.43 c p3
259.96 503.97 0.43 c p3
260.11 504.63 0.43 c p3
260.25 505.08 0.43 c p3
260.40 504.86 0.43 c p3
260.54 504.29 0.43 c p3
260.69 504.19 0.43 c p3
260.83 504.73 0.43 c p3
260.98 504.95 0.43 c p3
261.13 505.62 0.43 c p3
261.27 505.17 0.43 c p3
261.42 504.95 0.43 c p3
261.56 505.08 0.43 c p3
261.71 505.52 0.43 c p3
261.85 505.30 0.43 c p3
262.00 505.84 0.43 c p3
262.15 505.96 0.43 c p3
262.29 505.62 0.43 c p3
262.44 506.18 0.43 c p3
262.58 505.84 0.43 c p3
262.73 506.40 0.43 c p3
262.87 506.18 0.43 c p3
263.02 506.40 0.43 c p3
263.16 506.18 0.43 c p3
263.31 506.28 0.43 c p3
263.46 506.94 0.43 c p3
263.60 507.48 0.43 c p3
263.75 507.38 0.43 c p3
263.89 507.16 0.43 c p3
264.04 506.40 0.43 c p3
264.18 506.72 0.43 c p3
264.33 506.62 0.43 c p3
264.47 506.84 0.43 c p3
264.62 506.62 0.43 c p3
264.77 507.38 0.43 c p3
264.91 507.07 0.43 c p3
265.06 506.72 0.43 c p3
265.20 507.07 0.43 c p3
265.35 508.05 0.43 c p3
265.49 507.83 0.43 c p3
265.64 507.48 0.43 c p3
265.78 507.38 0.43 c p3
265.93 507.48 0.43 c p3
266.08 508.49 0.43 c p3
266.22 508.15 0.43 c p3
266.37 508.59 0.43 c p3
266.51 508.15 0.43 c p3
266.66 507.48 0.43 c p3
266.80 508.05 0.43 c p3
266.95 508.27 0.43 c p3
267.10 508.27 0.43 c p3
267.24 508.05 0.43 c p3
267.39 507.92 0.43 c p3
267.53 507.83 0.43 c p3
267.68 508.49 0.43 c p3
267.82 508.37 0.43 c p3
267.97 508.81 0.43 c p3
268.11 508.37 0.43 c p3
268.26 508.71 0.43 c p3
268.41 508.27 0.43 c p3
268.55 508.49 0.43 c p3
268.70 509.25 0.43 c p3
268.84 509.03 0.43 c p3
268.99 508.81 0.43 c p3
269.13 509.03 0.43 c p3
269.28 508.59 0.43 c p3
269.42 508.81 0.43 c p3
269.57 509.15 0.43 c p3
269.72 508.93 0.43 c p3
269.86 508.59 0.43 c p3
270.01 509.03 0.43 c p3
270.15 508.49 0.43 c p3
270.30 509.25 0.43 c p3
270.44 509.37 0.43 c p3
270.59 508.93 0.43 c p3
270.73 509.47 0.43 c p3
270.88 508.81 0.43 c p3
271.03 508.93 0.43 c p3
271.17 509.69 0.43 c p3
271.32 509.37 0.43 c p3
271.46 509.25 0.43 c p3
271.61 509.47 0.43 c p3
271.75 508.81 0.43 c p3
271.90 508.81 0.43 c p3
272.05 509.81 0.43 c p3
272.19 510.13 0.43 c p3
272.34 509.81 0.43 c p3
272.48 508.81 0.43 c p3
272.63 509.15 0.43 c p3
272.77 509.03 0.43 c p3
272.92 509.37 0.43 c p3
273.06 509.59 0.43 c p3
273.21 509.15 0.43 c p3
273.36 509.15 0.43 c p3
273.50 509.47 0.43 c p3
273.65 509.37 0.43 c p3
273.79 510.36 0.43 c p3
273.94 509.81 0.43 c p3
274.08 509.25 0.43 c p3
274.23 509.47 0.43 c p3
274.37 509.59 0.43 c p3
274.52 510.26 0.43 c p3
274.67 509.81 0.43 c p3
274.81 509.81 0.43 c p3
274.96 509.91 0.43 c p3
275.10 509.91 0.43 c p3
275.25 509.47 0.43 c p3
275.39 510.13 0.43 c p3
275.54 510.04 0.43 c p3
275.68 509.91 0.43 c p3
275.83 509.25 0.43 c p3
275.98 509.37 0.43 c p3
276.12 509.47 0.43 c p3
276.27 509.47 0.43 c p3
276.41 509.91 0.43 c p3
276.56 510.13 0.43 c p3
276.70 509.47 0.43 c p3
276.85 509.47 0.43 c p3
277.00 509.25 0.43 c p3
277.14 510.04 0.43 c p3
277.29 510.26 0.43 c p3
277.43 510.26 0.43 c p3
277.58 509.91 0.43 c p3
277.72 509.69 0.43 c p3
277.87 509.47 0.43 c p3
278.01 509.69 0.43 c p3
278.16 509.91 0.43 c p3
278.31 509.37 0.43 c p3
278.45 509.47 0.43 c p3
278.60 509.81 0.43 c p3
278.74 509.69 0.43 c p3
278.89 510.26 0.43 c p3
279.03 510.13 0.43 c p3
279.18 509.59 0.43 c p3
279.32 509.91 0.43 c p3
279.47 509.91 0.43 c p3
279.62 509.69 0.43 c p3
279.76 510.04 0.43 c p3
279.91 510.26 0.43 c p3
280.05 510.13 0.43 c p3
280.20 509.47 0.43 c p3
280.34 509.47 0.43 c p3
280.49 509.69 0.43 c p3
280.63 509.91 0.43 c p3
280.78 509.81 0.43 c p3
280.93 509.91 0.43 c p3
281.07 510.04 0.43 c p3
281.22 509.91 0.43 c p3
281.36 510.04 0.43 c p3
281.51 510.48 0.43 c p3
281.65 509.47 0.43 c p3
281.80 509.91 0.43 c p3
281.95 509.59 0.43 c p3
282.09 509.59 0.43 c p3
282.24 509.59 0.43 c p3
282.38 510.13 0.43 c p3
282.53 509.59 0.43 c p3
282.67 509.91 0.43 c p3
282.82 509.47 0.43 c p3
282.96 509.47 0.43 c p3
283.11 510.13 0.43 c p3
283.26 510.04 0.43 c p3
283.40 509.91 0.43 c p3
283.55 510.36 0.43 c p3
283.69 509.69 0.43 c p3
283.84 509.47 0.43 c p3
283.98 509.47 0.43 c p3
284.13 510.36 0.43 c p3
284.27 509.91 0.43 c p3
284.42 509.69 0.43 c p3
284.57 509.47 0.43 c p3
284.71 509.37 0.43 c p3
284.86 509.37 0.43 c p3
285.00 510.04 0.43 c p3
285.15 509.37 0.43 c p3
285.29 508.93 0.43 c p3
285.44 509.47 0.43 c p3
285.58 509.81 0.43 c p3
285.73 509.81 0.43 c p3
285.88 509.91 0.43 c p3
286.02 509.91 0.43 c p3
286.17 509.25 0.43 c p3
286.31 509.47 0.43 c p3
286.46 509.91 0.43 c p3
286.60 510.04 0.43 c p3
286.75 509.59 0.43 c p3
286.89 509.59 0.43 c p3
287.04 509.47 0.43 c p3
287.19 509.47 0.43 c p3
287.33 509.81 0.43 c p3
287.48 509.37 0.43 c p3
287.62 509.37 0.43 c p3
287.77 509.69 0.43 c p3
287.91 509.25 0.43 c p3
288.06 509.25 0.43 c p3
288.21 509.59 0.43 c p3
288.35 509.69 0.43 c p3
288.50 509.59 0.43 c p3
288.64 509.81 0.43 c p3
288.79 509.59 0.43 c p3
288.93 509.25 0.43 c p3
289.08 509.69 0.43 c p3
289.22 509.91 0.43 c p3
289.37 510.13 0.43 c p3
289.52 509.91 0.43 c p3
289.66 509.81 0.43 c p3
289.81 509.03 0.43 c p3
289.95 509.03 0.43 c p3
290.10 509.47 0.43 c p3
290.24 509.47 0.43 c p3
290.39 509.37 0.43 c p3
290.53 509.03 0.43 c p3
290.68 509.15 0.43 c p3
290.83 509.37 0.43 c p3
290.97 509.37 0.43 c p3
291.12 509.15 0.43 c p3
291.26 509.47 0.43 c p3
291.41 509.37 0.43 c p3
291.55 509.03 0.43 c p3
291.70 509.47 0.43 c p3
291.84 509.69 0.43 c p3
291.99 509.69 0.43 c p3
292.14 509.25 0.43 c p3
292.28 509.59 0.43 c p3
292.43 509.59 0.43 c p3
292.57 509.69 0.43 c p3
292.72 509.69 0.43 c p3
292.86 509.03 0.43 c p3
293.01 508.71 0.43 c p3
293.16 509.03 0.43 c p3
293.30 509.03 0.43 c p3
293.45 509.81 0.43 c p3
293.59 509.69 0.43 c p3
293.74 509.47 0.43 c p3
293.88 509.25 0.43 c p3
294.03 508.81 0.43 c p3
294.17 508.37 0.43 c p3
294.32 509.37 0.43 c p3
294.47 509.03 0.43 c p3
294.61 509.03 0.43 c p3
294.76 509.25 0.43 c p3
294.90 509.25 0.43 c p3
295.05 509.15 0.43 c p3
295.19 509.37 0.43 c p3
295.34 509.69 0.43 c p3
295.48 509.59 0.43 c p3
295.63 509.37 0.43 c p3
295.78 508.49 0.43 c p3
295.92 508.93 0.43 c p3
296.07 509.81 0.43 c p3
296.21 509.59 0.43 c p3
296.36 509.03 0.43 c p3
296.50 508.71 0.43 c p3
296.65 508.71 0.43 c p3
296.79 508.49 0.43 c p3
296.94 509.03 0.43 c p3
297.09 509.15 0.43 c p3
297.23 509.03 0.43 c p3
297.38 509.15 0.43 c p3
297.52 508.93 0.43 c p3
297.67 509.47 0.43 c p3
297.81 509.25 0.43 c p3
297.96 509.25 0.43 c p3
298.11 509.03 0.43 c p3
298.25 509.15 0.43 c p3
298.40 508.59 0.43 c p3
298.54 508.93 0.43 c p3
298.69 509.25 0.43 c p3
298.83 508.81 0.43 c p3
298.98 509.15 0.43 c p3
299.12 508.59 0.43 c p3
299.27 509.03 0.43 c p3
299.42 509.47 0.43 c p3
299.56 509.37 0.43 c p3
299.71 508.93 0.43 c p3
299.85 509.25 0.43 c p3
300.00 508.71 0.43 c p3
300.14 508.81 0.43 c p3
300.29 509.47 0.43 c p3
300.43 509.47 0.43 c p3
300.58 509.15 0.43 c p3
300.73 509.15 0.43 c p3
300.87 508.81 0.43 c p3
301.02 508.93 0.43 c p3
301.16 509.25 0.43 c p3
301.31 509.03 0.43 c p3
301.45 509.03 0.43 c p3
301.60 508.37 0.43 c p3
301.74 508.37 0.43 c p3
301.89 509.25 0.43 c p3
302.04 508.93 0.43 c p3
302.18 508.93 0.43 c p3
302.33 508.49 0.43 c p3
302.47 508.27 0.43 c p3
302.62 508.81 0.43 c p3
302.76 508.81 0.43 c p3
302.91 509.25 0.43 c p3
303.06 509.15 0.43 c p3
303.20 509.15 0.43 c p3
303.35 508.81 0.43 c p3
303.49 508.59 0.43 c p3
303.64 509.03 0.43 c p3
303.78 509.03 0.43 c p3
303.93 509.03 0.43 c p3
304.07 508.93 0.43 c p3
304.22 509.37 0.43 c p3
304.37 508.81 0.43 c p3
304.51 508.59 0.43 c p3
304.66 508.93 0.43 c p3
304.80 509.15 0.43 c p3
304.95 508.93 0.43 c p3
305.09 508.71 0.43 c p3
305.24 508.27 0.43 c p3
305.38 508.49 0.43 c p3
305.53 508.93 0.43 c p3
305.68 508.93 0.43 c p3
305.82 508.71 0.43 c p3
305.97 508.71 0.43 c p3
306.11 508.49 0.43 c p3
306.26 508.15 0.43 c p3
306.40 508.59 0.43 c p3
306.55 509.25 0.43 c p3
306.69 509.25 0.43 c p3
306.84 508.81 0.43 c p3
306.99 508.27 0.43 c p3
307.13 508.27 0.43 c p3
307.28 509.25 0.43 c p3
307.42 509.47 0.43 c p3
307.57 508.93 0.43 c p3
307.71 508.81 0.43 c p3
307.86 508.49 0.43 c p3
308.01 508.27 0.43 c p3
308.15 508.81 0.43 c p3
308.30 508.81 0.43 c p3
308.44 508.81 0.43 c p3
308.59 508.15 0.43 c p3
308.73 508.15 0.43 c p3
308.88 508.15 0.43 c p3
309.02 509.03 0.43 c p3
309.17 508.59 0.43 c p3
309.32 508.81 0.43 c p3
309.46 508.93 0.43 c p3
309.61 508.49 0.43 c p3
309.75 508.81 0.43 c p3
309.90 509.15 0.43 c p3
310.04 508.71 0.43 c p3
310.19 508.37 0.43 c p3
310.33 508.27 0.43 c p3
310.48 508.15 0.43 c p3
310.63 508.49 0.43 c p3
310.77 508.93 0.43 c p3
310.92 509.03 0.43 c p3
311.06 509.25 0.43 c p3
311.21 508.93 0.43 c p3
311.35 508.15 0.43 c p3
311.50 508.15 0.43 c p3
311.64 508.81 0.43 c p3
311.79 508.59 0.43 c p3
311.94 508.71 0.43 c p3
312.08 508.15 0.43 c p3
312.23 507.92 0.43 c p3
312.37 508.49 0.43 c p3
312.52 508.71 0.43 c p3
312.66 509.25 0.43 c p3
312.81 508.59 0.43 c p3
312.96 508.49 0.43 c p3
313.10 508.59 0.43 c p3
313.25 508.59 0.43 c p3
313.39 509.25 0.43 c p3
313.54 508.37 0.43 c p3
313.68 508.49 0.43 c p3
313.83 508.15 0.43 c p3
313.97 508.05 0.43 c p3
314.12 508.27 0.43 c p3
314.27 508.93 0.43 c p3
314.41 508.59 0.43 c p3
314.56 508.27 0.43 c p3
314.70 508.49 0.43 c p3
314.85 507.83 0.43 c p3
314.99 508.71 0.43 c p3
315.14 508.81 0.43 c p3
315.28 508.93 0.43 c p3
315.43 508.93 0.43 c p3
315.58 508.59 0.43 c p3
315.72 508.15 0.43 c p3
315.87 508.59 0.43 c p3
316.01 509.03 0.43 c p3
316.16 508.59 0.43 c p3
316.30 508.37 0.43 c p3
316.45 508.37 0.43 c p3
316.59 508.15 0.43 c p3
316.74 509.03 0.43 c p3
316.89 508.59 0.43 c p3
317.03 508.59 0.43 c p3
317.18 508.05 0.43 c p3
317.32 507.83 0.43 c p3
317.47 508.27 0.43 c p3
317.61 508.93 0.43 c p3
317.76 509.03 0.43 c p3
317.91 508.15 0.43 c p3
318.05 508.27 0.43 c p3
318.20 508.49 0.43 c p3
318.34 508.37 0.43 c p3
318.49 509.03 0.43 c p3
318.63 509.03 0.43 c p3
318.78 508.37 0.43 c p3
318.92 508.49 0.43 c p3
319.07 508.59 0.43 c p3
319.22 508.81 0.43 c p3
319.36 509.03 0.43 c p3
319.51 508.15 0.43 c p3
319.65 508.05 0.43 c p3
319.80 508.59 0.43 c p3
319.94 508.27 0.43 c p3
320.09 508.49 0.43 c p3
320.23 509.15 0.43 c p3
320.38 508.93 0.43 c p3
320.53 508.49 0.43 c p3
320.67 508.59 0.43 c p3
320.82 507.83 0.43 c p3
320.96 508.71 0.43 c p3
321.11 508.93 0.43 c p3
321.25 509.03 0.43 c p3
321.40 508.59 0.43 c p3
321.54 508.49 0.43 c p3
321.69 508.05 0.43 c p3
321.84 509.03 0.43 c p3
321.98 508.59 0.43 c p3
322.13 508.93 0.43 c p3
322.27 508.27 0.43 c p3
322.42 508.59 0.43 c p3
322.56 508.37 0.43 c p3
322.71 508.15 0.43 c p3
322.85 508.49 0.43 c p3
323.00 508.49 0.43 c p3
323.15 508.49 0.43 c p3
323.29 508.37 0.43 c p3
323.44 508.15 0.43 c p3
323.58 508.81 0.43 c p3
323.73 508.81 0.43 c p3
323.87 508.49 0.43 c p3
324.02 508.49 0.43 c p3
324.17 508.49 0.43 c p3
324.31 508.05 0.43 c p3
324.46 508.27 0.43 c p3
324.60 509.25 0.43 c p3
324.75 508.71 0.43 c p3
324.89 508.15 0.43 c p3
325.04 508.27 0.43 c p3
325.18 508.49 0.43 c p3
325.33 508.59 0.43 c p3
325.48 508.37 0.43 c p3
325.62 508.93 0.43 c p3
325.77 507.92 0.43 c p3
325.91 508.05 0.43 c p3
326.06 508.27 0.43 c p3
326.20 508.71 0.43 c p3
326.35 508.93 0.43 c p3
326.49 508.71 0.43 c p3
326.64 508.15 0.43 c p3
326.79 508.37 0.43 c p3
326.93 508.37 0.43 c p3
327.08 508.49 0.43 c p3
327.22 508.93 0.43 c p3
327.37 508.15 0.43 c p3
327.51 508.59 0.43 c p3
327.66 507.70 0.43 c p3
327.80 508.05 0.43 c p3
327.95 508.59 0.43 c p3
328.10 508.71 0.43 c p3
328.24 507.70 0.43 c p3
328.39 508.49 0.43 c p3
328.53 507.92 0.43 c p3
328.68 507.92 0.43 c p3
328.82 508.49 0.43 c p3
328.97 508.59 0.43 c p3
329.12 508.05 0.43 c p3
329.26 508.27 0.43 c p3
329.41 508.27 0.43 c p3
329.55 508.49 0.43 c p3
329.70 509.25 0.43 c p3
329.84 509.03 0.43 c p3
329.99 508.27 0.43 c p3
330.13 508.37 0.43 c p3
330.28 508.49 0.43 c p3
330.43 508.37 0.43 c p3
330.57 508.71 0.43 c p3
330.72 508.59 0.43 c p3
330.86 508.93 0.43 c p3
331.01 507.83 0.43 c p3
331.15 507.83 0.43 c p3
331.30 508.05 0.43 c p3
331.44 508.37 0.43 c p3
331.59 508.15 0.43 c p3
331.74 508.15 0.43 c p3
331.88 507.38 0.43 c p3
332.03 508.27 0.43 c p3
332.17 508.71 0.43 c p3
332.32 508.81 0.43 c p3
332.46 508.49 0.43 c p3
332.61 508.71 0.43 c p3
332.75 508.15 0.43 c p3
332.90 508.15 0.43 c p3
333.05 508.93 0.43 c p3
333.19 508.59 0.43 c p3
333.34 508.59 0.43 c p3
333.48 508.15 0.43 c p3
333.63 508.27 0.43 c p3
333.77 508.15 0.43 c p3
333.92 508.59 0.43 c p3
334.07 508.27 0.43 c p3
334.21 508.05 0.43 c p3
334.36 507.92 0.43 c p3
334.50 507.70 0.43 c p3
334.65 508.71 0.43 c p3
334.79 508.71 0.43 c p3
334.94 508.27 0.43 c p3
335.08 508.49 0.43 c p3
335.23 507.70 0.43 c p3
335.38 508.27 0.43 c p3
335.52 508.27 0.43 c p3
335.67 508.71 0.43 c p3
335.81 508.71 0.43 c p3
335.96 508.59 0.43 c p3
336.10 507.92 0.43 c p3
336.25 508.05 0.43 c p3
336.39 508.71 0.43 c p3
336.54 508.49 0.43 c p3
336.69 507.92 0.43 c p3
336.83 508.71 0.43 c p3
336.98 508.49 0.43 c p3
337.12 508.49 0.43 c p3
337.27 508.27 0.43 c p3
337.41 508.05 0.43 c p3
337.56 508.27 0.43 c p3
337.70 507.92 0.43 c p3
337.85 507.92 0.43 c p3
338.00 508.93 0.43 c p3
338.14 508.59 0.43 c p3
338.29 508.05 0.43 c p3
338.43 508.37 0.43 c p3
338.58 508.27 0.43 c p3
338.72 508.59 0.43 c p3
338.87 508.49 0.43 c p3
339.02 508.93 0.43 c p3
339.16 508.49 0.43 c p3
339.31 508.05 0.43 c p3
339.45 507.83 0.43 c p3
339.60 508.59 0.43 c p3
339.74 508.15 0.43 c p3
339.89 508.15 0.43 c p3
340.03 507.83 0.43 c p3
340.18 508.49 0.43 c p3
340.33 507.92 0.43 c p3
340.47 508.49 0.43 c p3
340.62 508.59 0.43 c p3
340.76 508.93 0.43 c p3
340.91 508.15 0.43 c p3
341.05 508.15 0.43 c p3
341.20 507.83 0.43 c p3
341.34 508.49 0.43 c p3
341.49 508.71 0.43 c p3
341.64 508.37 0.43 c p3
341.78 508.49 0.43 c p3
341.93 508.49 0.43 c p3
342.07 508.59 0.43 c p3
342.22 508.37 0.43 c p3
342.36 508.49 0.43 c p3
342.51 508.15 0.43 c p3
342.65 508.27 0.43 c p3
342.80 508.27 0.43 c p3
342.95 508.05 0.43 c p3
343.09 508.49 0.43 c p3
343.24 508.49 0.43 c p3
343.38 508.05 0.43 c p3
343.53 507.61 0.43 c p3
343.67 508.37 0.43 c p3
343.82 508.71 0.43 c p3
343.97 508.93 0.43 c p3
344.11 508.81 0.43 c p3
344.26 508.37 0.43 c p3
344.40 508.15 0.43 c p3
344.55 508.37 0.43 c p3
344.69 508.59 0.43 c p3
344.84 508.71 0.43 c p3
344.98 508.37 0.43 c p3
345.13 507.92 0.43 c p3
345.28 508.05 0.43 c p3
345.42 508.59 0.43 c p3
345.57 508.49 0.43 c p3
345.71 508.05 0.43 c p3
345.86 508.15 0.43 c p3
346.00 508.05 0.43 c p3
346.15 507.83 0.43 c p3
346.29 508.27 0.43 c p3
346.44 509.15 0.43 c p3
346.59 508.81 0.43 c p3
346.73 508.15 0.43 c p3
346.88 508.05 0.43 c p3
347.02 508.27 0.43 c p3
347.17 508.81 0.43 c p3
347.31 508.37 0.43 c p3
347.46 508.71 0.43 c p3
347.60 508.15 0.43 c p3
347.75 508.05 0.43 c p3
347.90 508.15 0.43 c p3
348.04 508.49 0.43 c p3
348.19 508.15 0.43 c p3
348.33 507.92 0.43 c p3
348.48 508.15 0.43 c p3
348.62 508.15 0.43 c p3
348.77 508.37 0.43 c p3
348.92 508.59 0.43 c p3
349.06 508.37 0.43 c p3
349.21 508.05 0.43 c p3
349.35 508.27 0.43 c p3
349.50 507.92 0.43 c p3
349.64 508.27 0.43 c p3
349.79 509.15 0.43 c p3
349.93 508.37 0.43 c p3
350.08 508.05 0.43 c p3
350.23 507.83 0.43 c p3
350.37 508.15 0.43 c p3
350.52 508.27 0.43 c p3
350.66 508.59 0.43 c p3
350.81 508.59 0.43 c p3
350.95 508.05 0.43 c p3
351.10 508.59 0.43 c p3
351.24 507.70 0.43 c p3
351.39 507.92 0.43 c p3
351.54 508.59 0.43 c p3
351.68 507.83 0.43 c p3
351.83 508.05 0.43 c p3
351.97 508.37 0.43 c p3
352.12 508.27 0.43 c p3
352.26 508.05 0.43 c p3
352.41 508.49 0.43 c p3
352.55 508.59 0.43 c p3
352.70 508.49 0.43 c p3
352.85 508.37 0.43 c p3
352.99 508.37 0.43 c p3
353.14 508.71 0.43 c p3
353.28 508.93 0.43 c p3
353.43 508.49 0.43 c p3
353.57 508.49 0.43 c p3
353.72 508.71 0.43 c p3
353.86 508.15 0.43 c p3
354.01 508.59 0.43 c p3
354.16 508.81 0.43 c p3
354.30 508.37 0.43 c p3
354.45 508.05 0.43 c p3
354.59 508.27 0.43 c p3
354.74 507.61 0.43 c p3
354.88 508.05 0.43 c p3
355.03 508.49 0.43 c p3
355.18 508.37 0.43 c p3
355.32 508.49 0.43 c p3
355.47 508.15 0.43 c p3
355.61 507.70 0.43 c p3
355.76 508.59 0.43 c p3
355.90 509.03 0.43 c p3
356.05 508.81 0.43 c p3
356.19 507.92 0.43 c p3
356.34 508.49 0.43 c p3
356.49 508.05 0.43 c p3
356.63 508.59 0.43 c p3
356.78 508.71 0.43 c p3
356.92 508.59 0.43 c p3
357.07 508.59 0.43 c p3
357.21 508.27 0.43 c p3
357.36 507.92 0.43 c p3
357.50 508.05 0.43 c p3
357.65 508.37 0.43 c p3
357.80 508.37 0.43 c p3
357.94 508.27 0.43 c p3
358.09 508.27 0.43 c p3
358.23 508.05 0.43 c p3
358.38 508.15 0.43 c p3
358.52 508.37 0.43 c p3
358.67 508.49 0.43 c p3
358.81 508.49 0.43 c p3
358.96 508.15 0.43 c p3
359.11 508.27 0.43 c p3
359.25 508.81 0.43 c p3
359.40 508.81 0.43 c p3
359.54 508.49 0.43 c p3
359.69 508.37 0.43 c p3
359.83 507.83 0.43 c p3
359.98 508.15 0.43 c p3
360.13 508.15 0.43 c p3
360.27 508.37 0.43 c p3
360.42 507.92 0.43 c p3
360.56 508.05 0.43 c p3
360.71 507.61 0.43 c p3
360.85 508.15 0.43 c p3
361.00 508.59 0.43 c p3
361.14 508.49 0.43 c p3
361.29 508.05 0.43 c p3
361.44 508.27 0.43 c p3
361.58 508.15 0.43 c p3
361.73 508.59 0.43 c p3
361.87 509.03 0.43 c p3
362.02 509.15 0.43 c p3
362.16 508.49 0.43 c p3
362.31 508.27 0.43 c p3
362.45 508.05 0.43 c p3
362.60 508.05 0.43 c p3
362.75 508.81 0.43 c p3
362.89 508.59 0.43 c p3
363.04 508.59 0.43 c p3
363.18 508.05 0.43 c p3
363.33 508.05 0.43 c p3
363.47 508.05 0.43 c p3
363.62 508.37 0.43 c p3
363.76 508.27 0.43 c p3
363.91 508.37 0.43 c p3
364.06 508.05 0.43 c p3
364.20 507.92 0.43 c p3
364.35 508.37 0.43 c p3
364.49 508.71 0.43 c p3
364.64 508.81 0.43 c p3
364.78 508.27 0.43 c p3
364.93 508.49 0.43 c p3
365.08 507.83 0.43 c p3
365.22 507.92 0.43 c p3
365.37 508.49 0.43 c p3
365.51 508.71 0.43 c p3
365.66 508.59 0.43 c p3
365.80 508.59 0.43 c p3
365.95 507.83 0.43 c p3
366.09 508.05 0.43 c p3
366.24 508.81 0.43 c p3
366.39 508.49 0.43 c p3
366.53 508.27 0.43 c p3
366.68 508.05 0.43 c p3
366.82 508.27 0.43 c p3
366.97 508.81 0.43 c p3
367.11 508.15 0.43 c p3
367.26 508.71 0.43 c p3
367.40 508.93 0.43 c p3
367.55 508.59 0.43 c p3
367.70 508.59 0.43 c p3
367.84 508.37 0.43 c p3
367.99 508.93 0.43 c p3
368.13 509.25 0.43 c p3
368.28 508.27 0.43 c p3
368.42 508.15 0.43 c p3
368.57 508.27 0.43 c p3
368.71 508.59 0.43 c p3
368.86 508.71 0.43 c p3
369.01 508.59 0.43 c p3
369.15 508.49 0.43 c p3
369.30 508.05 0.43 c p3
369.44 508.15 0.43 c p3
369.59 508.15 0.43 c p3
369.73 508.59 0.43 c p3
369.88 508.27 0.43 c p3
370.03 508.81 0.43 c p3
370.17 508.05 0.43 c p3
370.32 508.15 0.43 c p3
370.46 508.49 0.43 c p3
370.61 508.93 0.43 c p3
370.75 508.71 0.43 c p3
370.90 508.59 0.43 c p3
371.04 508.49 0.43 c p3
371.19 507.83 0.43 c p3
371.34 508.59 0.43 c p3
371.48 508.49 0.43 c p3
371.63 508.27 0.43 c p3
371.77 508.49 0.43 c p3
371.92 507.92 0.43 c p3
372.06 507.92 0.43 c p3
372.21 508.71 0.43 c p3
372.35 508.49 0.43 c p3
372.50 508.49 0.43 c p3
372.65 507.83 0.43 c p3
372.79 507.61 0.43 c p3
372.94 508.37 0.43 c p3
373.08 508.93 0.43 c p3
373.23 508.81 0.43 c p3
373.37 508.15 0.43 c p3
373.52 508.37 0.43 c p3
373.66 508.49 0.43 c p3
373.81 508.37 0.43 c p3
373.96 509.15 0.43 c p3
374.10 508.93 0.43 c p3
374.25 508.71 0.43 c p3
374.39 508.27 0.43 c p3
374.54 507.92 0.43 c p3
374.68 508.49 0.43 c p3
374.83 508.71 0.43 c p3
374.98 508.49 0.43 c p3
375.12 508.37 0.43 c p3
375.27 508.49 0.43 c p3
375.41 508.15 0.43 c p3
375.56 508.37 0.43 c p3
375.70 508.71 0.43 c p3
375.85 508.49 0.43 c p3
375.99 508.71 0.43 c p3
376.14 508.49 0.43 c p3
376.29 508.81 0.43 c p3
376.43 508.71 0.43 c p3
376.58 509.15 0.43 c p3
376.72 508.81 0.43 c p3
376.87 508.71 0.43 c p3
377.01 507.70 0.43 c p3
377.16 508.15 0.43 c p3
377.30 508.93 0.43 c p3
377.45 507.83 0.43 c p3
377.60 508.59 0.43 c p3
377.74 508.49 0.43 c p3
377.89 508.27 0.43 c p3
378.03 507.92 0.43 c p3
378.18 509.03 0.43 c p3
378.32 508.27 0.43 c p3
378.47 508.49 0.43 c p3
378.61 507.83 0.43 c p3
378.76 508.49 0.43 c p3
378.91 509.15 0.43 c p3
379.05 508.59 0.43 c p3
379.20 509.03 0.43 c p3
379.34 508.59 0.43 c p3
379.49 508.15 0.43 c p3
379.63 508.05 0.43 c p3
379.78 508.71 0.43 c p3
379.93 508.81 0.43 c p3
380.07 508.59 0.43 c p3
380.22 507.83 0.43 c p3
380.36 508.05 0.43 c p3
380.51 508.37 0.43 c p3
380.65 509.03 0.43 c p3
380.80 508.93 0.43 c p3
380.94 508.49 0.43 c p3
381.09 508.49 0.43 c p3
381.24 508.05 0.43 c p3
381.38 508.27 0.43 c p3
381.53 508.93 0.43 c p3
381.67 508.49 0.43 c p3
381.82 508.49 0.43 c p3
381.96 507.92 0.43 c p3
382.11 507.83 0.43 c p3
382.25 508.71 0.43 c p3
382.40 508.27 0.43 c p3
0.00 0.00 432.00 576.00 cl
0 0 0 srgb
0.75 setlinewidth
[] 0 setdash
1 setlinecap
1 setlinejoin
10.00 setmiterlimit
np
236.96 345.60 m
145.59 0 l
o
np
236.96 345.60 m
0 -5.76 l
o
np
266.08 345.60 m
0 -5.76 l
o
np
295.19 345.60 m
0 -5.76 l
o
np
324.31 345.60 m
0 -5.76 l
o
np
353.43 345.60 m
0 -5.76 l
o
np
382.55 345.60 m
0 -5.76 l
o
/Font1 findfont 10 s
236.96 329.47 (0) .5 0 t
266.08 329.47 (200) .5 0 t
295.19 329.47 (400) .5 0 t
324.31 329.47 (600) .5 0 t
353.43 329.47 (800) .5 0 t
382.55 329.47 (1000) .5 0 t
np
216.00 352.00 m
0 150.84 l
o
np
216.00 352.00 m
-5.76 0 l
o
np
216.00 402.28 m
-5.76 0 l
o
np
216.00 452.56 m
-5.76 0 l
o
np
216.00 502.84 m
-5.76 0 l
o
209.09 348.41 (0.0) 1 0 t
209.09 398.69 (0.5) 1 0 t
209.09 448.97 (1.0) 1 0 t
209.09 499.25 (1.5) 1 0 t
np
216.00 345.60 m
172.80 0 l
0 172.80 l
-172.80 0 l
0 -172.80 l
o
0.00 0.00 432.00 576.00 cl
/Font1 findfont 10 s
0 0 0 srgb
302.40 313.34 (Zeit / ms \(total\)) .5 0 t
190.66 432.00 (U / V) .5 90 t
216.00 345.60 388.80 518.40 cl
0 0 0 srgb
0.38 setlinewidth
[ 1.12 1.88] 0 setdash
1 setlinecap
1 setlinejoin
10.00 setmiterlimit
np
222.98 345.60 m
0 172.80 l
o
np
234.77 345.60 m
0 172.80 l
o
np
239.00 345.60 m
0 172.80 l
o
np
275.68 345.60 m
0 172.80 l
o
86.40 57.60 388.80 288.00 cl
1 0 0 srgb
1.50 setlinewidth
[] 0 setdash
1 setlinecap
1 setlinejoin
10.00 setmiterlimit
np
97.60 279.47 m
1.41 -14.90 l
1.40 -13.86 l
1.41 -12.89 l
1.41 -11.98 l
1.41 -11.16 l
1.40 -10.37 l
1.41 -9.65 l
1.41 -8.97 l
1.40 -8.35 l
1.41 -7.77 l
1.41 -7.22 l
1.40 -6.72 l
1.41 -6.25 l
1.41 -5.81 l
1.41 -5.41 l
1.40 -5.03 l
1.41 -4.68 l
1.41 -4.35 l
1.40 -4.05 l
1.41 -3.76 l
1.41 -3.50 l
1.40 -3.26 l
1.41 -3.03 l
1.41 -2.82 l
1.41 -2.62 l
1.40 -2.44 l
1.41 -2.27 l
1.41 -2.11 l
1.40 -1.96 l
1.41 -1.83 l
1.41 -1.70 l
1.41 -1.58 l
1.40 -1.46 l
1.41 -1.37 l
1.41 -1.27 l
1.40 -1.19 l
1.41 -1.10 l
1.41 -1.02 l
1.40 -0.95 l
1.41 -0.89 l
1.41 -0.82 l
1.41 -0.76 l
1.40 -0.72 l
1.41 -0.66 l
1.41 -0.62 l
1.40 -0.57 l
1.41 -0.53 l
1.41 -0.50 l
1.40 -0.46 l
1.41 -0.43 l
1.41 -0.40 l
1.41 -0.37 l
1.40 -0.35 l
1.41 -0.32 l
1.41 -0.30 l
1.40 -0.27 l
1.41 -0.26 l
1.41 -0.24 l
1.41 -0.23 l
1.40 -0.20 l
1.41 -0.20 l
1.41 -0.18 l
1.40 -0.17 l
1.41 -0.15 l
1.41 -0.15 l
1.40 -0.13 l
1.41 -0.13 l
1.41 -0.11 l
1.41 -0.11 l
1.40 -0.10 l
1.41 -0.10 l
1.41 -0.08 l
1.40 -0.08 l
1.41 -0.08 l
1.41 -0.07 l
1.40 -0.07 l
1.41 -0.06 l
1.41 -0.05 l
1.41 -0.06 l
1.40 -0.05 l
1.41 -0.04 l
1.41 -0.04 l
1.40 -0.04 l
1.41 -0.04 l
1.41 -0.03 l
1.41 -0.03 l
1.40 -0.03 l
1.41 -0.03 l
1.41 -0.03 l
1.40 -0.02 l
1.41 -0.02 l
1.41 -0.02 l
1.40 -0.02 l
1.41 -0.02 l
1.41 -0.02 l
1.41 -0.01 l
1.40 -0.02 l
1.41 -0.01 l
1.41 -0.01 l
238.30 66.29 lineto
1.41 -0.01 l
1.41 -0.01 l
1.40 -0.01 l
1.41 -0.01 l
1.41 -0.01 l
1.41 -0.01 l
1.40 0 l
1.41 -0.01 l
1.41 -0.01 l
1.40 0 l
1.41 -0.01 l
1.41 0 l
1.40 -0.01 l
1.41 0 l
1.41 -0.01 l
1.41 0 l
1.40 0 l
1.41 -0.01 l
1.41 0 l
1.40 0 l
1.41 0 l
1.41 -0.01 l
1.41 0 l
1.40 0 l
1.41 0 l
1.41 0 l
1.40 -0.01 l
1.41 0 l
1.41 0 l
1.40 0 l
1.41 0 l
1.41 0 l
1.41 0 l
1.40 0 l
1.41 0 l
1.41 -0.01 l
1.40 0 l
1.41 0 l
1.41 0 l
1.40 0 l
1.41 0 l
1.41 0 l
1.41 0 l
1.40 0 l
1.41 0 l
1.41 0 l
1.40 0 l
1.41 0 l
1.41 0 l
1.41 0 l
1.40 0 l
1.41 0 l
1.41 0 l
1.40 0 l
1.41 0 l
1.41 0 l
1.40 0 l
1.41 0 l
1.41 0 l
1.41 0 l
1.40 0 l
1.41 -0.01 l
1.41 0 l
1.40 0 l
1.41 0 l
1.41 0 l
1.40 0 l
1.41 0 l
1.41 0 l
1.41 0 l
1.40 0 l
1.41 0 l
1.41 0 l
1.40 0 l
1.41 0 l
1.41 0 l
1.41 0 l
1.40 0 l
1.41 0 l
1.41 0 l
1.40 0 l
1.41 0 l
1.41 0 l
1.40 0 l
1.41 0 l
1.41 0 l
1.41 0 l
1.40 0 l
1.41 0 l
1.41 0 l
1.40 0 l
1.41 0 l
1.41 0 l
1.40 0 l
1.41 0 l
1.41 0 l
1.41 0 l
1.40 0 l
1.41 0 l
o
0.00 0.00 432.00 576.00 cl
0 0 0 srgb
0.75 setlinewidth
[] 0 setdash
1 setlinecap
1 setlinejoin
10.00 setmiterlimit
np
97.60 57.60 m
280.00 0 l
o
np
97.60 57.60 m
0 -5.76 l
o
np
153.60 57.60 m
0 -5.76 l
o
np
209.60 57.60 m
0 -5.76 l
o
np
265.60 57.60 m
0 -5.76 l
o
np
321.60 57.60 m
0 -5.76 l
o
np
377.60 57.60 m
0 -5.76 l
o
/Font1 findfont 10 s
97.60 41.47 (0) .5 0 t
153.60 41.47 (200) .5 0 t
209.60 41.47 (400) .5 0 t
265.60 41.47 (600) .5 0 t
321.60 41.47 (800) .5 0 t
377.60 41.47 (1000) .5 0 t
np
86.40 69.23 m
0 208.37 l
o
np
86.40 69.23 m
-5.76 0 l
o
np
86.40 110.90 m
-5.76 0 l
o
np
86.40 152.57 m
-5.76 0 l
o
np
86.40 194.25 m
-5.76 0 l
o
np
86.40 235.92 m
-5.76 0 l
o
np
86.40 277.60 m
-5.76 0 l
o
79.49 65.64 (0.00) 1 0 t
79.49 107.31 (0.05) 1 0 t
79.49 148.98 (0.10) 1 0 t
79.49 190.66 (0.15) 1 0 t
79.49 232.33 (0.20) 1 0 t
79.49 274.01 (0.25) 1 0 t
np
86.40 57.60 m
302.40 0 l
0 230.40 l
-302.40 0 l
0 -230.40 l
o
0.00 0.00 432.00 576.00 cl
/Font1 findfont 10 s
0 0 0 srgb
237.60 13.82 (Zeit / ms \(nach Puls\)) .5 0 t
49.54 172.80 (Absorbanz A) .5 90 t
86.40 57.60 388.80 288.00 cl
/bg { 1 1 1 srgb } def
0 0 0 srgb
0.75 setlinewidth
[] 0 setdash
1 setlinecap
1 setlinejoin
10.00 setmiterlimit
101.80 235.02 0.65 c p3
102.08 231.86 0.65 c p3
102.36 231.42 0.65 c p3
102.64 228.73 0.65 c p3
102.92 225.62 0.65 c p3
103.20 223.31 0.65 c p3
103.48 220.25 0.65 c p3
103.76 219.91 0.65 c p3
104.04 219.49 0.65 c p3
104.32 214.21 0.65 c p3
104.60 214.21 0.65 c p3
104.88 211.64 0.65 c p3
105.16 211.97 0.65 c p3
105.44 208.68 0.65 c p3
105.72 206.88 0.65 c p3
106.00 203.95 0.65 c p3
106.28 203.55 0.65 c p3
106.56 201.05 0.65 c p3
106.84 198.50 0.65 c p3
107.12 198.50 0.65 c p3
107.40 196.03 0.65 c p3
107.68 194.61 0.65 c p3
107.96 191.08 0.65 c p3
108.24 191.79 0.65 c p3
108.52 187.97 0.65 c p3
108.80 186.58 0.65 c p3
109.08 183.82 0.65 c p3
109.36 183.82 0.65 c p3
109.64 182.06 0.65 c p3
109.92 182.75 0.65 c p3
110.20 178.35 0.65 c p3
110.48 177.67 0.65 c p3
110.76 175.35 0.65 c p3
111.04 172.00 0.65 c p3
111.32 173.63 0.65 c p3
111.60 172.00 0.65 c p3
111.88 171.33 0.65 c p3
112.16 169.34 0.65 c p3
112.44 167.00 0.65 c p3
112.72 163.44 0.65 c p3
113.00 163.80 0.65 c p3
113.28 162.79 0.65 c p3
113.56 161.85 0.65 c p3
113.84 160.20 0.65 c p3
114.12 158.62 0.65 c p3
114.40 156.35 0.65 c p3
114.68 155.43 0.65 c p3
114.96 154.16 0.65 c p3
115.24 153.80 0.65 c p3
115.52 151.91 0.65 c p3
115.80 151.00 0.65 c p3
116.08 150.09 0.65 c p3
116.36 148.49 0.65 c p3
116.64 148.84 0.65 c p3
116.92 146.62 0.65 c p3
117.20 146.00 0.65 c p3
117.48 142.91 0.65 c p3
117.76 142.64 0.65 c p3
118.04 142.91 0.65 c p3
118.32 141.07 0.65 c p3
118.60 141.07 0.65 c p3
118.88 139.24 0.65 c p3
119.16 136.28 0.65 c p3
119.44 135.67 0.65 c p3
119.72 135.34 0.65 c p3
120.00 134.47 0.65 c p3
120.28 134.14 0.65 c p3
120.56 132.07 0.65 c p3
120.84 131.48 0.65 c p3
121.12 130.55 0.65 c p3
121.40 129.69 0.65 c p3
121.68 128.51 0.65 c p3
121.96 128.51 0.65 c p3
122.24 126.42 0.65 c p3
122.52 124.98 0.65 c p3
122.80 127.00 0.65 c p3
123.08 124.40 0.65 c p3
123.36 124.40 0.65 c p3
123.64 123.23 0.65 c p3
123.92 120.65 0.65 c p3
124.20 117.77 0.65 c p3
124.48 118.92 0.65 c p3
124.76 119.18 0.65 c p3
125.04 119.50 0.65 c p3
125.32 118.92 0.65 c p3
125.60 116.31 0.65 c p3
125.88 114.34 0.65 c p3
126.16 113.78 0.65 c p3
126.44 114.03 0.65 c p3
126.72 112.64 0.65 c p3
127.00 114.34 0.65 c p3
127.28 112.64 0.65 c p3
127.56 110.70 0.65 c p3
127.84 110.39 0.65 c p3
128.12 112.08 0.65 c p3
128.40 109.58 0.65 c p3
128.68 109.27 0.65 c p3
128.96 107.34 0.65 c p3
129.24 109.27 0.65 c p3
129.52 108.46 0.65 c p3
129.80 107.03 0.65 c p3
130.08 105.92 0.65 c p3
130.36 104.26 0.65 c p3
130.64 103.15 0.65 c p3
130.92 102.05 0.65 c p3
131.20 102.91 0.65 c p3
131.48 103.46 0.65 c p3
131.76 102.60 0.65 c p3
132.04 101.56 0.65 c p3
132.32 100.47 0.65 c p3
132.60 99.92 0.65 c p3
132.88 99.62 0.65 c p3
133.16 100.16 0.65 c p3
133.44 100.16 0.65 c p3
133.72 99.38 0.65 c p3
134.00 97.44 0.65 c p3
134.28 97.44 0.65 c p3
134.56 97.74 0.65 c p3
134.84 96.90 0.65 c p3
135.12 97.20 0.65 c p3
135.40 93.43 0.65 c p3
135.68 92.59 0.65 c p3
135.96 95.04 0.65 c p3
136.24 94.20 0.65 c p3
136.52 95.82 0.65 c p3
136.80 94.50 0.65 c p3
137.08 92.59 0.65 c p3
137.36 90.75 0.65 c p3
137.64 91.52 0.65 c p3
137.92 90.46 0.65 c p3
138.20 90.99 0.65 c p3
138.48 91.29 0.65 c p3
138.76 91.82 0.65 c p3
139.04 89.69 0.65 c p3
139.32 89.16 0.65 c p3
139.60 89.16 0.65 c p3
139.88 88.92 0.65 c p3
140.16 88.10 0.65 c p3
140.44 88.40 0.65 c p3
140.72 87.87 0.65 c p3
141.00 86.81 0.65 c p3
141.28 86.52 0.65 c p3
141.56 87.05 0.65 c p3
141.84 86.52 0.65 c p3
142.12 86.52 0.65 c p3
142.40 84.94 0.65 c p3
142.68 83.90 0.65 c p3
142.96 84.42 0.65 c p3
143.24 85.76 0.65 c p3
143.52 85.99 0.65 c p3
143.80 84.71 0.65 c p3
144.08 84.19 0.65 c p3
144.36 82.62 0.65 c p3
144.64 83.67 0.65 c p3
144.92 84.19 0.65 c p3
145.20 83.90 0.65 c p3
145.48 82.85 0.65 c p3
145.76 83.38 0.65 c p3
146.04 82.10 0.65 c p3
146.32 81.81 0.65 c p3
146.60 82.62 0.65 c p3
146.88 81.29 0.65 c p3
147.16 82.10 0.65 c p3
147.44 80.78 0.65 c p3
147.72 81.29 0.65 c p3
148.00 80.78 0.65 c p3
148.28 81.29 0.65 c p3
148.56 81.06 0.65 c p3
148.84 79.51 0.65 c p3
149.12 78.25 0.65 c p3
149.40 78.48 0.65 c p3
149.68 79.00 0.65 c p3
149.96 80.78 0.65 c p3
150.24 80.03 0.65 c p3
150.52 80.26 0.65 c p3
150.80 79.74 0.65 c p3
151.08 80.26 0.65 c p3
151.36 78.48 0.65 c p3
151.64 79.23 0.65 c p3
151.92 80.03 0.65 c p3
152.20 79.23 0.65 c p3
152.48 76.94 0.65 c p3
152.76 77.45 0.65 c p3
153.04 78.25 0.65 c p3
153.32 78.48 0.65 c p3
153.60 78.25 0.65 c p3
153.88 75.92 0.65 c p3
154.16 76.71 0.65 c p3
154.44 75.69 0.65 c p3
154.72 76.71 0.65 c p3
155.00 78.25 0.65 c p3
155.28 76.94 0.65 c p3
155.56 76.43 0.65 c p3
155.84 76.43 0.65 c p3
156.12 76.94 0.65 c p3
156.40 77.22 0.65 c p3
156.68 77.45 0.65 c p3
156.96 75.92 0.65 c p3
157.24 76.20 0.65 c p3
157.52 75.18 0.65 c p3
157.80 76.20 0.65 c p3
158.08 75.41 0.65 c p3
158.36 76.43 0.65 c p3
158.64 75.92 0.65 c p3
158.92 74.16 0.65 c p3
159.20 74.67 0.65 c p3
159.48 75.18 0.65 c p3
159.76 74.67 0.65 c p3
160.04 75.69 0.65 c p3
160.32 75.18 0.65 c p3
160.60 74.39 0.65 c p3
160.88 74.90 0.65 c p3
161.16 75.69 0.65 c p3
161.44 74.67 0.65 c p3
161.72 75.92 0.65 c p3
162.00 74.16 0.65 c p3
162.28 73.88 0.65 c p3
162.56 74.90 0.65 c p3
162.84 73.65 0.65 c p3
163.12 75.18 0.65 c p3
163.40 74.90 0.65 c p3
163.68 73.14 0.65 c p3
163.96 73.88 0.65 c p3
164.24 74.16 0.65 c p3
164.52 73.65 0.65 c p3
164.80 75.18 0.65 c p3
165.08 75.18 0.65 c p3
165.36 72.86 0.65 c p3
165.64 72.13 0.65 c p3
165.92 72.86 0.65 c p3
166.20 75.18 0.65 c p3
166.48 74.39 0.65 c p3
166.76 74.67 0.65 c p3
167.04 73.88 0.65 c p3
167.32 73.37 0.65 c p3
167.60 74.39 0.65 c p3
167.88 74.39 0.65 c p3
168.16 73.65 0.65 c p3
168.44 73.88 0.65 c p3
168.72 71.63 0.65 c p3
169.00 72.86 0.65 c p3
169.28 74.16 0.65 c p3
169.56 73.65 0.65 c p3
169.84 73.37 0.65 c p3
170.12 71.85 0.65 c p3
170.40 72.86 0.65 c p3
170.68 72.86 0.65 c p3
170.96 72.64 0.65 c p3
171.24 72.64 0.65 c p3
171.52 73.65 0.65 c p3
171.80 72.13 0.65 c p3
172.08 72.36 0.65 c p3
172.36 72.64 0.65 c p3
216.00 201.60 367.20 247.68 cl
0 0 0 srgb
0.75 setlinewidth
[] 0 setdash
1 setlinecap
1 setlinejoin
10.00 setmiterlimit
221.60 213.12 0.43 c p1
222.16 210.42 0.43 c p1
222.71 218.06 0.43 c p1
223.27 216.88 0.43 c p1
223.82 213.99 0.43 c p1
224.38 214.03 0.43 c p1
224.93 211.06 0.43 c p1
225.49 218.43 0.43 c p1
226.04 225.36 0.43 c p1
226.60 213.47 0.43 c p1
227.16 221.78 0.43 c p1
227.71 220.08 0.43 c p1
228.27 229.42 0.43 c p1
228.82 224.71 0.43 c p1
229.38 225.63 0.43 c p1
229.93 222.11 0.43 c p1
230.49 228.18 0.43 c p1
231.04 226.09 0.43 c p1
231.60 223.64 0.43 c p1
232.16 230.94 0.43 c p1
232.71 228.67 0.43 c p1
233.27 230.29 0.43 c p1
233.82 223.69 0.43 c p1
234.38 233.29 0.43 c p1
234.93 225.41 0.43 c p1
235.49 226.75 0.43 c p1
236.04 222.71 0.43 c p1
236.60 229.22 0.43 c p1
237.16 228.87 0.43 c p1
237.71 237.83 0.43 c p1
238.27 227.14 0.43 c p1
238.82 230.67 0.43 c p1
239.38 227.78 0.43 c p1
239.93 220.86 0.43 c p1
240.49 233.02 0.43 c p1
241.04 232.54 0.43 c p1
241.60 235.69 0.43 c p1
242.16 233.66 0.43 c p1
242.71 230.19 0.43 c p1
243.27 221.96 0.43 c p1
243.82 228.74 0.43 c p1
244.38 230.16 0.43 c p1
244.93 231.80 0.43 c p1
245.49 230.60 0.43 c p1
246.04 229.64 0.43 c p1
246.60 225.90 0.43 c p1
247.16 227.30 0.43 c p1
247.71 227.29 0.43 c p1
248.27 230.74 0.43 c p1
248.82 228.18 0.43 c p1
249.38 229.35 0.43 c p1
249.93 230.46 0.43 c p1
250.49 228.84 0.43 c p1
251.04 234.65 0.43 c p1
251.60 230.53 0.43 c p1
252.16 232.49 0.43 c p1
252.71 224.89 0.43 c p1
253.27 228.06 0.43 c p1
253.82 233.27 0.43 c p1
254.38 230.29 0.43 c p1
254.93 234.34 0.43 c p1
255.49 231.27 0.43 c p1
256.04 223.79 0.43 c p1
256.60 225.35 0.43 c p1
257.16 227.87 0.43 c p1
257.71 228.29 0.43 c p1
258.27 230.72 0.43 c p1
258.82 226.44 0.43 c p1
259.38 227.75 0.43 c p1
259.93 227.74 0.43 c p1
260.49 227.94 0.43 c p1
261.04 226.83 0.43 c p1
261.60 230.24 0.43 c p1
262.16 225.52 0.43 c p1
262.71 223.31 0.43 c p1
263.27 234.35 0.43 c p1
263.82 227.53 0.43 c p1
264.38 230.70 0.43 c p1
264.93 229.33 0.43 c p1
265.49 222.47 0.43 c p1
266.04 214.42 0.43 c p1
266.60 221.83 0.43 c p1
267.16 225.76 0.43 c p1
267.71 229.90 0.43 c p1
268.27 230.54 0.43 c p1
268.82 223.31 0.43 c p1
269.38 218.54 0.43 c p1
269.93 219.09 0.43 c p1
270.49 222.76 0.43 c p1
271.04 220.09 0.43 c p1
271.60 229.27 0.43 c p1
272.16 225.31 0.43 c p1
272.71 220.38 0.43 c p1
273.27 221.69 0.43 c p1
273.82 230.68 0.43 c p1
274.38 223.49 0.43 c p1
274.93 224.70 0.43 c p1
275.49 219.66 0.43 c p1
276.04 229.41 0.43 c p1
276.60 228.60 0.43 c p1
277.16 225.39 0.43 c p1
277.71 223.35 0.43 c p1
278.27 219.16 0.43 c p1
278.82 217.09 0.43 c p1
279.38 215.00 0.43 c p1
279.93 220.41 0.43 c p1
280.49 224.61 0.43 c p1
281.04 223.37 0.43 c p1
281.60 221.40 0.43 c p1
282.16 219.18 0.43 c p1
282.71 219.05 0.43 c p1
283.27 219.82 0.43 c p1
283.82 223.83 0.43 c p1
284.38 225.72 0.43 c p1
284.93 224.54 0.43 c p1
285.49 218.93 0.43 c p1
286.04 220.73 0.43 c p1
286.60 223.67 0.43 c p1
287.16 222.18 0.43 c p1
287.71 225.07 0.43 c p1
288.27 212.24 0.43 c p1
288.82 210.72 0.43 c p1
289.38 221.79 0.43 c p1
289.93 220.20 0.43 c p1
290.49 228.03 0.43 c p1
291.04 224.54 0.43 c p1
291.60 218.76 0.43 c p1
292.16 213.22 0.43 c p1
292.71 217.71 0.43 c p1
293.27 215.10 0.43 c p1
293.82 218.63 0.43 c p1
294.38 221.22 0.43 c p1
294.93 224.71 0.43 c p1
295.49 217.92 0.43 c p1
296.04 217.27 0.43 c p1
296.60 218.65 0.43 c p1
297.16 219.09 0.43 c p1
297.71 217.26 0.43 c p1
298.27 219.70 0.43 c p1
298.82 218.96 0.43 c p1
299.38 216.18 0.43 c p1
299.93 216.31 0.43 c p1
300.49 219.58 0.43 c p1
301.04 218.78 0.43 c p1
301.60 219.99 0.43 c p1
302.16 215.11 0.43 c p1
302.71 212.25 0.43 c p1
303.27 215.42 0.43 c p1
303.82 221.72 0.43 c p1
304.38 223.74 0.43 c p1
304.93 219.91 0.43 c p1
305.49 218.98 0.43 c p1
306.04 214.03 0.43 c p1
306.60 219.11 0.43 c p1
307.16 222.16 0.43 c p1
307.71 222.07 0.43 c p1
308.27 219.07 0.43 c p1
308.82 222.08 0.43 c p1
309.38 218.16 0.43 c p1
309.93 218.02 0.43 c p1
310.49 222.10 0.43 c p1
311.04 217.93 0.43 c p1
311.60 221.97 0.43 c p1
312.16 217.78 0.43 c p1
312.71 220.68 0.43 c p1
313.27 219.58 0.43 c p1
313.82 222.45 0.43 c p1
314.38 222.43 0.43 c p1
314.93 217.31 0.43 c p1
315.49 213.30 0.43 c p1
316.04 215.01 0.43 c p1
316.60 217.81 0.43 c p1
317.16 225.47 0.43 c p1
317.71 223.39 0.43 c p1
318.27 225.05 0.43 c p1
318.82 223.83 0.43 c p1
319.38 226.58 0.43 c p1
319.93 220.49 0.43 c p1
320.49 224.10 0.43 c p1
321.04 227.92 0.43 c p1
321.60 225.54 0.43 c p1
322.16 217.46 0.43 c p1
322.71 220.13 0.43 c p1
323.27 223.89 0.43 c p1
323.82 225.45 0.43 c p1
324.38 225.24 0.43 c p1
324.93 216.91 0.43 c p1
325.49 220.62 0.43 c p1
326.04 217.32 0.43 c p1
326.60 221.89 0.43 c p1
327.16 228.44 0.43 c p1
327.71 224.00 0.43 c p1
328.27 222.63 0.43 c p1
328.82 223.23 0.43 c p1
329.38 225.79 0.43 c p1
329.93 227.46 0.43 c p1
330.49 228.91 0.43 c p1
331.04 223.56 0.43 c p1
331.60 225.20 0.43 c p1
332.16 221.82 0.43 c p1
332.71 226.29 0.43 c p1
333.27 223.76 0.43 c p1
333.82 228.22 0.43 c p1
334.38 226.76 0.43 c p1
334.93 220.51 0.43 c p1
335.49 222.97 0.43 c p1
336.04 225.43 0.43 c p1
336.60 223.95 0.43 c p1
337.16 228.36 0.43 c p1
337.71 226.87 0.43 c p1
338.27 224.28 0.43 c p1
338.82 226.70 0.43 c p1
339.38 230.21 0.43 c p1
339.93 226.73 0.43 c p1
340.49 231.97 0.43 c p1
341.04 225.65 0.43 c p1
341.60 224.99 0.43 c p1
342.16 229.32 0.43 c p1
342.71 224.95 0.43 c p1
343.27 231.24 0.43 c p1
343.82 230.55 0.43 c p1
344.38 224.21 0.43 c p1
344.93 227.42 0.43 c p1
345.49 228.90 0.43 c p1
346.04 227.32 0.43 c p1
346.60 233.58 0.43 c p1
347.16 233.95 0.43 c p1
347.71 225.40 0.43 c p1
348.27 222.94 0.43 c p1
348.82 226.11 0.43 c p1
349.38 235.37 0.43 c p1
349.93 232.67 0.43 c p1
350.49 234.10 0.43 c p1
351.04 231.38 0.43 c p1
351.60 229.76 0.43 c p1
352.16 234.00 0.43 c p1
352.71 234.32 0.43 c p1
353.27 231.81 0.43 c p1
353.82 232.99 0.43 c p1
354.38 224.63 0.43 c p1
354.93 229.69 0.43 c p1
355.49 234.98 0.43 c p1
356.04 233.32 0.43 c p1
356.60 232.52 0.43 c p1
357.16 226.96 0.43 c p1
357.71 231.14 0.43 c p1
358.27 231.42 0.43 c p1
358.82 230.82 0.43 c p1
359.38 231.09 0.43 c p1
359.93 235.26 0.43 c p1
360.49 229.67 0.43 c p1
361.04 230.80 0.43 c p1
361.60 232.13 0.43 c p1
0.00 0.00 432.00 576.00 cl
0 0 0 srgb
0.75 setlinewidth
[] 0 setdash
1 setlinecap
1 setlinejoin
10.00 setmiterlimit
np
241.04 201.60 m
111.12 0 l
o
np
241.04 201.60 m
0 -5.76 l
o
np
268.82 201.60 m
0 -5.76 l
o
np
296.60 201.60 m
0 -5.76 l
o
np
324.38 201.60 m
0 -5.76 l
o
np
352.16 201.60 m
0 -5.76 l
o
/Font1 findfont 6 s
241.04 185.47 (50) .5 0 t
268.82 185.47 (100) .5 0 t
296.60 185.47 (150) .5 0 t
324.38 185.47 (200) .5 0 t
352.16 185.47 (250) .5 0 t
np
216.00 205.39 m
0 38.50 l
o
np
216.00 205.39 m
-5.76 0 l
o
np
216.00 211.81 m
-5.76 0 l
o
np
216.00 218.22 m
-5.76 0 l
o
np
216.00 224.64 m
-5.76 0 l
o
np
216.00 231.06 m
-5.76 0 l
o
np
216.00 237.47 m
-5.76 0 l
o
np
216.00 243.89 m
-5.76 0 l
o
209.09 203.24 (-0.006) 1 0 t
209.09 209.65 (-0.004) 1 0 t
209.09 216.07 (-0.002) 1 0 t
209.09 222.49 (0.000) 1 0 t
209.09 228.90 (0.002) 1 0 t
209.09 235.32 (0.004) 1 0 t
209.09 241.73 (0.006) 1 0 t
np
216.00 201.60 m
151.20 0 l
0 46.08 l
-151.20 0 l
0 -46.08 l
o
0.00 0.00 432.00 576.00 cl
/Font1 findfont 9 s
0 0 0 srgb
291.60 262.88 (Residuen) .5 0 t
59.04 73.44 401.76 516.96 cl
ep
%%Trailer
%%Pages: 1
%%EOF
