%!PS-Adobe-3.0 EPSF-3.0
%%DocumentNeededResources: font Helvetica
%%+ font Helvetica-Bold
%%+ font Helvetica-Oblique
%%+ font Helvetica-BoldOblique
%%+ font Symbol
%%Title: R Graphics Output
%%Creator: R Software
%%Pages: (atend)
%%BoundingBox: 0 0 432 576
%%EndComments
%%BeginProlog
/bp  { gs sRGB gs } def
% begin .ps.prolog
/gs  { gsave } bind def
/gr  { grestore } bind def
/ep  { showpage gr gr } bind def
/m   { moveto } bind def
/l  { rlineto } bind def
/np  { newpath } bind def
/cp  { closepath } bind def
/f   { fill } bind def
/o   { stroke } bind def
/c   { newpath 0 360 arc } bind def
/r   { 4 2 roll moveto 1 copy 3 -1 roll exch 0 exch rlineto 0 rlineto -1 mul 0 exch rlineto closepath } bind def
/p1  { stroke } bind def
/p2  { gsave bg fill grestore newpath } bind def
/p3  { gsave bg fill grestore stroke } bind def
/p6  { gsave bg eofill grestore newpath } bind def
/p7  { gsave bg eofill grestore stroke } bind def
/t   { 5 -2 roll moveto gsave rotate
       1 index stringwidth pop
       mul neg 0 rmoveto show grestore } bind def
/ta  { 4 -2 roll moveto gsave rotate show } bind def
/tb  { 2 -1 roll 0 rmoveto show } bind def
/cl  { grestore gsave newpath 3 index 3 index moveto 1 index
       4 -1 roll lineto  exch 1 index lineto lineto
       closepath clip newpath } bind def
/rgb { setrgbcolor } bind def
/s   { scalefont setfont } bind def
% end   .ps.prolog
/sRGB { [ /CIEBasedABC
          << /DecodeLMN
               [ { dup 0.03928 le
                        {12.92321 div}
                        {0.055 add 1.055 div 2.4 exp }
                     ifelse
                 } bind dup dup
               ]
             /MatrixLMN [0.412457 0.212673 0.019334
                         0.357576 0.715152 0.119192
                         0.180437 0.072175 0.950301]
             /WhitePoint [0.9505 1.0 1.0890]
           >>
         ] setcolorspace } bind def
/srgb { setcolor } bind def
%%IncludeResource: font Helvetica
/Helvetica findfont
dup length dict begin
  {1 index /FID ne {def} {pop pop} ifelse} forall
  /Encoding ISOLatin1Encoding def
  currentdict
  end
/Font1 exch definefont pop
%%IncludeResource: font Helvetica-Bold
/Helvetica-Bold findfont
dup length dict begin
  {1 index /FID ne {def} {pop pop} ifelse} forall
  /Encoding ISOLatin1Encoding def
  currentdict
  end
/Font2 exch definefont pop
%%IncludeResource: font Helvetica-Oblique
/Helvetica-Oblique findfont
dup length dict begin
  {1 index /FID ne {def} {pop pop} ifelse} forall
  /Encoding ISOLatin1Encoding def
  currentdict
  end
/Font3 exch definefont pop
%%IncludeResource: font Helvetica-BoldOblique
/Helvetica-BoldOblique findfont
dup length dict begin
  {1 index /FID ne {def} {pop pop} ifelse} forall
  /Encoding ISOLatin1Encoding def
  currentdict
  end
/Font4 exch definefont pop
%%IncludeResource: font Symbol
/Symbol findfont
dup length dict begin
  {1 index /FID ne {def} {pop pop} ifelse} forall
  currentdict
  end
/Font5 exch definefont pop
%%EndProlog
%%Page: 1 1
bp
0.00 0.00 432.00 576.00 cl
0.00 0.00 432.00 576.00 cl
0.00 0.00 432.00 576.00 cl
/Font1 findfont 12 s
0 0 0 srgb
48.00 508.72 (PCP-ETH) 0 0 t
48.00 494.89 (Blitzlicht-Photolyse) 0 0 t
/Font1 findfont 9 s
48.00 457.54 (File: Dy) 0 ta
-0.180 (e_1_3_V3_900V) tb
-1.125 (.dat) tb gr
48.00 334.87 (T) 0 ta
-1.080 (ue Apr  9 22:08:52 2019) tb gr
48.00 430.87 (Fitfunktion:  a + b * e) 0 ta
-0.270 (xp\(-c * t\)) tb gr
48.00 420.50 (t-Inter) 0 ta
0.270 (v) tb
-0.225 (all: 240.000 ... 5160.000 ms) tb gr
48.00 410.14 (P) 0 ta
-0.360 (ar) tb
-0.090 (ameter \(Standardabw) tb
-0.090 (eichung\):) tb gr
48.00 399.77 (  a = 0.00342 \(0.00027\)) 0 0 t
48.00 389.40 (  b = 0.39525 \(0.00133\)) 0 0 t
48.00 379.03 (  c = 1.158e+00 \(5.696e-03\) s^-1) 0 0 t
48.00 368.66 (  tau = 8.637e-01 \(4.249e-03\) s) 0 0 t
216.00 345.60 388.80 518.40 cl
0 0 0 srgb
0.75 setlinewidth
[] 0 setdash
1 setlinecap
1 setlinejoin
10.00 setmiterlimit
np
222.40 510.92 m
0.15 -0.10 l
0.14 -0.48 l
0.15 0.48 l
0.14 0.23 l
0.15 -0.13 l
0.14 0.13 l
0.15 0.11 l
0.14 -0.71 l
0.15 0.47 l
0.15 0.48 l
0.14 -0.58 l
0.15 0 l
0.14 0.34 l
0.15 -0.95 l
0.14 0.95 l
0.15 -0.34 l
0.14 0.71 l
0.15 -0.61 l
0.15 -0.34 l
0.14 0 l
0.15 0.58 l
0.14 -0.34 l
0.15 0.47 l
0.14 -0.60 l
0.15 0.13 l
0.15 0 l
0.14 0.34 l
0.15 -0.47 l
0.14 0.23 l
0.15 -0.71 l
0.14 1.08 l
0.15 0 l
0.14 -0.84 l
0.15 0.60 l
0.15 0.11 l
0.14 -0.71 l
0.15 0.60 l
0.14 0 l
0.15 0 l
0.14 0 l
0.15 -0.23 l
0.14 -0.13 l
0.15 0 l
0.15 0.47 l
0.14 -0.24 l
0.15 -0.34 l
0.14 0.47 l
0.15 -0.36 l
0.14 0.47 l
0.15 -0.24 l
0.14 0.71 l
0.15 -0.71 l
0.15 -0.23 l
0.14 0.13 l
0.15 0.23 l
0.14 -0.13 l
0.15 0.24 l
0.14 -0.71 l
0.15 0.60 l
0.15 -0.13 l
0.14 -0.34 l
0.15 0.11 l
0.14 0.94 l
0.15 -0.34 l
0.14 -0.47 l
0.15 0.23 l
0.14 0.11 l
0.15 -0.24 l
0.15 -0.47 l
0.14 0.24 l
0.15 -0.11 l
0.14 0.82 l
0.15 0 l
0.14 -0.48 l
0.15 -0.23 l
0.14 -0.71 l
0.15 0.94 l
0.15 -0.23 l
0.14 0.23 l
0.15 -0.47 l
0.14 0.60 l
0.15 -0.23 l
0.14 0.34 l
0.15 -0.47 l
0.14 -0.35 l
0.15 0.48 l
0.15 0.23 l
0.14 -0.13 l
0.15 0.37 l
0.14 -0.47 l
0.15 -0.24 l
0.14 0.47 l
0.15 -0.60 l
0.15 0.71 l
0.14 -0.58 l
0.15 0.11 l
0.14 0.47 l
0.15 -0.58 l
0.14 0.34 l
236.96 399.79 lineto
0.14 2.24 l
0.15 1.31 l
0.15 1.42 l
0.14 0.94 l
0.15 2.00 l
0.14 2.13 l
0.15 0.94 l
0.14 1.19 l
0.15 1.05 l
0.14 1.89 l
0.15 1.42 l
0.15 0.47 l
0.14 1.16 l
0.15 0.60 l
0.14 1.66 l
0.15 1.42 l
0.14 0.34 l
0.15 0.82 l
0.14 0.60 l
0.15 1.89 l
0.15 1.29 l
0.14 0.13 l
0.15 1.05 l
0.14 0.58 l
0.15 0.95 l
0.14 1.66 l
0.15 1.07 l
0.15 0 l
0.14 1.05 l
0.15 -0.13 l
0.14 1.90 l
0.15 0.36 l
0.14 1.06 l
0.15 0.84 l
0.14 0.92 l
0.15 0.47 l
0.15 0.24 l
0.14 0.47 l
0.15 1.89 l
0.14 0.24 l
0.15 0.13 l
0.14 1.16 l
0.15 1.42 l
0.14 0.13 l
0.15 0.81 l
0.15 0 l
0.14 1.32 l
0.15 0.57 l
0.14 0.61 l
0.15 -0.61 l
0.14 2.00 l
0.15 0.37 l
0.14 0.34 l
0.15 -0.10 l
0.15 2.13 l
0.14 -0.61 l
0.15 1.42 l
0.14 0.24 l
0.15 0.10 l
0.14 1.32 l
0.15 0.10 l
0.15 0.47 l
0.14 -0.10 l
0.15 2.23 l
0.14 0.14 l
0.15 0 l
0.14 0.34 l
0.15 0.58 l
0.14 0.47 l
0.15 1.08 l
0.15 0.34 l
0.14 0.23 l
0.15 1.19 l
0.14 0.13 l
0.15 -0.47 l
0.14 1.18 l
0.15 0.81 l
0.14 0 l
0.15 0.58 l
0.15 -0.23 l
0.14 1.07 l
0.15 0.82 l
0.14 0.37 l
0.15 0.23 l
0.14 1.29 l
0.15 -1.05 l
0.14 0.81 l
0.15 0.84 l
0.15 -0.13 l
0.14 0.48 l
0.15 0.94 l
0.14 0.48 l
0.15 -0.24 l
0.14 0.71 l
0.15 0.58 l
0.15 0 l
0.14 0.13 l
0.15 0.81 l
0.14 0.24 l
251.52 471.76 lineto
0.14 0.84 l
0.15 0.44 l
0.14 0.24 l
0.15 0.13 l
0.15 0.48 l
0.14 -0.48 l
0.15 0.82 l
0.14 0.94 l
0.15 0 l
0.14 0.24 l
0.15 -0.10 l
0.14 1.18 l
0.15 -0.24 l
0.15 0.11 l
0.14 0.60 l
0.15 0.34 l
0.14 0.37 l
0.15 -0.24 l
0.14 0.82 l
0.15 0.47 l
0.14 -0.47 l
0.15 0.95 l
0.15 0.71 l
0.14 -0.24 l
0.15 0.24 l
0.14 0 l
0.15 0 l
0.14 0.57 l
0.15 0.71 l
0.14 0 l
0.15 0.48 l
0.15 0.23 l
0.14 0.13 l
0.15 0.58 l
0.14 -0.10 l
0.15 0.34 l
0.14 0.58 l
0.15 -0.48 l
0.15 0.48 l
0.14 0.37 l
0.15 -0.14 l
0.14 0.71 l
0.15 0.61 l
0.14 0.10 l
0.15 -0.23 l
0.14 0.84 l
0.15 -0.47 l
0.15 0.57 l
0.14 0.24 l
0.15 -0.24 l
0.14 0.61 l
0.15 0.23 l
0.14 0.48 l
0.15 -0.13 l
0.14 0.94 l
0.15 -0.47 l
0.15 -0.24 l
0.14 0 l
0.15 0.95 l
0.14 0 l
0.15 0.10 l
0.14 0.37 l
0.15 0.48 l
0.14 0 l
0.15 0.47 l
0.15 0 l
0.14 -0.61 l
0.15 0.95 l
0.14 0.84 l
0.15 -0.37 l
0.14 0.24 l
0.15 -0.34 l
0.15 0.23 l
0.14 0.48 l
0.15 0.23 l
0.14 0.24 l
0.15 -0.13 l
0.14 0.71 l
0.15 -0.11 l
0.14 -0.23 l
0.15 0.71 l
0.15 0 l
0.14 -0.13 l
0.15 0.60 l
0.14 0 l
0.15 0.11 l
0.14 0 l
0.15 0.34 l
0.14 -0.11 l
0.15 0.48 l
0.15 0.10 l
0.14 0.47 l
0.15 -0.94 l
0.14 0.47 l
0.15 0.60 l
0.14 0.11 l
0.15 -0.11 l
0.14 0 l
0.15 0.35 l
266.08 495.60 lineto
0.14 0.10 l
0.15 0.37 l
0.14 -0.71 l
0.15 0 l
0.14 0.34 l
0.15 0.13 l
0.15 0.48 l
0.14 0.23 l
0.15 -0.36 l
0.14 0.47 l
0.15 -0.11 l
0.14 0.11 l
0.15 0.13 l
0.14 0 l
0.15 0.47 l
0.15 -0.23 l
0.14 0.58 l
0.15 0 l
0.14 -0.24 l
0.15 0.37 l
0.14 0 l
0.15 0.34 l
0.14 -0.34 l
0.15 0.44 l
0.15 -0.10 l
0.14 0.58 l
0.15 -0.34 l
0.14 0.57 l
0.15 -0.10 l
0.14 0 l
0.15 0.23 l
0.14 -0.36 l
0.15 1.18 l
0.15 -0.11 l
0.14 0.24 l
0.15 -1.08 l
0.14 0.61 l
0.15 0 l
0.14 0.10 l
0.15 0.71 l
0.15 -0.58 l
0.14 0.58 l
0.15 -0.34 l
0.14 0.34 l
0.15 0 l
0.14 0.37 l
0.15 0.34 l
0.14 -0.10 l
0.15 -0.37 l
0.15 0.47 l
0.14 -0.34 l
0.15 0.47 l
0.14 0 l
0.15 0 l
0.14 0 l
0.15 0.58 l
0.14 -0.10 l
0.15 0.34 l
0.15 -0.11 l
0.14 0.48 l
0.15 -1.08 l
0.14 0.47 l
0.15 0.37 l
0.14 0 l
0.15 -0.13 l
0.14 0 l
0.15 0.47 l
0.15 -0.34 l
0.14 0.82 l
0.15 0 l
0.14 -0.48 l
0.15 0 l
0.14 1.05 l
0.15 -0.57 l
0.15 -0.11 l
0.14 -0.13 l
0.15 0.58 l
0.14 -0.45 l
0.15 0.68 l
0.14 -0.68 l
0.15 0.58 l
0.14 0.23 l
0.15 -0.36 l
0.15 0.23 l
0.14 -0.34 l
0.15 0.47 l
0.14 0.24 l
0.15 0 l
0.14 0.24 l
0.15 -0.13 l
0.14 0.47 l
0.15 -0.24 l
0.15 0.24 l
0.14 0.37 l
0.15 -0.37 l
0.14 0 l
0.15 -0.34 l
0.14 0.47 l
0.15 0 l
280.63 504.43 lineto
0.15 0 l
0.15 0 l
0.14 0.47 l
0.15 -0.10 l
0.14 0 l
0.15 0.58 l
0.14 -0.24 l
0.15 -0.71 l
0.15 0.84 l
0.14 0.24 l
0.15 -0.61 l
0.14 0.37 l
0.15 0.47 l
0.14 -0.36 l
0.15 0 l
0.14 -0.11 l
0.15 0.58 l
0.15 -0.24 l
0.14 -0.10 l
0.15 -0.24 l
0.14 0.24 l
0.15 0.10 l
0.14 -0.34 l
0.15 0.24 l
0.14 0.34 l
0.15 0.24 l
0.15 0.13 l
0.14 -0.13 l
0.15 -0.11 l
0.14 0.11 l
0.15 0.71 l
0.14 -0.35 l
0.15 -0.23 l
0.14 0.10 l
0.15 0.37 l
0.15 -0.13 l
0.14 -0.24 l
0.15 -0.10 l
0.14 0.34 l
0.15 0.13 l
0.14 -0.24 l
0.15 0.58 l
0.14 -0.71 l
0.15 0.37 l
0.15 -0.13 l
0.14 0.37 l
0.15 -0.24 l
0.14 0.24 l
0.15 0.23 l
0.14 -0.23 l
0.15 0.10 l
0.15 0.13 l
0.14 0.24 l
0.15 -0.37 l
0.14 -0.10 l
0.15 0.58 l
0.14 0.13 l
0.15 -0.48 l
0.14 0.11 l
0.15 0.37 l
0.15 0 l
0.14 0.44 l
0.15 -0.44 l
0.14 0.10 l
0.15 0 l
0.14 0 l
0.15 0.13 l
0.14 -0.23 l
0.15 0 l
0.15 -0.24 l
0.14 0.58 l
0.15 -0.11 l
0.14 -0.36 l
0.15 0.47 l
0.14 0 l
0.15 -0.11 l
0.14 0.21 l
0.15 -0.44 l
0.15 0.57 l
0.14 -0.13 l
0.15 0.24 l
0.14 -0.11 l
0.15 -0.13 l
0.14 0.13 l
0.15 0.11 l
0.15 0.47 l
0.14 -0.23 l
0.15 -0.69 l
0.14 0.34 l
0.15 0.48 l
0.14 -0.13 l
0.15 0.13 l
0.14 -0.48 l
0.15 0.82 l
0.15 -0.47 l
0.14 -0.24 l
0.15 0.24 l
0.14 0.23 l
0.15 -0.34 l
295.19 507.87 lineto
0.15 0.82 l
0.14 0.23 l
0.15 -0.94 l
0.15 1.05 l
0.14 -0.11 l
0.15 0.24 l
0.14 0.24 l
0.15 -0.24 l
0.14 -0.13 l
0.15 -0.24 l
0.14 0.24 l
0.15 -0.34 l
0.15 0.10 l
0.14 -0.10 l
0.15 0.34 l
0.14 0.24 l
0.15 -0.48 l
0.14 0.24 l
0.15 -0.11 l
0.15 0.35 l
0.14 -0.35 l
0.15 0.35 l
0.14 0.36 l
0.15 -0.60 l
0.14 0 l
0.15 0.47 l
0.14 -0.10 l
0.15 -0.13 l
0.15 -0.11 l
0.14 0.24 l
0.15 0 l
0.14 0.23 l
0.15 -0.36 l
0.14 0.60 l
0.15 -0.71 l
0.14 -0.13 l
0.15 0.84 l
0.15 -0.37 l
0.14 0 l
0.15 0.13 l
0.14 0 l
0.15 0.11 l
0.14 0.13 l
0.15 -0.60 l
0.14 -0.24 l
0.15 0.84 l
0.15 0 l
0.14 0.11 l
0.15 -0.24 l
0.14 -0.11 l
0.15 0.24 l
0.14 -0.37 l
0.15 -0.10 l
0.15 0.47 l
0.14 0.11 l
0.15 0.13 l
0.14 0.23 l
0.15 -0.36 l
0.14 0 l
0.15 -0.24 l
0.14 0.13 l
0.15 0.34 l
0.15 0.24 l
0.14 0 l
0.15 -0.34 l
0.14 -0.24 l
0.15 0.24 l
0.14 0.58 l
0.15 -0.58 l
0.14 0.10 l
0.15 -0.23 l
0.15 0.13 l
0.14 0.10 l
0.15 -0.23 l
0.14 0.47 l
0.15 0.13 l
0.14 -0.47 l
0.15 0.10 l
0.14 0.37 l
0.15 0 l
0.15 -0.60 l
0.14 0.36 l
0.15 0 l
0.14 -0.36 l
0.15 0.71 l
0.14 -0.71 l
0.15 0.23 l
0.15 -0.10 l
0.14 0.34 l
0.15 0 l
0.14 -0.34 l
0.15 0 l
0.14 0.71 l
0.15 -0.48 l
0.14 0 l
0.15 0.11 l
0.15 -0.34 l
0.14 0.34 l
0.15 -0.24 l
309.75 510.34 lineto
0.15 0.11 l
0.14 -0.58 l
0.15 0.24 l
0.14 0.34 l
0.15 0.37 l
0.15 -0.24 l
0.14 -0.37 l
0.15 0.13 l
0.14 0.58 l
0.15 -0.58 l
0.14 0.48 l
0.15 -0.24 l
0.14 0.11 l
0.15 -0.48 l
0.15 0.24 l
0.14 0.13 l
0.15 -0.13 l
0.14 0 l
0.15 -0.11 l
0.14 0.24 l
0.15 -0.13 l
0.15 -0.34 l
0.14 0.10 l
0.15 0.37 l
0.14 -0.47 l
0.15 0.23 l
0.14 0.11 l
0.15 0.47 l
0.14 -0.34 l
0.15 0.24 l
0.15 0.23 l
0.14 -0.47 l
0.15 0.58 l
0.14 -0.24 l
0.15 0 l
0.14 -0.47 l
0.15 0.37 l
0.14 0 l
0.15 0.58 l
0.15 -1.06 l
0.14 0.11 l
0.15 0.37 l
0.14 0.34 l
0.15 -0.58 l
0.14 0.47 l
0.15 -0.47 l
0.14 0 l
0.15 0.11 l
0.15 0.36 l
0.14 -0.71 l
0.15 0.24 l
0.14 0.58 l
0.15 -0.58 l
0.14 0.34 l
0.15 0.37 l
0.15 0.11 l
0.14 -0.58 l
0.15 0.34 l
0.14 -0.24 l
0.15 -0.23 l
0.14 0 l
0.15 -0.11 l
0.14 0.24 l
0.15 -0.48 l
0.15 0.24 l
0.14 0.34 l
0.15 0.13 l
0.14 -0.23 l
0.15 0 l
0.14 0.47 l
0.15 -0.84 l
0.14 0.60 l
0.15 -0.36 l
0.15 0 l
0.14 -0.11 l
0.15 -0.13 l
0.14 0.84 l
0.15 -0.47 l
0.14 0.10 l
0.15 0.13 l
0.14 0.58 l
0.15 -0.94 l
0.15 0 l
0.14 -0.24 l
0.15 0.47 l
0.14 -0.23 l
0.15 0.60 l
0.14 -0.24 l
0.15 -0.60 l
0.14 0.47 l
0.15 -0.23 l
0.15 0.47 l
0.14 -0.11 l
0.15 0 l
0.14 -0.23 l
0.15 0.47 l
0.14 -0.13 l
0.15 0.24 l
0.15 -0.35 l
324.31 511.29 lineto
0.15 -0.37 l
0.14 0.71 l
0.15 -0.34 l
0.14 -0.13 l
0.15 -0.11 l
0.14 -0.36 l
0.15 0.36 l
0.15 -0.23 l
0.14 -0.13 l
0.15 0.36 l
0.14 -0.23 l
0.15 -0.13 l
0.14 0.47 l
0.15 -0.11 l
0.14 -0.23 l
0.15 -0.24 l
0.15 0.47 l
0.14 0.35 l
0.15 0.13 l
0.14 -0.37 l
0.15 0.47 l
0.14 -0.47 l
0.15 -0.58 l
0.14 0.11 l
0.15 0.36 l
0.15 0.11 l
0.14 0.37 l
0.15 -0.37 l
0.14 0.47 l
0.15 -0.47 l
0.14 -0.11 l
0.15 -0.23 l
0.15 0.34 l
0.14 -0.11 l
0.15 -0.47 l
0.14 1.05 l
0.15 -0.47 l
0.14 0 l
0.15 -0.24 l
0.14 0 l
0.15 0.48 l
0.15 -1.06 l
0.14 0.58 l
0.15 0.71 l
0.14 -0.47 l
0.15 0 l
0.14 -0.24 l
0.15 0.48 l
0.14 -0.58 l
0.15 0.81 l
0.15 -0.71 l
0.14 0 l
0.15 0.24 l
0.14 -0.24 l
0.15 0.37 l
0.14 -0.13 l
0.15 0.37 l
0.14 -0.48 l
0.15 -0.13 l
0.15 0.24 l
0.14 0.24 l
0.15 0 l
0.14 -0.11 l
0.15 -0.24 l
0.14 0 l
0.15 0.24 l
0.15 0 l
0.14 -0.60 l
0.15 0.36 l
0.14 0.11 l
0.15 0.47 l
0.14 -0.47 l
0.15 -0.11 l
0.14 0.48 l
0.15 -0.37 l
0.15 0.24 l
0.14 -0.48 l
0.15 0.13 l
0.14 0.11 l
0.15 0.24 l
0.14 -0.35 l
0.15 0.58 l
0.14 -0.23 l
0.15 -0.48 l
0.15 0.24 l
0.14 -0.34 l
0.15 0.58 l
0.14 0 l
0.15 -0.58 l
0.14 0.34 l
0.15 0.24 l
0.14 -0.35 l
0.15 -0.13 l
0.15 0.13 l
0.14 0.24 l
0.15 0.24 l
0.14 -0.71 l
0.15 0.47 l
0.14 -0.24 l
338.87 511.16 lineto
0.15 0 l
0.14 0.37 l
0.15 -0.37 l
0.14 0.13 l
0.15 -0.37 l
0.14 0.71 l
0.15 -0.58 l
0.14 -0.13 l
0.15 -0.10 l
0.15 0.34 l
0.14 -0.24 l
0.15 0.37 l
0.14 -0.60 l
0.15 0.60 l
0.14 0 l
0.15 -0.37 l
0.14 1.08 l
0.15 -1.08 l
0.15 0 l
0.14 -0.34 l
0.15 0.11 l
0.14 0.47 l
0.15 0.13 l
0.14 -0.95 l
0.15 0.24 l
0.14 0.58 l
0.15 0.24 l
0.15 0.47 l
0.14 -0.71 l
0.15 -0.24 l
0.14 0.13 l
0.15 0.11 l
0.14 0 l
0.15 0.47 l
0.15 -0.94 l
0.14 1.07 l
0.15 -0.47 l
0.14 -0.47 l
0.15 0.58 l
0.14 -0.58 l
0.15 0.10 l
0.14 0.13 l
0.15 0 l
0.15 -0.13 l
0.14 0.13 l
0.15 0 l
0.14 -0.23 l
0.15 0 l
0.14 0.23 l
0.15 0 l
0.14 -0.23 l
0.15 0.47 l
0.15 -0.13 l
0.14 -0.24 l
0.15 0.48 l
0.14 -0.48 l
0.15 -0.23 l
0.14 0.71 l
0.15 -0.48 l
0.14 0 l
0.15 0.13 l
0.15 0.24 l
0.14 -0.24 l
0.15 0 l
0.14 0.24 l
0.15 -0.60 l
0.14 0 l
0.15 0.71 l
0.15 -0.11 l
0.14 -0.24 l
0.15 0.11 l
0.14 0.24 l
0.15 -0.82 l
0.14 0.71 l
0.15 0 l
0.14 -0.47 l
0.15 0.34 l
0.15 0.24 l
0.14 -0.48 l
0.15 0.61 l
0.14 -0.37 l
0.15 -0.58 l
0.14 0.34 l
0.15 0.24 l
0.14 -0.11 l
0.15 0 l
0.15 -0.47 l
0.14 0.11 l
0.15 0.36 l
0.14 0.24 l
0.15 -0.37 l
0.14 0.24 l
0.15 0.24 l
0.14 -0.24 l
0.15 -0.47 l
0.15 0.47 l
0.14 -0.34 l
0.15 0.10 l
0.14 0.24 l
353.43 510.82 lineto
0.14 0.94 l
0.15 -0.84 l
0.14 0 l
0.15 0 l
0.15 0.13 l
0.14 -0.36 l
0.15 0.23 l
0.14 0.13 l
0.15 0.35 l
0.14 -0.58 l
0.15 -0.24 l
0.15 0.11 l
0.14 0.13 l
0.15 0.47 l
0.14 0.11 l
0.15 -0.71 l
0.14 0.36 l
0.15 0 l
0.14 0.11 l
0.15 0.13 l
0.15 -0.13 l
0.14 -0.34 l
0.15 0.23 l
0.14 0.11 l
0.15 -0.24 l
0.14 0 l
0.15 0 l
0.14 -0.23 l
0.15 0.13 l
0.15 0.23 l
0.14 0.24 l
0.15 -0.60 l
0.14 0 l
0.15 0.13 l
0.14 0 l
0.15 0.10 l
0.14 -0.23 l
0.15 0.23 l
0.15 -0.34 l
0.14 0.34 l
0.15 -0.23 l
0.14 0.36 l
0.15 -0.23 l
0.14 0.10 l
0.15 0.24 l
0.15 -0.24 l
0.14 -0.23 l
0.15 0.36 l
0.14 0 l
0.15 -0.47 l
0.14 0.47 l
0.15 -0.13 l
0.14 0 l
0.15 0 l
0.15 0.13 l
0.14 0.11 l
0.15 -0.24 l
0.14 -0.10 l
0.15 0 l
0.14 0.71 l
0.15 -0.71 l
0.14 -0.13 l
0.15 0.23 l
0.15 0.13 l
0.14 0 l
0.15 -0.23 l
0.14 0.34 l
0.15 -0.11 l
0.14 -0.60 l
0.15 0.60 l
0.14 -0.23 l
0.15 0.10 l
0.15 -0.23 l
0.14 0.36 l
0.15 0.48 l
0.14 -0.61 l
0.15 0.71 l
0.14 -0.47 l
0.15 -0.47 l
0.15 0.13 l
0.14 -0.24 l
0.15 0.82 l
0.14 -0.24 l
0.15 -0.58 l
0.14 -0.37 l
0.15 0.48 l
0.14 0.13 l
0.15 0.34 l
0.15 -0.34 l
0.14 0.23 l
0.15 0.11 l
0.14 -0.34 l
0.15 0 l
0.14 0 l
0.15 0.10 l
0.14 -0.23 l
0.15 0.71 l
0.15 -0.24 l
0.14 -0.82 l
currentpoint o m
367.99 511.16 lineto
0.14 -0.11 l
0.15 -0.36 l
0.14 0.71 l
0.15 -0.48 l
0.14 -0.23 l
0.15 0.23 l
0.15 0 l
0.14 0 l
0.15 0 l
0.14 -0.10 l
0.15 0.10 l
0.14 0.13 l
0.15 -0.23 l
0.15 0.10 l
0.14 -0.23 l
0.15 0.47 l
0.14 0.24 l
0.15 -0.58 l
0.14 0 l
0.15 0.10 l
0.14 -0.34 l
0.15 0.47 l
0.15 -0.47 l
0.14 0.24 l
0.15 -0.37 l
0.14 0.47 l
0.15 -0.10 l
0.14 -0.37 l
0.15 0.60 l
0.14 -0.60 l
0.15 -0.11 l
0.15 0.48 l
0.14 -0.24 l
0.15 0.11 l
0.14 0.47 l
0.15 -0.71 l
0.14 0 l
0.15 0.60 l
0.14 0.35 l
0.15 -0.48 l
0.15 -0.71 l
0.14 0.61 l
0.15 -0.61 l
0.14 0.84 l
0.15 -0.36 l
0.14 0.13 l
0.15 -0.61 l
0.15 0.37 l
0.14 0.34 l
0.15 -0.34 l
0.14 -0.13 l
0.15 0 l
0.14 -0.34 l
0.15 0.23 l
0.14 0.35 l
0.15 -0.58 l
0.15 0.58 l
0.14 0 l
0.15 0.13 l
0.14 0 l
0.15 -0.61 l
0.14 0.13 l
0.15 0.11 l
0.14 0.24 l
0.15 0.13 l
0.15 -0.48 l
0.14 0.58 l
0.15 -0.23 l
0.14 -0.35 l
0.15 0.35 l
0.14 0.23 l
0.15 -0.58 l
0.14 0.24 l
0.15 -0.24 l
0.15 0.35 l
0.14 0.60 l
0.15 -0.37 l
0.14 -0.23 l
0.15 0 l
0.14 0 l
0.15 0.36 l
0.15 -0.23 l
0.14 -0.37 l
0.15 -0.11 l
0.14 0.71 l
0.15 0.35 l
0.14 -0.71 l
0.15 0 l
0.14 0 l
0.15 0 l
0.15 0.47 l
0.14 0.13 l
0.15 -1.18 l
0.14 0.34 l
0.15 -0.11 l
0.14 0.35 l
0.15 -0.35 l
0.14 0.82 l
0.15 -0.24 l
o
/bg { 1 1 1 srgb } def
222.40 510.92 0.43 c p3
222.55 510.82 0.43 c p3
222.69 510.34 0.43 c p3
222.84 510.82 0.43 c p3
222.98 511.05 0.43 c p3
223.13 510.92 0.43 c p3
223.27 511.05 0.43 c p3
223.42 511.16 0.43 c p3
223.56 510.45 0.43 c p3
223.71 510.92 0.43 c p3
223.86 511.40 0.43 c p3
224.00 510.82 0.43 c p3
224.15 510.82 0.43 c p3
224.29 511.16 0.43 c p3
224.44 510.21 0.43 c p3
224.58 511.16 0.43 c p3
224.73 510.82 0.43 c p3
224.87 511.53 0.43 c p3
225.02 510.92 0.43 c p3
225.17 510.58 0.43 c p3
225.31 510.58 0.43 c p3
225.46 511.16 0.43 c p3
225.60 510.82 0.43 c p3
225.75 511.29 0.43 c p3
225.89 510.69 0.43 c p3
226.04 510.82 0.43 c p3
226.19 510.82 0.43 c p3
226.33 511.16 0.43 c p3
226.48 510.69 0.43 c p3
226.62 510.92 0.43 c p3
226.77 510.21 0.43 c p3
226.91 511.29 0.43 c p3
227.06 511.29 0.43 c p3
227.20 510.45 0.43 c p3
227.35 511.05 0.43 c p3
227.50 511.16 0.43 c p3
227.64 510.45 0.43 c p3
227.79 511.05 0.43 c p3
227.93 511.05 0.43 c p3
228.08 511.05 0.43 c p3
228.22 511.05 0.43 c p3
228.37 510.82 0.43 c p3
228.51 510.69 0.43 c p3
228.66 510.69 0.43 c p3
228.81 511.16 0.43 c p3
228.95 510.92 0.43 c p3
229.10 510.58 0.43 c p3
229.24 511.05 0.43 c p3
229.39 510.69 0.43 c p3
229.53 511.16 0.43 c p3
229.68 510.92 0.43 c p3
229.82 511.63 0.43 c p3
229.97 510.92 0.43 c p3
230.12 510.69 0.43 c p3
230.26 510.82 0.43 c p3
230.41 511.05 0.43 c p3
230.55 510.92 0.43 c p3
230.70 511.16 0.43 c p3
230.84 510.45 0.43 c p3
230.99 511.05 0.43 c p3
231.14 510.92 0.43 c p3
231.28 510.58 0.43 c p3
231.43 510.69 0.43 c p3
231.57 511.63 0.43 c p3
231.72 511.29 0.43 c p3
231.86 510.82 0.43 c p3
232.01 511.05 0.43 c p3
232.15 511.16 0.43 c p3
232.30 510.92 0.43 c p3
232.45 510.45 0.43 c p3
232.59 510.69 0.43 c p3
232.74 510.58 0.43 c p3
232.88 511.40 0.43 c p3
233.03 511.40 0.43 c p3
233.17 510.92 0.43 c p3
233.32 510.69 0.43 c p3
233.46 509.98 0.43 c p3
233.61 510.92 0.43 c p3
233.76 510.69 0.43 c p3
233.90 510.92 0.43 c p3
234.05 510.45 0.43 c p3
234.19 511.05 0.43 c p3
234.34 510.82 0.43 c p3
234.48 511.16 0.43 c p3
234.63 510.69 0.43 c p3
234.77 510.34 0.43 c p3
234.92 510.82 0.43 c p3
235.07 511.05 0.43 c p3
235.21 510.92 0.43 c p3
235.36 511.29 0.43 c p3
235.50 510.82 0.43 c p3
235.65 510.58 0.43 c p3
235.79 511.05 0.43 c p3
235.94 510.45 0.43 c p3
236.09 511.16 0.43 c p3
236.23 510.58 0.43 c p3
236.38 510.69 0.43 c p3
236.52 511.16 0.43 c p3
236.67 510.58 0.43 c p3
236.81 510.92 0.43 c p3
236.96 399.79 0.43 c p3
237.10 402.03 0.43 c p3
237.25 403.34 0.43 c p3
237.40 404.76 0.43 c p3
237.54 405.70 0.43 c p3
237.69 407.70 0.43 c p3
237.83 409.83 0.43 c p3
237.98 410.77 0.43 c p3
238.12 411.96 0.43 c p3
238.27 413.01 0.43 c p3
238.41 414.90 0.43 c p3
238.56 416.32 0.43 c p3
238.71 416.79 0.43 c p3
238.85 417.95 0.43 c p3
239.00 418.55 0.43 c p3
239.14 420.21 0.43 c p3
239.29 421.63 0.43 c p3
239.43 421.97 0.43 c p3
239.58 422.79 0.43 c p3
239.72 423.39 0.43 c p3
239.87 425.28 0.43 c p3
240.02 426.57 0.43 c p3
240.16 426.70 0.43 c p3
240.31 427.75 0.43 c p3
240.45 428.33 0.43 c p3
240.60 429.28 0.43 c p3
240.74 430.94 0.43 c p3
240.89 432.01 0.43 c p3
241.04 432.01 0.43 c p3
241.18 433.06 0.43 c p3
241.33 432.93 0.43 c p3
241.47 434.83 0.43 c p3
241.62 435.19 0.43 c p3
241.76 436.25 0.43 c p3
241.91 437.09 0.43 c p3
242.05 438.01 0.43 c p3
242.20 438.48 0.43 c p3
242.35 438.72 0.43 c p3
242.49 439.19 0.43 c p3
242.64 441.08 0.43 c p3
242.78 441.32 0.43 c p3
242.93 441.45 0.43 c p3
243.07 442.61 0.43 c p3
243.22 444.03 0.43 c p3
243.36 444.16 0.43 c p3
243.51 444.97 0.43 c p3
243.66 444.97 0.43 c p3
243.80 446.29 0.43 c p3
243.95 446.86 0.43 c p3
244.09 447.47 0.43 c p3
244.24 446.86 0.43 c p3
244.38 448.86 0.43 c p3
244.53 449.23 0.43 c p3
244.67 449.57 0.43 c p3
244.82 449.47 0.43 c p3
244.97 451.60 0.43 c p3
245.11 450.99 0.43 c p3
245.26 452.41 0.43 c p3
245.40 452.65 0.43 c p3
245.55 452.75 0.43 c p3
245.69 454.07 0.43 c p3
245.84 454.17 0.43 c p3
245.99 454.64 0.43 c p3
246.13 454.54 0.43 c p3
246.28 456.77 0.43 c p3
246.42 456.91 0.43 c p3
246.57 456.91 0.43 c p3
246.71 457.25 0.43 c p3
246.86 457.83 0.43 c p3
247.00 458.30 0.43 c p3
247.15 459.38 0.43 c p3
247.30 459.72 0.43 c p3
247.44 459.95 0.43 c p3
247.59 461.14 0.43 c p3
247.73 461.27 0.43 c p3
247.88 460.80 0.43 c p3
248.02 461.98 0.43 c p3
248.17 462.79 0.43 c p3
248.31 462.79 0.43 c p3
248.46 463.37 0.43 c p3
248.61 463.14 0.43 c p3
248.75 464.21 0.43 c p3
248.90 465.03 0.43 c p3
249.04 465.40 0.43 c p3
249.19 465.63 0.43 c p3
249.33 466.92 0.43 c p3
249.48 465.87 0.43 c p3
249.62 466.68 0.43 c p3
249.77 467.52 0.43 c p3
249.92 467.39 0.43 c p3
250.06 467.87 0.43 c p3
250.21 468.81 0.43 c p3
250.35 469.29 0.43 c p3
250.50 469.05 0.43 c p3
250.64 469.76 0.43 c p3
250.79 470.34 0.43 c p3
250.94 470.34 0.43 c p3
251.08 470.47 0.43 c p3
251.23 471.28 0.43 c p3
251.37 471.52 0.43 c p3
251.52 471.76 0.43 c p3
251.66 472.60 0.43 c p3
251.81 473.04 0.43 c p3
251.95 473.28 0.43 c p3
252.10 473.41 0.43 c p3
252.25 473.89 0.43 c p3
252.39 473.41 0.43 c p3
252.54 474.23 0.43 c p3
252.68 475.17 0.43 c p3
252.83 475.17 0.43 c p3
252.97 475.41 0.43 c p3
253.12 475.31 0.43 c p3
253.26 476.49 0.43 c p3
253.41 476.25 0.43 c p3
253.56 476.36 0.43 c p3
253.70 476.96 0.43 c p3
253.85 477.30 0.43 c p3
253.99 477.67 0.43 c p3
254.14 477.43 0.43 c p3
254.28 478.25 0.43 c p3
254.43 478.72 0.43 c p3
254.57 478.25 0.43 c p3
254.72 479.20 0.43 c p3
254.87 479.91 0.43 c p3
255.01 479.67 0.43 c p3
255.16 479.91 0.43 c p3
255.30 479.91 0.43 c p3
255.45 479.91 0.43 c p3
255.59 480.48 0.43 c p3
255.74 481.19 0.43 c p3
255.88 481.19 0.43 c p3
256.03 481.67 0.43 c p3
256.18 481.90 0.43 c p3
256.32 482.03 0.43 c p3
256.47 482.61 0.43 c p3
256.61 482.51 0.43 c p3
256.76 482.85 0.43 c p3
256.90 483.43 0.43 c p3
257.05 482.95 0.43 c p3
257.20 483.43 0.43 c p3
257.34 483.80 0.43 c p3
257.49 483.66 0.43 c p3
257.63 484.37 0.43 c p3
257.78 484.98 0.43 c p3
257.92 485.08 0.43 c p3
258.07 484.85 0.43 c p3
258.21 485.69 0.43 c p3
258.36 485.22 0.43 c p3
258.51 485.79 0.43 c p3
258.65 486.03 0.43 c p3
258.80 485.79 0.43 c p3
258.94 486.40 0.43 c p3
259.09 486.63 0.43 c p3
259.23 487.11 0.43 c p3
259.38 486.98 0.43 c p3
259.52 487.92 0.43 c p3
259.67 487.45 0.43 c p3
259.82 487.21 0.43 c p3
259.96 487.21 0.43 c p3
260.11 488.16 0.43 c p3
260.25 488.16 0.43 c p3
260.40 488.26 0.43 c p3
260.54 488.63 0.43 c p3
260.69 489.11 0.43 c p3
260.83 489.11 0.43 c p3
260.98 489.58 0.43 c p3
261.13 489.58 0.43 c p3
261.27 488.97 0.43 c p3
261.42 489.92 0.43 c p3
261.56 490.76 0.43 c p3
261.71 490.39 0.43 c p3
261.85 490.63 0.43 c p3
262.00 490.29 0.43 c p3
262.15 490.52 0.43 c p3
262.29 491.00 0.43 c p3
262.44 491.23 0.43 c p3
262.58 491.47 0.43 c p3
262.73 491.34 0.43 c p3
262.87 492.05 0.43 c p3
263.02 491.94 0.43 c p3
263.16 491.71 0.43 c p3
263.31 492.42 0.43 c p3
263.46 492.42 0.43 c p3
263.60 492.29 0.43 c p3
263.75 492.89 0.43 c p3
263.89 492.89 0.43 c p3
264.04 493.00 0.43 c p3
264.18 493.00 0.43 c p3
264.33 493.34 0.43 c p3
264.47 493.23 0.43 c p3
264.62 493.71 0.43 c p3
264.77 493.81 0.43 c p3
264.91 494.28 0.43 c p3
265.06 493.34 0.43 c p3
265.20 493.81 0.43 c p3
265.35 494.41 0.43 c p3
265.49 494.52 0.43 c p3
265.64 494.41 0.43 c p3
265.78 494.41 0.43 c p3
265.93 494.76 0.43 c p3
266.08 495.60 0.43 c p3
266.22 495.70 0.43 c p3
266.37 496.07 0.43 c p3
266.51 495.36 0.43 c p3
266.66 495.36 0.43 c p3
266.80 495.70 0.43 c p3
266.95 495.83 0.43 c p3
267.10 496.31 0.43 c p3
267.24 496.54 0.43 c p3
267.39 496.18 0.43 c p3
267.53 496.65 0.43 c p3
267.68 496.54 0.43 c p3
267.82 496.65 0.43 c p3
267.97 496.78 0.43 c p3
268.11 496.78 0.43 c p3
268.26 497.25 0.43 c p3
268.41 497.02 0.43 c p3
268.55 497.60 0.43 c p3
268.70 497.60 0.43 c p3
268.84 497.36 0.43 c p3
268.99 497.73 0.43 c p3
269.13 497.73 0.43 c p3
269.28 498.07 0.43 c p3
269.42 497.73 0.43 c p3
269.57 498.17 0.43 c p3
269.72 498.07 0.43 c p3
269.86 498.65 0.43 c p3
270.01 498.31 0.43 c p3
270.15 498.88 0.43 c p3
270.30 498.78 0.43 c p3
270.44 498.78 0.43 c p3
270.59 499.01 0.43 c p3
270.73 498.65 0.43 c p3
270.88 499.83 0.43 c p3
271.03 499.72 0.43 c p3
271.17 499.96 0.43 c p3
271.32 498.88 0.43 c p3
271.46 499.49 0.43 c p3
271.61 499.49 0.43 c p3
271.75 499.59 0.43 c p3
271.90 500.30 0.43 c p3
272.05 499.72 0.43 c p3
272.19 500.30 0.43 c p3
272.34 499.96 0.43 c p3
272.48 500.30 0.43 c p3
272.63 500.30 0.43 c p3
272.77 500.67 0.43 c p3
272.92 501.01 0.43 c p3
273.06 500.91 0.43 c p3
273.21 500.54 0.43 c p3
273.36 501.01 0.43 c p3
273.50 500.67 0.43 c p3
273.65 501.14 0.43 c p3
273.79 501.14 0.43 c p3
273.94 501.14 0.43 c p3
274.08 501.14 0.43 c p3
274.23 501.72 0.43 c p3
274.37 501.62 0.43 c p3
274.52 501.96 0.43 c p3
274.67 501.85 0.43 c p3
274.81 502.33 0.43 c p3
274.96 501.25 0.43 c p3
275.10 501.72 0.43 c p3
275.25 502.09 0.43 c p3
275.39 502.09 0.43 c p3
275.54 501.96 0.43 c p3
275.68 501.96 0.43 c p3
275.83 502.43 0.43 c p3
275.98 502.09 0.43 c p3
276.12 502.91 0.43 c p3
276.27 502.91 0.43 c p3
276.41 502.43 0.43 c p3
276.56 502.43 0.43 c p3
276.70 503.48 0.43 c p3
276.85 502.91 0.43 c p3
277.00 502.80 0.43 c p3
277.14 502.67 0.43 c p3
277.29 503.25 0.43 c p3
277.43 502.80 0.43 c p3
277.58 503.48 0.43 c p3
277.72 502.80 0.43 c p3
277.87 503.38 0.43 c p3
278.01 503.61 0.43 c p3
278.16 503.25 0.43 c p3
278.31 503.48 0.43 c p3
278.45 503.14 0.43 c p3
278.60 503.61 0.43 c p3
278.74 503.85 0.43 c p3
278.89 503.85 0.43 c p3
279.03 504.09 0.43 c p3
279.18 503.96 0.43 c p3
279.32 504.43 0.43 c p3
279.47 504.19 0.43 c p3
279.62 504.43 0.43 c p3
279.76 504.80 0.43 c p3
279.91 504.43 0.43 c p3
280.05 504.43 0.43 c p3
280.20 504.09 0.43 c p3
280.34 504.56 0.43 c p3
280.49 504.56 0.43 c p3
280.63 504.43 0.43 c p3
280.78 504.43 0.43 c p3
280.93 504.43 0.43 c p3
281.07 504.90 0.43 c p3
281.22 504.80 0.43 c p3
281.36 504.80 0.43 c p3
281.51 505.38 0.43 c p3
281.65 505.14 0.43 c p3
281.80 504.43 0.43 c p3
281.95 505.27 0.43 c p3
282.09 505.51 0.43 c p3
282.24 504.90 0.43 c p3
282.38 505.27 0.43 c p3
282.53 505.74 0.43 c p3
282.67 505.38 0.43 c p3
282.82 505.38 0.43 c p3
282.96 505.27 0.43 c p3
283.11 505.85 0.43 c p3
283.26 505.61 0.43 c p3
283.40 505.51 0.43 c p3
283.55 505.27 0.43 c p3
283.69 505.51 0.43 c p3
283.84 505.61 0.43 c p3
283.98 505.27 0.43 c p3
284.13 505.51 0.43 c p3
284.27 505.85 0.43 c p3
284.42 506.09 0.43 c p3
284.57 506.22 0.43 c p3
284.71 506.09 0.43 c p3
284.86 505.98 0.43 c p3
285.00 506.09 0.43 c p3
285.15 506.80 0.43 c p3
285.29 506.45 0.43 c p3
285.44 506.22 0.43 c p3
285.58 506.32 0.43 c p3
285.73 506.69 0.43 c p3
285.88 506.56 0.43 c p3
286.02 506.32 0.43 c p3
286.17 506.22 0.43 c p3
286.31 506.56 0.43 c p3
286.46 506.69 0.43 c p3
286.60 506.45 0.43 c p3
286.75 507.03 0.43 c p3
286.89 506.32 0.43 c p3
287.04 506.69 0.43 c p3
287.19 506.56 0.43 c p3
287.33 506.93 0.43 c p3
287.48 506.69 0.43 c p3
287.62 506.93 0.43 c p3
287.77 507.16 0.43 c p3
287.91 506.93 0.43 c p3
288.06 507.03 0.43 c p3
288.21 507.16 0.43 c p3
288.35 507.40 0.43 c p3
288.50 507.03 0.43 c p3
288.64 506.93 0.43 c p3
288.79 507.51 0.43 c p3
288.93 507.64 0.43 c p3
289.08 507.16 0.43 c p3
289.22 507.27 0.43 c p3
289.37 507.64 0.43 c p3
289.52 507.64 0.43 c p3
289.66 508.08 0.43 c p3
289.81 507.64 0.43 c p3
289.95 507.74 0.43 c p3
290.10 507.74 0.43 c p3
290.24 507.74 0.43 c p3
290.39 507.87 0.43 c p3
290.53 507.64 0.43 c p3
290.68 507.64 0.43 c p3
290.83 507.40 0.43 c p3
290.97 507.98 0.43 c p3
291.12 507.87 0.43 c p3
291.26 507.51 0.43 c p3
291.41 507.98 0.43 c p3
291.55 507.98 0.43 c p3
291.70 507.87 0.43 c p3
291.84 508.08 0.43 c p3
291.99 507.64 0.43 c p3
292.14 508.21 0.43 c p3
292.28 508.08 0.43 c p3
292.43 508.32 0.43 c p3
292.57 508.21 0.43 c p3
292.72 508.08 0.43 c p3
292.86 508.21 0.43 c p3
293.01 508.32 0.43 c p3
293.16 508.79 0.43 c p3
293.30 508.56 0.43 c p3
293.45 507.87 0.43 c p3
293.59 508.21 0.43 c p3
293.74 508.69 0.43 c p3
293.88 508.56 0.43 c p3
294.03 508.69 0.43 c p3
294.17 508.21 0.43 c p3
294.32 509.03 0.43 c p3
294.47 508.56 0.43 c p3
294.61 508.32 0.43 c p3
294.76 508.56 0.43 c p3
294.90 508.79 0.43 c p3
295.05 508.45 0.43 c p3
295.19 507.87 0.43 c p3
295.34 508.69 0.43 c p3
295.48 508.92 0.43 c p3
295.63 507.98 0.43 c p3
295.78 509.03 0.43 c p3
295.92 508.92 0.43 c p3
296.07 509.16 0.43 c p3
296.21 509.40 0.43 c p3
296.36 509.16 0.43 c p3
296.50 509.03 0.43 c p3
296.65 508.79 0.43 c p3
296.79 509.03 0.43 c p3
296.94 508.69 0.43 c p3
297.09 508.79 0.43 c p3
297.23 508.69 0.43 c p3
297.38 509.03 0.43 c p3
297.52 509.27 0.43 c p3
297.67 508.79 0.43 c p3
297.81 509.03 0.43 c p3
297.96 508.92 0.43 c p3
298.11 509.27 0.43 c p3
298.25 508.92 0.43 c p3
298.40 509.27 0.43 c p3
298.54 509.63 0.43 c p3
298.69 509.03 0.43 c p3
298.83 509.03 0.43 c p3
298.98 509.50 0.43 c p3
299.12 509.40 0.43 c p3
299.27 509.27 0.43 c p3
299.42 509.16 0.43 c p3
299.56 509.40 0.43 c p3
299.71 509.40 0.43 c p3
299.85 509.63 0.43 c p3
300.00 509.27 0.43 c p3
300.14 509.87 0.43 c p3
300.29 509.16 0.43 c p3
300.43 509.03 0.43 c p3
300.58 509.87 0.43 c p3
300.73 509.50 0.43 c p3
300.87 509.50 0.43 c p3
301.02 509.63 0.43 c p3
301.16 509.63 0.43 c p3
301.31 509.74 0.43 c p3
301.45 509.87 0.43 c p3
301.60 509.27 0.43 c p3
301.74 509.03 0.43 c p3
301.89 509.87 0.43 c p3
302.04 509.87 0.43 c p3
302.18 509.98 0.43 c p3
302.33 509.74 0.43 c p3
302.47 509.63 0.43 c p3
302.62 509.87 0.43 c p3
302.76 509.50 0.43 c p3
302.91 509.40 0.43 c p3
303.06 509.87 0.43 c p3
303.20 509.98 0.43 c p3
303.35 510.11 0.43 c p3
303.49 510.34 0.43 c p3
303.64 509.98 0.43 c p3
303.78 509.98 0.43 c p3
303.93 509.74 0.43 c p3
304.07 509.87 0.43 c p3
304.22 510.21 0.43 c p3
304.37 510.45 0.43 c p3
304.51 510.45 0.43 c p3
304.66 510.11 0.43 c p3
304.80 509.87 0.43 c p3
304.95 510.11 0.43 c p3
305.09 510.69 0.43 c p3
305.24 510.11 0.43 c p3
305.38 510.21 0.43 c p3
305.53 509.98 0.43 c p3
305.68 510.11 0.43 c p3
305.82 510.21 0.43 c p3
305.97 509.98 0.43 c p3
306.11 510.45 0.43 c p3
306.26 510.58 0.43 c p3
306.40 510.11 0.43 c p3
306.55 510.21 0.43 c p3
306.69 510.58 0.43 c p3
306.84 510.58 0.43 c p3
306.99 509.98 0.43 c p3
307.13 510.34 0.43 c p3
307.28 510.34 0.43 c p3
307.42 509.98 0.43 c p3
307.57 510.69 0.43 c p3
307.71 509.98 0.43 c p3
307.86 510.21 0.43 c p3
308.01 510.11 0.43 c p3
308.15 510.45 0.43 c p3
308.30 510.45 0.43 c p3
308.44 510.11 0.43 c p3
308.59 510.11 0.43 c p3
308.73 510.82 0.43 c p3
308.88 510.34 0.43 c p3
309.02 510.34 0.43 c p3
309.17 510.45 0.43 c p3
309.32 510.11 0.43 c p3
309.46 510.45 0.43 c p3
309.61 510.21 0.43 c p3
309.75 510.34 0.43 c p3
309.90 510.45 0.43 c p3
310.04 509.87 0.43 c p3
310.19 510.11 0.43 c p3
310.33 510.45 0.43 c p3
310.48 510.82 0.43 c p3
310.63 510.58 0.43 c p3
310.77 510.21 0.43 c p3
310.92 510.34 0.43 c p3
311.06 510.92 0.43 c p3
311.21 510.34 0.43 c p3
311.35 510.82 0.43 c p3
311.50 510.58 0.43 c p3
311.64 510.69 0.43 c p3
311.79 510.21 0.43 c p3
311.94 510.45 0.43 c p3
312.08 510.58 0.43 c p3
312.23 510.45 0.43 c p3
312.37 510.45 0.43 c p3
312.52 510.34 0.43 c p3
312.66 510.58 0.43 c p3
312.81 510.45 0.43 c p3
312.96 510.11 0.43 c p3
313.10 510.21 0.43 c p3
313.25 510.58 0.43 c p3
313.39 510.11 0.43 c p3
313.54 510.34 0.43 c p3
313.68 510.45 0.43 c p3
313.83 510.92 0.43 c p3
313.97 510.58 0.43 c p3
314.12 510.82 0.43 c p3
314.27 511.05 0.43 c p3
314.41 510.58 0.43 c p3
314.56 511.16 0.43 c p3
314.70 510.92 0.43 c p3
314.85 510.92 0.43 c p3
314.99 510.45 0.43 c p3
315.14 510.82 0.43 c p3
315.28 510.82 0.43 c p3
315.43 511.40 0.43 c p3
315.58 510.34 0.43 c p3
315.72 510.45 0.43 c p3
315.87 510.82 0.43 c p3
316.01 511.16 0.43 c p3
316.16 510.58 0.43 c p3
316.30 511.05 0.43 c p3
316.45 510.58 0.43 c p3
316.59 510.58 0.43 c p3
316.74 510.69 0.43 c p3
316.89 511.05 0.43 c p3
317.03 510.34 0.43 c p3
317.18 510.58 0.43 c p3
317.32 511.16 0.43 c p3
317.47 510.58 0.43 c p3
317.61 510.92 0.43 c p3
317.76 511.29 0.43 c p3
317.91 511.40 0.43 c p3
318.05 510.82 0.43 c p3
318.20 511.16 0.43 c p3
318.34 510.92 0.43 c p3
318.49 510.69 0.43 c p3
318.63 510.69 0.43 c p3
318.78 510.58 0.43 c p3
318.92 510.82 0.43 c p3
319.07 510.34 0.43 c p3
319.22 510.58 0.43 c p3
319.36 510.92 0.43 c p3
319.51 511.05 0.43 c p3
319.65 510.82 0.43 c p3
319.80 510.82 0.43 c p3
319.94 511.29 0.43 c p3
320.09 510.45 0.43 c p3
320.23 511.05 0.43 c p3
320.38 510.69 0.43 c p3
320.53 510.69 0.43 c p3
320.67 510.58 0.43 c p3
320.82 510.45 0.43 c p3
320.96 511.29 0.43 c p3
321.11 510.82 0.43 c p3
321.25 510.92 0.43 c p3
321.40 511.05 0.43 c p3
321.54 511.63 0.43 c p3
321.69 510.69 0.43 c p3
321.84 510.69 0.43 c p3
321.98 510.45 0.43 c p3
322.13 510.92 0.43 c p3
322.27 510.69 0.43 c p3
322.42 511.29 0.43 c p3
322.56 511.05 0.43 c p3
322.71 510.45 0.43 c p3
322.85 510.92 0.43 c p3
323.00 510.69 0.43 c p3
323.15 511.16 0.43 c p3
323.29 511.05 0.43 c p3
323.44 511.05 0.43 c p3
323.58 510.82 0.43 c p3
323.73 511.29 0.43 c p3
323.87 511.16 0.43 c p3
324.02 511.40 0.43 c p3
324.17 511.05 0.43 c p3
324.31 511.29 0.43 c p3
324.46 510.92 0.43 c p3
324.60 511.63 0.43 c p3
324.75 511.29 0.43 c p3
324.89 511.16 0.43 c p3
325.04 511.05 0.43 c p3
325.18 510.69 0.43 c p3
325.33 511.05 0.43 c p3
325.48 510.82 0.43 c p3
325.62 510.69 0.43 c p3
325.77 511.05 0.43 c p3
325.91 510.82 0.43 c p3
326.06 510.69 0.43 c p3
326.20 511.16 0.43 c p3
326.35 511.05 0.43 c p3
326.49 510.82 0.43 c p3
326.64 510.58 0.43 c p3
326.79 511.05 0.43 c p3
326.93 511.40 0.43 c p3
327.08 511.53 0.43 c p3
327.22 511.16 0.43 c p3
327.37 511.63 0.43 c p3
327.51 511.16 0.43 c p3
327.66 510.58 0.43 c p3
327.80 510.69 0.43 c p3
327.95 511.05 0.43 c p3
328.10 511.16 0.43 c p3
328.24 511.53 0.43 c p3
328.39 511.16 0.43 c p3
328.53 511.63 0.43 c p3
328.68 511.16 0.43 c p3
328.82 511.05 0.43 c p3
328.97 510.82 0.43 c p3
329.12 511.16 0.43 c p3
329.26 511.05 0.43 c p3
329.41 510.58 0.43 c p3
329.55 511.63 0.43 c p3
329.70 511.16 0.43 c p3
329.84 511.16 0.43 c p3
329.99 510.92 0.43 c p3
330.13 510.92 0.43 c p3
330.28 511.40 0.43 c p3
330.43 510.34 0.43 c p3
330.57 510.92 0.43 c p3
330.72 511.63 0.43 c p3
330.86 511.16 0.43 c p3
331.01 511.16 0.43 c p3
331.15 510.92 0.43 c p3
331.30 511.40 0.43 c p3
331.44 510.82 0.43 c p3
331.59 511.63 0.43 c p3
331.74 510.92 0.43 c p3
331.88 510.92 0.43 c p3
332.03 511.16 0.43 c p3
332.17 510.92 0.43 c p3
332.32 511.29 0.43 c p3
332.46 511.16 0.43 c p3
332.61 511.53 0.43 c p3
332.75 511.05 0.43 c p3
332.90 510.92 0.43 c p3
333.05 511.16 0.43 c p3
333.19 511.40 0.43 c p3
333.34 511.40 0.43 c p3
333.48 511.29 0.43 c p3
333.63 511.05 0.43 c p3
333.77 511.05 0.43 c p3
333.92 511.29 0.43 c p3
334.07 511.29 0.43 c p3
334.21 510.69 0.43 c p3
334.36 511.05 0.43 c p3
334.50 511.16 0.43 c p3
334.65 511.63 0.43 c p3
334.79 511.16 0.43 c p3
334.94 511.05 0.43 c p3
335.08 511.53 0.43 c p3
335.23 511.16 0.43 c p3
335.38 511.40 0.43 c p3
335.52 510.92 0.43 c p3
335.67 511.05 0.43 c p3
335.81 511.16 0.43 c p3
335.96 511.40 0.43 c p3
336.10 511.05 0.43 c p3
336.25 511.63 0.43 c p3
336.39 511.40 0.43 c p3
336.54 510.92 0.43 c p3
336.69 511.16 0.43 c p3
336.83 510.82 0.43 c p3
336.98 511.40 0.43 c p3
337.12 511.40 0.43 c p3
337.27 510.82 0.43 c p3
337.41 511.16 0.43 c p3
337.56 511.40 0.43 c p3
337.70 511.05 0.43 c p3
337.85 510.92 0.43 c p3
338.00 511.05 0.43 c p3
338.14 511.29 0.43 c p3
338.29 511.53 0.43 c p3
338.43 510.82 0.43 c p3
338.58 511.29 0.43 c p3
338.72 511.05 0.43 c p3
338.87 511.16 0.43 c p3
339.02 511.16 0.43 c p3
339.16 511.53 0.43 c p3
339.31 511.16 0.43 c p3
339.45 511.29 0.43 c p3
339.60 510.92 0.43 c p3
339.74 511.63 0.43 c p3
339.89 511.05 0.43 c p3
340.03 510.92 0.43 c p3
340.18 510.82 0.43 c p3
340.33 511.16 0.43 c p3
340.47 510.92 0.43 c p3
340.62 511.29 0.43 c p3
340.76 510.69 0.43 c p3
340.91 511.29 0.43 c p3
341.05 511.29 0.43 c p3
341.20 510.92 0.43 c p3
341.34 512.00 0.43 c p3
341.49 510.92 0.43 c p3
341.64 510.92 0.43 c p3
341.78 510.58 0.43 c p3
341.93 510.69 0.43 c p3
342.07 511.16 0.43 c p3
342.22 511.29 0.43 c p3
342.36 510.34 0.43 c p3
342.51 510.58 0.43 c p3
342.65 511.16 0.43 c p3
342.80 511.40 0.43 c p3
342.95 511.87 0.43 c p3
343.09 511.16 0.43 c p3
343.24 510.92 0.43 c p3
343.38 511.05 0.43 c p3
343.53 511.16 0.43 c p3
343.67 511.16 0.43 c p3
343.82 511.63 0.43 c p3
343.97 510.69 0.43 c p3
344.11 511.76 0.43 c p3
344.26 511.29 0.43 c p3
344.40 510.82 0.43 c p3
344.55 511.40 0.43 c p3
344.69 510.82 0.43 c p3
344.84 510.92 0.43 c p3
344.98 511.05 0.43 c p3
345.13 511.05 0.43 c p3
345.28 510.92 0.43 c p3
345.42 511.05 0.43 c p3
345.57 511.05 0.43 c p3
345.71 510.82 0.43 c p3
345.86 510.82 0.43 c p3
346.00 511.05 0.43 c p3
346.15 511.05 0.43 c p3
346.29 510.82 0.43 c p3
346.44 511.29 0.43 c p3
346.59 511.16 0.43 c p3
346.73 510.92 0.43 c p3
346.88 511.40 0.43 c p3
347.02 510.92 0.43 c p3
347.17 510.69 0.43 c p3
347.31 511.40 0.43 c p3
347.46 510.92 0.43 c p3
347.60 510.92 0.43 c p3
347.75 511.05 0.43 c p3
347.90 511.29 0.43 c p3
348.04 511.05 0.43 c p3
348.19 511.05 0.43 c p3
348.33 511.29 0.43 c p3
348.48 510.69 0.43 c p3
348.62 510.69 0.43 c p3
348.77 511.40 0.43 c p3
348.92 511.29 0.43 c p3
349.06 511.05 0.43 c p3
349.21 511.16 0.43 c p3
349.35 511.40 0.43 c p3
349.50 510.58 0.43 c p3
349.64 511.29 0.43 c p3
349.79 511.29 0.43 c p3
349.93 510.82 0.43 c p3
350.08 511.16 0.43 c p3
350.23 511.40 0.43 c p3
350.37 510.92 0.43 c p3
350.52 511.53 0.43 c p3
350.66 511.16 0.43 c p3
350.81 510.58 0.43 c p3
350.95 510.92 0.43 c p3
351.10 511.16 0.43 c p3
351.24 511.05 0.43 c p3
351.39 511.05 0.43 c p3
351.54 510.58 0.43 c p3
351.68 510.69 0.43 c p3
351.83 511.05 0.43 c p3
351.97 511.29 0.43 c p3
352.12 510.92 0.43 c p3
352.26 511.16 0.43 c p3
352.41 511.40 0.43 c p3
352.55 511.16 0.43 c p3
352.70 510.69 0.43 c p3
352.85 511.16 0.43 c p3
352.99 510.82 0.43 c p3
353.14 510.92 0.43 c p3
353.28 511.16 0.43 c p3
353.43 510.82 0.43 c p3
353.57 511.76 0.43 c p3
353.72 510.92 0.43 c p3
353.86 510.92 0.43 c p3
354.01 510.92 0.43 c p3
354.16 511.05 0.43 c p3
354.30 510.69 0.43 c p3
354.45 510.92 0.43 c p3
354.59 511.05 0.43 c p3
354.74 511.40 0.43 c p3
354.88 510.82 0.43 c p3
355.03 510.58 0.43 c p3
355.18 510.69 0.43 c p3
355.32 510.82 0.43 c p3
355.47 511.29 0.43 c p3
355.61 511.40 0.43 c p3
355.76 510.69 0.43 c p3
355.90 511.05 0.43 c p3
356.05 511.05 0.43 c p3
356.19 511.16 0.43 c p3
356.34 511.29 0.43 c p3
356.49 511.16 0.43 c p3
356.63 510.82 0.43 c p3
356.78 511.05 0.43 c p3
356.92 511.16 0.43 c p3
357.07 510.92 0.43 c p3
357.21 510.92 0.43 c p3
357.36 510.92 0.43 c p3
357.50 510.69 0.43 c p3
357.65 510.82 0.43 c p3
357.80 511.05 0.43 c p3
357.94 511.29 0.43 c p3
358.09 510.69 0.43 c p3
358.23 510.69 0.43 c p3
358.38 510.82 0.43 c p3
358.52 510.82 0.43 c p3
358.67 510.92 0.43 c p3
358.81 510.69 0.43 c p3
358.96 510.92 0.43 c p3
359.11 510.58 0.43 c p3
359.25 510.92 0.43 c p3
359.40 510.69 0.43 c p3
359.54 511.05 0.43 c p3
359.69 510.82 0.43 c p3
359.83 510.92 0.43 c p3
359.98 511.16 0.43 c p3
360.13 510.92 0.43 c p3
360.27 510.69 0.43 c p3
360.42 511.05 0.43 c p3
360.56 511.05 0.43 c p3
360.71 510.58 0.43 c p3
360.85 511.05 0.43 c p3
361.00 510.92 0.43 c p3
361.14 510.92 0.43 c p3
361.29 510.92 0.43 c p3
361.44 511.05 0.43 c p3
361.58 511.16 0.43 c p3
361.73 510.92 0.43 c p3
361.87 510.82 0.43 c p3
362.02 510.82 0.43 c p3
362.16 511.53 0.43 c p3
362.31 510.82 0.43 c p3
362.45 510.69 0.43 c p3
362.60 510.92 0.43 c p3
362.75 511.05 0.43 c p3
362.89 511.05 0.43 c p3
363.04 510.82 0.43 c p3
363.18 511.16 0.43 c p3
363.33 511.05 0.43 c p3
363.47 510.45 0.43 c p3
363.62 511.05 0.43 c p3
363.76 510.82 0.43 c p3
363.91 510.92 0.43 c p3
364.06 510.69 0.43 c p3
364.20 511.05 0.43 c p3
364.35 511.53 0.43 c p3
364.49 510.92 0.43 c p3
364.64 511.63 0.43 c p3
364.78 511.16 0.43 c p3
364.93 510.69 0.43 c p3
365.08 510.82 0.43 c p3
365.22 510.58 0.43 c p3
365.37 511.40 0.43 c p3
365.51 511.16 0.43 c p3
365.66 510.58 0.43 c p3
365.80 510.21 0.43 c p3
365.95 510.69 0.43 c p3
366.09 510.82 0.43 c p3
366.24 511.16 0.43 c p3
366.39 510.82 0.43 c p3
366.53 511.05 0.43 c p3
366.68 511.16 0.43 c p3
366.82 510.82 0.43 c p3
366.97 510.82 0.43 c p3
367.11 510.82 0.43 c p3
367.26 510.92 0.43 c p3
367.40 510.69 0.43 c p3
367.55 511.40 0.43 c p3
367.70 511.16 0.43 c p3
367.84 510.34 0.43 c p3
367.99 511.16 0.43 c p3
368.13 511.05 0.43 c p3
368.28 510.69 0.43 c p3
368.42 511.40 0.43 c p3
368.57 510.92 0.43 c p3
368.71 510.69 0.43 c p3
368.86 510.92 0.43 c p3
369.01 510.92 0.43 c p3
369.15 510.92 0.43 c p3
369.30 510.92 0.43 c p3
369.44 510.82 0.43 c p3
369.59 510.92 0.43 c p3
369.73 511.05 0.43 c p3
369.88 510.82 0.43 c p3
370.03 510.92 0.43 c p3
370.17 510.69 0.43 c p3
370.32 511.16 0.43 c p3
370.46 511.40 0.43 c p3
370.61 510.82 0.43 c p3
370.75 510.82 0.43 c p3
370.90 510.92 0.43 c p3
371.04 510.58 0.43 c p3
371.19 511.05 0.43 c p3
371.34 510.58 0.43 c p3
371.48 510.82 0.43 c p3
371.63 510.45 0.43 c p3
371.77 510.92 0.43 c p3
371.92 510.82 0.43 c p3
372.06 510.45 0.43 c p3
372.21 511.05 0.43 c p3
372.35 510.45 0.43 c p3
372.50 510.34 0.43 c p3
372.65 510.82 0.43 c p3
372.79 510.58 0.43 c p3
372.94 510.69 0.43 c p3
373.08 511.16 0.43 c p3
373.23 510.45 0.43 c p3
373.37 510.45 0.43 c p3
373.52 511.05 0.43 c p3
373.66 511.40 0.43 c p3
373.81 510.92 0.43 c p3
373.96 510.21 0.43 c p3
374.10 510.82 0.43 c p3
374.25 510.21 0.43 c p3
374.39 511.05 0.43 c p3
374.54 510.69 0.43 c p3
374.68 510.82 0.43 c p3
374.83 510.21 0.43 c p3
374.98 510.58 0.43 c p3
375.12 510.92 0.43 c p3
375.27 510.58 0.43 c p3
375.41 510.45 0.43 c p3
375.56 510.45 0.43 c p3
375.70 510.11 0.43 c p3
375.85 510.34 0.43 c p3
375.99 510.69 0.43 c p3
376.14 510.11 0.43 c p3
376.29 510.69 0.43 c p3
376.43 510.69 0.43 c p3
376.58 510.82 0.43 c p3
376.72 510.82 0.43 c p3
376.87 510.21 0.43 c p3
377.01 510.34 0.43 c p3
377.16 510.45 0.43 c p3
377.30 510.69 0.43 c p3
377.45 510.82 0.43 c p3
377.60 510.34 0.43 c p3
377.74 510.92 0.43 c p3
377.89 510.69 0.43 c p3
378.03 510.34 0.43 c p3
378.18 510.69 0.43 c p3
378.32 510.92 0.43 c p3
378.47 510.34 0.43 c p3
378.61 510.58 0.43 c p3
378.76 510.34 0.43 c p3
378.91 510.69 0.43 c p3
379.05 511.29 0.43 c p3
379.20 510.92 0.43 c p3
379.34 510.69 0.43 c p3
379.49 510.69 0.43 c p3
379.63 510.69 0.43 c p3
379.78 511.05 0.43 c p3
379.93 510.82 0.43 c p3
380.07 510.45 0.43 c p3
380.22 510.34 0.43 c p3
380.36 511.05 0.43 c p3
380.51 511.40 0.43 c p3
380.65 510.69 0.43 c p3
380.80 510.69 0.43 c p3
380.94 510.69 0.43 c p3
381.09 510.69 0.43 c p3
381.24 511.16 0.43 c p3
381.38 511.29 0.43 c p3
381.53 510.11 0.43 c p3
381.67 510.45 0.43 c p3
381.82 510.34 0.43 c p3
381.96 510.69 0.43 c p3
382.11 510.34 0.43 c p3
382.25 511.16 0.43 c p3
382.40 510.92 0.43 c p3
0.00 0.00 432.00 576.00 cl
0 0 0 srgb
0.75 setlinewidth
[] 0 setdash
1 setlinecap
1 setlinejoin
10.00 setmiterlimit
np
236.96 345.60 m
145.59 0 l
o
np
236.96 345.60 m
0 -5.76 l
o
np
266.08 345.60 m
0 -5.76 l
o
np
295.19 345.60 m
0 -5.76 l
o
np
324.31 345.60 m
0 -5.76 l
o
np
353.43 345.60 m
0 -5.76 l
o
np
382.55 345.60 m
0 -5.76 l
o
/Font1 findfont 10 s
236.96 329.47 (0) .5 0 t
266.08 329.47 (2000) .5 0 t
324.31 329.47 (6000) .5 0 t
382.55 329.47 (10000) .5 0 t
np
216.00 352.00 m
0 161.49 l
o
np
216.00 352.00 m
-5.76 0 l
o
np
216.00 405.83 m
-5.76 0 l
o
np
216.00 459.66 m
-5.76 0 l
o
np
216.00 513.49 m
-5.76 0 l
o
209.09 348.41 (0.0) 1 0 t
209.09 402.24 (0.5) 1 0 t
209.09 456.07 (1.0) 1 0 t
209.09 509.90 (1.5) 1 0 t
np
216.00 345.60 m
172.80 0 l
0 172.80 l
-172.80 0 l
0 -172.80 l
o
0.00 0.00 432.00 576.00 cl
/Font1 findfont 10 s
0 0 0 srgb
302.40 313.34 (Zeit / ms \(total\)) .5 0 t
190.66 432.00 (U / V) .5 90 t
216.00 345.60 388.80 518.40 cl
0 0 0 srgb
0.38 setlinewidth
[ 1.12 1.88] 0 setdash
1 setlinecap
1 setlinejoin
10.00 setmiterlimit
np
224.15 345.60 m
0 172.80 l
o
np
234.63 345.60 m
0 172.80 l
o
np
240.45 345.60 m
0 172.80 l
o
np
312.08 345.60 m
0 172.80 l
o
86.40 57.60 388.80 288.00 cl
1 0 0 srgb
1.50 setlinewidth
[] 0 setdash
1 setlinecap
1 setlinejoin
10.00 setmiterlimit
np
97.60 279.47 m
1.41 -11.96 l
1.40 -11.28 l
1.41 -10.64 l
1.41 -10.04 l
1.41 -9.47 l
1.40 -8.94 l
1.41 -8.43 l
1.41 -7.95 l
1.40 -7.51 l
1.41 -7.08 l
1.41 -6.68 l
1.40 -6.30 l
1.41 -5.95 l
1.41 -5.61 l
1.41 -5.30 l
1.40 -4.99 l
1.41 -4.71 l
1.41 -4.45 l
1.40 -4.19 l
1.41 -3.96 l
1.41 -3.73 l
1.40 -3.53 l
1.41 -3.32 l
1.41 -3.14 l
1.41 -2.96 l
1.40 -2.79 l
1.41 -2.63 l
1.41 -2.49 l
1.40 -2.34 l
1.41 -2.21 l
1.41 -2.09 l
1.41 -1.97 l
1.40 -1.86 l
1.41 -1.75 l
1.41 -1.65 l
1.40 -1.56 l
1.41 -1.47 l
1.41 -1.39 l
1.40 -1.31 l
1.41 -1.24 l
1.41 -1.17 l
1.41 -1.10 l
1.40 -1.03 l
1.41 -0.98 l
1.41 -0.93 l
1.40 -0.87 l
1.41 -0.82 l
1.41 -0.78 l
1.40 -0.73 l
1.41 -0.69 l
1.41 -0.65 l
1.41 -0.62 l
1.40 -0.58 l
1.41 -0.55 l
1.41 -0.51 l
1.40 -0.49 l
1.41 -0.46 l
1.41 -0.43 l
1.41 -0.41 l
1.40 -0.39 l
1.41 -0.36 l
1.41 -0.35 l
1.40 -0.32 l
1.41 -0.31 l
1.41 -0.29 l
1.40 -0.27 l
1.41 -0.26 l
1.41 -0.24 l
1.41 -0.23 l
1.40 -0.21 l
1.41 -0.21 l
1.41 -0.19 l
1.40 -0.18 l
1.41 -0.17 l
1.41 -0.16 l
1.40 -0.15 l
1.41 -0.15 l
1.41 -0.13 l
1.41 -0.13 l
1.40 -0.12 l
1.41 -0.12 l
1.41 -0.10 l
1.40 -0.10 l
1.41 -0.10 l
1.41 -0.09 l
1.41 -0.09 l
1.40 -0.08 l
1.41 -0.07 l
1.41 -0.07 l
1.40 -0.07 l
1.41 -0.06 l
1.41 -0.06 l
1.40 -0.06 l
1.41 -0.05 l
1.41 -0.05 l
1.41 -0.05 l
1.40 -0.05 l
1.41 -0.04 l
1.41 -0.04 l
238.30 68.59 lineto
1.41 -0.03 l
1.41 -0.04 l
1.40 -0.03 l
1.41 -0.03 l
1.41 -0.03 l
1.41 -0.02 l
1.40 -0.03 l
1.41 -0.02 l
1.41 -0.02 l
1.40 -0.02 l
1.41 -0.02 l
1.41 -0.02 l
1.40 -0.02 l
1.41 -0.02 l
1.41 -0.01 l
1.41 -0.02 l
1.40 -0.01 l
1.41 -0.01 l
1.41 -0.02 l
1.40 -0.01 l
1.41 -0.01 l
1.41 -0.01 l
1.41 -0.01 l
1.40 -0.01 l
1.41 -0.01 l
1.41 -0.01 l
1.40 0 l
1.41 -0.01 l
1.41 -0.01 l
1.40 -0.01 l
1.41 0 l
1.41 -0.01 l
1.41 0 l
1.40 -0.01 l
1.41 0 l
1.41 -0.01 l
1.40 0 l
1.41 -0.01 l
1.41 0 l
1.40 0 l
1.41 -0.01 l
1.41 0 l
1.41 0 l
1.40 -0.01 l
1.41 0 l
1.41 0 l
1.40 0 l
1.41 -0.01 l
1.41 0 l
1.41 0 l
1.40 0 l
1.41 0 l
1.41 -0.01 l
1.40 0 l
1.41 0 l
1.41 0 l
1.40 0 l
1.41 0 l
1.41 0 l
1.41 -0.01 l
1.40 0 l
1.41 0 l
1.41 0 l
1.40 0 l
1.41 0 l
1.41 0 l
1.40 0 l
1.41 0 l
1.41 0 l
1.41 0 l
1.40 -0.01 l
1.41 0 l
1.41 0 l
1.40 0 l
1.41 0 l
1.41 0 l
1.41 0 l
1.40 0 l
1.41 0 l
1.41 0 l
1.40 0 l
1.41 0 l
1.41 0 l
1.40 0 l
1.41 0 l
1.41 0 l
1.41 0 l
1.40 0 l
1.41 0 l
1.41 0 l
1.40 0 l
1.41 0 l
1.41 0 l
1.40 0 l
1.41 0 l
1.41 0 l
1.41 0 l
1.40 0 l
1.41 0 l
o
0.00 0.00 432.00 576.00 cl
0 0 0 srgb
0.75 setlinewidth
[] 0 setdash
1 setlinecap
1 setlinejoin
10.00 setmiterlimit
np
97.60 57.60 m
280.00 0 l
o
np
97.60 57.60 m
0 -5.76 l
o
np
153.60 57.60 m
0 -5.76 l
o
np
209.60 57.60 m
0 -5.76 l
o
np
265.60 57.60 m
0 -5.76 l
o
np
321.60 57.60 m
0 -5.76 l
o
np
377.60 57.60 m
0 -5.76 l
o
/Font1 findfont 10 s
97.60 41.47 (0) .5 0 t
153.60 41.47 (2000) .5 0 t
209.60 41.47 (4000) .5 0 t
265.60 41.47 (6000) .5 0 t
321.60 41.47 (8000) .5 0 t
377.60 41.47 (10000) .5 0 t
np
86.40 66.13 m
0 214.05 l
o
np
86.40 66.13 m
-5.76 0 l
o
np
86.40 119.64 m
-5.76 0 l
o
np
86.40 173.15 m
-5.76 0 l
o
np
86.40 226.67 m
-5.76 0 l
o
np
86.40 280.18 m
-5.76 0 l
o
79.49 62.54 (0.0) 1 0 t
79.49 116.05 (0.1) 1 0 t
79.49 169.56 (0.2) 1 0 t
79.49 223.08 (0.3) 1 0 t
79.49 276.59 (0.4) 1 0 t
np
86.40 57.60 m
302.40 0 l
0 230.40 l
-302.40 0 l
0 -230.40 l
o
0.00 0.00 432.00 576.00 cl
/Font1 findfont 10 s
0 0 0 srgb
237.60 13.82 (Zeit / ms \(nach Puls\)) .5 0 t
49.54 172.80 (Absorbanz A) .5 90 t
86.40 57.60 388.80 288.00 cl
/bg { 1 1 1 srgb } def
0 0 0 srgb
0.75 setlinewidth
[] 0 setdash
1 setlinecap
1 setlinejoin
10.00 setmiterlimit
104.60 236.51 0.65 c p3
104.88 233.65 0.65 c p3
105.16 228.72 0.65 c p3
105.44 225.57 0.65 c p3
105.72 225.57 0.65 c p3
106.00 222.54 0.65 c p3
106.28 222.91 0.65 c p3
106.56 217.54 0.65 c p3
106.84 216.51 0.65 c p3
107.12 213.59 0.65 c p3
107.40 211.28 0.65 c p3
107.68 208.78 0.65 c p3
107.96 207.51 0.65 c p3
108.24 206.87 0.65 c p3
108.52 205.61 0.65 c p3
108.80 200.62 0.65 c p3
109.08 200.00 0.65 c p3
109.36 199.66 0.65 c p3
109.64 196.68 0.65 c p3
109.92 193.06 0.65 c p3
110.20 192.73 0.65 c p3
110.48 190.69 0.65 c p3
110.76 190.69 0.65 c p3
111.04 187.42 0.65 c p3
111.32 186.00 0.65 c p3
111.60 184.53 0.65 c p3
111.88 186.00 0.65 c p3
112.16 181.16 0.65 c p3
112.44 180.28 0.65 c p3
112.72 179.46 0.65 c p3
113.00 179.71 0.65 c p3
113.28 174.69 0.65 c p3
113.56 176.11 0.65 c p3
113.84 172.80 0.65 c p3
114.12 172.25 0.65 c p3
114.40 172.01 0.65 c p3
114.68 169.00 0.65 c p3
114.96 168.76 0.65 c p3
115.24 167.68 0.65 c p3
115.52 167.92 0.65 c p3
115.80 162.91 0.65 c p3
116.08 162.62 0.65 c p3
116.36 162.62 0.65 c p3
116.64 161.87 0.65 c p3
116.92 160.59 0.65 c p3
117.20 159.56 0.65 c p3
117.48 157.21 0.65 c p3
117.76 156.47 0.65 c p3
118.04 155.96 0.65 c p3
118.32 153.43 0.65 c p3
118.60 153.15 0.65 c p3
118.88 154.16 0.65 c p3
119.16 151.65 0.65 c p3
119.44 149.93 0.65 c p3
119.72 149.93 0.65 c p3
120.00 148.72 0.65 c p3
120.28 149.22 0.65 c p3
120.56 146.97 0.65 c p3
120.84 145.29 0.65 c p3
121.12 144.54 0.65 c p3
121.40 144.05 0.65 c p3
121.68 141.43 0.65 c p3
121.96 143.57 0.65 c p3
122.24 141.91 0.65 c p3
122.52 140.21 0.65 c p3
122.80 140.48 0.65 c p3
123.08 139.53 0.65 c p3
123.36 137.64 0.65 c p3
123.64 136.70 0.65 c p3
123.92 137.17 0.65 c p3
124.20 135.76 0.65 c p3
124.48 134.62 0.65 c p3
124.76 134.62 0.65 c p3
125.04 134.37 0.65 c p3
125.32 132.77 0.65 c p3
125.60 132.31 0.65 c p3
125.88 131.85 0.65 c p3
126.16 130.23 0.65 c p3
126.44 129.37 0.65 c p3
126.72 128.91 0.65 c p3
127.00 128.66 0.65 c p3
127.28 127.76 0.65 c p3
127.56 128.66 0.65 c p3
127.84 127.11 0.65 c p3
128.12 125.31 0.65 c p3
128.40 125.31 0.65 c p3
128.68 124.87 0.65 c p3
128.96 125.07 0.65 c p3
129.24 122.85 0.65 c p3
129.52 123.29 0.65 c p3
129.80 123.09 0.65 c p3
130.08 121.97 0.65 c p3
130.36 121.33 0.65 c p3
130.64 120.65 0.65 c p3
130.92 121.09 0.65 c p3
131.20 119.58 0.65 c p3
131.48 118.71 0.65 c p3
131.76 119.58 0.65 c p3
132.04 117.85 0.65 c p3
132.32 116.55 0.65 c p3
132.60 116.98 0.65 c p3
132.88 116.55 0.65 c p3
133.16 116.55 0.65 c p3
133.44 116.55 0.65 c p3
133.72 115.51 0.65 c p3
134.00 114.23 0.65 c p3
134.28 114.23 0.65 c p3
134.56 113.38 0.65 c p3
134.84 112.95 0.65 c p3
135.12 112.72 0.65 c p3
135.40 111.69 0.65 c p3
135.68 111.87 0.65 c p3
135.96 111.27 0.65 c p3
136.24 110.24 0.65 c p3
136.52 111.08 0.65 c p3
136.80 110.24 0.65 c p3
137.08 109.59 0.65 c p3
137.36 109.82 0.65 c p3
137.64 108.57 0.65 c p3
137.92 107.52 0.65 c p3
138.20 107.33 0.65 c p3
138.48 107.74 0.65 c p3
138.76 106.28 0.65 c p3
139.04 107.10 0.65 c p3
139.32 106.10 0.65 c p3
139.60 105.68 0.65 c p3
139.88 106.10 0.65 c p3
140.16 105.05 0.65 c p3
140.44 104.64 0.65 c p3
140.72 103.82 0.65 c p3
141.00 104.05 0.65 c p3
141.28 102.43 0.65 c p3
141.56 103.24 0.65 c p3
141.84 103.64 0.65 c p3
142.12 103.64 0.65 c p3
142.40 102.02 0.65 c p3
142.68 102.02 0.65 c p3
142.96 101.84 0.65 c p3
143.24 101.22 0.65 c p3
143.52 100.41 0.65 c p3
143.80 100.41 0.65 c p3
144.08 99.61 0.65 c p3
144.36 99.61 0.65 c p3
144.64 100.64 0.65 c p3
144.92 99.04 0.65 c p3
145.20 97.62 0.65 c p3
145.48 98.24 0.65 c p3
145.76 97.84 0.65 c p3
146.04 98.42 0.65 c p3
146.32 98.02 0.65 c p3
146.60 97.23 0.65 c p3
146.88 96.83 0.65 c p3
147.16 96.44 0.65 c p3
147.44 96.66 0.65 c p3
147.72 95.48 0.65 c p3
148.00 95.65 0.65 c p3
148.28 96.04 0.65 c p3
148.56 94.87 0.65 c p3
148.84 94.87 0.65 c p3
149.12 95.08 0.65 c p3
149.40 94.08 0.65 c p3
149.68 94.08 0.65 c p3
149.96 93.91 0.65 c p3
150.24 93.91 0.65 c p3
150.52 93.35 0.65 c p3
150.80 93.52 0.65 c p3
151.08 92.74 0.65 c p3
151.36 92.57 0.65 c p3
151.64 91.80 0.65 c p3
151.92 93.35 0.65 c p3
152.20 92.57 0.65 c p3
152.48 91.58 0.65 c p3
152.76 91.41 0.65 c p3
153.04 91.58 0.65 c p3
153.32 91.58 0.65 c p3
153.60 91.03 0.65 c p3
153.88 89.66 0.65 c p3
154.16 89.49 0.65 c p3
154.44 88.90 0.65 c p3
154.72 90.04 0.65 c p3
155.00 90.04 0.65 c p3
155.28 89.49 0.65 c p3
155.56 89.28 0.65 c p3
155.84 88.51 0.65 c p3
156.12 88.13 0.65 c p3
156.40 88.73 0.65 c p3
156.68 87.96 0.65 c p3
156.96 88.13 0.65 c p3
157.24 87.96 0.65 c p3
157.52 87.75 0.65 c p3
157.80 87.75 0.65 c p3
158.08 87.00 0.65 c p3
158.36 87.37 0.65 c p3
158.64 86.45 0.65 c p3
158.92 86.45 0.65 c p3
159.20 86.83 0.65 c p3
159.48 86.24 0.65 c p3
159.76 86.24 0.65 c p3
160.04 85.70 0.65 c p3
160.32 86.24 0.65 c p3
160.60 85.53 0.65 c p3
160.88 85.70 0.65 c p3
161.16 84.78 0.65 c p3
161.44 85.32 0.65 c p3
161.72 84.40 0.65 c p3
162.00 84.57 0.65 c p3
162.28 84.57 0.65 c p3
162.56 84.20 0.65 c p3
162.84 84.78 0.65 c p3
163.12 82.91 0.65 c p3
163.40 83.08 0.65 c p3
163.68 82.70 0.65 c p3
163.96 84.40 0.65 c p3
164.24 83.45 0.65 c p3
164.52 83.45 0.65 c p3
164.80 83.28 0.65 c p3
165.08 82.17 0.65 c p3
165.36 83.08 0.65 c p3
165.64 82.17 0.65 c p3
165.92 82.70 0.65 c p3
166.20 82.17 0.65 c p3
166.48 82.17 0.65 c p3
166.76 81.59 0.65 c p3
167.04 81.06 0.65 c p3
167.32 81.22 0.65 c p3
167.60 81.80 0.65 c p3
167.88 81.06 0.65 c p3
168.16 81.59 0.65 c p3
168.44 80.85 0.65 c p3
168.72 80.85 0.65 c p3
169.00 80.85 0.65 c p3
169.28 80.85 0.65 c p3
169.56 79.95 0.65 c p3
169.84 80.12 0.65 c p3
170.12 79.59 0.65 c p3
170.40 79.75 0.65 c p3
170.68 79.02 0.65 c p3
170.96 80.69 0.65 c p3
171.24 79.95 0.65 c p3
171.52 79.38 0.65 c p3
171.80 79.38 0.65 c p3
172.08 79.59 0.65 c p3
172.36 79.59 0.65 c p3
172.64 78.86 0.65 c p3
172.92 79.38 0.65 c p3
173.20 78.13 0.65 c p3
173.48 78.13 0.65 c p3
173.76 78.86 0.65 c p3
174.04 78.86 0.65 c p3
174.32 77.24 0.65 c p3
174.60 78.13 0.65 c p3
174.88 78.29 0.65 c p3
175.16 78.49 0.65 c p3
175.44 77.60 0.65 c p3
175.72 78.29 0.65 c p3
176.00 77.24 0.65 c p3
176.28 78.29 0.65 c p3
176.56 77.40 0.65 c p3
176.84 77.04 0.65 c p3
177.12 77.60 0.65 c p3
177.40 77.24 0.65 c p3
177.68 77.76 0.65 c p3
177.96 77.04 0.65 c p3
178.24 76.67 0.65 c p3
178.52 76.67 0.65 c p3
178.80 76.31 0.65 c p3
179.08 76.51 0.65 c p3
179.36 75.79 0.65 c p3
179.64 76.15 0.65 c p3
179.92 75.79 0.65 c p3
180.20 75.23 0.65 c p3
180.48 75.79 0.65 c p3
180.76 75.79 0.65 c p3
181.04 76.31 0.65 c p3
181.32 75.59 0.65 c p3
181.60 75.59 0.65 c p3
181.88 75.79 0.65 c p3
182.16 75.79 0.65 c p3
182.44 75.79 0.65 c p3
182.72 75.07 0.65 c p3
183.00 75.23 0.65 c p3
183.28 75.23 0.65 c p3
183.56 74.35 0.65 c p3
183.84 74.71 0.65 c p3
184.12 75.79 0.65 c p3
184.40 74.51 0.65 c p3
184.68 74.15 0.65 c p3
184.96 75.07 0.65 c p3
185.24 74.51 0.65 c p3
185.52 73.79 0.65 c p3
185.80 74.35 0.65 c p3
186.08 74.35 0.65 c p3
186.36 74.51 0.65 c p3
186.64 73.64 0.65 c p3
186.92 73.99 0.65 c p3
187.20 74.15 0.65 c p3
187.48 74.51 0.65 c p3
187.76 74.15 0.65 c p3
188.04 73.99 0.65 c p3
188.32 74.51 0.65 c p3
188.60 74.15 0.65 c p3
188.88 73.64 0.65 c p3
189.16 73.28 0.65 c p3
189.44 73.08 0.65 c p3
189.72 73.28 0.65 c p3
190.00 73.44 0.65 c p3
190.28 73.28 0.65 c p3
190.56 72.21 0.65 c p3
190.84 72.72 0.65 c p3
191.12 73.08 0.65 c p3
191.40 72.92 0.65 c p3
191.68 72.37 0.65 c p3
191.96 72.57 0.65 c p3
192.24 72.92 0.65 c p3
192.52 73.08 0.65 c p3
192.80 72.57 0.65 c p3
193.08 72.37 0.65 c p3
193.36 72.72 0.65 c p3
193.64 71.86 0.65 c p3
193.92 72.92 0.65 c p3
194.20 72.37 0.65 c p3
194.48 72.57 0.65 c p3
194.76 72.01 0.65 c p3
195.04 72.37 0.65 c p3
195.32 72.01 0.65 c p3
195.60 71.66 0.65 c p3
195.88 72.01 0.65 c p3
196.16 71.86 0.65 c p3
196.44 71.66 0.65 c p3
196.72 71.30 0.65 c p3
197.00 71.86 0.65 c p3
197.28 72.01 0.65 c p3
197.56 71.15 0.65 c p3
197.84 70.95 0.65 c p3
198.12 71.66 0.65 c p3
198.40 71.50 0.65 c p3
198.68 70.95 0.65 c p3
198.96 70.95 0.65 c p3
199.24 70.28 0.65 c p3
199.52 70.95 0.65 c p3
199.80 70.79 0.65 c p3
200.08 70.79 0.65 c p3
200.36 70.79 0.65 c p3
200.64 70.60 0.65 c p3
200.92 70.95 0.65 c p3
201.20 70.95 0.65 c p3
201.48 71.30 0.65 c p3
201.76 70.44 0.65 c p3
202.04 70.60 0.65 c p3
202.32 71.15 0.65 c p3
202.60 70.44 0.65 c p3
202.88 70.44 0.65 c p3
203.16 70.60 0.65 c p3
203.44 70.28 0.65 c p3
203.72 70.95 0.65 c p3
204.00 70.09 0.65 c p3
204.28 70.28 0.65 c p3
204.56 69.93 0.65 c p3
204.84 70.09 0.65 c p3
205.12 70.28 0.65 c p3
205.40 70.09 0.65 c p3
205.68 69.93 0.65 c p3
205.96 69.23 0.65 c p3
206.24 69.58 0.65 c p3
206.52 70.60 0.65 c p3
206.80 70.09 0.65 c p3
207.08 69.39 0.65 c p3
207.36 69.58 0.65 c p3
207.64 69.39 0.65 c p3
207.92 70.09 0.65 c p3
208.20 68.88 0.65 c p3
208.48 69.58 0.65 c p3
208.76 69.93 0.65 c p3
209.04 69.58 0.65 c p3
209.32 69.23 0.65 c p3
209.60 69.74 0.65 c p3
209.88 70.60 0.65 c p3
210.16 69.39 0.65 c p3
210.44 69.04 0.65 c p3
210.72 70.44 0.65 c p3
211.00 68.88 0.65 c p3
211.28 69.04 0.65 c p3
211.56 68.69 0.65 c p3
211.84 68.34 0.65 c p3
212.12 68.69 0.65 c p3
212.40 68.88 0.65 c p3
212.68 69.23 0.65 c p3
212.96 68.88 0.65 c p3
213.24 69.39 0.65 c p3
213.52 69.23 0.65 c p3
213.80 69.39 0.65 c p3
214.08 68.88 0.65 c p3
214.36 68.53 0.65 c p3
214.64 69.23 0.65 c p3
214.92 68.88 0.65 c p3
215.20 69.04 0.65 c p3
215.48 68.53 0.65 c p3
215.76 69.04 0.65 c p3
216.04 68.53 0.65 c p3
216.32 67.99 0.65 c p3
216.60 68.88 0.65 c p3
216.88 68.88 0.65 c p3
217.16 68.18 0.65 c p3
217.44 68.34 0.65 c p3
217.72 68.53 0.65 c p3
218.00 68.69 0.65 c p3
218.28 68.34 0.65 c p3
218.56 68.34 0.65 c p3
218.84 67.99 0.65 c p3
219.12 68.53 0.65 c p3
219.40 67.64 0.65 c p3
219.68 68.69 0.65 c p3
219.96 68.88 0.65 c p3
220.24 67.64 0.65 c p3
220.52 68.18 0.65 c p3
220.80 68.18 0.65 c p3
221.08 67.99 0.65 c p3
221.36 67.99 0.65 c p3
221.64 67.83 0.65 c p3
221.92 67.64 0.65 c p3
222.20 68.53 0.65 c p3
222.48 68.88 0.65 c p3
222.76 67.64 0.65 c p3
223.04 67.64 0.65 c p3
223.32 67.48 0.65 c p3
223.60 67.83 0.65 c p3
223.88 67.99 0.65 c p3
224.16 67.64 0.65 c p3
224.44 68.18 0.65 c p3
224.72 68.34 0.65 c p3
225.00 67.64 0.65 c p3
225.28 67.48 0.65 c p3
225.56 67.29 0.65 c p3
225.84 66.94 0.65 c p3
226.12 67.48 0.65 c p3
226.40 67.48 0.65 c p3
226.68 67.83 0.65 c p3
226.96 67.64 0.65 c p3
227.24 67.14 0.65 c p3
227.52 66.79 0.65 c p3
227.80 66.79 0.65 c p3
228.08 67.29 0.65 c p3
228.36 67.64 0.65 c p3
228.64 67.29 0.65 c p3
228.92 66.44 0.65 c p3
229.20 67.29 0.65 c p3
229.48 67.14 0.65 c p3
229.76 67.48 0.65 c p3
230.04 67.29 0.65 c p3
230.32 67.14 0.65 c p3
230.60 67.48 0.65 c p3
230.88 66.79 0.65 c p3
231.16 66.60 0.65 c p3
231.44 67.29 0.65 c p3
231.72 67.14 0.65 c p3
232.00 66.60 0.65 c p3
232.28 66.60 0.65 c p3
232.56 67.48 0.65 c p3
232.84 66.94 0.65 c p3
233.12 66.94 0.65 c p3
233.40 67.48 0.65 c p3
233.68 66.44 0.65 c p3
233.96 67.48 0.65 c p3
234.24 67.14 0.65 c p3
234.52 67.29 0.65 c p3
234.80 66.79 0.65 c p3
235.08 66.79 0.65 c p3
235.36 67.29 0.65 c p3
235.64 67.29 0.65 c p3
235.92 66.25 0.65 c p3
236.20 66.94 0.65 c p3
236.48 66.94 0.65 c p3
236.76 66.79 0.65 c p3
237.04 67.29 0.65 c p3
237.32 66.79 0.65 c p3
237.60 67.14 0.65 c p3
237.88 66.94 0.65 c p3
238.16 66.79 0.65 c p3
238.44 67.64 0.65 c p3
238.72 67.29 0.65 c p3
239.00 66.79 0.65 c p3
239.28 66.25 0.65 c p3
239.56 66.60 0.65 c p3
239.84 67.14 0.65 c p3
240.12 66.94 0.65 c p3
240.40 66.10 0.65 c p3
240.68 66.94 0.65 c p3
240.96 66.25 0.65 c p3
241.24 66.60 0.65 c p3
241.52 66.44 0.65 c p3
241.80 67.14 0.65 c p3
242.08 66.79 0.65 c p3
242.36 66.60 0.65 c p3
216.00 201.60 367.20 247.68 cl
0 0 0 srgb
0.75 setlinewidth
[] 0 setdash
1 setlinecap
1 setlinejoin
10.00 setmiterlimit
221.60 238.86 0.43 c p1
221.88 237.41 0.43 c p1
222.17 233.05 0.43 c p1
222.45 231.14 0.43 c p1
222.74 233.60 0.43 c p1
223.02 231.79 0.43 c p1
223.31 234.72 0.43 c p1
223.59 229.60 0.43 c p1
223.88 230.51 0.43 c p1
224.16 228.75 0.43 c p1
224.45 227.82 0.43 c p1
224.73 226.60 0.43 c p1
225.01 227.06 0.43 c p1
225.30 228.39 0.43 c p1
225.58 228.81 0.43 c p1
225.87 224.02 0.43 c p1
226.15 225.29 0.43 c p1
226.44 226.93 0.43 c p1
226.72 224.85 0.43 c p1
227.01 221.88 0.43 c p1
227.29 223.46 0.43 c p1
227.58 222.62 0.43 c p1
227.86 224.61 0.43 c p1
228.14 222.03 0.43 c p1
228.43 222.00 0.43 c p1
228.71 221.87 0.43 c p1
229.00 225.83 0.43 c p1
229.28 220.96 0.43 c p1
229.57 221.59 0.43 c p1
229.85 222.29 0.43 c p1
230.14 224.45 0.43 c p1
230.42 219.25 0.43 c p1
230.71 223.00 0.43 c p1
230.99 220.14 0.43 c p1
231.27 221.11 0.43 c p1
231.56 222.48 0.43 c p1
231.84 219.98 0.43 c p1
232.13 221.32 0.43 c p1
232.41 221.48 0.43 c p1
232.70 223.45 0.43 c p1
232.98 218.08 0.43 c p1
233.27 219.28 0.43 c p1
233.55 220.86 0.43 c p1
233.84 221.37 0.43 c p1
234.12 221.14 0.43 c p1
234.40 221.22 0.43 c p1
234.69 219.46 0.43 c p1
234.97 219.92 0.43 c p1
235.26 220.68 0.43 c p1
235.54 218.61 0.43 c p1
235.83 219.66 0.43 c p1
236.11 222.49 0.43 c p1
236.40 220.40 0.43 c p1
236.68 219.40 0.43 c p1
236.97 220.77 0.43 c p1
237.25 220.45 0.43 c p1
237.53 222.48 0.43 c p1
237.82 220.68 0.43 c p1
238.10 219.65 0.43 c p1
238.39 219.90 0.43 c p1
238.67 220.50 0.43 c p1
238.96 218.12 0.43 c p1
239.24 222.35 0.43 c p1
239.53 221.28 0.43 c p1
239.81 220.14 0.43 c p1
240.10 221.72 0.43 c p1
240.38 221.59 0.43 c p1
240.67 220.14 0.43 c p1
240.95 220.00 0.43 c p1
241.23 221.81 0.43 c p1
241.52 221.00 0.43 c p1
241.80 220.54 0.43 c p1
242.09 221.66 0.43 c p1
242.37 222.40 0.43 c p1
242.66 221.27 0.43 c p1
242.94 221.71 0.43 c p1
243.23 222.13 0.43 c p1
243.51 220.92 0.43 c p1
243.80 220.76 0.43 c p1
244.08 221.16 0.43 c p1
244.36 221.83 0.43 c p1
244.65 221.57 0.43 c p1
244.93 223.83 0.43 c p1
245.22 222.65 0.43 c p1
245.50 221.12 0.43 c p1
245.79 222.08 0.43 c p1
246.07 222.41 0.43 c p1
246.36 223.62 0.43 c p1
246.64 221.46 0.43 c p1
246.93 222.99 0.43 c p1
247.21 223.62 0.43 c p1
247.49 222.95 0.43 c p1
247.78 222.95 0.43 c p1
248.06 222.88 0.43 c p1
248.35 224.35 0.43 c p1
248.63 223.11 0.43 c p1
248.92 222.74 0.43 c p1
249.20 224.79 0.43 c p1
249.49 223.20 0.43 c p1
249.77 222.21 0.43 c p1
250.06 223.62 0.43 c p1
250.34 223.82 0.43 c p1
250.62 224.61 0.43 c p1
250.91 225.39 0.43 c p1
251.19 224.70 0.43 c p1
251.48 223.68 0.43 c p1
251.76 224.43 0.43 c p1
252.05 223.99 0.43 c p1
252.33 224.14 0.43 c p1
252.62 224.54 0.43 c p1
252.90 223.82 0.43 c p1
253.19 224.79 0.43 c p1
253.47 224.65 0.43 c p1
253.75 223.91 0.43 c p1
254.04 225.77 0.43 c p1
254.32 225.28 0.43 c p1
254.61 225.04 0.43 c p1
254.89 226.03 0.43 c p1
255.18 224.94 0.43 c p1
255.46 224.12 0.43 c p1
255.75 224.50 0.43 c p1
256.03 225.71 0.43 c p1
256.32 224.29 0.43 c p1
256.60 226.06 0.43 c p1
256.88 225.27 0.43 c p1
257.17 225.30 0.43 c p1
257.45 226.47 0.43 c p1
257.74 225.60 0.43 c p1
258.02 225.61 0.43 c p1
258.31 225.06 0.43 c p1
258.59 225.94 0.43 c p1
258.88 224.24 0.43 c p1
259.16 225.93 0.43 c p1
259.45 227.05 0.43 c p1
259.73 227.59 0.43 c p1
260.01 225.87 0.43 c p1
260.30 226.40 0.43 c p1
260.58 226.68 0.43 c p1
260.87 226.33 0.43 c p1
261.15 225.72 0.43 c p1
261.44 226.23 0.43 c p1
261.72 225.61 0.43 c p1
262.01 226.11 0.43 c p1
262.29 228.03 0.43 c p1
262.58 226.28 0.43 c p1
262.86 224.79 0.43 c p1
263.14 226.13 0.43 c p1
263.43 226.04 0.43 c p1
263.71 227.31 0.43 c p1
264.00 227.21 0.43 c p1
264.28 226.56 0.43 c p1
264.57 226.46 0.43 c p1
264.85 226.35 0.43 c p1
265.14 227.09 0.43 c p1
265.42 225.88 0.43 c p1
265.71 226.55 0.43 c p1
265.99 227.52 0.43 c p1
266.27 226.29 0.43 c p1
266.56 226.71 0.43 c p1
266.84 227.42 0.43 c p1
267.13 226.43 0.43 c p1
267.41 226.83 0.43 c p1
267.70 226.98 0.43 c p1
267.98 227.37 0.43 c p1
268.27 226.97 0.43 c p1
268.55 227.59 0.43 c p1
268.84 226.88 0.43 c p1
269.12 227.01 0.43 c p1
269.40 226.30 0.43 c p1
269.69 228.83 0.43 c p1
269.97 228.10 0.43 c p1
270.26 227.08 0.43 c p1
270.54 227.19 0.43 c p1
270.83 227.78 0.43 c p1
271.11 228.12 0.43 c p1
271.40 227.68 0.43 c p1
271.68 226.12 0.43 c p1
271.97 226.21 0.43 c p1
272.25 225.71 0.43 c p1
272.53 227.63 0.43 c p1
272.82 227.95 0.43 c p1
273.10 227.50 0.43 c p1
273.39 227.51 0.43 c p1
273.67 226.76 0.43 c p1
273.96 226.53 0.43 c p1
274.24 227.66 0.43 c p1
274.53 226.90 0.43 c p1
274.81 227.43 0.43 c p1
275.10 227.48 0.43 c p1
275.38 227.48 0.43 c p1
275.67 227.76 0.43 c p1
275.95 226.99 0.43 c p1
276.23 227.79 0.43 c p1
276.52 226.78 0.43 c p1
276.80 227.05 0.43 c p1
277.09 227.85 0.43 c p1
277.37 227.29 0.43 c p1
277.66 227.56 0.43 c p1
277.94 227.06 0.43 c p1
278.23 228.07 0.43 c p1
278.51 227.34 0.43 c p1
278.80 227.82 0.43 c p1
279.08 226.79 0.43 c p1
279.36 227.79 0.43 c p1
279.65 226.75 0.43 c p1
279.93 227.22 0.43 c p1
280.22 227.46 0.43 c p1
280.50 227.17 0.43 c p1
280.79 228.22 0.43 c p1
281.07 225.84 0.43 c p1
281.36 226.30 0.43 c p1
281.64 226.00 0.43 c p1
281.93 228.59 0.43 c p1
282.21 227.48 0.43 c p1
282.49 227.70 0.43 c p1
282.78 227.68 0.43 c p1
283.06 226.34 0.43 c p1
283.35 227.81 0.43 c p1
283.63 226.75 0.43 c p1
283.92 227.70 0.43 c p1
284.20 227.15 0.43 c p1
284.49 227.35 0.43 c p1
284.77 226.75 0.43 c p1
285.06 226.20 0.43 c p1
285.34 226.62 0.43 c p1
285.62 227.61 0.43 c p1
285.91 226.77 0.43 c p1
286.19 227.70 0.43 c p1
286.48 226.85 0.43 c p1
286.76 227.03 0.43 c p1
287.05 227.21 0.43 c p1
287.33 227.39 0.43 c p1
287.62 226.31 0.43 c p1
287.90 226.71 0.43 c p1
288.19 226.14 0.43 c p1
288.47 226.54 0.43 c p1
288.75 225.69 0.43 c p1
289.04 228.18 0.43 c p1
289.32 227.32 0.43 c p1
289.61 226.69 0.43 c p1
289.89 226.85 0.43 c p1
290.18 227.29 0.43 c p1
290.46 227.44 0.43 c p1
290.75 226.58 0.43 c p1
291.03 227.47 0.43 c p1
291.32 225.86 0.43 c p1
291.60 226.01 0.43 c p1
291.88 227.18 0.43 c p1
292.17 227.32 0.43 c p1
292.45 225.21 0.43 c p1
292.74 226.59 0.43 c p1
293.02 226.96 0.43 c p1
293.31 227.38 0.43 c p1
293.59 226.28 0.43 c p1
293.88 227.37 0.43 c p1
294.16 226.04 0.43 c p1
294.45 227.64 0.43 c p1
294.73 226.53 0.43 c p1
295.01 226.15 0.43 c p1
295.30 227.07 0.43 c p1
295.58 226.69 0.43 c p1
295.87 227.54 0.43 c p1
296.15 226.66 0.43 c p1
296.44 226.27 0.43 c p1
296.72 226.39 0.43 c p1
297.01 226.01 0.43 c p1
297.29 226.41 0.43 c p1
297.58 225.52 0.43 c p1
297.86 226.14 0.43 c p1
298.14 225.75 0.43 c p1
298.43 225.08 0.43 c p1
298.71 225.97 0.43 c p1
299.00 226.08 0.43 c p1
299.28 226.92 0.43 c p1
299.57 226.02 0.43 c p1
299.85 226.13 0.43 c p1
300.14 226.51 0.43 c p1
300.42 226.61 0.43 c p1
300.71 226.72 0.43 c p1
300.99 225.81 0.43 c p1
301.27 226.14 0.43 c p1
301.56 226.24 0.43 c p1
301.84 225.11 0.43 c p1
302.13 225.71 0.43 c p1
302.41 227.31 0.43 c p1
302.70 225.62 0.43 c p1
302.98 225.22 0.43 c p1
303.27 226.59 0.43 c p1
303.55 225.90 0.43 c p1
303.84 224.99 0.43 c p1
304.12 225.86 0.43 c p1
304.40 225.95 0.43 c p1
304.69 226.26 0.43 c p1
304.97 225.12 0.43 c p1
305.26 225.71 0.43 c p1
305.54 226.01 0.43 c p1
305.83 226.60 0.43 c p1
306.11 226.18 0.43 c p1
306.40 226.04 0.43 c p1
306.68 226.84 0.43 c p1
306.97 226.42 0.43 c p1
307.25 225.78 0.43 c p1
307.53 225.36 0.43 c p1
307.82 225.16 0.43 c p1
308.10 225.51 0.43 c p1
308.39 225.81 0.43 c p1
308.67 225.66 0.43 c p1
308.96 224.25 0.43 c p1
309.24 225.03 0.43 c p1
309.53 225.60 0.43 c p1
309.81 225.45 0.43 c p1
310.10 224.75 0.43 c p1
310.38 225.10 0.43 c p1
310.67 225.66 0.43 c p1
310.95 225.95 0.43 c p1
311.23 225.30 0.43 c p1
311.52 225.09 0.43 c p1
311.80 225.65 0.43 c p1
312.09 224.51 0.43 c p1
312.37 226.06 0.43 c p1
312.66 225.35 0.43 c p1
312.94 225.69 0.43 c p1
313.23 224.98 0.43 c p1
313.51 225.53 0.43 c p1
313.80 225.10 0.43 c p1
314.08 224.66 0.43 c p1
314.36 225.22 0.43 c p1
314.65 225.06 0.43 c p1
314.93 224.84 0.43 c p1
315.22 224.40 0.43 c p1
315.50 225.23 0.43 c p1
315.79 225.50 0.43 c p1
316.07 224.35 0.43 c p1
316.36 224.13 0.43 c p1
316.64 225.17 0.43 c p1
316.93 225.00 0.43 c p1
317.21 224.29 0.43 c p1
317.49 224.34 0.43 c p1
317.78 223.46 0.43 c p1
318.06 224.44 0.43 c p1
318.35 224.28 0.43 c p1
318.63 224.33 0.43 c p1
318.92 224.37 0.43 c p1
319.20 224.15 0.43 c p1
319.49 224.69 0.43 c p1
319.77 224.74 0.43 c p1
320.06 225.28 0.43 c p1
320.34 224.12 0.43 c p1
320.62 224.38 0.43 c p1
320.91 225.19 0.43 c p1
321.19 224.26 0.43 c p1
321.48 224.30 0.43 c p1
321.76 224.56 0.43 c p1
322.05 224.17 0.43 c p1
322.33 225.14 0.43 c p1
322.62 223.98 0.43 c p1
322.90 224.29 0.43 c p1
323.19 223.84 0.43 c p1
323.47 224.10 0.43 c p1
323.75 224.42 0.43 c p1
324.04 224.18 0.43 c p1
324.32 224.00 0.43 c p1
324.61 223.06 0.43 c p1
324.89 223.59 0.43 c p1
325.18 225.05 0.43 c p1
325.46 224.38 0.43 c p1
325.75 223.43 0.43 c p1
326.03 223.74 0.43 c p1
326.32 223.51 0.43 c p1
326.60 224.52 0.43 c p1
326.88 222.87 0.43 c p1
327.17 223.88 0.43 c p1
327.45 224.41 0.43 c p1
327.74 223.95 0.43 c p1
328.02 223.50 0.43 c p1
328.31 224.24 0.43 c p1
328.59 225.47 0.43 c p1
328.88 223.81 0.43 c p1
329.16 223.36 0.43 c p1
329.45 225.35 0.43 c p1
329.73 223.20 0.43 c p1
330.01 223.45 0.43 c p1
330.30 223.00 0.43 c p1
330.58 222.54 0.43 c p1
330.87 223.06 0.43 c p1
331.15 223.36 0.43 c p1
331.44 223.88 0.43 c p1
331.72 223.42 0.43 c p1
332.01 224.15 0.43 c p1
332.29 223.96 0.43 c p1
332.58 224.21 0.43 c p1
332.86 223.53 0.43 c p1
333.14 223.07 0.43 c p1
333.43 224.07 0.43 c p1
333.71 223.61 0.43 c p1
334.00 223.85 0.43 c p1
334.28 223.18 0.43 c p1
334.57 223.91 0.43 c p1
334.85 223.23 0.43 c p1
335.14 222.49 0.43 c p1
335.42 223.76 0.43 c p1
335.71 223.79 0.43 c p1
335.99 222.84 0.43 c p1
336.27 223.08 0.43 c p1
336.56 223.37 0.43 c p1
336.84 223.62 0.43 c p1
337.13 223.15 0.43 c p1
337.41 223.17 0.43 c p1
337.70 222.71 0.43 c p1
337.98 223.49 0.43 c p1
338.27 222.27 0.43 c p1
338.55 223.75 0.43 c p1
338.84 224.04 0.43 c p1
339.12 222.33 0.43 c p1
339.40 223.11 0.43 c p1
339.69 223.13 0.43 c p1
339.97 222.88 0.43 c p1
340.26 222.90 0.43 c p1
340.54 222.71 0.43 c p1
340.83 222.46 0.43 c p1
341.11 223.72 0.43 c p1
341.40 224.23 0.43 c p1
341.68 222.52 0.43 c p1
341.97 222.54 0.43 c p1
342.25 222.34 0.43 c p1
342.53 222.84 0.43 c p1
342.82 223.08 0.43 c p1
343.10 222.61 0.43 c p1
343.39 223.39 0.43 c p1
343.67 223.62 0.43 c p1
343.96 222.67 0.43 c p1
344.24 222.47 0.43 c p1
344.53 222.21 0.43 c p1
344.81 221.75 0.43 c p1
345.10 222.52 0.43 c p1
345.38 222.53 0.43 c p1
345.67 223.04 0.43 c p1
345.95 222.78 0.43 c p1
346.23 222.10 0.43 c p1
346.52 221.63 0.43 c p1
346.80 221.65 0.43 c p1
347.09 222.36 0.43 c p1
347.37 222.86 0.43 c p1
347.66 222.39 0.43 c p1
347.94 221.22 0.43 c p1
348.23 222.42 0.43 c p1
348.51 222.22 0.43 c p1
348.80 222.72 0.43 c p1
349.08 222.47 0.43 c p1
349.36 222.26 0.43 c p1
349.65 222.76 0.43 c p1
349.93 221.81 0.43 c p1
350.22 221.55 0.43 c p1
350.50 222.54 0.43 c p1
350.79 222.33 0.43 c p1
351.07 221.59 0.43 c p1
351.36 221.61 0.43 c p1
351.64 222.86 0.43 c p1
351.93 222.12 0.43 c p1
352.21 222.13 0.43 c p1
352.49 222.90 0.43 c p1
352.78 221.46 0.43 c p1
353.06 222.92 0.43 c p1
353.35 222.45 0.43 c p1
353.63 222.67 0.43 c p1
353.92 221.99 0.43 c p1
354.20 222.00 0.43 c p1
354.49 222.71 0.43 c p1
354.77 222.72 0.43 c p1
355.06 221.28 0.43 c p1
355.34 222.26 0.43 c p1
355.62 222.27 0.43 c p1
355.91 222.07 0.43 c p1
356.19 222.78 0.43 c p1
356.48 222.09 0.43 c p1
356.76 222.58 0.43 c p1
357.05 222.32 0.43 c p1
357.33 222.12 0.43 c p1
357.62 223.31 0.43 c p1
357.90 222.84 0.43 c p1
358.19 222.15 0.43 c p1
358.47 221.41 0.43 c p1
358.75 221.90 0.43 c p1
359.04 222.66 0.43 c p1
359.32 222.40 0.43 c p1
359.61 221.23 0.43 c p1
359.89 222.42 0.43 c p1
360.18 221.46 0.43 c p1
360.46 221.96 0.43 c p1
360.75 221.75 0.43 c p1
361.03 222.73 0.43 c p1
361.32 222.25 0.43 c p1
361.60 221.99 0.43 c p1
0.00 0.00 432.00 576.00 cl
0 0 0 srgb
0.75 setlinewidth
[] 0 setdash
1 setlinecap
1 setlinejoin
10.00 setmiterlimit
np
242.94 201.60 m
113.82 0 l
o
np
242.94 201.60 m
0 -5.76 l
o
np
271.40 201.60 m
0 -5.76 l
o
np
299.85 201.60 m
0 -5.76 l
o
np
328.31 201.60 m
0 -5.76 l
o
np
356.76 201.60 m
0 -5.76 l
o
/Font1 findfont 6 s
242.94 185.47 (1000) .5 0 t
271.40 185.47 (2000) .5 0 t
299.85 185.47 (3000) .5 0 t
328.31 185.47 (4000) .5 0 t
356.76 185.47 (5000) .5 0 t
np
216.00 202.26 m
0 44.76 l
o
np
216.00 202.26 m
-5.76 0 l
o
np
216.00 209.72 m
-5.76 0 l
o
np
216.00 217.18 m
-5.76 0 l
o
np
216.00 224.64 m
-5.76 0 l
o
np
216.00 232.10 m
-5.76 0 l
o
np
216.00 239.56 m
-5.76 0 l
o
np
216.00 247.02 m
-5.76 0 l
o
209.09 200.10 (-0.03) 1 0 t
209.09 207.56 (-0.02) 1 0 t
209.09 215.03 (-0.01) 1 0 t
209.09 222.49 (0.00) 1 0 t
209.09 229.95 (0.01) 1 0 t
209.09 237.41 (0.02) 1 0 t
209.09 244.87 (0.03) 1 0 t
np
216.00 201.60 m
151.20 0 l
0 46.08 l
-151.20 0 l
0 -46.08 l
o
0.00 0.00 432.00 576.00 cl
/Font1 findfont 9 s
0 0 0 srgb
291.60 262.88 (Residuen) .5 0 t
59.04 73.44 401.76 516.96 cl
ep
%%Trailer
%%Pages: 1
%%EOF
