%!PS-Adobe-3.0 EPSF-3.0
%%DocumentNeededResources: font Helvetica
%%+ font Helvetica-Bold
%%+ font Helvetica-Oblique
%%+ font Helvetica-BoldOblique
%%+ font Symbol
%%Title: R Graphics Output
%%Creator: R Software
%%Pages: (atend)
%%BoundingBox: 0 0 432 576
%%EndComments
%%BeginProlog
/bp  { gs sRGB gs } def
% begin .ps.prolog
/gs  { gsave } bind def
/gr  { grestore } bind def
/ep  { showpage gr gr } bind def
/m   { moveto } bind def
/l  { rlineto } bind def
/np  { newpath } bind def
/cp  { closepath } bind def
/f   { fill } bind def
/o   { stroke } bind def
/c   { newpath 0 360 arc } bind def
/r   { 4 2 roll moveto 1 copy 3 -1 roll exch 0 exch rlineto 0 rlineto -1 mul 0 exch rlineto closepath } bind def
/p1  { stroke } bind def
/p2  { gsave bg fill grestore newpath } bind def
/p3  { gsave bg fill grestore stroke } bind def
/p6  { gsave bg eofill grestore newpath } bind def
/p7  { gsave bg eofill grestore stroke } bind def
/t   { 5 -2 roll moveto gsave rotate
       1 index stringwidth pop
       mul neg 0 rmoveto show grestore } bind def
/ta  { 4 -2 roll moveto gsave rotate show } bind def
/tb  { 2 -1 roll 0 rmoveto show } bind def
/cl  { grestore gsave newpath 3 index 3 index moveto 1 index
       4 -1 roll lineto  exch 1 index lineto lineto
       closepath clip newpath } bind def
/rgb { setrgbcolor } bind def
/s   { scalefont setfont } bind def
% end   .ps.prolog
/sRGB { [ /CIEBasedABC
          << /DecodeLMN
               [ { dup 0.03928 le
                        {12.92321 div}
                        {0.055 add 1.055 div 2.4 exp }
                     ifelse
                 } bind dup dup
               ]
             /MatrixLMN [0.412457 0.212673 0.019334
                         0.357576 0.715152 0.119192
                         0.180437 0.072175 0.950301]
             /WhitePoint [0.9505 1.0 1.0890]
           >>
         ] setcolorspace } bind def
/srgb { setcolor } bind def
%%IncludeResource: font Helvetica
/Helvetica findfont
dup length dict begin
  {1 index /FID ne {def} {pop pop} ifelse} forall
  /Encoding ISOLatin1Encoding def
  currentdict
  end
/Font1 exch definefont pop
%%IncludeResource: font Helvetica-Bold
/Helvetica-Bold findfont
dup length dict begin
  {1 index /FID ne {def} {pop pop} ifelse} forall
  /Encoding ISOLatin1Encoding def
  currentdict
  end
/Font2 exch definefont pop
%%IncludeResource: font Helvetica-Oblique
/Helvetica-Oblique findfont
dup length dict begin
  {1 index /FID ne {def} {pop pop} ifelse} forall
  /Encoding ISOLatin1Encoding def
  currentdict
  end
/Font3 exch definefont pop
%%IncludeResource: font Helvetica-BoldOblique
/Helvetica-BoldOblique findfont
dup length dict begin
  {1 index /FID ne {def} {pop pop} ifelse} forall
  /Encoding ISOLatin1Encoding def
  currentdict
  end
/Font4 exch definefont pop
%%IncludeResource: font Symbol
/Symbol findfont
dup length dict begin
  {1 index /FID ne {def} {pop pop} ifelse} forall
  currentdict
  end
/Font5 exch definefont pop
%%EndProlog
%%Page: 1 1
bp
0.00 0.00 432.00 576.00 cl
0.00 0.00 432.00 576.00 cl
0.00 0.00 432.00 576.00 cl
/Font1 findfont 12 s
0 0 0 srgb
48.00 508.72 (PCP-ETH) 0 0 t
48.00 494.89 (Blitzlicht-Photolyse) 0 0 t
/Font1 findfont 9 s
48.00 457.54 (File: Dy) 0 ta
-0.180 (e_0_1_V3_900V_25.dat) tb gr
48.00 334.87 (T) 0 ta
-1.080 (ue Apr  9 22:06:26 2019) tb gr
48.00 430.87 (Fitfunktion:  a + b * e) 0 ta
-0.270 (xp\(-c * t\)) tb gr
48.00 420.50 (t-Inter) 0 ta
0.270 (v) tb
-0.225 (all: 12.000 ... 247.000 ms) tb gr
48.00 410.14 (P) 0 ta
-0.360 (ar) tb
-0.090 (ameter \(Standardabw) tb
-0.090 (eichung\):) tb gr
48.00 399.77 (  a = -0.00092 \(0.00048\)) 0 0 t
48.00 389.40 (  b = 0.09141 \(0.00042\)) 0 0 t
48.00 379.03 (  c = 1.042e+01 \(1.701e-01\) s^-1) 0 0 t
48.00 368.66 (  tau = 9.596e-02 \(1.567e-03\) s) 0 0 t
216.00 345.60 388.80 518.40 cl
0 0 0 srgb
0.75 setlinewidth
[] 0 setdash
1 setlinecap
1 setlinejoin
10.00 setmiterlimit
np
222.40 510.98 m
0.15 0.12 l
0.14 -0.12 l
0.15 0.63 l
0.14 -0.51 l
0.15 -0.62 l
0.14 1.38 l
0.15 0 l
0.14 -0.37 l
0.15 0.26 l
0.15 -0.14 l
0.14 0.14 l
0.15 -0.26 l
0.14 0.12 l
0.15 -0.26 l
0.14 0.51 l
0.15 -0.25 l
0.14 -0.63 l
0.15 0.63 l
0.15 -0.51 l
0.14 -0.12 l
0.15 0.12 l
0.14 0.14 l
0.15 -0.14 l
0.14 -0.51 l
0.15 0.90 l
0.15 -1.15 l
0.14 1.01 l
0.15 -0.37 l
0.14 0.51 l
0.15 0.37 l
0.14 -0.25 l
0.15 0.14 l
0.14 -0.40 l
0.15 -0.25 l
0.15 0.39 l
0.14 -0.76 l
0.15 0.62 l
0.14 -0.51 l
0.15 0.14 l
0.14 0.12 l
0.15 -0.37 l
0.14 0.51 l
0.15 -1.02 l
0.15 0.76 l
0.14 0.12 l
0.15 0.25 l
0.14 -0.51 l
0.15 0.40 l
0.14 -0.26 l
0.15 0.12 l
0.14 -0.12 l
0.15 0.26 l
0.15 0 l
0.14 0 l
0.15 0.51 l
0.14 0 l
0.15 -0.65 l
0.14 -0.88 l
0.15 0.88 l
0.15 -0.51 l
0.14 0.39 l
0.15 0.12 l
0.14 0.25 l
0.15 0.51 l
0.14 -1.02 l
0.15 0.51 l
0.14 0.26 l
0.15 -0.37 l
0.15 0.37 l
0.14 0.25 l
0.15 -0.62 l
0.14 0.51 l
0.15 -0.14 l
0.14 0 l
0.15 -0.26 l
0.14 0.26 l
0.15 -0.51 l
0.15 0.25 l
0.14 -0.11 l
0.15 0.51 l
0.14 -0.14 l
0.15 -0.26 l
0.14 -0.11 l
0.15 0 l
0.14 0.37 l
0.15 0 l
0.15 -0.12 l
0.14 0.51 l
0.15 0 l
0.14 -0.76 l
0.15 0.25 l
0.14 -0.65 l
0.15 0.91 l
0.15 -0.14 l
0.14 0 l
0.15 0.25 l
0.14 0 l
0.15 -1.13 l
0.14 0.51 l
236.96 476.41 lineto
0.14 2.16 l
0.15 2.04 l
0.15 0.37 l
0.14 0.88 l
0.15 0.64 l
0.14 -0.39 l
0.15 1.27 l
0.14 0.90 l
0.15 -0.90 l
0.14 -0.26 l
0.15 0.51 l
0.15 1.27 l
0.14 0.51 l
0.15 0.90 l
0.14 0.37 l
0.15 -0.12 l
0.14 -0.64 l
0.15 -0.12 l
0.14 -0.14 l
0.15 1.27 l
0.15 0.11 l
0.14 0.40 l
0.15 0.25 l
0.14 -0.50 l
0.15 0.62 l
0.14 -0.62 l
0.15 1.01 l
0.15 0.25 l
0.14 1.02 l
0.15 0.37 l
0.14 0.25 l
0.15 -0.25 l
0.14 -0.88 l
0.15 0.11 l
0.14 0.51 l
0.15 0.26 l
0.15 0.64 l
0.14 -0.25 l
0.15 0.25 l
0.14 0.51 l
0.15 0.51 l
0.14 -0.25 l
0.15 0.76 l
0.14 -0.26 l
0.15 0.99 l
0.15 0.14 l
0.14 -0.39 l
0.15 0.90 l
0.14 -0.51 l
0.15 -1.38 l
0.14 1.49 l
0.15 0.40 l
0.14 0.37 l
0.15 0.50 l
0.15 0.65 l
0.14 0.26 l
0.15 -0.65 l
0.14 -0.12 l
0.15 -0.39 l
0.14 0.76 l
0.15 0.14 l
0.15 0.37 l
0.14 0.14 l
0.15 -0.40 l
0.14 0.26 l
0.15 0.25 l
0.14 0.90 l
0.15 -0.25 l
0.14 0.87 l
0.15 -0.50 l
0.15 0.39 l
0.14 -0.51 l
0.15 0.88 l
0.14 -0.88 l
0.15 0 l
0.14 -0.25 l
0.15 0.62 l
0.14 0.25 l
0.15 0.65 l
0.15 0.23 l
0.14 0.65 l
0.15 -0.65 l
0.14 -0.11 l
0.15 0.76 l
0.14 -0.14 l
0.15 0.25 l
0.14 -0.25 l
0.15 -0.26 l
0.15 0.65 l
0.14 -0.51 l
0.15 0.12 l
0.14 1.01 l
0.15 0 l
0.14 0.90 l
0.15 -0.25 l
0.15 -0.90 l
0.14 1.01 l
0.15 -1.13 l
0.14 0.88 l
251.52 499.96 lineto
0.14 0.14 l
0.15 0.25 l
0.14 -0.64 l
0.15 0.50 l
0.15 0.51 l
0.14 0.25 l
0.15 0 l
0.14 0.40 l
0.15 1.13 l
0.14 -1.13 l
0.15 0.37 l
0.14 0 l
0.15 -1.13 l
0.15 1.13 l
0.14 0.14 l
0.15 -0.40 l
0.14 0.26 l
0.15 0.25 l
0.14 0.76 l
0.15 0.25 l
0.14 0 l
0.15 0 l
0.15 -0.11 l
0.14 0.11 l
0.15 0.51 l
0.14 -0.25 l
0.15 0 l
0.14 0.76 l
0.15 -1.02 l
0.14 -0.11 l
0.15 0.62 l
0.15 0.51 l
0.14 0.37 l
0.15 0.25 l
0.14 -0.11 l
0.15 0 l
0.14 -0.76 l
0.15 -0.15 l
0.15 0.51 l
0.14 -0.25 l
0.15 0 l
0.14 0.39 l
0.15 0 l
0.14 -0.25 l
0.15 -0.14 l
0.14 0.65 l
0.15 0.36 l
0.15 0.40 l
0.14 0.25 l
0.15 -0.25 l
0.14 -0.14 l
0.15 -0.26 l
0.14 0.40 l
0.15 0.11 l
0.14 0 l
0.15 0 l
0.15 -0.25 l
0.14 -0.76 l
0.15 1.27 l
0.14 -0.77 l
0.15 0.91 l
0.14 -0.51 l
0.15 0.51 l
0.14 0.50 l
0.15 0.37 l
0.15 -0.51 l
0.14 -0.11 l
0.15 0.11 l
0.14 -0.25 l
0.15 -0.25 l
0.14 0 l
0.15 0.14 l
0.15 0.36 l
0.14 0.14 l
0.15 -0.14 l
0.14 0.91 l
0.15 -0.65 l
0.14 0 l
0.15 -0.26 l
0.14 0.51 l
0.15 -0.11 l
0.15 0.25 l
0.14 -0.14 l
0.15 0.25 l
0.14 -0.11 l
0.15 -0.51 l
0.14 0.62 l
0.15 0.15 l
0.14 0.50 l
0.15 -0.39 l
0.15 0.65 l
0.14 0.11 l
0.15 -0.25 l
0.14 -0.62 l
0.15 0.50 l
0.14 -0.50 l
0.15 0.36 l
0.14 -0.87 l
0.15 0.11 l
266.08 507.83 lineto
0.14 -0.14 l
0.15 0.25 l
0.14 -0.11 l
0.15 0.36 l
0.14 -0.11 l
0.15 0.25 l
0.15 -0.76 l
0.14 0.62 l
0.15 -0.25 l
0.14 0.39 l
0.15 -0.64 l
0.14 0.25 l
0.15 0.25 l
0.14 -0.25 l
0.15 0.76 l
0.15 -0.11 l
0.14 0.22 l
0.15 -0.11 l
0.14 -0.51 l
0.15 -0.25 l
0.14 0.14 l
0.15 0 l
0.14 -0.65 l
0.15 0.65 l
0.15 -0.14 l
0.14 0.65 l
0.15 0 l
0.14 0.36 l
0.15 -0.14 l
0.14 0.40 l
0.15 -0.51 l
0.14 0 l
0.15 -0.25 l
0.15 0.14 l
0.14 -0.14 l
0.15 0.14 l
0.14 -0.26 l
0.15 -0.39 l
0.14 0.65 l
0.15 0.22 l
0.15 -0.11 l
0.14 0.51 l
0.15 -0.26 l
0.14 -0.25 l
0.15 -0.25 l
0.14 0.50 l
0.15 -0.25 l
0.14 0.25 l
0.15 -0.36 l
0.15 0.48 l
0.14 -0.48 l
0.15 0.36 l
0.14 0 l
0.15 0.12 l
0.14 0 l
0.15 0 l
0.14 0.50 l
0.15 0.15 l
0.15 -0.77 l
0.14 0.37 l
0.15 -0.37 l
0.14 0.12 l
0.15 0.14 l
0.14 -0.88 l
0.15 0.62 l
0.14 0.26 l
0.15 0.25 l
0.15 0 l
0.14 0.26 l
0.15 -0.26 l
0.14 -0.25 l
0.15 0.36 l
0.14 -0.36 l
0.15 0.36 l
0.15 0 l
0.14 -0.25 l
0.15 -0.25 l
0.14 0 l
0.15 0.39 l
0.14 0 l
0.15 0.26 l
0.14 -0.51 l
0.15 0.62 l
0.15 -0.11 l
0.14 0 l
0.15 -0.40 l
0.14 0.76 l
0.15 -0.51 l
0.14 0.26 l
0.15 -0.76 l
0.14 0.25 l
0.15 0.25 l
0.15 0.40 l
0.14 0 l
0.15 -0.25 l
0.14 0.25 l
0.15 0.11 l
0.14 -0.51 l
0.15 -0.11 l
280.63 509.72 lineto
0.15 0 l
0.15 -0.51 l
0.14 -0.26 l
0.15 1.13 l
0.14 -1.38 l
0.15 1.02 l
0.14 -0.26 l
0.15 0.26 l
0.15 0.25 l
0.14 0.25 l
0.15 0.12 l
0.14 -0.77 l
0.15 0.65 l
0.14 -0.76 l
0.15 0.37 l
0.14 -0.37 l
0.15 0 l
0.15 -0.39 l
0.14 0.14 l
0.15 0.36 l
0.14 -0.36 l
0.15 0.51 l
0.14 0.76 l
0.15 0 l
0.14 -0.51 l
0.15 0.25 l
0.15 0 l
0.14 0 l
0.15 0.26 l
0.14 -0.40 l
0.15 0.14 l
0.14 -0.65 l
0.15 0.26 l
0.14 0.39 l
0.15 -0.50 l
0.15 -0.26 l
0.14 1.27 l
0.15 -0.65 l
0.14 0.26 l
0.15 -0.62 l
0.14 0.25 l
0.15 -0.65 l
0.14 0.14 l
0.15 -0.14 l
0.15 0.65 l
0.14 -0.25 l
0.15 0.36 l
0.14 0.40 l
0.15 -0.26 l
0.14 0.88 l
0.15 -0.51 l
0.15 -0.76 l
0.14 0 l
0.15 0.39 l
0.14 0.51 l
0.15 -0.65 l
0.14 0.14 l
0.15 -0.76 l
0.14 0.26 l
0.15 0 l
0.15 -0.15 l
0.14 0.40 l
0.15 1.01 l
0.14 -0.50 l
0.15 -0.26 l
0.14 -0.39 l
0.15 0.39 l
0.14 0.76 l
0.15 -1.26 l
0.15 0.76 l
0.14 -0.91 l
0.15 0.40 l
0.14 0.25 l
0.15 0.26 l
0.14 -0.51 l
0.15 0.51 l
0.14 0.25 l
0.15 -0.65 l
0.15 0.14 l
0.14 -0.39 l
0.15 0 l
0.14 -0.11 l
0.15 0.36 l
0.14 -0.36 l
0.15 -0.65 l
0.15 1.27 l
0.14 0.39 l
0.15 -0.25 l
0.14 0.11 l
0.15 0.39 l
0.14 -0.64 l
0.15 -0.12 l
0.14 -0.50 l
0.15 0.62 l
0.15 -0.26 l
0.14 0 l
0.15 0.40 l
0.14 -1.02 l
0.15 0.62 l
295.19 510.08 lineto
0.15 0.14 l
0.14 0 l
0.15 0.37 l
0.15 -0.37 l
0.14 0.26 l
0.15 -0.40 l
0.14 0.14 l
0.15 -0.65 l
0.14 1.41 l
0.15 -1.01 l
0.14 0 l
0.15 0.11 l
0.15 0 l
0.14 0.40 l
0.15 0.25 l
0.14 0.25 l
0.15 -0.64 l
0.14 0.39 l
0.15 -0.76 l
0.15 -0.25 l
0.14 0.36 l
0.15 -0.25 l
0.14 0.14 l
0.15 0 l
0.14 0.25 l
0.15 0.26 l
0.14 0.11 l
0.15 0 l
0.15 0.25 l
0.14 0.14 l
0.15 -0.64 l
0.14 -0.12 l
0.15 0.26 l
0.14 0.25 l
0.15 -0.65 l
0.14 -0.11 l
0.15 0 l
0.15 -0.25 l
0.14 0.11 l
0.15 -0.26 l
0.14 0.40 l
0.15 0.87 l
0.14 -0.25 l
0.15 0 l
0.14 -0.25 l
0.15 -0.26 l
0.15 0.90 l
0.14 -1.01 l
0.15 0.25 l
0.14 0.26 l
0.15 -0.65 l
0.14 -0.11 l
0.15 0.62 l
0.15 0.39 l
0.14 -0.39 l
0.15 0.25 l
0.14 -0.25 l
0.15 0 l
0.14 -0.77 l
0.15 0.26 l
0.14 0.51 l
0.15 -0.77 l
0.15 -0.36 l
0.14 0.25 l
0.15 0.62 l
0.14 0.14 l
0.15 -0.50 l
0.14 0.62 l
0.15 -0.62 l
0.14 0.36 l
0.15 0.14 l
0.15 0.26 l
0.14 -0.51 l
0.15 1.13 l
0.14 -0.76 l
0.15 -0.51 l
0.14 -0.62 l
0.15 0.51 l
0.14 -0.51 l
0.15 0.51 l
0.15 0 l
0.14 1.26 l
0.15 -0.39 l
0.14 -1.13 l
0.15 1.02 l
0.14 -0.40 l
0.15 0.26 l
0.15 0 l
0.14 -0.77 l
0.15 1.02 l
0.14 -0.25 l
0.15 -0.37 l
0.14 0.11 l
0.15 0 l
0.14 0.26 l
0.15 0 l
0.15 0.14 l
0.14 -0.40 l
0.15 0 l
309.75 509.57 lineto
0.15 0.65 l
0.14 -0.39 l
0.15 -0.26 l
0.14 -0.11 l
0.15 0.51 l
0.15 0.62 l
0.14 0 l
0.15 0.14 l
0.14 0.11 l
0.15 -0.36 l
0.14 -0.51 l
0.15 0.37 l
0.14 0.39 l
0.15 -0.90 l
0.15 0.39 l
0.14 -0.14 l
0.15 0 l
0.14 -0.36 l
0.15 0.25 l
0.14 0.25 l
0.15 0.12 l
0.15 -0.37 l
0.14 0.37 l
0.15 -0.12 l
0.14 0.12 l
0.15 -0.26 l
0.14 0.26 l
0.15 -0.77 l
0.14 0.26 l
0.15 0.14 l
0.15 0 l
0.14 0.51 l
0.15 0.25 l
0.14 0 l
0.15 0 l
0.14 -0.65 l
0.15 -0.25 l
0.14 0.51 l
0.15 -0.26 l
0.15 0.14 l
0.14 0 l
0.15 -0.14 l
0.14 -0.36 l
0.15 -0.51 l
0.14 0.62 l
0.15 0.25 l
0.14 0 l
0.15 0.76 l
0.15 -0.11 l
0.14 -0.39 l
0.15 -0.51 l
0.14 0.51 l
0.15 -0.37 l
0.14 0.51 l
0.15 -0.76 l
0.15 0.11 l
0.14 0.14 l
0.15 -0.40 l
0.14 0.15 l
0.15 0.36 l
0.14 0.76 l
0.15 -0.87 l
0.14 0.62 l
0.15 0.14 l
0.15 -0.65 l
0.14 0.40 l
0.15 -0.65 l
0.14 0.14 l
0.15 0.11 l
0.14 -0.25 l
0.15 0 l
0.14 0.25 l
0.15 0.40 l
0.15 0.11 l
0.14 -0.11 l
0.15 0.25 l
0.14 -0.65 l
0.15 0.14 l
0.14 -0.14 l
0.15 0 l
0.14 0.40 l
0.15 -1.02 l
0.15 0.26 l
0.14 -0.26 l
0.15 0 l
0.14 0.62 l
0.15 0.26 l
0.14 0 l
0.15 0.25 l
0.14 -0.51 l
0.15 -0.11 l
0.15 0.62 l
0.14 -0.37 l
0.15 0.26 l
0.14 -0.51 l
0.15 -0.25 l
0.14 0.25 l
0.15 -0.14 l
0.15 -0.37 l
324.31 509.97 lineto
0.15 0.51 l
0.14 -0.51 l
0.15 0.37 l
0.14 -0.26 l
0.15 -0.25 l
0.14 0 l
0.15 0.14 l
0.15 0.25 l
0.14 0 l
0.15 -0.25 l
0.14 -0.14 l
0.15 0.39 l
0.14 -0.25 l
0.15 0.87 l
0.14 0.40 l
0.15 -0.51 l
0.15 -0.65 l
0.14 0.26 l
0.15 -0.88 l
0.14 0.26 l
0.15 0.11 l
0.14 0.25 l
0.15 -0.76 l
0.14 0.40 l
0.15 0.25 l
0.15 -0.51 l
0.14 0.88 l
0.15 0.25 l
0.14 -0.11 l
0.15 0 l
0.14 -0.14 l
0.15 0.64 l
0.15 -1.01 l
0.14 0.11 l
0.15 -0.62 l
0.14 0 l
0.15 0.26 l
0.14 0.62 l
0.15 -0.77 l
0.14 0.65 l
0.15 0.12 l
0.15 -0.26 l
0.14 0.14 l
0.15 -0.14 l
0.14 -0.25 l
0.15 -0.11 l
0.14 -0.26 l
0.15 0.37 l
0.14 0.25 l
0.15 -0.62 l
0.15 0.51 l
0.14 0.37 l
0.15 0.14 l
0.14 -0.14 l
0.15 -0.12 l
0.14 0.62 l
0.15 -0.11 l
0.14 -1.16 l
0.15 0.65 l
0.15 -0.76 l
0.14 0.51 l
0.15 -0.25 l
0.14 0.62 l
0.15 0 l
0.14 -0.77 l
0.15 0.15 l
0.15 0.25 l
0.14 1.01 l
0.15 -0.25 l
0.14 0 l
0.15 -0.14 l
0.14 -0.37 l
0.15 -0.14 l
0.14 -0.25 l
0.15 0.14 l
0.15 -0.51 l
0.14 0.51 l
0.15 -0.25 l
0.14 0.25 l
0.15 0.11 l
0.14 0.40 l
0.15 0.25 l
0.14 -0.14 l
0.15 -0.51 l
0.15 0.26 l
0.14 -0.12 l
0.15 -0.14 l
0.14 0 l
0.15 0 l
0.14 0 l
0.15 -0.11 l
0.14 -0.65 l
0.15 0.14 l
0.15 0.88 l
0.14 -0.26 l
0.15 0 l
0.14 0.40 l
0.15 -0.65 l
0.14 0.14 l
338.87 509.97 lineto
0.15 0 l
0.14 -0.40 l
0.15 0 l
0.14 -0.36 l
0.15 0.62 l
0.14 -0.11 l
0.15 0.62 l
0.14 0.25 l
0.15 -0.37 l
0.15 0 l
0.14 0.37 l
0.15 -0.62 l
0.14 0.51 l
0.15 -0.40 l
0.14 -0.11 l
0.15 0 l
0.14 -0.65 l
0.15 0.40 l
0.15 -0.51 l
0.14 0.87 l
0.15 0 l
0.14 0.40 l
0.15 -0.51 l
0.14 -0.14 l
0.15 0.14 l
0.14 -0.65 l
0.15 0 l
0.15 0.25 l
0.14 0.15 l
0.15 0.25 l
0.14 -0.40 l
0.15 0.15 l
0.14 0.50 l
0.15 0.12 l
0.15 0.64 l
0.14 -0.39 l
0.15 -0.37 l
0.14 0 l
0.15 -0.90 l
0.14 0.65 l
0.15 0.11 l
0.14 -0.25 l
0.15 -0.37 l
0.15 0.76 l
0.14 0 l
0.15 0.12 l
0.14 0.39 l
0.15 -0.14 l
0.14 0 l
0.15 -0.11 l
0.14 -0.76 l
0.15 0.76 l
0.15 -0.26 l
0.14 0 l
0.15 -0.50 l
0.14 -0.15 l
0.15 0.26 l
0.14 -0.11 l
0.15 -0.15 l
0.14 0.51 l
0.15 0.76 l
0.15 -0.62 l
0.14 -0.14 l
0.15 -0.11 l
0.14 -0.65 l
0.15 0.51 l
0.14 0.14 l
0.15 -0.14 l
0.15 0 l
0.14 -0.11 l
0.15 0.62 l
0.14 0.14 l
0.15 -0.51 l
0.14 0.37 l
0.15 0 l
0.14 -0.88 l
0.15 0.26 l
0.15 0.25 l
0.14 0 l
0.15 0.25 l
0.14 -0.65 l
0.15 -0.11 l
0.14 -0.25 l
0.15 0.62 l
0.14 0.39 l
0.15 0 l
0.15 0.12 l
0.14 -0.26 l
0.15 0 l
0.14 -0.36 l
0.15 0.36 l
0.14 0 l
0.15 -0.25 l
0.14 -0.26 l
0.15 0 l
0.15 -0.36 l
0.14 1.01 l
0.15 -0.25 l
0.14 0 l
353.43 509.97 lineto
0.14 -0.65 l
0.15 0.14 l
0.14 0.11 l
0.15 -0.11 l
0.15 0.37 l
0.14 -0.26 l
0.15 0.15 l
0.14 -0.15 l
0.15 -0.11 l
0.14 0.11 l
0.15 0.51 l
0.15 -0.36 l
0.14 1.12 l
0.15 -0.36 l
0.14 -0.26 l
0.15 -0.14 l
0.14 -0.11 l
0.15 0.37 l
0.14 -0.51 l
0.15 -0.51 l
0.15 -0.11 l
0.14 0.11 l
0.15 0.25 l
0.14 -0.11 l
0.15 1.02 l
0.14 -0.26 l
0.15 0.26 l
0.14 -0.14 l
0.15 -0.37 l
0.15 0.76 l
0.14 -0.65 l
0.15 -0.76 l
0.14 0.65 l
0.15 -0.40 l
0.14 -0.36 l
0.15 0 l
0.14 0.76 l
0.15 0.37 l
0.15 -0.62 l
0.14 0.25 l
0.15 0 l
0.14 -0.25 l
0.15 -0.15 l
0.14 -0.36 l
0.15 0.25 l
0.15 0.51 l
0.14 -0.14 l
0.15 0 l
0.14 -0.11 l
0.15 0.36 l
0.14 -0.51 l
0.15 0.77 l
0.14 0 l
0.15 -0.37 l
0.15 -0.14 l
0.14 -0.26 l
0.15 0.40 l
0.14 0.11 l
0.15 -0.36 l
0.14 -0.77 l
0.15 -0.14 l
0.14 1.02 l
0.15 -0.26 l
0.15 0.77 l
0.14 0.14 l
0.15 -0.40 l
0.14 0.14 l
0.15 0.62 l
0.14 -0.76 l
0.15 -0.25 l
0.14 -0.37 l
0.15 0.62 l
0.15 -0.51 l
0.14 0.26 l
0.15 0 l
0.14 0.14 l
0.15 -0.51 l
0.14 0.76 l
0.15 -0.39 l
0.15 0.51 l
0.14 -0.37 l
0.15 -0.25 l
0.14 -0.40 l
0.15 0.51 l
0.14 -0.26 l
0.15 -0.36 l
0.14 0.51 l
0.15 0 l
0.15 0.76 l
0.14 -0.26 l
0.15 -0.14 l
0.14 0.90 l
0.15 -0.64 l
0.14 -0.62 l
0.15 0.62 l
0.14 0.50 l
0.15 -1.27 l
0.15 0.51 l
0.14 0 l
currentpoint o m
367.99 509.57 lineto
0.14 0.15 l
0.15 -0.51 l
0.14 0.62 l
0.15 0.25 l
0.14 0.40 l
0.15 -0.26 l
0.15 0 l
0.14 -0.76 l
0.15 -0.14 l
0.14 0.90 l
0.15 0.12 l
0.14 -0.88 l
0.15 0.11 l
0.15 0.65 l
0.14 -0.39 l
0.15 0.76 l
0.14 0 l
0.15 -0.11 l
0.14 -0.40 l
0.15 0 l
0.14 -0.36 l
0.15 0.25 l
0.15 0.25 l
0.14 0 l
0.15 -0.50 l
0.14 0 l
0.15 -0.40 l
0.14 0.25 l
0.15 -0.25 l
0.14 0.76 l
0.15 0.26 l
0.15 0 l
0.14 -0.26 l
0.15 0 l
0.14 -0.25 l
0.15 -0.51 l
0.14 0.76 l
0.15 -0.87 l
0.14 -0.14 l
0.15 0.50 l
0.15 -0.36 l
0.14 -0.26 l
0.15 0.26 l
0.14 0.51 l
0.15 -0.40 l
0.14 0.25 l
0.15 0.51 l
0.15 0.51 l
0.14 -0.76 l
0.15 0.14 l
0.14 -0.14 l
0.15 -0.37 l
0.14 -0.39 l
0.15 0.39 l
0.14 0 l
0.15 -0.14 l
0.15 0.25 l
0.14 0.51 l
0.15 0.14 l
0.14 0 l
0.15 -0.39 l
0.14 -0.26 l
0.15 0.15 l
0.14 -0.15 l
0.15 -0.11 l
0.15 0.11 l
0.14 -0.11 l
0.15 0.62 l
0.14 -0.36 l
0.15 -0.15 l
0.14 0.40 l
0.15 0 l
0.14 0.62 l
0.15 -0.11 l
0.15 -0.91 l
0.14 -0.11 l
0.15 0.37 l
0.14 -0.37 l
0.15 0.26 l
0.14 0 l
0.15 0.36 l
0.15 -0.62 l
0.14 -0.51 l
0.15 1.39 l
0.14 -0.62 l
0.15 0.25 l
0.14 0 l
0.15 0.37 l
0.14 0.39 l
0.15 -1.16 l
0.15 0.40 l
0.14 -0.14 l
0.15 -0.51 l
0.14 0.90 l
0.15 -0.76 l
0.14 1.02 l
0.15 -0.65 l
0.14 -0.26 l
0.15 0.40 l
o
/bg { 1 1 1 srgb } def
222.40 510.98 0.43 c p3
222.55 511.10 0.43 c p3
222.69 510.98 0.43 c p3
222.84 511.61 0.43 c p3
222.98 511.10 0.43 c p3
223.13 510.48 0.43 c p3
223.27 511.86 0.43 c p3
223.42 511.86 0.43 c p3
223.56 511.49 0.43 c p3
223.71 511.75 0.43 c p3
223.86 511.61 0.43 c p3
224.00 511.75 0.43 c p3
224.15 511.49 0.43 c p3
224.29 511.61 0.43 c p3
224.44 511.35 0.43 c p3
224.58 511.86 0.43 c p3
224.73 511.61 0.43 c p3
224.87 510.98 0.43 c p3
225.02 511.61 0.43 c p3
225.17 511.10 0.43 c p3
225.31 510.98 0.43 c p3
225.46 511.10 0.43 c p3
225.60 511.24 0.43 c p3
225.75 511.10 0.43 c p3
225.89 510.59 0.43 c p3
226.04 511.49 0.43 c p3
226.19 510.34 0.43 c p3
226.33 511.35 0.43 c p3
226.48 510.98 0.43 c p3
226.62 511.49 0.43 c p3
226.77 511.86 0.43 c p3
226.91 511.61 0.43 c p3
227.06 511.75 0.43 c p3
227.20 511.35 0.43 c p3
227.35 511.10 0.43 c p3
227.50 511.49 0.43 c p3
227.64 510.73 0.43 c p3
227.79 511.35 0.43 c p3
227.93 510.84 0.43 c p3
228.08 510.98 0.43 c p3
228.22 511.10 0.43 c p3
228.37 510.73 0.43 c p3
228.51 511.24 0.43 c p3
228.66 510.22 0.43 c p3
228.81 510.98 0.43 c p3
228.95 511.10 0.43 c p3
229.10 511.35 0.43 c p3
229.24 510.84 0.43 c p3
229.39 511.24 0.43 c p3
229.53 510.98 0.43 c p3
229.68 511.10 0.43 c p3
229.82 510.98 0.43 c p3
229.97 511.24 0.43 c p3
230.12 511.24 0.43 c p3
230.26 511.24 0.43 c p3
230.41 511.75 0.43 c p3
230.55 511.75 0.43 c p3
230.70 511.10 0.43 c p3
230.84 510.22 0.43 c p3
230.99 511.10 0.43 c p3
231.14 510.59 0.43 c p3
231.28 510.98 0.43 c p3
231.43 511.10 0.43 c p3
231.57 511.35 0.43 c p3
231.72 511.86 0.43 c p3
231.86 510.84 0.43 c p3
232.01 511.35 0.43 c p3
232.15 511.61 0.43 c p3
232.30 511.24 0.43 c p3
232.45 511.61 0.43 c p3
232.59 511.86 0.43 c p3
232.74 511.24 0.43 c p3
232.88 511.75 0.43 c p3
233.03 511.61 0.43 c p3
233.17 511.61 0.43 c p3
233.32 511.35 0.43 c p3
233.46 511.61 0.43 c p3
233.61 511.10 0.43 c p3
233.76 511.35 0.43 c p3
233.90 511.24 0.43 c p3
234.05 511.75 0.43 c p3
234.19 511.61 0.43 c p3
234.34 511.35 0.43 c p3
234.48 511.24 0.43 c p3
234.63 511.24 0.43 c p3
234.77 511.61 0.43 c p3
234.92 511.61 0.43 c p3
235.07 511.49 0.43 c p3
235.21 512.00 0.43 c p3
235.36 512.00 0.43 c p3
235.50 511.24 0.43 c p3
235.65 511.49 0.43 c p3
235.79 510.84 0.43 c p3
235.94 511.75 0.43 c p3
236.09 511.61 0.43 c p3
236.23 511.61 0.43 c p3
236.38 511.86 0.43 c p3
236.52 511.86 0.43 c p3
236.67 510.73 0.43 c p3
236.81 511.24 0.43 c p3
236.96 476.41 0.43 c p3
237.10 478.57 0.43 c p3
237.25 480.61 0.43 c p3
237.40 480.98 0.43 c p3
237.54 481.86 0.43 c p3
237.69 482.50 0.43 c p3
237.83 482.11 0.43 c p3
237.98 483.38 0.43 c p3
238.12 484.28 0.43 c p3
238.27 483.38 0.43 c p3
238.41 483.12 0.43 c p3
238.56 483.63 0.43 c p3
238.71 484.90 0.43 c p3
238.85 485.41 0.43 c p3
239.00 486.31 0.43 c p3
239.14 486.68 0.43 c p3
239.29 486.56 0.43 c p3
239.43 485.92 0.43 c p3
239.58 485.80 0.43 c p3
239.72 485.66 0.43 c p3
239.87 486.93 0.43 c p3
240.02 487.04 0.43 c p3
240.16 487.44 0.43 c p3
240.31 487.69 0.43 c p3
240.45 487.19 0.43 c p3
240.60 487.81 0.43 c p3
240.74 487.19 0.43 c p3
240.89 488.20 0.43 c p3
241.04 488.45 0.43 c p3
241.18 489.47 0.43 c p3
241.33 489.84 0.43 c p3
241.47 490.09 0.43 c p3
241.62 489.84 0.43 c p3
241.76 488.96 0.43 c p3
241.91 489.07 0.43 c p3
242.05 489.58 0.43 c p3
242.20 489.84 0.43 c p3
242.35 490.48 0.43 c p3
242.49 490.23 0.43 c p3
242.64 490.48 0.43 c p3
242.78 490.99 0.43 c p3
242.93 491.50 0.43 c p3
243.07 491.25 0.43 c p3
243.22 492.01 0.43 c p3
243.36 491.75 0.43 c p3
243.51 492.74 0.43 c p3
243.66 492.88 0.43 c p3
243.80 492.49 0.43 c p3
243.95 493.39 0.43 c p3
244.09 492.88 0.43 c p3
244.24 491.50 0.43 c p3
244.38 492.99 0.43 c p3
244.53 493.39 0.43 c p3
244.67 493.76 0.43 c p3
244.82 494.26 0.43 c p3
244.97 494.91 0.43 c p3
245.11 495.17 0.43 c p3
245.26 494.52 0.43 c p3
245.40 494.40 0.43 c p3
245.55 494.01 0.43 c p3
245.69 494.77 0.43 c p3
245.84 494.91 0.43 c p3
245.99 495.28 0.43 c p3
246.13 495.42 0.43 c p3
246.28 495.02 0.43 c p3
246.42 495.28 0.43 c p3
246.57 495.53 0.43 c p3
246.71 496.43 0.43 c p3
246.86 496.18 0.43 c p3
247.00 497.05 0.43 c p3
247.15 496.55 0.43 c p3
247.30 496.94 0.43 c p3
247.44 496.43 0.43 c p3
247.59 497.31 0.43 c p3
247.73 496.43 0.43 c p3
247.88 496.43 0.43 c p3
248.02 496.18 0.43 c p3
248.17 496.80 0.43 c p3
248.31 497.05 0.43 c p3
248.46 497.70 0.43 c p3
248.61 497.93 0.43 c p3
248.75 498.58 0.43 c p3
248.90 497.93 0.43 c p3
249.04 497.82 0.43 c p3
249.19 498.58 0.43 c p3
249.33 498.44 0.43 c p3
249.48 498.69 0.43 c p3
249.62 498.44 0.43 c p3
249.77 498.18 0.43 c p3
249.92 498.83 0.43 c p3
250.06 498.32 0.43 c p3
250.21 498.44 0.43 c p3
250.35 499.45 0.43 c p3
250.50 499.45 0.43 c p3
250.64 500.35 0.43 c p3
250.79 500.10 0.43 c p3
250.94 499.20 0.43 c p3
251.08 500.21 0.43 c p3
251.23 499.08 0.43 c p3
251.37 499.96 0.43 c p3
251.52 499.96 0.43 c p3
251.66 500.10 0.43 c p3
251.81 500.35 0.43 c p3
251.95 499.71 0.43 c p3
252.10 500.21 0.43 c p3
252.25 500.72 0.43 c p3
252.39 500.97 0.43 c p3
252.54 500.97 0.43 c p3
252.68 501.37 0.43 c p3
252.83 502.50 0.43 c p3
252.97 501.37 0.43 c p3
253.12 501.74 0.43 c p3
253.26 501.74 0.43 c p3
253.41 500.61 0.43 c p3
253.56 501.74 0.43 c p3
253.70 501.88 0.43 c p3
253.85 501.48 0.43 c p3
253.99 501.74 0.43 c p3
254.14 501.99 0.43 c p3
254.28 502.75 0.43 c p3
254.43 503.00 0.43 c p3
254.57 503.00 0.43 c p3
254.72 503.00 0.43 c p3
254.87 502.89 0.43 c p3
255.01 503.00 0.43 c p3
255.16 503.51 0.43 c p3
255.30 503.26 0.43 c p3
255.45 503.26 0.43 c p3
255.59 504.02 0.43 c p3
255.74 503.00 0.43 c p3
255.88 502.89 0.43 c p3
256.03 503.51 0.43 c p3
256.18 504.02 0.43 c p3
256.32 504.39 0.43 c p3
256.47 504.64 0.43 c p3
256.61 504.53 0.43 c p3
256.76 504.53 0.43 c p3
256.90 503.77 0.43 c p3
257.05 503.62 0.43 c p3
257.20 504.13 0.43 c p3
257.34 503.88 0.43 c p3
257.49 503.88 0.43 c p3
257.63 504.27 0.43 c p3
257.78 504.27 0.43 c p3
257.92 504.02 0.43 c p3
258.07 503.88 0.43 c p3
258.21 504.53 0.43 c p3
258.36 504.89 0.43 c p3
258.51 505.29 0.43 c p3
258.65 505.54 0.43 c p3
258.80 505.29 0.43 c p3
258.94 505.15 0.43 c p3
259.09 504.89 0.43 c p3
259.23 505.29 0.43 c p3
259.38 505.40 0.43 c p3
259.52 505.40 0.43 c p3
259.67 505.40 0.43 c p3
259.82 505.15 0.43 c p3
259.96 504.39 0.43 c p3
260.11 505.66 0.43 c p3
260.25 504.89 0.43 c p3
260.40 505.80 0.43 c p3
260.54 505.29 0.43 c p3
260.69 505.80 0.43 c p3
260.83 506.30 0.43 c p3
260.98 506.67 0.43 c p3
261.13 506.16 0.43 c p3
261.27 506.05 0.43 c p3
261.42 506.16 0.43 c p3
261.56 505.91 0.43 c p3
261.71 505.66 0.43 c p3
261.85 505.66 0.43 c p3
262.00 505.80 0.43 c p3
262.15 506.16 0.43 c p3
262.29 506.30 0.43 c p3
262.44 506.16 0.43 c p3
262.58 507.07 0.43 c p3
262.73 506.42 0.43 c p3
262.87 506.42 0.43 c p3
263.02 506.16 0.43 c p3
263.16 506.67 0.43 c p3
263.31 506.56 0.43 c p3
263.46 506.81 0.43 c p3
263.60 506.67 0.43 c p3
263.75 506.92 0.43 c p3
263.89 506.81 0.43 c p3
264.04 506.30 0.43 c p3
264.18 506.92 0.43 c p3
264.33 507.07 0.43 c p3
264.47 507.57 0.43 c p3
264.62 507.18 0.43 c p3
264.77 507.83 0.43 c p3
264.91 507.94 0.43 c p3
265.06 507.69 0.43 c p3
265.20 507.07 0.43 c p3
265.35 507.57 0.43 c p3
265.49 507.07 0.43 c p3
265.64 507.43 0.43 c p3
265.78 506.56 0.43 c p3
265.93 506.67 0.43 c p3
266.08 507.83 0.43 c p3
266.22 507.69 0.43 c p3
266.37 507.94 0.43 c p3
266.51 507.83 0.43 c p3
266.66 508.19 0.43 c p3
266.80 508.08 0.43 c p3
266.95 508.33 0.43 c p3
267.10 507.57 0.43 c p3
267.24 508.19 0.43 c p3
267.39 507.94 0.43 c p3
267.53 508.33 0.43 c p3
267.68 507.69 0.43 c p3
267.82 507.94 0.43 c p3
267.97 508.19 0.43 c p3
268.11 507.94 0.43 c p3
268.26 508.70 0.43 c p3
268.41 508.59 0.43 c p3
268.55 508.81 0.43 c p3
268.70 508.70 0.43 c p3
268.84 508.19 0.43 c p3
268.99 507.94 0.43 c p3
269.13 508.08 0.43 c p3
269.28 508.08 0.43 c p3
269.42 507.43 0.43 c p3
269.57 508.08 0.43 c p3
269.72 507.94 0.43 c p3
269.86 508.59 0.43 c p3
270.01 508.59 0.43 c p3
270.15 508.95 0.43 c p3
270.30 508.81 0.43 c p3
270.44 509.21 0.43 c p3
270.59 508.70 0.43 c p3
270.73 508.70 0.43 c p3
270.88 508.45 0.43 c p3
271.03 508.59 0.43 c p3
271.17 508.45 0.43 c p3
271.32 508.59 0.43 c p3
271.46 508.33 0.43 c p3
271.61 507.94 0.43 c p3
271.75 508.59 0.43 c p3
271.90 508.81 0.43 c p3
272.05 508.70 0.43 c p3
272.19 509.21 0.43 c p3
272.34 508.95 0.43 c p3
272.48 508.70 0.43 c p3
272.63 508.45 0.43 c p3
272.77 508.95 0.43 c p3
272.92 508.70 0.43 c p3
273.06 508.95 0.43 c p3
273.21 508.59 0.43 c p3
273.36 509.07 0.43 c p3
273.50 508.59 0.43 c p3
273.65 508.95 0.43 c p3
273.79 508.95 0.43 c p3
273.94 509.07 0.43 c p3
274.08 509.07 0.43 c p3
274.23 509.07 0.43 c p3
274.37 509.57 0.43 c p3
274.52 509.72 0.43 c p3
274.67 508.95 0.43 c p3
274.81 509.32 0.43 c p3
274.96 508.95 0.43 c p3
275.10 509.07 0.43 c p3
275.25 509.21 0.43 c p3
275.39 508.33 0.43 c p3
275.54 508.95 0.43 c p3
275.68 509.21 0.43 c p3
275.83 509.46 0.43 c p3
275.98 509.46 0.43 c p3
276.12 509.72 0.43 c p3
276.27 509.46 0.43 c p3
276.41 509.21 0.43 c p3
276.56 509.57 0.43 c p3
276.70 509.21 0.43 c p3
276.85 509.57 0.43 c p3
277.00 509.57 0.43 c p3
277.14 509.32 0.43 c p3
277.29 509.07 0.43 c p3
277.43 509.07 0.43 c p3
277.58 509.46 0.43 c p3
277.72 509.46 0.43 c p3
277.87 509.72 0.43 c p3
278.01 509.21 0.43 c p3
278.16 509.83 0.43 c p3
278.31 509.72 0.43 c p3
278.45 509.72 0.43 c p3
278.60 509.32 0.43 c p3
278.74 510.08 0.43 c p3
278.89 509.57 0.43 c p3
279.03 509.83 0.43 c p3
279.18 509.07 0.43 c p3
279.32 509.32 0.43 c p3
279.47 509.57 0.43 c p3
279.62 509.97 0.43 c p3
279.76 509.97 0.43 c p3
279.91 509.72 0.43 c p3
280.05 509.97 0.43 c p3
280.20 510.08 0.43 c p3
280.34 509.57 0.43 c p3
280.49 509.46 0.43 c p3
280.63 509.72 0.43 c p3
280.78 509.72 0.43 c p3
280.93 509.21 0.43 c p3
281.07 508.95 0.43 c p3
281.22 510.08 0.43 c p3
281.36 508.70 0.43 c p3
281.51 509.72 0.43 c p3
281.65 509.46 0.43 c p3
281.80 509.72 0.43 c p3
281.95 509.97 0.43 c p3
282.09 510.22 0.43 c p3
282.24 510.34 0.43 c p3
282.38 509.57 0.43 c p3
282.53 510.22 0.43 c p3
282.67 509.46 0.43 c p3
282.82 509.83 0.43 c p3
282.96 509.46 0.43 c p3
283.11 509.46 0.43 c p3
283.26 509.07 0.43 c p3
283.40 509.21 0.43 c p3
283.55 509.57 0.43 c p3
283.69 509.21 0.43 c p3
283.84 509.72 0.43 c p3
283.98 510.48 0.43 c p3
284.13 510.48 0.43 c p3
284.27 509.97 0.43 c p3
284.42 510.22 0.43 c p3
284.57 510.22 0.43 c p3
284.71 510.22 0.43 c p3
284.86 510.48 0.43 c p3
285.00 510.08 0.43 c p3
285.15 510.22 0.43 c p3
285.29 509.57 0.43 c p3
285.44 509.83 0.43 c p3
285.58 510.22 0.43 c p3
285.73 509.72 0.43 c p3
285.88 509.46 0.43 c p3
286.02 510.73 0.43 c p3
286.17 510.08 0.43 c p3
286.31 510.34 0.43 c p3
286.46 509.72 0.43 c p3
286.60 509.97 0.43 c p3
286.75 509.32 0.43 c p3
286.89 509.46 0.43 c p3
287.04 509.32 0.43 c p3
287.19 509.97 0.43 c p3
287.33 509.72 0.43 c p3
287.48 510.08 0.43 c p3
287.62 510.48 0.43 c p3
287.77 510.22 0.43 c p3
287.91 511.10 0.43 c p3
288.06 510.59 0.43 c p3
288.21 509.83 0.43 c p3
288.35 509.83 0.43 c p3
288.50 510.22 0.43 c p3
288.64 510.73 0.43 c p3
288.79 510.08 0.43 c p3
288.93 510.22 0.43 c p3
289.08 509.46 0.43 c p3
289.22 509.72 0.43 c p3
289.37 509.72 0.43 c p3
289.52 509.57 0.43 c p3
289.66 509.97 0.43 c p3
289.81 510.98 0.43 c p3
289.95 510.48 0.43 c p3
290.10 510.22 0.43 c p3
290.24 509.83 0.43 c p3
290.39 510.22 0.43 c p3
290.53 510.98 0.43 c p3
290.68 509.72 0.43 c p3
290.83 510.48 0.43 c p3
290.97 509.57 0.43 c p3
291.12 509.97 0.43 c p3
291.26 510.22 0.43 c p3
291.41 510.48 0.43 c p3
291.55 509.97 0.43 c p3
291.70 510.48 0.43 c p3
291.84 510.73 0.43 c p3
291.99 510.08 0.43 c p3
292.14 510.22 0.43 c p3
292.28 509.83 0.43 c p3
292.43 509.83 0.43 c p3
292.57 509.72 0.43 c p3
292.72 510.08 0.43 c p3
292.86 509.72 0.43 c p3
293.01 509.07 0.43 c p3
293.16 510.34 0.43 c p3
293.30 510.73 0.43 c p3
293.45 510.48 0.43 c p3
293.59 510.59 0.43 c p3
293.74 510.98 0.43 c p3
293.88 510.34 0.43 c p3
294.03 510.22 0.43 c p3
294.17 509.72 0.43 c p3
294.32 510.34 0.43 c p3
294.47 510.08 0.43 c p3
294.61 510.08 0.43 c p3
294.76 510.48 0.43 c p3
294.90 509.46 0.43 c p3
295.05 510.08 0.43 c p3
295.19 510.08 0.43 c p3
295.34 510.22 0.43 c p3
295.48 510.22 0.43 c p3
295.63 510.59 0.43 c p3
295.78 510.22 0.43 c p3
295.92 510.48 0.43 c p3
296.07 510.08 0.43 c p3
296.21 510.22 0.43 c p3
296.36 509.57 0.43 c p3
296.50 510.98 0.43 c p3
296.65 509.97 0.43 c p3
296.79 509.97 0.43 c p3
296.94 510.08 0.43 c p3
297.09 510.08 0.43 c p3
297.23 510.48 0.43 c p3
297.38 510.73 0.43 c p3
297.52 510.98 0.43 c p3
297.67 510.34 0.43 c p3
297.81 510.73 0.43 c p3
297.96 509.97 0.43 c p3
298.11 509.72 0.43 c p3
298.25 510.08 0.43 c p3
298.40 509.83 0.43 c p3
298.54 509.97 0.43 c p3
298.69 509.97 0.43 c p3
298.83 510.22 0.43 c p3
298.98 510.48 0.43 c p3
299.12 510.59 0.43 c p3
299.27 510.59 0.43 c p3
299.42 510.84 0.43 c p3
299.56 510.98 0.43 c p3
299.71 510.34 0.43 c p3
299.85 510.22 0.43 c p3
300.00 510.48 0.43 c p3
300.14 510.73 0.43 c p3
300.29 510.08 0.43 c p3
300.43 509.97 0.43 c p3
300.58 509.97 0.43 c p3
300.73 509.72 0.43 c p3
300.87 509.83 0.43 c p3
301.02 509.57 0.43 c p3
301.16 509.97 0.43 c p3
301.31 510.84 0.43 c p3
301.45 510.59 0.43 c p3
301.60 510.59 0.43 c p3
301.74 510.34 0.43 c p3
301.89 510.08 0.43 c p3
302.04 510.98 0.43 c p3
302.18 509.97 0.43 c p3
302.33 510.22 0.43 c p3
302.47 510.48 0.43 c p3
302.62 509.83 0.43 c p3
302.76 509.72 0.43 c p3
302.91 510.34 0.43 c p3
303.06 510.73 0.43 c p3
303.20 510.34 0.43 c p3
303.35 510.59 0.43 c p3
303.49 510.34 0.43 c p3
303.64 510.34 0.43 c p3
303.78 509.57 0.43 c p3
303.93 509.83 0.43 c p3
304.07 510.34 0.43 c p3
304.22 509.57 0.43 c p3
304.37 509.21 0.43 c p3
304.51 509.46 0.43 c p3
304.66 510.08 0.43 c p3
304.80 510.22 0.43 c p3
304.95 509.72 0.43 c p3
305.09 510.34 0.43 c p3
305.24 509.72 0.43 c p3
305.38 510.08 0.43 c p3
305.53 510.22 0.43 c p3
305.68 510.48 0.43 c p3
305.82 509.97 0.43 c p3
305.97 511.10 0.43 c p3
306.11 510.34 0.43 c p3
306.26 509.83 0.43 c p3
306.40 509.21 0.43 c p3
306.55 509.72 0.43 c p3
306.69 509.21 0.43 c p3
306.84 509.72 0.43 c p3
306.99 509.72 0.43 c p3
307.13 510.98 0.43 c p3
307.28 510.59 0.43 c p3
307.42 509.46 0.43 c p3
307.57 510.48 0.43 c p3
307.71 510.08 0.43 c p3
307.86 510.34 0.43 c p3
308.01 510.34 0.43 c p3
308.15 509.57 0.43 c p3
308.30 510.59 0.43 c p3
308.44 510.34 0.43 c p3
308.59 509.97 0.43 c p3
308.73 510.08 0.43 c p3
308.88 510.08 0.43 c p3
309.02 510.34 0.43 c p3
309.17 510.34 0.43 c p3
309.32 510.48 0.43 c p3
309.46 510.08 0.43 c p3
309.61 510.08 0.43 c p3
309.75 509.57 0.43 c p3
309.90 510.22 0.43 c p3
310.04 509.83 0.43 c p3
310.19 509.57 0.43 c p3
310.33 509.46 0.43 c p3
310.48 509.97 0.43 c p3
310.63 510.59 0.43 c p3
310.77 510.59 0.43 c p3
310.92 510.73 0.43 c p3
311.06 510.84 0.43 c p3
311.21 510.48 0.43 c p3
311.35 509.97 0.43 c p3
311.50 510.34 0.43 c p3
311.64 510.73 0.43 c p3
311.79 509.83 0.43 c p3
311.94 510.22 0.43 c p3
312.08 510.08 0.43 c p3
312.23 510.08 0.43 c p3
312.37 509.72 0.43 c p3
312.52 509.97 0.43 c p3
312.66 510.22 0.43 c p3
312.81 510.34 0.43 c p3
312.96 509.97 0.43 c p3
313.10 510.34 0.43 c p3
313.25 510.22 0.43 c p3
313.39 510.34 0.43 c p3
313.54 510.08 0.43 c p3
313.68 510.34 0.43 c p3
313.83 509.57 0.43 c p3
313.97 509.83 0.43 c p3
314.12 509.97 0.43 c p3
314.27 509.97 0.43 c p3
314.41 510.48 0.43 c p3
314.56 510.73 0.43 c p3
314.70 510.73 0.43 c p3
314.85 510.73 0.43 c p3
314.99 510.08 0.43 c p3
315.14 509.83 0.43 c p3
315.28 510.34 0.43 c p3
315.43 510.08 0.43 c p3
315.58 510.22 0.43 c p3
315.72 510.22 0.43 c p3
315.87 510.08 0.43 c p3
316.01 509.72 0.43 c p3
316.16 509.21 0.43 c p3
316.30 509.83 0.43 c p3
316.45 510.08 0.43 c p3
316.59 510.08 0.43 c p3
316.74 510.84 0.43 c p3
316.89 510.73 0.43 c p3
317.03 510.34 0.43 c p3
317.18 509.83 0.43 c p3
317.32 510.34 0.43 c p3
317.47 509.97 0.43 c p3
317.61 510.48 0.43 c p3
317.76 509.72 0.43 c p3
317.91 509.83 0.43 c p3
318.05 509.97 0.43 c p3
318.20 509.57 0.43 c p3
318.34 509.72 0.43 c p3
318.49 510.08 0.43 c p3
318.63 510.84 0.43 c p3
318.78 509.97 0.43 c p3
318.92 510.59 0.43 c p3
319.07 510.73 0.43 c p3
319.22 510.08 0.43 c p3
319.36 510.48 0.43 c p3
319.51 509.83 0.43 c p3
319.65 509.97 0.43 c p3
319.80 510.08 0.43 c p3
319.94 509.83 0.43 c p3
320.09 509.83 0.43 c p3
320.23 510.08 0.43 c p3
320.38 510.48 0.43 c p3
320.53 510.59 0.43 c p3
320.67 510.48 0.43 c p3
320.82 510.73 0.43 c p3
320.96 510.08 0.43 c p3
321.11 510.22 0.43 c p3
321.25 510.08 0.43 c p3
321.40 510.08 0.43 c p3
321.54 510.48 0.43 c p3
321.69 509.46 0.43 c p3
321.84 509.72 0.43 c p3
321.98 509.46 0.43 c p3
322.13 509.46 0.43 c p3
322.27 510.08 0.43 c p3
322.42 510.34 0.43 c p3
322.56 510.34 0.43 c p3
322.71 510.59 0.43 c p3
322.85 510.08 0.43 c p3
323.00 509.97 0.43 c p3
323.15 510.59 0.43 c p3
323.29 510.22 0.43 c p3
323.44 510.48 0.43 c p3
323.58 509.97 0.43 c p3
323.73 509.72 0.43 c p3
323.87 509.97 0.43 c p3
324.02 509.83 0.43 c p3
324.17 509.46 0.43 c p3
324.31 509.97 0.43 c p3
324.46 510.48 0.43 c p3
324.60 509.97 0.43 c p3
324.75 510.34 0.43 c p3
324.89 510.08 0.43 c p3
325.04 509.83 0.43 c p3
325.18 509.83 0.43 c p3
325.33 509.97 0.43 c p3
325.48 510.22 0.43 c p3
325.62 510.22 0.43 c p3
325.77 509.97 0.43 c p3
325.91 509.83 0.43 c p3
326.06 510.22 0.43 c p3
326.20 509.97 0.43 c p3
326.35 510.84 0.43 c p3
326.49 511.24 0.43 c p3
326.64 510.73 0.43 c p3
326.79 510.08 0.43 c p3
326.93 510.34 0.43 c p3
327.08 509.46 0.43 c p3
327.22 509.72 0.43 c p3
327.37 509.83 0.43 c p3
327.51 510.08 0.43 c p3
327.66 509.32 0.43 c p3
327.80 509.72 0.43 c p3
327.95 509.97 0.43 c p3
328.10 509.46 0.43 c p3
328.24 510.34 0.43 c p3
328.39 510.59 0.43 c p3
328.53 510.48 0.43 c p3
328.68 510.48 0.43 c p3
328.82 510.34 0.43 c p3
328.97 510.98 0.43 c p3
329.12 509.97 0.43 c p3
329.26 510.08 0.43 c p3
329.41 509.46 0.43 c p3
329.55 509.46 0.43 c p3
329.70 509.72 0.43 c p3
329.84 510.34 0.43 c p3
329.99 509.57 0.43 c p3
330.13 510.22 0.43 c p3
330.28 510.34 0.43 c p3
330.43 510.08 0.43 c p3
330.57 510.22 0.43 c p3
330.72 510.08 0.43 c p3
330.86 509.83 0.43 c p3
331.01 509.72 0.43 c p3
331.15 509.46 0.43 c p3
331.30 509.83 0.43 c p3
331.44 510.08 0.43 c p3
331.59 509.46 0.43 c p3
331.74 509.97 0.43 c p3
331.88 510.34 0.43 c p3
332.03 510.48 0.43 c p3
332.17 510.34 0.43 c p3
332.32 510.22 0.43 c p3
332.46 510.84 0.43 c p3
332.61 510.73 0.43 c p3
332.75 509.57 0.43 c p3
332.90 510.22 0.43 c p3
333.05 509.46 0.43 c p3
333.19 509.97 0.43 c p3
333.34 509.72 0.43 c p3
333.48 510.34 0.43 c p3
333.63 510.34 0.43 c p3
333.77 509.57 0.43 c p3
333.92 509.72 0.43 c p3
334.07 509.97 0.43 c p3
334.21 510.98 0.43 c p3
334.36 510.73 0.43 c p3
334.50 510.73 0.43 c p3
334.65 510.59 0.43 c p3
334.79 510.22 0.43 c p3
334.94 510.08 0.43 c p3
335.08 509.83 0.43 c p3
335.23 509.97 0.43 c p3
335.38 509.46 0.43 c p3
335.52 509.97 0.43 c p3
335.67 509.72 0.43 c p3
335.81 509.97 0.43 c p3
335.96 510.08 0.43 c p3
336.10 510.48 0.43 c p3
336.25 510.73 0.43 c p3
336.39 510.59 0.43 c p3
336.54 510.08 0.43 c p3
336.69 510.34 0.43 c p3
336.83 510.22 0.43 c p3
336.98 510.08 0.43 c p3
337.12 510.08 0.43 c p3
337.27 510.08 0.43 c p3
337.41 510.08 0.43 c p3
337.56 509.97 0.43 c p3
337.70 509.32 0.43 c p3
337.85 509.46 0.43 c p3
338.00 510.34 0.43 c p3
338.14 510.08 0.43 c p3
338.29 510.08 0.43 c p3
338.43 510.48 0.43 c p3
338.58 509.83 0.43 c p3
338.72 509.97 0.43 c p3
338.87 509.97 0.43 c p3
339.02 509.97 0.43 c p3
339.16 509.57 0.43 c p3
339.31 509.57 0.43 c p3
339.45 509.21 0.43 c p3
339.60 509.83 0.43 c p3
339.74 509.72 0.43 c p3
339.89 510.34 0.43 c p3
340.03 510.59 0.43 c p3
340.18 510.22 0.43 c p3
340.33 510.22 0.43 c p3
340.47 510.59 0.43 c p3
340.62 509.97 0.43 c p3
340.76 510.48 0.43 c p3
340.91 510.08 0.43 c p3
341.05 509.97 0.43 c p3
341.20 509.97 0.43 c p3
341.34 509.32 0.43 c p3
341.49 509.72 0.43 c p3
341.64 509.21 0.43 c p3
341.78 510.08 0.43 c p3
341.93 510.08 0.43 c p3
342.07 510.48 0.43 c p3
342.22 509.97 0.43 c p3
342.36 509.83 0.43 c p3
342.51 509.97 0.43 c p3
342.65 509.32 0.43 c p3
342.80 509.32 0.43 c p3
342.95 509.57 0.43 c p3
343.09 509.72 0.43 c p3
343.24 509.97 0.43 c p3
343.38 509.57 0.43 c p3
343.53 509.72 0.43 c p3
343.67 510.22 0.43 c p3
343.82 510.34 0.43 c p3
343.97 510.98 0.43 c p3
344.11 510.59 0.43 c p3
344.26 510.22 0.43 c p3
344.40 510.22 0.43 c p3
344.55 509.32 0.43 c p3
344.69 509.97 0.43 c p3
344.84 510.08 0.43 c p3
344.98 509.83 0.43 c p3
345.13 509.46 0.43 c p3
345.28 510.22 0.43 c p3
345.42 510.22 0.43 c p3
345.57 510.34 0.43 c p3
345.71 510.73 0.43 c p3
345.86 510.59 0.43 c p3
346.00 510.59 0.43 c p3
346.15 510.48 0.43 c p3
346.29 509.72 0.43 c p3
346.44 510.48 0.43 c p3
346.59 510.22 0.43 c p3
346.73 510.22 0.43 c p3
346.88 509.72 0.43 c p3
347.02 509.57 0.43 c p3
347.17 509.83 0.43 c p3
347.31 509.72 0.43 c p3
347.46 509.57 0.43 c p3
347.60 510.08 0.43 c p3
347.75 510.84 0.43 c p3
347.90 510.22 0.43 c p3
348.04 510.08 0.43 c p3
348.19 509.97 0.43 c p3
348.33 509.32 0.43 c p3
348.48 509.83 0.43 c p3
348.62 509.97 0.43 c p3
348.77 509.83 0.43 c p3
348.92 509.83 0.43 c p3
349.06 509.72 0.43 c p3
349.21 510.34 0.43 c p3
349.35 510.48 0.43 c p3
349.50 509.97 0.43 c p3
349.64 510.34 0.43 c p3
349.79 510.34 0.43 c p3
349.93 509.46 0.43 c p3
350.08 509.72 0.43 c p3
350.23 509.97 0.43 c p3
350.37 509.97 0.43 c p3
350.52 510.22 0.43 c p3
350.66 509.57 0.43 c p3
350.81 509.46 0.43 c p3
350.95 509.21 0.43 c p3
351.10 509.83 0.43 c p3
351.24 510.22 0.43 c p3
351.39 510.22 0.43 c p3
351.54 510.34 0.43 c p3
351.68 510.08 0.43 c p3
351.83 510.08 0.43 c p3
351.97 509.72 0.43 c p3
352.12 510.08 0.43 c p3
352.26 510.08 0.43 c p3
352.41 509.83 0.43 c p3
352.55 509.57 0.43 c p3
352.70 509.57 0.43 c p3
352.85 509.21 0.43 c p3
352.99 510.22 0.43 c p3
353.14 509.97 0.43 c p3
353.28 509.97 0.43 c p3
353.43 509.97 0.43 c p3
353.57 509.32 0.43 c p3
353.72 509.46 0.43 c p3
353.86 509.57 0.43 c p3
354.01 509.46 0.43 c p3
354.16 509.83 0.43 c p3
354.30 509.57 0.43 c p3
354.45 509.72 0.43 c p3
354.59 509.57 0.43 c p3
354.74 509.46 0.43 c p3
354.88 509.57 0.43 c p3
355.03 510.08 0.43 c p3
355.18 509.72 0.43 c p3
355.32 510.84 0.43 c p3
355.47 510.48 0.43 c p3
355.61 510.22 0.43 c p3
355.76 510.08 0.43 c p3
355.90 509.97 0.43 c p3
356.05 510.34 0.43 c p3
356.19 509.83 0.43 c p3
356.34 509.32 0.43 c p3
356.49 509.21 0.43 c p3
356.63 509.32 0.43 c p3
356.78 509.57 0.43 c p3
356.92 509.46 0.43 c p3
357.07 510.48 0.43 c p3
357.21 510.22 0.43 c p3
357.36 510.48 0.43 c p3
357.50 510.34 0.43 c p3
357.65 509.97 0.43 c p3
357.80 510.73 0.43 c p3
357.94 510.08 0.43 c p3
358.09 509.32 0.43 c p3
358.23 509.97 0.43 c p3
358.38 509.57 0.43 c p3
358.52 509.21 0.43 c p3
358.67 509.21 0.43 c p3
358.81 509.97 0.43 c p3
358.96 510.34 0.43 c p3
359.11 509.72 0.43 c p3
359.25 509.97 0.43 c p3
359.40 509.97 0.43 c p3
359.54 509.72 0.43 c p3
359.69 509.57 0.43 c p3
359.83 509.21 0.43 c p3
359.98 509.46 0.43 c p3
360.13 509.97 0.43 c p3
360.27 509.83 0.43 c p3
360.42 509.83 0.43 c p3
360.56 509.72 0.43 c p3
360.71 510.08 0.43 c p3
360.85 509.57 0.43 c p3
361.00 510.34 0.43 c p3
361.14 510.34 0.43 c p3
361.29 509.97 0.43 c p3
361.44 509.83 0.43 c p3
361.58 509.57 0.43 c p3
361.73 509.97 0.43 c p3
361.87 510.08 0.43 c p3
362.02 509.72 0.43 c p3
362.16 508.95 0.43 c p3
362.31 508.81 0.43 c p3
362.45 509.83 0.43 c p3
362.60 509.57 0.43 c p3
362.75 510.34 0.43 c p3
362.89 510.48 0.43 c p3
363.04 510.08 0.43 c p3
363.18 510.22 0.43 c p3
363.33 510.84 0.43 c p3
363.47 510.08 0.43 c p3
363.62 509.83 0.43 c p3
363.76 509.46 0.43 c p3
363.91 510.08 0.43 c p3
364.06 509.57 0.43 c p3
364.20 509.83 0.43 c p3
364.35 509.83 0.43 c p3
364.49 509.97 0.43 c p3
364.64 509.46 0.43 c p3
364.78 510.22 0.43 c p3
364.93 509.83 0.43 c p3
365.08 510.34 0.43 c p3
365.22 509.97 0.43 c p3
365.37 509.72 0.43 c p3
365.51 509.32 0.43 c p3
365.66 509.83 0.43 c p3
365.80 509.57 0.43 c p3
365.95 509.21 0.43 c p3
366.09 509.72 0.43 c p3
366.24 509.72 0.43 c p3
366.39 510.48 0.43 c p3
366.53 510.22 0.43 c p3
366.68 510.08 0.43 c p3
366.82 510.98 0.43 c p3
366.97 510.34 0.43 c p3
367.11 509.72 0.43 c p3
367.26 510.34 0.43 c p3
367.40 510.84 0.43 c p3
367.55 509.57 0.43 c p3
367.70 510.08 0.43 c p3
367.84 510.08 0.43 c p3
367.99 509.57 0.43 c p3
368.13 509.72 0.43 c p3
368.28 509.21 0.43 c p3
368.42 509.83 0.43 c p3
368.57 510.08 0.43 c p3
368.71 510.48 0.43 c p3
368.86 510.22 0.43 c p3
369.01 510.22 0.43 c p3
369.15 509.46 0.43 c p3
369.30 509.32 0.43 c p3
369.44 510.22 0.43 c p3
369.59 510.34 0.43 c p3
369.73 509.46 0.43 c p3
369.88 509.57 0.43 c p3
370.03 510.22 0.43 c p3
370.17 509.83 0.43 c p3
370.32 510.59 0.43 c p3
370.46 510.59 0.43 c p3
370.61 510.48 0.43 c p3
370.75 510.08 0.43 c p3
370.90 510.08 0.43 c p3
371.04 509.72 0.43 c p3
371.19 509.97 0.43 c p3
371.34 510.22 0.43 c p3
371.48 510.22 0.43 c p3
371.63 509.72 0.43 c p3
371.77 509.72 0.43 c p3
371.92 509.32 0.43 c p3
372.06 509.57 0.43 c p3
372.21 509.32 0.43 c p3
372.35 510.08 0.43 c p3
372.50 510.34 0.43 c p3
372.65 510.34 0.43 c p3
372.79 510.08 0.43 c p3
372.94 510.08 0.43 c p3
373.08 509.83 0.43 c p3
373.23 509.32 0.43 c p3
373.37 510.08 0.43 c p3
373.52 509.21 0.43 c p3
373.66 509.07 0.43 c p3
373.81 509.57 0.43 c p3
373.96 509.21 0.43 c p3
374.10 508.95 0.43 c p3
374.25 509.21 0.43 c p3
374.39 509.72 0.43 c p3
374.54 509.32 0.43 c p3
374.68 509.57 0.43 c p3
374.83 510.08 0.43 c p3
374.98 510.59 0.43 c p3
375.12 509.83 0.43 c p3
375.27 509.97 0.43 c p3
375.41 509.83 0.43 c p3
375.56 509.46 0.43 c p3
375.70 509.07 0.43 c p3
375.85 509.46 0.43 c p3
375.99 509.46 0.43 c p3
376.14 509.32 0.43 c p3
376.29 509.57 0.43 c p3
376.43 510.08 0.43 c p3
376.58 510.22 0.43 c p3
376.72 510.22 0.43 c p3
376.87 509.83 0.43 c p3
377.01 509.57 0.43 c p3
377.16 509.72 0.43 c p3
377.30 509.57 0.43 c p3
377.45 509.46 0.43 c p3
377.60 509.57 0.43 c p3
377.74 509.46 0.43 c p3
377.89 510.08 0.43 c p3
378.03 509.72 0.43 c p3
378.18 509.57 0.43 c p3
378.32 509.97 0.43 c p3
378.47 509.97 0.43 c p3
378.61 510.59 0.43 c p3
378.76 510.48 0.43 c p3
378.91 509.57 0.43 c p3
379.05 509.46 0.43 c p3
379.20 509.83 0.43 c p3
379.34 509.46 0.43 c p3
379.49 509.72 0.43 c p3
379.63 509.72 0.43 c p3
379.78 510.08 0.43 c p3
379.93 509.46 0.43 c p3
380.07 508.95 0.43 c p3
380.22 510.34 0.43 c p3
380.36 509.72 0.43 c p3
380.51 509.97 0.43 c p3
380.65 509.97 0.43 c p3
380.80 510.34 0.43 c p3
380.94 510.73 0.43 c p3
381.09 509.57 0.43 c p3
381.24 509.97 0.43 c p3
381.38 509.83 0.43 c p3
381.53 509.32 0.43 c p3
381.67 510.22 0.43 c p3
381.82 509.46 0.43 c p3
381.96 510.48 0.43 c p3
382.11 509.83 0.43 c p3
382.25 509.57 0.43 c p3
382.40 509.97 0.43 c p3
0.00 0.00 432.00 576.00 cl
0 0 0 srgb
0.75 setlinewidth
[] 0 setdash
1 setlinecap
1 setlinejoin
10.00 setmiterlimit
np
236.96 345.60 m
145.59 0 l
o
np
236.96 345.60 m
0 -5.76 l
o
np
266.08 345.60 m
0 -5.76 l
o
np
295.19 345.60 m
0 -5.76 l
o
np
324.31 345.60 m
0 -5.76 l
o
np
353.43 345.60 m
0 -5.76 l
o
np
382.55 345.60 m
0 -5.76 l
o
/Font1 findfont 10 s
236.96 329.47 (0) .5 0 t
266.08 329.47 (200) .5 0 t
295.19 329.47 (400) .5 0 t
324.31 329.47 (600) .5 0 t
353.43 329.47 (800) .5 0 t
382.55 329.47 (1000) .5 0 t
np
216.00 352.00 m
0 161.70 l
o
np
216.00 352.00 m
-5.76 0 l
o
np
216.00 375.10 m
-5.76 0 l
o
np
216.00 398.20 m
-5.76 0 l
o
np
216.00 421.30 m
-5.76 0 l
o
np
216.00 444.40 m
-5.76 0 l
o
np
216.00 467.50 m
-5.76 0 l
o
np
216.00 490.60 m
-5.76 0 l
o
np
216.00 513.70 m
-5.76 0 l
o
209.09 348.41 (0.0) 1 0 t
209.09 371.51 (0.2) 1 0 t
209.09 394.61 (0.4) 1 0 t
209.09 417.71 (0.6) 1 0 t
209.09 440.81 (0.8) 1 0 t
209.09 463.91 (1.0) 1 0 t
209.09 487.01 (1.2) 1 0 t
209.09 510.11 (1.4) 1 0 t
np
216.00 345.60 m
172.80 0 l
0 172.80 l
-172.80 0 l
0 -172.80 l
o
0.00 0.00 432.00 576.00 cl
/Font1 findfont 10 s
0 0 0 srgb
302.40 313.34 (Zeit / ms \(total\)) .5 0 t
190.66 432.00 (U / V) .5 90 t
216.00 345.60 388.80 518.40 cl
0 0 0 srgb
0.38 setlinewidth
[ 1.12 1.88] 0 setdash
1 setlinecap
1 setlinejoin
10.00 setmiterlimit
np
222.98 345.60 m
0 172.80 l
o
np
235.21 345.60 m
0 172.80 l
o
np
238.71 345.60 m
0 172.80 l
o
np
272.92 345.60 m
0 172.80 l
o
86.40 57.60 388.80 288.00 cl
1 0 0 srgb
1.50 setlinewidth
[] 0 setdash
1 setlinecap
1 setlinejoin
10.00 setmiterlimit
np
97.60 279.47 m
1.41 -10.89 l
1.40 -10.33 l
1.41 -9.80 l
1.41 -9.30 l
1.41 -8.83 l
1.40 -8.38 l
1.41 -7.95 l
1.41 -7.54 l
1.40 -7.16 l
1.41 -6.79 l
1.41 -6.45 l
1.40 -6.12 l
1.41 -5.81 l
1.41 -5.51 l
1.41 -5.23 l
1.40 -4.96 l
1.41 -4.71 l
1.41 -4.46 l
1.40 -4.25 l
1.41 -4.02 l
1.41 -3.82 l
1.40 -3.62 l
1.41 -3.44 l
1.41 -3.27 l
1.41 -3.09 l
1.40 -2.94 l
1.41 -2.79 l
1.41 -2.65 l
1.40 -2.51 l
1.41 -2.38 l
1.41 -2.27 l
1.41 -2.14 l
1.40 -2.04 l
1.41 -1.93 l
1.41 -1.84 l
1.40 -1.74 l
1.41 -1.65 l
1.41 -1.57 l
1.40 -1.49 l
1.41 -1.41 l
1.41 -1.34 l
1.41 -1.27 l
1.40 -1.21 l
1.41 -1.14 l
1.41 -1.09 l
1.40 -1.03 l
1.41 -0.98 l
1.41 -0.93 l
1.40 -0.88 l
1.41 -0.84 l
1.41 -0.79 l
1.41 -0.75 l
1.40 -0.72 l
1.41 -0.68 l
1.41 -0.64 l
1.40 -0.61 l
1.41 -0.58 l
1.41 -0.55 l
1.41 -0.52 l
1.40 -0.50 l
1.41 -0.47 l
1.41 -0.44 l
1.40 -0.43 l
1.41 -0.40 l
1.41 -0.38 l
1.40 -0.36 l
1.41 -0.35 l
1.41 -0.32 l
1.41 -0.31 l
1.40 -0.29 l
1.41 -0.28 l
1.41 -0.27 l
1.40 -0.25 l
1.41 -0.24 l
1.41 -0.22 l
1.40 -0.22 l
1.41 -0.20 l
1.41 -0.19 l
1.41 -0.19 l
1.40 -0.17 l
1.41 -0.16 l
1.41 -0.16 l
1.40 -0.15 l
1.41 -0.14 l
1.41 -0.13 l
1.41 -0.13 l
1.40 -0.12 l
1.41 -0.12 l
1.41 -0.10 l
1.40 -0.11 l
1.41 -0.10 l
1.41 -0.09 l
1.40 -0.09 l
1.41 -0.08 l
1.41 -0.08 l
1.41 -0.07 l
1.40 -0.08 l
1.41 -0.06 l
1.41 -0.07 l
238.30 67.26 lineto
1.41 -0.06 l
1.41 -0.05 l
1.40 -0.05 l
1.41 -0.05 l
1.41 -0.05 l
1.41 -0.04 l
1.40 -0.05 l
1.41 -0.04 l
1.41 -0.03 l
1.40 -0.04 l
1.41 -0.04 l
1.41 -0.03 l
1.40 -0.03 l
1.41 -0.03 l
1.41 -0.03 l
1.41 -0.02 l
1.40 -0.03 l
1.41 -0.02 l
1.41 -0.02 l
1.40 -0.03 l
1.41 -0.02 l
1.41 -0.01 l
1.41 -0.02 l
1.40 -0.02 l
1.41 -0.02 l
1.41 -0.01 l
1.40 -0.02 l
1.41 -0.01 l
1.41 -0.01 l
1.40 -0.02 l
1.41 -0.01 l
1.41 -0.01 l
1.41 -0.01 l
1.40 -0.01 l
1.41 -0.01 l
1.41 -0.01 l
1.40 -0.01 l
1.41 -0.01 l
1.41 -0.01 l
1.40 0 l
1.41 -0.01 l
1.41 -0.01 l
1.41 0 l
1.40 -0.01 l
1.41 -0.01 l
1.41 0 l
1.40 -0.01 l
1.41 0 l
1.41 -0.01 l
1.41 0 l
1.40 0 l
1.41 -0.01 l
1.41 0 l
1.40 -0.01 l
1.41 0 l
1.41 0 l
1.40 -0.01 l
1.41 0 l
1.41 0 l
1.41 0 l
1.40 -0.01 l
1.41 0 l
1.41 0 l
1.40 0 l
1.41 -0.01 l
1.41 0 l
1.40 0 l
1.41 0 l
1.41 0 l
1.41 0 l
1.40 -0.01 l
1.41 0 l
1.41 0 l
1.40 0 l
1.41 0 l
1.41 0 l
1.41 0 l
1.40 0 l
1.41 0 l
1.41 -0.01 l
1.40 0 l
1.41 0 l
1.41 0 l
1.40 0 l
1.41 0 l
1.41 0 l
1.41 0 l
1.40 0 l
1.41 0 l
1.41 0 l
1.40 0 l
1.41 0 l
1.41 0 l
1.40 0 l
1.41 -0.01 l
1.41 0 l
1.41 0 l
1.40 0 l
1.41 0 l
o
0.00 0.00 432.00 576.00 cl
0 0 0 srgb
0.75 setlinewidth
[] 0 setdash
1 setlinecap
1 setlinejoin
10.00 setmiterlimit
np
97.60 57.60 m
280.00 0 l
o
np
97.60 57.60 m
0 -5.76 l
o
np
153.60 57.60 m
0 -5.76 l
o
np
209.60 57.60 m
0 -5.76 l
o
np
265.60 57.60 m
0 -5.76 l
o
np
321.60 57.60 m
0 -5.76 l
o
np
377.60 57.60 m
0 -5.76 l
o
/Font1 findfont 10 s
97.60 41.47 (0) .5 0 t
153.60 41.47 (200) .5 0 t
209.60 41.47 (400) .5 0 t
265.60 41.47 (600) .5 0 t
321.60 41.47 (800) .5 0 t
377.60 41.47 (1000) .5 0 t
np
86.40 68.27 m
0 186.72 l
o
np
86.40 68.27 m
-5.76 0 l
o
np
86.40 114.95 m
-5.76 0 l
o
np
86.40 161.63 m
-5.76 0 l
o
np
86.40 208.31 m
-5.76 0 l
o
np
86.40 254.99 m
-5.76 0 l
o
79.49 64.68 (0.00) 1 0 t
79.49 111.36 (0.02) 1 0 t
79.49 158.04 (0.04) 1 0 t
79.49 204.72 (0.06) 1 0 t
79.49 251.40 (0.08) 1 0 t
np
86.40 57.60 m
302.40 0 l
0 230.40 l
-302.40 0 l
0 -230.40 l
o
0.00 0.00 432.00 576.00 cl
/Font1 findfont 10 s
0 0 0 srgb
237.60 13.82 (Zeit / ms \(nach Puls\)) .5 0 t
49.54 172.80 (Absorbanz A) .5 90 t
86.40 57.60 388.80 288.00 cl
/bg { 1 1 1 srgb } def
0 0 0 srgb
0.75 setlinewidth
[] 0 setdash
1 setlinecap
1 setlinejoin
10.00 setmiterlimit
101.24 251.88 0.65 c p3
101.52 248.02 0.65 c p3
101.80 241.18 0.65 c p3
102.08 238.42 0.65 c p3
102.36 239.27 0.65 c p3
102.64 244.17 0.65 c p3
102.92 245.02 0.65 c p3
103.20 246.09 0.65 c p3
103.48 236.51 0.65 c p3
103.76 235.66 0.65 c p3
104.04 232.71 0.65 c p3
104.32 230.81 0.65 c p3
104.60 234.61 0.65 c p3
104.88 229.97 0.65 c p3
105.16 234.61 0.65 c p3
105.44 227.02 0.65 c p3
105.72 225.14 0.65 c p3
106.00 217.62 0.65 c p3
106.28 214.92 0.65 c p3
106.56 213.06 0.65 c p3
106.84 214.92 0.65 c p3
107.12 221.37 0.65 c p3
107.40 220.54 0.65 c p3
107.68 216.79 0.65 c p3
107.96 214.92 0.65 c p3
108.24 210.17 0.65 c p3
108.52 212.03 0.65 c p3
108.80 210.17 0.65 c p3
109.08 206.46 0.65 c p3
109.36 202.76 0.65 c p3
109.64 204.61 0.65 c p3
109.92 199.08 0.65 c p3
110.20 200.92 0.65 c p3
110.48 193.79 0.65 c p3
110.76 192.77 0.65 c p3
111.04 195.62 0.65 c p3
111.32 189.13 0.65 c p3
111.60 192.77 0.65 c p3
111.88 202.76 0.65 c p3
112.16 191.96 0.65 c p3
112.44 189.13 0.65 c p3
112.72 186.50 0.65 c p3
113.00 182.88 0.65 c p3
113.28 178.27 0.65 c p3
113.56 176.47 0.65 c p3
113.84 181.07 0.65 c p3
114.12 181.87 0.65 c p3
114.40 184.69 0.65 c p3
114.68 179.27 0.65 c p3
114.96 178.27 0.65 c p3
115.24 175.67 0.65 c p3
115.52 174.67 0.65 c p3
115.80 177.47 0.65 c p3
116.08 175.67 0.65 c p3
116.36 173.88 0.65 c p3
116.64 167.53 0.65 c p3
116.92 169.31 0.65 c p3
117.20 163.18 0.65 c p3
117.48 166.73 0.65 c p3
117.76 163.97 0.65 c p3
118.04 167.53 0.65 c p3
118.32 161.41 0.65 c p3
118.60 167.53 0.65 c p3
118.88 167.53 0.65 c p3
119.16 169.31 0.65 c p3
119.44 164.96 0.65 c p3
119.72 163.18 0.65 c p3
120.00 158.66 0.65 c p3
120.28 157.09 0.65 c p3
120.56 152.59 0.65 c p3
120.84 157.09 0.65 c p3
121.12 157.87 0.65 c p3
121.40 152.59 0.65 c p3
121.68 153.57 0.65 c p3
121.96 151.82 0.65 c p3
122.24 153.57 0.65 c p3
122.52 155.33 0.65 c p3
122.80 150.84 0.65 c p3
123.08 154.35 0.65 c p3
123.36 153.57 0.65 c p3
123.64 146.57 0.65 c p3
123.92 146.57 0.65 c p3
124.20 140.38 0.65 c p3
124.48 142.12 0.65 c p3
124.76 148.31 0.65 c p3
125.04 141.35 0.65 c p3
125.32 149.09 0.65 c p3
125.60 143.08 0.65 c p3
125.88 143.08 0.65 c p3
126.16 142.12 0.65 c p3
126.44 140.38 0.65 c p3
126.72 144.82 0.65 c p3
127.00 141.35 0.65 c p3
127.28 137.88 0.65 c p3
127.56 136.15 0.65 c p3
127.84 136.15 0.65 c p3
128.12 133.47 0.65 c p3
128.40 125.85 0.65 c p3
128.68 133.47 0.65 c p3
128.96 130.99 0.65 c p3
129.24 130.99 0.65 c p3
129.52 138.65 0.65 c p3
129.80 130.99 0.65 c p3
130.08 130.03 0.65 c p3
130.36 132.71 0.65 c p3
130.64 130.99 0.65 c p3
130.92 129.27 0.65 c p3
131.20 124.14 0.65 c p3
131.48 122.43 0.65 c p3
131.76 122.43 0.65 c p3
132.04 122.43 0.65 c p3
132.32 123.19 0.65 c p3
132.60 122.43 0.65 c p3
132.88 119.03 0.65 c p3
133.16 120.73 0.65 c p3
133.44 120.73 0.65 c p3
133.72 115.64 0.65 c p3
134.00 122.43 0.65 c p3
134.28 123.19 0.65 c p3
134.56 119.03 0.65 c p3
134.84 115.64 0.65 c p3
135.12 113.20 0.65 c p3
135.40 111.51 0.65 c p3
135.68 112.26 0.65 c p3
135.96 112.26 0.65 c p3
136.24 117.33 0.65 c p3
136.52 118.28 0.65 c p3
136.80 114.89 0.65 c p3
137.08 116.58 0.65 c p3
137.36 116.58 0.65 c p3
137.64 113.95 0.65 c p3
137.92 113.95 0.65 c p3
138.20 115.64 0.65 c p3
138.48 116.58 0.65 c p3
138.76 112.26 0.65 c p3
139.04 109.83 0.65 c p3
139.32 107.21 0.65 c p3
139.60 105.54 0.65 c p3
139.88 107.21 0.65 c p3
140.16 108.15 0.65 c p3
140.44 109.83 0.65 c p3
140.72 107.21 0.65 c p3
141.00 106.47 0.65 c p3
141.28 106.47 0.65 c p3
141.56 106.47 0.65 c p3
141.84 108.15 0.65 c p3
142.12 113.20 0.65 c p3
142.40 104.79 0.65 c p3
142.68 109.83 0.65 c p3
142.96 103.86 0.65 c p3
143.24 107.21 0.65 c p3
143.52 103.86 0.65 c p3
143.80 100.52 0.65 c p3
144.08 98.12 0.65 c p3
144.36 101.45 0.65 c p3
144.64 102.19 0.65 c p3
144.92 101.45 0.65 c p3
145.20 103.12 0.65 c p3
145.48 104.79 0.65 c p3
145.76 104.79 0.65 c p3
146.04 103.86 0.65 c p3
146.32 101.45 0.65 c p3
146.60 100.52 0.65 c p3
146.88 101.45 0.65 c p3
147.16 95.54 0.65 c p3
147.44 99.78 0.65 c p3
147.72 99.78 0.65 c p3
148.00 101.45 0.65 c p3
148.28 98.12 0.65 c p3
148.56 98.86 0.65 c p3
148.84 97.20 0.65 c p3
149.12 98.12 0.65 c p3
149.40 96.46 0.65 c p3
149.68 97.20 0.65 c p3
149.96 100.52 0.65 c p3
150.24 96.46 0.65 c p3
150.52 95.54 0.65 c p3
150.80 92.22 0.65 c p3
151.08 94.80 0.65 c p3
151.36 90.57 0.65 c p3
151.64 89.84 0.65 c p3
151.92 91.49 0.65 c p3
152.20 95.54 0.65 c p3
152.48 92.22 0.65 c p3
152.76 95.54 0.65 c p3
153.04 93.14 0.65 c p3
153.32 98.86 0.65 c p3
153.60 98.12 0.65 c p3
153.88 90.57 0.65 c p3
154.16 91.49 0.65 c p3
154.44 89.84 0.65 c p3
154.72 90.57 0.65 c p3
155.00 88.19 0.65 c p3
155.28 88.92 0.65 c p3
155.56 87.27 0.65 c p3
155.84 92.22 0.65 c p3
156.12 88.19 0.65 c p3
156.40 89.84 0.65 c p3
156.68 87.27 0.65 c p3
156.96 91.49 0.65 c p3
157.24 89.84 0.65 c p3
157.52 88.19 0.65 c p3
157.80 89.84 0.65 c p3
158.08 84.90 0.65 c p3
158.36 85.63 0.65 c p3
158.64 84.17 0.65 c p3
158.92 84.90 0.65 c p3
159.20 88.19 0.65 c p3
159.48 89.84 0.65 c p3
159.76 88.92 0.65 c p3
160.04 88.92 0.65 c p3
160.32 93.14 0.65 c p3
160.60 88.92 0.65 c p3
160.88 89.84 0.65 c p3
161.16 85.63 0.65 c p3
161.44 85.63 0.65 c p3
161.72 83.26 0.65 c p3
162.00 84.17 0.65 c p3
162.28 81.62 0.65 c p3
162.56 84.90 0.65 c p3
162.84 84.90 0.65 c p3
163.12 86.54 0.65 c p3
163.40 85.63 0.65 c p3
163.68 86.54 0.65 c p3
163.96 85.63 0.65 c p3
164.24 87.27 0.65 c p3
164.52 89.84 0.65 c p3
164.80 85.63 0.65 c p3
165.08 84.17 0.65 c p3
165.36 84.90 0.65 c p3
165.64 81.62 0.65 c p3
165.92 83.26 0.65 c p3
166.20 84.90 0.65 c p3
166.48 86.54 0.65 c p3
166.76 83.26 0.65 c p3
167.04 84.90 0.65 c p3
216.00 201.60 367.20 247.68 cl
0 0 0 srgb
0.75 setlinewidth
[] 0 setdash
1 setlinecap
1 setlinejoin
10.00 setmiterlimit
221.60 223.94 0.43 c p1
222.20 221.49 0.43 c p1
222.79 215.27 0.43 c p1
223.39 214.17 0.43 c p1
223.98 217.61 0.43 c p1
224.58 226.14 0.43 c p1
225.17 229.54 0.43 c p1
225.77 233.19 0.43 c p1
226.37 223.35 0.43 c p1
226.96 224.52 0.43 c p1
227.56 223.01 0.43 c p1
228.15 222.81 0.43 c p1
228.75 229.79 0.43 c p1
229.34 226.08 0.43 c p1
229.94 234.08 0.43 c p1
230.54 226.60 0.43 c p1
231.13 226.30 0.43 c p1
231.73 218.87 0.43 c p1
232.32 217.50 0.43 c p1
232.92 217.17 0.43 c p1
233.51 221.53 0.43 c p1
234.11 231.67 0.43 c p1
234.71 232.57 0.43 c p1
235.30 229.78 0.43 c p1
235.90 229.34 0.43 c p1
236.49 225.22 0.43 c p1
237.09 229.46 0.43 c p1
237.69 228.97 0.43 c p1
238.28 226.12 0.43 c p1
238.88 223.27 0.43 c p1
239.47 227.41 0.43 c p1
240.07 222.21 0.43 c p1
240.66 226.30 0.43 c p1
241.26 219.03 0.43 c p1
241.86 219.48 0.43 c p1
242.45 224.79 0.43 c p1
243.05 218.28 0.43 c p1
243.64 224.57 0.43 c p1
244.24 238.86 0.43 c p1
244.83 226.85 0.43 c p1
245.43 224.89 0.43 c p1
246.03 223.18 0.43 c p1
246.62 220.19 0.43 c p1
247.22 215.94 0.43 c p1
247.81 215.23 0.43 c p1
248.41 222.59 0.43 c p1
249.00 225.13 0.43 c p1
249.60 230.20 0.43 c p1
250.20 224.85 0.43 c p1
250.79 225.06 0.43 c p1
251.39 223.25 0.43 c p1
251.98 223.44 0.43 c p1
252.58 228.40 0.43 c p1
253.17 227.55 0.43 c p1
253.77 226.69 0.43 c p1
254.37 220.05 0.43 c p1
254.96 223.68 0.43 c p1
255.56 217.29 0.43 c p1
256.15 223.14 0.43 c p1
256.75 220.97 0.43 c p1
257.34 226.79 0.43 c p1
257.94 220.36 0.43 c p1
258.54 229.39 0.43 c p1
259.13 230.67 0.43 c p1
259.73 234.19 0.43 c p1
260.32 229.94 0.43 c p1
260.92 228.94 0.43 c p1
261.51 224.45 0.43 c p1
262.11 223.68 0.43 c p1
262.71 219.20 0.43 c p1
263.30 226.07 0.43 c p1
263.90 228.24 0.43 c p1
264.49 222.73 0.43 c p1
265.09 225.12 0.43 c p1
265.69 224.04 0.43 c p1
266.28 227.39 0.43 c p1
266.88 230.73 0.43 c p1
267.47 226.16 0.43 c p1
268.07 231.70 0.43 c p1
268.66 231.79 0.43 c p1
269.26 224.01 0.43 c p1
269.86 225.07 0.43 c p1
270.45 218.30 0.43 c p1
271.05 221.53 0.43 c p1
271.64 230.39 0.43 c p1
272.24 222.60 0.43 c p1
272.83 233.40 0.43 c p1
273.43 226.80 0.43 c p1
274.03 227.79 0.43 c p1
274.62 227.55 0.43 c p1
275.22 226.32 0.43 c p1
275.81 232.89 0.43 c p1
276.41 229.44 0.43 c p1
277.00 225.99 0.43 c p1
277.60 224.73 0.43 c p1
278.20 225.65 0.43 c p1
278.79 223.17 0.43 c p1
279.39 214.42 0.43 c p1
279.98 224.95 0.43 c p1
280.58 222.69 0.43 c p1
281.17 223.56 0.43 c p1
281.77 234.11 0.43 c p1
282.37 225.28 0.43 c p1
282.96 224.91 0.43 c p1
283.56 229.13 0.43 c p1
284.15 227.78 0.43 c p1
284.75 226.43 0.43 c p1
285.34 220.75 0.43 c p1
285.94 219.39 0.43 c p1
286.54 220.18 0.43 c p1
287.13 220.97 0.43 c p1
287.73 222.70 0.43 c p1
288.32 222.51 0.43 c p1
288.92 218.97 0.43 c p1
289.51 221.87 0.43 c p1
290.11 222.62 0.43 c p1
290.71 216.92 0.43 c p1
291.30 226.24 0.43 c p1
291.90 227.92 0.43 c p1
292.49 223.37 0.43 c p1
293.09 219.79 0.43 c p1
293.69 217.40 0.43 c p1
294.28 215.96 0.43 c p1
294.88 217.59 0.43 c p1
295.47 218.27 0.43 c p1
296.07 225.36 0.43 c p1
296.66 227.21 0.43 c p1
297.26 223.59 0.43 c p1
297.86 226.37 0.43 c p1
298.45 227.02 0.43 c p1
299.05 224.33 0.43 c p1
299.64 224.96 0.43 c p1
300.24 227.72 0.43 c p1
300.83 229.53 0.43 c p1
301.43 224.68 0.43 c p1
302.03 222.20 0.43 c p1
302.62 219.50 0.43 c p1
303.22 217.97 0.43 c p1
303.81 220.67 0.43 c p1
304.41 222.43 0.43 c p1
305.00 225.13 0.43 c p1
305.60 222.40 0.43 c p1
306.20 222.01 0.43 c p1
306.79 222.57 0.43 c p1
307.39 223.12 0.43 c p1
307.98 225.79 0.43 c p1
308.58 232.71 0.43 c p1
309.17 222.62 0.43 c p1
309.77 229.51 0.43 c p1
310.37 222.49 0.43 c p1
310.96 227.25 0.43 c p1
311.56 223.52 0.43 c p1
312.15 219.81 0.43 c p1
312.75 217.27 0.43 c p1
313.34 221.97 0.43 c p1
313.94 223.40 0.43 c p1
314.54 222.95 0.43 c p1
315.13 225.54 0.43 c p1
315.73 228.13 0.43 c p1
316.32 228.60 0.43 c p1
316.92 227.89 0.43 c p1
317.51 225.30 0.43 c p1
318.11 224.59 0.43 c p1
318.71 226.21 0.43 c p1
319.30 219.18 0.43 c p1
319.90 224.99 0.43 c p1
320.49 225.43 0.43 c p1
321.09 227.97 0.43 c p1
321.69 224.19 0.43 c p1
322.28 225.54 0.43 c p1
322.88 223.86 0.43 c p1
323.47 225.45 0.43 c p1
324.07 223.75 0.43 c p1
324.66 225.10 0.43 c p1
325.26 229.71 0.43 c p1
325.86 224.96 0.43 c p1
326.45 224.19 0.43 c p1
327.05 220.39 0.43 c p1
327.64 224.04 0.43 c p1
328.24 219.07 0.43 c p1
328.83 218.52 0.43 c p1
329.43 220.98 0.43 c p1
330.03 226.47 0.43 c p1
330.62 222.65 0.43 c p1
331.22 227.20 0.43 c p1
331.81 224.53 0.43 c p1
332.41 232.12 0.43 c p1
333.00 231.53 0.43 c p1
333.60 222.34 0.43 c p1
334.20 223.84 0.43 c p1
334.79 222.09 0.43 c p1
335.39 223.36 0.43 c p1
335.98 220.68 0.43 c p1
336.58 221.94 0.43 c p1
337.17 220.18 0.43 c p1
337.77 226.76 0.43 c p1
338.37 221.98 0.43 c p1
338.96 224.38 0.43 c p1
339.56 221.46 0.43 c p1
340.15 227.09 0.43 c p1
340.75 225.31 0.43 c p1
341.34 223.53 0.43 c p1
341.94 225.92 0.43 c p1
342.54 219.97 0.43 c p1
343.13 221.19 0.43 c p1
343.73 219.64 0.43 c p1
344.32 220.85 0.43 c p1
344.92 225.29 0.43 c p1
345.51 227.66 0.43 c p1
346.11 226.78 0.43 c p1
346.71 227.06 0.43 c p1
347.30 232.67 0.43 c p1
347.90 227.60 0.43 c p1
348.49 229.03 0.43 c p1
349.09 223.97 0.43 c p1
349.69 224.24 0.43 c p1
350.28 221.50 0.43 c p1
350.88 222.91 0.43 c p1
351.47 219.94 0.43 c p1
352.07 224.34 0.43 c p1
352.66 224.58 0.43 c p1
353.26 226.91 0.43 c p1
353.86 226.00 0.43 c p1
354.45 227.39 0.43 c p1
355.05 226.48 0.43 c p1
355.64 228.79 0.43 c p1
356.24 232.27 0.43 c p1
356.83 227.18 0.43 c p1
357.43 225.57 0.43 c p1
358.03 226.71 0.43 c p1
358.62 222.79 0.43 c p1
359.22 225.09 0.43 c p1
359.81 227.38 0.43 c p1
360.41 229.68 0.43 c p1
361.00 225.74 0.43 c p1
361.60 228.03 0.43 c p1
0.00 0.00 432.00 576.00 cl
0 0 0 srgb
0.75 setlinewidth
[] 0 setdash
1 setlinecap
1 setlinejoin
10.00 setmiterlimit
np
243.64 201.60 m
119.15 0 l
o
np
243.64 201.60 m
0 -5.76 l
o
np
273.43 201.60 m
0 -5.76 l
o
np
303.22 201.60 m
0 -5.76 l
o
np
333.00 201.60 m
0 -5.76 l
o
np
362.79 201.60 m
0 -5.76 l
o
/Font1 findfont 6 s
243.64 185.47 (50) .5 0 t
273.43 185.47 (100) .5 0 t
303.22 185.47 (150) .5 0 t
333.00 185.47 (200) .5 0 t
362.79 185.47 (250) .5 0 t
np
216.00 209.88 m
0 29.52 l
o
np
216.00 209.88 m
-5.76 0 l
o
np
216.00 224.64 m
-5.76 0 l
o
np
216.00 239.40 m
-5.76 0 l
o
209.09 207.73 (-0.005) 1 0 t
209.09 222.49 (0.000) 1 0 t
209.09 237.24 (0.005) 1 0 t
np
216.00 201.60 m
151.20 0 l
0 46.08 l
-151.20 0 l
0 -46.08 l
o
0.00 0.00 432.00 576.00 cl
/Font1 findfont 9 s
0 0 0 srgb
291.60 262.88 (Residuen) .5 0 t
59.04 73.44 401.76 516.96 cl
ep
%%Trailer
%%Pages: 1
%%EOF
