%!PS-Adobe-3.0 EPSF-3.0
%%DocumentNeededResources: font Helvetica
%%+ font Helvetica-Bold
%%+ font Helvetica-Oblique
%%+ font Helvetica-BoldOblique
%%+ font Symbol
%%Title: R Graphics Output
%%Creator: R Software
%%Pages: (atend)
%%BoundingBox: 0 0 432 576
%%EndComments
%%BeginProlog
/bp  { gs sRGB gs } def
% begin .ps.prolog
/gs  { gsave } bind def
/gr  { grestore } bind def
/ep  { showpage gr gr } bind def
/m   { moveto } bind def
/l  { rlineto } bind def
/np  { newpath } bind def
/cp  { closepath } bind def
/f   { fill } bind def
/o   { stroke } bind def
/c   { newpath 0 360 arc } bind def
/r   { 4 2 roll moveto 1 copy 3 -1 roll exch 0 exch rlineto 0 rlineto -1 mul 0 exch rlineto closepath } bind def
/p1  { stroke } bind def
/p2  { gsave bg fill grestore newpath } bind def
/p3  { gsave bg fill grestore stroke } bind def
/p6  { gsave bg eofill grestore newpath } bind def
/p7  { gsave bg eofill grestore stroke } bind def
/t   { 5 -2 roll moveto gsave rotate
       1 index stringwidth pop
       mul neg 0 rmoveto show grestore } bind def
/ta  { 4 -2 roll moveto gsave rotate show } bind def
/tb  { 2 -1 roll 0 rmoveto show } bind def
/cl  { grestore gsave newpath 3 index 3 index moveto 1 index
       4 -1 roll lineto  exch 1 index lineto lineto
       closepath clip newpath } bind def
/rgb { setrgbcolor } bind def
/s   { scalefont setfont } bind def
% end   .ps.prolog
/sRGB { [ /CIEBasedABC
          << /DecodeLMN
               [ { dup 0.03928 le
                        {12.92321 div}
                        {0.055 add 1.055 div 2.4 exp }
                     ifelse
                 } bind dup dup
               ]
             /MatrixLMN [0.412457 0.212673 0.019334
                         0.357576 0.715152 0.119192
                         0.180437 0.072175 0.950301]
             /WhitePoint [0.9505 1.0 1.0890]
           >>
         ] setcolorspace } bind def
/srgb { setcolor } bind def
%%IncludeResource: font Helvetica
/Helvetica findfont
dup length dict begin
  {1 index /FID ne {def} {pop pop} ifelse} forall
  /Encoding ISOLatin1Encoding def
  currentdict
  end
/Font1 exch definefont pop
%%IncludeResource: font Helvetica-Bold
/Helvetica-Bold findfont
dup length dict begin
  {1 index /FID ne {def} {pop pop} ifelse} forall
  /Encoding ISOLatin1Encoding def
  currentdict
  end
/Font2 exch definefont pop
%%IncludeResource: font Helvetica-Oblique
/Helvetica-Oblique findfont
dup length dict begin
  {1 index /FID ne {def} {pop pop} ifelse} forall
  /Encoding ISOLatin1Encoding def
  currentdict
  end
/Font3 exch definefont pop
%%IncludeResource: font Helvetica-BoldOblique
/Helvetica-BoldOblique findfont
dup length dict begin
  {1 index /FID ne {def} {pop pop} ifelse} forall
  /Encoding ISOLatin1Encoding def
  currentdict
  end
/Font4 exch definefont pop
%%IncludeResource: font Symbol
/Symbol findfont
dup length dict begin
  {1 index /FID ne {def} {pop pop} ifelse} forall
  currentdict
  end
/Font5 exch definefont pop
%%EndProlog
%%Page: 1 1
bp
0.00 0.00 432.00 576.00 cl
0.00 0.00 432.00 576.00 cl
0.00 0.00 432.00 576.00 cl
/Font1 findfont 12 s
0 0 0 srgb
48.00 508.72 (PCP-ETH) 0 0 t
48.00 494.89 (Blitzlicht-Photolyse) 0 0 t
/Font1 findfont 9 s
48.00 457.54 (File: Dy) 0 ta
-0.180 (e_1_4_V3_900V) tb
-1.125 (.dat) tb gr
48.00 334.87 (T) 0 ta
-1.080 (ue Apr  9 22:09:20 2019) tb gr
48.00 430.87 (Fitfunktion:  a + b * e) 0 ta
-0.270 (xp\(-c * t\)) tb gr
48.00 420.50 (t-Inter) 0 ta
0.270 (v) tb
-0.225 (all: 170.000 ... 5410.000 ms) tb gr
48.00 410.14 (P) 0 ta
-0.360 (ar) tb
-0.090 (ameter \(Standardabw) tb
-0.090 (eichung\):) tb gr
48.00 399.77 (  a = -0.00118 \(0.00046\)) 0 0 t
48.00 389.40 (  b = 0.41711 \(0.00223\)) 0 0 t
48.00 379.03 (  c = 1.207e+00 \(9.724e-03\) s^-1) 0 0 t
48.00 368.66 (  tau = 8.288e-01 \(6.680e-03\) s) 0 0 t
216.00 345.60 388.80 518.40 cl
0 0 0 srgb
0.75 setlinewidth
[] 0 setdash
1 setlinecap
1 setlinejoin
10.00 setmiterlimit
np
222.40 509.18 m
0.15 -0.31 l
0.14 0.51 l
0.15 -0.51 l
0.14 0.40 l
0.15 -0.61 l
0.14 0.93 l
0.15 -0.61 l
0.14 0.09 l
0.15 0.11 l
0.15 0.09 l
0.14 -0.20 l
0.15 -0.20 l
0.14 0.20 l
0.15 0.11 l
0.14 -0.11 l
0.15 -0.29 l
0.14 0 l
0.15 0.29 l
0.15 -0.41 l
0.14 0.72 l
0.15 -0.72 l
0.14 0.61 l
0.15 -0.49 l
0.14 0 l
0.15 0.09 l
0.15 0.72 l
0.14 -0.52 l
0.15 0.20 l
0.14 -0.61 l
0.15 0.61 l
0.14 -0.40 l
0.15 0.51 l
0.14 -0.40 l
0.15 -0.11 l
0.15 0.40 l
0.14 -0.49 l
0.15 0 l
0.14 0.69 l
0.15 -0.40 l
0.14 0.40 l
0.15 -0.69 l
0.14 0.40 l
0.15 -0.40 l
0.15 0.40 l
0.14 0.09 l
0.15 -0.09 l
0.14 -0.52 l
0.15 0.81 l
0.14 -0.29 l
0.15 -0.20 l
0.14 -0.20 l
0.15 0.49 l
0.15 -0.29 l
0.14 0.20 l
0.15 -0.52 l
0.14 0.21 l
0.15 -0.21 l
0.14 0.61 l
0.15 0.20 l
0.15 -0.40 l
0.14 -0.41 l
0.15 0.72 l
0.14 -0.20 l
0.15 0.20 l
0.14 -0.31 l
0.15 -0.20 l
0.14 -0.30 l
0.15 1.02 l
0.15 -0.72 l
0.14 0.11 l
0.15 0.09 l
0.14 0.40 l
0.15 -0.40 l
0.14 0 l
0.15 -0.20 l
0.14 0.20 l
0.15 -0.20 l
0.15 0.40 l
0.14 -0.20 l
0.15 0 l
0.14 -0.29 l
0.15 0.29 l
0.14 -0.29 l
0.15 0.20 l
0.14 -0.20 l
0.15 0.49 l
0.15 -0.29 l
0.14 0.20 l
0.15 -0.61 l
0.14 0.41 l
0.15 -0.41 l
0.14 0.61 l
0.15 0 l
0.15 0.29 l
0.14 -0.49 l
0.15 0.20 l
0.14 -0.31 l
0.15 0.40 l
0.14 0 l
236.96 393.51 lineto
0.14 1.21 l
0.15 2.02 l
0.15 1.82 l
0.14 1.31 l
0.15 1.42 l
0.14 2.53 l
0.15 1.33 l
0.14 1.30 l
0.15 1.72 l
0.14 0.92 l
0.15 2.44 l
0.15 0.70 l
0.14 1.30 l
0.15 1.94 l
0.14 0.70 l
0.15 1.31 l
0.14 1.22 l
0.15 1.33 l
0.14 0.61 l
0.15 1.39 l
0.15 1.33 l
0.14 0.82 l
0.15 1.91 l
0.14 0.90 l
0.15 0.12 l
0.14 1.71 l
0.15 0.81 l
0.15 0.50 l
0.14 1.62 l
0.15 -0.09 l
0.14 1.22 l
0.15 1.92 l
0.14 0.40 l
0.15 0.09 l
0.14 1.33 l
0.15 0.81 l
0.15 0.82 l
0.14 0.58 l
0.15 1.22 l
0.14 0.72 l
0.15 0.61 l
0.14 0.61 l
0.15 1.10 l
0.14 0.61 l
0.15 0.90 l
0.15 1.13 l
0.14 -0.31 l
0.15 1.91 l
0.14 -0.70 l
0.15 1.42 l
0.14 0.41 l
0.15 0.81 l
0.14 0.70 l
0.15 0.41 l
0.15 1.21 l
0.14 0.70 l
0.15 -0.20 l
0.14 1.74 l
0.15 0.09 l
0.14 0 l
0.15 1.33 l
0.15 0.49 l
0.14 0.41 l
0.15 0 l
0.14 0.20 l
0.15 1.63 l
0.14 0 l
0.15 1.21 l
0.14 0.21 l
0.15 0.20 l
0.15 0.20 l
0.14 0.29 l
0.15 1.83 l
0.14 -0.72 l
0.15 0.41 l
0.14 1.12 l
0.15 -0.11 l
0.14 1.22 l
0.15 0.11 l
0.15 0 l
0.14 0.90 l
0.15 0.61 l
0.14 0 l
0.15 0.81 l
0.14 0.09 l
0.15 1.02 l
0.14 -0.61 l
0.15 1.53 l
0.15 0 l
0.14 0.09 l
0.15 0.41 l
0.14 0.61 l
0.15 -0.21 l
0.14 1.22 l
0.15 -0.52 l
0.15 0.61 l
0.14 0.20 l
0.15 0.32 l
0.14 1.02 l
251.52 471.93 lineto
0.14 0.52 l
0.15 0.59 l
0.14 0.40 l
0.15 -0.29 l
0.15 0.70 l
0.14 0.52 l
0.15 0 l
0.14 0.81 l
0.15 0.29 l
0.14 0.21 l
0.15 0.20 l
0.14 -0.09 l
0.15 0.61 l
0.15 0.49 l
0.14 -0.20 l
0.15 0.32 l
0.14 0.38 l
0.15 0.20 l
0.14 0.52 l
0.15 0 l
0.14 0.81 l
0.15 0 l
0.15 0.41 l
0.14 0.20 l
0.15 0 l
0.14 0.81 l
0.15 -0.31 l
0.14 0.40 l
0.15 0.72 l
0.14 0 l
0.15 -0.11 l
0.15 0.50 l
0.14 0 l
0.15 0 l
0.14 0 l
0.15 1.13 l
0.14 0.49 l
0.15 0.11 l
0.15 -0.20 l
0.14 0.09 l
0.15 0.52 l
0.14 0.61 l
0.15 -0.32 l
0.14 -0.40 l
0.15 0.72 l
0.14 0.20 l
0.15 0.41 l
0.15 0.49 l
0.14 -0.09 l
0.15 0 l
0.14 0.59 l
0.15 0.11 l
0.14 0.09 l
0.15 -0.29 l
0.14 0.50 l
0.15 0.31 l
0.15 0 l
0.14 0.70 l
0.15 -0.09 l
0.14 -0.11 l
0.15 0.72 l
0.14 0 l
0.15 0 l
0.14 0.20 l
0.15 -0.11 l
0.15 0.81 l
0.14 0.32 l
0.15 0.20 l
0.14 -0.11 l
0.15 0.20 l
0.14 0.41 l
0.15 0 l
0.15 0.60 l
0.14 -0.20 l
0.15 0.41 l
0.14 0 l
0.15 -0.12 l
0.14 0.41 l
0.15 0.20 l
0.14 0.32 l
0.15 -0.20 l
0.15 0.49 l
0.14 -0.09 l
0.15 0.50 l
0.14 0 l
0.15 0.11 l
0.14 -0.52 l
0.15 1.02 l
0.14 -0.09 l
0.15 0.09 l
0.15 0 l
0.14 0.72 l
0.15 -0.72 l
0.14 0.51 l
0.15 0.10 l
0.14 0.31 l
0.15 -0.11 l
0.14 0.92 l
0.15 -0.61 l
266.08 494.10 lineto
0.14 -0.09 l
0.15 0.40 l
0.14 0.39 l
0.15 0.40 l
0.14 -0.20 l
0.15 0.31 l
0.15 0 l
0.14 0.41 l
0.15 -0.52 l
0.14 0 l
0.15 0.72 l
0.14 0.09 l
0.15 -0.09 l
0.14 0.21 l
0.15 0.49 l
0.15 -0.49 l
0.14 0.60 l
0.15 -0.11 l
0.14 -0.09 l
0.15 -0.11 l
0.14 0.41 l
0.15 0.60 l
0.14 -0.70 l
0.15 0.82 l
0.15 0.20 l
0.14 0.20 l
0.15 0.09 l
0.14 -0.09 l
0.15 -0.40 l
0.14 0.70 l
0.15 0.11 l
0.14 0.58 l
0.15 -0.38 l
0.15 0.20 l
0.14 -0.31 l
0.15 0.70 l
0.14 -0.21 l
0.15 -0.09 l
0.14 0.21 l
0.15 -0.21 l
0.15 0.21 l
0.14 0.20 l
0.15 0.20 l
0.14 0.09 l
0.15 0.52 l
0.14 -0.11 l
0.15 0 l
0.14 0.20 l
0.15 -0.40 l
0.15 0.20 l
0.14 -0.09 l
0.15 0.70 l
0.14 -0.20 l
0.15 0.31 l
0.14 0.29 l
0.15 -0.20 l
0.14 -0.29 l
0.15 0.49 l
0.15 0.12 l
0.14 0.20 l
0.15 0 l
0.14 0.20 l
0.15 -0.52 l
0.14 0.61 l
0.15 0.21 l
0.14 -0.09 l
0.15 -0.21 l
0.15 0.21 l
0.14 0.29 l
0.15 -0.20 l
0.14 0.20 l
0.15 -0.20 l
0.14 0.11 l
0.15 0.20 l
0.15 -0.11 l
0.14 0.72 l
0.15 0.29 l
0.14 -0.09 l
0.15 -0.52 l
0.14 0.73 l
0.15 -0.12 l
0.14 0 l
0.15 0 l
0.15 0 l
0.14 0 l
0.15 0.30 l
0.14 0.31 l
0.15 -0.11 l
0.14 0.11 l
0.15 -0.31 l
0.14 0.31 l
0.15 -0.11 l
0.15 0.41 l
0.14 -0.21 l
0.15 -0.09 l
0.14 0.61 l
0.15 0 l
0.14 0 l
0.15 -0.20 l
280.63 504.51 lineto
0.15 -0.20 l
0.15 0 l
0.14 0.32 l
0.15 -0.21 l
0.14 0.30 l
0.15 0 l
0.14 -0.41 l
0.15 0.61 l
0.15 0.11 l
0.14 0.09 l
0.15 -0.09 l
0.14 -0.20 l
0.15 0.09 l
0.14 0.20 l
0.15 -0.20 l
0.14 0.52 l
0.15 0.09 l
0.15 0 l
0.14 -0.20 l
0.15 0.92 l
0.14 -0.20 l
0.15 -0.21 l
0.14 0.41 l
0.15 -0.32 l
0.14 -0.29 l
0.15 0.29 l
0.15 0.21 l
0.14 0 l
0.15 0 l
0.14 0 l
0.15 0.20 l
0.14 0.41 l
0.15 -0.21 l
0.14 -0.09 l
0.15 0 l
0.15 0 l
0.14 0.21 l
0.15 -0.21 l
0.14 0.09 l
0.15 0.32 l
0.14 -0.11 l
0.15 -0.09 l
0.14 0.20 l
0.15 0.20 l
0.15 -0.31 l
0.14 0 l
0.15 0.51 l
0.14 -0.40 l
0.15 0.20 l
0.14 0.39 l
0.15 -0.50 l
0.15 0.41 l
0.14 -0.10 l
0.15 0.19 l
0.14 -0.19 l
0.15 0.50 l
0.14 -0.31 l
0.15 0 l
0.14 0.11 l
0.15 0.20 l
0.15 -0.40 l
0.14 0.49 l
0.15 -0.40 l
0.14 0.40 l
0.15 -0.20 l
0.14 0.20 l
0.15 0.52 l
0.14 -0.52 l
0.15 -0.29 l
0.15 0.49 l
0.14 -0.20 l
0.15 0.41 l
0.14 0.11 l
0.15 0 l
0.14 -0.41 l
0.15 0.09 l
0.14 0.73 l
0.15 -0.52 l
0.15 0.20 l
0.14 -0.20 l
0.15 0.11 l
0.14 0.29 l
0.15 -0.29 l
0.14 0.20 l
0.15 -0.40 l
0.15 0.61 l
0.14 -0.12 l
0.15 -0.09 l
0.14 0 l
0.15 0.30 l
0.14 -0.30 l
0.15 0.41 l
0.14 0 l
0.15 -0.72 l
0.15 0.20 l
0.14 0.20 l
0.15 0.52 l
0.14 -0.11 l
0.15 -0.20 l
295.19 509.47 lineto
0.15 -0.60 l
0.14 -0.21 l
0.15 0.41 l
0.15 -0.09 l
0.14 1.01 l
0.15 -0.72 l
0.14 -0.40 l
0.15 0.60 l
0.14 -0.29 l
0.15 0.29 l
0.14 -0.49 l
0.15 0.61 l
0.15 0 l
0.14 0 l
0.15 -0.12 l
0.14 -0.20 l
0.15 -0.20 l
0.14 0.61 l
0.15 0 l
0.15 0.20 l
0.14 -0.50 l
0.15 0.21 l
0.14 0.09 l
0.15 0.11 l
0.14 0.09 l
0.15 -0.29 l
0.14 0.70 l
0.15 -0.30 l
0.15 -0.20 l
0.14 0.20 l
0.15 -0.11 l
0.14 0 l
0.15 -0.20 l
0.14 0.20 l
0.15 0.20 l
0.14 -0.20 l
0.15 0.72 l
0.15 -0.20 l
0.14 -0.52 l
0.15 0.32 l
0.14 0.29 l
0.15 -0.20 l
0.14 0 l
0.15 -0.09 l
0.14 -0.41 l
0.15 0.41 l
0.15 0.09 l
0.14 0 l
0.15 0 l
0.14 -0.21 l
0.15 0.52 l
0.14 -0.20 l
0.15 -0.11 l
0.15 -0.30 l
0.14 0.61 l
0.15 -0.20 l
0.14 -0.32 l
0.15 0.61 l
0.14 -0.49 l
0.15 0.20 l
0.14 0 l
0.15 0.20 l
0.15 -0.61 l
0.14 0.81 l
0.15 -0.72 l
0.14 0.32 l
0.15 0 l
0.14 0.09 l
0.15 0.11 l
0.14 -0.20 l
0.15 0 l
0.15 0.29 l
0.14 -0.20 l
0.15 0 l
0.14 0.20 l
0.15 -0.09 l
0.14 0.09 l
0.15 -0.29 l
0.14 -0.11 l
0.15 0.20 l
0.15 -0.20 l
0.14 0.61 l
0.15 -0.10 l
0.14 -0.20 l
0.15 0.20 l
0.14 0.41 l
0.15 -0.81 l
0.15 0.50 l
0.14 0.31 l
0.15 -0.31 l
0.14 0 l
0.15 -0.10 l
0.14 0.10 l
0.15 0 l
0.14 0 l
0.15 0.31 l
0.15 -0.52 l
0.14 -0.29 l
0.15 0.61 l
309.75 511.10 lineto
0.15 -0.09 l
0.14 0.09 l
0.15 -0.20 l
0.14 0.20 l
0.15 -0.30 l
0.15 0.30 l
0.14 -0.41 l
0.15 0.32 l
0.14 0.40 l
0.15 -0.40 l
0.14 0.70 l
0.15 -0.50 l
0.14 0 l
0.15 -0.31 l
0.15 0.20 l
0.14 0 l
0.15 -0.09 l
0.14 0.40 l
0.15 -0.20 l
0.14 0.29 l
0.15 -0.49 l
0.15 0.40 l
0.14 -0.51 l
0.15 0.51 l
0.14 0 l
0.15 -0.40 l
0.14 0.29 l
0.15 0.11 l
0.14 -0.40 l
0.15 -0.11 l
0.15 0 l
0.14 0.51 l
0.15 -0.11 l
0.14 0 l
0.15 0.32 l
0.14 0 l
0.15 -0.12 l
0.14 -0.20 l
0.15 0.20 l
0.15 -0.49 l
0.14 -0.41 l
0.15 0.41 l
0.14 0.29 l
0.15 0.11 l
0.14 -0.20 l
0.15 0 l
0.14 0.29 l
0.15 0.21 l
0.15 -0.09 l
0.14 -0.61 l
0.15 0.49 l
0.14 -0.40 l
0.15 0.31 l
0.14 -0.11 l
0.15 0.20 l
0.15 -0.20 l
0.14 0.20 l
0.15 0.12 l
0.14 0 l
0.15 -0.61 l
0.14 0.20 l
0.15 0.29 l
0.14 -0.20 l
0.15 0 l
0.15 -0.09 l
0.14 -0.20 l
0.15 0.49 l
0.14 0.30 l
0.15 -0.39 l
0.14 -0.31 l
0.15 0 l
0.14 0.31 l
0.15 -0.31 l
0.15 0.52 l
0.14 0.18 l
0.15 -0.59 l
0.14 0.29 l
0.15 0.30 l
0.14 -0.70 l
0.15 0.11 l
0.14 -0.11 l
0.15 0.11 l
0.15 -0.31 l
0.14 0.60 l
0.15 0 l
0.14 -0.29 l
0.15 -0.11 l
0.14 0.52 l
0.15 0 l
0.14 -0.21 l
0.15 -0.51 l
0.15 0.72 l
0.14 -0.41 l
0.15 0.09 l
0.14 0 l
0.15 -0.09 l
0.14 0.41 l
0.15 -0.12 l
0.15 -0.40 l
324.31 511.30 lineto
0.15 -0.09 l
0.14 -0.20 l
0.15 0.40 l
0.14 0.09 l
0.15 -0.20 l
0.14 0.20 l
0.15 0 l
0.15 0 l
0.14 -0.20 l
0.15 0.11 l
0.14 0.39 l
0.15 -0.50 l
0.14 -0.09 l
0.15 0.09 l
0.14 0.32 l
0.15 0.38 l
0.15 -0.59 l
0.14 0.30 l
0.15 -0.41 l
0.14 0.50 l
0.15 -0.30 l
0.14 0.12 l
0.15 -0.12 l
0.14 -0.29 l
0.15 0 l
0.15 0.41 l
0.14 -0.41 l
0.15 0.29 l
0.14 0 l
0.15 -0.29 l
0.14 0.29 l
0.15 0.41 l
0.15 -0.61 l
0.14 -0.09 l
0.15 0.29 l
0.14 -0.49 l
0.15 0.09 l
0.14 0.40 l
0.15 0.12 l
0.14 -0.12 l
0.15 -0.09 l
0.15 0 l
0.14 0 l
0.15 0.21 l
0.14 -0.32 l
0.15 0.32 l
0.14 -0.61 l
0.15 0.61 l
0.14 -0.32 l
0.15 0.50 l
0.15 -0.09 l
0.14 -0.09 l
0.15 -0.41 l
0.14 0.59 l
0.15 -0.50 l
0.14 -0.20 l
0.15 -0.09 l
0.14 0.29 l
0.15 -0.09 l
0.15 0.29 l
0.14 0 l
0.15 -0.29 l
0.14 0.20 l
0.15 -0.11 l
0.14 -0.09 l
0.15 0 l
0.15 0.59 l
0.14 -0.59 l
0.15 -0.20 l
0.14 0.40 l
0.15 0.21 l
0.14 -0.12 l
0.15 0 l
0.14 -0.09 l
0.15 -0.31 l
0.15 0.40 l
0.14 -0.20 l
0.15 0 l
0.14 -0.09 l
0.15 0.20 l
0.14 0.21 l
0.15 -0.12 l
0.14 -0.60 l
0.15 0 l
0.15 0.31 l
0.14 0 l
0.15 0.20 l
0.14 0 l
0.15 -0.11 l
0.14 -0.09 l
0.15 0 l
0.14 0 l
0.15 0 l
0.15 -0.11 l
0.14 0.20 l
0.15 -0.29 l
0.14 0.09 l
0.15 0.20 l
0.14 0.11 l
338.87 511.21 lineto
0.15 0.20 l
0.14 -0.61 l
0.15 0.30 l
0.14 0.20 l
0.15 0 l
0.14 0.20 l
0.15 0.21 l
0.14 -0.50 l
0.15 -0.20 l
0.15 0.09 l
0.14 -0.09 l
0.15 0.09 l
0.14 0.40 l
0.15 -0.49 l
0.14 0 l
0.15 0.61 l
0.14 -0.12 l
0.15 -0.20 l
0.15 0.11 l
0.14 -0.51 l
0.15 0.40 l
0.14 -0.50 l
0.15 0.30 l
0.14 0.11 l
0.15 0.20 l
0.14 -0.20 l
0.15 -0.11 l
0.15 0 l
0.14 -0.20 l
0.15 0.31 l
0.14 0 l
0.15 -0.11 l
0.14 0 l
0.15 0.31 l
0.15 -0.20 l
0.14 0 l
0.15 -0.20 l
0.14 -0.21 l
0.15 0.70 l
0.14 -0.29 l
0.15 -0.11 l
0.14 -0.30 l
0.15 0.21 l
0.15 -0.21 l
0.14 -0.20 l
0.15 0.20 l
0.14 0.21 l
0.15 -0.11 l
0.14 0.31 l
0.15 -0.11 l
0.14 -0.20 l
0.15 -0.21 l
0.15 0.21 l
0.14 0.51 l
0.15 -0.40 l
0.14 0.20 l
0.15 -0.20 l
0.14 0.09 l
0.15 -0.09 l
0.14 0 l
0.15 0 l
0.15 0 l
0.14 0 l
0.15 0 l
0.14 -0.11 l
0.15 -0.30 l
0.14 0.41 l
0.15 -0.11 l
0.15 0 l
0.14 0 l
0.15 0 l
0.14 -0.30 l
0.15 0.41 l
0.14 0.20 l
0.15 -0.52 l
0.14 0.21 l
0.15 0.20 l
0.15 -0.09 l
0.14 -0.11 l
0.15 0 l
0.14 -0.10 l
0.15 0 l
0.14 0.10 l
0.15 -0.10 l
0.14 0.21 l
0.15 -0.32 l
0.15 0.32 l
0.14 -0.11 l
0.15 0.11 l
0.14 -0.32 l
0.15 0 l
0.14 -0.29 l
0.15 0.70 l
0.14 -0.20 l
0.15 -0.10 l
0.15 0.21 l
0.14 -0.32 l
0.15 -0.09 l
0.14 0.09 l
353.43 510.90 lineto
0.14 -0.41 l
0.15 0 l
0.14 0.31 l
0.15 -0.20 l
0.15 0 l
0.14 0.20 l
0.15 -0.11 l
0.14 0 l
0.15 0 l
0.14 0.21 l
0.15 0.31 l
0.15 -0.92 l
0.14 0.20 l
0.15 0.20 l
0.14 -0.09 l
0.15 -0.40 l
0.14 0.81 l
0.15 -0.41 l
0.14 -0.11 l
0.15 0 l
0.15 0.20 l
0.14 0.11 l
0.15 -0.40 l
0.14 0.20 l
0.15 0.61 l
0.14 -0.72 l
0.15 0.11 l
0.14 0 l
0.15 -0.11 l
0.15 0.61 l
0.14 -0.41 l
0.15 -0.20 l
0.14 0.41 l
0.15 -0.21 l
0.14 -0.49 l
0.15 0.09 l
0.14 0.31 l
0.15 0 l
0.15 -0.11 l
0.14 0.11 l
0.15 -0.31 l
0.14 -0.21 l
0.15 0.72 l
0.14 -0.11 l
0.15 -0.29 l
0.15 0.40 l
0.14 0 l
0.15 -0.51 l
0.14 0.51 l
0.15 -0.60 l
0.14 0.29 l
0.15 -0.29 l
0.14 0.40 l
0.15 -0.40 l
0.15 0.20 l
0.14 0.40 l
0.15 -0.31 l
0.14 -0.81 l
0.15 0.72 l
0.14 -0.41 l
0.15 0.70 l
0.14 -0.09 l
0.15 -0.31 l
0.15 0 l
0.14 0.11 l
0.15 0 l
0.14 0.09 l
0.15 -0.09 l
0.14 0.20 l
0.15 -0.52 l
0.14 0.32 l
0.15 0.20 l
0.15 -0.20 l
0.14 0.20 l
0.15 -0.31 l
0.14 -0.50 l
0.15 0.70 l
0.14 0.11 l
0.15 -0.61 l
0.15 0.50 l
0.14 -0.29 l
0.15 -0.12 l
0.14 0.12 l
0.15 0.29 l
0.14 -0.20 l
0.15 0.20 l
0.14 -0.61 l
0.15 0.41 l
0.15 -0.30 l
0.14 0.09 l
0.15 0 l
0.14 0.21 l
0.15 0.51 l
0.14 -0.40 l
0.15 -0.20 l
0.14 0.40 l
0.15 -0.31 l
0.15 -0.09 l
0.14 0.09 l
currentpoint o m
367.99 510.29 lineto
0.14 0.11 l
0.15 -0.20 l
0.14 0.20 l
0.15 -0.41 l
0.14 0.61 l
0.15 0 l
0.15 -0.31 l
0.14 -0.21 l
0.15 0 l
0.14 0 l
0.15 0.32 l
0.14 -0.41 l
0.15 0.09 l
0.15 0.52 l
0.14 0 l
0.15 -0.20 l
0.14 -0.41 l
0.15 0.09 l
0.14 -0.09 l
0.15 0.30 l
0.14 -0.09 l
0.15 0.29 l
0.15 0 l
0.14 -0.20 l
0.15 0.11 l
0.14 0 l
0.15 -0.11 l
0.14 0.31 l
0.15 0.09 l
0.14 -0.90 l
0.15 0.61 l
0.15 -0.32 l
0.14 0.41 l
0.15 -0.90 l
0.14 0.49 l
0.15 0.21 l
0.14 -0.41 l
0.15 0.20 l
0.14 -0.09 l
0.15 0 l
0.15 0.21 l
0.14 -0.52 l
0.15 0.61 l
0.14 -0.30 l
0.15 -0.11 l
0.14 0.20 l
0.15 0.52 l
0.15 -0.92 l
0.14 0.61 l
0.15 0.31 l
0.14 -0.20 l
0.15 -0.32 l
0.14 0.12 l
0.15 -0.41 l
0.14 0.20 l
0.15 0.30 l
0.15 0.40 l
0.14 -0.90 l
0.15 0.29 l
0.14 0 l
0.15 0.41 l
0.14 -0.29 l
0.15 0 l
0.14 -0.41 l
0.15 0.20 l
0.15 0 l
0.14 -0.11 l
0.15 0.41 l
0.14 -0.21 l
0.15 -0.20 l
0.14 -0.20 l
0.15 0.72 l
0.14 -0.52 l
0.15 -0.20 l
0.15 0.20 l
0.14 0.20 l
0.15 0.21 l
0.14 0.11 l
0.15 -0.20 l
0.14 -0.12 l
0.15 0.32 l
0.15 -0.11 l
0.14 -0.30 l
0.15 -0.31 l
0.14 0.31 l
0.15 -0.20 l
0.14 0.61 l
0.15 0 l
0.14 -0.52 l
0.15 -0.29 l
0.15 0.81 l
0.14 -0.32 l
0.15 -0.90 l
0.14 0.61 l
0.15 0.20 l
0.14 -0.11 l
0.15 0.11 l
0.14 -0.11 l
0.15 -0.29 l
o
/bg { 1 1 1 srgb } def
222.40 509.18 0.43 c p3
222.55 508.87 0.43 c p3
222.69 509.38 0.43 c p3
222.84 508.87 0.43 c p3
222.98 509.27 0.43 c p3
223.13 508.66 0.43 c p3
223.27 509.59 0.43 c p3
223.42 508.98 0.43 c p3
223.56 509.07 0.43 c p3
223.71 509.18 0.43 c p3
223.86 509.27 0.43 c p3
224.00 509.07 0.43 c p3
224.15 508.87 0.43 c p3
224.29 509.07 0.43 c p3
224.44 509.18 0.43 c p3
224.58 509.07 0.43 c p3
224.73 508.78 0.43 c p3
224.87 508.78 0.43 c p3
225.02 509.07 0.43 c p3
225.17 508.66 0.43 c p3
225.31 509.38 0.43 c p3
225.46 508.66 0.43 c p3
225.60 509.27 0.43 c p3
225.75 508.78 0.43 c p3
225.89 508.78 0.43 c p3
226.04 508.87 0.43 c p3
226.19 509.59 0.43 c p3
226.33 509.07 0.43 c p3
226.48 509.27 0.43 c p3
226.62 508.66 0.43 c p3
226.77 509.27 0.43 c p3
226.91 508.87 0.43 c p3
227.06 509.38 0.43 c p3
227.20 508.98 0.43 c p3
227.35 508.87 0.43 c p3
227.50 509.27 0.43 c p3
227.64 508.78 0.43 c p3
227.79 508.78 0.43 c p3
227.93 509.47 0.43 c p3
228.08 509.07 0.43 c p3
228.22 509.47 0.43 c p3
228.37 508.78 0.43 c p3
228.51 509.18 0.43 c p3
228.66 508.78 0.43 c p3
228.81 509.18 0.43 c p3
228.95 509.27 0.43 c p3
229.10 509.18 0.43 c p3
229.24 508.66 0.43 c p3
229.39 509.47 0.43 c p3
229.53 509.18 0.43 c p3
229.68 508.98 0.43 c p3
229.82 508.78 0.43 c p3
229.97 509.27 0.43 c p3
230.12 508.98 0.43 c p3
230.26 509.18 0.43 c p3
230.41 508.66 0.43 c p3
230.55 508.87 0.43 c p3
230.70 508.66 0.43 c p3
230.84 509.27 0.43 c p3
230.99 509.47 0.43 c p3
231.14 509.07 0.43 c p3
231.28 508.66 0.43 c p3
231.43 509.38 0.43 c p3
231.57 509.18 0.43 c p3
231.72 509.38 0.43 c p3
231.86 509.07 0.43 c p3
232.01 508.87 0.43 c p3
232.15 508.57 0.43 c p3
232.30 509.59 0.43 c p3
232.45 508.87 0.43 c p3
232.59 508.98 0.43 c p3
232.74 509.07 0.43 c p3
232.88 509.47 0.43 c p3
233.03 509.07 0.43 c p3
233.17 509.07 0.43 c p3
233.32 508.87 0.43 c p3
233.46 509.07 0.43 c p3
233.61 508.87 0.43 c p3
233.76 509.27 0.43 c p3
233.90 509.07 0.43 c p3
234.05 509.07 0.43 c p3
234.19 508.78 0.43 c p3
234.34 509.07 0.43 c p3
234.48 508.78 0.43 c p3
234.63 508.98 0.43 c p3
234.77 508.78 0.43 c p3
234.92 509.27 0.43 c p3
235.07 508.98 0.43 c p3
235.21 509.18 0.43 c p3
235.36 508.57 0.43 c p3
235.50 508.98 0.43 c p3
235.65 508.57 0.43 c p3
235.79 509.18 0.43 c p3
235.94 509.18 0.43 c p3
236.09 509.47 0.43 c p3
236.23 508.98 0.43 c p3
236.38 509.18 0.43 c p3
236.52 508.87 0.43 c p3
236.67 509.27 0.43 c p3
236.81 509.27 0.43 c p3
236.96 393.51 0.43 c p3
237.10 394.72 0.43 c p3
237.25 396.74 0.43 c p3
237.40 398.56 0.43 c p3
237.54 399.87 0.43 c p3
237.69 401.29 0.43 c p3
237.83 403.82 0.43 c p3
237.98 405.15 0.43 c p3
238.12 406.45 0.43 c p3
238.27 408.17 0.43 c p3
238.41 409.09 0.43 c p3
238.56 411.53 0.43 c p3
238.71 412.23 0.43 c p3
238.85 413.53 0.43 c p3
239.00 415.47 0.43 c p3
239.14 416.17 0.43 c p3
239.29 417.48 0.43 c p3
239.43 418.70 0.43 c p3
239.58 420.03 0.43 c p3
239.72 420.64 0.43 c p3
239.87 422.03 0.43 c p3
240.02 423.36 0.43 c p3
240.16 424.18 0.43 c p3
240.31 426.09 0.43 c p3
240.45 426.99 0.43 c p3
240.60 427.11 0.43 c p3
240.74 428.82 0.43 c p3
240.89 429.63 0.43 c p3
241.04 430.13 0.43 c p3
241.18 431.75 0.43 c p3
241.33 431.66 0.43 c p3
241.47 432.88 0.43 c p3
241.62 434.80 0.43 c p3
241.76 435.20 0.43 c p3
241.91 435.29 0.43 c p3
242.05 436.62 0.43 c p3
242.20 437.43 0.43 c p3
242.35 438.25 0.43 c p3
242.49 438.83 0.43 c p3
242.64 440.05 0.43 c p3
242.78 440.77 0.43 c p3
242.93 441.38 0.43 c p3
243.07 441.99 0.43 c p3
243.22 443.09 0.43 c p3
243.36 443.70 0.43 c p3
243.51 444.60 0.43 c p3
243.66 445.73 0.43 c p3
243.80 445.42 0.43 c p3
243.95 447.33 0.43 c p3
244.09 446.63 0.43 c p3
244.24 448.05 0.43 c p3
244.38 448.46 0.43 c p3
244.53 449.27 0.43 c p3
244.67 449.97 0.43 c p3
244.82 450.38 0.43 c p3
244.97 451.59 0.43 c p3
245.11 452.29 0.43 c p3
245.26 452.09 0.43 c p3
245.40 453.83 0.43 c p3
245.55 453.92 0.43 c p3
245.69 453.92 0.43 c p3
245.84 455.25 0.43 c p3
245.99 455.74 0.43 c p3
246.13 456.15 0.43 c p3
246.28 456.15 0.43 c p3
246.42 456.35 0.43 c p3
246.57 457.98 0.43 c p3
246.71 457.98 0.43 c p3
246.86 459.19 0.43 c p3
247.00 459.40 0.43 c p3
247.15 459.60 0.43 c p3
247.30 459.80 0.43 c p3
247.44 460.09 0.43 c p3
247.59 461.92 0.43 c p3
247.73 461.20 0.43 c p3
247.88 461.61 0.43 c p3
248.02 462.73 0.43 c p3
248.17 462.62 0.43 c p3
248.31 463.84 0.43 c p3
248.46 463.95 0.43 c p3
248.61 463.95 0.43 c p3
248.75 464.85 0.43 c p3
248.90 465.46 0.43 c p3
249.04 465.46 0.43 c p3
249.19 466.27 0.43 c p3
249.33 466.36 0.43 c p3
249.48 467.38 0.43 c p3
249.62 466.77 0.43 c p3
249.77 468.30 0.43 c p3
249.92 468.30 0.43 c p3
250.06 468.39 0.43 c p3
250.21 468.80 0.43 c p3
250.35 469.41 0.43 c p3
250.50 469.20 0.43 c p3
250.64 470.42 0.43 c p3
250.79 469.90 0.43 c p3
250.94 470.51 0.43 c p3
251.08 470.71 0.43 c p3
251.23 471.03 0.43 c p3
251.37 472.05 0.43 c p3
251.52 471.93 0.43 c p3
251.66 472.45 0.43 c p3
251.81 473.04 0.43 c p3
251.95 473.44 0.43 c p3
252.10 473.15 0.43 c p3
252.25 473.85 0.43 c p3
252.39 474.37 0.43 c p3
252.54 474.37 0.43 c p3
252.68 475.18 0.43 c p3
252.83 475.47 0.43 c p3
252.97 475.68 0.43 c p3
253.12 475.88 0.43 c p3
253.26 475.79 0.43 c p3
253.41 476.40 0.43 c p3
253.56 476.89 0.43 c p3
253.70 476.69 0.43 c p3
253.85 477.01 0.43 c p3
253.99 477.39 0.43 c p3
254.14 477.59 0.43 c p3
254.28 478.11 0.43 c p3
254.43 478.11 0.43 c p3
254.57 478.92 0.43 c p3
254.72 478.92 0.43 c p3
254.87 479.33 0.43 c p3
255.01 479.53 0.43 c p3
255.16 479.53 0.43 c p3
255.30 480.34 0.43 c p3
255.45 480.03 0.43 c p3
255.59 480.43 0.43 c p3
255.74 481.15 0.43 c p3
255.88 481.15 0.43 c p3
256.03 481.04 0.43 c p3
256.18 481.54 0.43 c p3
256.32 481.54 0.43 c p3
256.47 481.54 0.43 c p3
256.61 481.54 0.43 c p3
256.76 482.67 0.43 c p3
256.90 483.16 0.43 c p3
257.05 483.27 0.43 c p3
257.20 483.07 0.43 c p3
257.34 483.16 0.43 c p3
257.49 483.68 0.43 c p3
257.63 484.29 0.43 c p3
257.78 483.97 0.43 c p3
257.92 483.57 0.43 c p3
258.07 484.29 0.43 c p3
258.21 484.49 0.43 c p3
258.36 484.90 0.43 c p3
258.51 485.39 0.43 c p3
258.65 485.30 0.43 c p3
258.80 485.30 0.43 c p3
258.94 485.89 0.43 c p3
259.09 486.00 0.43 c p3
259.23 486.09 0.43 c p3
259.38 485.80 0.43 c p3
259.52 486.30 0.43 c p3
259.67 486.61 0.43 c p3
259.82 486.61 0.43 c p3
259.96 487.31 0.43 c p3
260.11 487.22 0.43 c p3
260.25 487.11 0.43 c p3
260.40 487.83 0.43 c p3
260.54 487.83 0.43 c p3
260.69 487.83 0.43 c p3
260.83 488.03 0.43 c p3
260.98 487.92 0.43 c p3
261.13 488.73 0.43 c p3
261.27 489.05 0.43 c p3
261.42 489.25 0.43 c p3
261.56 489.14 0.43 c p3
261.71 489.34 0.43 c p3
261.85 489.75 0.43 c p3
262.00 489.75 0.43 c p3
262.15 490.35 0.43 c p3
262.29 490.15 0.43 c p3
262.44 490.56 0.43 c p3
262.58 490.56 0.43 c p3
262.73 490.44 0.43 c p3
262.87 490.85 0.43 c p3
263.02 491.05 0.43 c p3
263.16 491.37 0.43 c p3
263.31 491.17 0.43 c p3
263.46 491.66 0.43 c p3
263.60 491.57 0.43 c p3
263.75 492.07 0.43 c p3
263.89 492.07 0.43 c p3
264.04 492.18 0.43 c p3
264.18 491.66 0.43 c p3
264.33 492.68 0.43 c p3
264.47 492.59 0.43 c p3
264.62 492.68 0.43 c p3
264.77 492.68 0.43 c p3
264.91 493.40 0.43 c p3
265.06 492.68 0.43 c p3
265.20 493.19 0.43 c p3
265.35 493.29 0.43 c p3
265.49 493.60 0.43 c p3
265.64 493.49 0.43 c p3
265.78 494.41 0.43 c p3
265.93 493.80 0.43 c p3
266.08 494.10 0.43 c p3
266.22 494.01 0.43 c p3
266.37 494.41 0.43 c p3
266.51 494.80 0.43 c p3
266.66 495.20 0.43 c p3
266.80 495.00 0.43 c p3
266.95 495.31 0.43 c p3
267.10 495.31 0.43 c p3
267.24 495.72 0.43 c p3
267.39 495.20 0.43 c p3
267.53 495.20 0.43 c p3
267.68 495.92 0.43 c p3
267.82 496.01 0.43 c p3
267.97 495.92 0.43 c p3
268.11 496.13 0.43 c p3
268.26 496.62 0.43 c p3
268.41 496.13 0.43 c p3
268.55 496.73 0.43 c p3
268.70 496.62 0.43 c p3
268.84 496.53 0.43 c p3
268.99 496.42 0.43 c p3
269.13 496.83 0.43 c p3
269.28 497.43 0.43 c p3
269.42 496.73 0.43 c p3
269.57 497.55 0.43 c p3
269.72 497.75 0.43 c p3
269.86 497.95 0.43 c p3
270.01 498.04 0.43 c p3
270.15 497.95 0.43 c p3
270.30 497.55 0.43 c p3
270.44 498.25 0.43 c p3
270.59 498.36 0.43 c p3
270.73 498.94 0.43 c p3
270.88 498.56 0.43 c p3
271.03 498.76 0.43 c p3
271.17 498.45 0.43 c p3
271.32 499.15 0.43 c p3
271.46 498.94 0.43 c p3
271.61 498.85 0.43 c p3
271.75 499.06 0.43 c p3
271.90 498.85 0.43 c p3
272.05 499.06 0.43 c p3
272.19 499.26 0.43 c p3
272.34 499.46 0.43 c p3
272.48 499.55 0.43 c p3
272.63 500.07 0.43 c p3
272.77 499.96 0.43 c p3
272.92 499.96 0.43 c p3
273.06 500.16 0.43 c p3
273.21 499.76 0.43 c p3
273.36 499.96 0.43 c p3
273.50 499.87 0.43 c p3
273.65 500.57 0.43 c p3
273.79 500.37 0.43 c p3
273.94 500.68 0.43 c p3
274.08 500.97 0.43 c p3
274.23 500.77 0.43 c p3
274.37 500.48 0.43 c p3
274.52 500.97 0.43 c p3
274.67 501.09 0.43 c p3
274.81 501.29 0.43 c p3
274.96 501.29 0.43 c p3
275.10 501.49 0.43 c p3
275.25 500.97 0.43 c p3
275.39 501.58 0.43 c p3
275.54 501.79 0.43 c p3
275.68 501.70 0.43 c p3
275.83 501.49 0.43 c p3
275.98 501.70 0.43 c p3
276.12 501.99 0.43 c p3
276.27 501.79 0.43 c p3
276.41 501.99 0.43 c p3
276.56 501.79 0.43 c p3
276.70 501.90 0.43 c p3
276.85 502.10 0.43 c p3
277.00 501.99 0.43 c p3
277.14 502.71 0.43 c p3
277.29 503.00 0.43 c p3
277.43 502.91 0.43 c p3
277.58 502.39 0.43 c p3
277.72 503.12 0.43 c p3
277.87 503.00 0.43 c p3
278.01 503.00 0.43 c p3
278.16 503.00 0.43 c p3
278.31 503.00 0.43 c p3
278.45 503.00 0.43 c p3
278.60 503.30 0.43 c p3
278.74 503.61 0.43 c p3
278.89 503.50 0.43 c p3
279.03 503.61 0.43 c p3
279.18 503.30 0.43 c p3
279.32 503.61 0.43 c p3
279.47 503.50 0.43 c p3
279.62 503.91 0.43 c p3
279.76 503.70 0.43 c p3
279.91 503.61 0.43 c p3
280.05 504.22 0.43 c p3
280.20 504.22 0.43 c p3
280.34 504.22 0.43 c p3
280.49 504.02 0.43 c p3
280.63 504.51 0.43 c p3
280.78 504.31 0.43 c p3
280.93 504.31 0.43 c p3
281.07 504.63 0.43 c p3
281.22 504.42 0.43 c p3
281.36 504.72 0.43 c p3
281.51 504.72 0.43 c p3
281.65 504.31 0.43 c p3
281.80 504.92 0.43 c p3
281.95 505.03 0.43 c p3
282.09 505.12 0.43 c p3
282.24 505.03 0.43 c p3
282.38 504.83 0.43 c p3
282.53 504.92 0.43 c p3
282.67 505.12 0.43 c p3
282.82 504.92 0.43 c p3
282.96 505.44 0.43 c p3
283.11 505.53 0.43 c p3
283.26 505.53 0.43 c p3
283.40 505.33 0.43 c p3
283.55 506.25 0.43 c p3
283.69 506.05 0.43 c p3
283.84 505.84 0.43 c p3
283.98 506.25 0.43 c p3
284.13 505.93 0.43 c p3
284.27 505.64 0.43 c p3
284.42 505.93 0.43 c p3
284.57 506.14 0.43 c p3
284.71 506.14 0.43 c p3
284.86 506.14 0.43 c p3
285.00 506.14 0.43 c p3
285.15 506.34 0.43 c p3
285.29 506.75 0.43 c p3
285.44 506.54 0.43 c p3
285.58 506.45 0.43 c p3
285.73 506.45 0.43 c p3
285.88 506.45 0.43 c p3
286.02 506.66 0.43 c p3
286.17 506.45 0.43 c p3
286.31 506.54 0.43 c p3
286.46 506.86 0.43 c p3
286.60 506.75 0.43 c p3
286.75 506.66 0.43 c p3
286.89 506.86 0.43 c p3
287.04 507.06 0.43 c p3
287.19 506.75 0.43 c p3
287.33 506.75 0.43 c p3
287.48 507.26 0.43 c p3
287.62 506.86 0.43 c p3
287.77 507.06 0.43 c p3
287.91 507.45 0.43 c p3
288.06 506.95 0.43 c p3
288.21 507.36 0.43 c p3
288.35 507.26 0.43 c p3
288.50 507.45 0.43 c p3
288.64 507.26 0.43 c p3
288.79 507.76 0.43 c p3
288.93 507.45 0.43 c p3
289.08 507.45 0.43 c p3
289.22 507.56 0.43 c p3
289.37 507.76 0.43 c p3
289.52 507.36 0.43 c p3
289.66 507.85 0.43 c p3
289.81 507.45 0.43 c p3
289.95 507.85 0.43 c p3
290.10 507.65 0.43 c p3
290.24 507.85 0.43 c p3
290.39 508.37 0.43 c p3
290.53 507.85 0.43 c p3
290.68 507.56 0.43 c p3
290.83 508.05 0.43 c p3
290.97 507.85 0.43 c p3
291.12 508.26 0.43 c p3
291.26 508.37 0.43 c p3
291.41 508.37 0.43 c p3
291.55 507.96 0.43 c p3
291.70 508.05 0.43 c p3
291.84 508.78 0.43 c p3
291.99 508.26 0.43 c p3
292.14 508.46 0.43 c p3
292.28 508.26 0.43 c p3
292.43 508.37 0.43 c p3
292.57 508.66 0.43 c p3
292.72 508.37 0.43 c p3
292.86 508.57 0.43 c p3
293.01 508.17 0.43 c p3
293.16 508.78 0.43 c p3
293.30 508.66 0.43 c p3
293.45 508.57 0.43 c p3
293.59 508.57 0.43 c p3
293.74 508.87 0.43 c p3
293.88 508.57 0.43 c p3
294.03 508.98 0.43 c p3
294.17 508.98 0.43 c p3
294.32 508.26 0.43 c p3
294.47 508.46 0.43 c p3
294.61 508.66 0.43 c p3
294.76 509.18 0.43 c p3
294.90 509.07 0.43 c p3
295.05 508.87 0.43 c p3
295.19 509.47 0.43 c p3
295.34 508.87 0.43 c p3
295.48 508.66 0.43 c p3
295.63 509.07 0.43 c p3
295.78 508.98 0.43 c p3
295.92 509.99 0.43 c p3
296.07 509.27 0.43 c p3
296.21 508.87 0.43 c p3
296.36 509.47 0.43 c p3
296.50 509.18 0.43 c p3
296.65 509.47 0.43 c p3
296.79 508.98 0.43 c p3
296.94 509.59 0.43 c p3
297.09 509.59 0.43 c p3
297.23 509.59 0.43 c p3
297.38 509.47 0.43 c p3
297.52 509.27 0.43 c p3
297.67 509.07 0.43 c p3
297.81 509.68 0.43 c p3
297.96 509.68 0.43 c p3
298.11 509.88 0.43 c p3
298.25 509.38 0.43 c p3
298.40 509.59 0.43 c p3
298.54 509.68 0.43 c p3
298.69 509.79 0.43 c p3
298.83 509.88 0.43 c p3
298.98 509.59 0.43 c p3
299.12 510.29 0.43 c p3
299.27 509.99 0.43 c p3
299.42 509.79 0.43 c p3
299.56 509.99 0.43 c p3
299.71 509.88 0.43 c p3
299.85 509.88 0.43 c p3
300.00 509.68 0.43 c p3
300.14 509.88 0.43 c p3
300.29 510.08 0.43 c p3
300.43 509.88 0.43 c p3
300.58 510.60 0.43 c p3
300.73 510.40 0.43 c p3
300.87 509.88 0.43 c p3
301.02 510.20 0.43 c p3
301.16 510.49 0.43 c p3
301.31 510.29 0.43 c p3
301.45 510.29 0.43 c p3
301.60 510.20 0.43 c p3
301.74 509.79 0.43 c p3
301.89 510.20 0.43 c p3
302.04 510.29 0.43 c p3
302.18 510.29 0.43 c p3
302.33 510.29 0.43 c p3
302.47 510.08 0.43 c p3
302.62 510.60 0.43 c p3
302.76 510.40 0.43 c p3
302.91 510.29 0.43 c p3
303.06 509.99 0.43 c p3
303.20 510.60 0.43 c p3
303.35 510.40 0.43 c p3
303.49 510.08 0.43 c p3
303.64 510.69 0.43 c p3
303.78 510.20 0.43 c p3
303.93 510.40 0.43 c p3
304.07 510.40 0.43 c p3
304.22 510.60 0.43 c p3
304.37 509.99 0.43 c p3
304.51 510.80 0.43 c p3
304.66 510.08 0.43 c p3
304.80 510.40 0.43 c p3
304.95 510.40 0.43 c p3
305.09 510.49 0.43 c p3
305.24 510.60 0.43 c p3
305.38 510.40 0.43 c p3
305.53 510.40 0.43 c p3
305.68 510.69 0.43 c p3
305.82 510.49 0.43 c p3
305.97 510.49 0.43 c p3
306.11 510.69 0.43 c p3
306.26 510.60 0.43 c p3
306.40 510.69 0.43 c p3
306.55 510.40 0.43 c p3
306.69 510.29 0.43 c p3
306.84 510.49 0.43 c p3
306.99 510.29 0.43 c p3
307.13 510.90 0.43 c p3
307.28 510.80 0.43 c p3
307.42 510.60 0.43 c p3
307.57 510.80 0.43 c p3
307.71 511.21 0.43 c p3
307.86 510.40 0.43 c p3
308.01 510.90 0.43 c p3
308.15 511.21 0.43 c p3
308.30 510.90 0.43 c p3
308.44 510.90 0.43 c p3
308.59 510.80 0.43 c p3
308.73 510.90 0.43 c p3
308.88 510.90 0.43 c p3
309.02 510.90 0.43 c p3
309.17 511.21 0.43 c p3
309.32 510.69 0.43 c p3
309.46 510.40 0.43 c p3
309.61 511.01 0.43 c p3
309.75 511.10 0.43 c p3
309.90 511.01 0.43 c p3
310.04 511.10 0.43 c p3
310.19 510.90 0.43 c p3
310.33 511.10 0.43 c p3
310.48 510.80 0.43 c p3
310.63 511.10 0.43 c p3
310.77 510.69 0.43 c p3
310.92 511.01 0.43 c p3
311.06 511.41 0.43 c p3
311.21 511.01 0.43 c p3
311.35 511.71 0.43 c p3
311.50 511.21 0.43 c p3
311.64 511.21 0.43 c p3
311.79 510.90 0.43 c p3
311.94 511.10 0.43 c p3
312.08 511.10 0.43 c p3
312.23 511.01 0.43 c p3
312.37 511.41 0.43 c p3
312.52 511.21 0.43 c p3
312.66 511.50 0.43 c p3
312.81 511.01 0.43 c p3
312.96 511.41 0.43 c p3
313.10 510.90 0.43 c p3
313.25 511.41 0.43 c p3
313.39 511.41 0.43 c p3
313.54 511.01 0.43 c p3
313.68 511.30 0.43 c p3
313.83 511.41 0.43 c p3
313.97 511.01 0.43 c p3
314.12 510.90 0.43 c p3
314.27 510.90 0.43 c p3
314.41 511.41 0.43 c p3
314.56 511.30 0.43 c p3
314.70 511.30 0.43 c p3
314.85 511.62 0.43 c p3
314.99 511.62 0.43 c p3
315.14 511.50 0.43 c p3
315.28 511.30 0.43 c p3
315.43 511.50 0.43 c p3
315.58 511.01 0.43 c p3
315.72 510.60 0.43 c p3
315.87 511.01 0.43 c p3
316.01 511.30 0.43 c p3
316.16 511.41 0.43 c p3
316.30 511.21 0.43 c p3
316.45 511.21 0.43 c p3
316.59 511.50 0.43 c p3
316.74 511.71 0.43 c p3
316.89 511.62 0.43 c p3
317.03 511.01 0.43 c p3
317.18 511.50 0.43 c p3
317.32 511.10 0.43 c p3
317.47 511.41 0.43 c p3
317.61 511.30 0.43 c p3
317.76 511.50 0.43 c p3
317.91 511.30 0.43 c p3
318.05 511.50 0.43 c p3
318.20 511.62 0.43 c p3
318.34 511.62 0.43 c p3
318.49 511.01 0.43 c p3
318.63 511.21 0.43 c p3
318.78 511.50 0.43 c p3
318.92 511.30 0.43 c p3
319.07 511.30 0.43 c p3
319.22 511.21 0.43 c p3
319.36 511.01 0.43 c p3
319.51 511.50 0.43 c p3
319.65 511.80 0.43 c p3
319.80 511.41 0.43 c p3
319.94 511.10 0.43 c p3
320.09 511.10 0.43 c p3
320.23 511.41 0.43 c p3
320.38 511.10 0.43 c p3
320.53 511.62 0.43 c p3
320.67 511.80 0.43 c p3
320.82 511.21 0.43 c p3
320.96 511.50 0.43 c p3
321.11 511.80 0.43 c p3
321.25 511.10 0.43 c p3
321.40 511.21 0.43 c p3
321.54 511.10 0.43 c p3
321.69 511.21 0.43 c p3
321.84 510.90 0.43 c p3
321.98 511.50 0.43 c p3
322.13 511.50 0.43 c p3
322.27 511.21 0.43 c p3
322.42 511.10 0.43 c p3
322.56 511.62 0.43 c p3
322.71 511.62 0.43 c p3
322.85 511.41 0.43 c p3
323.00 510.90 0.43 c p3
323.15 511.62 0.43 c p3
323.29 511.21 0.43 c p3
323.44 511.30 0.43 c p3
323.58 511.30 0.43 c p3
323.73 511.21 0.43 c p3
323.87 511.62 0.43 c p3
324.02 511.50 0.43 c p3
324.17 511.10 0.43 c p3
324.31 511.30 0.43 c p3
324.46 511.21 0.43 c p3
324.60 511.01 0.43 c p3
324.75 511.41 0.43 c p3
324.89 511.50 0.43 c p3
325.04 511.30 0.43 c p3
325.18 511.50 0.43 c p3
325.33 511.50 0.43 c p3
325.48 511.50 0.43 c p3
325.62 511.30 0.43 c p3
325.77 511.41 0.43 c p3
325.91 511.80 0.43 c p3
326.06 511.30 0.43 c p3
326.20 511.21 0.43 c p3
326.35 511.30 0.43 c p3
326.49 511.62 0.43 c p3
326.64 512.00 0.43 c p3
326.79 511.41 0.43 c p3
326.93 511.71 0.43 c p3
327.08 511.30 0.43 c p3
327.22 511.80 0.43 c p3
327.37 511.50 0.43 c p3
327.51 511.62 0.43 c p3
327.66 511.50 0.43 c p3
327.80 511.21 0.43 c p3
327.95 511.21 0.43 c p3
328.10 511.62 0.43 c p3
328.24 511.21 0.43 c p3
328.39 511.50 0.43 c p3
328.53 511.50 0.43 c p3
328.68 511.21 0.43 c p3
328.82 511.50 0.43 c p3
328.97 511.91 0.43 c p3
329.12 511.30 0.43 c p3
329.26 511.21 0.43 c p3
329.41 511.50 0.43 c p3
329.55 511.01 0.43 c p3
329.70 511.10 0.43 c p3
329.84 511.50 0.43 c p3
329.99 511.62 0.43 c p3
330.13 511.50 0.43 c p3
330.28 511.41 0.43 c p3
330.43 511.41 0.43 c p3
330.57 511.41 0.43 c p3
330.72 511.62 0.43 c p3
330.86 511.30 0.43 c p3
331.01 511.62 0.43 c p3
331.15 511.01 0.43 c p3
331.30 511.62 0.43 c p3
331.44 511.30 0.43 c p3
331.59 511.80 0.43 c p3
331.74 511.71 0.43 c p3
331.88 511.62 0.43 c p3
332.03 511.21 0.43 c p3
332.17 511.80 0.43 c p3
332.32 511.30 0.43 c p3
332.46 511.10 0.43 c p3
332.61 511.01 0.43 c p3
332.75 511.30 0.43 c p3
332.90 511.21 0.43 c p3
333.05 511.50 0.43 c p3
333.19 511.50 0.43 c p3
333.34 511.21 0.43 c p3
333.48 511.41 0.43 c p3
333.63 511.30 0.43 c p3
333.77 511.21 0.43 c p3
333.92 511.21 0.43 c p3
334.07 511.80 0.43 c p3
334.21 511.21 0.43 c p3
334.36 511.01 0.43 c p3
334.50 511.41 0.43 c p3
334.65 511.62 0.43 c p3
334.79 511.50 0.43 c p3
334.94 511.50 0.43 c p3
335.08 511.41 0.43 c p3
335.23 511.10 0.43 c p3
335.38 511.50 0.43 c p3
335.52 511.30 0.43 c p3
335.67 511.30 0.43 c p3
335.81 511.21 0.43 c p3
335.96 511.41 0.43 c p3
336.10 511.62 0.43 c p3
336.25 511.50 0.43 c p3
336.39 510.90 0.43 c p3
336.54 510.90 0.43 c p3
336.69 511.21 0.43 c p3
336.83 511.21 0.43 c p3
336.98 511.41 0.43 c p3
337.12 511.41 0.43 c p3
337.27 511.30 0.43 c p3
337.41 511.21 0.43 c p3
337.56 511.21 0.43 c p3
337.70 511.21 0.43 c p3
337.85 511.21 0.43 c p3
338.00 511.10 0.43 c p3
338.14 511.30 0.43 c p3
338.29 511.01 0.43 c p3
338.43 511.10 0.43 c p3
338.58 511.30 0.43 c p3
338.72 511.41 0.43 c p3
338.87 511.21 0.43 c p3
339.02 511.41 0.43 c p3
339.16 510.80 0.43 c p3
339.31 511.10 0.43 c p3
339.45 511.30 0.43 c p3
339.60 511.30 0.43 c p3
339.74 511.50 0.43 c p3
339.89 511.71 0.43 c p3
340.03 511.21 0.43 c p3
340.18 511.01 0.43 c p3
340.33 511.10 0.43 c p3
340.47 511.01 0.43 c p3
340.62 511.10 0.43 c p3
340.76 511.50 0.43 c p3
340.91 511.01 0.43 c p3
341.05 511.01 0.43 c p3
341.20 511.62 0.43 c p3
341.34 511.50 0.43 c p3
341.49 511.30 0.43 c p3
341.64 511.41 0.43 c p3
341.78 510.90 0.43 c p3
341.93 511.30 0.43 c p3
342.07 510.80 0.43 c p3
342.22 511.10 0.43 c p3
342.36 511.21 0.43 c p3
342.51 511.41 0.43 c p3
342.65 511.21 0.43 c p3
342.80 511.10 0.43 c p3
342.95 511.10 0.43 c p3
343.09 510.90 0.43 c p3
343.24 511.21 0.43 c p3
343.38 511.21 0.43 c p3
343.53 511.10 0.43 c p3
343.67 511.10 0.43 c p3
343.82 511.41 0.43 c p3
343.97 511.21 0.43 c p3
344.11 511.21 0.43 c p3
344.26 511.01 0.43 c p3
344.40 510.80 0.43 c p3
344.55 511.50 0.43 c p3
344.69 511.21 0.43 c p3
344.84 511.10 0.43 c p3
344.98 510.80 0.43 c p3
345.13 511.01 0.43 c p3
345.28 510.80 0.43 c p3
345.42 510.60 0.43 c p3
345.57 510.80 0.43 c p3
345.71 511.01 0.43 c p3
345.86 510.90 0.43 c p3
346.00 511.21 0.43 c p3
346.15 511.10 0.43 c p3
346.29 510.90 0.43 c p3
346.44 510.69 0.43 c p3
346.59 510.90 0.43 c p3
346.73 511.41 0.43 c p3
346.88 511.01 0.43 c p3
347.02 511.21 0.43 c p3
347.17 511.01 0.43 c p3
347.31 511.10 0.43 c p3
347.46 511.01 0.43 c p3
347.60 511.01 0.43 c p3
347.75 511.01 0.43 c p3
347.90 511.01 0.43 c p3
348.04 511.01 0.43 c p3
348.19 511.01 0.43 c p3
348.33 510.90 0.43 c p3
348.48 510.60 0.43 c p3
348.62 511.01 0.43 c p3
348.77 510.90 0.43 c p3
348.92 510.90 0.43 c p3
349.06 510.90 0.43 c p3
349.21 510.90 0.43 c p3
349.35 510.60 0.43 c p3
349.50 511.01 0.43 c p3
349.64 511.21 0.43 c p3
349.79 510.69 0.43 c p3
349.93 510.90 0.43 c p3
350.08 511.10 0.43 c p3
350.23 511.01 0.43 c p3
350.37 510.90 0.43 c p3
350.52 510.90 0.43 c p3
350.66 510.80 0.43 c p3
350.81 510.80 0.43 c p3
350.95 510.90 0.43 c p3
351.10 510.80 0.43 c p3
351.24 511.01 0.43 c p3
351.39 510.69 0.43 c p3
351.54 511.01 0.43 c p3
351.68 510.90 0.43 c p3
351.83 511.01 0.43 c p3
351.97 510.69 0.43 c p3
352.12 510.69 0.43 c p3
352.26 510.40 0.43 c p3
352.41 511.10 0.43 c p3
352.55 510.90 0.43 c p3
352.70 510.80 0.43 c p3
352.85 511.01 0.43 c p3
352.99 510.69 0.43 c p3
353.14 510.60 0.43 c p3
353.28 510.69 0.43 c p3
353.43 510.90 0.43 c p3
353.57 510.49 0.43 c p3
353.72 510.49 0.43 c p3
353.86 510.80 0.43 c p3
354.01 510.60 0.43 c p3
354.16 510.60 0.43 c p3
354.30 510.80 0.43 c p3
354.45 510.69 0.43 c p3
354.59 510.69 0.43 c p3
354.74 510.69 0.43 c p3
354.88 510.90 0.43 c p3
355.03 511.21 0.43 c p3
355.18 510.29 0.43 c p3
355.32 510.49 0.43 c p3
355.47 510.69 0.43 c p3
355.61 510.60 0.43 c p3
355.76 510.20 0.43 c p3
355.90 511.01 0.43 c p3
356.05 510.60 0.43 c p3
356.19 510.49 0.43 c p3
356.34 510.49 0.43 c p3
356.49 510.69 0.43 c p3
356.63 510.80 0.43 c p3
356.78 510.40 0.43 c p3
356.92 510.60 0.43 c p3
357.07 511.21 0.43 c p3
357.21 510.49 0.43 c p3
357.36 510.60 0.43 c p3
357.50 510.60 0.43 c p3
357.65 510.49 0.43 c p3
357.80 511.10 0.43 c p3
357.94 510.69 0.43 c p3
358.09 510.49 0.43 c p3
358.23 510.90 0.43 c p3
358.38 510.69 0.43 c p3
358.52 510.20 0.43 c p3
358.67 510.29 0.43 c p3
358.81 510.60 0.43 c p3
358.96 510.60 0.43 c p3
359.11 510.49 0.43 c p3
359.25 510.60 0.43 c p3
359.40 510.29 0.43 c p3
359.54 510.08 0.43 c p3
359.69 510.80 0.43 c p3
359.83 510.69 0.43 c p3
359.98 510.40 0.43 c p3
360.13 510.80 0.43 c p3
360.27 510.80 0.43 c p3
360.42 510.29 0.43 c p3
360.56 510.80 0.43 c p3
360.71 510.20 0.43 c p3
360.85 510.49 0.43 c p3
361.00 510.20 0.43 c p3
361.14 510.60 0.43 c p3
361.29 510.20 0.43 c p3
361.44 510.40 0.43 c p3
361.58 510.80 0.43 c p3
361.73 510.49 0.43 c p3
361.87 509.68 0.43 c p3
362.02 510.40 0.43 c p3
362.16 509.99 0.43 c p3
362.31 510.69 0.43 c p3
362.45 510.60 0.43 c p3
362.60 510.29 0.43 c p3
362.75 510.29 0.43 c p3
362.89 510.40 0.43 c p3
363.04 510.40 0.43 c p3
363.18 510.49 0.43 c p3
363.33 510.40 0.43 c p3
363.47 510.60 0.43 c p3
363.62 510.08 0.43 c p3
363.76 510.40 0.43 c p3
363.91 510.60 0.43 c p3
364.06 510.40 0.43 c p3
364.20 510.60 0.43 c p3
364.35 510.29 0.43 c p3
364.49 509.79 0.43 c p3
364.64 510.49 0.43 c p3
364.78 510.60 0.43 c p3
364.93 509.99 0.43 c p3
365.08 510.49 0.43 c p3
365.22 510.20 0.43 c p3
365.37 510.08 0.43 c p3
365.51 510.20 0.43 c p3
365.66 510.49 0.43 c p3
365.80 510.29 0.43 c p3
365.95 510.49 0.43 c p3
366.09 509.88 0.43 c p3
366.24 510.29 0.43 c p3
366.39 509.99 0.43 c p3
366.53 510.08 0.43 c p3
366.68 510.08 0.43 c p3
366.82 510.29 0.43 c p3
366.97 510.80 0.43 c p3
367.11 510.40 0.43 c p3
367.26 510.20 0.43 c p3
367.40 510.60 0.43 c p3
367.55 510.29 0.43 c p3
367.70 510.20 0.43 c p3
367.84 510.29 0.43 c p3
367.99 510.29 0.43 c p3
368.13 510.40 0.43 c p3
368.28 510.20 0.43 c p3
368.42 510.40 0.43 c p3
368.57 509.99 0.43 c p3
368.71 510.60 0.43 c p3
368.86 510.60 0.43 c p3
369.01 510.29 0.43 c p3
369.15 510.08 0.43 c p3
369.30 510.08 0.43 c p3
369.44 510.08 0.43 c p3
369.59 510.40 0.43 c p3
369.73 509.99 0.43 c p3
369.88 510.08 0.43 c p3
370.03 510.60 0.43 c p3
370.17 510.60 0.43 c p3
370.32 510.40 0.43 c p3
370.46 509.99 0.43 c p3
370.61 510.08 0.43 c p3
370.75 509.99 0.43 c p3
370.90 510.29 0.43 c p3
371.04 510.20 0.43 c p3
371.19 510.49 0.43 c p3
371.34 510.49 0.43 c p3
371.48 510.29 0.43 c p3
371.63 510.40 0.43 c p3
371.77 510.40 0.43 c p3
371.92 510.29 0.43 c p3
372.06 510.60 0.43 c p3
372.21 510.69 0.43 c p3
372.35 509.79 0.43 c p3
372.50 510.40 0.43 c p3
372.65 510.08 0.43 c p3
372.79 510.49 0.43 c p3
372.94 509.59 0.43 c p3
373.08 510.08 0.43 c p3
373.23 510.29 0.43 c p3
373.37 509.88 0.43 c p3
373.52 510.08 0.43 c p3
373.66 509.99 0.43 c p3
373.81 509.99 0.43 c p3
373.96 510.20 0.43 c p3
374.10 509.68 0.43 c p3
374.25 510.29 0.43 c p3
374.39 509.99 0.43 c p3
374.54 509.88 0.43 c p3
374.68 510.08 0.43 c p3
374.83 510.60 0.43 c p3
374.98 509.68 0.43 c p3
375.12 510.29 0.43 c p3
375.27 510.60 0.43 c p3
375.41 510.40 0.43 c p3
375.56 510.08 0.43 c p3
375.70 510.20 0.43 c p3
375.85 509.79 0.43 c p3
375.99 509.99 0.43 c p3
376.14 510.29 0.43 c p3
376.29 510.69 0.43 c p3
376.43 509.79 0.43 c p3
376.58 510.08 0.43 c p3
376.72 510.08 0.43 c p3
376.87 510.49 0.43 c p3
377.01 510.20 0.43 c p3
377.16 510.20 0.43 c p3
377.30 509.79 0.43 c p3
377.45 509.99 0.43 c p3
377.60 509.99 0.43 c p3
377.74 509.88 0.43 c p3
377.89 510.29 0.43 c p3
378.03 510.08 0.43 c p3
378.18 509.88 0.43 c p3
378.32 509.68 0.43 c p3
378.47 510.40 0.43 c p3
378.61 509.88 0.43 c p3
378.76 509.68 0.43 c p3
378.91 509.88 0.43 c p3
379.05 510.08 0.43 c p3
379.20 510.29 0.43 c p3
379.34 510.40 0.43 c p3
379.49 510.20 0.43 c p3
379.63 510.08 0.43 c p3
379.78 510.40 0.43 c p3
379.93 510.29 0.43 c p3
380.07 509.99 0.43 c p3
380.22 509.68 0.43 c p3
380.36 509.99 0.43 c p3
380.51 509.79 0.43 c p3
380.65 510.40 0.43 c p3
380.80 510.40 0.43 c p3
380.94 509.88 0.43 c p3
381.09 509.59 0.43 c p3
381.24 510.40 0.43 c p3
381.38 510.08 0.43 c p3
381.53 509.18 0.43 c p3
381.67 509.79 0.43 c p3
381.82 509.99 0.43 c p3
381.96 509.88 0.43 c p3
382.11 509.99 0.43 c p3
382.25 509.88 0.43 c p3
382.40 509.59 0.43 c p3
0.00 0.00 432.00 576.00 cl
0 0 0 srgb
0.75 setlinewidth
[] 0 setdash
1 setlinecap
1 setlinejoin
10.00 setmiterlimit
np
236.96 345.60 m
145.59 0 l
o
np
236.96 345.60 m
0 -5.76 l
o
np
266.08 345.60 m
0 -5.76 l
o
np
295.19 345.60 m
0 -5.76 l
o
np
324.31 345.60 m
0 -5.76 l
o
np
353.43 345.60 m
0 -5.76 l
o
np
382.55 345.60 m
0 -5.76 l
o
/Font1 findfont 10 s
236.96 329.47 (0) .5 0 t
266.08 329.47 (2000) .5 0 t
324.31 329.47 (6000) .5 0 t
382.55 329.47 (10000) .5 0 t
np
216.00 352.00 m
0 138.53 l
o
np
216.00 352.00 m
-5.76 0 l
o
np
216.00 398.18 m
-5.76 0 l
o
np
216.00 444.35 m
-5.76 0 l
o
np
216.00 490.53 m
-5.76 0 l
o
209.09 348.41 (0.0) 1 0 t
209.09 394.59 (0.5) 1 0 t
209.09 440.76 (1.0) 1 0 t
209.09 486.94 (1.5) 1 0 t
np
216.00 345.60 m
172.80 0 l
0 172.80 l
-172.80 0 l
0 -172.80 l
o
0.00 0.00 432.00 576.00 cl
/Font1 findfont 10 s
0 0 0 srgb
302.40 313.34 (Zeit / ms \(total\)) .5 0 t
190.66 432.00 (U / V) .5 90 t
216.00 345.60 388.80 518.40 cl
0 0 0 srgb
0.38 setlinewidth
[ 1.12 1.88] 0 setdash
1 setlinecap
1 setlinejoin
10.00 setmiterlimit
np
223.86 345.60 m
0 172.80 l
o
np
234.63 345.60 m
0 172.80 l
o
np
239.43 345.60 m
0 172.80 l
o
np
315.72 345.60 m
0 172.80 l
o
86.40 57.60 388.80 288.00 cl
1 0 0 srgb
1.50 setlinewidth
[] 0 setdash
1 setlinecap
1 setlinejoin
10.00 setmiterlimit
np
97.60 279.47 m
1.41 -12.55 l
1.40 -11.82 l
1.41 -11.11 l
1.41 -10.47 l
1.41 -9.84 l
1.40 -9.27 l
1.41 -8.72 l
1.41 -8.21 l
1.40 -7.73 l
1.41 -7.27 l
1.41 -6.85 l
1.40 -6.44 l
1.41 -6.06 l
1.41 -5.71 l
1.41 -5.37 l
1.40 -5.05 l
1.41 -4.76 l
1.41 -4.48 l
1.40 -4.21 l
1.41 -3.97 l
1.41 -3.73 l
1.40 -3.51 l
1.41 -3.31 l
1.41 -3.11 l
1.41 -2.93 l
1.40 -2.76 l
1.41 -2.59 l
1.41 -2.44 l
1.40 -2.30 l
1.41 -2.17 l
1.41 -2.03 l
1.41 -1.92 l
1.40 -1.80 l
1.41 -1.70 l
1.41 -1.59 l
1.40 -1.51 l
1.41 -1.41 l
1.41 -1.33 l
1.40 -1.26 l
1.41 -1.18 l
1.41 -1.11 l
1.41 -1.04 l
1.40 -0.99 l
1.41 -0.92 l
1.41 -0.87 l
1.40 -0.82 l
1.41 -0.77 l
1.41 -0.73 l
1.40 -0.68 l
1.41 -0.65 l
1.41 -0.60 l
1.41 -0.57 l
1.40 -0.54 l
1.41 -0.50 l
1.41 -0.48 l
1.40 -0.44 l
1.41 -0.43 l
1.41 -0.39 l
1.41 -0.37 l
1.40 -0.36 l
1.41 -0.33 l
1.41 -0.31 l
1.40 -0.29 l
1.41 -0.27 l
1.41 -0.26 l
1.40 -0.25 l
1.41 -0.23 l
1.41 -0.21 l
1.41 -0.21 l
1.40 -0.19 l
1.41 -0.18 l
1.41 -0.17 l
1.40 -0.16 l
1.41 -0.15 l
1.41 -0.14 l
1.40 -0.13 l
1.41 -0.13 l
1.41 -0.11 l
1.41 -0.11 l
1.40 -0.11 l
1.41 -0.10 l
1.41 -0.09 l
1.40 -0.09 l
1.41 -0.08 l
1.41 -0.08 l
1.41 -0.07 l
1.40 -0.07 l
1.41 -0.06 l
1.41 -0.06 l
1.40 -0.06 l
1.41 -0.05 l
1.41 -0.05 l
1.40 -0.05 l
1.41 -0.04 l
1.41 -0.05 l
1.41 -0.04 l
1.40 -0.03 l
1.41 -0.04 l
1.41 -0.03 l
238.30 66.63 lineto
1.41 -0.03 l
1.41 -0.03 l
1.40 -0.02 l
1.41 -0.03 l
1.41 -0.02 l
1.41 -0.02 l
1.40 -0.02 l
1.41 -0.02 l
1.41 -0.02 l
1.40 -0.02 l
1.41 -0.01 l
1.41 -0.02 l
1.40 -0.01 l
1.41 -0.02 l
1.41 -0.01 l
1.41 -0.01 l
1.40 -0.01 l
1.41 -0.01 l
1.41 -0.01 l
1.40 -0.01 l
1.41 -0.01 l
1.41 -0.01 l
1.41 0 l
1.40 -0.01 l
1.41 -0.01 l
1.41 -0.01 l
1.40 0 l
1.41 -0.01 l
1.41 0 l
1.40 -0.01 l
1.41 0 l
1.41 -0.01 l
1.41 0 l
1.40 0 l
1.41 -0.01 l
1.41 0 l
1.40 -0.01 l
1.41 0 l
1.41 0 l
1.40 0 l
1.41 -0.01 l
1.41 0 l
1.41 0 l
1.40 0 l
1.41 -0.01 l
1.41 0 l
1.40 0 l
1.41 0 l
1.41 0 l
1.41 0 l
1.40 -0.01 l
1.41 0 l
1.41 0 l
1.40 0 l
1.41 0 l
1.41 0 l
1.40 0 l
1.41 0 l
1.41 0 l
1.41 0 l
1.40 -0.01 l
1.41 0 l
1.41 0 l
1.40 0 l
1.41 0 l
1.41 0 l
1.40 0 l
1.41 0 l
1.41 0 l
1.41 0 l
1.40 0 l
1.41 0 l
1.41 0 l
1.40 0 l
1.41 0 l
1.41 0 l
1.41 0 l
1.40 0 l
1.41 0 l
1.41 0 l
1.40 0 l
1.41 0 l
1.41 0 l
1.40 0 l
1.41 -0.01 l
1.41 0 l
1.41 0 l
1.40 0 l
1.41 0 l
1.41 0 l
1.40 0 l
1.41 0 l
1.41 0 l
1.40 0 l
1.41 0 l
1.41 0 l
1.41 0 l
1.40 0 l
1.41 0 l
o
0.00 0.00 432.00 576.00 cl
0 0 0 srgb
0.75 setlinewidth
[] 0 setdash
1 setlinecap
1 setlinejoin
10.00 setmiterlimit
np
97.60 57.60 m
280.00 0 l
o
np
97.60 57.60 m
0 -5.76 l
o
np
153.60 57.60 m
0 -5.76 l
o
np
209.60 57.60 m
0 -5.76 l
o
np
265.60 57.60 m
0 -5.76 l
o
np
321.60 57.60 m
0 -5.76 l
o
np
377.60 57.60 m
0 -5.76 l
o
/Font1 findfont 10 s
97.60 41.47 (0) .5 0 t
153.60 41.47 (2000) .5 0 t
209.60 41.47 (4000) .5 0 t
265.60 41.47 (6000) .5 0 t
321.60 41.47 (8000) .5 0 t
377.60 41.47 (10000) .5 0 t
np
86.40 66.74 m
0 204.58 l
o
np
86.40 66.74 m
-5.76 0 l
o
np
86.40 117.88 m
-5.76 0 l
o
np
86.40 169.03 m
-5.76 0 l
o
np
86.40 220.17 m
-5.76 0 l
o
np
86.40 271.32 m
-5.76 0 l
o
79.49 63.15 (0.0) 1 0 t
79.49 114.29 (0.1) 1 0 t
79.49 165.44 (0.2) 1 0 t
79.49 216.58 (0.3) 1 0 t
79.49 267.73 (0.4) 1 0 t
np
86.40 57.60 m
302.40 0 l
0 230.40 l
-302.40 0 l
0 -230.40 l
o
0.00 0.00 432.00 576.00 cl
/Font1 findfont 10 s
0 0 0 srgb
237.60 13.82 (Zeit / ms \(nach Puls\)) .5 0 t
49.54 172.80 (Absorbanz A) .5 90 t
86.40 57.60 388.80 288.00 cl
/bg { 1 1 1 srgb } def
0 0 0 srgb
0.75 setlinewidth
[] 0 setdash
1 setlinecap
1 setlinejoin
10.00 setmiterlimit
102.64 256.96 0.65 c p3
102.92 252.57 0.65 c p3
103.20 250.59 0.65 c p3
103.48 246.11 0.65 c p3
103.76 241.93 0.65 c p3
104.04 239.42 0.65 c p3
104.32 233.60 0.65 c p3
104.60 230.91 0.65 c p3
104.88 230.58 0.65 c p3
105.16 225.57 0.65 c p3
105.44 223.23 0.65 c p3
105.72 221.82 0.65 c p3
106.00 217.25 0.65 c p3
106.28 217.50 0.65 c p3
106.56 214.13 0.65 c p3
106.84 208.93 0.65 c p3
107.12 207.84 0.65 c p3
107.40 207.60 0.65 c p3
107.68 204.08 0.65 c p3
107.96 201.96 0.65 c p3
108.24 199.86 0.65 c p3
108.52 198.36 0.65 c p3
108.80 195.26 0.65 c p3
109.08 193.45 0.65 c p3
109.36 191.93 0.65 c p3
109.64 190.42 0.65 c p3
109.92 187.71 0.65 c p3
110.20 186.23 0.65 c p3
110.48 184.06 0.65 c p3
110.76 181.37 0.65 c p3
111.04 182.12 0.65 c p3
111.32 177.61 0.65 c p3
111.60 179.24 0.65 c p3
111.88 175.94 0.65 c p3
112.16 175.00 0.65 c p3
112.44 173.14 0.65 c p3
112.72 171.55 0.65 c p3
113.00 170.63 0.65 c p3
113.28 167.90 0.65 c p3
113.56 166.34 0.65 c p3
113.84 166.79 0.65 c p3
114.12 162.97 0.65 c p3
114.40 162.78 0.65 c p3
114.68 162.78 0.65 c p3
114.96 159.90 0.65 c p3
115.24 158.83 0.65 c p3
115.52 157.96 0.65 c p3
115.80 157.96 0.65 c p3
116.08 157.53 0.65 c p3
116.36 154.10 0.65 c p3
116.64 154.10 0.65 c p3
116.92 151.56 0.65 c p3
117.20 151.14 0.65 c p3
117.48 150.73 0.65 c p3
117.76 150.31 0.65 c p3
118.04 149.70 0.65 c p3
118.32 145.98 0.65 c p3
118.60 147.45 0.65 c p3
118.88 146.62 0.65 c p3
119.16 144.35 0.65 c p3
119.44 144.57 0.65 c p3
119.72 142.14 0.65 c p3
120.00 141.92 0.65 c p3
120.28 141.92 0.65 c p3
120.56 140.14 0.65 c p3
120.84 138.94 0.65 c p3
121.12 138.94 0.65 c p3
121.40 137.36 0.65 c p3
121.68 137.18 0.65 c p3
121.96 135.22 0.65 c p3
122.24 136.40 0.65 c p3
122.52 133.45 0.65 c p3
122.80 133.45 0.65 c p3
123.08 133.28 0.65 c p3
123.36 132.50 0.65 c p3
123.64 131.35 0.65 c p3
123.92 131.73 0.65 c p3
124.20 129.44 0.65 c p3
124.48 130.41 0.65 c p3
124.76 129.27 0.65 c p3
125.04 128.89 0.65 c p3
125.32 128.30 0.65 c p3
125.60 126.41 0.65 c p3
125.88 126.62 0.65 c p3
126.16 125.66 0.65 c p3
126.44 124.58 0.65 c p3
126.72 123.84 0.65 c p3
127.00 124.38 0.65 c p3
127.28 123.10 0.65 c p3
127.56 122.16 0.65 c p3
127.84 122.16 0.65 c p3
128.12 120.69 0.65 c p3
128.40 120.16 0.65 c p3
128.68 119.79 0.65 c p3
128.96 119.43 0.65 c p3
129.24 119.59 0.65 c p3
129.52 118.50 0.65 c p3
129.80 117.62 0.65 c p3
130.08 117.98 0.65 c p3
130.36 117.42 0.65 c p3
130.64 116.74 0.65 c p3
130.92 116.38 0.65 c p3
131.20 115.46 0.65 c p3
131.48 115.46 0.65 c p3
131.76 114.04 0.65 c p3
132.04 114.04 0.65 c p3
132.32 113.33 0.65 c p3
132.60 112.98 0.65 c p3
132.88 112.98 0.65 c p3
133.16 111.57 0.65 c p3
133.44 112.11 0.65 c p3
133.72 111.41 0.65 c p3
134.00 110.17 0.65 c p3
134.28 110.17 0.65 c p3
134.56 110.36 0.65 c p3
134.84 109.51 0.65 c p3
135.12 109.51 0.65 c p3
135.40 109.51 0.65 c p3
135.68 109.51 0.65 c p3
135.96 107.58 0.65 c p3
136.24 106.74 0.65 c p3
136.52 106.55 0.65 c p3
136.80 106.89 0.65 c p3
137.08 106.74 0.65 c p3
137.36 105.86 0.65 c p3
137.64 104.84 0.65 c p3
137.92 105.37 0.65 c p3
138.20 106.05 0.65 c p3
138.48 104.84 0.65 c p3
138.76 104.50 0.65 c p3
139.04 103.82 0.65 c p3
139.32 102.99 0.65 c p3
139.60 103.14 0.65 c p3
139.88 103.14 0.65 c p3
140.16 102.17 0.65 c p3
140.44 101.98 0.65 c p3
140.72 101.83 0.65 c p3
141.00 102.32 0.65 c p3
141.28 101.50 0.65 c p3
141.56 100.97 0.65 c p3
141.84 100.97 0.65 c p3
142.12 99.82 0.65 c p3
142.40 99.97 0.65 c p3
142.68 100.16 0.65 c p3
142.96 98.97 0.65 c p3
143.24 98.97 0.65 c p3
143.52 98.97 0.65 c p3
143.80 98.64 0.65 c p3
144.08 98.83 0.65 c p3
144.36 97.50 0.65 c p3
144.64 96.99 0.65 c p3
144.92 96.66 0.65 c p3
145.20 96.85 0.65 c p3
145.48 96.52 0.65 c p3
145.76 95.86 0.65 c p3
146.04 95.86 0.65 c p3
146.32 94.88 0.65 c p3
146.60 95.21 0.65 c p3
146.88 94.56 0.65 c p3
147.16 94.56 0.65 c p3
147.44 94.74 0.65 c p3
147.72 94.09 0.65 c p3
148.00 93.76 0.65 c p3
148.28 93.26 0.65 c p3
148.56 93.58 0.65 c p3
148.84 92.79 0.65 c p3
149.12 92.94 0.65 c p3
149.40 92.15 0.65 c p3
149.68 92.15 0.65 c p3
149.96 91.97 0.65 c p3
150.24 92.79 0.65 c p3
150.52 91.18 0.65 c p3
150.80 91.33 0.65 c p3
151.08 91.18 0.65 c p3
151.36 91.18 0.65 c p3
151.64 90.05 0.65 c p3
151.92 91.18 0.65 c p3
152.20 90.37 0.65 c p3
152.48 90.23 0.65 c p3
152.76 89.73 0.65 c p3
153.04 89.91 0.65 c p3
153.32 88.46 0.65 c p3
153.60 89.41 0.65 c p3
153.88 88.95 0.65 c p3
154.16 89.09 0.65 c p3
154.44 88.46 0.65 c p3
154.72 87.86 0.65 c p3
155.00 87.23 0.65 c p3
155.28 87.55 0.65 c p3
155.56 87.06 0.65 c p3
155.84 87.06 0.65 c p3
156.12 86.43 0.65 c p3
156.40 87.23 0.65 c p3
156.68 87.23 0.65 c p3
156.96 86.12 0.65 c p3
157.24 85.98 0.65 c p3
157.52 86.12 0.65 c p3
157.80 85.80 0.65 c p3
158.08 85.04 0.65 c p3
158.36 85.80 0.65 c p3
158.64 84.87 0.65 c p3
158.92 85.04 0.65 c p3
159.20 85.18 0.65 c p3
159.48 85.35 0.65 c p3
159.76 84.73 0.65 c p3
160.04 83.80 0.65 c p3
160.32 84.87 0.65 c p3
160.60 83.62 0.65 c p3
160.88 83.32 0.65 c p3
161.16 83.01 0.65 c p3
161.44 82.87 0.65 c p3
161.72 83.01 0.65 c p3
162.00 83.62 0.65 c p3
162.28 82.56 0.65 c p3
162.56 82.39 0.65 c p3
162.84 81.50 0.65 c p3
163.12 82.08 0.65 c p3
163.40 81.77 0.65 c p3
163.68 82.25 0.65 c p3
163.96 81.20 0.65 c p3
164.24 81.50 0.65 c p3
164.52 81.64 0.65 c p3
164.80 81.33 0.65 c p3
165.08 81.64 0.65 c p3
165.36 81.33 0.65 c p3
165.64 81.03 0.65 c p3
165.92 80.72 0.65 c p3
166.20 80.58 0.65 c p3
166.48 79.80 0.65 c p3
166.76 79.97 0.65 c p3
167.04 79.97 0.65 c p3
167.32 79.67 0.65 c p3
167.60 80.28 0.65 c p3
167.88 79.97 0.65 c p3
168.16 80.11 0.65 c p3
168.44 79.06 0.65 c p3
168.72 79.36 0.65 c p3
169.00 78.89 0.65 c p3
169.28 78.46 0.65 c p3
169.56 78.76 0.65 c p3
169.84 79.20 0.65 c p3
170.12 78.46 0.65 c p3
170.40 78.29 0.65 c p3
170.68 77.99 0.65 c p3
170.96 77.99 0.65 c p3
171.24 77.68 0.65 c p3
171.52 78.46 0.65 c p3
171.80 77.55 0.65 c p3
172.08 77.25 0.65 c p3
172.36 77.38 0.65 c p3
172.64 77.68 0.65 c p3
172.92 77.38 0.65 c p3
173.20 76.95 0.65 c p3
173.48 77.25 0.65 c p3
173.76 76.95 0.65 c p3
174.04 77.25 0.65 c p3
174.32 77.08 0.65 c p3
174.60 76.78 0.65 c p3
174.88 76.95 0.65 c p3
175.16 75.88 0.65 c p3
175.44 75.45 0.65 c p3
175.72 75.58 0.65 c p3
176.00 76.35 0.65 c p3
176.28 75.28 0.65 c p3
176.56 75.45 0.65 c p3
176.84 75.45 0.65 c p3
177.12 75.45 0.65 c p3
177.40 75.45 0.65 c p3
177.68 75.45 0.65 c p3
177.96 75.02 0.65 c p3
178.24 74.56 0.65 c p3
178.52 74.72 0.65 c p3
178.80 74.56 0.65 c p3
179.08 75.02 0.65 c p3
179.36 74.56 0.65 c p3
179.64 74.72 0.65 c p3
179.92 74.13 0.65 c p3
180.20 74.42 0.65 c p3
180.48 74.56 0.65 c p3
180.76 73.67 0.65 c p3
181.04 73.67 0.65 c p3
181.32 73.67 0.65 c p3
181.60 73.96 0.65 c p3
181.88 73.24 0.65 c p3
182.16 73.53 0.65 c p3
182.44 73.53 0.65 c p3
182.72 73.07 0.65 c p3
183.00 73.37 0.65 c p3
183.28 72.94 0.65 c p3
183.56 72.94 0.65 c p3
183.84 73.53 0.65 c p3
184.12 72.65 0.65 c p3
184.40 72.48 0.65 c p3
184.68 72.35 0.65 c p3
184.96 72.48 0.65 c p3
185.24 72.78 0.65 c p3
185.52 72.65 0.65 c p3
185.80 72.35 0.65 c p3
186.08 72.65 0.65 c p3
186.36 71.90 0.65 c p3
186.64 71.77 0.65 c p3
186.92 71.77 0.65 c p3
187.20 72.06 0.65 c p3
187.48 70.72 0.65 c p3
187.76 71.02 0.65 c p3
188.04 71.31 0.65 c p3
188.32 70.72 0.65 c p3
188.60 71.18 0.65 c p3
188.88 71.60 0.65 c p3
189.16 71.18 0.65 c p3
189.44 70.89 0.65 c p3
189.72 70.89 0.65 c p3
190.00 70.89 0.65 c p3
190.28 70.89 0.65 c p3
190.56 70.59 0.65 c p3
190.84 70.01 0.65 c p3
191.12 70.30 0.65 c p3
191.40 70.43 0.65 c p3
191.68 70.43 0.65 c p3
191.96 70.43 0.65 c p3
192.24 70.14 0.65 c p3
192.52 70.43 0.65 c p3
192.80 70.30 0.65 c p3
193.08 69.85 0.65 c p3
193.36 70.01 0.65 c p3
193.64 70.14 0.65 c p3
193.92 69.85 0.65 c p3
194.20 69.56 0.65 c p3
194.48 70.01 0.65 c p3
194.76 70.01 0.65 c p3
195.04 69.27 0.65 c p3
195.32 69.85 0.65 c p3
195.60 69.56 0.65 c p3
195.88 69.01 0.65 c p3
196.16 69.72 0.65 c p3
196.44 69.14 0.65 c p3
196.72 69.27 0.65 c p3
197.00 69.01 0.65 c p3
197.28 69.27 0.65 c p3
197.56 68.56 0.65 c p3
197.84 69.01 0.65 c p3
198.12 69.01 0.65 c p3
198.40 68.85 0.65 c p3
198.68 68.56 0.65 c p3
198.96 69.14 0.65 c p3
199.24 68.43 0.65 c p3
199.52 69.01 0.65 c p3
199.80 68.43 0.65 c p3
200.08 68.72 0.65 c p3
200.36 68.43 0.65 c p3
200.64 67.69 0.65 c p3
200.92 68.43 0.65 c p3
201.20 68.85 0.65 c p3
201.48 68.14 0.65 c p3
201.76 68.43 0.65 c p3
202.04 67.85 0.65 c p3
202.32 67.69 0.65 c p3
202.60 67.69 0.65 c p3
202.88 68.27 0.65 c p3
203.16 68.14 0.65 c p3
203.44 67.12 0.65 c p3
203.72 67.85 0.65 c p3
204.00 67.57 0.65 c p3
204.28 67.85 0.65 c p3
204.56 67.69 0.65 c p3
204.84 67.28 0.65 c p3
205.12 67.69 0.65 c p3
205.40 67.41 0.65 c p3
205.68 67.98 0.65 c p3
205.96 67.12 0.65 c p3
206.24 67.28 0.65 c p3
206.52 67.41 0.65 c p3
206.80 67.41 0.65 c p3
207.08 66.99 0.65 c p3
207.36 67.41 0.65 c p3
207.64 66.83 0.65 c p3
207.92 66.83 0.65 c p3
208.20 67.85 0.65 c p3
208.48 67.57 0.65 c p3
208.76 67.28 0.65 c p3
209.04 66.54 0.65 c p3
209.32 66.70 0.65 c p3
209.60 66.99 0.65 c p3
209.88 66.13 0.65 c p3
210.16 66.99 0.65 c p3
210.44 67.28 0.65 c p3
210.72 66.70 0.65 c p3
211.00 66.83 0.65 c p3
211.28 65.40 0.65 c p3
211.56 66.42 0.65 c p3
211.84 66.99 0.65 c p3
212.12 66.13 0.65 c p3
212.40 66.54 0.65 c p3
212.68 66.13 0.65 c p3
212.96 66.83 0.65 c p3
213.24 65.97 0.65 c p3
213.52 65.97 0.65 c p3
213.80 65.97 0.65 c p3
214.08 66.13 0.65 c p3
214.36 66.42 0.65 c p3
214.64 66.70 0.65 c p3
214.92 65.84 0.65 c p3
215.20 65.84 0.65 c p3
215.48 65.56 0.65 c p3
215.76 66.26 0.65 c p3
216.04 65.97 0.65 c p3
216.32 65.84 0.65 c p3
216.60 65.68 0.65 c p3
216.88 65.56 0.65 c p3
217.16 65.97 0.65 c p3
217.44 64.99 0.65 c p3
217.72 65.40 0.65 c p3
218.00 65.68 0.65 c p3
218.28 65.40 0.65 c p3
218.56 65.56 0.65 c p3
218.84 65.56 0.65 c p3
219.12 65.84 0.65 c p3
219.40 65.56 0.65 c p3
219.68 65.27 0.65 c p3
219.96 65.56 0.65 c p3
220.24 64.54 0.65 c p3
220.52 64.83 0.65 c p3
220.80 65.56 0.65 c p3
221.08 65.11 0.65 c p3
221.36 64.70 0.65 c p3
221.64 64.99 0.65 c p3
221.92 64.99 0.65 c p3
222.20 65.11 0.65 c p3
222.48 65.68 0.65 c p3
222.76 65.11 0.65 c p3
223.04 64.99 0.65 c p3
223.32 64.99 0.65 c p3
223.60 64.99 0.65 c p3
223.88 65.27 0.65 c p3
224.16 64.54 0.65 c p3
224.44 64.83 0.65 c p3
224.72 64.99 0.65 c p3
225.00 65.40 0.65 c p3
225.28 64.54 0.65 c p3
225.56 64.83 0.65 c p3
225.84 65.27 0.65 c p3
226.12 64.42 0.65 c p3
226.40 65.11 0.65 c p3
226.68 64.83 0.65 c p3
226.96 64.83 0.65 c p3
227.24 64.54 0.65 c p3
227.52 65.40 0.65 c p3
227.80 64.26 0.65 c p3
228.08 65.27 0.65 c p3
228.36 64.83 0.65 c p3
228.64 64.83 0.65 c p3
228.92 64.70 0.65 c p3
229.20 64.54 0.65 c p3
229.48 64.83 0.65 c p3
229.76 64.83 0.65 c p3
230.04 64.42 0.65 c p3
230.32 64.70 0.65 c p3
230.60 64.70 0.65 c p3
230.88 64.42 0.65 c p3
231.16 64.54 0.65 c p3
231.44 64.42 0.65 c p3
231.72 64.83 0.65 c p3
232.00 64.99 0.65 c p3
232.28 64.70 0.65 c p3
232.56 64.99 0.65 c p3
232.84 64.13 0.65 c p3
233.12 64.26 0.65 c p3
233.40 64.54 0.65 c p3
233.68 64.26 0.65 c p3
233.96 63.69 0.65 c p3
234.24 64.83 0.65 c p3
234.52 64.13 0.65 c p3
234.80 63.69 0.65 c p3
235.08 64.13 0.65 c p3
235.36 64.13 0.65 c p3
235.64 64.26 0.65 c p3
235.92 64.13 0.65 c p3
236.20 64.13 0.65 c p3
236.48 64.13 0.65 c p3
236.76 63.69 0.65 c p3
237.04 64.42 0.65 c p3
237.32 64.83 0.65 c p3
237.60 63.98 0.65 c p3
237.88 63.85 0.65 c p3
238.16 63.98 0.65 c p3
238.44 63.85 0.65 c p3
238.72 64.13 0.65 c p3
239.00 63.85 0.65 c p3
239.28 64.26 0.65 c p3
239.56 63.85 0.65 c p3
239.84 64.42 0.65 c p3
240.12 63.98 0.65 c p3
240.40 63.41 0.65 c p3
240.68 63.98 0.65 c p3
240.96 63.00 0.65 c p3
241.24 63.69 0.65 c p3
241.52 63.69 0.65 c p3
241.80 64.13 0.65 c p3
242.08 63.85 0.65 c p3
242.36 63.85 0.65 c p3
242.64 63.98 0.65 c p3
242.92 63.41 0.65 c p3
243.20 63.69 0.65 c p3
243.48 63.29 0.65 c p3
243.76 63.98 0.65 c p3
244.04 63.41 0.65 c p3
244.32 64.13 0.65 c p3
244.60 63.41 0.65 c p3
244.88 63.41 0.65 c p3
245.16 63.98 0.65 c p3
245.44 63.57 0.65 c p3
245.72 63.41 0.65 c p3
246.00 63.98 0.65 c p3
246.28 64.13 0.65 c p3
246.56 64.13 0.65 c p3
246.84 63.41 0.65 c p3
247.12 63.57 0.65 c p3
247.40 63.57 0.65 c p3
247.68 63.13 0.65 c p3
247.96 63.13 0.65 c p3
248.24 63.29 0.65 c p3
248.52 63.57 0.65 c p3
248.80 63.29 0.65 c p3
249.08 63.98 0.65 c p3
249.36 64.54 0.65 c p3
216.00 201.60 367.20 247.68 cl
0 0 0 srgb
0.75 setlinewidth
[] 0 setdash
1 setlinecap
1 setlinejoin
10.00 setmiterlimit
221.60 238.86 0.43 c p1
221.87 237.13 0.43 c p1
222.13 237.17 0.43 c p1
222.40 235.34 0.43 c p1
222.67 233.71 0.43 c p1
222.94 233.30 0.43 c p1
223.20 230.41 0.43 c p1
223.47 229.84 0.43 c p1
223.74 231.00 0.43 c p1
224.00 228.66 0.43 c p1
224.27 228.30 0.43 c p1
224.54 228.61 0.43 c p1
224.81 226.55 0.43 c p1
225.07 228.06 0.43 c p1
225.34 226.86 0.43 c p1
225.61 224.29 0.43 c p1
225.87 224.76 0.43 c p1
226.14 225.84 0.43 c p1
226.41 224.47 0.43 c p1
226.68 224.13 0.43 c p1
226.94 223.79 0.43 c p1
227.21 223.87 0.43 c p1
227.48 222.76 0.43 c p1
227.75 222.58 0.43 c p1
228.01 222.62 0.43 c p1
228.28 222.64 0.43 c p1
228.55 221.76 0.43 c p1
228.81 221.78 0.43 c p1
229.08 221.27 0.43 c p1
229.35 220.36 0.43 c p1
229.62 222.00 0.43 c p1
229.88 219.71 0.43 c p1
230.15 221.98 0.43 c p1
230.42 220.56 0.43 c p1
230.68 220.89 0.43 c p1
230.95 220.52 0.43 c p1
231.22 220.34 0.43 c p1
231.49 220.65 0.43 c p1
231.75 219.60 0.43 c p1
232.02 219.41 0.43 c p1
232.29 220.70 0.43 c p1
232.55 218.81 0.43 c p1
232.82 219.59 0.43 c p1
233.09 220.52 0.43 c p1
233.36 219.29 0.43 c p1
233.62 219.39 0.43 c p1
233.89 219.64 0.43 c p1
234.16 220.52 0.43 c p1
234.42 221.06 0.43 c p1
234.69 219.37 0.43 c p1
234.96 220.22 0.43 c p1
235.23 219.17 0.43 c p1
235.49 219.69 0.43 c p1
235.76 220.19 0.43 c p1
236.03 220.69 0.43 c p1
236.29 221.04 0.43 c p1
236.56 219.06 0.43 c p1
236.83 220.93 0.43 c p1
237.10 221.08 0.43 c p1
237.36 220.15 0.43 c p1
237.63 221.07 0.43 c p1
237.90 220.01 0.43 c p1
238.16 220.57 0.43 c p1
238.43 221.30 0.43 c p1
238.70 220.69 0.43 c p1
238.97 220.51 0.43 c p1
239.23 221.21 0.43 c p1
239.50 220.72 0.43 c p1
239.77 221.27 0.43 c p1
240.04 220.49 0.43 c p1
240.30 222.03 0.43 c p1
240.57 220.49 0.43 c p1
240.84 221.14 0.43 c p1
241.10 221.66 0.43 c p1
241.37 221.72 0.43 c p1
241.64 221.48 0.43 c p1
241.91 222.39 0.43 c p1
242.17 221.30 0.43 c p1
242.44 222.62 0.43 c p1
242.71 222.37 0.43 c p1
242.97 222.68 0.43 c p1
243.24 222.82 0.43 c p1
243.51 222.00 0.43 c p1
243.78 222.72 0.43 c p1
244.04 222.57 0.43 c p1
244.31 222.33 0.43 c p1
244.58 222.32 0.43 c p1
244.84 223.26 0.43 c p1
245.11 222.85 0.43 c p1
245.38 222.68 0.43 c p1
245.65 223.20 0.43 c p1
245.91 222.62 0.43 c p1
246.18 222.74 0.43 c p1
246.45 222.98 0.43 c p1
246.71 223.20 0.43 c p1
246.98 223.82 0.43 c p1
247.25 223.49 0.43 c p1
247.52 223.32 0.43 c p1
247.78 224.06 0.43 c p1
248.05 224.11 0.43 c p1
248.32 224.07 0.43 c p1
248.58 224.26 0.43 c p1
248.85 224.03 0.43 c p1
249.12 224.48 0.43 c p1
249.39 223.86 0.43 c p1
249.65 224.30 0.43 c p1
249.92 224.20 0.43 c p1
250.19 224.37 0.43 c p1
250.45 224.79 0.43 c p1
250.72 224.15 0.43 c p1
250.99 224.97 0.43 c p1
251.26 224.86 0.43 c p1
251.52 224.33 0.43 c p1
251.79 224.73 0.43 c p1
252.06 225.26 0.43 c p1
252.33 225.02 0.43 c p1
252.59 225.40 0.43 c p1
252.86 225.78 0.43 c p1
253.13 226.15 0.43 c p1
253.39 225.09 0.43 c p1
253.66 224.83 0.43 c p1
253.93 225.04 0.43 c p1
254.20 225.65 0.43 c p1
254.46 225.89 0.43 c p1
254.73 225.59 0.43 c p1
255.00 225.17 0.43 c p1
255.26 225.90 0.43 c p1
255.53 226.75 0.43 c p1
255.80 226.17 0.43 c p1
256.07 226.25 0.43 c p1
256.33 226.06 0.43 c p1
256.60 225.77 0.43 c p1
256.87 226.19 0.43 c p1
257.13 226.51 0.43 c p1
257.40 226.09 0.43 c p1
257.67 226.25 0.43 c p1
257.94 226.44 0.43 c p1
258.20 227.10 0.43 c p1
258.47 226.78 0.43 c p1
258.74 226.69 0.43 c p1
259.00 226.97 0.43 c p1
259.27 226.40 0.43 c p1
259.54 226.79 0.43 c p1
259.81 227.20 0.43 c p1
260.07 226.59 0.43 c p1
260.34 226.86 0.43 c p1
260.61 227.13 0.43 c p1
260.87 227.15 0.43 c p1
261.14 227.54 0.43 c p1
261.41 226.82 0.43 c p1
261.68 226.69 0.43 c p1
261.94 226.70 0.43 c p1
262.21 227.08 0.43 c p1
262.48 227.08 0.43 c p1
262.75 226.83 0.43 c p1
263.01 227.07 0.43 c p1
263.28 226.58 0.43 c p1
263.55 227.06 0.43 c p1
263.81 226.80 0.43 c p1
264.08 227.03 0.43 c p1
264.35 227.39 0.43 c p1
264.62 227.13 0.43 c p1
264.88 227.11 0.43 c p1
265.15 226.95 0.43 c p1
265.42 227.40 0.43 c p1
265.68 227.03 0.43 c p1
265.95 227.34 0.43 c p1
266.22 226.96 0.43 c p1
266.49 227.17 0.43 c p1
266.75 227.24 0.43 c p1
267.02 228.05 0.43 c p1
267.29 227.05 0.43 c p1
267.55 227.35 0.43 c p1
267.82 227.44 0.43 c p1
268.09 227.62 0.43 c p1
268.36 226.97 0.43 c p1
268.62 228.00 0.43 c p1
268.89 227.57 0.43 c p1
269.16 227.65 0.43 c p1
269.42 227.46 0.43 c p1
269.69 227.77 0.43 c p1
269.96 226.87 0.43 c p1
270.23 227.75 0.43 c p1
270.49 227.58 0.43 c p1
270.76 227.85 0.43 c p1
271.03 227.54 0.43 c p1
271.29 227.26 0.43 c p1
271.56 226.96 0.43 c p1
271.83 227.35 0.43 c p1
272.10 227.15 0.43 c p1
272.36 227.30 0.43 c p1
272.63 226.99 0.43 c p1
272.90 227.74 0.43 c p1
273.16 227.89 0.43 c p1
273.43 227.21 0.43 c p1
273.70 227.25 0.43 c p1
273.97 227.50 0.43 c p1
274.23 227.41 0.43 c p1
274.50 226.99 0.43 c p1
274.77 227.70 0.43 c p1
275.04 227.14 0.43 c p1
275.30 227.41 0.43 c p1
275.57 227.64 0.43 c p1
275.84 227.91 0.43 c p1
276.10 227.57 0.43 c p1
276.37 227.01 0.43 c p1
276.64 227.94 0.43 c p1
276.91 227.14 0.43 c p1
277.17 227.04 0.43 c p1
277.44 226.93 0.43 c p1
277.71 226.95 0.43 c p1
277.97 227.18 0.43 c p1
278.24 227.76 0.43 c p1
278.51 227.08 0.43 c p1
278.78 227.07 0.43 c p1
279.04 226.53 0.43 c p1
279.31 227.08 0.43 c p1
279.58 226.96 0.43 c p1
279.84 227.43 0.43 c p1
280.11 226.75 0.43 c p1
280.38 227.09 0.43 c p1
280.65 227.30 0.43 c p1
280.91 227.18 0.43 c p1
281.18 227.51 0.43 c p1
281.45 227.38 0.43 c p1
281.71 227.26 0.43 c p1
281.98 227.13 0.43 c p1
282.25 227.13 0.43 c p1
282.52 226.65 0.43 c p1
282.78 226.88 0.43 c p1
283.05 226.97 0.43 c p1
283.32 226.84 0.43 c p1
283.58 227.39 0.43 c p1
283.85 227.25 0.43 c p1
284.12 227.45 0.43 c p1
284.39 226.76 0.43 c p1
284.65 227.08 0.43 c p1
284.92 226.81 0.43 c p1
285.19 226.58 0.43 c p1
285.45 226.89 0.43 c p1
285.72 227.30 0.43 c p1
285.99 226.83 0.43 c p1
286.26 226.79 0.43 c p1
286.52 226.65 0.43 c p1
286.79 226.73 0.43 c p1
287.06 226.59 0.43 c p1
287.33 227.24 0.43 c p1
287.59 226.65 0.43 c p1
287.86 226.50 0.43 c p1
288.13 226.68 0.43 c p1
288.39 226.98 0.43 c p1
288.66 226.83 0.43 c p1
288.93 226.58 0.43 c p1
289.20 226.87 0.43 c p1
289.46 226.72 0.43 c p1
289.73 227.02 0.43 c p1
290.00 226.96 0.43 c p1
290.26 226.81 0.43 c p1
290.53 227.00 0.43 c p1
290.80 226.28 0.43 c p1
291.07 226.03 0.43 c p1
291.33 226.19 0.43 c p1
291.60 226.82 0.43 c p1
291.87 226.10 0.43 c p1
292.13 226.29 0.43 c p1
292.40 226.35 0.43 c p1
292.67 226.41 0.43 c p1
292.94 226.47 0.43 c p1
293.20 226.54 0.43 c p1
293.47 226.28 0.43 c p1
293.74 225.99 0.43 c p1
294.00 226.17 0.43 c p1
294.27 226.11 0.43 c p1
294.54 226.51 0.43 c p1
294.81 226.22 0.43 c p1
295.07 226.40 0.43 c p1
295.34 226.02 0.43 c p1
295.61 226.29 0.43 c p1
295.87 226.44 0.43 c p1
296.14 225.83 0.43 c p1
296.41 225.89 0.43 c p1
296.68 225.94 0.43 c p1
296.94 226.21 0.43 c p1
297.21 225.72 0.43 c p1
297.48 226.00 0.43 c p1
297.75 226.04 0.43 c p1
298.01 225.75 0.43 c p1
298.28 226.02 0.43 c p1
298.55 225.75 0.43 c p1
298.81 225.80 0.43 c p1
299.08 226.28 0.43 c p1
299.35 225.67 0.43 c p1
299.62 225.60 0.43 c p1
299.88 225.54 0.43 c p1
300.15 225.69 0.43 c p1
300.42 225.95 0.43 c p1
300.68 225.90 0.43 c p1
300.95 225.72 0.43 c p1
301.22 225.98 0.43 c p1
301.49 225.46 0.43 c p1
301.75 225.41 0.43 c p1
302.02 225.45 0.43 c p1
302.29 225.71 0.43 c p1
302.55 224.76 0.43 c p1
302.82 225.01 0.43 c p1
303.09 225.27 0.43 c p1
303.36 224.87 0.43 c p1
303.62 225.25 0.43 c p1
303.89 225.60 0.43 c p1
304.16 225.32 0.43 c p1
304.42 225.14 0.43 c p1
304.69 225.18 0.43 c p1
304.96 225.22 0.43 c p1
305.23 225.25 0.43 c p1
305.49 225.07 0.43 c p1
305.76 224.67 0.43 c p1
306.03 224.92 0.43 c p1
306.29 225.05 0.43 c p1
306.56 225.08 0.43 c p1
306.83 225.12 0.43 c p1
307.10 224.93 0.43 c p1
307.36 225.18 0.43 c p1
307.63 225.12 0.43 c p1
307.90 224.81 0.43 c p1
308.16 224.96 0.43 c p1
308.43 225.09 0.43 c p1
308.70 224.90 0.43 c p1
308.97 224.72 0.43 c p1
309.23 225.08 0.43 c p1
309.50 225.11 0.43 c p1
309.77 224.59 0.43 c p1
310.04 225.05 0.43 c p1
310.30 224.86 0.43 c p1
310.57 224.48 0.43 c p1
310.84 225.04 0.43 c p1
311.10 224.63 0.43 c p1
311.37 224.76 0.43 c p1
311.64 224.59 0.43 c p1
311.91 224.81 0.43 c p1
312.17 224.31 0.43 c p1
312.44 224.67 0.43 c p1
312.71 224.69 0.43 c p1
312.97 224.60 0.43 c p1
313.24 224.41 0.43 c p1
313.51 224.86 0.43 c p1
313.78 224.36 0.43 c p1
314.04 224.82 0.43 c p1
314.31 224.41 0.43 c p1
314.58 224.65 0.43 c p1
314.84 224.46 0.43 c p1
315.11 223.93 0.43 c p1
315.38 224.50 0.43 c p1
315.65 224.83 0.43 c p1
315.91 224.33 0.43 c p1
316.18 224.57 0.43 c p1
316.45 224.16 0.43 c p1
316.71 224.06 0.43 c p1
316.98 224.08 0.43 c p1
317.25 224.53 0.43 c p1
317.52 224.46 0.43 c p1
317.78 223.71 0.43 c p1
318.05 224.28 0.43 c p1
318.32 224.09 0.43 c p1
318.58 224.32 0.43 c p1
318.85 224.22 0.43 c p1
319.12 223.93 0.43 c p1
319.39 224.26 0.43 c p1
319.65 224.06 0.43 c p1
319.92 224.51 0.43 c p1
320.19 223.89 0.43 c p1
320.45 224.02 0.43 c p1
320.72 224.13 0.43 c p1
320.99 224.15 0.43 c p1
321.26 223.86 0.43 c p1
321.52 224.19 0.43 c p1
321.79 223.78 0.43 c p1
322.06 223.79 0.43 c p1
322.33 224.57 0.43 c p1
322.59 224.37 0.43 c p1
322.86 224.17 0.43 c p1
323.13 223.64 0.43 c p1
323.39 223.78 0.43 c p1
323.66 224.01 0.43 c p1
323.93 223.38 0.43 c p1
324.20 224.04 0.43 c p1
324.46 224.27 0.43 c p1
324.73 223.85 0.43 c p1
325.00 223.96 0.43 c p1
325.26 222.91 0.43 c p1
325.53 223.68 0.43 c p1
325.80 224.12 0.43 c p1
326.07 223.50 0.43 c p1
326.33 223.82 0.43 c p1
326.60 223.52 0.43 c p1
326.87 224.06 0.43 c p1
327.13 223.43 0.43 c p1
327.40 223.45 0.43 c p1
327.67 223.46 0.43 c p1
327.94 223.59 0.43 c p1
328.20 223.82 0.43 c p1
328.47 224.04 0.43 c p1
328.74 223.41 0.43 c p1
329.00 223.43 0.43 c p1
329.27 223.23 0.43 c p1
329.54 223.76 0.43 c p1
329.81 223.56 0.43 c p1
330.07 223.47 0.43 c p1
330.34 223.37 0.43 c p1
330.61 223.28 0.43 c p1
330.87 223.60 0.43 c p1
331.14 222.88 0.43 c p1
331.41 223.20 0.43 c p1
331.68 223.42 0.43 c p1
331.94 223.22 0.43 c p1
332.21 223.35 0.43 c p1
332.48 223.36 0.43 c p1
332.75 223.58 0.43 c p1
333.01 223.38 0.43 c p1
333.28 223.18 0.43 c p1
333.55 223.40 0.43 c p1
333.81 222.66 0.43 c p1
334.08 222.88 0.43 c p1
334.35 223.43 0.43 c p1
334.62 223.11 0.43 c p1
334.88 222.81 0.43 c p1
335.15 223.03 0.43 c p1
335.42 223.04 0.43 c p1
335.68 223.14 0.43 c p1
335.95 223.58 0.43 c p1
336.22 223.16 0.43 c p1
336.49 223.08 0.43 c p1
336.75 223.09 0.43 c p1
337.02 223.09 0.43 c p1
337.29 223.31 0.43 c p1
337.55 222.78 0.43 c p1
337.82 223.00 0.43 c p1
338.09 223.13 0.43 c p1
338.36 223.44 0.43 c p1
338.62 222.81 0.43 c p1
338.89 223.03 0.43 c p1
339.16 223.37 0.43 c p1
339.42 222.74 0.43 c p1
339.69 223.27 0.43 c p1
339.96 223.06 0.43 c p1
340.23 223.07 0.43 c p1
340.49 222.87 0.43 c p1
340.76 223.51 0.43 c p1
341.03 222.67 0.43 c p1
341.29 223.43 0.43 c p1
341.56 223.11 0.43 c p1
341.83 223.11 0.43 c p1
342.10 223.02 0.43 c p1
342.36 222.91 0.43 c p1
342.63 223.13 0.43 c p1
342.90 223.14 0.43 c p1
343.16 222.84 0.43 c p1
343.43 223.06 0.43 c p1
343.70 223.06 0.43 c p1
343.97 222.86 0.43 c p1
344.23 222.96 0.43 c p1
344.50 222.87 0.43 c p1
344.77 223.18 0.43 c p1
345.04 223.30 0.43 c p1
345.30 223.10 0.43 c p1
345.57 223.32 0.43 c p1
345.84 222.69 0.43 c p1
346.10 222.79 0.43 c p1
346.37 223.00 0.43 c p1
346.64 222.80 0.43 c p1
346.91 222.38 0.43 c p1
347.17 223.23 0.43 c p1
347.44 222.72 0.43 c p1
347.71 222.40 0.43 c p1
347.97 222.73 0.43 c p1
348.24 222.74 0.43 c p1
348.51 222.84 0.43 c p1
348.78 222.75 0.43 c p1
349.04 222.75 0.43 c p1
349.31 222.76 0.43 c p1
349.58 222.43 0.43 c p1
349.84 222.98 0.43 c p1
350.11 223.29 0.43 c p1
350.38 222.66 0.43 c p1
350.65 222.57 0.43 c p1
350.91 222.67 0.43 c p1
351.18 222.58 0.43 c p1
351.45 222.79 0.43 c p1
351.71 222.59 0.43 c p1
351.98 222.90 0.43 c p1
352.25 222.59 0.43 c p1
352.52 223.02 0.43 c p1
352.78 222.70 0.43 c p1
353.05 222.28 0.43 c p1
353.32 222.71 0.43 c p1
353.58 221.98 0.43 c p1
353.85 222.50 0.43 c p1
354.12 222.51 0.43 c p1
354.39 222.84 0.43 c p1
354.65 222.63 0.43 c p1
354.92 222.63 0.43 c p1
355.19 222.73 0.43 c p1
355.45 222.31 0.43 c p1
355.72 222.53 0.43 c p1
355.99 222.23 0.43 c p1
356.26 222.75 0.43 c p1
356.52 222.33 0.43 c p1
356.79 222.87 0.43 c p1
357.06 222.34 0.43 c p1
357.33 222.34 0.43 c p1
357.59 222.76 0.43 c p1
357.86 222.46 0.43 c p1
358.13 222.35 0.43 c p1
358.39 222.77 0.43 c p1
358.66 222.89 0.43 c p1
358.93 222.90 0.43 c p1
359.20 222.36 0.43 c p1
359.46 222.48 0.43 c p1
359.73 222.48 0.43 c p1
360.00 222.16 0.43 c p1
360.26 222.16 0.43 c p1
360.53 222.28 0.43 c p1
360.80 222.50 0.43 c p1
361.07 222.29 0.43 c p1
361.33 222.81 0.43 c p1
361.60 223.23 0.43 c p1
0.00 0.00 432.00 576.00 cl
0 0 0 srgb
0.75 setlinewidth
[] 0 setdash
1 setlinecap
1 setlinejoin
10.00 setmiterlimit
np
216.79 201.60 m
133.59 0 l
o
np
216.79 201.60 m
0 -5.76 l
o
np
243.51 201.60 m
0 -5.76 l
o
np
270.23 201.60 m
0 -5.76 l
o
np
296.94 201.60 m
0 -5.76 l
o
np
323.66 201.60 m
0 -5.76 l
o
np
350.38 201.60 m
0 -5.76 l
o
/Font1 findfont 6 s
216.79 185.47 (0) .5 0 t
243.51 185.47 (1000) .5 0 t
270.23 185.47 (2000) .5 0 t
296.94 185.47 (3000) .5 0 t
323.66 185.47 (4000) .5 0 t
350.38 185.47 (5000) .5 0 t
np
216.00 201.83 m
0 45.62 l
o
np
216.00 201.83 m
-5.76 0 l
o
np
216.00 209.43 m
-5.76 0 l
o
np
216.00 217.04 m
-5.76 0 l
o
np
216.00 224.64 m
-5.76 0 l
o
np
216.00 232.24 m
-5.76 0 l
o
np
216.00 239.85 m
-5.76 0 l
o
np
216.00 247.45 m
-5.76 0 l
o
209.09 199.68 (-0.06) 1 0 t
209.09 207.28 (-0.04) 1 0 t
209.09 214.88 (-0.02) 1 0 t
209.09 222.49 (0.00) 1 0 t
209.09 230.09 (0.02) 1 0 t
209.09 237.69 (0.04) 1 0 t
209.09 245.29 (0.06) 1 0 t
np
216.00 201.60 m
151.20 0 l
0 46.08 l
-151.20 0 l
0 -46.08 l
o
0.00 0.00 432.00 576.00 cl
/Font1 findfont 9 s
0 0 0 srgb
291.60 262.88 (Residuen) .5 0 t
59.04 73.44 401.76 516.96 cl
ep
%%Trailer
%%Pages: 1
%%EOF
