%!PS-Adobe-3.0 EPSF-3.0
%%DocumentNeededResources: font Helvetica
%%+ font Helvetica-Bold
%%+ font Helvetica-Oblique
%%+ font Helvetica-BoldOblique
%%+ font Symbol
%%Title: R Graphics Output
%%Creator: R Software
%%Pages: (atend)
%%BoundingBox: 0 0 432 576
%%EndComments
%%BeginProlog
/bp  { gs sRGB gs } def
% begin .ps.prolog
/gs  { gsave } bind def
/gr  { grestore } bind def
/ep  { showpage gr gr } bind def
/m   { moveto } bind def
/l  { rlineto } bind def
/np  { newpath } bind def
/cp  { closepath } bind def
/f   { fill } bind def
/o   { stroke } bind def
/c   { newpath 0 360 arc } bind def
/r   { 4 2 roll moveto 1 copy 3 -1 roll exch 0 exch rlineto 0 rlineto -1 mul 0 exch rlineto closepath } bind def
/p1  { stroke } bind def
/p2  { gsave bg fill grestore newpath } bind def
/p3  { gsave bg fill grestore stroke } bind def
/p6  { gsave bg eofill grestore newpath } bind def
/p7  { gsave bg eofill grestore stroke } bind def
/t   { 5 -2 roll moveto gsave rotate
       1 index stringwidth pop
       mul neg 0 rmoveto show grestore } bind def
/ta  { 4 -2 roll moveto gsave rotate show } bind def
/tb  { 2 -1 roll 0 rmoveto show } bind def
/cl  { grestore gsave newpath 3 index 3 index moveto 1 index
       4 -1 roll lineto  exch 1 index lineto lineto
       closepath clip newpath } bind def
/rgb { setrgbcolor } bind def
/s   { scalefont setfont } bind def
% end   .ps.prolog
/sRGB { [ /CIEBasedABC
          << /DecodeLMN
               [ { dup 0.03928 le
                        {12.92321 div}
                        {0.055 add 1.055 div 2.4 exp }
                     ifelse
                 } bind dup dup
               ]
             /MatrixLMN [0.412457 0.212673 0.019334
                         0.357576 0.715152 0.119192
                         0.180437 0.072175 0.950301]
             /WhitePoint [0.9505 1.0 1.0890]
           >>
         ] setcolorspace } bind def
/srgb { setcolor } bind def
%%IncludeResource: font Helvetica
/Helvetica findfont
dup length dict begin
  {1 index /FID ne {def} {pop pop} ifelse} forall
  /Encoding ISOLatin1Encoding def
  currentdict
  end
/Font1 exch definefont pop
%%IncludeResource: font Helvetica-Bold
/Helvetica-Bold findfont
dup length dict begin
  {1 index /FID ne {def} {pop pop} ifelse} forall
  /Encoding ISOLatin1Encoding def
  currentdict
  end
/Font2 exch definefont pop
%%IncludeResource: font Helvetica-Oblique
/Helvetica-Oblique findfont
dup length dict begin
  {1 index /FID ne {def} {pop pop} ifelse} forall
  /Encoding ISOLatin1Encoding def
  currentdict
  end
/Font3 exch definefont pop
%%IncludeResource: font Helvetica-BoldOblique
/Helvetica-BoldOblique findfont
dup length dict begin
  {1 index /FID ne {def} {pop pop} ifelse} forall
  /Encoding ISOLatin1Encoding def
  currentdict
  end
/Font4 exch definefont pop
%%IncludeResource: font Symbol
/Symbol findfont
dup length dict begin
  {1 index /FID ne {def} {pop pop} ifelse} forall
  currentdict
  end
/Font5 exch definefont pop
%%EndProlog
%%Page: 1 1
bp
0.00 0.00 432.00 576.00 cl
0.00 0.00 432.00 576.00 cl
0.00 0.00 432.00 576.00 cl
/Font1 findfont 12 s
0 0 0 srgb
48.00 508.72 (PCP-ETH) 0 0 t
48.00 494.89 (Blitzlicht-Photolyse) 0 0 t
/Font1 findfont 9 s
48.00 457.54 (File: Dy) 0 ta
-0.180 (e_1_1_V2_900V) tb
-1.125 (.dat) tb gr
48.00 334.87 (T) 0 ta
-1.080 (ue Apr  9 22:07:42 2019) tb gr
48.00 430.87 (Fitfunktion:  a + b * e) 0 ta
-0.270 (xp\(-c * t\)) tb gr
48.00 420.50 (t-Inter) 0 ta
0.270 (v) tb
-0.225 (all: 200.000 ... 9410.000 ms) tb gr
48.00 410.14 (P) 0 ta
-0.360 (ar) tb
-0.090 (ameter \(Standardabw) tb
-0.090 (eichung\):) tb gr
48.00 399.77 (  a = -0.00566 \(0.00018\)) 0 0 t
48.00 389.40 (  b = 0.39647 \(0.00078\)) 0 0 t
48.00 379.03 (  c = 7.064e-01 \(2.216e-03\) s^-1) 0 0 t
48.00 368.66 (  tau = 1.416e+00 \(4.442e-03\) s) 0 0 t
216.00 345.60 388.80 518.40 cl
0 0 0 srgb
0.75 setlinewidth
[] 0 setdash
1 setlinecap
1 setlinejoin
10.00 setmiterlimit
np
222.40 505.96 m
0.15 0.97 l
0.14 -0.41 l
0.15 0.13 l
0.14 -0.85 l
0.15 1.13 l
0.14 -0.97 l
0.15 0.56 l
0.14 -0.15 l
0.15 0 l
0.15 -0.13 l
0.14 -0.15 l
0.15 -0.29 l
0.14 0.29 l
0.15 0.56 l
0.14 0 l
0.15 -0.41 l
0.14 0 l
0.15 0.57 l
0.15 0.12 l
0.14 -0.56 l
0.15 0.56 l
0.14 -0.97 l
0.15 0.41 l
0.14 0 l
0.15 -0.28 l
0.15 -0.41 l
0.14 0.97 l
0.15 -0.85 l
0.14 0.85 l
0.15 -0.56 l
0.14 0.84 l
0.15 0.16 l
0.14 -0.16 l
0.15 -1.25 l
0.15 0.69 l
0.14 -0.97 l
0.15 0.69 l
0.14 0 l
0.15 0.72 l
0.14 -0.29 l
0.15 0.29 l
0.14 -0.16 l
0.15 0 l
0.15 -0.28 l
0.14 0.56 l
0.15 -0.28 l
0.14 0 l
0.15 -1.13 l
0.14 1.29 l
0.15 -0.85 l
0.14 0.69 l
0.15 -0.28 l
0.15 -0.13 l
0.14 0 l
0.15 0.41 l
0.14 -0.56 l
0.15 0.43 l
0.14 0 l
0.15 0 l
0.15 -0.43 l
0.14 0.72 l
0.15 -0.16 l
0.14 -0.28 l
0.15 0 l
0.14 0.15 l
0.15 0.41 l
0.14 -0.69 l
0.15 0.28 l
0.15 -0.43 l
0.14 0.43 l
0.15 -0.72 l
0.14 0.72 l
0.15 0.41 l
0.14 -0.12 l
0.15 0.56 l
0.14 -1.57 l
0.15 1.01 l
0.15 -0.16 l
0.14 -0.69 l
0.15 0.28 l
0.14 -0.15 l
0.15 0.43 l
0.14 0.13 l
0.15 0.16 l
0.14 -0.16 l
0.15 -0.13 l
0.15 0.13 l
0.14 -0.41 l
0.15 0.13 l
0.14 0.28 l
0.15 0 l
0.14 0.28 l
0.15 -0.28 l
0.15 0.16 l
0.14 -0.44 l
0.15 -0.41 l
0.14 0.85 l
0.15 0.12 l
0.14 -0.28 l
236.96 405.95 lineto
0.14 1.23 l
0.15 0.02 l
0.15 0.85 l
0.14 0.56 l
0.15 1.84 l
0.14 1.13 l
0.15 -0.28 l
0.14 1.25 l
0.15 0.85 l
0.14 1.25 l
0.15 1.00 l
0.15 -0.28 l
0.14 0 l
0.15 1.53 l
0.14 1.13 l
0.15 0.69 l
0.14 -0.69 l
0.15 1.53 l
0.14 1.00 l
0.15 0.28 l
0.15 0 l
0.14 0.57 l
0.15 0.56 l
0.14 0.69 l
0.15 1.53 l
0.14 -0.40 l
0.15 0.28 l
0.15 0.56 l
0.14 0.97 l
0.15 0.56 l
0.14 -0.12 l
0.15 0.56 l
0.14 0.69 l
0.15 0.28 l
0.14 1.57 l
0.15 0.12 l
0.15 -0.56 l
0.14 0.28 l
0.15 1.53 l
0.14 0.29 l
0.15 0.15 l
0.14 -0.28 l
0.15 0.69 l
0.14 0.44 l
0.15 1.69 l
0.15 -0.72 l
0.14 0.28 l
0.15 1.00 l
0.14 0.56 l
0.15 0.41 l
0.14 -0.41 l
0.15 0.69 l
0.14 0.69 l
0.15 0.56 l
0.15 -0.12 l
0.14 0.97 l
0.15 0.15 l
0.14 1.26 l
0.15 -0.13 l
0.14 -0.16 l
0.15 1.13 l
0.15 0.28 l
0.14 0.16 l
0.15 -0.44 l
0.14 0.44 l
0.15 0.56 l
0.14 1.82 l
0.15 -0.69 l
0.14 0.97 l
0.15 -0.28 l
0.15 0.69 l
0.14 0.28 l
0.15 -0.85 l
0.14 0.72 l
0.15 1.41 l
0.14 0.41 l
0.15 0.15 l
0.14 -0.56 l
0.15 0.97 l
0.15 0.28 l
0.14 1.57 l
0.15 -1.00 l
0.14 0.72 l
0.15 0.12 l
0.14 1.13 l
0.15 0.69 l
0.14 -0.29 l
0.15 -0.28 l
0.15 0.85 l
0.14 0.72 l
0.15 0.12 l
0.14 -0.84 l
0.15 0.84 l
0.14 1.00 l
0.15 0.69 l
0.15 -0.28 l
0.14 0 l
0.15 0.16 l
0.14 0.69 l
251.52 452.73 lineto
0.14 0.13 l
0.15 1.00 l
0.14 0.53 l
0.15 0 l
0.15 0 l
0.14 0.28 l
0.15 1.28 l
0.14 -0.15 l
0.15 0 l
0.14 0.15 l
0.15 0 l
0.14 0.85 l
0.15 0.69 l
0.15 -0.57 l
0.14 1.01 l
0.15 0.40 l
0.14 -0.12 l
0.15 0.12 l
0.14 1.13 l
0.15 -0.69 l
0.14 0.97 l
0.15 -0.28 l
0.15 0.69 l
0.14 0 l
0.15 0 l
0.14 0.84 l
0.15 0.16 l
0.14 0.69 l
0.15 -0.57 l
0.14 0.44 l
0.15 0.69 l
0.15 -0.56 l
0.14 0.72 l
0.15 0.84 l
0.14 0 l
0.15 -0.28 l
0.14 0.69 l
0.15 -0.13 l
0.15 0.85 l
0.14 0.28 l
0.15 0.56 l
0.14 -0.43 l
0.15 0.28 l
0.14 0 l
0.15 0.28 l
0.14 0.56 l
0.15 0.57 l
0.15 0.56 l
0.14 -0.28 l
0.15 -0.28 l
0.14 1.40 l
0.15 -0.28 l
0.14 0.69 l
0.15 -0.97 l
0.14 1.41 l
0.15 -0.44 l
0.15 0.16 l
0.14 0.69 l
0.15 0 l
0.14 0.72 l
0.15 -0.16 l
0.14 0 l
0.15 0.44 l
0.14 0.97 l
0.15 -0.69 l
0.15 0 l
0.14 0.97 l
0.15 -0.28 l
0.14 0.56 l
0.15 0.28 l
0.14 0 l
0.15 0 l
0.15 0.41 l
0.14 0.15 l
0.15 0.13 l
0.14 0.72 l
0.15 -0.44 l
0.14 0 l
0.15 0.44 l
0.14 0.97 l
0.15 -0.84 l
0.15 1.56 l
0.14 -1.00 l
0.15 0.84 l
0.14 0.72 l
0.15 -0.72 l
0.14 -0.28 l
0.15 0.28 l
0.14 1.13 l
0.15 -0.56 l
0.15 0.43 l
0.14 0.41 l
0.15 -0.69 l
0.14 0.97 l
0.15 -0.28 l
0.14 1.41 l
0.15 -0.41 l
0.14 -0.28 l
0.15 1.10 l
266.08 477.98 lineto
0.14 0.44 l
0.15 0.13 l
0.14 -0.82 l
0.15 0.41 l
0.14 0.69 l
0.15 0.44 l
0.15 0 l
0.14 -0.44 l
0.15 0.84 l
0.14 -0.28 l
0.15 1.00 l
0.14 -0.56 l
0.15 0.56 l
0.14 -0.28 l
0.15 -0.15 l
0.15 1.28 l
0.14 -0.44 l
0.15 0.28 l
0.14 -0.28 l
0.15 0.16 l
0.14 0.97 l
0.15 -0.97 l
0.14 1.41 l
0.15 -1.01 l
0.15 0.29 l
0.14 1.00 l
0.15 -0.28 l
0.14 -0.72 l
0.15 1.12 l
0.14 -0.28 l
0.15 0.16 l
0.14 0.69 l
0.15 0.43 l
0.15 -0.56 l
0.14 0.69 l
0.15 0 l
0.14 0.56 l
0.15 -0.28 l
0.14 0.28 l
0.15 -0.69 l
0.15 1.10 l
0.14 -0.69 l
0.15 1.13 l
0.14 -0.28 l
0.15 0.12 l
0.14 0.28 l
0.15 0 l
0.14 -0.12 l
0.15 0.56 l
0.15 0.28 l
0.14 -0.15 l
0.15 0.28 l
0.14 -0.41 l
0.15 -0.44 l
0.14 1.41 l
0.15 -0.41 l
0.14 0.13 l
0.15 -0.56 l
0.15 0.84 l
0.14 0 l
0.15 1.00 l
0.14 -0.28 l
0.15 -0.44 l
0.14 1.00 l
0.15 -0.43 l
0.14 -0.13 l
0.15 0.69 l
0.15 -0.13 l
0.14 -0.15 l
0.15 0.44 l
0.14 -0.16 l
0.15 0.44 l
0.14 0.69 l
0.15 -0.57 l
0.15 0.72 l
0.14 -1.12 l
0.15 0.56 l
0.14 0.41 l
0.15 0.28 l
0.14 -0.41 l
0.15 0.97 l
0.14 -0.56 l
0.15 -0.13 l
0.15 0.82 l
0.14 0.15 l
0.15 -0.44 l
0.14 0.57 l
0.15 -0.57 l
0.14 0.16 l
0.15 0.69 l
0.14 -0.41 l
0.15 0.41 l
0.15 0.28 l
0.14 -0.69 l
0.15 0.85 l
0.14 0 l
0.15 -0.44 l
0.14 0.28 l
0.15 0.16 l
280.63 491.07 lineto
0.15 0.84 l
0.15 0.41 l
0.14 -1.13 l
0.15 0.85 l
0.14 0.56 l
0.15 -0.41 l
0.14 -0.15 l
0.15 0 l
0.15 0.15 l
0.14 0.56 l
0.15 0.69 l
0.14 -0.40 l
0.15 0.28 l
0.14 -0.72 l
0.15 0.28 l
0.14 0.56 l
0.15 -0.28 l
0.15 0.72 l
0.14 0.56 l
0.15 -0.84 l
0.14 0.41 l
0.15 0.15 l
0.14 -0.72 l
0.15 -0.12 l
0.14 1.53 l
0.15 -0.28 l
0.15 -0.56 l
0.14 0.28 l
0.15 0.28 l
0.14 0 l
0.15 -0.41 l
0.14 0.97 l
0.15 -0.97 l
0.14 0.13 l
0.15 -0.13 l
0.15 0.57 l
0.14 -1.41 l
0.15 1.53 l
0.14 0.56 l
0.15 -0.28 l
0.14 -0.40 l
0.15 0.28 l
0.14 0.69 l
0.15 -0.13 l
0.15 0.13 l
0.14 0 l
0.15 -0.57 l
0.14 1.69 l
0.15 -0.44 l
0.14 0 l
0.15 -0.56 l
0.15 0.16 l
0.14 0.56 l
0.15 0.28 l
0.14 -1.00 l
0.15 0.44 l
0.14 0.28 l
0.15 -0.44 l
0.14 0.44 l
0.15 -0.16 l
0.15 1.01 l
0.14 -1.01 l
0.15 -0.28 l
0.14 1.00 l
0.15 0.13 l
0.14 -0.41 l
0.15 0.28 l
0.14 -0.28 l
0.15 0.41 l
0.15 0 l
0.14 0 l
0.15 0 l
0.14 0.56 l
0.15 -0.28 l
0.14 0.72 l
0.15 -0.56 l
0.14 0.40 l
0.15 0 l
0.15 -0.40 l
0.14 0.12 l
0.15 0.57 l
0.14 -1.26 l
0.15 1.26 l
0.14 0 l
0.15 -0.13 l
0.15 0 l
0.14 -0.28 l
0.15 -0.44 l
0.14 1.13 l
0.15 -0.85 l
0.14 0.44 l
0.15 0.56 l
0.14 -0.28 l
0.15 0.13 l
0.15 0.28 l
0.14 -0.28 l
0.15 -0.41 l
0.14 0.85 l
0.15 0.12 l
295.19 499.20 lineto
0.15 -0.12 l
0.14 0 l
0.15 -0.16 l
0.15 0.56 l
0.14 0.44 l
0.15 0.41 l
0.14 -0.13 l
0.15 -0.56 l
0.14 0.28 l
0.15 -0.28 l
0.14 0.28 l
0.15 0.13 l
0.15 -0.29 l
0.14 0.85 l
0.15 -0.56 l
0.14 0 l
0.15 0.43 l
0.14 -0.15 l
0.15 0 l
0.15 0.28 l
0.14 -0.28 l
0.15 -0.28 l
0.14 -0.29 l
0.15 -0.12 l
0.14 0.69 l
0.15 0.72 l
0.14 -0.57 l
0.15 -0.43 l
0.15 0.56 l
0.14 0.16 l
0.15 0.28 l
0.14 0.12 l
0.15 -0.84 l
0.14 0.15 l
0.15 0.57 l
0.14 -0.57 l
0.15 0.41 l
0.15 0 l
0.14 -0.41 l
0.15 0.41 l
0.14 -0.28 l
0.15 1.00 l
0.14 -1.13 l
0.15 0.85 l
0.14 -0.16 l
0.15 0.16 l
0.15 0 l
0.14 0.28 l
0.15 -0.16 l
0.14 -0.40 l
0.15 0.28 l
0.14 1.38 l
0.15 -1.26 l
0.15 -1.69 l
0.14 1.41 l
0.15 1.25 l
0.14 -1.25 l
0.15 0.44 l
0.14 0.97 l
0.15 -0.28 l
0.14 -0.28 l
0.15 0.28 l
0.15 -0.16 l
0.14 -0.40 l
0.15 0.84 l
0.14 -0.56 l
0.15 -0.41 l
0.14 0 l
0.15 1.10 l
0.14 -0.41 l
0.15 -0.28 l
0.15 0.97 l
0.14 -1.13 l
0.15 0.16 l
0.14 0.69 l
0.15 -0.41 l
0.14 -0.44 l
0.15 0.56 l
0.14 -0.12 l
0.15 0.84 l
0.15 0 l
0.14 -0.43 l
0.15 -0.29 l
0.14 0.16 l
0.15 -0.16 l
0.14 0.44 l
0.15 -0.15 l
0.15 0.28 l
0.14 0 l
0.15 -0.41 l
0.14 0.41 l
0.15 0.28 l
0.14 -0.28 l
0.15 0.28 l
0.14 0 l
0.15 0 l
0.15 -0.13 l
0.14 0.29 l
0.15 -0.44 l
309.75 503.27 lineto
0.15 0.56 l
0.14 -0.40 l
0.15 -0.29 l
0.14 0.97 l
0.15 -0.84 l
0.15 -0.56 l
0.14 0.84 l
0.15 0.28 l
0.14 -0.69 l
0.15 0.57 l
0.14 0.69 l
0.15 -1.26 l
0.14 0.97 l
0.15 -0.84 l
0.15 0.44 l
0.14 0.56 l
0.15 -0.72 l
0.14 0.28 l
0.15 -0.12 l
0.14 0.69 l
0.15 -1.26 l
0.15 0.85 l
0.14 -0.28 l
0.15 -0.16 l
0.14 0.28 l
0.15 0.57 l
0.14 0 l
0.15 -0.29 l
0.14 0.29 l
0.15 -0.13 l
0.15 0 l
0.14 -0.44 l
0.15 0.16 l
0.14 0 l
0.15 0.41 l
0.14 -0.97 l
0.15 1.12 l
0.14 -0.15 l
0.15 -0.57 l
0.15 0.44 l
0.14 0 l
0.15 0.69 l
0.14 -0.13 l
0.15 -0.43 l
0.14 0 l
0.15 -0.29 l
0.14 0.29 l
0.15 -0.29 l
0.15 0.57 l
0.14 -0.13 l
0.15 0.57 l
0.14 0.12 l
0.15 -1.25 l
0.14 0.97 l
0.15 -0.13 l
0.15 0.29 l
0.14 -0.57 l
0.15 0.97 l
0.14 -0.56 l
0.15 0.56 l
0.14 0 l
0.15 -0.69 l
0.14 -0.15 l
0.15 0.56 l
0.15 -0.56 l
0.14 0.56 l
0.15 -0.84 l
0.14 0.56 l
0.15 -0.13 l
0.14 0.57 l
0.15 0.56 l
0.14 -0.56 l
0.15 -0.72 l
0.15 1.12 l
0.14 -1.12 l
0.15 0.15 l
0.14 0.29 l
0.15 0.56 l
0.14 -0.56 l
0.15 0.28 l
0.14 -0.16 l
0.15 -0.41 l
0.15 0.13 l
0.14 1.00 l
0.15 -0.72 l
0.14 0 l
0.15 0.16 l
0.14 0.28 l
0.15 -0.56 l
0.14 0.12 l
0.15 1.00 l
0.15 -0.44 l
0.14 0 l
0.15 -0.12 l
0.14 0.12 l
0.15 0.16 l
0.14 0.13 l
0.15 -0.13 l
0.15 -0.28 l
324.31 505.96 lineto
0.15 0.41 l
0.14 -0.57 l
0.15 -0.12 l
0.14 0.41 l
0.15 0 l
0.14 0 l
0.15 -0.29 l
0.15 0.16 l
0.14 0.13 l
0.15 -0.69 l
0.14 0.97 l
0.15 0 l
0.14 -1.25 l
0.15 1.53 l
0.14 -0.41 l
0.15 -0.56 l
0.15 0.84 l
0.14 -0.15 l
0.15 -0.69 l
0.14 -0.16 l
0.15 0.16 l
0.14 0.97 l
0.15 -0.56 l
0.14 0.43 l
0.15 0.13 l
0.15 -0.28 l
0.14 -0.85 l
0.15 0.72 l
0.14 0.13 l
0.15 -0.28 l
0.14 0.15 l
0.15 0.28 l
0.15 -0.28 l
0.14 -0.15 l
0.15 0.43 l
0.14 0.13 l
0.15 -0.41 l
0.14 0.41 l
0.15 0.44 l
0.14 0.12 l
0.15 -0.84 l
0.15 -0.13 l
0.14 0.28 l
0.15 0 l
0.14 0.41 l
0.15 -0.12 l
0.14 -0.72 l
0.15 0.56 l
0.14 0.44 l
0.15 -0.57 l
0.15 -0.15 l
0.14 0.15 l
0.15 -0.43 l
0.14 0.28 l
0.15 0 l
0.14 0.56 l
0.15 -0.12 l
0.14 0 l
0.15 0 l
0.15 0.40 l
0.14 -0.28 l
0.15 -0.28 l
0.14 0.28 l
0.15 0 l
0.14 0.56 l
0.15 0 l
0.15 -0.56 l
0.14 0 l
0.15 0.16 l
0.14 0.28 l
0.15 -0.44 l
0.14 0.16 l
0.15 -0.57 l
0.14 0.97 l
0.15 -0.56 l
0.15 -0.28 l
0.14 0.44 l
0.15 0.56 l
0.14 -1.28 l
0.15 1.00 l
0.14 0.12 l
0.15 -0.40 l
0.14 0.12 l
0.15 -0.12 l
0.15 0.28 l
0.14 0 l
0.15 0.12 l
0.14 -0.12 l
0.15 0.28 l
0.14 -0.28 l
0.15 -0.56 l
0.14 0.97 l
0.15 -0.41 l
0.15 -0.28 l
0.14 0.69 l
0.15 -0.29 l
0.14 0.29 l
0.15 -0.29 l
0.14 0 l
338.87 507.49 lineto
0.15 0.29 l
0.14 -0.41 l
0.15 -0.85 l
0.14 1.26 l
0.15 -0.29 l
0.14 0 l
0.15 0.41 l
0.14 -0.53 l
0.15 0.28 l
0.15 0.13 l
0.14 -0.29 l
0.15 0.29 l
0.14 -0.85 l
0.15 0.85 l
0.14 -0.41 l
0.15 0.12 l
0.14 0.57 l
0.15 -0.28 l
0.15 0.12 l
0.14 -0.25 l
0.15 -0.44 l
0.14 0.69 l
0.15 0.56 l
0.14 -0.28 l
0.15 -0.40 l
0.14 0.28 l
0.15 0 l
0.15 0 l
0.14 -0.16 l
0.15 -0.69 l
0.14 0.44 l
0.15 0.81 l
0.14 -0.56 l
0.15 0.16 l
0.15 -0.16 l
0.14 0.16 l
0.15 -0.16 l
0.14 0 l
0.15 0 l
0.14 0.56 l
0.15 -0.40 l
0.14 -0.41 l
0.15 0.25 l
0.15 -0.12 l
0.14 0 l
0.15 0 l
0.14 0.56 l
0.15 0.28 l
0.14 -0.72 l
0.15 0.85 l
0.14 -0.57 l
0.15 0.57 l
0.15 -0.13 l
0.14 -0.72 l
0.15 0.56 l
0.14 -0.40 l
0.15 -0.16 l
0.14 0.44 l
0.15 -0.56 l
0.14 0.40 l
0.15 0 l
0.15 0.28 l
0.14 0 l
0.15 0.29 l
0.14 -0.13 l
0.15 0.13 l
0.14 -0.69 l
0.15 0.40 l
0.15 0.44 l
0.14 -0.44 l
0.15 0.57 l
0.14 -0.69 l
0.15 0 l
0.14 0 l
0.15 0.28 l
0.14 -0.44 l
0.15 -0.28 l
0.15 0.85 l
0.14 -0.13 l
0.15 -0.28 l
0.14 -0.16 l
0.15 0.72 l
0.14 -0.72 l
0.15 0.85 l
0.14 -0.41 l
0.15 0 l
0.15 0.69 l
0.14 -0.13 l
0.15 -1.12 l
0.14 0.97 l
0.15 -0.28 l
0.14 0.15 l
0.15 -0.15 l
0.14 0.28 l
0.15 -0.41 l
0.15 0.28 l
0.14 -0.44 l
0.15 0.44 l
0.14 0.97 l
353.43 509.18 lineto
0.14 0.13 l
0.15 0 l
0.14 -0.56 l
0.15 -0.29 l
0.15 -0.28 l
0.14 1.00 l
0.15 -0.15 l
0.14 0.56 l
0.15 -1.25 l
0.14 0.56 l
0.15 -0.28 l
0.15 0.13 l
0.14 0 l
0.15 0.43 l
0.14 0 l
0.15 0.13 l
0.14 -0.69 l
0.15 0.85 l
0.14 -0.44 l
0.15 0.28 l
0.15 -0.28 l
0.14 -0.57 l
0.15 -0.28 l
0.14 1.13 l
0.15 -0.56 l
0.14 0 l
0.15 0.43 l
0.14 -0.15 l
0.15 0 l
0.15 0.56 l
0.14 -0.12 l
0.15 -0.29 l
0.14 0 l
0.15 0 l
0.14 0 l
0.15 0.13 l
0.14 -0.41 l
0.15 0.28 l
0.15 -0.15 l
0.14 0.44 l
0.15 -0.16 l
0.14 0 l
0.15 -0.13 l
0.14 0.29 l
0.15 0 l
0.15 0.12 l
0.14 0 l
0.15 -0.12 l
0.14 -0.57 l
0.15 0.97 l
0.14 -0.12 l
0.15 -0.57 l
0.14 0 l
0.15 0.13 l
0.15 0.28 l
0.14 -0.28 l
0.15 0.16 l
0.14 0.68 l
0.15 -0.40 l
0.14 0.28 l
0.15 0 l
0.14 -0.28 l
0.15 -0.72 l
0.15 0.28 l
0.14 0.72 l
0.15 -0.44 l
0.14 -0.12 l
0.15 -0.29 l
0.14 0.29 l
0.15 0.97 l
0.14 -0.41 l
0.15 -0.16 l
0.15 -0.12 l
0.14 0.40 l
0.15 -0.28 l
0.14 -0.28 l
0.15 0.28 l
0.14 0.16 l
0.15 -0.56 l
0.15 0.84 l
0.14 -0.56 l
0.15 -0.44 l
0.14 0.28 l
0.15 0.28 l
0.14 -0.28 l
0.15 0.44 l
0.14 0 l
0.15 0.69 l
0.15 -1.25 l
0.14 0.56 l
0.15 -0.72 l
0.14 0.72 l
0.15 0.41 l
0.14 -0.13 l
0.15 -1.13 l
0.14 0.97 l
0.15 -0.84 l
0.15 0.56 l
0.14 0 l
currentpoint o m
367.99 509.47 lineto
0.14 1.12 l
0.15 -0.44 l
0.14 -0.28 l
0.15 0.44 l
0.14 -0.44 l
0.15 -0.12 l
0.15 0.12 l
0.14 0.85 l
0.15 -0.57 l
0.14 -0.40 l
0.15 0.12 l
0.14 0.44 l
0.15 -0.16 l
0.15 -0.40 l
0.14 0.97 l
0.15 -0.41 l
0.14 -0.56 l
0.15 0.69 l
0.14 -0.41 l
0.15 -0.16 l
0.14 1.29 l
0.15 -0.44 l
0.15 -1.13 l
0.14 0.44 l
0.15 0.41 l
0.14 -0.29 l
0.15 0 l
0.14 0.44 l
0.15 0.41 l
0.14 -0.56 l
0.15 -0.41 l
0.15 0.97 l
0.14 -0.69 l
0.15 0.28 l
0.14 0 l
0.15 0 l
0.14 0 l
0.15 0.13 l
0.14 -0.97 l
0.15 0.97 l
0.15 -0.41 l
0.14 0.28 l
0.15 -0.44 l
0.14 0.57 l
0.15 0.15 l
0.14 0.13 l
0.15 -0.13 l
0.15 -0.28 l
0.14 0.57 l
0.15 -0.16 l
0.14 0.16 l
0.15 0 l
0.14 -0.29 l
0.15 0.85 l
0.14 -0.56 l
0.15 -0.16 l
0.15 0.16 l
0.14 -0.16 l
0.15 0.28 l
0.14 0 l
0.15 -0.41 l
0.14 -0.15 l
0.15 0.56 l
0.14 0.16 l
0.15 -1.00 l
0.15 0.28 l
0.14 0.72 l
0.15 -0.28 l
0.14 -0.29 l
0.15 0.57 l
0.14 -0.57 l
0.15 0.41 l
0.14 0.16 l
0.15 -0.57 l
0.15 0.97 l
0.14 0 l
0.15 -0.40 l
0.14 0.40 l
0.15 -0.56 l
0.14 0.44 l
0.15 -0.72 l
0.15 0.16 l
0.14 0.56 l
0.15 -0.44 l
0.14 0.16 l
0.15 -0.16 l
0.14 -0.28 l
0.15 0.84 l
0.14 -0.40 l
0.15 0.12 l
0.15 0.28 l
0.14 -0.12 l
0.15 0.28 l
0.14 -0.16 l
0.15 -0.40 l
0.14 0.12 l
0.15 0.16 l
0.14 -0.72 l
0.15 0.56 l
o
/bg { 1 1 1 srgb } def
222.40 505.96 0.43 c p3
222.55 506.93 0.43 c p3
222.69 506.52 0.43 c p3
222.84 506.65 0.43 c p3
222.98 505.80 0.43 c p3
223.13 506.93 0.43 c p3
223.27 505.96 0.43 c p3
223.42 506.52 0.43 c p3
223.56 506.37 0.43 c p3
223.71 506.37 0.43 c p3
223.86 506.24 0.43 c p3
224.00 506.09 0.43 c p3
224.15 505.80 0.43 c p3
224.29 506.09 0.43 c p3
224.44 506.65 0.43 c p3
224.58 506.65 0.43 c p3
224.73 506.24 0.43 c p3
224.87 506.24 0.43 c p3
225.02 506.81 0.43 c p3
225.17 506.93 0.43 c p3
225.31 506.37 0.43 c p3
225.46 506.93 0.43 c p3
225.60 505.96 0.43 c p3
225.75 506.37 0.43 c p3
225.89 506.37 0.43 c p3
226.04 506.09 0.43 c p3
226.19 505.68 0.43 c p3
226.33 506.65 0.43 c p3
226.48 505.80 0.43 c p3
226.62 506.65 0.43 c p3
226.77 506.09 0.43 c p3
226.91 506.93 0.43 c p3
227.06 507.09 0.43 c p3
227.20 506.93 0.43 c p3
227.35 505.68 0.43 c p3
227.50 506.37 0.43 c p3
227.64 505.40 0.43 c p3
227.79 506.09 0.43 c p3
227.93 506.09 0.43 c p3
228.08 506.81 0.43 c p3
228.22 506.52 0.43 c p3
228.37 506.81 0.43 c p3
228.51 506.65 0.43 c p3
228.66 506.65 0.43 c p3
228.81 506.37 0.43 c p3
228.95 506.93 0.43 c p3
229.10 506.65 0.43 c p3
229.24 506.65 0.43 c p3
229.39 505.52 0.43 c p3
229.53 506.81 0.43 c p3
229.68 505.96 0.43 c p3
229.82 506.65 0.43 c p3
229.97 506.37 0.43 c p3
230.12 506.24 0.43 c p3
230.26 506.24 0.43 c p3
230.41 506.65 0.43 c p3
230.55 506.09 0.43 c p3
230.70 506.52 0.43 c p3
230.84 506.52 0.43 c p3
230.99 506.52 0.43 c p3
231.14 506.09 0.43 c p3
231.28 506.81 0.43 c p3
231.43 506.65 0.43 c p3
231.57 506.37 0.43 c p3
231.72 506.37 0.43 c p3
231.86 506.52 0.43 c p3
232.01 506.93 0.43 c p3
232.15 506.24 0.43 c p3
232.30 506.52 0.43 c p3
232.45 506.09 0.43 c p3
232.59 506.52 0.43 c p3
232.74 505.80 0.43 c p3
232.88 506.52 0.43 c p3
233.03 506.93 0.43 c p3
233.17 506.81 0.43 c p3
233.32 507.37 0.43 c p3
233.46 505.80 0.43 c p3
233.61 506.81 0.43 c p3
233.76 506.65 0.43 c p3
233.90 505.96 0.43 c p3
234.05 506.24 0.43 c p3
234.19 506.09 0.43 c p3
234.34 506.52 0.43 c p3
234.48 506.65 0.43 c p3
234.63 506.81 0.43 c p3
234.77 506.65 0.43 c p3
234.92 506.52 0.43 c p3
235.07 506.65 0.43 c p3
235.21 506.24 0.43 c p3
235.36 506.37 0.43 c p3
235.50 506.65 0.43 c p3
235.65 506.65 0.43 c p3
235.79 506.93 0.43 c p3
235.94 506.65 0.43 c p3
236.09 506.81 0.43 c p3
236.23 506.37 0.43 c p3
236.38 505.96 0.43 c p3
236.52 506.81 0.43 c p3
236.67 506.93 0.43 c p3
236.81 506.65 0.43 c p3
236.96 405.95 0.43 c p3
237.10 407.18 0.43 c p3
237.25 407.20 0.43 c p3
237.40 408.05 0.43 c p3
237.54 408.61 0.43 c p3
237.69 410.45 0.43 c p3
237.83 411.58 0.43 c p3
237.98 411.30 0.43 c p3
238.12 412.55 0.43 c p3
238.27 413.40 0.43 c p3
238.41 414.65 0.43 c p3
238.56 415.65 0.43 c p3
238.71 415.37 0.43 c p3
238.85 415.37 0.43 c p3
239.00 416.90 0.43 c p3
239.14 418.03 0.43 c p3
239.29 418.72 0.43 c p3
239.43 418.03 0.43 c p3
239.58 419.56 0.43 c p3
239.72 420.56 0.43 c p3
239.87 420.84 0.43 c p3
240.02 420.84 0.43 c p3
240.16 421.41 0.43 c p3
240.31 421.97 0.43 c p3
240.45 422.66 0.43 c p3
240.60 424.19 0.43 c p3
240.74 423.79 0.43 c p3
240.89 424.07 0.43 c p3
241.04 424.63 0.43 c p3
241.18 425.60 0.43 c p3
241.33 426.16 0.43 c p3
241.47 426.04 0.43 c p3
241.62 426.60 0.43 c p3
241.76 427.29 0.43 c p3
241.91 427.57 0.43 c p3
242.05 429.14 0.43 c p3
242.20 429.26 0.43 c p3
242.35 428.70 0.43 c p3
242.49 428.98 0.43 c p3
242.64 430.51 0.43 c p3
242.78 430.80 0.43 c p3
242.93 430.95 0.43 c p3
243.07 430.67 0.43 c p3
243.22 431.36 0.43 c p3
243.36 431.80 0.43 c p3
243.51 433.49 0.43 c p3
243.66 432.77 0.43 c p3
243.80 433.05 0.43 c p3
243.95 434.05 0.43 c p3
244.09 434.61 0.43 c p3
244.24 435.02 0.43 c p3
244.38 434.61 0.43 c p3
244.53 435.30 0.43 c p3
244.67 435.99 0.43 c p3
244.82 436.55 0.43 c p3
244.97 436.43 0.43 c p3
245.11 437.40 0.43 c p3
245.26 437.55 0.43 c p3
245.40 438.81 0.43 c p3
245.55 438.68 0.43 c p3
245.69 438.52 0.43 c p3
245.84 439.65 0.43 c p3
245.99 439.93 0.43 c p3
246.13 440.09 0.43 c p3
246.28 439.65 0.43 c p3
246.42 440.09 0.43 c p3
246.57 440.65 0.43 c p3
246.71 442.47 0.43 c p3
246.86 441.78 0.43 c p3
247.00 442.75 0.43 c p3
247.15 442.47 0.43 c p3
247.30 443.16 0.43 c p3
247.44 443.44 0.43 c p3
247.59 442.59 0.43 c p3
247.73 443.31 0.43 c p3
247.88 444.72 0.43 c p3
248.02 445.13 0.43 c p3
248.17 445.28 0.43 c p3
248.31 444.72 0.43 c p3
248.46 445.69 0.43 c p3
248.61 445.97 0.43 c p3
248.75 447.54 0.43 c p3
248.90 446.54 0.43 c p3
249.04 447.26 0.43 c p3
249.19 447.38 0.43 c p3
249.33 448.51 0.43 c p3
249.48 449.20 0.43 c p3
249.62 448.91 0.43 c p3
249.77 448.63 0.43 c p3
249.92 449.48 0.43 c p3
250.06 450.20 0.43 c p3
250.21 450.32 0.43 c p3
250.35 449.48 0.43 c p3
250.50 450.32 0.43 c p3
250.64 451.32 0.43 c p3
250.79 452.01 0.43 c p3
250.94 451.73 0.43 c p3
251.08 451.73 0.43 c p3
251.23 451.89 0.43 c p3
251.37 452.58 0.43 c p3
251.52 452.73 0.43 c p3
251.66 452.86 0.43 c p3
251.81 453.86 0.43 c p3
251.95 454.39 0.43 c p3
252.10 454.39 0.43 c p3
252.25 454.39 0.43 c p3
252.39 454.67 0.43 c p3
252.54 455.95 0.43 c p3
252.68 455.80 0.43 c p3
252.83 455.80 0.43 c p3
252.97 455.95 0.43 c p3
253.12 455.95 0.43 c p3
253.26 456.80 0.43 c p3
253.41 457.49 0.43 c p3
253.56 456.92 0.43 c p3
253.70 457.93 0.43 c p3
253.85 458.33 0.43 c p3
253.99 458.21 0.43 c p3
254.14 458.33 0.43 c p3
254.28 459.46 0.43 c p3
254.43 458.77 0.43 c p3
254.57 459.74 0.43 c p3
254.72 459.46 0.43 c p3
254.87 460.15 0.43 c p3
255.01 460.15 0.43 c p3
255.16 460.15 0.43 c p3
255.30 460.99 0.43 c p3
255.45 461.15 0.43 c p3
255.59 461.84 0.43 c p3
255.74 461.27 0.43 c p3
255.88 461.71 0.43 c p3
256.03 462.40 0.43 c p3
256.18 461.84 0.43 c p3
256.32 462.56 0.43 c p3
256.47 463.40 0.43 c p3
256.61 463.40 0.43 c p3
256.76 463.12 0.43 c p3
256.90 463.81 0.43 c p3
257.05 463.68 0.43 c p3
257.20 464.53 0.43 c p3
257.34 464.81 0.43 c p3
257.49 465.37 0.43 c p3
257.63 464.94 0.43 c p3
257.78 465.22 0.43 c p3
257.92 465.22 0.43 c p3
258.07 465.50 0.43 c p3
258.21 466.06 0.43 c p3
258.36 466.63 0.43 c p3
258.51 467.19 0.43 c p3
258.65 466.91 0.43 c p3
258.80 466.63 0.43 c p3
258.94 468.03 0.43 c p3
259.09 467.75 0.43 c p3
259.23 468.44 0.43 c p3
259.38 467.47 0.43 c p3
259.52 468.88 0.43 c p3
259.67 468.44 0.43 c p3
259.82 468.60 0.43 c p3
259.96 469.29 0.43 c p3
260.11 469.29 0.43 c p3
260.25 470.01 0.43 c p3
260.40 469.85 0.43 c p3
260.54 469.85 0.43 c p3
260.69 470.29 0.43 c p3
260.83 471.26 0.43 c p3
260.98 470.57 0.43 c p3
261.13 470.57 0.43 c p3
261.27 471.54 0.43 c p3
261.42 471.26 0.43 c p3
261.56 471.82 0.43 c p3
261.71 472.10 0.43 c p3
261.85 472.10 0.43 c p3
262.00 472.10 0.43 c p3
262.15 472.51 0.43 c p3
262.29 472.66 0.43 c p3
262.44 472.79 0.43 c p3
262.58 473.51 0.43 c p3
262.73 473.07 0.43 c p3
262.87 473.07 0.43 c p3
263.02 473.51 0.43 c p3
263.16 474.48 0.43 c p3
263.31 473.64 0.43 c p3
263.46 475.20 0.43 c p3
263.60 474.20 0.43 c p3
263.75 475.04 0.43 c p3
263.89 475.76 0.43 c p3
264.04 475.04 0.43 c p3
264.18 474.76 0.43 c p3
264.33 475.04 0.43 c p3
264.47 476.17 0.43 c p3
264.62 475.61 0.43 c p3
264.77 476.04 0.43 c p3
264.91 476.45 0.43 c p3
265.06 475.76 0.43 c p3
265.20 476.73 0.43 c p3
265.35 476.45 0.43 c p3
265.49 477.86 0.43 c p3
265.64 477.45 0.43 c p3
265.78 477.17 0.43 c p3
265.93 478.27 0.43 c p3
266.08 477.98 0.43 c p3
266.22 478.42 0.43 c p3
266.37 478.55 0.43 c p3
266.51 477.73 0.43 c p3
266.66 478.14 0.43 c p3
266.80 478.83 0.43 c p3
266.95 479.27 0.43 c p3
267.10 479.27 0.43 c p3
267.24 478.83 0.43 c p3
267.39 479.67 0.43 c p3
267.53 479.39 0.43 c p3
267.68 480.39 0.43 c p3
267.82 479.83 0.43 c p3
267.97 480.39 0.43 c p3
268.11 480.11 0.43 c p3
268.26 479.96 0.43 c p3
268.41 481.24 0.43 c p3
268.55 480.80 0.43 c p3
268.70 481.08 0.43 c p3
268.84 480.80 0.43 c p3
268.99 480.96 0.43 c p3
269.13 481.93 0.43 c p3
269.28 480.96 0.43 c p3
269.42 482.37 0.43 c p3
269.57 481.36 0.43 c p3
269.72 481.65 0.43 c p3
269.86 482.65 0.43 c p3
270.01 482.37 0.43 c p3
270.15 481.65 0.43 c p3
270.30 482.77 0.43 c p3
270.44 482.49 0.43 c p3
270.59 482.65 0.43 c p3
270.73 483.34 0.43 c p3
270.88 483.77 0.43 c p3
271.03 483.21 0.43 c p3
271.17 483.90 0.43 c p3
271.32 483.90 0.43 c p3
271.46 484.46 0.43 c p3
271.61 484.18 0.43 c p3
271.75 484.46 0.43 c p3
271.90 483.77 0.43 c p3
272.05 484.87 0.43 c p3
272.19 484.18 0.43 c p3
272.34 485.31 0.43 c p3
272.48 485.03 0.43 c p3
272.63 485.15 0.43 c p3
272.77 485.43 0.43 c p3
272.92 485.43 0.43 c p3
273.06 485.31 0.43 c p3
273.21 485.87 0.43 c p3
273.36 486.15 0.43 c p3
273.50 486.00 0.43 c p3
273.65 486.28 0.43 c p3
273.79 485.87 0.43 c p3
273.94 485.43 0.43 c p3
274.08 486.84 0.43 c p3
274.23 486.43 0.43 c p3
274.37 486.56 0.43 c p3
274.52 486.00 0.43 c p3
274.67 486.84 0.43 c p3
274.81 486.84 0.43 c p3
274.96 487.84 0.43 c p3
275.10 487.56 0.43 c p3
275.25 487.12 0.43 c p3
275.39 488.12 0.43 c p3
275.54 487.69 0.43 c p3
275.68 487.56 0.43 c p3
275.83 488.25 0.43 c p3
275.98 488.12 0.43 c p3
276.12 487.97 0.43 c p3
276.27 488.41 0.43 c p3
276.41 488.25 0.43 c p3
276.56 488.69 0.43 c p3
276.70 489.38 0.43 c p3
276.85 488.81 0.43 c p3
277.00 489.53 0.43 c p3
277.14 488.41 0.43 c p3
277.29 488.97 0.43 c p3
277.43 489.38 0.43 c p3
277.58 489.66 0.43 c p3
277.72 489.25 0.43 c p3
277.87 490.22 0.43 c p3
278.01 489.66 0.43 c p3
278.16 489.53 0.43 c p3
278.31 490.35 0.43 c p3
278.45 490.50 0.43 c p3
278.60 490.06 0.43 c p3
278.74 490.63 0.43 c p3
278.89 490.06 0.43 c p3
279.03 490.22 0.43 c p3
279.18 490.91 0.43 c p3
279.32 490.50 0.43 c p3
279.47 490.91 0.43 c p3
279.62 491.19 0.43 c p3
279.76 490.50 0.43 c p3
279.91 491.35 0.43 c p3
280.05 491.35 0.43 c p3
280.20 490.91 0.43 c p3
280.34 491.19 0.43 c p3
280.49 491.35 0.43 c p3
280.63 491.07 0.43 c p3
280.78 491.91 0.43 c p3
280.93 492.32 0.43 c p3
281.07 491.19 0.43 c p3
281.22 492.04 0.43 c p3
281.36 492.60 0.43 c p3
281.51 492.19 0.43 c p3
281.65 492.04 0.43 c p3
281.80 492.04 0.43 c p3
281.95 492.19 0.43 c p3
282.09 492.75 0.43 c p3
282.24 493.44 0.43 c p3
282.38 493.04 0.43 c p3
282.53 493.32 0.43 c p3
282.67 492.60 0.43 c p3
282.82 492.88 0.43 c p3
282.96 493.44 0.43 c p3
283.11 493.16 0.43 c p3
283.26 493.88 0.43 c p3
283.40 494.44 0.43 c p3
283.55 493.60 0.43 c p3
283.69 494.01 0.43 c p3
283.84 494.16 0.43 c p3
283.98 493.44 0.43 c p3
284.13 493.32 0.43 c p3
284.27 494.85 0.43 c p3
284.42 494.57 0.43 c p3
284.57 494.01 0.43 c p3
284.71 494.29 0.43 c p3
284.86 494.57 0.43 c p3
285.00 494.57 0.43 c p3
285.15 494.16 0.43 c p3
285.29 495.13 0.43 c p3
285.44 494.16 0.43 c p3
285.58 494.29 0.43 c p3
285.73 494.16 0.43 c p3
285.88 494.73 0.43 c p3
286.02 493.32 0.43 c p3
286.17 494.85 0.43 c p3
286.31 495.41 0.43 c p3
286.46 495.13 0.43 c p3
286.60 494.73 0.43 c p3
286.75 495.01 0.43 c p3
286.89 495.70 0.43 c p3
287.04 495.57 0.43 c p3
287.19 495.70 0.43 c p3
287.33 495.70 0.43 c p3
287.48 495.13 0.43 c p3
287.62 496.82 0.43 c p3
287.77 496.38 0.43 c p3
287.91 496.38 0.43 c p3
288.06 495.82 0.43 c p3
288.21 495.98 0.43 c p3
288.35 496.54 0.43 c p3
288.50 496.82 0.43 c p3
288.64 495.82 0.43 c p3
288.79 496.26 0.43 c p3
288.93 496.54 0.43 c p3
289.08 496.10 0.43 c p3
289.22 496.54 0.43 c p3
289.37 496.38 0.43 c p3
289.52 497.39 0.43 c p3
289.66 496.38 0.43 c p3
289.81 496.10 0.43 c p3
289.95 497.10 0.43 c p3
290.10 497.23 0.43 c p3
290.24 496.82 0.43 c p3
290.39 497.10 0.43 c p3
290.53 496.82 0.43 c p3
290.68 497.23 0.43 c p3
290.83 497.23 0.43 c p3
290.97 497.23 0.43 c p3
291.12 497.23 0.43 c p3
291.26 497.79 0.43 c p3
291.41 497.51 0.43 c p3
291.55 498.23 0.43 c p3
291.70 497.67 0.43 c p3
291.84 498.07 0.43 c p3
291.99 498.07 0.43 c p3
292.14 497.67 0.43 c p3
292.28 497.79 0.43 c p3
292.43 498.36 0.43 c p3
292.57 497.10 0.43 c p3
292.72 498.36 0.43 c p3
292.86 498.36 0.43 c p3
293.01 498.23 0.43 c p3
293.16 498.23 0.43 c p3
293.30 497.95 0.43 c p3
293.45 497.51 0.43 c p3
293.59 498.64 0.43 c p3
293.74 497.79 0.43 c p3
293.88 498.23 0.43 c p3
294.03 498.79 0.43 c p3
294.17 498.51 0.43 c p3
294.32 498.64 0.43 c p3
294.47 498.92 0.43 c p3
294.61 498.64 0.43 c p3
294.76 498.23 0.43 c p3
294.90 499.08 0.43 c p3
295.05 499.20 0.43 c p3
295.19 499.20 0.43 c p3
295.34 499.08 0.43 c p3
295.48 499.08 0.43 c p3
295.63 498.92 0.43 c p3
295.78 499.48 0.43 c p3
295.92 499.92 0.43 c p3
296.07 500.33 0.43 c p3
296.21 500.20 0.43 c p3
296.36 499.64 0.43 c p3
296.50 499.92 0.43 c p3
296.65 499.64 0.43 c p3
296.79 499.92 0.43 c p3
296.94 500.05 0.43 c p3
297.09 499.76 0.43 c p3
297.23 500.61 0.43 c p3
297.38 500.05 0.43 c p3
297.52 500.05 0.43 c p3
297.67 500.48 0.43 c p3
297.81 500.33 0.43 c p3
297.96 500.33 0.43 c p3
298.11 500.61 0.43 c p3
298.25 500.33 0.43 c p3
298.40 500.05 0.43 c p3
298.54 499.76 0.43 c p3
298.69 499.64 0.43 c p3
298.83 500.33 0.43 c p3
298.98 501.05 0.43 c p3
299.12 500.48 0.43 c p3
299.27 500.05 0.43 c p3
299.42 500.61 0.43 c p3
299.56 500.77 0.43 c p3
299.71 501.05 0.43 c p3
299.85 501.17 0.43 c p3
300.00 500.33 0.43 c p3
300.14 500.48 0.43 c p3
300.29 501.05 0.43 c p3
300.43 500.48 0.43 c p3
300.58 500.89 0.43 c p3
300.73 500.89 0.43 c p3
300.87 500.48 0.43 c p3
301.02 500.89 0.43 c p3
301.16 500.61 0.43 c p3
301.31 501.61 0.43 c p3
301.45 500.48 0.43 c p3
301.60 501.33 0.43 c p3
301.74 501.17 0.43 c p3
301.89 501.33 0.43 c p3
302.04 501.33 0.43 c p3
302.18 501.61 0.43 c p3
302.33 501.45 0.43 c p3
302.47 501.05 0.43 c p3
302.62 501.33 0.43 c p3
302.76 502.71 0.43 c p3
302.91 501.45 0.43 c p3
303.06 499.76 0.43 c p3
303.20 501.17 0.43 c p3
303.35 502.42 0.43 c p3
303.49 501.17 0.43 c p3
303.64 501.61 0.43 c p3
303.78 502.58 0.43 c p3
303.93 502.30 0.43 c p3
304.07 502.02 0.43 c p3
304.22 502.30 0.43 c p3
304.37 502.14 0.43 c p3
304.51 501.74 0.43 c p3
304.66 502.58 0.43 c p3
304.80 502.02 0.43 c p3
304.95 501.61 0.43 c p3
305.09 501.61 0.43 c p3
305.24 502.71 0.43 c p3
305.38 502.30 0.43 c p3
305.53 502.02 0.43 c p3
305.68 502.99 0.43 c p3
305.82 501.86 0.43 c p3
305.97 502.02 0.43 c p3
306.11 502.71 0.43 c p3
306.26 502.30 0.43 c p3
306.40 501.86 0.43 c p3
306.55 502.42 0.43 c p3
306.69 502.30 0.43 c p3
306.84 503.14 0.43 c p3
306.99 503.14 0.43 c p3
307.13 502.71 0.43 c p3
307.28 502.42 0.43 c p3
307.42 502.58 0.43 c p3
307.57 502.42 0.43 c p3
307.71 502.86 0.43 c p3
307.86 502.71 0.43 c p3
308.01 502.99 0.43 c p3
308.15 502.99 0.43 c p3
308.30 502.58 0.43 c p3
308.44 502.99 0.43 c p3
308.59 503.27 0.43 c p3
308.73 502.99 0.43 c p3
308.88 503.27 0.43 c p3
309.02 503.27 0.43 c p3
309.17 503.27 0.43 c p3
309.32 503.14 0.43 c p3
309.46 503.43 0.43 c p3
309.61 502.99 0.43 c p3
309.75 503.27 0.43 c p3
309.90 503.83 0.43 c p3
310.04 503.43 0.43 c p3
310.19 503.14 0.43 c p3
310.33 504.11 0.43 c p3
310.48 503.27 0.43 c p3
310.63 502.71 0.43 c p3
310.77 503.55 0.43 c p3
310.92 503.83 0.43 c p3
311.06 503.14 0.43 c p3
311.21 503.71 0.43 c p3
311.35 504.40 0.43 c p3
311.50 503.14 0.43 c p3
311.64 504.11 0.43 c p3
311.79 503.27 0.43 c p3
311.94 503.71 0.43 c p3
312.08 504.27 0.43 c p3
312.23 503.55 0.43 c p3
312.37 503.83 0.43 c p3
312.52 503.71 0.43 c p3
312.66 504.40 0.43 c p3
312.81 503.14 0.43 c p3
312.96 503.99 0.43 c p3
313.10 503.71 0.43 c p3
313.25 503.55 0.43 c p3
313.39 503.83 0.43 c p3
313.54 504.40 0.43 c p3
313.68 504.40 0.43 c p3
313.83 504.11 0.43 c p3
313.97 504.40 0.43 c p3
314.12 504.27 0.43 c p3
314.27 504.27 0.43 c p3
314.41 503.83 0.43 c p3
314.56 503.99 0.43 c p3
314.70 503.99 0.43 c p3
314.85 504.40 0.43 c p3
314.99 503.43 0.43 c p3
315.14 504.55 0.43 c p3
315.28 504.40 0.43 c p3
315.43 503.83 0.43 c p3
315.58 504.27 0.43 c p3
315.72 504.27 0.43 c p3
315.87 504.96 0.43 c p3
316.01 504.83 0.43 c p3
316.16 504.40 0.43 c p3
316.30 504.40 0.43 c p3
316.45 504.11 0.43 c p3
316.59 504.40 0.43 c p3
316.74 504.11 0.43 c p3
316.89 504.68 0.43 c p3
317.03 504.55 0.43 c p3
317.18 505.12 0.43 c p3
317.32 505.24 0.43 c p3
317.47 503.99 0.43 c p3
317.61 504.96 0.43 c p3
317.76 504.83 0.43 c p3
317.91 505.12 0.43 c p3
318.05 504.55 0.43 c p3
318.20 505.52 0.43 c p3
318.34 504.96 0.43 c p3
318.49 505.52 0.43 c p3
318.63 505.52 0.43 c p3
318.78 504.83 0.43 c p3
318.92 504.68 0.43 c p3
319.07 505.24 0.43 c p3
319.22 504.68 0.43 c p3
319.36 505.24 0.43 c p3
319.51 504.40 0.43 c p3
319.65 504.96 0.43 c p3
319.80 504.83 0.43 c p3
319.94 505.40 0.43 c p3
320.09 505.96 0.43 c p3
320.23 505.40 0.43 c p3
320.38 504.68 0.43 c p3
320.53 505.80 0.43 c p3
320.67 504.68 0.43 c p3
320.82 504.83 0.43 c p3
320.96 505.12 0.43 c p3
321.11 505.68 0.43 c p3
321.25 505.12 0.43 c p3
321.40 505.40 0.43 c p3
321.54 505.24 0.43 c p3
321.69 504.83 0.43 c p3
321.84 504.96 0.43 c p3
321.98 505.96 0.43 c p3
322.13 505.24 0.43 c p3
322.27 505.24 0.43 c p3
322.42 505.40 0.43 c p3
322.56 505.68 0.43 c p3
322.71 505.12 0.43 c p3
322.85 505.24 0.43 c p3
323.00 506.24 0.43 c p3
323.15 505.80 0.43 c p3
323.29 505.80 0.43 c p3
323.44 505.68 0.43 c p3
323.58 505.80 0.43 c p3
323.73 505.96 0.43 c p3
323.87 506.09 0.43 c p3
324.02 505.96 0.43 c p3
324.17 505.68 0.43 c p3
324.31 505.96 0.43 c p3
324.46 506.37 0.43 c p3
324.60 505.80 0.43 c p3
324.75 505.68 0.43 c p3
324.89 506.09 0.43 c p3
325.04 506.09 0.43 c p3
325.18 506.09 0.43 c p3
325.33 505.80 0.43 c p3
325.48 505.96 0.43 c p3
325.62 506.09 0.43 c p3
325.77 505.40 0.43 c p3
325.91 506.37 0.43 c p3
326.06 506.37 0.43 c p3
326.20 505.12 0.43 c p3
326.35 506.65 0.43 c p3
326.49 506.24 0.43 c p3
326.64 505.68 0.43 c p3
326.79 506.52 0.43 c p3
326.93 506.37 0.43 c p3
327.08 505.68 0.43 c p3
327.22 505.52 0.43 c p3
327.37 505.68 0.43 c p3
327.51 506.65 0.43 c p3
327.66 506.09 0.43 c p3
327.80 506.52 0.43 c p3
327.95 506.65 0.43 c p3
328.10 506.37 0.43 c p3
328.24 505.52 0.43 c p3
328.39 506.24 0.43 c p3
328.53 506.37 0.43 c p3
328.68 506.09 0.43 c p3
328.82 506.24 0.43 c p3
328.97 506.52 0.43 c p3
329.12 506.24 0.43 c p3
329.26 506.09 0.43 c p3
329.41 506.52 0.43 c p3
329.55 506.65 0.43 c p3
329.70 506.24 0.43 c p3
329.84 506.65 0.43 c p3
329.99 507.09 0.43 c p3
330.13 507.21 0.43 c p3
330.28 506.37 0.43 c p3
330.43 506.24 0.43 c p3
330.57 506.52 0.43 c p3
330.72 506.52 0.43 c p3
330.86 506.93 0.43 c p3
331.01 506.81 0.43 c p3
331.15 506.09 0.43 c p3
331.30 506.65 0.43 c p3
331.44 507.09 0.43 c p3
331.59 506.52 0.43 c p3
331.74 506.37 0.43 c p3
331.88 506.52 0.43 c p3
332.03 506.09 0.43 c p3
332.17 506.37 0.43 c p3
332.32 506.37 0.43 c p3
332.46 506.93 0.43 c p3
332.61 506.81 0.43 c p3
332.75 506.81 0.43 c p3
332.90 506.81 0.43 c p3
333.05 507.21 0.43 c p3
333.19 506.93 0.43 c p3
333.34 506.65 0.43 c p3
333.48 506.93 0.43 c p3
333.63 506.93 0.43 c p3
333.77 507.49 0.43 c p3
333.92 507.49 0.43 c p3
334.07 506.93 0.43 c p3
334.21 506.93 0.43 c p3
334.36 507.09 0.43 c p3
334.50 507.37 0.43 c p3
334.65 506.93 0.43 c p3
334.79 507.09 0.43 c p3
334.94 506.52 0.43 c p3
335.08 507.49 0.43 c p3
335.23 506.93 0.43 c p3
335.38 506.65 0.43 c p3
335.52 507.09 0.43 c p3
335.67 507.65 0.43 c p3
335.81 506.37 0.43 c p3
335.96 507.37 0.43 c p3
336.10 507.49 0.43 c p3
336.25 507.09 0.43 c p3
336.39 507.21 0.43 c p3
336.54 507.09 0.43 c p3
336.69 507.37 0.43 c p3
336.83 507.37 0.43 c p3
336.98 507.49 0.43 c p3
337.12 507.37 0.43 c p3
337.27 507.65 0.43 c p3
337.41 507.37 0.43 c p3
337.56 506.81 0.43 c p3
337.70 507.78 0.43 c p3
337.85 507.37 0.43 c p3
338.00 507.09 0.43 c p3
338.14 507.78 0.43 c p3
338.29 507.49 0.43 c p3
338.43 507.78 0.43 c p3
338.58 507.49 0.43 c p3
338.72 507.49 0.43 c p3
338.87 507.49 0.43 c p3
339.02 507.78 0.43 c p3
339.16 507.37 0.43 c p3
339.31 506.52 0.43 c p3
339.45 507.78 0.43 c p3
339.60 507.49 0.43 c p3
339.74 507.49 0.43 c p3
339.89 507.90 0.43 c p3
340.03 507.37 0.43 c p3
340.18 507.65 0.43 c p3
340.33 507.78 0.43 c p3
340.47 507.49 0.43 c p3
340.62 507.78 0.43 c p3
340.76 506.93 0.43 c p3
340.91 507.78 0.43 c p3
341.05 507.37 0.43 c p3
341.20 507.49 0.43 c p3
341.34 508.06 0.43 c p3
341.49 507.78 0.43 c p3
341.64 507.90 0.43 c p3
341.78 507.65 0.43 c p3
341.93 507.21 0.43 c p3
342.07 507.90 0.43 c p3
342.22 508.46 0.43 c p3
342.36 508.18 0.43 c p3
342.51 507.78 0.43 c p3
342.65 508.06 0.43 c p3
342.80 508.06 0.43 c p3
342.95 508.06 0.43 c p3
343.09 507.90 0.43 c p3
343.24 507.21 0.43 c p3
343.38 507.65 0.43 c p3
343.53 508.46 0.43 c p3
343.67 507.90 0.43 c p3
343.82 508.06 0.43 c p3
343.97 507.90 0.43 c p3
344.11 508.06 0.43 c p3
344.26 507.90 0.43 c p3
344.40 507.90 0.43 c p3
344.55 507.90 0.43 c p3
344.69 508.46 0.43 c p3
344.84 508.06 0.43 c p3
344.98 507.65 0.43 c p3
345.13 507.90 0.43 c p3
345.28 507.78 0.43 c p3
345.42 507.78 0.43 c p3
345.57 507.78 0.43 c p3
345.71 508.34 0.43 c p3
345.86 508.62 0.43 c p3
346.00 507.90 0.43 c p3
346.15 508.75 0.43 c p3
346.29 508.18 0.43 c p3
346.44 508.75 0.43 c p3
346.59 508.62 0.43 c p3
346.73 507.90 0.43 c p3
346.88 508.46 0.43 c p3
347.02 508.06 0.43 c p3
347.17 507.90 0.43 c p3
347.31 508.34 0.43 c p3
347.46 507.78 0.43 c p3
347.60 508.18 0.43 c p3
347.75 508.18 0.43 c p3
347.90 508.46 0.43 c p3
348.04 508.46 0.43 c p3
348.19 508.75 0.43 c p3
348.33 508.62 0.43 c p3
348.48 508.75 0.43 c p3
348.62 508.06 0.43 c p3
348.77 508.46 0.43 c p3
348.92 508.90 0.43 c p3
349.06 508.46 0.43 c p3
349.21 509.03 0.43 c p3
349.35 508.34 0.43 c p3
349.50 508.34 0.43 c p3
349.64 508.34 0.43 c p3
349.79 508.62 0.43 c p3
349.93 508.18 0.43 c p3
350.08 507.90 0.43 c p3
350.23 508.75 0.43 c p3
350.37 508.62 0.43 c p3
350.52 508.34 0.43 c p3
350.66 508.18 0.43 c p3
350.81 508.90 0.43 c p3
350.95 508.18 0.43 c p3
351.10 509.03 0.43 c p3
351.24 508.62 0.43 c p3
351.39 508.62 0.43 c p3
351.54 509.31 0.43 c p3
351.68 509.18 0.43 c p3
351.83 508.06 0.43 c p3
351.97 509.03 0.43 c p3
352.12 508.75 0.43 c p3
352.26 508.90 0.43 c p3
352.41 508.75 0.43 c p3
352.55 509.03 0.43 c p3
352.70 508.62 0.43 c p3
352.85 508.90 0.43 c p3
352.99 508.46 0.43 c p3
353.14 508.90 0.43 c p3
353.28 509.87 0.43 c p3
353.43 509.18 0.43 c p3
353.57 509.31 0.43 c p3
353.72 509.31 0.43 c p3
353.86 508.75 0.43 c p3
354.01 508.46 0.43 c p3
354.16 508.18 0.43 c p3
354.30 509.18 0.43 c p3
354.45 509.03 0.43 c p3
354.59 509.59 0.43 c p3
354.74 508.34 0.43 c p3
354.88 508.90 0.43 c p3
355.03 508.62 0.43 c p3
355.18 508.75 0.43 c p3
355.32 508.75 0.43 c p3
355.47 509.18 0.43 c p3
355.61 509.18 0.43 c p3
355.76 509.31 0.43 c p3
355.90 508.62 0.43 c p3
356.05 509.47 0.43 c p3
356.19 509.03 0.43 c p3
356.34 509.31 0.43 c p3
356.49 509.03 0.43 c p3
356.63 508.46 0.43 c p3
356.78 508.18 0.43 c p3
356.92 509.31 0.43 c p3
357.07 508.75 0.43 c p3
357.21 508.75 0.43 c p3
357.36 509.18 0.43 c p3
357.50 509.03 0.43 c p3
357.65 509.03 0.43 c p3
357.80 509.59 0.43 c p3
357.94 509.47 0.43 c p3
358.09 509.18 0.43 c p3
358.23 509.18 0.43 c p3
358.38 509.18 0.43 c p3
358.52 509.18 0.43 c p3
358.67 509.31 0.43 c p3
358.81 508.90 0.43 c p3
358.96 509.18 0.43 c p3
359.11 509.03 0.43 c p3
359.25 509.47 0.43 c p3
359.40 509.31 0.43 c p3
359.54 509.31 0.43 c p3
359.69 509.18 0.43 c p3
359.83 509.47 0.43 c p3
359.98 509.47 0.43 c p3
360.13 509.59 0.43 c p3
360.27 509.59 0.43 c p3
360.42 509.47 0.43 c p3
360.56 508.90 0.43 c p3
360.71 509.87 0.43 c p3
360.85 509.75 0.43 c p3
361.00 509.18 0.43 c p3
361.14 509.18 0.43 c p3
361.29 509.31 0.43 c p3
361.44 509.59 0.43 c p3
361.58 509.31 0.43 c p3
361.73 509.47 0.43 c p3
361.87 510.15 0.43 c p3
362.02 509.75 0.43 c p3
362.16 510.03 0.43 c p3
362.31 510.03 0.43 c p3
362.45 509.75 0.43 c p3
362.60 509.03 0.43 c p3
362.75 509.31 0.43 c p3
362.89 510.03 0.43 c p3
363.04 509.59 0.43 c p3
363.18 509.47 0.43 c p3
363.33 509.18 0.43 c p3
363.47 509.47 0.43 c p3
363.62 510.44 0.43 c p3
363.76 510.03 0.43 c p3
363.91 509.87 0.43 c p3
364.06 509.75 0.43 c p3
364.20 510.15 0.43 c p3
364.35 509.87 0.43 c p3
364.49 509.59 0.43 c p3
364.64 509.87 0.43 c p3
364.78 510.03 0.43 c p3
364.93 509.47 0.43 c p3
365.08 510.31 0.43 c p3
365.22 509.75 0.43 c p3
365.37 509.31 0.43 c p3
365.51 509.59 0.43 c p3
365.66 509.87 0.43 c p3
365.80 509.59 0.43 c p3
365.95 510.03 0.43 c p3
366.09 510.03 0.43 c p3
366.24 510.72 0.43 c p3
366.39 509.47 0.43 c p3
366.53 510.03 0.43 c p3
366.68 509.31 0.43 c p3
366.82 510.03 0.43 c p3
366.97 510.44 0.43 c p3
367.11 510.31 0.43 c p3
367.26 509.18 0.43 c p3
367.40 510.15 0.43 c p3
367.55 509.31 0.43 c p3
367.70 509.87 0.43 c p3
367.84 509.87 0.43 c p3
367.99 509.47 0.43 c p3
368.13 510.59 0.43 c p3
368.28 510.15 0.43 c p3
368.42 509.87 0.43 c p3
368.57 510.31 0.43 c p3
368.71 509.87 0.43 c p3
368.86 509.75 0.43 c p3
369.01 509.87 0.43 c p3
369.15 510.72 0.43 c p3
369.30 510.15 0.43 c p3
369.44 509.75 0.43 c p3
369.59 509.87 0.43 c p3
369.73 510.31 0.43 c p3
369.88 510.15 0.43 c p3
370.03 509.75 0.43 c p3
370.17 510.72 0.43 c p3
370.32 510.31 0.43 c p3
370.46 509.75 0.43 c p3
370.61 510.44 0.43 c p3
370.75 510.03 0.43 c p3
370.90 509.87 0.43 c p3
371.04 511.16 0.43 c p3
371.19 510.72 0.43 c p3
371.34 509.59 0.43 c p3
371.48 510.03 0.43 c p3
371.63 510.44 0.43 c p3
371.77 510.15 0.43 c p3
371.92 510.15 0.43 c p3
372.06 510.59 0.43 c p3
372.21 511.00 0.43 c p3
372.35 510.44 0.43 c p3
372.50 510.03 0.43 c p3
372.65 511.00 0.43 c p3
372.79 510.31 0.43 c p3
372.94 510.59 0.43 c p3
373.08 510.59 0.43 c p3
373.23 510.59 0.43 c p3
373.37 510.59 0.43 c p3
373.52 510.72 0.43 c p3
373.66 509.75 0.43 c p3
373.81 510.72 0.43 c p3
373.96 510.31 0.43 c p3
374.10 510.59 0.43 c p3
374.25 510.15 0.43 c p3
374.39 510.72 0.43 c p3
374.54 510.87 0.43 c p3
374.68 511.00 0.43 c p3
374.83 510.87 0.43 c p3
374.98 510.59 0.43 c p3
375.12 511.16 0.43 c p3
375.27 511.00 0.43 c p3
375.41 511.16 0.43 c p3
375.56 511.16 0.43 c p3
375.70 510.87 0.43 c p3
375.85 511.72 0.43 c p3
375.99 511.16 0.43 c p3
376.14 511.00 0.43 c p3
376.29 511.16 0.43 c p3
376.43 511.00 0.43 c p3
376.58 511.28 0.43 c p3
376.72 511.28 0.43 c p3
376.87 510.87 0.43 c p3
377.01 510.72 0.43 c p3
377.16 511.28 0.43 c p3
377.30 511.44 0.43 c p3
377.45 510.44 0.43 c p3
377.60 510.72 0.43 c p3
377.74 511.44 0.43 c p3
377.89 511.16 0.43 c p3
378.03 510.87 0.43 c p3
378.18 511.44 0.43 c p3
378.32 510.87 0.43 c p3
378.47 511.28 0.43 c p3
378.61 511.44 0.43 c p3
378.76 510.87 0.43 c p3
378.91 511.84 0.43 c p3
379.05 511.84 0.43 c p3
379.20 511.44 0.43 c p3
379.34 511.84 0.43 c p3
379.49 511.28 0.43 c p3
379.63 511.72 0.43 c p3
379.78 511.00 0.43 c p3
379.93 511.16 0.43 c p3
380.07 511.72 0.43 c p3
380.22 511.28 0.43 c p3
380.36 511.44 0.43 c p3
380.51 511.28 0.43 c p3
380.65 511.00 0.43 c p3
380.80 511.84 0.43 c p3
380.94 511.44 0.43 c p3
381.09 511.56 0.43 c p3
381.24 511.84 0.43 c p3
381.38 511.72 0.43 c p3
381.53 512.00 0.43 c p3
381.67 511.84 0.43 c p3
381.82 511.44 0.43 c p3
381.96 511.56 0.43 c p3
382.11 511.72 0.43 c p3
382.25 511.00 0.43 c p3
382.40 511.56 0.43 c p3
0.00 0.00 432.00 576.00 cl
0 0 0 srgb
0.75 setlinewidth
[] 0 setdash
1 setlinecap
1 setlinejoin
10.00 setmiterlimit
np
236.96 345.60 m
145.59 0 l
o
np
236.96 345.60 m
0 -5.76 l
o
np
266.08 345.60 m
0 -5.76 l
o
np
295.19 345.60 m
0 -5.76 l
o
np
324.31 345.60 m
0 -5.76 l
o
np
353.43 345.60 m
0 -5.76 l
o
np
382.55 345.60 m
0 -5.76 l
o
/Font1 findfont 10 s
236.96 329.47 (0) .5 0 t
266.08 329.47 (2000) .5 0 t
324.31 329.47 (6000) .5 0 t
382.55 329.47 (10000) .5 0 t
np
216.00 352.00 m
0 153.81 l
o
np
216.00 352.00 m
-5.76 0 l
o
np
216.00 377.63 m
-5.76 0 l
o
np
216.00 403.27 m
-5.76 0 l
o
np
216.00 428.90 m
-5.76 0 l
o
np
216.00 454.54 m
-5.76 0 l
o
np
216.00 480.17 m
-5.76 0 l
o
np
216.00 505.81 m
-5.76 0 l
o
209.09 348.41 (0.0) 1 0 t
209.09 374.04 (0.2) 1 0 t
209.09 399.68 (0.4) 1 0 t
209.09 425.31 (0.6) 1 0 t
209.09 450.95 (0.8) 1 0 t
209.09 476.58 (1.0) 1 0 t
209.09 502.22 (1.2) 1 0 t
np
216.00 345.60 m
172.80 0 l
0 172.80 l
-172.80 0 l
0 -172.80 l
o
0.00 0.00 432.00 576.00 cl
/Font1 findfont 10 s
0 0 0 srgb
302.40 313.34 (Zeit / ms \(total\)) .5 0 t
190.66 432.00 (U / V) .5 90 t
216.00 345.60 388.80 518.40 cl
0 0 0 srgb
0.38 setlinewidth
[ 1.12 1.88] 0 setdash
1 setlinecap
1 setlinejoin
10.00 setmiterlimit
np
222.55 345.60 m
0 172.80 l
o
np
234.34 345.60 m
0 172.80 l
o
np
239.87 345.60 m
0 172.80 l
o
np
373.96 345.60 m
0 172.80 l
o
86.40 57.60 388.80 288.00 cl
1 0 0 srgb
1.50 setlinewidth
[] 0 setdash
1 setlinecap
1 setlinejoin
10.00 setmiterlimit
np
97.60 279.47 m
1.41 -7.45 l
1.40 -7.19 l
1.41 -6.93 l
1.41 -6.70 l
1.41 -6.46 l
1.40 -6.23 l
1.41 -6.02 l
1.41 -5.81 l
1.40 -5.60 l
1.41 -5.41 l
1.41 -5.23 l
1.40 -5.03 l
1.41 -4.87 l
1.41 -4.69 l
1.41 -4.53 l
1.40 -4.37 l
1.41 -4.22 l
1.41 -4.08 l
1.40 -3.93 l
1.41 -3.79 l
1.41 -3.66 l
1.40 -3.54 l
1.41 -3.41 l
1.41 -3.29 l
1.41 -3.17 l
1.40 -3.07 l
1.41 -2.96 l
1.41 -2.85 l
1.40 -2.76 l
1.41 -2.66 l
1.41 -2.57 l
1.41 -2.47 l
1.40 -2.40 l
1.41 -2.30 l
1.41 -2.23 l
1.40 -2.15 l
1.41 -2.08 l
1.41 -2.00 l
1.40 -1.93 l
1.41 -1.86 l
1.41 -1.81 l
1.41 -1.73 l
1.40 -1.68 l
1.41 -1.62 l
1.41 -1.56 l
1.40 -1.51 l
1.41 -1.45 l
1.41 -1.41 l
1.40 -1.35 l
1.41 -1.31 l
1.41 -1.26 l
1.41 -1.22 l
1.40 -1.17 l
1.41 -1.14 l
1.41 -1.09 l
1.40 -1.06 l
1.41 -1.02 l
1.41 -0.99 l
1.41 -0.95 l
1.40 -0.91 l
1.41 -0.89 l
1.41 -0.85 l
1.40 -0.83 l
1.41 -0.79 l
1.41 -0.77 l
1.40 -0.74 l
1.41 -0.72 l
1.41 -0.69 l
1.41 -0.66 l
1.40 -0.65 l
1.41 -0.62 l
1.41 -0.59 l
1.40 -0.58 l
1.41 -0.56 l
1.41 -0.54 l
1.40 -0.52 l
1.41 -0.50 l
1.41 -0.48 l
1.41 -0.47 l
1.40 -0.45 l
1.41 -0.44 l
1.41 -0.42 l
1.40 -0.40 l
1.41 -0.39 l
1.41 -0.38 l
1.41 -0.37 l
1.40 -0.35 l
1.41 -0.34 l
1.41 -0.32 l
1.40 -0.32 l
1.41 -0.31 l
1.41 -0.29 l
1.40 -0.28 l
1.41 -0.28 l
1.41 -0.26 l
1.41 -0.26 l
1.40 -0.25 l
1.41 -0.23 l
1.41 -0.23 l
238.30 72.09 lineto
1.41 -0.22 l
1.41 -0.21 l
1.40 -0.19 l
1.41 -0.20 l
1.41 -0.18 l
1.41 -0.18 l
1.40 -0.17 l
1.41 -0.17 l
1.41 -0.16 l
1.40 -0.16 l
1.41 -0.15 l
1.41 -0.14 l
1.40 -0.14 l
1.41 -0.14 l
1.41 -0.13 l
1.41 -0.12 l
1.40 -0.12 l
1.41 -0.12 l
1.41 -0.11 l
1.40 -0.11 l
1.41 -0.11 l
1.41 -0.10 l
1.41 -0.10 l
1.40 -0.09 l
1.41 -0.09 l
1.41 -0.09 l
1.40 -0.09 l
1.41 -0.08 l
1.41 -0.08 l
1.40 -0.07 l
1.41 -0.08 l
1.41 -0.07 l
1.41 -0.07 l
1.40 -0.06 l
1.41 -0.07 l
1.41 -0.06 l
1.40 -0.06 l
1.41 -0.06 l
1.41 -0.05 l
1.40 -0.06 l
1.41 -0.05 l
1.41 -0.05 l
1.41 -0.05 l
1.40 -0.04 l
1.41 -0.05 l
1.41 -0.04 l
1.40 -0.04 l
1.41 -0.04 l
1.41 -0.04 l
1.41 -0.04 l
1.40 -0.04 l
1.41 -0.03 l
1.41 -0.03 l
1.40 -0.04 l
1.41 -0.03 l
1.41 -0.03 l
1.40 -0.03 l
1.41 -0.03 l
1.41 -0.02 l
1.41 -0.03 l
1.40 -0.03 l
1.41 -0.02 l
1.41 -0.02 l
1.40 -0.03 l
1.41 -0.02 l
1.41 -0.02 l
1.40 -0.02 l
1.41 -0.02 l
1.41 -0.02 l
1.41 -0.02 l
1.40 -0.02 l
1.41 -0.01 l
1.41 -0.02 l
1.40 -0.02 l
1.41 -0.01 l
1.41 -0.02 l
1.41 -0.01 l
1.40 -0.01 l
1.41 -0.02 l
1.41 -0.01 l
1.40 -0.01 l
1.41 -0.02 l
1.41 -0.01 l
1.40 -0.01 l
1.41 -0.01 l
1.41 -0.01 l
1.41 -0.01 l
1.40 -0.01 l
1.41 -0.01 l
1.41 -0.01 l
1.40 -0.01 l
1.41 -0.01 l
1.41 0 l
1.40 -0.01 l
1.41 -0.01 l
1.41 -0.01 l
1.41 0 l
1.40 -0.01 l
1.41 -0.01 l
o
0.00 0.00 432.00 576.00 cl
0 0 0 srgb
0.75 setlinewidth
[] 0 setdash
1 setlinecap
1 setlinejoin
10.00 setmiterlimit
np
97.60 57.60 m
280.00 0 l
o
np
97.60 57.60 m
0 -5.76 l
o
np
153.60 57.60 m
0 -5.76 l
o
np
209.60 57.60 m
0 -5.76 l
o
np
265.60 57.60 m
0 -5.76 l
o
np
321.60 57.60 m
0 -5.76 l
o
np
377.60 57.60 m
0 -5.76 l
o
/Font1 findfont 10 s
97.60 41.47 (0) .5 0 t
153.60 41.47 (2000) .5 0 t
209.60 41.47 (4000) .5 0 t
265.60 41.47 (6000) .5 0 t
321.60 41.47 (8000) .5 0 t
377.60 41.47 (10000) .5 0 t
np
86.40 69.00 m
0 215.41 l
o
np
86.40 69.00 m
-5.76 0 l
o
np
86.40 122.85 m
-5.76 0 l
o
np
86.40 176.70 m
-5.76 0 l
o
np
86.40 230.56 m
-5.76 0 l
o
np
86.40 284.41 m
-5.76 0 l
o
79.49 65.41 (0.0) 1 0 t
79.49 119.26 (0.1) 1 0 t
79.49 173.11 (0.2) 1 0 t
79.49 226.97 (0.3) 1 0 t
79.49 280.82 (0.4) 1 0 t
np
86.40 57.60 m
302.40 0 l
0 230.40 l
-302.40 0 l
0 -230.40 l
o
0.00 0.00 432.00 576.00 cl
/Font1 findfont 10 s
0 0 0 srgb
237.60 13.82 (Zeit / ms \(nach Puls\)) .5 0 t
49.54 172.80 (Absorbanz A) .5 90 t
86.40 57.60 388.80 288.00 cl
/bg { 1 1 1 srgb } def
0 0 0 srgb
0.75 setlinewidth
[] 0 setdash
1 setlinecap
1 setlinejoin
10.00 setmiterlimit
103.48 257.93 0.65 c p3
103.76 257.93 0.65 c p3
104.04 256.02 0.65 c p3
104.32 254.13 0.65 c p3
104.60 251.84 0.65 c p3
104.88 246.82 0.65 c p3
105.16 248.14 0.65 c p3
105.44 247.23 0.65 c p3
105.72 245.41 0.65 c p3
106.00 242.30 0.65 c p3
106.28 240.52 0.65 c p3
106.56 240.91 0.65 c p3
106.84 239.14 0.65 c p3
107.12 236.99 0.65 c p3
107.40 236.12 0.65 c p3
107.68 231.33 0.65 c p3
107.96 230.95 0.65 c p3
108.24 232.66 0.65 c p3
108.52 231.80 0.65 c p3
108.80 227.19 0.65 c p3
109.08 226.35 0.65 c p3
109.36 225.89 0.65 c p3
109.64 226.72 0.65 c p3
109.92 224.69 0.65 c p3
110.20 223.40 0.65 c p3
110.48 218.50 0.65 c p3
110.76 220.57 0.65 c p3
111.04 219.76 0.65 c p3
111.32 216.89 0.65 c p3
111.60 215.29 0.65 c p3
111.88 214.14 0.65 c p3
112.16 215.29 0.65 c p3
112.44 213.34 0.65 c p3
112.72 211.42 0.65 c p3
113.00 209.86 0.65 c p3
113.28 210.20 0.65 c p3
113.56 207.53 0.65 c p3
113.84 207.10 0.65 c p3
114.12 203.71 0.65 c p3
114.40 204.04 0.65 c p3
114.68 204.47 0.65 c p3
114.96 201.44 0.65 c p3
115.24 200.69 0.65 c p3
115.52 200.27 0.65 c p3
115.80 201.44 0.65 c p3
116.08 200.27 0.65 c p3
116.36 198.78 0.65 c p3
116.64 194.04 0.65 c p3
116.92 195.83 0.65 c p3
117.20 193.32 0.65 c p3
117.48 194.04 0.65 c p3
117.76 192.27 0.65 c p3
118.04 191.55 0.65 c p3
118.32 193.72 0.65 c p3
118.60 191.87 0.65 c p3
118.88 188.29 0.65 c p3
119.16 187.27 0.65 c p3
119.44 186.87 0.65 c p3
119.72 188.29 0.65 c p3
120.00 185.86 0.65 c p3
120.28 185.15 0.65 c p3
120.56 181.29 0.65 c p3
120.84 183.76 0.65 c p3
121.12 181.98 0.65 c p3
121.40 181.68 0.65 c p3
121.68 178.93 0.65 c p3
121.96 177.27 0.65 c p3
122.24 177.94 0.65 c p3
122.52 178.63 0.65 c p3
122.80 176.59 0.65 c p3
123.08 174.87 0.65 c p3
123.36 174.57 0.65 c p3
123.64 176.59 0.65 c p3
123.92 174.57 0.65 c p3
124.20 172.20 0.65 c p3
124.48 170.59 0.65 c p3
124.76 171.25 0.65 c p3
125.04 171.25 0.65 c p3
125.32 170.88 0.65 c p3
125.60 169.27 0.65 c p3
125.88 168.91 0.65 c p3
126.16 168.62 0.65 c p3
126.44 166.31 0.65 c p3
126.72 165.09 0.65 c p3
127.00 165.09 0.65 c p3
127.28 165.09 0.65 c p3
127.56 164.45 0.65 c p3
127.84 161.54 0.65 c p3
128.12 161.89 0.65 c p3
128.40 161.89 0.65 c p3
128.68 161.54 0.65 c p3
128.96 161.54 0.65 c p3
129.24 159.65 0.65 c p3
129.52 158.12 0.65 c p3
129.80 159.37 0.65 c p3
130.08 157.15 0.65 c p3
130.36 156.25 0.65 c p3
130.64 156.53 0.65 c p3
130.92 156.25 0.65 c p3
131.20 153.79 0.65 c p3
131.48 155.29 0.65 c p3
131.76 153.17 0.65 c p3
132.04 153.79 0.65 c p3
132.32 152.29 0.65 c p3
132.60 152.29 0.65 c p3
132.88 152.29 0.65 c p3
133.16 150.47 0.65 c p3
133.44 150.14 0.65 c p3
133.72 148.67 0.65 c p3
134.00 149.87 0.65 c p3
134.28 148.93 0.65 c p3
134.56 147.47 0.65 c p3
134.84 148.67 0.65 c p3
135.12 147.14 0.65 c p3
135.40 145.36 0.65 c p3
135.68 145.36 0.65 c p3
135.96 145.95 0.65 c p3
136.24 144.51 0.65 c p3
136.52 144.77 0.65 c p3
136.80 143.01 0.65 c p3
137.08 142.42 0.65 c p3
137.36 141.26 0.65 c p3
137.64 142.16 0.65 c p3
137.92 141.58 0.65 c p3
138.20 141.58 0.65 c p3
138.48 141.00 0.65 c p3
138.76 139.84 0.65 c p3
139.04 138.69 0.65 c p3
139.32 137.54 0.65 c p3
139.60 138.11 0.65 c p3
139.88 138.69 0.65 c p3
140.16 135.83 0.65 c p3
140.44 136.40 0.65 c p3
140.72 135.01 0.65 c p3
141.00 136.97 0.65 c p3
141.28 134.14 0.65 c p3
141.56 135.01 0.65 c p3
141.84 134.70 0.65 c p3
142.12 133.32 0.65 c p3
142.40 133.32 0.65 c p3
142.68 131.89 0.65 c p3
142.96 132.20 0.65 c p3
143.24 132.20 0.65 c p3
143.52 131.33 0.65 c p3
143.80 129.42 0.65 c p3
144.08 130.78 0.65 c p3
144.36 130.78 0.65 c p3
144.64 128.87 0.65 c p3
144.92 129.42 0.65 c p3
145.20 128.32 0.65 c p3
145.48 127.77 0.65 c p3
145.76 127.77 0.65 c p3
146.04 127.77 0.65 c p3
146.32 126.98 0.65 c p3
146.60 126.68 0.65 c p3
146.88 126.44 0.65 c p3
147.16 125.05 0.65 c p3
147.44 125.89 0.65 c p3
147.72 125.89 0.65 c p3
148.00 125.05 0.65 c p3
148.28 123.19 0.65 c p3
148.56 124.81 0.65 c p3
148.84 121.82 0.65 c p3
149.12 123.73 0.65 c p3
149.40 122.11 0.65 c p3
149.68 120.75 0.65 c p3
149.96 122.11 0.65 c p3
150.24 122.65 0.65 c p3
150.52 122.11 0.65 c p3
150.80 119.98 0.65 c p3
151.08 121.05 0.65 c p3
151.36 120.22 0.65 c p3
151.64 119.45 0.65 c p3
151.92 120.75 0.65 c p3
152.20 118.92 0.65 c p3
152.48 119.45 0.65 c p3
152.76 116.82 0.65 c p3
153.04 117.58 0.65 c p3
153.32 118.10 0.65 c p3
153.60 116.07 0.65 c p3
153.88 116.59 0.65 c p3
154.16 115.78 0.65 c p3
154.44 115.54 0.65 c p3
154.72 117.05 0.65 c p3
155.00 116.30 0.65 c p3
155.28 115.02 0.65 c p3
155.56 114.22 0.65 c p3
155.84 114.22 0.65 c p3
156.12 115.02 0.65 c p3
156.40 113.47 0.65 c p3
156.68 113.99 0.65 c p3
156.96 112.16 0.65 c p3
157.24 113.19 0.65 c p3
157.52 112.16 0.65 c p3
157.80 112.67 0.65 c p3
158.08 112.96 0.65 c p3
158.36 110.62 0.65 c p3
158.64 111.42 0.65 c p3
158.92 110.91 0.65 c p3
159.20 111.42 0.65 c p3
159.48 111.13 0.65 c p3
159.76 109.38 0.65 c p3
160.04 111.13 0.65 c p3
160.32 108.59 0.65 c p3
160.60 110.40 0.65 c p3
160.88 109.89 0.65 c p3
161.16 108.09 0.65 c p3
161.44 108.59 0.65 c p3
161.72 109.89 0.65 c p3
162.00 107.86 0.65 c p3
162.28 108.37 0.65 c p3
162.56 108.09 0.65 c p3
162.84 106.86 0.65 c p3
163.12 106.08 0.65 c p3
163.40 107.08 0.65 c p3
163.68 105.86 0.65 c p3
163.96 105.86 0.65 c p3
164.24 104.86 0.65 c p3
164.52 105.36 0.65 c p3
164.80 104.86 0.65 c p3
165.08 106.08 0.65 c p3
165.36 104.14 0.65 c p3
165.64 105.36 0.65 c p3
165.92 103.37 0.65 c p3
166.20 103.87 0.65 c p3
166.48 103.65 0.65 c p3
166.76 103.15 0.65 c p3
167.04 103.15 0.65 c p3
167.32 103.37 0.65 c p3
167.60 102.39 0.65 c p3
167.88 101.90 0.65 c p3
168.16 102.17 0.65 c p3
168.44 101.68 0.65 c p3
168.72 102.39 0.65 c p3
169.00 103.15 0.65 c p3
169.28 100.70 0.65 c p3
169.56 101.41 0.65 c p3
169.84 101.19 0.65 c p3
170.12 102.17 0.65 c p3
170.40 100.70 0.65 c p3
170.68 100.70 0.65 c p3
170.96 98.97 0.65 c p3
171.24 99.45 0.65 c p3
171.52 100.21 0.65 c p3
171.80 98.48 0.65 c p3
172.08 99.24 0.65 c p3
172.36 99.45 0.65 c p3
172.64 98.27 0.65 c p3
172.92 98.48 0.65 c p3
173.20 98.75 0.65 c p3
173.48 98.00 0.65 c p3
173.76 98.27 0.65 c p3
174.04 97.52 0.65 c p3
174.32 96.34 0.65 c p3
174.60 97.30 0.65 c p3
174.88 96.08 0.65 c p3
175.16 98.00 0.65 c p3
175.44 97.04 0.65 c p3
175.72 96.34 0.65 c p3
176.00 95.86 0.65 c p3
176.28 96.56 0.65 c p3
176.56 94.91 0.65 c p3
176.84 95.86 0.65 c p3
177.12 96.08 0.65 c p3
177.40 94.70 0.65 c p3
177.68 94.43 0.65 c p3
177.96 95.17 0.65 c p3
178.24 94.22 0.65 c p3
178.52 95.17 0.65 c p3
178.80 94.91 0.65 c p3
179.08 93.75 0.65 c p3
179.36 94.43 0.65 c p3
179.64 93.75 0.65 c p3
179.92 93.27 0.65 c p3
180.20 94.43 0.65 c p3
180.48 93.01 0.65 c p3
180.76 93.01 0.65 c p3
181.04 93.75 0.65 c p3
181.32 93.27 0.65 c p3
181.60 93.01 0.65 c p3
181.88 93.48 0.65 c p3
182.16 92.07 0.65 c p3
182.44 91.39 0.65 c p3
182.72 93.27 0.65 c p3
183.00 91.86 0.65 c p3
183.28 90.92 0.65 c p3
183.56 91.60 0.65 c p3
183.84 91.86 0.65 c p3
184.12 91.86 0.65 c p3
184.40 91.60 0.65 c p3
184.68 90.66 0.65 c p3
184.96 89.52 0.65 c p3
185.24 90.19 0.65 c p3
185.52 89.73 0.65 c p3
185.80 90.92 0.65 c p3
186.08 90.45 0.65 c p3
186.36 89.52 0.65 c p3
186.64 89.98 0.65 c p3
186.92 88.80 0.65 c p3
187.20 87.87 0.65 c p3
187.48 89.26 0.65 c p3
187.76 88.59 0.65 c p3
188.04 88.33 0.65 c p3
188.32 89.52 0.65 c p3
188.60 89.73 0.65 c p3
188.88 87.20 0.65 c p3
189.16 87.66 0.65 c p3
189.44 88.59 0.65 c p3
189.72 88.13 0.65 c p3
190.00 87.66 0.65 c p3
190.28 87.66 0.65 c p3
190.56 88.33 0.65 c p3
190.84 86.74 0.65 c p3
191.12 88.33 0.65 c p3
191.40 88.13 0.65 c p3
191.68 88.33 0.65 c p3
191.96 87.41 0.65 c p3
192.24 89.73 0.65 c p3
192.52 87.20 0.65 c p3
192.80 86.28 0.65 c p3
193.08 86.74 0.65 c p3
193.36 87.41 0.65 c p3
193.64 86.95 0.65 c p3
193.92 85.82 0.65 c p3
194.20 86.03 0.65 c p3
194.48 85.82 0.65 c p3
194.76 85.82 0.65 c p3
195.04 86.74 0.65 c p3
195.32 84.00 0.65 c p3
195.60 84.70 0.65 c p3
195.88 84.70 0.65 c p3
196.16 85.62 0.65 c p3
196.44 85.36 0.65 c p3
196.72 84.45 0.65 c p3
197.00 84.00 0.65 c p3
197.28 85.62 0.65 c p3
197.56 84.91 0.65 c p3
197.84 84.45 0.65 c p3
198.12 85.16 0.65 c p3
198.40 84.45 0.65 c p3
198.68 84.70 0.65 c p3
198.96 83.09 0.65 c p3
199.24 84.70 0.65 c p3
199.52 85.16 0.65 c p3
199.80 83.54 0.65 c p3
200.08 83.34 0.65 c p3
200.36 84.00 0.65 c p3
200.64 83.54 0.65 c p3
200.92 84.00 0.65 c p3
201.20 83.34 0.65 c p3
201.48 83.34 0.65 c p3
201.76 83.34 0.65 c p3
202.04 83.34 0.65 c p3
202.32 82.43 0.65 c p3
202.60 82.89 0.65 c p3
202.88 81.73 0.65 c p3
203.16 82.64 0.65 c p3
203.44 81.98 0.65 c p3
203.72 81.98 0.65 c p3
204.00 82.64 0.65 c p3
204.28 82.43 0.65 c p3
204.56 81.53 0.65 c p3
204.84 83.54 0.65 c p3
205.12 81.53 0.65 c p3
205.40 81.53 0.65 c p3
205.68 81.73 0.65 c p3
205.96 81.73 0.65 c p3
206.24 82.18 0.65 c p3
206.52 82.89 0.65 c p3
206.80 81.08 0.65 c p3
207.08 82.43 0.65 c p3
207.36 81.73 0.65 c p3
207.64 80.83 0.65 c p3
207.92 81.28 0.65 c p3
208.20 81.08 0.65 c p3
208.48 80.63 0.65 c p3
208.76 81.08 0.65 c p3
209.04 81.73 0.65 c p3
209.32 80.39 0.65 c p3
209.60 80.19 0.65 c p3
209.88 80.19 0.65 c p3
210.16 80.39 0.65 c p3
210.44 80.39 0.65 c p3
210.72 80.63 0.65 c p3
211.00 79.74 0.65 c p3
211.28 79.05 0.65 c p3
211.56 78.40 0.65 c p3
211.84 78.60 0.65 c p3
212.12 79.49 0.65 c p3
212.40 79.05 0.65 c p3
212.68 79.49 0.65 c p3
212.96 79.05 0.65 c p3
213.24 78.85 0.65 c p3
213.52 79.29 0.65 c p3
213.80 77.96 0.65 c p3
214.08 78.85 0.65 c p3
214.36 78.85 0.65 c p3
214.64 78.16 0.65 c p3
214.92 78.40 0.65 c p3
215.20 78.40 0.65 c p3
215.48 77.96 0.65 c p3
215.76 78.40 0.65 c p3
216.04 78.85 0.65 c p3
216.32 79.29 0.65 c p3
216.60 79.49 0.65 c p3
216.88 78.40 0.65 c p3
217.16 77.27 0.65 c p3
217.44 78.16 0.65 c p3
217.72 78.85 0.65 c p3
218.00 77.96 0.65 c p3
218.28 77.71 0.65 c p3
218.56 77.27 0.65 c p3
218.84 77.07 0.65 c p3
219.12 78.40 0.65 c p3
219.40 78.16 0.65 c p3
219.68 77.27 0.65 c p3
219.96 78.16 0.65 c p3
220.24 77.52 0.65 c p3
220.52 77.52 0.65 c p3
220.80 78.16 0.65 c p3
221.08 77.52 0.65 c p3
221.36 77.96 0.65 c p3
221.64 76.39 0.65 c p3
221.92 78.16 0.65 c p3
222.20 76.83 0.65 c p3
222.48 77.07 0.65 c p3
222.76 76.83 0.65 c p3
223.04 76.83 0.65 c p3
223.32 76.39 0.65 c p3
223.60 76.63 0.65 c p3
223.88 77.27 0.65 c p3
224.16 76.83 0.65 c p3
224.44 74.68 0.65 c p3
224.72 76.63 0.65 c p3
225.00 79.29 0.65 c p3
225.28 77.07 0.65 c p3
225.56 75.12 0.65 c p3
225.84 77.07 0.65 c p3
226.12 76.39 0.65 c p3
226.40 74.88 0.65 c p3
226.68 75.31 0.65 c p3
226.96 75.75 0.65 c p3
227.24 75.31 0.65 c p3
227.52 75.56 0.65 c p3
227.80 76.19 0.65 c p3
228.08 74.88 0.65 c p3
228.36 75.75 0.65 c p3
228.64 76.39 0.65 c p3
228.92 76.39 0.65 c p3
229.20 74.68 0.65 c p3
229.48 75.31 0.65 c p3
229.76 75.75 0.65 c p3
230.04 74.25 0.65 c p3
230.32 76.00 0.65 c p3
230.60 75.75 0.65 c p3
230.88 74.68 0.65 c p3
231.16 75.31 0.65 c p3
231.44 76.00 0.65 c p3
231.72 75.12 0.65 c p3
232.00 75.31 0.65 c p3
232.28 74.00 0.65 c p3
232.56 74.00 0.65 c p3
232.84 74.68 0.65 c p3
233.12 75.12 0.65 c p3
233.40 74.88 0.65 c p3
233.68 75.12 0.65 c p3
233.96 74.44 0.65 c p3
234.24 74.68 0.65 c p3
234.52 74.25 0.65 c p3
234.80 74.25 0.65 c p3
235.08 74.88 0.65 c p3
235.36 74.25 0.65 c p3
235.64 73.81 0.65 c p3
235.92 74.25 0.65 c p3
236.20 73.81 0.65 c p3
236.48 73.81 0.65 c p3
236.76 73.81 0.65 c p3
237.04 74.00 0.65 c p3
237.32 73.57 0.65 c p3
237.60 74.25 0.65 c p3
237.88 73.81 0.65 c p3
238.16 72.94 0.65 c p3
238.44 73.57 0.65 c p3
238.72 74.00 0.65 c p3
239.00 72.51 0.65 c p3
239.28 73.81 0.65 c p3
239.56 74.68 0.65 c p3
239.84 73.38 0.65 c p3
240.12 72.94 0.65 c p3
240.40 74.00 0.65 c p3
240.68 73.13 0.65 c p3
240.96 72.07 0.65 c p3
241.24 74.00 0.65 c p3
241.52 72.51 0.65 c p3
241.80 73.81 0.65 c p3
242.08 73.13 0.65 c p3
242.36 72.27 0.65 c p3
242.64 73.38 0.65 c p3
242.92 72.94 0.65 c p3
243.20 73.13 0.65 c p3
243.48 72.07 0.65 c p3
243.76 74.00 0.65 c p3
244.04 72.70 0.65 c p3
244.32 73.13 0.65 c p3
244.60 73.38 0.65 c p3
244.88 72.94 0.65 c p3
245.16 72.07 0.65 c p3
245.44 72.07 0.65 c p3
245.72 72.51 0.65 c p3
246.00 72.07 0.65 c p3
246.28 72.27 0.65 c p3
246.56 72.27 0.65 c p3
246.84 72.94 0.65 c p3
247.12 72.70 0.65 c p3
247.40 72.70 0.65 c p3
247.68 72.07 0.65 c p3
247.96 73.57 0.65 c p3
248.24 71.83 0.65 c p3
248.52 72.07 0.65 c p3
248.80 72.94 0.65 c p3
249.08 72.27 0.65 c p3
249.36 72.27 0.65 c p3
249.64 71.21 0.65 c p3
249.92 71.40 0.65 c p3
250.20 72.07 0.65 c p3
250.48 72.07 0.65 c p3
250.76 72.51 0.65 c p3
251.04 72.07 0.65 c p3
251.32 72.51 0.65 c p3
251.60 71.64 0.65 c p3
251.88 71.83 0.65 c p3
252.16 70.97 0.65 c p3
252.44 70.78 0.65 c p3
252.72 72.70 0.65 c p3
253.00 71.21 0.65 c p3
253.28 71.40 0.65 c p3
253.56 70.97 0.65 c p3
253.84 71.83 0.65 c p3
254.12 70.35 0.65 c p3
254.40 71.21 0.65 c p3
254.68 70.35 0.65 c p3
254.96 70.35 0.65 c p3
255.24 71.40 0.65 c p3
255.52 71.64 0.65 c p3
255.80 70.78 0.65 c p3
256.08 71.64 0.65 c p3
256.36 70.78 0.65 c p3
256.64 72.07 0.65 c p3
256.92 71.21 0.65 c p3
257.20 71.40 0.65 c p3
257.48 70.54 0.65 c p3
257.76 69.69 0.65 c p3
258.04 70.54 0.65 c p3
258.32 71.64 0.65 c p3
258.60 69.92 0.65 c p3
258.88 71.64 0.65 c p3
259.16 71.40 0.65 c p3
259.44 70.97 0.65 c p3
259.72 70.11 0.65 c p3
260.00 70.97 0.65 c p3
260.28 70.54 0.65 c p3
260.56 70.78 0.65 c p3
260.84 71.40 0.65 c p3
261.12 71.21 0.65 c p3
261.40 69.69 0.65 c p3
261.68 70.78 0.65 c p3
261.96 70.78 0.65 c p3
262.24 70.54 0.65 c p3
262.52 70.11 0.65 c p3
262.80 70.97 0.65 c p3
263.08 70.78 0.65 c p3
263.36 69.26 0.65 c p3
263.64 69.92 0.65 c p3
263.92 69.92 0.65 c p3
264.20 70.11 0.65 c p3
264.48 69.92 0.65 c p3
264.76 69.69 0.65 c p3
265.04 69.50 0.65 c p3
265.32 69.69 0.65 c p3
265.60 70.11 0.65 c p3
265.88 69.69 0.65 c p3
266.16 69.07 0.65 c p3
266.44 69.92 0.65 c p3
266.72 70.11 0.65 c p3
267.00 69.50 0.65 c p3
267.28 69.50 0.65 c p3
267.56 69.50 0.65 c p3
267.84 69.92 0.65 c p3
268.12 69.69 0.65 c p3
268.40 69.50 0.65 c p3
268.68 70.54 0.65 c p3
268.96 69.07 0.65 c p3
269.24 69.07 0.65 c p3
269.52 70.97 0.65 c p3
269.80 68.64 0.65 c p3
270.08 69.26 0.65 c p3
270.36 70.11 0.65 c p3
270.64 68.83 0.65 c p3
270.92 69.07 0.65 c p3
271.20 70.11 0.65 c p3
271.48 70.35 0.65 c p3
271.76 70.11 0.65 c p3
272.04 68.64 0.65 c p3
272.32 69.50 0.65 c p3
272.60 68.83 0.65 c p3
272.88 68.64 0.65 c p3
273.16 69.07 0.65 c p3
273.44 70.35 0.65 c p3
273.72 69.26 0.65 c p3
274.00 69.07 0.65 c p3
274.28 69.50 0.65 c p3
274.56 69.26 0.65 c p3
274.84 68.83 0.65 c p3
275.12 69.26 0.65 c p3
275.40 69.50 0.65 c p3
275.68 68.83 0.65 c p3
275.96 68.64 0.65 c p3
276.24 69.26 0.65 c p3
276.52 68.64 0.65 c p3
276.80 67.98 0.65 c p3
277.08 67.79 0.65 c p3
277.36 69.07 0.65 c p3
277.64 69.26 0.65 c p3
277.92 68.83 0.65 c p3
278.20 68.83 0.65 c p3
278.48 68.22 0.65 c p3
278.76 68.41 0.65 c p3
279.04 69.50 0.65 c p3
279.32 68.64 0.65 c p3
279.60 67.98 0.65 c p3
279.88 68.83 0.65 c p3
280.16 69.07 0.65 c p3
280.44 68.83 0.65 c p3
280.72 69.50 0.65 c p3
281.00 69.07 0.65 c p3
281.28 69.07 0.65 c p3
281.56 68.22 0.65 c p3
281.84 68.41 0.65 c p3
282.12 68.41 0.65 c p3
282.40 68.41 0.65 c p3
282.68 67.79 0.65 c p3
282.96 68.22 0.65 c p3
283.24 68.64 0.65 c p3
283.52 68.22 0.65 c p3
283.80 68.22 0.65 c p3
284.08 67.37 0.65 c p3
284.36 67.37 0.65 c p3
284.64 68.22 0.65 c p3
284.92 68.22 0.65 c p3
285.20 67.98 0.65 c p3
285.48 67.56 0.65 c p3
285.76 68.22 0.65 c p3
286.04 67.98 0.65 c p3
286.32 68.83 0.65 c p3
286.60 67.37 0.65 c p3
286.88 68.22 0.65 c p3
287.16 68.64 0.65 c p3
287.44 67.98 0.65 c p3
287.72 67.13 0.65 c p3
288.00 69.07 0.65 c p3
288.28 67.56 0.65 c p3
288.56 67.37 0.65 c p3
288.84 67.98 0.65 c p3
289.12 67.79 0.65 c p3
289.40 67.98 0.65 c p3
289.68 67.56 0.65 c p3
289.96 67.56 0.65 c p3
290.24 67.37 0.65 c p3
290.52 67.56 0.65 c p3
290.80 67.13 0.65 c p3
291.08 67.56 0.65 c p3
291.36 68.41 0.65 c p3
291.64 66.94 0.65 c p3
291.92 67.56 0.65 c p3
292.20 67.98 0.65 c p3
292.48 66.94 0.65 c p3
292.76 67.37 0.65 c p3
293.04 66.94 0.65 c p3
293.32 67.37 0.65 c p3
293.60 67.37 0.65 c p3
293.88 67.37 0.65 c p3
294.16 66.94 0.65 c p3
294.44 67.56 0.65 c p3
294.72 68.83 0.65 c p3
295.00 66.94 0.65 c p3
295.28 67.37 0.65 c p3
295.56 67.37 0.65 c p3
295.84 66.76 0.65 c p3
296.12 67.56 0.65 c p3
296.40 67.13 0.65 c p3
296.68 66.94 0.65 c p3
296.96 67.37 0.65 c p3
297.24 66.94 0.65 c p3
297.52 68.22 0.65 c p3
297.80 66.94 0.65 c p3
298.08 67.56 0.65 c p3
298.36 67.37 0.65 c p3
298.64 66.52 0.65 c p3
298.92 66.94 0.65 c p3
299.20 66.76 0.65 c p3
299.48 67.13 0.65 c p3
299.76 67.79 0.65 c p3
300.04 66.76 0.65 c p3
300.32 65.91 0.65 c p3
300.60 66.33 0.65 c p3
300.88 66.94 0.65 c p3
301.16 66.52 0.65 c p3
301.44 66.52 0.65 c p3
301.72 66.52 0.65 c p3
302.00 66.76 0.65 c p3
302.28 67.79 0.65 c p3
302.56 67.13 0.65 c p3
302.84 65.91 0.65 c p3
303.12 66.76 0.65 c p3
303.40 66.52 0.65 c p3
303.68 66.76 0.65 c p3
303.96 66.52 0.65 c p3
304.24 66.76 0.65 c p3
304.52 66.76 0.65 c p3
304.80 66.76 0.65 c p3
305.08 65.91 0.65 c p3
305.36 66.52 0.65 c p3
305.64 67.13 0.65 c p3
305.92 66.76 0.65 c p3
306.20 66.94 0.65 c p3
306.48 66.94 0.65 c p3
306.76 66.94 0.65 c p3
307.04 66.10 0.65 c p3
307.32 65.68 0.65 c p3
307.60 66.76 0.65 c p3
307.88 65.49 0.65 c p3
308.16 66.33 0.65 c p3
308.44 65.49 0.65 c p3
308.72 65.68 0.65 c p3
309.00 66.76 0.65 c p3
309.28 65.91 0.65 c p3
309.56 66.52 0.65 c p3
309.84 66.76 0.65 c p3
310.12 66.10 0.65 c p3
310.40 66.94 0.65 c p3
310.68 66.33 0.65 c p3
310.96 66.33 0.65 c p3
311.24 65.91 0.65 c p3
311.52 65.91 0.65 c p3
311.80 65.49 0.65 c p3
312.08 65.68 0.65 c p3
312.36 65.49 0.65 c p3
312.64 66.52 0.65 c p3
312.92 65.91 0.65 c p3
313.20 65.26 0.65 c p3
313.48 65.91 0.65 c p3
313.76 65.07 0.65 c p3
314.04 66.10 0.65 c p3
314.32 66.10 0.65 c p3
314.60 66.10 0.65 c p3
314.88 65.68 0.65 c p3
315.16 66.33 0.65 c p3
315.44 66.76 0.65 c p3
315.72 65.49 0.65 c p3
316.00 65.68 0.65 c p3
316.28 66.10 0.65 c p3
316.56 66.33 0.65 c p3
316.84 65.26 0.65 c p3
317.12 66.33 0.65 c p3
317.40 65.07 0.65 c p3
317.68 65.68 0.65 c p3
317.96 65.68 0.65 c p3
318.24 64.65 0.65 c p3
318.52 64.84 0.65 c p3
318.80 66.52 0.65 c p3
319.08 65.07 0.65 c p3
319.36 65.49 0.65 c p3
319.64 65.26 0.65 c p3
319.92 65.49 0.65 c p3
320.20 65.07 0.65 c p3
320.48 65.68 0.65 c p3
320.76 65.26 0.65 c p3
321.04 65.91 0.65 c p3
321.32 65.26 0.65 c p3
321.60 63.82 0.65 c p3
321.88 64.84 0.65 c p3
322.16 64.65 0.65 c p3
322.44 64.65 0.65 c p3
322.72 65.49 0.65 c p3
323.00 65.91 0.65 c p3
323.28 66.33 0.65 c p3
323.56 64.84 0.65 c p3
323.84 65.07 0.65 c p3
324.12 64.24 0.65 c p3
324.40 66.10 0.65 c p3
324.68 65.26 0.65 c p3
324.96 65.68 0.65 c p3
325.24 65.49 0.65 c p3
325.52 65.49 0.65 c p3
325.80 64.84 0.65 c p3
326.08 64.84 0.65 c p3
326.36 64.65 0.65 c p3
326.64 65.68 0.65 c p3
326.92 64.42 0.65 c p3
327.20 65.07 0.65 c p3
327.48 64.65 0.65 c p3
327.76 65.07 0.65 c p3
328.04 65.91 0.65 c p3
328.32 66.33 0.65 c p3
328.60 64.65 0.65 c p3
328.88 65.49 0.65 c p3
329.16 65.49 0.65 c p3
329.44 64.84 0.65 c p3
329.72 65.07 0.65 c p3
330.00 65.07 0.65 c p3
330.28 64.24 0.65 c p3
330.56 64.42 0.65 c p3
330.84 64.84 0.65 c p3
331.12 64.84 0.65 c p3
331.40 64.84 0.65 c p3
331.68 64.84 0.65 c p3
331.96 64.65 0.65 c p3
332.24 65.26 0.65 c p3
332.52 64.84 0.65 c p3
332.80 65.07 0.65 c p3
333.08 64.42 0.65 c p3
333.36 64.65 0.65 c p3
333.64 64.65 0.65 c p3
333.92 64.84 0.65 c p3
334.20 64.42 0.65 c p3
334.48 64.42 0.65 c p3
334.76 64.24 0.65 c p3
335.04 64.24 0.65 c p3
335.32 64.42 0.65 c p3
335.60 65.26 0.65 c p3
335.88 63.82 0.65 c p3
336.16 64.00 0.65 c p3
336.44 64.84 0.65 c p3
336.72 64.84 0.65 c p3
337.00 64.65 0.65 c p3
337.28 64.24 0.65 c p3
337.56 64.65 0.65 c p3
337.84 64.42 0.65 c p3
338.12 63.40 0.65 c p3
338.40 64.00 0.65 c p3
338.68 63.59 0.65 c p3
338.96 63.59 0.65 c p3
339.24 64.00 0.65 c p3
339.52 65.07 0.65 c p3
339.80 64.65 0.65 c p3
340.08 63.59 0.65 c p3
340.36 64.24 0.65 c p3
340.64 64.42 0.65 c p3
340.92 64.84 0.65 c p3
341.20 64.42 0.65 c p3
341.48 62.98 0.65 c p3
341.76 63.59 0.65 c p3
342.04 63.82 0.65 c p3
342.32 64.00 0.65 c p3
342.60 63.40 0.65 c p3
342.88 63.82 0.65 c p3
343.16 64.24 0.65 c p3
343.44 63.82 0.65 c p3
343.72 63.59 0.65 c p3
344.00 64.42 0.65 c p3
344.28 63.17 0.65 c p3
344.56 64.00 0.65 c p3
344.84 64.65 0.65 c p3
345.12 64.24 0.65 c p3
345.40 63.82 0.65 c p3
345.68 64.24 0.65 c p3
345.96 63.59 0.65 c p3
346.24 63.59 0.65 c p3
346.52 62.57 0.65 c p3
346.80 64.42 0.65 c p3
347.08 63.59 0.65 c p3
347.36 64.65 0.65 c p3
347.64 63.59 0.65 c p3
347.92 62.98 0.65 c p3
348.20 63.17 0.65 c p3
348.48 64.84 0.65 c p3
348.76 63.40 0.65 c p3
349.04 64.65 0.65 c p3
349.32 63.82 0.65 c p3
349.60 63.82 0.65 c p3
349.88 64.42 0.65 c p3
350.16 62.75 0.65 c p3
350.44 63.40 0.65 c p3
350.72 63.82 0.65 c p3
351.00 63.17 0.65 c p3
351.28 63.82 0.65 c p3
351.56 64.00 0.65 c p3
351.84 63.82 0.65 c p3
352.12 62.57 0.65 c p3
352.40 63.40 0.65 c p3
352.68 64.00 0.65 c p3
352.96 63.82 0.65 c p3
353.24 63.17 0.65 c p3
353.52 63.40 0.65 c p3
353.80 64.00 0.65 c p3
354.08 62.57 0.65 c p3
354.36 63.17 0.65 c p3
354.64 64.00 0.65 c p3
354.92 62.98 0.65 c p3
355.20 63.59 0.65 c p3
355.48 63.82 0.65 c p3
355.76 61.92 0.65 c p3
356.04 62.57 0.65 c p3
356.32 64.24 0.65 c p3
356.60 63.59 0.65 c p3
356.88 62.98 0.65 c p3
357.16 63.40 0.65 c p3
357.44 63.40 0.65 c p3
357.72 62.75 0.65 c p3
358.00 62.15 0.65 c p3
358.28 62.98 0.65 c p3
358.56 63.59 0.65 c p3
358.84 62.15 0.65 c p3
359.12 63.17 0.65 c p3
359.40 62.75 0.65 c p3
359.68 62.75 0.65 c p3
359.96 62.75 0.65 c p3
360.24 62.75 0.65 c p3
360.52 62.57 0.65 c p3
360.80 64.00 0.65 c p3
361.08 62.57 0.65 c p3
361.36 63.17 0.65 c p3
216.00 201.60 367.20 247.68 cl
0 0 0 srgb
0.75 setlinewidth
[] 0 setdash
1 setlinecap
1 setlinejoin
10.00 setmiterlimit
221.60 236.86 0.43 c p1
221.75 238.86 0.43 c p1
221.90 237.90 0.43 c p1
222.06 236.96 0.43 c p1
222.21 235.38 0.43 c p1
222.36 229.56 0.43 c p1
222.51 233.54 0.43 c p1
222.66 234.04 0.43 c p1
222.82 233.13 0.43 c p1
222.97 230.23 0.43 c p1
223.12 229.35 0.43 c p1
223.27 231.83 0.43 c p1
223.42 230.94 0.43 c p1
223.58 229.46 0.43 c p1
223.73 229.94 0.43 c p1
223.88 224.34 0.43 c p1
224.03 225.55 0.43 c p1
224.18 229.99 0.43 c p1
224.34 230.44 0.43 c p1
224.49 225.07 0.43 c p1
224.64 225.53 0.43 c p1
224.79 226.55 0.43 c p1
224.94 229.57 0.43 c p1
225.10 228.14 0.43 c p1
225.25 227.85 0.43 c p1
225.40 221.96 0.43 c p1
225.55 226.85 0.43 c p1
225.70 227.26 0.43 c p1
225.86 224.47 0.43 c p1
226.01 223.64 0.43 c p1
226.16 223.50 0.43 c p1
226.31 226.90 0.43 c p1
226.46 225.50 0.43 c p1
226.62 224.12 0.43 c p1
226.77 223.29 0.43 c p1
226.92 225.41 0.43 c p1
227.07 222.84 0.43 c p1
227.22 223.73 0.43 c p1
227.38 220.02 0.43 c p1
227.53 222.07 0.43 c p1
227.68 224.25 0.43 c p1
227.83 221.08 0.43 c p1
227.98 221.42 0.43 c p1
228.14 222.27 0.43 c p1
228.29 225.55 0.43 c p1
228.44 225.21 0.43 c p1
228.59 224.37 0.43 c p1
228.74 218.48 0.43 c p1
228.90 222.68 0.43 c p1
229.05 220.22 0.43 c p1
229.20 222.77 0.43 c p1
229.35 221.43 0.43 c p1
229.50 221.71 0.43 c p1
229.66 226.46 0.43 c p1
229.81 224.98 0.43 c p1
229.96 220.81 0.43 c p1
230.11 220.58 0.43 c p1
230.26 221.33 0.43 c p1
230.42 224.86 0.43 c p1
230.57 222.42 0.43 c p1
230.72 222.66 0.43 c p1
230.87 217.99 0.43 c p1
231.02 223.11 0.43 c p1
231.18 221.66 0.43 c p1
231.33 222.47 0.43 c p1
231.48 219.50 0.43 c p1
231.63 218.19 0.43 c p1
231.78 220.50 0.43 c p1
231.94 222.80 0.43 c p1
232.09 220.89 0.43 c p1
232.24 219.46 0.43 c p1
232.39 220.22 0.43 c p1
232.54 224.56 0.43 c p1
232.70 222.64 0.43 c p1
232.85 220.17 0.43 c p1
233.00 218.86 0.43 c p1
233.15 221.06 0.43 c p1
233.30 222.23 0.43 c p1
233.46 222.83 0.43 c p1
233.61 221.50 0.43 c p1
233.76 222.08 0.43 c p1
233.91 222.77 0.43 c p1
234.06 220.33 0.43 c p1
234.22 219.57 0.43 c p1
234.37 220.68 0.43 c p1
234.52 221.79 0.43 c p1
234.67 221.90 0.43 c p1
234.82 218.50 0.43 c p1
234.98 220.12 0.43 c p1
235.13 221.20 0.43 c p1
235.28 221.73 0.43 c p1
235.43 222.79 0.43 c p1
235.58 220.91 0.43 c p1
235.74 219.59 0.43 c p1
235.89 222.57 0.43 c p1
236.04 220.16 0.43 c p1
236.19 219.80 0.43 c p1
236.34 221.24 0.43 c p1
236.50 221.83 0.43 c p1
236.65 219.02 0.43 c p1
236.80 222.34 0.43 c p1
236.95 220.05 0.43 c p1
237.10 221.98 0.43 c p1
237.26 220.65 0.43 c p1
237.41 221.62 0.43 c p1
237.56 222.58 0.43 c p1
237.71 220.72 0.43 c p1
237.86 221.15 0.43 c p1
238.02 219.81 0.43 c p1
238.17 222.61 0.43 c p1
238.32 222.09 0.43 c p1
238.47 220.75 0.43 c p1
238.62 223.51 0.43 c p1
238.78 222.06 0.43 c p1
238.93 220.21 0.43 c p1
239.08 221.10 0.43 c p1
239.23 222.91 0.43 c p1
239.39 221.56 0.43 c p1
239.54 222.84 0.43 c p1
239.69 220.98 0.43 c p1
239.84 220.94 0.43 c p1
239.99 220.00 0.43 c p1
240.15 222.25 0.43 c p1
240.30 222.20 0.43 c p1
240.45 223.04 0.43 c p1
240.60 222.97 0.43 c p1
240.75 222.01 0.43 c p1
240.91 221.05 0.43 c p1
241.06 220.10 0.43 c p1
241.21 221.79 0.43 c p1
241.36 223.49 0.43 c p1
241.51 219.87 0.43 c p1
241.67 221.54 0.43 c p1
241.82 220.19 0.43 c p1
241.97 224.00 0.43 c p1
242.12 220.39 0.43 c p1
242.27 222.52 0.43 c p1
242.43 222.80 0.43 c p1
242.58 221.43 0.43 c p1
242.73 222.19 0.43 c p1
242.88 220.73 0.43 c p1
243.03 221.95 0.43 c p1
243.19 222.69 0.43 c p1
243.34 222.09 0.43 c p1
243.49 219.86 0.43 c p1
243.64 222.68 0.43 c p1
243.79 223.40 0.43 c p1
243.95 221.17 0.43 c p1
244.10 222.73 0.43 c p1
244.25 221.73 0.43 c p1
244.40 221.58 0.43 c p1
244.55 222.27 0.43 c p1
244.71 222.96 0.43 c p1
244.86 222.43 0.43 c p1
245.01 222.64 0.43 c p1
245.16 222.94 0.43 c p1
245.31 221.46 0.43 c p1
245.47 223.43 0.43 c p1
245.62 224.09 0.43 c p1
245.77 223.44 0.43 c p1
245.92 221.22 0.43 c p1
246.07 224.37 0.43 c p1
246.23 220.39 0.43 c p1
246.38 223.98 0.43 c p1
246.53 222.12 0.43 c p1
246.68 220.64 0.43 c p1
246.83 223.37 0.43 c p1
246.99 224.82 0.43 c p1
247.14 224.61 0.43 c p1
247.29 221.92 0.43 c p1
247.44 224.18 0.43 c p1
247.59 223.50 0.43 c p1
247.75 222.91 0.43 c p1
247.90 225.52 0.43 c p1
248.05 223.28 0.43 c p1
248.20 224.69 0.43 c p1
248.35 221.20 0.43 c p1
248.51 222.95 0.43 c p1
248.66 224.33 0.43 c p1
248.81 221.75 0.43 c p1
248.96 223.13 0.43 c p1
249.11 222.43 0.43 c p1
249.27 222.63 0.43 c p1
249.42 225.52 0.43 c p1
249.57 224.90 0.43 c p1
249.72 223.48 0.43 c p1
249.87 222.77 0.43 c p1
250.03 223.31 0.43 c p1
250.18 225.09 0.43 c p1
250.33 223.22 0.43 c p1
250.48 224.55 0.43 c p1
250.63 222.24 0.43 c p1
250.79 224.35 0.43 c p1
250.94 223.28 0.43 c p1
251.09 224.58 0.43 c p1
251.24 225.54 0.43 c p1
251.39 222.43 0.43 c p1
251.55 224.16 0.43 c p1
251.70 223.87 0.43 c p1
251.85 225.16 0.43 c p1
252.00 225.21 0.43 c p1
252.15 222.98 0.43 c p1
252.31 226.18 0.43 c p1
252.46 222.73 0.43 c p1
252.61 226.00 0.43 c p1
252.76 225.69 0.43 c p1
252.91 223.37 0.43 c p1
253.07 224.62 0.43 c p1
253.22 227.09 0.43 c p1
253.37 224.42 0.43 c p1
253.52 225.66 0.43 c p1
253.67 225.68 0.43 c p1
253.83 224.23 0.43 c p1
253.98 223.47 0.43 c p1
254.13 225.47 0.43 c p1
254.28 224.02 0.43 c p1
254.43 224.46 0.43 c p1
254.59 223.35 0.43 c p1
254.74 224.55 0.43 c p1
254.89 224.21 0.43 c p1
255.04 226.53 0.43 c p1
255.19 223.95 0.43 c p1
255.35 226.25 0.43 c p1
255.50 223.60 0.43 c p1
255.65 224.78 0.43 c p1
255.80 224.85 0.43 c p1
255.95 224.50 0.43 c p1
256.11 224.90 0.43 c p1
256.26 225.65 0.43 c p1
256.41 224.52 0.43 c p1
256.56 224.16 0.43 c p1
256.71 224.98 0.43 c p1
256.87 224.61 0.43 c p1
257.02 226.10 0.43 c p1
257.17 227.67 0.43 c p1
257.32 224.25 0.43 c p1
257.47 225.73 0.43 c p1
257.63 225.77 0.43 c p1
257.78 227.66 0.43 c p1
257.93 225.76 0.43 c p1
258.08 226.13 0.43 c p1
258.23 223.82 0.43 c p1
258.39 224.94 0.43 c p1
258.54 226.47 0.43 c p1
258.69 224.16 0.43 c p1
258.84 225.69 0.43 c p1
258.99 226.38 0.43 c p1
259.15 224.89 0.43 c p1
259.30 225.58 0.43 c p1
259.45 226.34 0.43 c p1
259.60 225.52 0.43 c p1
259.75 226.28 0.43 c p1
259.91 225.46 0.43 c p1
260.06 223.98 0.43 c p1
260.21 225.80 0.43 c p1
260.36 224.24 0.43 c p1
260.51 227.54 0.43 c p1
260.67 226.38 0.43 c p1
260.82 225.63 0.43 c p1
260.97 225.22 0.43 c p1
261.12 226.61 0.43 c p1
261.27 224.38 0.43 c p1
261.43 226.18 0.43 c p1
261.58 226.82 0.43 c p1
261.73 225.00 0.43 c p1
261.88 224.90 0.43 c p1
262.03 226.35 0.43 c p1
262.19 225.19 0.43 c p1
262.34 226.96 0.43 c p1
262.49 226.86 0.43 c p1
262.64 225.36 0.43 c p1
262.79 226.72 0.43 c p1
262.95 225.95 0.43 c p1
263.10 225.51 0.43 c p1
263.25 227.60 0.43 c p1
263.40 225.69 0.43 c p1
263.55 225.97 0.43 c p1
263.71 227.40 0.43 c p1
263.86 226.95 0.43 c p1
264.01 226.82 0.43 c p1
264.16 227.84 0.43 c p1
264.31 225.92 0.43 c p1
264.47 225.15 0.43 c p1
264.62 228.34 0.43 c p1
264.77 226.42 0.43 c p1
264.92 225.24 0.43 c p1
265.07 226.55 0.43 c p1
265.23 227.22 0.43 c p1
265.38 227.48 0.43 c p1
265.53 227.34 0.43 c p1
265.68 226.15 0.43 c p1
265.83 224.65 0.43 c p1
265.99 225.94 0.43 c p1
266.14 225.48 0.43 c p1
266.29 227.58 0.43 c p1
266.44 227.10 0.43 c p1
266.59 225.91 0.43 c p1
266.75 226.88 0.43 c p1
266.90 225.29 0.43 c p1
267.05 224.10 0.43 c p1
267.20 226.49 0.43 c p1
267.35 225.69 0.43 c p1
267.51 225.53 0.43 c p1
267.66 227.61 0.43 c p1
267.81 228.16 0.43 c p1
267.96 224.49 0.43 c p1
268.11 225.44 0.43 c p1
268.27 227.10 0.43 c p1
268.42 226.62 0.43 c p1
268.57 226.13 0.43 c p1
268.72 226.35 0.43 c p1
268.87 227.61 0.43 c p1
269.03 225.37 0.43 c p1
269.18 228.06 0.43 c p1
269.33 227.96 0.43 c p1
269.48 228.49 0.43 c p1
269.63 227.28 0.43 c p1
269.79 231.08 0.43 c p1
269.94 227.39 0.43 c p1
270.09 226.18 0.43 c p1
270.24 227.10 0.43 c p1
270.39 228.34 0.43 c p1
270.55 227.83 0.43 c p1
270.70 226.30 0.43 c p1
270.85 226.82 0.43 c p1
271.00 226.71 0.43 c p1
271.15 226.91 0.43 c p1
271.31 228.53 0.43 c p1
271.46 224.49 0.43 c p1
271.61 225.78 0.43 c p1
271.76 225.98 0.43 c p1
271.91 227.59 0.43 c p1
272.07 227.39 0.43 c p1
272.22 226.16 0.43 c p1
272.37 225.65 0.43 c p1
272.52 228.35 0.43 c p1
272.67 227.44 0.43 c p1
272.83 226.92 0.43 c p1
272.98 228.20 0.43 c p1
273.13 227.29 0.43 c p1
273.28 227.86 0.43 c p1
273.43 225.54 0.43 c p1
273.59 228.23 0.43 c p1
273.74 229.11 0.43 c p1
273.89 226.78 0.43 c p1
274.04 226.65 0.43 c p1
274.20 227.84 0.43 c p1
274.35 227.31 0.43 c p1
274.50 228.18 0.43 c p1
274.65 227.34 0.43 c p1
274.80 227.51 0.43 c p1
274.96 227.68 0.43 c p1
275.11 227.85 0.43 c p1
275.26 226.61 0.43 c p1
275.41 227.48 0.43 c p1
275.56 225.86 0.43 c p1
275.72 227.42 0.43 c p1
275.87 226.57 0.43 c p1
276.02 226.73 0.43 c p1
276.17 227.90 0.43 c p1
276.32 227.75 0.43 c p1
276.48 226.51 0.43 c p1
276.63 229.78 0.43 c p1
276.78 226.82 0.43 c p1
276.93 226.98 0.43 c p1
277.08 227.44 0.43 c p1
277.24 227.59 0.43 c p1
277.39 228.44 0.43 c p1
277.54 229.68 0.43 c p1
277.69 227.04 0.43 c p1
277.84 229.28 0.43 c p1
278.00 228.34 0.43 c p1
278.15 227.09 0.43 c p1
278.30 227.93 0.43 c p1
278.45 227.77 0.43 c p1
278.60 227.22 0.43 c p1
278.76 228.05 0.43 c p1
278.91 229.20 0.43 c p1
279.06 227.25 0.43 c p1
279.21 227.08 0.43 c p1
279.36 227.22 0.43 c p1
279.52 227.67 0.43 c p1
279.67 227.80 0.43 c p1
279.82 228.32 0.43 c p1
279.97 227.07 0.43 c p1
280.12 226.13 0.43 c p1
280.28 225.27 0.43 c p1
280.43 225.71 0.43 c p1
280.58 227.21 0.43 c p1
280.73 226.65 0.43 c p1
280.88 227.47 0.43 c p1
281.04 226.91 0.43 c p1
281.19 226.73 0.43 c p1
281.34 227.55 0.43 c p1
281.49 225.61 0.43 c p1
281.64 227.11 0.43 c p1
281.80 227.23 0.43 c p1
281.95 226.28 0.43 c p1
282.10 226.78 0.43 c p1
282.25 226.91 0.43 c p1
282.40 226.34 0.43 c p1
282.56 227.14 0.43 c p1
282.71 227.95 0.43 c p1
282.86 228.76 0.43 c p1
283.01 229.18 0.43 c p1
283.16 227.61 0.43 c p1
283.32 225.97 0.43 c p1
283.47 227.46 0.43 c p1
283.62 228.64 0.43 c p1
283.77 227.38 0.43 c p1
283.92 227.11 0.43 c p1
284.08 226.54 0.43 c p1
284.23 226.34 0.43 c p1
284.38 228.51 0.43 c p1
284.53 228.23 0.43 c p1
284.68 226.97 0.43 c p1
284.84 228.45 0.43 c p1
284.99 227.56 0.43 c p1
285.14 227.67 0.43 c p1
285.29 228.76 0.43 c p1
285.44 227.88 0.43 c p1
285.60 228.67 0.43 c p1
285.75 226.34 0.43 c p1
285.90 229.17 0.43 c p1
286.05 227.22 0.43 c p1
286.20 227.70 0.43 c p1
286.36 227.42 0.43 c p1
286.51 227.52 0.43 c p1
286.66 226.94 0.43 c p1
286.81 227.41 0.43 c p1
286.96 228.50 0.43 c p1
287.12 227.91 0.43 c p1
287.27 224.68 0.43 c p1
287.42 227.80 0.43 c p1
287.57 232.01 0.43 c p1
287.72 228.67 0.43 c p1
287.88 225.74 0.43 c p1
288.03 228.85 0.43 c p1
288.18 227.88 0.43 c p1
288.33 225.63 0.43 c p1
288.48 226.40 0.43 c p1
288.64 227.17 0.43 c p1
288.79 226.58 0.43 c p1
288.94 227.05 0.43 c p1
289.09 228.12 0.43 c p1
289.24 226.17 0.43 c p1
289.40 227.61 0.43 c p1
289.55 228.68 0.43 c p1
289.70 228.76 0.43 c p1
289.85 226.21 0.43 c p1
290.00 227.27 0.43 c p1
290.16 228.03 0.43 c p1
290.31 225.78 0.43 c p1
290.46 228.57 0.43 c p1
290.61 228.28 0.43 c p1
290.76 226.70 0.43 c p1
290.92 227.76 0.43 c p1
291.07 228.90 0.43 c p1
291.22 227.62 0.43 c p1
291.37 228.00 0.43 c p1
291.52 226.05 0.43 c p1
291.68 226.13 0.43 c p1
291.83 227.26 0.43 c p1
291.98 228.01 0.43 c p1
292.13 227.71 0.43 c p1
292.28 228.16 0.43 c p1
292.44 227.18 0.43 c p1
292.59 227.63 0.43 c p1
292.74 227.03 0.43 c p1
292.89 227.11 0.43 c p1
293.04 228.15 0.43 c p1
293.20 227.25 0.43 c p1
293.35 226.65 0.43 c p1
293.50 227.39 0.43 c p1
293.65 226.79 0.43 c p1
293.80 226.86 0.43 c p1
293.96 226.93 0.43 c p1
294.11 227.30 0.43 c p1
294.26 226.70 0.43 c p1
294.41 227.81 0.43 c p1
294.56 227.21 0.43 c p1
294.72 225.93 0.43 c p1
294.87 226.97 0.43 c p1
295.02 227.71 0.43 c p1
295.17 225.46 0.43 c p1
295.32 227.54 0.43 c p1
295.48 228.95 0.43 c p1
295.63 227.00 0.43 c p1
295.78 226.39 0.43 c p1
295.93 228.10 0.43 c p1
296.08 226.81 0.43 c p1
296.24 225.24 0.43 c p1
296.39 228.29 0.43 c p1
296.54 226.03 0.43 c p1
296.69 228.11 0.43 c p1
296.84 227.12 0.43 c p1
297.00 225.84 0.43 c p1
297.15 227.62 0.43 c p1
297.30 227.01 0.43 c p1
297.45 227.36 0.43 c p1
297.60 225.79 0.43 c p1
297.76 228.83 0.43 c p1
297.91 226.87 0.43 c p1
298.06 227.60 0.43 c p1
298.21 228.03 0.43 c p1
298.36 227.41 0.43 c p1
298.52 226.13 0.43 c p1
298.67 226.19 0.43 c p1
298.82 226.91 0.43 c p1
298.97 226.30 0.43 c p1
299.12 226.65 0.43 c p1
299.28 226.71 0.43 c p1
299.43 227.80 0.43 c p1
299.58 227.48 0.43 c p1
299.73 227.54 0.43 c p1
299.88 226.62 0.43 c p1
300.04 228.99 0.43 c p1
300.19 226.36 0.43 c p1
300.34 226.78 0.43 c p1
300.49 228.17 0.43 c p1
300.64 227.18 0.43 c p1
300.80 227.23 0.43 c p1
300.95 225.65 0.43 c p1
301.10 226.00 0.43 c p1
301.25 227.08 0.43 c p1
301.40 227.13 0.43 c p1
301.56 227.85 0.43 c p1
301.71 227.23 0.43 c p1
301.86 227.95 0.43 c p1
302.01 226.66 0.43 c p1
302.16 227.00 0.43 c p1
302.32 225.72 0.43 c p1
302.47 225.47 0.43 c p1
302.62 228.48 0.43 c p1
302.77 226.23 0.43 c p1
302.92 226.57 0.43 c p1
303.08 225.95 0.43 c p1
303.23 227.33 0.43 c p1
303.38 225.08 0.43 c p1
303.53 226.46 0.43 c p1
303.68 225.17 0.43 c p1
303.84 225.22 0.43 c p1
303.99 226.89 0.43 c p1
304.14 227.30 0.43 c p1
304.29 226.01 0.43 c p1
304.44 227.39 0.43 c p1
304.60 226.10 0.43 c p1
304.75 228.14 0.43 c p1
304.90 226.85 0.43 c p1
305.05 227.18 0.43 c p1
305.20 225.89 0.43 c p1
305.36 224.61 0.43 c p1
305.51 225.98 0.43 c p1
305.66 227.72 0.43 c p1
305.81 225.10 0.43 c p1
305.96 227.80 0.43 c p1
306.12 227.47 0.43 c p1
306.27 226.84 0.43 c p1
306.42 225.55 0.43 c p1
306.57 226.92 0.43 c p1
306.72 226.29 0.43 c p1
306.88 226.70 0.43 c p1
307.03 227.70 0.43 c p1
307.18 227.44 0.43 c p1
307.33 225.12 0.43 c p1
307.48 226.85 0.43 c p1
307.64 226.89 0.43 c p1
307.79 226.56 0.43 c p1
307.94 225.93 0.43 c p1
308.09 227.29 0.43 c p1
308.24 227.03 0.43 c p1
308.40 224.71 0.43 c p1
308.55 225.78 0.43 c p1
308.70 225.81 0.43 c p1
308.85 226.14 0.43 c p1
309.00 225.88 0.43 c p1
309.16 225.55 0.43 c p1
309.31 225.29 0.43 c p1
309.46 225.62 0.43 c p1
309.61 226.31 0.43 c p1
309.77 225.69 0.43 c p1
309.92 224.76 0.43 c p1
310.07 226.12 0.43 c p1
310.22 226.45 0.43 c p1
310.37 225.52 0.43 c p1
310.53 225.56 0.43 c p1
310.68 225.59 0.43 c p1
310.83 226.28 0.43 c p1
310.98 225.95 0.43 c p1
311.13 225.68 0.43 c p1
311.29 227.33 0.43 c p1
311.44 225.08 0.43 c p1
311.59 225.12 0.43 c p1
311.74 228.09 0.43 c p1
311.89 224.52 0.43 c p1
312.05 225.50 0.43 c p1
312.20 226.85 0.43 c p1
312.35 224.90 0.43 c p1
312.50 225.30 0.43 c p1
312.65 226.94 0.43 c p1
312.81 227.34 0.43 c p1
312.96 227.00 0.43 c p1
313.11 224.75 0.43 c p1
313.26 226.10 0.43 c p1
313.41 225.10 0.43 c p1
313.57 224.84 0.43 c p1
313.72 225.52 0.43 c p1
313.87 227.54 0.43 c p1
314.02 225.87 0.43 c p1
314.17 225.61 0.43 c p1
314.33 226.30 0.43 c p1
314.48 225.95 0.43 c p1
314.63 225.32 0.43 c p1
314.78 226.01 0.43 c p1
314.93 226.40 0.43 c p1
315.09 225.40 0.43 c p1
315.24 225.13 0.43 c p1
315.39 226.11 0.43 c p1
315.54 225.19 0.43 c p1
315.69 224.19 0.43 c p1
315.85 223.92 0.43 c p1
316.00 225.92 0.43 c p1
316.15 226.24 0.43 c p1
316.30 225.60 0.43 c p1
316.45 225.63 0.43 c p1
316.61 224.70 0.43 c p1
316.76 225.02 0.43 c p1
316.91 226.73 0.43 c p1
317.06 225.43 0.43 c p1
317.21 224.43 0.43 c p1
317.37 225.77 0.43 c p1
317.52 226.16 0.43 c p1
317.67 225.82 0.43 c p1
317.82 226.87 0.43 c p1
317.97 226.23 0.43 c p1
318.13 226.25 0.43 c p1
318.28 224.96 0.43 c p1
318.43 225.27 0.43 c p1
318.58 225.30 0.43 c p1
318.73 225.32 0.43 c p1
318.89 224.39 0.43 c p1
319.04 225.07 0.43 c p1
319.19 225.75 0.43 c p1
319.34 225.11 0.43 c p1
319.49 225.13 0.43 c p1
319.65 223.84 0.43 c p1
319.80 223.86 0.43 c p1
319.95 225.20 0.43 c p1
320.10 225.22 0.43 c p1
320.25 224.87 0.43 c p1
320.41 224.24 0.43 c p1
320.56 225.28 0.43 c p1
320.71 224.93 0.43 c p1
320.86 226.27 0.43 c p1
321.01 224.03 0.43 c p1
321.17 225.36 0.43 c p1
321.32 226.04 0.43 c p1
321.47 225.03 0.43 c p1
321.62 223.74 0.43 c p1
321.77 226.75 0.43 c p1
321.93 224.43 0.43 c p1
322.08 224.16 0.43 c p1
322.23 225.13 0.43 c p1
322.38 224.86 0.43 c p1
322.53 225.17 0.43 c p1
322.69 224.53 0.43 c p1
322.84 224.55 0.43 c p1
322.99 224.27 0.43 c p1
323.14 224.58 0.43 c p1
323.29 223.94 0.43 c p1
323.45 224.62 0.43 c p1
323.60 225.95 0.43 c p1
323.75 223.71 0.43 c p1
323.90 224.67 0.43 c p1
324.05 225.34 0.43 c p1
324.21 223.76 0.43 c p1
324.36 224.43 0.43 c p1
324.51 223.79 0.43 c p1
324.66 224.46 0.43 c p1
324.81 224.48 0.43 c p1
324.97 224.50 0.43 c p1
325.12 223.86 0.43 c p1
325.27 224.82 0.43 c p1
325.42 226.81 0.43 c p1
325.57 223.91 0.43 c p1
325.73 224.58 0.43 c p1
325.88 224.59 0.43 c p1
326.03 223.66 0.43 c p1
326.18 224.92 0.43 c p1
326.33 224.28 0.43 c p1
326.49 224.00 0.43 c p1
326.64 224.67 0.43 c p1
326.79 224.03 0.43 c p1
326.94 226.02 0.43 c p1
327.09 224.06 0.43 c p1
327.25 225.02 0.43 c p1
327.40 224.75 0.43 c p1
327.55 223.45 0.43 c p1
327.70 224.12 0.43 c p1
327.85 223.85 0.43 c p1
328.01 224.44 0.43 c p1
328.16 225.48 0.43 c p1
328.31 223.89 0.43 c p1
328.46 222.60 0.43 c p1
328.61 223.26 0.43 c p1
328.77 224.22 0.43 c p1
328.92 223.58 0.43 c p1
329.07 223.59 0.43 c p1
329.22 223.61 0.43 c p1
329.37 223.98 0.43 c p1
329.53 225.60 0.43 c p1
329.68 224.59 0.43 c p1
329.83 222.72 0.43 c p1
329.98 224.04 0.43 c p1
330.13 223.69 0.43 c p1
330.29 224.06 0.43 c p1
330.44 223.71 0.43 c p1
330.59 224.09 0.43 c p1
330.74 224.10 0.43 c p1
330.89 224.11 0.43 c p1
331.05 222.82 0.43 c p1
331.20 223.78 0.43 c p1
331.35 224.73 0.43 c p1
331.50 224.16 0.43 c p1
331.65 224.47 0.43 c p1
331.81 224.48 0.43 c p1
331.96 224.49 0.43 c p1
332.11 223.20 0.43 c p1
332.26 222.56 0.43 c p1
332.41 224.24 0.43 c p1
332.57 222.29 0.43 c p1
332.72 223.61 0.43 c p1
332.87 222.31 0.43 c p1
333.02 222.61 0.43 c p1
333.17 224.29 0.43 c p1
333.33 223.00 0.43 c p1
333.48 223.95 0.43 c p1
333.63 224.33 0.43 c p1
333.78 223.32 0.43 c p1
333.93 224.64 0.43 c p1
334.09 223.71 0.43 c p1
334.24 223.72 0.43 c p1
334.39 223.08 0.43 c p1
334.54 223.09 0.43 c p1
334.69 222.45 0.43 c p1
334.85 222.75 0.43 c p1
335.00 222.47 0.43 c p1
335.15 224.07 0.43 c p1
335.30 223.14 0.43 c p1
335.45 222.14 0.43 c p1
335.61 223.16 0.43 c p1
335.76 221.87 0.43 c p1
335.91 223.47 0.43 c p1
336.06 223.48 0.43 c p1
336.21 223.49 0.43 c p1
336.37 222.85 0.43 c p1
336.52 223.87 0.43 c p1
336.67 224.53 0.43 c p1
336.82 222.59 0.43 c p1
336.97 222.88 0.43 c p1
337.13 223.54 0.43 c p1
337.28 223.92 0.43 c p1
337.43 222.26 0.43 c p1
337.58 223.93 0.43 c p1
337.73 221.99 0.43 c p1
337.89 222.94 0.43 c p1
338.04 222.95 0.43 c p1
338.19 221.37 0.43 c p1
338.34 221.67 0.43 c p1
338.49 224.28 0.43 c p1
338.65 222.05 0.43 c p1
338.80 222.70 0.43 c p1
338.95 222.35 0.43 c p1
339.10 222.72 0.43 c p1
339.25 222.08 0.43 c p1
339.41 223.03 0.43 c p1
339.56 222.39 0.43 c p1
339.71 223.41 0.43 c p1
339.86 222.40 0.43 c p1
340.01 220.18 0.43 c p1
340.17 221.77 0.43 c p1
340.32 221.49 0.43 c p1
340.47 221.50 0.43 c p1
340.62 222.80 0.43 c p1
340.77 223.46 0.43 c p1
340.93 224.12 0.43 c p1
341.08 221.82 0.43 c p1
341.23 222.19 0.43 c p1
341.38 220.90 0.43 c p1
341.53 223.79 0.43 c p1
341.69 222.50 0.43 c p1
341.84 223.15 0.43 c p1
341.99 222.87 0.43 c p1
342.14 222.88 0.43 c p1
342.29 221.88 0.43 c p1
342.45 221.89 0.43 c p1
342.60 221.60 0.43 c p1
342.75 223.20 0.43 c p1
342.90 221.26 0.43 c p1
343.05 222.27 0.43 c p1
343.21 221.63 0.43 c p1
343.36 222.29 0.43 c p1
343.51 223.60 0.43 c p1
343.66 224.25 0.43 c p1
343.81 221.66 0.43 c p1
343.97 222.97 0.43 c p1
344.12 222.97 0.43 c p1
344.27 221.97 0.43 c p1
344.42 222.34 0.43 c p1
344.58 222.34 0.43 c p1
344.73 221.05 0.43 c p1
344.88 221.35 0.43 c p1
345.03 222.00 0.43 c p1
345.18 222.01 0.43 c p1
345.34 222.02 0.43 c p1
345.49 222.02 0.43 c p1
345.64 221.74 0.43 c p1
345.79 222.68 0.43 c p1
345.94 222.04 0.43 c p1
346.10 222.41 0.43 c p1
346.25 221.41 0.43 c p1
346.40 221.77 0.43 c p1
346.55 221.78 0.43 c p1
346.70 222.07 0.43 c p1
346.86 221.43 0.43 c p1
347.01 221.44 0.43 c p1
347.16 221.15 0.43 c p1
347.31 221.16 0.43 c p1
347.46 221.45 0.43 c p1
347.62 222.76 0.43 c p1
347.77 220.53 0.43 c p1
347.92 220.82 0.43 c p1
348.07 222.12 0.43 c p1
348.22 222.13 0.43 c p1
348.38 221.85 0.43 c p1
348.53 221.21 0.43 c p1
348.68 221.86 0.43 c p1
348.83 221.50 0.43 c p1
348.98 219.93 0.43 c p1
349.14 220.87 0.43 c p1
349.29 220.23 0.43 c p1
349.44 220.23 0.43 c p1
349.59 220.88 0.43 c p1
349.74 222.54 0.43 c p1
349.90 221.90 0.43 c p1
350.05 220.25 0.43 c p1
350.20 221.26 0.43 c p1
350.35 221.56 0.43 c p1
350.50 222.21 0.43 c p1
350.66 221.57 0.43 c p1
350.81 219.35 0.43 c p1
350.96 220.28 0.43 c p1
351.11 220.65 0.43 c p1
351.26 220.94 0.43 c p1
351.42 220.01 0.43 c p1
351.57 220.66 0.43 c p1
351.72 221.31 0.43 c p1
351.87 220.67 0.43 c p1
352.02 220.32 0.43 c p1
352.18 221.61 0.43 c p1
352.33 219.68 0.43 c p1
352.48 220.98 0.43 c p1
352.63 221.99 0.43 c p1
352.78 221.35 0.43 c p1
352.94 220.70 0.43 c p1
353.09 221.35 0.43 c p1
353.24 220.35 0.43 c p1
353.39 220.36 0.43 c p1
353.54 218.79 0.43 c p1
353.70 221.66 0.43 c p1
353.85 220.37 0.43 c p1
354.00 222.03 0.43 c p1
354.15 220.38 0.43 c p1
354.30 219.45 0.43 c p1
354.46 219.74 0.43 c p1
354.61 222.33 0.43 c p1
354.76 220.11 0.43 c p1
354.91 222.05 0.43 c p1
355.06 220.76 0.43 c p1
355.22 220.77 0.43 c p1
355.37 221.71 0.43 c p1
355.52 219.13 0.43 c p1
355.67 220.14 0.43 c p1
355.82 220.78 0.43 c p1
355.98 219.79 0.43 c p1
356.13 220.79 0.43 c p1
356.28 221.08 0.43 c p1
356.43 220.80 0.43 c p1
356.58 218.87 0.43 c p1
356.74 220.16 0.43 c p1
356.89 221.10 0.43 c p1
357.04 220.81 0.43 c p1
357.19 219.82 0.43 c p1
357.34 220.18 0.43 c p1
357.50 221.11 0.43 c p1
357.65 218.90 0.43 c p1
357.80 219.83 0.43 c p1
357.95 221.12 0.43 c p1
358.10 219.55 0.43 c p1
358.26 220.49 0.43 c p1
358.41 220.85 0.43 c p1
358.56 217.92 0.43 c p1
358.71 218.92 0.43 c p1
358.86 221.50 0.43 c p1
359.02 220.50 0.43 c p1
359.17 219.58 0.43 c p1
359.32 220.22 0.43 c p1
359.47 220.23 0.43 c p1
359.62 219.23 0.43 c p1
359.78 218.30 0.43 c p1
359.93 219.59 0.43 c p1
360.08 220.53 0.43 c p1
360.23 218.31 0.43 c p1
360.38 219.89 0.43 c p1
360.54 219.25 0.43 c p1
360.69 219.25 0.43 c p1
360.84 219.25 0.43 c p1
360.99 219.26 0.43 c p1
361.14 218.97 0.43 c p1
361.30 221.20 0.43 c p1
361.45 218.98 0.43 c p1
361.60 219.91 0.43 c p1
0.00 0.00 432.00 576.00 cl
0 0 0 srgb
0.75 setlinewidth
[] 0 setdash
1 setlinecap
1 setlinejoin
10.00 setmiterlimit
np
218.41 201.60 m
121.60 0 l
o
np
218.41 201.60 m
0 -5.76 l
o
np
248.81 201.60 m
0 -5.76 l
o
np
279.21 201.60 m
0 -5.76 l
o
np
309.61 201.60 m
0 -5.76 l
o
np
340.01 201.60 m
0 -5.76 l
o
/Font1 findfont 6 s
218.41 185.47 (0) .5 0 t
248.81 185.47 (2000) .5 0 t
279.21 185.47 (4000) .5 0 t
309.61 185.47 (6000) .5 0 t
340.01 185.47 (8000) .5 0 t
np
216.00 207.98 m
0 33.32 l
o
np
216.00 207.98 m
-5.76 0 l
o
np
216.00 216.31 m
-5.76 0 l
o
np
216.00 224.64 m
-5.76 0 l
o
np
216.00 232.97 m
-5.76 0 l
o
np
216.00 241.30 m
-5.76 0 l
o
209.09 205.82 (-0.02) 1 0 t
209.09 214.16 (-0.01) 1 0 t
209.09 222.49 (0.00) 1 0 t
209.09 230.82 (0.01) 1 0 t
209.09 239.15 (0.02) 1 0 t
np
216.00 201.60 m
151.20 0 l
0 46.08 l
-151.20 0 l
0 -46.08 l
o
0.00 0.00 432.00 576.00 cl
/Font1 findfont 9 s
0 0 0 srgb
291.60 262.88 (Residuen) .5 0 t
59.04 73.44 401.76 516.96 cl
ep
%%Trailer
%%Pages: 1
%%EOF
