%!PS-Adobe-3.0 EPSF-3.0
%%DocumentNeededResources: font Helvetica
%%+ font Helvetica-Bold
%%+ font Helvetica-Oblique
%%+ font Helvetica-BoldOblique
%%+ font Symbol
%%Title: R Graphics Output
%%Creator: R Software
%%Pages: (atend)
%%BoundingBox: 0 0 432 576
%%EndComments
%%BeginProlog
/bp  { gs sRGB gs } def
% begin .ps.prolog
/gs  { gsave } bind def
/gr  { grestore } bind def
/ep  { showpage gr gr } bind def
/m   { moveto } bind def
/l  { rlineto } bind def
/np  { newpath } bind def
/cp  { closepath } bind def
/f   { fill } bind def
/o   { stroke } bind def
/c   { newpath 0 360 arc } bind def
/r   { 4 2 roll moveto 1 copy 3 -1 roll exch 0 exch rlineto 0 rlineto -1 mul 0 exch rlineto closepath } bind def
/p1  { stroke } bind def
/p2  { gsave bg fill grestore newpath } bind def
/p3  { gsave bg fill grestore stroke } bind def
/p6  { gsave bg eofill grestore newpath } bind def
/p7  { gsave bg eofill grestore stroke } bind def
/t   { 5 -2 roll moveto gsave rotate
       1 index stringwidth pop
       mul neg 0 rmoveto show grestore } bind def
/ta  { 4 -2 roll moveto gsave rotate show } bind def
/tb  { 2 -1 roll 0 rmoveto show } bind def
/cl  { grestore gsave newpath 3 index 3 index moveto 1 index
       4 -1 roll lineto  exch 1 index lineto lineto
       closepath clip newpath } bind def
/rgb { setrgbcolor } bind def
/s   { scalefont setfont } bind def
% end   .ps.prolog
/sRGB { [ /CIEBasedABC
          << /DecodeLMN
               [ { dup 0.03928 le
                        {12.92321 div}
                        {0.055 add 1.055 div 2.4 exp }
                     ifelse
                 } bind dup dup
               ]
             /MatrixLMN [0.412457 0.212673 0.019334
                         0.357576 0.715152 0.119192
                         0.180437 0.072175 0.950301]
             /WhitePoint [0.9505 1.0 1.0890]
           >>
         ] setcolorspace } bind def
/srgb { setcolor } bind def
%%IncludeResource: font Helvetica
/Helvetica findfont
dup length dict begin
  {1 index /FID ne {def} {pop pop} ifelse} forall
  /Encoding ISOLatin1Encoding def
  currentdict
  end
/Font1 exch definefont pop
%%IncludeResource: font Helvetica-Bold
/Helvetica-Bold findfont
dup length dict begin
  {1 index /FID ne {def} {pop pop} ifelse} forall
  /Encoding ISOLatin1Encoding def
  currentdict
  end
/Font2 exch definefont pop
%%IncludeResource: font Helvetica-Oblique
/Helvetica-Oblique findfont
dup length dict begin
  {1 index /FID ne {def} {pop pop} ifelse} forall
  /Encoding ISOLatin1Encoding def
  currentdict
  end
/Font3 exch definefont pop
%%IncludeResource: font Helvetica-BoldOblique
/Helvetica-BoldOblique findfont
dup length dict begin
  {1 index /FID ne {def} {pop pop} ifelse} forall
  /Encoding ISOLatin1Encoding def
  currentdict
  end
/Font4 exch definefont pop
%%IncludeResource: font Symbol
/Symbol findfont
dup length dict begin
  {1 index /FID ne {def} {pop pop} ifelse} forall
  currentdict
  end
/Font5 exch definefont pop
%%EndProlog
%%Page: 1 1
bp
0.00 0.00 432.00 576.00 cl
0.00 0.00 432.00 576.00 cl
0.00 0.00 432.00 576.00 cl
/Font1 findfont 12 s
0 0 0 srgb
48.00 508.72 (PCP-ETH) 0 0 t
48.00 494.89 (Blitzlicht-Photolyse) 0 0 t
/Font1 findfont 9 s
48.00 457.54 (File: Dy) 0 ta
-0.180 (e_0_1_V1_900V_40.dat) tb gr
48.00 334.87 (T) 0 ta
-1.080 (ue Apr  9 22:03:40 2019) tb gr
48.00 430.87 (Fitfunktion:  a + b * e) 0 ta
-0.270 (xp\(-c * t\)) tb gr
48.00 420.50 (t-Inter) 0 ta
0.270 (v) tb
-0.225 (all: 8.500 ... 132.500 ms) tb gr
48.00 410.14 (P) 0 ta
-0.360 (ar) tb
-0.090 (ameter \(Standardabw) tb
-0.090 (eichung\):) tb gr
48.00 399.77 (  a = 0.00014 \(0.00032\)) 0 0 t
48.00 389.40 (  b = 0.23011 \(0.00059\)) 0 0 t
48.00 379.03 (  c = 2.646e+01 \(1.631e-01\) s^-1) 0 0 t
48.00 368.66 (  tau = 3.779e-02 \(2.328e-04\) s) 0 0 t
216.00 345.60 388.80 518.40 cl
0 0 0 srgb
0.75 setlinewidth
[] 0 setdash
1 setlinecap
1 setlinejoin
10.00 setmiterlimit
np
222.40 510.90 m
0.15 0.38 l
0.14 -0.24 l
0.15 0 l
0.14 0.10 l
0.15 0.24 l
0.14 -0.34 l
0.15 0 l
0.14 0.10 l
0.15 -0.45 l
0.15 -0.38 l
0.14 0.59 l
0.15 -0.21 l
0.14 0.11 l
0.15 0.58 l
0.14 -0.10 l
0.15 -0.48 l
0.14 0.58 l
0.15 -0.69 l
0.15 -0.24 l
0.14 0.45 l
0.15 0.38 l
0.14 -0.14 l
0.15 -0.59 l
0.14 0.14 l
0.15 -0.38 l
0.15 0.14 l
0.14 0.59 l
0.15 -0.35 l
0.14 0.69 l
0.15 0.38 l
0.14 -0.48 l
0.15 0 l
0.14 -0.24 l
0.15 0.34 l
0.15 0 l
0.14 -0.10 l
0.15 0 l
0.14 -0.24 l
0.15 0.10 l
0.14 -0.45 l
0.15 0.35 l
0.14 0.34 l
0.15 0 l
0.15 -0.34 l
0.14 0.24 l
0.15 0.24 l
0.14 0.11 l
0.15 -0.83 l
0.14 0.10 l
0.15 0.48 l
0.14 -0.48 l
0.15 0.14 l
0.15 0 l
0.14 -0.14 l
0.15 -0.69 l
0.14 0.59 l
0.15 0.10 l
0.14 -0.10 l
0.15 -0.25 l
0.15 0.25 l
0.14 -0.11 l
0.15 0.21 l
0.14 0 l
0.15 0.24 l
0.14 -0.24 l
0.15 0.14 l
0.14 -0.24 l
0.15 0.24 l
0.15 0.10 l
0.14 0 l
0.15 0.24 l
0.14 -0.10 l
0.15 0 l
0.14 0.35 l
0.15 -0.83 l
0.14 0.24 l
0.15 0.59 l
0.15 -0.59 l
0.14 0.34 l
0.15 -0.34 l
0.14 0 l
0.15 -0.24 l
0.14 -0.11 l
0.15 0.83 l
0.14 0.48 l
0.15 -0.86 l
0.15 0 l
0.14 0.24 l
0.15 -0.58 l
0.14 -0.11 l
0.15 0.21 l
0.14 -0.10 l
0.15 0.58 l
0.15 -0.34 l
0.14 -0.14 l
0.15 -0.10 l
0.14 -0.35 l
0.15 0.45 l
0.14 0 l
236.96 456.02 lineto
0.14 -12.86 l
0.15 2.18 l
0.15 0.96 l
0.14 1.69 l
0.15 0.83 l
0.14 0.72 l
0.15 0.72 l
0.14 0.97 l
0.15 0.35 l
0.14 1.33 l
0.15 0.48 l
0.15 -0.13 l
0.14 1.31 l
0.15 0.97 l
0.14 -0.11 l
0.15 1.44 l
0.14 0.35 l
0.15 0.14 l
0.14 0.58 l
0.15 -0.24 l
0.15 0.73 l
0.14 0.48 l
0.15 0.96 l
0.14 1.21 l
0.15 0.24 l
0.14 1.55 l
0.15 -0.35 l
0.15 0.59 l
0.14 0.24 l
0.15 0.86 l
0.14 1.07 l
0.15 0.34 l
0.14 -0.34 l
0.15 -0.24 l
0.14 0.24 l
0.15 0.72 l
0.15 0.59 l
0.14 0.37 l
0.15 1.55 l
0.14 1.10 l
0.15 -0.24 l
0.14 1.31 l
0.15 -0.24 l
0.14 1.07 l
0.15 0 l
0.15 0.24 l
0.14 0.86 l
0.15 0.35 l
0.14 0.13 l
0.15 0.11 l
0.14 0.37 l
0.15 -0.24 l
0.14 0.72 l
0.15 0.83 l
0.15 1.31 l
0.14 -0.48 l
0.15 0.97 l
0.14 0.96 l
0.15 -0.72 l
0.14 1.09 l
0.15 0 l
0.15 0.59 l
0.14 0.48 l
0.15 0.73 l
0.14 -0.97 l
0.15 0.38 l
0.14 0.59 l
0.15 0.24 l
0.14 0 l
0.15 0.59 l
0.15 0.61 l
0.14 0.48 l
0.15 0.59 l
0.14 -0.10 l
0.15 0.24 l
0.14 1.07 l
0.15 0.13 l
0.14 0.59 l
0.15 -0.24 l
0.15 0.24 l
0.14 0.24 l
0.15 0.62 l
0.14 -0.49 l
0.15 0.59 l
0.14 0.35 l
0.15 -0.11 l
0.14 0.97 l
0.15 0.35 l
0.15 1.33 l
0.14 0 l
0.15 0.73 l
0.14 -0.49 l
0.15 0.35 l
0.14 -0.11 l
0.15 0.73 l
0.15 -0.14 l
0.14 0.62 l
0.15 0.11 l
0.14 -0.49 l
251.52 489.79 lineto
0.14 -0.13 l
0.15 0.37 l
0.14 0.59 l
0.15 1.68 l
0.15 0 l
0.14 0 l
0.15 -0.13 l
0.14 0.62 l
0.15 0.24 l
0.14 -0.24 l
0.15 -0.14 l
0.14 0.38 l
0.15 -0.14 l
0.15 0.48 l
0.14 0.14 l
0.15 0.24 l
0.14 -0.13 l
0.15 0.48 l
0.14 0.13 l
0.15 0.11 l
0.14 0.96 l
0.15 0.24 l
0.15 0.83 l
0.14 -0.11 l
0.15 0.25 l
0.14 0 l
0.15 0 l
0.14 -0.14 l
0.15 0.24 l
0.14 -0.10 l
0.15 0.72 l
0.15 -0.38 l
0.14 0 l
0.15 -0.10 l
0.14 0.72 l
0.15 0.72 l
0.14 0.72 l
0.15 0.25 l
0.15 -0.14 l
0.14 -0.24 l
0.15 0.38 l
0.14 -0.49 l
0.15 0.11 l
0.14 0.48 l
0.15 0 l
0.14 -0.10 l
0.15 -0.49 l
0.15 0.11 l
0.14 0.48 l
0.15 0.86 l
0.14 -0.14 l
0.15 0.38 l
0.14 0.83 l
0.15 -0.83 l
0.14 0.59 l
0.15 0.35 l
0.15 0.37 l
0.14 -0.13 l
0.15 -0.35 l
0.14 -0.13 l
0.15 0.24 l
0.14 -0.11 l
0.15 0.48 l
0.14 -0.37 l
0.15 0.48 l
0.15 -0.59 l
0.14 0.72 l
0.15 0.48 l
0.14 0.35 l
0.15 0.72 l
0.14 0 l
0.15 -0.24 l
0.15 0 l
0.14 -0.10 l
0.15 -0.14 l
0.14 0 l
0.15 0.86 l
0.14 -0.72 l
0.15 0 l
0.14 0.24 l
0.15 0.24 l
0.15 -0.38 l
0.14 -0.35 l
0.15 0.83 l
0.14 0.73 l
0.15 -0.24 l
0.14 0.61 l
0.15 0.24 l
0.14 -0.13 l
0.15 -0.35 l
0.15 0.11 l
0.14 0.24 l
0.15 -0.72 l
0.14 0.72 l
0.15 -0.48 l
0.14 0.24 l
0.15 -0.24 l
0.14 0.48 l
0.15 0.24 l
266.08 505.04 lineto
0.14 0.70 l
0.15 0.24 l
0.14 -0.11 l
0.15 0.11 l
0.14 0 l
0.15 0.13 l
0.15 -0.24 l
0.14 -0.48 l
0.15 0.48 l
0.14 -0.24 l
0.15 -0.11 l
0.14 0.35 l
0.15 0.35 l
0.14 -0.11 l
0.15 0.35 l
0.15 0.13 l
0.14 0.11 l
0.15 0.24 l
0.14 -0.24 l
0.15 0.48 l
0.14 -0.96 l
0.15 0.96 l
0.14 -0.72 l
0.15 0.48 l
0.15 -0.59 l
0.14 0.24 l
0.15 0.25 l
0.14 -0.49 l
0.15 0.49 l
0.14 0.10 l
0.15 0 l
0.14 -0.24 l
0.15 0.72 l
0.15 -0.10 l
0.14 -0.48 l
0.15 0.34 l
0.14 0.14 l
0.15 -0.62 l
0.14 0.48 l
0.15 0 l
0.15 -0.34 l
0.14 0.58 l
0.15 -0.24 l
0.14 0.62 l
0.15 -0.72 l
0.14 0.83 l
0.15 0.37 l
0.14 -0.72 l
0.15 0.72 l
0.15 -0.13 l
0.14 -0.11 l
0.15 0.11 l
0.14 -0.24 l
0.15 0.24 l
0.14 0.24 l
0.15 -0.24 l
0.14 -0.49 l
0.15 0 l
0.15 0 l
0.14 -0.10 l
0.15 0.48 l
0.14 0.48 l
0.15 0.24 l
0.14 -0.13 l
0.15 0.24 l
0.14 -0.48 l
0.15 0.13 l
0.15 -0.13 l
0.14 0.48 l
0.15 -0.35 l
0.14 0 l
0.15 -0.37 l
0.14 0.48 l
0.15 -0.59 l
0.15 -0.38 l
0.14 1.10 l
0.15 -0.37 l
0.14 -0.35 l
0.15 0.35 l
0.14 0.24 l
0.15 0 l
0.14 0.48 l
0.15 -0.35 l
0.15 0.48 l
0.14 -0.96 l
0.15 0 l
0.14 0.72 l
0.15 -0.13 l
0.14 -0.11 l
0.15 0 l
0.14 -0.37 l
0.15 0.37 l
0.15 -0.13 l
0.14 0.48 l
0.15 0.37 l
0.14 -0.61 l
0.15 0.61 l
0.14 -0.48 l
0.15 0.11 l
280.63 509.11 lineto
0.15 -0.35 l
0.15 0.24 l
0.14 0.35 l
0.15 -0.35 l
0.14 0.24 l
0.15 -0.37 l
0.14 -0.24 l
0.15 -0.11 l
0.15 0.48 l
0.14 0 l
0.15 0.35 l
0.14 -0.59 l
0.15 0.72 l
0.14 -1.20 l
0.15 0.48 l
0.14 -0.13 l
0.15 0.72 l
0.15 -0.35 l
0.14 -0.13 l
0.15 -0.11 l
0.14 0.11 l
0.15 -0.11 l
0.14 -0.24 l
0.15 0.11 l
0.14 -0.11 l
0.15 -0.13 l
0.15 0.85 l
0.14 0.59 l
0.15 -0.72 l
0.14 0 l
0.15 0 l
0.14 0 l
0.15 -0.24 l
0.14 0.72 l
0.15 0.14 l
0.15 -0.86 l
0.14 -0.11 l
0.15 0.24 l
0.14 -0.24 l
0.15 -0.13 l
0.14 0.24 l
0.15 0.61 l
0.14 -0.61 l
0.15 0.13 l
0.15 0.48 l
0.14 -0.48 l
0.15 0.35 l
0.14 -0.24 l
0.15 0 l
0.14 0.37 l
0.15 0 l
0.15 -0.48 l
0.14 -0.13 l
0.15 0 l
0.14 -0.11 l
0.15 -0.24 l
0.14 0.11 l
0.15 0 l
0.14 0.72 l
0.15 -0.11 l
0.15 0.49 l
0.14 -0.49 l
0.15 -0.13 l
0.14 -0.24 l
0.15 -0.35 l
0.14 0.35 l
0.15 0.13 l
0.14 -0.37 l
0.15 0.96 l
0.15 -0.96 l
0.14 0.37 l
0.15 -0.24 l
0.14 0.97 l
0.15 -0.62 l
0.14 0.48 l
0.15 -0.59 l
0.14 0.35 l
0.15 0.38 l
0.15 0.24 l
0.14 -0.97 l
0.15 -0.37 l
0.14 -0.11 l
0.15 0.83 l
0.14 -0.11 l
0.15 -0.85 l
0.15 1.20 l
0.14 -0.35 l
0.15 -0.61 l
0.14 0.24 l
0.15 0.37 l
0.14 0 l
0.15 -0.24 l
0.14 0.11 l
0.15 0.13 l
0.15 -0.24 l
0.14 -0.37 l
0.15 0.48 l
0.14 -0.35 l
0.15 0.59 l
295.19 509.00 lineto
0.15 0.24 l
0.14 -0.72 l
0.15 0 l
0.15 0.11 l
0.14 0.24 l
0.15 0.13 l
0.14 0.24 l
0.15 0 l
0.14 -0.37 l
0.15 0.37 l
0.14 -0.13 l
0.15 0 l
0.15 -0.59 l
0.14 0.83 l
0.15 -0.11 l
0.14 -0.13 l
0.15 0.24 l
0.14 -0.59 l
0.15 0.11 l
0.15 0.24 l
0.14 0.62 l
0.15 -0.25 l
0.14 -0.24 l
0.15 0.11 l
0.14 -0.35 l
0.15 0.24 l
0.14 0.11 l
0.15 0 l
0.15 0 l
0.14 -0.59 l
0.15 0.11 l
0.14 0.13 l
0.15 -0.13 l
0.14 0.24 l
0.15 -0.11 l
0.14 -0.48 l
0.15 -0.24 l
0.15 0.48 l
0.14 -0.13 l
0.15 0.13 l
0.14 0.35 l
0.15 -0.24 l
0.14 0.13 l
0.15 0 l
0.14 0 l
0.15 0.11 l
0.15 -0.35 l
0.14 0.11 l
0.15 -0.24 l
0.14 0.13 l
0.15 0 l
0.14 0.35 l
0.15 -0.24 l
0.15 0 l
0.14 0.72 l
0.15 -0.72 l
0.14 0 l
0.15 0.48 l
0.14 -0.59 l
0.15 0.35 l
0.14 -0.35 l
0.15 0.24 l
0.15 -0.37 l
0.14 -0.11 l
0.15 -0.13 l
0.14 0.48 l
0.15 -0.48 l
0.14 -0.35 l
0.15 0.35 l
0.14 -0.24 l
0.15 0.24 l
0.15 0 l
0.14 0.48 l
0.15 -0.11 l
0.14 0.24 l
0.15 -0.13 l
0.14 -0.72 l
0.15 0.13 l
0.14 0.11 l
0.15 -0.24 l
0.15 0.48 l
0.14 -0.11 l
0.15 0 l
0.14 -0.13 l
0.15 -0.11 l
0.14 0.35 l
0.15 0.13 l
0.15 0.59 l
0.14 -0.24 l
0.15 0.24 l
0.14 -0.72 l
0.15 0.61 l
0.14 -0.72 l
0.15 0.48 l
0.14 -0.37 l
0.15 0 l
0.15 0.48 l
0.14 -0.72 l
0.15 -0.11 l
309.75 508.15 lineto
0.15 0.37 l
0.14 -0.37 l
0.15 0.13 l
0.14 0.83 l
0.15 -0.24 l
0.15 0 l
0.14 0 l
0.15 -0.24 l
0.14 -0.72 l
0.15 0.96 l
0.14 -0.48 l
0.15 0 l
0.14 -0.24 l
0.15 -0.11 l
0.15 -0.38 l
0.14 0.86 l
0.15 -0.13 l
0.14 0.24 l
0.15 0.37 l
0.14 -0.37 l
0.15 0.37 l
0.15 -0.48 l
0.14 0 l
0.15 -0.13 l
0.14 -0.48 l
0.15 0.72 l
0.14 0 l
0.15 -0.35 l
0.14 -0.13 l
0.15 0.37 l
0.15 -0.24 l
0.14 -0.13 l
0.15 -0.49 l
0.14 0.73 l
0.15 0.61 l
0.14 0.11 l
0.15 -0.48 l
0.14 0.37 l
0.15 -0.13 l
0.15 -0.35 l
0.14 0.11 l
0.15 -0.35 l
0.14 0.11 l
0.15 -0.11 l
0.14 -0.13 l
0.15 0.37 l
0.14 -0.61 l
0.15 -0.73 l
0.15 0.73 l
0.14 0.72 l
0.15 -0.48 l
0.14 0.37 l
0.15 -0.37 l
0.14 -0.11 l
0.15 0.48 l
0.15 -0.13 l
0.14 0 l
0.15 -0.48 l
0.14 1.09 l
0.15 -0.61 l
0.14 -0.48 l
0.15 0.37 l
0.14 -0.86 l
0.15 0.49 l
0.15 0.13 l
0.14 0.24 l
0.15 0.11 l
0.14 0.24 l
0.15 0 l
0.14 -0.11 l
0.15 0.11 l
0.14 -1.07 l
0.15 0.96 l
0.15 0 l
0.14 -0.86 l
0.15 0.86 l
0.14 -0.24 l
0.15 -0.62 l
0.14 0.49 l
0.15 0.24 l
0.14 -0.83 l
0.15 0.48 l
0.15 0.24 l
0.14 0.11 l
0.15 -0.11 l
0.14 0.11 l
0.15 0 l
0.14 -0.11 l
0.15 -0.24 l
0.14 0.11 l
0.15 -0.49 l
0.15 0 l
0.14 0 l
0.15 -0.24 l
0.14 0.24 l
0.15 0.25 l
0.14 -0.49 l
0.15 0.86 l
0.15 -0.13 l
324.31 508.04 lineto
0.15 -0.24 l
0.14 0.59 l
0.15 -0.35 l
0.14 0 l
0.15 -0.48 l
0.14 0.35 l
0.15 0.24 l
0.15 0.37 l
0.14 -0.72 l
0.15 -0.14 l
0.14 -0.10 l
0.15 0.10 l
0.14 0 l
0.15 0.86 l
0.14 -0.13 l
0.15 0.24 l
0.15 -0.24 l
0.14 0 l
0.15 -0.35 l
0.14 0.24 l
0.15 -0.13 l
0.14 -0.11 l
0.15 0 l
0.14 -0.38 l
0.15 0.14 l
0.15 -0.38 l
0.14 0 l
0.15 0.24 l
0.14 0.25 l
0.15 0 l
0.14 -0.35 l
0.15 0.35 l
0.15 0.48 l
0.14 -0.35 l
0.15 0.11 l
0.14 0.24 l
0.15 -0.35 l
0.14 -0.48 l
0.15 0.24 l
0.14 0.24 l
0.15 -0.62 l
0.15 0.38 l
0.14 -0.48 l
0.15 0.10 l
0.14 0.62 l
0.15 -0.24 l
0.14 0.24 l
0.15 0.24 l
0.14 0.11 l
0.15 0.37 l
0.15 -0.96 l
0.14 0 l
0.15 0.35 l
0.14 0 l
0.15 -0.11 l
0.14 -0.13 l
0.15 -0.83 l
0.14 0.34 l
0.15 0.73 l
0.15 -0.35 l
0.14 0 l
0.15 -0.14 l
0.14 0.49 l
0.15 0.24 l
0.14 -0.48 l
0.15 0 l
0.15 -0.11 l
0.14 0 l
0.15 -0.14 l
0.14 0 l
0.15 -0.48 l
0.14 0 l
0.15 -0.10 l
0.14 0.24 l
0.15 0.24 l
0.15 0.24 l
0.14 -0.62 l
0.15 0.48 l
0.14 0.25 l
0.15 0.48 l
0.14 -0.48 l
0.15 0 l
0.14 -0.11 l
0.15 -0.38 l
0.15 0.14 l
0.14 0 l
0.15 0.24 l
0.14 -0.48 l
0.15 0.48 l
0.14 0.24 l
0.15 -0.24 l
0.14 0 l
0.15 0 l
0.15 0.72 l
0.14 0.35 l
0.15 -0.35 l
0.14 -0.24 l
0.15 0 l
0.14 -0.48 l
338.87 507.42 lineto
0.15 0.24 l
0.14 0 l
0.15 0.38 l
0.14 -0.48 l
0.15 0.48 l
0.14 -0.24 l
0.15 -0.14 l
0.14 0.62 l
0.15 -0.72 l
0.15 0.10 l
0.14 0.49 l
0.15 -0.59 l
0.14 0 l
0.15 0.24 l
0.14 -0.48 l
0.15 0.24 l
0.14 0.35 l
0.15 -0.97 l
0.15 0.48 l
0.14 -0.10 l
0.15 -0.14 l
0.14 0.62 l
0.15 -0.62 l
0.14 0.38 l
0.15 0.59 l
0.14 -0.24 l
0.15 -0.11 l
0.15 -0.14 l
0.14 -0.24 l
0.15 0.38 l
0.14 0.11 l
0.15 -0.35 l
0.14 0.48 l
0.15 -0.72 l
0.15 -0.14 l
0.14 0.62 l
0.15 0.24 l
0.14 -0.38 l
0.15 -0.24 l
0.14 0.38 l
0.15 0.35 l
0.14 -0.11 l
0.15 0 l
0.15 -0.38 l
0.14 0.14 l
0.15 -0.24 l
0.14 0.24 l
0.15 -0.38 l
0.14 -0.10 l
0.15 -0.24 l
0.14 -0.24 l
0.15 -0.25 l
0.15 1.07 l
0.14 0 l
0.15 0.14 l
0.14 -0.38 l
0.15 0.62 l
0.14 0 l
0.15 -0.86 l
0.14 0.14 l
0.15 0 l
0.15 0.59 l
0.14 -0.73 l
0.15 0.24 l
0.14 -0.24 l
0.15 0 l
0.14 0.62 l
0.15 0 l
0.15 0.24 l
0.14 -0.13 l
0.15 0.48 l
0.14 -0.11 l
0.15 -0.48 l
0.14 -0.62 l
0.15 0.38 l
0.14 0 l
0.15 0.10 l
0.15 -0.10 l
0.14 0 l
0.15 -0.48 l
0.14 0.24 l
0.15 -0.38 l
0.14 0.72 l
0.15 0.38 l
0.14 -0.62 l
0.15 0.49 l
0.15 -0.25 l
0.14 -0.34 l
0.15 -0.14 l
0.14 0.24 l
0.15 0 l
0.14 -0.34 l
0.15 -0.14 l
0.14 0.38 l
0.15 0.24 l
0.15 -0.48 l
0.14 0.34 l
0.15 -0.34 l
0.14 0.48 l
353.43 507.42 lineto
0.14 0.38 l
0.15 -0.24 l
0.14 0.10 l
0.15 -0.34 l
0.15 0.24 l
0.14 -0.24 l
0.15 0.10 l
0.14 0 l
0.15 -0.24 l
0.14 0.62 l
0.15 -0.72 l
0.15 0.24 l
0.14 0 l
0.15 0.24 l
0.14 0.10 l
0.15 0.25 l
0.14 0.13 l
0.15 -0.62 l
0.14 -0.24 l
0.15 0.14 l
0.15 0.34 l
0.14 -0.10 l
0.15 -0.72 l
0.14 0.48 l
0.15 -0.14 l
0.14 0.24 l
0.15 -0.24 l
0.14 0.62 l
0.15 -0.38 l
0.15 0.14 l
0.14 0.24 l
0.15 -0.14 l
0.14 -0.24 l
0.15 -0.24 l
0.14 -0.10 l
0.15 -0.14 l
0.14 0.62 l
0.15 0 l
0.15 -0.97 l
0.14 0.49 l
0.15 -0.49 l
0.14 0 l
0.15 0.73 l
0.14 0.10 l
0.15 0.14 l
0.15 -0.14 l
0.14 0.73 l
0.15 -0.83 l
0.14 0.59 l
0.15 -0.83 l
0.14 0.10 l
0.15 0.24 l
0.14 0 l
0.15 -0.10 l
0.15 -0.48 l
0.14 0.34 l
0.15 0.38 l
0.14 0.10 l
0.15 0 l
0.14 0.38 l
0.15 -0.24 l
0.14 -0.62 l
0.15 0.62 l
0.15 0 l
0.14 -0.72 l
0.15 0.34 l
0.14 0.14 l
0.15 -0.14 l
0.14 -0.34 l
0.15 0.10 l
0.14 -0.59 l
0.15 0.83 l
0.15 -0.72 l
0.14 0.24 l
0.15 0.62 l
0.14 0.35 l
0.15 -0.49 l
0.14 -0.34 l
0.15 0.24 l
0.15 0 l
0.14 -0.38 l
0.15 0.38 l
0.14 -0.24 l
0.15 0 l
0.14 -0.14 l
0.15 0.14 l
0.14 0.10 l
0.15 0.38 l
0.15 -0.14 l
0.14 0.73 l
0.15 -1.21 l
0.14 0.86 l
0.15 -0.24 l
0.14 0 l
0.15 0 l
0.14 0 l
0.15 0.10 l
0.15 -0.24 l
0.14 -0.48 l
currentpoint o m
367.99 507.66 lineto
0.14 -0.72 l
0.15 0.24 l
0.14 -0.34 l
0.15 0.10 l
0.14 1.21 l
0.15 -0.73 l
0.15 0.73 l
0.14 -0.97 l
0.15 -0.10 l
0.14 -0.24 l
0.15 0.82 l
0.14 -0.10 l
0.15 -0.38 l
0.15 -0.59 l
0.14 0.49 l
0.15 -0.97 l
0.14 1.45 l
0.15 -0.62 l
0.14 0 l
0.15 0.62 l
0.14 0.24 l
0.15 0 l
0.15 -0.14 l
0.14 -0.82 l
0.15 0.48 l
0.14 -0.24 l
0.15 0.10 l
0.14 -0.10 l
0.15 0 l
0.14 0.10 l
0.15 -0.24 l
0.15 0.14 l
0.14 0.10 l
0.15 0.62 l
0.14 0 l
0.15 -0.14 l
0.14 0.86 l
0.15 -0.61 l
0.14 -0.59 l
0.15 0 l
0.15 -0.38 l
0.14 0.72 l
0.15 -0.24 l
0.14 -0.34 l
0.15 0.48 l
0.14 -0.86 l
0.15 0.14 l
0.15 0.58 l
0.14 -0.48 l
0.15 0.24 l
0.14 0.24 l
0.15 -0.10 l
0.14 0.72 l
0.15 -0.96 l
0.14 0.34 l
0.15 -0.10 l
0.15 0 l
0.14 -0.24 l
0.15 0 l
0.14 0.10 l
0.15 -0.72 l
0.14 0.86 l
0.15 0.10 l
0.14 0.24 l
0.15 -0.10 l
0.15 0 l
0.14 -0.14 l
0.15 -0.10 l
0.14 0.48 l
0.15 -0.38 l
0.14 0.14 l
0.15 0 l
0.14 0.24 l
0.15 0 l
0.15 -0.72 l
0.14 0 l
0.15 -0.38 l
0.14 0.62 l
0.15 0.24 l
0.14 0.10 l
0.15 0.14 l
0.15 0.11 l
0.14 -0.49 l
0.15 -0.24 l
0.14 0.38 l
0.15 -0.24 l
0.14 0.34 l
0.15 -0.72 l
0.14 -0.35 l
0.15 0.11 l
0.15 0.38 l
0.14 0 l
0.15 0 l
0.14 0.24 l
0.15 0.24 l
0.14 0 l
0.15 -0.48 l
0.14 0.34 l
0.15 -0.48 l
o
/bg { 1 1 1 srgb } def
222.40 510.90 0.43 c p3
222.55 511.28 0.43 c p3
222.69 511.04 0.43 c p3
222.84 511.04 0.43 c p3
222.98 511.14 0.43 c p3
223.13 511.38 0.43 c p3
223.27 511.04 0.43 c p3
223.42 511.04 0.43 c p3
223.56 511.14 0.43 c p3
223.71 510.69 0.43 c p3
223.86 510.31 0.43 c p3
224.00 510.90 0.43 c p3
224.15 510.69 0.43 c p3
224.29 510.80 0.43 c p3
224.44 511.38 0.43 c p3
224.58 511.28 0.43 c p3
224.73 510.80 0.43 c p3
224.87 511.38 0.43 c p3
225.02 510.69 0.43 c p3
225.17 510.45 0.43 c p3
225.31 510.90 0.43 c p3
225.46 511.28 0.43 c p3
225.60 511.14 0.43 c p3
225.75 510.55 0.43 c p3
225.89 510.69 0.43 c p3
226.04 510.31 0.43 c p3
226.19 510.45 0.43 c p3
226.33 511.04 0.43 c p3
226.48 510.69 0.43 c p3
226.62 511.38 0.43 c p3
226.77 511.76 0.43 c p3
226.91 511.28 0.43 c p3
227.06 511.28 0.43 c p3
227.20 511.04 0.43 c p3
227.35 511.38 0.43 c p3
227.50 511.38 0.43 c p3
227.64 511.28 0.43 c p3
227.79 511.28 0.43 c p3
227.93 511.04 0.43 c p3
228.08 511.14 0.43 c p3
228.22 510.69 0.43 c p3
228.37 511.04 0.43 c p3
228.51 511.38 0.43 c p3
228.66 511.38 0.43 c p3
228.81 511.04 0.43 c p3
228.95 511.28 0.43 c p3
229.10 511.52 0.43 c p3
229.24 511.63 0.43 c p3
229.39 510.80 0.43 c p3
229.53 510.90 0.43 c p3
229.68 511.38 0.43 c p3
229.82 510.90 0.43 c p3
229.97 511.04 0.43 c p3
230.12 511.04 0.43 c p3
230.26 510.90 0.43 c p3
230.41 510.21 0.43 c p3
230.55 510.80 0.43 c p3
230.70 510.90 0.43 c p3
230.84 510.80 0.43 c p3
230.99 510.55 0.43 c p3
231.14 510.80 0.43 c p3
231.28 510.69 0.43 c p3
231.43 510.90 0.43 c p3
231.57 510.90 0.43 c p3
231.72 511.14 0.43 c p3
231.86 510.90 0.43 c p3
232.01 511.04 0.43 c p3
232.15 510.80 0.43 c p3
232.30 511.04 0.43 c p3
232.45 511.14 0.43 c p3
232.59 511.14 0.43 c p3
232.74 511.38 0.43 c p3
232.88 511.28 0.43 c p3
233.03 511.28 0.43 c p3
233.17 511.63 0.43 c p3
233.32 510.80 0.43 c p3
233.46 511.04 0.43 c p3
233.61 511.63 0.43 c p3
233.76 511.04 0.43 c p3
233.90 511.38 0.43 c p3
234.05 511.04 0.43 c p3
234.19 511.04 0.43 c p3
234.34 510.80 0.43 c p3
234.48 510.69 0.43 c p3
234.63 511.52 0.43 c p3
234.77 512.00 0.43 c p3
234.92 511.14 0.43 c p3
235.07 511.14 0.43 c p3
235.21 511.38 0.43 c p3
235.36 510.80 0.43 c p3
235.50 510.69 0.43 c p3
235.65 510.90 0.43 c p3
235.79 510.80 0.43 c p3
235.94 511.38 0.43 c p3
236.09 511.04 0.43 c p3
236.23 510.90 0.43 c p3
236.38 510.80 0.43 c p3
236.52 510.45 0.43 c p3
236.67 510.90 0.43 c p3
236.81 510.90 0.43 c p3
236.96 456.02 0.43 c p3
237.10 443.16 0.43 c p3
237.25 445.34 0.43 c p3
237.40 446.30 0.43 c p3
237.54 447.99 0.43 c p3
237.69 448.82 0.43 c p3
237.83 449.54 0.43 c p3
237.98 450.26 0.43 c p3
238.12 451.23 0.43 c p3
238.27 451.58 0.43 c p3
238.41 452.91 0.43 c p3
238.56 453.39 0.43 c p3
238.71 453.26 0.43 c p3
238.85 454.57 0.43 c p3
239.00 455.54 0.43 c p3
239.14 455.43 0.43 c p3
239.29 456.87 0.43 c p3
239.43 457.22 0.43 c p3
239.58 457.36 0.43 c p3
239.72 457.94 0.43 c p3
239.87 457.70 0.43 c p3
240.02 458.43 0.43 c p3
240.16 458.91 0.43 c p3
240.31 459.87 0.43 c p3
240.45 461.08 0.43 c p3
240.60 461.32 0.43 c p3
240.74 462.87 0.43 c p3
240.89 462.52 0.43 c p3
241.04 463.11 0.43 c p3
241.18 463.35 0.43 c p3
241.33 464.21 0.43 c p3
241.47 465.28 0.43 c p3
241.62 465.62 0.43 c p3
241.76 465.28 0.43 c p3
241.91 465.04 0.43 c p3
242.05 465.28 0.43 c p3
242.20 466.00 0.43 c p3
242.35 466.59 0.43 c p3
242.49 466.96 0.43 c p3
242.64 468.51 0.43 c p3
242.78 469.61 0.43 c p3
242.93 469.37 0.43 c p3
243.07 470.68 0.43 c p3
243.22 470.44 0.43 c p3
243.36 471.51 0.43 c p3
243.51 471.51 0.43 c p3
243.66 471.75 0.43 c p3
243.80 472.61 0.43 c p3
243.95 472.96 0.43 c p3
244.09 473.09 0.43 c p3
244.24 473.20 0.43 c p3
244.38 473.57 0.43 c p3
244.53 473.33 0.43 c p3
244.67 474.05 0.43 c p3
244.82 474.88 0.43 c p3
244.97 476.19 0.43 c p3
245.11 475.71 0.43 c p3
245.26 476.68 0.43 c p3
245.40 477.64 0.43 c p3
245.55 476.92 0.43 c p3
245.69 478.01 0.43 c p3
245.84 478.01 0.43 c p3
245.99 478.60 0.43 c p3
246.13 479.08 0.43 c p3
246.28 479.81 0.43 c p3
246.42 478.84 0.43 c p3
246.57 479.22 0.43 c p3
246.71 479.81 0.43 c p3
246.86 480.05 0.43 c p3
247.00 480.05 0.43 c p3
247.15 480.64 0.43 c p3
247.30 481.25 0.43 c p3
247.44 481.73 0.43 c p3
247.59 482.32 0.43 c p3
247.73 482.22 0.43 c p3
247.88 482.46 0.43 c p3
248.02 483.53 0.43 c p3
248.17 483.66 0.43 c p3
248.31 484.25 0.43 c p3
248.46 484.01 0.43 c p3
248.61 484.25 0.43 c p3
248.75 484.49 0.43 c p3
248.90 485.11 0.43 c p3
249.04 484.62 0.43 c p3
249.19 485.21 0.43 c p3
249.33 485.56 0.43 c p3
249.48 485.45 0.43 c p3
249.62 486.42 0.43 c p3
249.77 486.77 0.43 c p3
249.92 488.10 0.43 c p3
250.06 488.10 0.43 c p3
250.21 488.83 0.43 c p3
250.35 488.34 0.43 c p3
250.50 488.69 0.43 c p3
250.64 488.58 0.43 c p3
250.79 489.31 0.43 c p3
250.94 489.17 0.43 c p3
251.08 489.79 0.43 c p3
251.23 489.90 0.43 c p3
251.37 489.41 0.43 c p3
251.52 489.79 0.43 c p3
251.66 489.66 0.43 c p3
251.81 490.03 0.43 c p3
251.95 490.62 0.43 c p3
252.10 492.30 0.43 c p3
252.25 492.30 0.43 c p3
252.39 492.30 0.43 c p3
252.54 492.17 0.43 c p3
252.68 492.79 0.43 c p3
252.83 493.03 0.43 c p3
252.97 492.79 0.43 c p3
253.12 492.65 0.43 c p3
253.26 493.03 0.43 c p3
253.41 492.89 0.43 c p3
253.56 493.37 0.43 c p3
253.70 493.51 0.43 c p3
253.85 493.75 0.43 c p3
253.99 493.62 0.43 c p3
254.14 494.10 0.43 c p3
254.28 494.23 0.43 c p3
254.43 494.34 0.43 c p3
254.57 495.30 0.43 c p3
254.72 495.54 0.43 c p3
254.87 496.37 0.43 c p3
255.01 496.26 0.43 c p3
255.16 496.51 0.43 c p3
255.30 496.51 0.43 c p3
255.45 496.51 0.43 c p3
255.59 496.37 0.43 c p3
255.74 496.61 0.43 c p3
255.88 496.51 0.43 c p3
256.03 497.23 0.43 c p3
256.18 496.85 0.43 c p3
256.32 496.85 0.43 c p3
256.47 496.75 0.43 c p3
256.61 497.47 0.43 c p3
256.76 498.19 0.43 c p3
256.90 498.91 0.43 c p3
257.05 499.16 0.43 c p3
257.20 499.02 0.43 c p3
257.34 498.78 0.43 c p3
257.49 499.16 0.43 c p3
257.63 498.67 0.43 c p3
257.78 498.78 0.43 c p3
257.92 499.26 0.43 c p3
258.07 499.26 0.43 c p3
258.21 499.16 0.43 c p3
258.36 498.67 0.43 c p3
258.51 498.78 0.43 c p3
258.65 499.26 0.43 c p3
258.80 500.12 0.43 c p3
258.94 499.98 0.43 c p3
259.09 500.36 0.43 c p3
259.23 501.19 0.43 c p3
259.38 500.36 0.43 c p3
259.52 500.95 0.43 c p3
259.67 501.30 0.43 c p3
259.82 501.67 0.43 c p3
259.96 501.54 0.43 c p3
260.11 501.19 0.43 c p3
260.25 501.06 0.43 c p3
260.40 501.30 0.43 c p3
260.54 501.19 0.43 c p3
260.69 501.67 0.43 c p3
260.83 501.30 0.43 c p3
260.98 501.78 0.43 c p3
261.13 501.19 0.43 c p3
261.27 501.91 0.43 c p3
261.42 502.39 0.43 c p3
261.56 502.74 0.43 c p3
261.71 503.46 0.43 c p3
261.85 503.46 0.43 c p3
262.00 503.22 0.43 c p3
262.15 503.22 0.43 c p3
262.29 503.12 0.43 c p3
262.44 502.98 0.43 c p3
262.58 502.98 0.43 c p3
262.73 503.84 0.43 c p3
262.87 503.12 0.43 c p3
263.02 503.12 0.43 c p3
263.16 503.36 0.43 c p3
263.31 503.60 0.43 c p3
263.46 503.22 0.43 c p3
263.60 502.87 0.43 c p3
263.75 503.70 0.43 c p3
263.89 504.43 0.43 c p3
264.04 504.19 0.43 c p3
264.18 504.80 0.43 c p3
264.33 505.04 0.43 c p3
264.47 504.91 0.43 c p3
264.62 504.56 0.43 c p3
264.77 504.67 0.43 c p3
264.91 504.91 0.43 c p3
265.06 504.19 0.43 c p3
265.20 504.91 0.43 c p3
265.35 504.43 0.43 c p3
265.49 504.67 0.43 c p3
265.64 504.43 0.43 c p3
265.78 504.91 0.43 c p3
265.93 505.15 0.43 c p3
266.08 505.04 0.43 c p3
266.22 505.74 0.43 c p3
266.37 505.98 0.43 c p3
266.51 505.87 0.43 c p3
266.66 505.98 0.43 c p3
266.80 505.98 0.43 c p3
266.95 506.11 0.43 c p3
267.10 505.87 0.43 c p3
267.24 505.39 0.43 c p3
267.39 505.87 0.43 c p3
267.53 505.63 0.43 c p3
267.68 505.52 0.43 c p3
267.82 505.87 0.43 c p3
267.97 506.22 0.43 c p3
268.11 506.11 0.43 c p3
268.26 506.46 0.43 c p3
268.41 506.59 0.43 c p3
268.55 506.70 0.43 c p3
268.70 506.94 0.43 c p3
268.84 506.70 0.43 c p3
268.99 507.18 0.43 c p3
269.13 506.22 0.43 c p3
269.28 507.18 0.43 c p3
269.42 506.46 0.43 c p3
269.57 506.94 0.43 c p3
269.72 506.35 0.43 c p3
269.86 506.59 0.43 c p3
270.01 506.84 0.43 c p3
270.15 506.35 0.43 c p3
270.30 506.84 0.43 c p3
270.44 506.94 0.43 c p3
270.59 506.94 0.43 c p3
270.73 506.70 0.43 c p3
270.88 507.42 0.43 c p3
271.03 507.32 0.43 c p3
271.17 506.84 0.43 c p3
271.32 507.18 0.43 c p3
271.46 507.32 0.43 c p3
271.61 506.70 0.43 c p3
271.75 507.18 0.43 c p3
271.90 507.18 0.43 c p3
272.05 506.84 0.43 c p3
272.19 507.42 0.43 c p3
272.34 507.18 0.43 c p3
272.48 507.80 0.43 c p3
272.63 507.08 0.43 c p3
272.77 507.91 0.43 c p3
272.92 508.28 0.43 c p3
273.06 507.56 0.43 c p3
273.21 508.28 0.43 c p3
273.36 508.15 0.43 c p3
273.50 508.04 0.43 c p3
273.65 508.15 0.43 c p3
273.79 507.91 0.43 c p3
273.94 508.15 0.43 c p3
274.08 508.39 0.43 c p3
274.23 508.15 0.43 c p3
274.37 507.66 0.43 c p3
274.52 507.66 0.43 c p3
274.67 507.66 0.43 c p3
274.81 507.56 0.43 c p3
274.96 508.04 0.43 c p3
275.10 508.52 0.43 c p3
275.25 508.76 0.43 c p3
275.39 508.63 0.43 c p3
275.54 508.87 0.43 c p3
275.68 508.39 0.43 c p3
275.83 508.52 0.43 c p3
275.98 508.39 0.43 c p3
276.12 508.87 0.43 c p3
276.27 508.52 0.43 c p3
276.41 508.52 0.43 c p3
276.56 508.15 0.43 c p3
276.70 508.63 0.43 c p3
276.85 508.04 0.43 c p3
277.00 507.66 0.43 c p3
277.14 508.76 0.43 c p3
277.29 508.39 0.43 c p3
277.43 508.04 0.43 c p3
277.58 508.39 0.43 c p3
277.72 508.63 0.43 c p3
277.87 508.63 0.43 c p3
278.01 509.11 0.43 c p3
278.16 508.76 0.43 c p3
278.31 509.24 0.43 c p3
278.45 508.28 0.43 c p3
278.60 508.28 0.43 c p3
278.74 509.00 0.43 c p3
278.89 508.87 0.43 c p3
279.03 508.76 0.43 c p3
279.18 508.76 0.43 c p3
279.32 508.39 0.43 c p3
279.47 508.76 0.43 c p3
279.62 508.63 0.43 c p3
279.76 509.11 0.43 c p3
279.91 509.48 0.43 c p3
280.05 508.87 0.43 c p3
280.20 509.48 0.43 c p3
280.34 509.00 0.43 c p3
280.49 509.11 0.43 c p3
280.63 509.11 0.43 c p3
280.78 508.76 0.43 c p3
280.93 509.00 0.43 c p3
281.07 509.35 0.43 c p3
281.22 509.00 0.43 c p3
281.36 509.24 0.43 c p3
281.51 508.87 0.43 c p3
281.65 508.63 0.43 c p3
281.80 508.52 0.43 c p3
281.95 509.00 0.43 c p3
282.09 509.00 0.43 c p3
282.24 509.35 0.43 c p3
282.38 508.76 0.43 c p3
282.53 509.48 0.43 c p3
282.67 508.28 0.43 c p3
282.82 508.76 0.43 c p3
282.96 508.63 0.43 c p3
283.11 509.35 0.43 c p3
283.26 509.00 0.43 c p3
283.40 508.87 0.43 c p3
283.55 508.76 0.43 c p3
283.69 508.87 0.43 c p3
283.84 508.76 0.43 c p3
283.98 508.52 0.43 c p3
284.13 508.63 0.43 c p3
284.27 508.52 0.43 c p3
284.42 508.39 0.43 c p3
284.57 509.24 0.43 c p3
284.71 509.83 0.43 c p3
284.86 509.11 0.43 c p3
285.00 509.11 0.43 c p3
285.15 509.11 0.43 c p3
285.29 509.11 0.43 c p3
285.44 508.87 0.43 c p3
285.58 509.59 0.43 c p3
285.73 509.73 0.43 c p3
285.88 508.87 0.43 c p3
286.02 508.76 0.43 c p3
286.17 509.00 0.43 c p3
286.31 508.76 0.43 c p3
286.46 508.63 0.43 c p3
286.60 508.87 0.43 c p3
286.75 509.48 0.43 c p3
286.89 508.87 0.43 c p3
287.04 509.00 0.43 c p3
287.19 509.48 0.43 c p3
287.33 509.00 0.43 c p3
287.48 509.35 0.43 c p3
287.62 509.11 0.43 c p3
287.77 509.11 0.43 c p3
287.91 509.48 0.43 c p3
288.06 509.48 0.43 c p3
288.21 509.00 0.43 c p3
288.35 508.87 0.43 c p3
288.50 508.87 0.43 c p3
288.64 508.76 0.43 c p3
288.79 508.52 0.43 c p3
288.93 508.63 0.43 c p3
289.08 508.63 0.43 c p3
289.22 509.35 0.43 c p3
289.37 509.24 0.43 c p3
289.52 509.73 0.43 c p3
289.66 509.24 0.43 c p3
289.81 509.11 0.43 c p3
289.95 508.87 0.43 c p3
290.10 508.52 0.43 c p3
290.24 508.87 0.43 c p3
290.39 509.00 0.43 c p3
290.53 508.63 0.43 c p3
290.68 509.59 0.43 c p3
290.83 508.63 0.43 c p3
290.97 509.00 0.43 c p3
291.12 508.76 0.43 c p3
291.26 509.73 0.43 c p3
291.41 509.11 0.43 c p3
291.55 509.59 0.43 c p3
291.70 509.00 0.43 c p3
291.84 509.35 0.43 c p3
291.99 509.73 0.43 c p3
292.14 509.97 0.43 c p3
292.28 509.00 0.43 c p3
292.43 508.63 0.43 c p3
292.57 508.52 0.43 c p3
292.72 509.35 0.43 c p3
292.86 509.24 0.43 c p3
293.01 508.39 0.43 c p3
293.16 509.59 0.43 c p3
293.30 509.24 0.43 c p3
293.45 508.63 0.43 c p3
293.59 508.87 0.43 c p3
293.74 509.24 0.43 c p3
293.88 509.24 0.43 c p3
294.03 509.00 0.43 c p3
294.17 509.11 0.43 c p3
294.32 509.24 0.43 c p3
294.47 509.00 0.43 c p3
294.61 508.63 0.43 c p3
294.76 509.11 0.43 c p3
294.90 508.76 0.43 c p3
295.05 509.35 0.43 c p3
295.19 509.00 0.43 c p3
295.34 509.24 0.43 c p3
295.48 508.52 0.43 c p3
295.63 508.52 0.43 c p3
295.78 508.63 0.43 c p3
295.92 508.87 0.43 c p3
296.07 509.00 0.43 c p3
296.21 509.24 0.43 c p3
296.36 509.24 0.43 c p3
296.50 508.87 0.43 c p3
296.65 509.24 0.43 c p3
296.79 509.11 0.43 c p3
296.94 509.11 0.43 c p3
297.09 508.52 0.43 c p3
297.23 509.35 0.43 c p3
297.38 509.24 0.43 c p3
297.52 509.11 0.43 c p3
297.67 509.35 0.43 c p3
297.81 508.76 0.43 c p3
297.96 508.87 0.43 c p3
298.11 509.11 0.43 c p3
298.25 509.73 0.43 c p3
298.40 509.48 0.43 c p3
298.54 509.24 0.43 c p3
298.69 509.35 0.43 c p3
298.83 509.00 0.43 c p3
298.98 509.24 0.43 c p3
299.12 509.35 0.43 c p3
299.27 509.35 0.43 c p3
299.42 509.35 0.43 c p3
299.56 508.76 0.43 c p3
299.71 508.87 0.43 c p3
299.85 509.00 0.43 c p3
300.00 508.87 0.43 c p3
300.14 509.11 0.43 c p3
300.29 509.00 0.43 c p3
300.43 508.52 0.43 c p3
300.58 508.28 0.43 c p3
300.73 508.76 0.43 c p3
300.87 508.63 0.43 c p3
301.02 508.76 0.43 c p3
301.16 509.11 0.43 c p3
301.31 508.87 0.43 c p3
301.45 509.00 0.43 c p3
301.60 509.00 0.43 c p3
301.74 509.00 0.43 c p3
301.89 509.11 0.43 c p3
302.04 508.76 0.43 c p3
302.18 508.87 0.43 c p3
302.33 508.63 0.43 c p3
302.47 508.76 0.43 c p3
302.62 508.76 0.43 c p3
302.76 509.11 0.43 c p3
302.91 508.87 0.43 c p3
303.06 508.87 0.43 c p3
303.20 509.59 0.43 c p3
303.35 508.87 0.43 c p3
303.49 508.87 0.43 c p3
303.64 509.35 0.43 c p3
303.78 508.76 0.43 c p3
303.93 509.11 0.43 c p3
304.07 508.76 0.43 c p3
304.22 509.00 0.43 c p3
304.37 508.63 0.43 c p3
304.51 508.52 0.43 c p3
304.66 508.39 0.43 c p3
304.80 508.87 0.43 c p3
304.95 508.39 0.43 c p3
305.09 508.04 0.43 c p3
305.24 508.39 0.43 c p3
305.38 508.15 0.43 c p3
305.53 508.39 0.43 c p3
305.68 508.39 0.43 c p3
305.82 508.87 0.43 c p3
305.97 508.76 0.43 c p3
306.11 509.00 0.43 c p3
306.26 508.87 0.43 c p3
306.40 508.15 0.43 c p3
306.55 508.28 0.43 c p3
306.69 508.39 0.43 c p3
306.84 508.15 0.43 c p3
306.99 508.63 0.43 c p3
307.13 508.52 0.43 c p3
307.28 508.52 0.43 c p3
307.42 508.39 0.43 c p3
307.57 508.28 0.43 c p3
307.71 508.63 0.43 c p3
307.86 508.76 0.43 c p3
308.01 509.35 0.43 c p3
308.15 509.11 0.43 c p3
308.30 509.35 0.43 c p3
308.44 508.63 0.43 c p3
308.59 509.24 0.43 c p3
308.73 508.52 0.43 c p3
308.88 509.00 0.43 c p3
309.02 508.63 0.43 c p3
309.17 508.63 0.43 c p3
309.32 509.11 0.43 c p3
309.46 508.39 0.43 c p3
309.61 508.28 0.43 c p3
309.75 508.15 0.43 c p3
309.90 508.52 0.43 c p3
310.04 508.15 0.43 c p3
310.19 508.28 0.43 c p3
310.33 509.11 0.43 c p3
310.48 508.87 0.43 c p3
310.63 508.87 0.43 c p3
310.77 508.87 0.43 c p3
310.92 508.63 0.43 c p3
311.06 507.91 0.43 c p3
311.21 508.87 0.43 c p3
311.35 508.39 0.43 c p3
311.50 508.39 0.43 c p3
311.64 508.15 0.43 c p3
311.79 508.04 0.43 c p3
311.94 507.66 0.43 c p3
312.08 508.52 0.43 c p3
312.23 508.39 0.43 c p3
312.37 508.63 0.43 c p3
312.52 509.00 0.43 c p3
312.66 508.63 0.43 c p3
312.81 509.00 0.43 c p3
312.96 508.52 0.43 c p3
313.10 508.52 0.43 c p3
313.25 508.39 0.43 c p3
313.39 507.91 0.43 c p3
313.54 508.63 0.43 c p3
313.68 508.63 0.43 c p3
313.83 508.28 0.43 c p3
313.97 508.15 0.43 c p3
314.12 508.52 0.43 c p3
314.27 508.28 0.43 c p3
314.41 508.15 0.43 c p3
314.56 507.66 0.43 c p3
314.70 508.39 0.43 c p3
314.85 509.00 0.43 c p3
314.99 509.11 0.43 c p3
315.14 508.63 0.43 c p3
315.28 509.00 0.43 c p3
315.43 508.87 0.43 c p3
315.58 508.52 0.43 c p3
315.72 508.63 0.43 c p3
315.87 508.28 0.43 c p3
316.01 508.39 0.43 c p3
316.16 508.28 0.43 c p3
316.30 508.15 0.43 c p3
316.45 508.52 0.43 c p3
316.59 507.91 0.43 c p3
316.74 507.18 0.43 c p3
316.89 507.91 0.43 c p3
317.03 508.63 0.43 c p3
317.18 508.15 0.43 c p3
317.32 508.52 0.43 c p3
317.47 508.15 0.43 c p3
317.61 508.04 0.43 c p3
317.76 508.52 0.43 c p3
317.91 508.39 0.43 c p3
318.05 508.39 0.43 c p3
318.20 507.91 0.43 c p3
318.34 509.00 0.43 c p3
318.49 508.39 0.43 c p3
318.63 507.91 0.43 c p3
318.78 508.28 0.43 c p3
318.92 507.42 0.43 c p3
319.07 507.91 0.43 c p3
319.22 508.04 0.43 c p3
319.36 508.28 0.43 c p3
319.51 508.39 0.43 c p3
319.65 508.63 0.43 c p3
319.80 508.63 0.43 c p3
319.94 508.52 0.43 c p3
320.09 508.63 0.43 c p3
320.23 507.56 0.43 c p3
320.38 508.52 0.43 c p3
320.53 508.52 0.43 c p3
320.67 507.66 0.43 c p3
320.82 508.52 0.43 c p3
320.96 508.28 0.43 c p3
321.11 507.66 0.43 c p3
321.25 508.15 0.43 c p3
321.40 508.39 0.43 c p3
321.54 507.56 0.43 c p3
321.69 508.04 0.43 c p3
321.84 508.28 0.43 c p3
321.98 508.39 0.43 c p3
322.13 508.28 0.43 c p3
322.27 508.39 0.43 c p3
322.42 508.39 0.43 c p3
322.56 508.28 0.43 c p3
322.71 508.04 0.43 c p3
322.85 508.15 0.43 c p3
323.00 507.66 0.43 c p3
323.15 507.66 0.43 c p3
323.29 507.66 0.43 c p3
323.44 507.42 0.43 c p3
323.58 507.66 0.43 c p3
323.73 507.91 0.43 c p3
323.87 507.42 0.43 c p3
324.02 508.28 0.43 c p3
324.17 508.15 0.43 c p3
324.31 508.04 0.43 c p3
324.46 507.80 0.43 c p3
324.60 508.39 0.43 c p3
324.75 508.04 0.43 c p3
324.89 508.04 0.43 c p3
325.04 507.56 0.43 c p3
325.18 507.91 0.43 c p3
325.33 508.15 0.43 c p3
325.48 508.52 0.43 c p3
325.62 507.80 0.43 c p3
325.77 507.66 0.43 c p3
325.91 507.56 0.43 c p3
326.06 507.66 0.43 c p3
326.20 507.66 0.43 c p3
326.35 508.52 0.43 c p3
326.49 508.39 0.43 c p3
326.64 508.63 0.43 c p3
326.79 508.39 0.43 c p3
326.93 508.39 0.43 c p3
327.08 508.04 0.43 c p3
327.22 508.28 0.43 c p3
327.37 508.15 0.43 c p3
327.51 508.04 0.43 c p3
327.66 508.04 0.43 c p3
327.80 507.66 0.43 c p3
327.95 507.80 0.43 c p3
328.10 507.42 0.43 c p3
328.24 507.42 0.43 c p3
328.39 507.66 0.43 c p3
328.53 507.91 0.43 c p3
328.68 507.91 0.43 c p3
328.82 507.56 0.43 c p3
328.97 507.91 0.43 c p3
329.12 508.39 0.43 c p3
329.26 508.04 0.43 c p3
329.41 508.15 0.43 c p3
329.55 508.39 0.43 c p3
329.70 508.04 0.43 c p3
329.84 507.56 0.43 c p3
329.99 507.80 0.43 c p3
330.13 508.04 0.43 c p3
330.28 507.42 0.43 c p3
330.43 507.80 0.43 c p3
330.57 507.32 0.43 c p3
330.72 507.42 0.43 c p3
330.86 508.04 0.43 c p3
331.01 507.80 0.43 c p3
331.15 508.04 0.43 c p3
331.30 508.28 0.43 c p3
331.44 508.39 0.43 c p3
331.59 508.76 0.43 c p3
331.74 507.80 0.43 c p3
331.88 507.80 0.43 c p3
332.03 508.15 0.43 c p3
332.17 508.15 0.43 c p3
332.32 508.04 0.43 c p3
332.46 507.91 0.43 c p3
332.61 507.08 0.43 c p3
332.75 507.42 0.43 c p3
332.90 508.15 0.43 c p3
333.05 507.80 0.43 c p3
333.19 507.80 0.43 c p3
333.34 507.66 0.43 c p3
333.48 508.15 0.43 c p3
333.63 508.39 0.43 c p3
333.77 507.91 0.43 c p3
333.92 507.91 0.43 c p3
334.07 507.80 0.43 c p3
334.21 507.80 0.43 c p3
334.36 507.66 0.43 c p3
334.50 507.66 0.43 c p3
334.65 507.18 0.43 c p3
334.79 507.18 0.43 c p3
334.94 507.08 0.43 c p3
335.08 507.32 0.43 c p3
335.23 507.56 0.43 c p3
335.38 507.80 0.43 c p3
335.52 507.18 0.43 c p3
335.67 507.66 0.43 c p3
335.81 507.91 0.43 c p3
335.96 508.39 0.43 c p3
336.10 507.91 0.43 c p3
336.25 507.91 0.43 c p3
336.39 507.80 0.43 c p3
336.54 507.42 0.43 c p3
336.69 507.56 0.43 c p3
336.83 507.56 0.43 c p3
336.98 507.80 0.43 c p3
337.12 507.32 0.43 c p3
337.27 507.80 0.43 c p3
337.41 508.04 0.43 c p3
337.56 507.80 0.43 c p3
337.70 507.80 0.43 c p3
337.85 507.80 0.43 c p3
338.00 508.52 0.43 c p3
338.14 508.87 0.43 c p3
338.29 508.52 0.43 c p3
338.43 508.28 0.43 c p3
338.58 508.28 0.43 c p3
338.72 507.80 0.43 c p3
338.87 507.42 0.43 c p3
339.02 507.66 0.43 c p3
339.16 507.66 0.43 c p3
339.31 508.04 0.43 c p3
339.45 507.56 0.43 c p3
339.60 508.04 0.43 c p3
339.74 507.80 0.43 c p3
339.89 507.66 0.43 c p3
340.03 508.28 0.43 c p3
340.18 507.56 0.43 c p3
340.33 507.66 0.43 c p3
340.47 508.15 0.43 c p3
340.62 507.56 0.43 c p3
340.76 507.56 0.43 c p3
340.91 507.80 0.43 c p3
341.05 507.32 0.43 c p3
341.20 507.56 0.43 c p3
341.34 507.91 0.43 c p3
341.49 506.94 0.43 c p3
341.64 507.42 0.43 c p3
341.78 507.32 0.43 c p3
341.93 507.18 0.43 c p3
342.07 507.80 0.43 c p3
342.22 507.18 0.43 c p3
342.36 507.56 0.43 c p3
342.51 508.15 0.43 c p3
342.65 507.91 0.43 c p3
342.80 507.80 0.43 c p3
342.95 507.66 0.43 c p3
343.09 507.42 0.43 c p3
343.24 507.80 0.43 c p3
343.38 507.91 0.43 c p3
343.53 507.56 0.43 c p3
343.67 508.04 0.43 c p3
343.82 507.32 0.43 c p3
343.97 507.18 0.43 c p3
344.11 507.80 0.43 c p3
344.26 508.04 0.43 c p3
344.40 507.66 0.43 c p3
344.55 507.42 0.43 c p3
344.69 507.80 0.43 c p3
344.84 508.15 0.43 c p3
344.98 508.04 0.43 c p3
345.13 508.04 0.43 c p3
345.28 507.66 0.43 c p3
345.42 507.80 0.43 c p3
345.57 507.56 0.43 c p3
345.71 507.80 0.43 c p3
345.86 507.42 0.43 c p3
346.00 507.32 0.43 c p3
346.15 507.08 0.43 c p3
346.29 506.84 0.43 c p3
346.44 506.59 0.43 c p3
346.59 507.66 0.43 c p3
346.73 507.66 0.43 c p3
346.88 507.80 0.43 c p3
347.02 507.42 0.43 c p3
347.17 508.04 0.43 c p3
347.31 508.04 0.43 c p3
347.46 507.18 0.43 c p3
347.60 507.32 0.43 c p3
347.75 507.32 0.43 c p3
347.90 507.91 0.43 c p3
348.04 507.18 0.43 c p3
348.19 507.42 0.43 c p3
348.33 507.18 0.43 c p3
348.48 507.18 0.43 c p3
348.62 507.80 0.43 c p3
348.77 507.80 0.43 c p3
348.92 508.04 0.43 c p3
349.06 507.91 0.43 c p3
349.21 508.39 0.43 c p3
349.35 508.28 0.43 c p3
349.50 507.80 0.43 c p3
349.64 507.18 0.43 c p3
349.79 507.56 0.43 c p3
349.93 507.56 0.43 c p3
350.08 507.66 0.43 c p3
350.23 507.56 0.43 c p3
350.37 507.56 0.43 c p3
350.52 507.08 0.43 c p3
350.66 507.32 0.43 c p3
350.81 506.94 0.43 c p3
350.95 507.66 0.43 c p3
351.10 508.04 0.43 c p3
351.24 507.42 0.43 c p3
351.39 507.91 0.43 c p3
351.54 507.66 0.43 c p3
351.68 507.32 0.43 c p3
351.83 507.18 0.43 c p3
351.97 507.42 0.43 c p3
352.12 507.42 0.43 c p3
352.26 507.08 0.43 c p3
352.41 506.94 0.43 c p3
352.55 507.32 0.43 c p3
352.70 507.56 0.43 c p3
352.85 507.08 0.43 c p3
352.99 507.42 0.43 c p3
353.14 507.08 0.43 c p3
353.28 507.56 0.43 c p3
353.43 507.42 0.43 c p3
353.57 507.80 0.43 c p3
353.72 507.56 0.43 c p3
353.86 507.66 0.43 c p3
354.01 507.32 0.43 c p3
354.16 507.56 0.43 c p3
354.30 507.32 0.43 c p3
354.45 507.42 0.43 c p3
354.59 507.42 0.43 c p3
354.74 507.18 0.43 c p3
354.88 507.80 0.43 c p3
355.03 507.08 0.43 c p3
355.18 507.32 0.43 c p3
355.32 507.32 0.43 c p3
355.47 507.56 0.43 c p3
355.61 507.66 0.43 c p3
355.76 507.91 0.43 c p3
355.90 508.04 0.43 c p3
356.05 507.42 0.43 c p3
356.19 507.18 0.43 c p3
356.34 507.32 0.43 c p3
356.49 507.66 0.43 c p3
356.63 507.56 0.43 c p3
356.78 506.84 0.43 c p3
356.92 507.32 0.43 c p3
357.07 507.18 0.43 c p3
357.21 507.42 0.43 c p3
357.36 507.18 0.43 c p3
357.50 507.80 0.43 c p3
357.65 507.42 0.43 c p3
357.80 507.56 0.43 c p3
357.94 507.80 0.43 c p3
358.09 507.66 0.43 c p3
358.23 507.42 0.43 c p3
358.38 507.18 0.43 c p3
358.52 507.08 0.43 c p3
358.67 506.94 0.43 c p3
358.81 507.56 0.43 c p3
358.96 507.56 0.43 c p3
359.11 506.59 0.43 c p3
359.25 507.08 0.43 c p3
359.40 506.59 0.43 c p3
359.54 506.59 0.43 c p3
359.69 507.32 0.43 c p3
359.83 507.42 0.43 c p3
359.98 507.56 0.43 c p3
360.13 507.42 0.43 c p3
360.27 508.15 0.43 c p3
360.42 507.32 0.43 c p3
360.56 507.91 0.43 c p3
360.71 507.08 0.43 c p3
360.85 507.18 0.43 c p3
361.00 507.42 0.43 c p3
361.14 507.42 0.43 c p3
361.29 507.32 0.43 c p3
361.44 506.84 0.43 c p3
361.58 507.18 0.43 c p3
361.73 507.56 0.43 c p3
361.87 507.66 0.43 c p3
362.02 507.66 0.43 c p3
362.16 508.04 0.43 c p3
362.31 507.80 0.43 c p3
362.45 507.18 0.43 c p3
362.60 507.80 0.43 c p3
362.75 507.80 0.43 c p3
362.89 507.08 0.43 c p3
363.04 507.42 0.43 c p3
363.18 507.56 0.43 c p3
363.33 507.42 0.43 c p3
363.47 507.08 0.43 c p3
363.62 507.18 0.43 c p3
363.76 506.59 0.43 c p3
363.91 507.42 0.43 c p3
364.06 506.70 0.43 c p3
364.20 506.94 0.43 c p3
364.35 507.56 0.43 c p3
364.49 507.91 0.43 c p3
364.64 507.42 0.43 c p3
364.78 507.08 0.43 c p3
364.93 507.32 0.43 c p3
365.08 507.32 0.43 c p3
365.22 506.94 0.43 c p3
365.37 507.32 0.43 c p3
365.51 507.08 0.43 c p3
365.66 507.08 0.43 c p3
365.80 506.94 0.43 c p3
365.95 507.08 0.43 c p3
366.09 507.18 0.43 c p3
366.24 507.56 0.43 c p3
366.39 507.42 0.43 c p3
366.53 508.15 0.43 c p3
366.68 506.94 0.43 c p3
366.82 507.80 0.43 c p3
366.97 507.56 0.43 c p3
367.11 507.56 0.43 c p3
367.26 507.56 0.43 c p3
367.40 507.56 0.43 c p3
367.55 507.66 0.43 c p3
367.70 507.42 0.43 c p3
367.84 506.94 0.43 c p3
367.99 507.66 0.43 c p3
368.13 506.94 0.43 c p3
368.28 507.18 0.43 c p3
368.42 506.84 0.43 c p3
368.57 506.94 0.43 c p3
368.71 508.15 0.43 c p3
368.86 507.42 0.43 c p3
369.01 508.15 0.43 c p3
369.15 507.18 0.43 c p3
369.30 507.08 0.43 c p3
369.44 506.84 0.43 c p3
369.59 507.66 0.43 c p3
369.73 507.56 0.43 c p3
369.88 507.18 0.43 c p3
370.03 506.59 0.43 c p3
370.17 507.08 0.43 c p3
370.32 506.11 0.43 c p3
370.46 507.56 0.43 c p3
370.61 506.94 0.43 c p3
370.75 506.94 0.43 c p3
370.90 507.56 0.43 c p3
371.04 507.80 0.43 c p3
371.19 507.80 0.43 c p3
371.34 507.66 0.43 c p3
371.48 506.84 0.43 c p3
371.63 507.32 0.43 c p3
371.77 507.08 0.43 c p3
371.92 507.18 0.43 c p3
372.06 507.08 0.43 c p3
372.21 507.08 0.43 c p3
372.35 507.18 0.43 c p3
372.50 506.94 0.43 c p3
372.65 507.08 0.43 c p3
372.79 507.18 0.43 c p3
372.94 507.80 0.43 c p3
373.08 507.80 0.43 c p3
373.23 507.66 0.43 c p3
373.37 508.52 0.43 c p3
373.52 507.91 0.43 c p3
373.66 507.32 0.43 c p3
373.81 507.32 0.43 c p3
373.96 506.94 0.43 c p3
374.10 507.66 0.43 c p3
374.25 507.42 0.43 c p3
374.39 507.08 0.43 c p3
374.54 507.56 0.43 c p3
374.68 506.70 0.43 c p3
374.83 506.84 0.43 c p3
374.98 507.42 0.43 c p3
375.12 506.94 0.43 c p3
375.27 507.18 0.43 c p3
375.41 507.42 0.43 c p3
375.56 507.32 0.43 c p3
375.70 508.04 0.43 c p3
375.85 507.08 0.43 c p3
375.99 507.42 0.43 c p3
376.14 507.32 0.43 c p3
376.29 507.32 0.43 c p3
376.43 507.08 0.43 c p3
376.58 507.08 0.43 c p3
376.72 507.18 0.43 c p3
376.87 506.46 0.43 c p3
377.01 507.32 0.43 c p3
377.16 507.42 0.43 c p3
377.30 507.66 0.43 c p3
377.45 507.56 0.43 c p3
377.60 507.56 0.43 c p3
377.74 507.42 0.43 c p3
377.89 507.32 0.43 c p3
378.03 507.80 0.43 c p3
378.18 507.42 0.43 c p3
378.32 507.56 0.43 c p3
378.47 507.56 0.43 c p3
378.61 507.80 0.43 c p3
378.76 507.80 0.43 c p3
378.91 507.08 0.43 c p3
379.05 507.08 0.43 c p3
379.20 506.70 0.43 c p3
379.34 507.32 0.43 c p3
379.49 507.56 0.43 c p3
379.63 507.66 0.43 c p3
379.78 507.80 0.43 c p3
379.93 507.91 0.43 c p3
380.07 507.42 0.43 c p3
380.22 507.18 0.43 c p3
380.36 507.56 0.43 c p3
380.51 507.32 0.43 c p3
380.65 507.66 0.43 c p3
380.80 506.94 0.43 c p3
380.94 506.59 0.43 c p3
381.09 506.70 0.43 c p3
381.24 507.08 0.43 c p3
381.38 507.08 0.43 c p3
381.53 507.08 0.43 c p3
381.67 507.32 0.43 c p3
381.82 507.56 0.43 c p3
381.96 507.56 0.43 c p3
382.11 507.08 0.43 c p3
382.25 507.42 0.43 c p3
382.40 506.94 0.43 c p3
0.00 0.00 432.00 576.00 cl
0 0 0 srgb
0.75 setlinewidth
[] 0 setdash
1 setlinecap
1 setlinejoin
10.00 setmiterlimit
np
236.96 345.60 m
145.59 0 l
o
np
236.96 345.60 m
0 -5.76 l
o
np
266.08 345.60 m
0 -5.76 l
o
np
295.19 345.60 m
0 -5.76 l
o
np
324.31 345.60 m
0 -5.76 l
o
np
353.43 345.60 m
0 -5.76 l
o
np
382.55 345.60 m
0 -5.76 l
o
/Font1 findfont 10 s
236.96 329.47 (0) .5 0 t
266.08 329.47 (100) .5 0 t
295.19 329.47 (200) .5 0 t
324.31 329.47 (300) .5 0 t
353.43 329.47 (400) .5 0 t
382.55 329.47 (500) .5 0 t
np
216.00 352.00 m
0 164.41 l
o
np
216.00 352.00 m
-5.76 0 l
o
np
216.00 406.80 m
-5.76 0 l
o
np
216.00 461.61 m
-5.76 0 l
o
np
216.00 516.41 m
-5.76 0 l
o
209.09 348.41 (0.0) 1 0 t
209.09 403.21 (0.5) 1 0 t
209.09 458.02 (1.0) 1 0 t
209.09 512.82 (1.5) 1 0 t
np
216.00 345.60 m
172.80 0 l
0 172.80 l
-172.80 0 l
0 -172.80 l
o
0.00 0.00 432.00 576.00 cl
/Font1 findfont 10 s
0 0 0 srgb
302.40 313.34 (Zeit / ms \(total\)) .5 0 t
190.66 432.00 (U / V) .5 90 t
216.00 345.60 388.80 518.40 cl
0 0 0 srgb
0.38 setlinewidth
[ 1.12 1.88] 0 setdash
1 setlinecap
1 setlinejoin
10.00 setmiterlimit
np
223.27 345.60 m
0 172.80 l
o
np
234.34 345.60 m
0 172.80 l
o
np
239.43 345.60 m
0 172.80 l
o
np
275.54 345.60 m
0 172.80 l
o
86.40 57.60 388.80 288.00 cl
1 0 0 srgb
1.50 setlinewidth
[] 0 setdash
1 setlinecap
1 setlinejoin
10.00 setmiterlimit
np
97.60 279.47 m
1.41 -13.72 l
1.40 -12.83 l
1.41 -12.01 l
1.41 -11.24 l
1.41 -10.51 l
1.40 -9.84 l
1.41 -9.20 l
1.41 -8.61 l
1.40 -8.06 l
1.41 -7.54 l
1.41 -7.05 l
1.40 -6.60 l
1.41 -6.18 l
1.41 -5.78 l
1.41 -5.40 l
1.40 -5.06 l
1.41 -4.73 l
1.41 -4.43 l
1.40 -4.15 l
1.41 -3.88 l
1.41 -3.62 l
1.40 -3.40 l
1.41 -3.17 l
1.41 -2.98 l
1.41 -2.78 l
1.40 -2.60 l
1.41 -2.43 l
1.41 -2.28 l
1.40 -2.13 l
1.41 -2.00 l
1.41 -1.86 l
1.41 -1.75 l
1.40 -1.63 l
1.41 -1.53 l
1.41 -1.43 l
1.40 -1.34 l
1.41 -1.25 l
1.41 -1.17 l
1.40 -1.10 l
1.41 -1.02 l
1.41 -0.96 l
1.41 -0.90 l
1.40 -0.84 l
1.41 -0.79 l
1.41 -0.73 l
1.40 -0.69 l
1.41 -0.64 l
1.41 -0.61 l
1.40 -0.56 l
1.41 -0.53 l
1.41 -0.49 l
1.41 -0.46 l
1.40 -0.44 l
1.41 -0.40 l
1.41 -0.38 l
1.40 -0.35 l
1.41 -0.33 l
1.41 -0.31 l
1.41 -0.29 l
1.40 -0.27 l
1.41 -0.26 l
1.41 -0.24 l
1.40 -0.22 l
1.41 -0.21 l
1.41 -0.19 l
1.40 -0.18 l
1.41 -0.17 l
1.41 -0.16 l
1.41 -0.15 l
1.40 -0.14 l
1.41 -0.13 l
1.41 -0.12 l
1.40 -0.12 l
1.41 -0.11 l
1.41 -0.10 l
1.40 -0.09 l
1.41 -0.09 l
1.41 -0.08 l
1.41 -0.08 l
1.40 -0.07 l
1.41 -0.06 l
1.41 -0.07 l
1.40 -0.06 l
1.41 -0.05 l
1.41 -0.05 l
1.41 -0.05 l
1.40 -0.05 l
1.41 -0.04 l
1.41 -0.04 l
1.40 -0.03 l
1.41 -0.04 l
1.41 -0.03 l
1.40 -0.03 l
1.41 -0.03 l
1.41 -0.03 l
1.41 -0.02 l
1.40 -0.02 l
1.41 -0.03 l
1.41 -0.02 l
238.30 66.54 lineto
1.41 -0.02 l
1.41 -0.02 l
1.40 -0.01 l
1.41 -0.02 l
1.41 -0.01 l
1.41 -0.02 l
1.40 -0.01 l
1.41 -0.01 l
1.41 -0.01 l
1.40 -0.01 l
1.41 -0.01 l
1.41 -0.01 l
1.40 0 l
1.41 -0.01 l
1.41 -0.01 l
1.41 -0.01 l
1.40 0 l
1.41 -0.01 l
1.41 0 l
1.40 -0.01 l
1.41 0 l
1.41 -0.01 l
1.41 0 l
1.40 0 l
1.41 -0.01 l
1.41 0 l
1.40 0 l
1.41 -0.01 l
1.41 0 l
1.40 0 l
1.41 -0.01 l
1.41 0 l
1.41 0 l
1.40 0 l
1.41 0 l
1.41 -0.01 l
1.40 0 l
1.41 0 l
1.41 0 l
1.40 0 l
1.41 0 l
1.41 0 l
1.41 0 l
1.40 -0.01 l
1.41 0 l
1.41 0 l
1.40 0 l
1.41 0 l
1.41 0 l
1.41 0 l
1.40 0 l
1.41 0 l
1.41 0 l
1.40 0 l
1.41 0 l
1.41 0 l
1.40 0 l
1.41 0 l
1.41 -0.01 l
1.41 0 l
1.40 0 l
1.41 0 l
1.41 0 l
1.40 0 l
1.41 0 l
1.41 0 l
1.40 0 l
1.41 0 l
1.41 0 l
1.41 0 l
1.40 0 l
1.41 0 l
1.41 0 l
1.40 0 l
1.41 0 l
1.41 0 l
1.41 0 l
1.40 0 l
1.41 0 l
1.41 0 l
1.40 0 l
1.41 0 l
1.41 0 l
1.40 0 l
1.41 0 l
1.41 0 l
1.41 0 l
1.40 0 l
1.41 0 l
1.41 0 l
1.40 0 l
1.41 0 l
1.41 0 l
1.40 0 l
1.41 0 l
1.41 0 l
1.41 0 l
1.40 0 l
1.41 0 l
o
0.00 0.00 432.00 576.00 cl
0 0 0 srgb
0.75 setlinewidth
[] 0 setdash
1 setlinecap
1 setlinejoin
10.00 setmiterlimit
np
97.60 57.60 m
280.00 0 l
o
np
97.60 57.60 m
0 -5.76 l
o
np
153.60 57.60 m
0 -5.76 l
o
np
209.60 57.60 m
0 -5.76 l
o
np
265.60 57.60 m
0 -5.76 l
o
np
321.60 57.60 m
0 -5.76 l
o
np
377.60 57.60 m
0 -5.76 l
o
/Font1 findfont 10 s
97.60 41.47 (0) .5 0 t
153.60 41.47 (100) .5 0 t
209.60 41.47 (200) .5 0 t
265.60 41.47 (300) .5 0 t
321.60 41.47 (400) .5 0 t
377.60 41.47 (500) .5 0 t
np
86.40 66.13 m
0 185.32 l
o
np
86.40 66.13 m
-5.76 0 l
o
np
86.40 112.46 m
-5.76 0 l
o
np
86.40 158.79 m
-5.76 0 l
o
np
86.40 205.12 m
-5.76 0 l
o
np
86.40 251.45 m
-5.76 0 l
o
79.49 62.54 (0.00) 1 0 t
79.49 108.87 (0.05) 1 0 t
79.49 155.20 (0.10) 1 0 t
79.49 201.53 (0.15) 1 0 t
79.49 247.86 (0.20) 1 0 t
np
86.40 57.60 m
302.40 0 l
0 230.40 l
-302.40 0 l
0 -230.40 l
o
0.00 0.00 432.00 576.00 cl
/Font1 findfont 10 s
0 0 0 srgb
237.60 13.82 (Zeit / ms \(nach Puls\)) .5 0 t
49.54 172.80 (Absorbanz A) .5 90 t
86.40 57.60 388.80 288.00 cl
/bg { 1 1 1 srgb } def
0 0 0 srgb
0.75 setlinewidth
[] 0 setdash
1 setlinecap
1 setlinejoin
10.00 setmiterlimit
102.64 232.32 0.65 c p3
102.92 231.81 0.65 c p3
103.20 229.57 0.65 c p3
103.48 230.48 0.65 c p3
103.76 227.74 0.65 c p3
104.04 225.92 0.65 c p3
104.32 222.31 0.65 c p3
104.60 217.85 0.65 c p3
104.88 216.96 0.65 c p3
105.16 211.29 0.65 c p3
105.44 212.55 0.65 c p3
105.72 210.41 0.65 c p3
106.00 209.54 0.65 c p3
106.28 206.46 0.65 c p3
106.56 202.64 0.65 c p3
106.84 201.40 0.65 c p3
107.12 202.64 0.65 c p3
107.40 203.49 0.65 c p3
107.68 202.64 0.65 c p3
107.96 200.08 0.65 c p3
108.24 198.01 0.65 c p3
108.52 196.69 0.65 c p3
108.80 191.30 0.65 c p3
109.08 187.52 0.65 c p3
109.36 188.35 0.65 c p3
109.64 183.88 0.65 c p3
109.92 184.70 0.65 c p3
110.20 181.08 0.65 c p3
110.48 181.08 0.65 c p3
110.76 180.27 0.65 c p3
111.04 177.40 0.65 c p3
111.32 176.24 0.65 c p3
111.60 175.79 0.65 c p3
111.88 175.44 0.65 c p3
112.16 174.20 0.65 c p3
112.44 174.99 0.65 c p3
112.72 172.61 0.65 c p3
113.00 169.88 0.65 c p3
113.28 165.61 0.65 c p3
113.56 167.17 0.65 c p3
113.84 164.05 0.65 c p3
114.12 160.95 0.65 c p3
114.40 163.27 0.65 c p3
114.68 159.76 0.65 c p3
114.96 159.76 0.65 c p3
115.24 157.88 0.65 c p3
115.52 156.35 0.65 c p3
115.80 154.07 0.65 c p3
116.08 157.12 0.65 c p3
116.36 155.93 0.65 c p3
116.64 154.07 0.65 c p3
116.92 153.31 0.65 c p3
117.20 153.31 0.65 c p3
117.48 151.47 0.65 c p3
117.76 149.55 0.65 c p3
118.04 148.05 0.65 c p3
118.32 146.23 0.65 c p3
118.60 146.56 0.65 c p3
118.88 145.81 0.65 c p3
119.16 142.53 0.65 c p3
119.44 142.12 0.65 c p3
119.72 140.32 0.65 c p3
120.00 141.06 0.65 c p3
120.28 140.32 0.65 c p3
120.56 139.59 0.65 c p3
120.84 137.72 0.65 c p3
121.12 139.18 0.65 c p3
121.40 137.40 0.65 c p3
121.68 136.35 0.65 c p3
121.96 136.67 0.65 c p3
122.24 133.78 0.65 c p3
122.52 132.74 0.65 c p3
122.80 128.76 0.65 c p3
123.08 128.76 0.65 c p3
123.36 126.63 0.65 c p3
123.64 128.05 0.65 c p3
123.92 127.03 0.65 c p3
124.20 127.34 0.65 c p3
124.48 125.22 0.65 c p3
124.76 125.61 0.65 c p3
125.04 123.81 0.65 c p3
125.32 123.50 0.65 c p3
125.60 124.91 0.65 c p3
125.88 123.81 0.65 c p3
126.16 124.20 0.65 c p3
126.44 123.11 0.65 c p3
126.72 121.39 0.65 c p3
127.00 116.53 0.65 c p3
127.28 116.53 0.65 c p3
127.56 116.53 0.65 c p3
127.84 116.91 0.65 c p3
128.12 115.15 0.65 c p3
128.40 114.46 0.65 c p3
128.68 115.15 0.65 c p3
128.96 115.53 0.65 c p3
129.24 114.46 0.65 c p3
129.52 114.85 0.65 c p3
129.80 113.47 0.65 c p3
130.08 113.09 0.65 c p3
130.36 112.41 0.65 c p3
130.64 112.79 0.65 c p3
130.92 111.42 0.65 c p3
131.20 111.04 0.65 c p3
131.48 110.74 0.65 c p3
131.76 108.02 0.65 c p3
132.04 107.35 0.65 c p3
132.32 105.03 0.65 c p3
132.60 105.33 0.65 c p3
132.88 104.66 0.65 c p3
133.16 104.66 0.65 c p3
133.44 104.66 0.65 c p3
133.72 105.03 0.65 c p3
134.00 104.36 0.65 c p3
134.28 104.66 0.65 c p3
134.56 102.65 0.65 c p3
134.84 103.69 0.65 c p3
135.12 103.69 0.65 c p3
135.40 103.99 0.65 c p3
135.68 101.98 0.65 c p3
135.96 99.99 0.65 c p3
136.24 98.01 0.65 c p3
136.52 97.35 0.65 c p3
136.80 97.71 0.65 c p3
137.08 98.37 0.65 c p3
137.36 97.35 0.65 c p3
137.64 98.67 0.65 c p3
137.92 98.37 0.65 c p3
138.20 97.05 0.65 c p3
138.48 97.05 0.65 c p3
138.76 97.35 0.65 c p3
139.04 98.67 0.65 c p3
139.32 98.37 0.65 c p3
139.60 97.05 0.65 c p3
139.88 94.72 0.65 c p3
140.16 95.08 0.65 c p3
140.44 94.07 0.65 c p3
140.72 91.82 0.65 c p3
141.00 94.07 0.65 c p3
141.28 92.47 0.65 c p3
141.56 91.54 0.65 c p3
141.84 90.53 0.65 c p3
142.12 90.89 0.65 c p3
142.40 91.82 0.65 c p3
142.68 92.18 0.65 c p3
142.96 91.54 0.65 c p3
143.24 91.82 0.65 c p3
143.52 90.53 0.65 c p3
143.80 91.54 0.65 c p3
144.08 90.24 0.65 c p3
144.36 91.82 0.65 c p3
144.64 89.88 0.65 c p3
144.92 88.59 0.65 c p3
145.20 87.66 0.65 c p3
145.48 85.73 0.65 c p3
145.76 85.73 0.65 c p3
146.04 86.38 0.65 c p3
146.32 86.38 0.65 c p3
146.60 86.66 0.65 c p3
146.88 87.02 0.65 c p3
147.16 87.02 0.65 c p3
147.44 84.74 0.65 c p3
147.72 86.66 0.65 c p3
148.00 86.66 0.65 c p3
148.28 86.02 0.65 c p3
148.56 85.38 0.65 c p3
148.84 86.38 0.65 c p3
149.12 87.30 0.65 c p3
149.40 85.10 0.65 c p3
149.68 83.18 0.65 c p3
149.96 83.82 0.65 c p3
150.24 82.20 0.65 c p3
150.52 81.56 0.65 c p3
150.80 81.91 0.65 c p3
151.08 82.83 0.65 c p3
151.36 82.55 0.65 c p3
151.64 81.91 0.65 c p3
151.92 83.82 0.65 c p3
152.20 81.91 0.65 c p3
152.48 83.18 0.65 c p3
152.76 82.55 0.65 c p3
153.04 83.18 0.65 c p3
153.32 81.91 0.65 c p3
153.60 81.28 0.65 c p3
153.88 81.56 0.65 c p3
154.16 79.74 0.65 c p3
154.44 79.11 0.65 c p3
154.72 79.39 0.65 c p3
155.00 79.11 0.65 c p3
155.28 79.11 0.65 c p3
155.56 78.76 0.65 c p3
155.84 79.39 0.65 c p3
156.12 80.65 0.65 c p3
156.40 79.39 0.65 c p3
156.68 80.02 0.65 c p3
156.96 80.30 0.65 c p3
157.24 79.39 0.65 c p3
157.52 78.48 0.65 c p3
157.80 78.76 0.65 c p3
158.08 77.85 0.65 c p3
158.36 77.50 0.65 c p3
158.64 77.22 0.65 c p3
158.92 76.60 0.65 c p3
159.20 77.22 0.65 c p3
159.48 75.97 0.65 c p3
159.76 78.48 0.65 c p3
160.04 75.97 0.65 c p3
160.32 77.85 0.65 c p3
160.60 76.60 0.65 c p3
160.88 78.13 0.65 c p3
161.16 77.50 0.65 c p3
161.44 76.87 0.65 c p3
161.72 78.13 0.65 c p3
162.00 76.87 0.65 c p3
162.28 76.60 0.65 c p3
162.56 76.60 0.65 c p3
162.84 77.22 0.65 c p3
163.12 75.35 0.65 c p3
163.40 75.63 0.65 c p3
163.68 76.87 0.65 c p3
163.96 75.97 0.65 c p3
164.24 75.63 0.65 c p3
164.52 77.22 0.65 c p3
164.80 75.97 0.65 c p3
165.08 75.97 0.65 c p3
165.36 76.87 0.65 c p3
165.64 75.35 0.65 c p3
165.92 75.97 0.65 c p3
166.20 74.38 0.65 c p3
166.48 76.25 0.65 c p3
166.76 74.10 0.65 c p3
167.04 73.14 0.65 c p3
167.32 75.00 0.65 c p3
167.60 73.14 0.65 c p3
167.88 73.48 0.65 c p3
168.16 73.76 0.65 c p3
168.44 73.48 0.65 c p3
168.72 74.10 0.65 c p3
169.00 73.48 0.65 c p3
169.28 72.86 0.65 c p3
169.56 73.48 0.65 c p3
169.84 74.72 0.65 c p3
170.12 74.72 0.65 c p3
170.40 74.72 0.65 c p3
170.68 75.00 0.65 c p3
170.96 73.76 0.65 c p3
171.24 72.52 0.65 c p3
171.52 71.90 0.65 c p3
171.80 72.24 0.65 c p3
172.08 71.62 0.65 c p3
216.00 201.60 367.20 247.68 cl
0 0 0 srgb
0.75 setlinewidth
[] 0 setdash
1 setlinecap
1 setlinejoin
10.00 setmiterlimit
221.60 217.89 0.43 c p1
222.16 223.73 0.43 c p1
222.73 223.52 0.43 c p1
223.29 234.08 0.43 c p1
223.86 231.95 0.43 c p1
224.42 232.90 0.43 c p1
224.99 227.59 0.43 c p1
225.55 219.23 0.43 c p1
226.12 223.11 0.43 c p1
226.68 210.42 0.43 c p1
227.25 221.52 0.43 c p1
227.81 220.82 0.43 c p1
228.37 224.40 0.43 c p1
228.94 220.27 0.43 c p1
229.50 213.52 0.43 c p1
230.07 215.59 0.43 c p1
230.63 226.07 0.43 c p1
231.20 235.18 0.43 c p1
231.76 238.30 0.43 c p1
232.33 235.48 0.43 c p1
232.89 234.26 0.43 c p1
233.45 235.58 0.43 c p1
234.02 222.75 0.43 c p1
234.58 215.45 0.43 c p1
235.15 223.90 0.43 c p1
235.71 214.04 0.43 c p1
236.28 222.32 0.43 c p1
236.84 215.25 0.43 c p1
237.41 220.57 0.43 c p1
237.97 223.03 0.43 c p1
238.54 218.34 0.43 c p1
239.10 219.46 0.43 c p1
239.66 222.97 0.43 c p1
240.23 226.73 0.43 c p1
240.79 227.37 0.43 c p1
241.36 234.97 0.43 c p1
241.92 231.52 0.43 c p1
242.49 226.86 0.43 c p1
243.05 216.82 0.43 c p1
243.62 226.80 0.43 c p1
244.18 220.59 0.43 c p1
244.75 214.41 0.43 c p1
245.31 226.82 0.43 c p1
245.87 219.06 0.43 c p1
246.44 223.37 0.43 c p1
247.00 221.16 0.43 c p1
247.57 220.09 0.43 c p1
248.13 216.37 0.43 c p1
248.70 230.94 0.43 c p1
249.26 230.88 0.43 c p1
249.83 228.46 0.43 c p1
250.39 229.78 0.43 c p1
250.95 233.65 0.43 c p1
251.52 231.12 0.43 c p1
252.08 228.27 0.43 c p1
252.65 226.84 0.43 c p1
253.21 224.24 0.43 c p1
253.78 229.00 0.43 c p1
254.34 230.02 0.43 c p1
254.91 222.23 0.43 c p1
255.47 224.30 0.43 c p1
256.04 221.56 0.43 c p1
256.60 227.48 0.43 c p1
257.16 228.30 0.43 c p1
257.73 229.08 0.43 c p1
258.29 225.92 0.43 c p1
258.86 234.16 0.43 c p1
259.42 231.20 0.43 c p1
259.99 230.72 0.43 c p1
260.55 234.93 0.43 c p1
261.12 228.01 0.43 c p1
261.68 227.44 0.43 c p1
262.25 216.73 0.43 c p1
262.81 219.66 0.43 c p1
263.37 215.22 0.43 c p1
263.94 222.96 0.43 c p1
264.50 222.25 0.43 c p1
265.07 226.12 0.43 c p1
265.63 221.55 0.43 c p1
266.20 225.61 0.43 c p1
266.76 222.08 0.43 c p1
267.33 223.64 0.43 c p1
267.89 231.10 0.43 c p1
268.45 229.89 0.43 c p1
269.02 233.77 0.43 c p1
269.58 232.51 0.43 c p1
270.15 229.08 0.43 c p1
270.71 214.77 0.43 c p1
271.28 217.18 0.43 c p1
271.84 219.55 0.43 c p1
272.41 223.21 0.43 c p1
272.97 219.46 0.43 c p1
273.54 219.37 0.43 c p1
274.10 223.99 0.43 c p1
274.66 227.53 0.43 c p1
275.23 226.03 0.43 c p1
275.79 229.51 0.43 c p1
276.36 226.92 0.43 c p1
276.92 227.71 0.43 c p1
277.49 227.44 0.43 c p1
278.05 230.80 0.43 c p1
278.62 228.12 0.43 c p1
279.18 228.81 0.43 c p1
279.75 229.74 0.43 c p1
280.31 222.34 0.43 c p1
280.87 221.94 0.43 c p1
281.44 215.85 0.43 c p1
282.00 218.75 0.43 c p1
282.57 218.28 0.43 c p1
283.13 220.10 0.43 c p1
283.70 221.90 0.43 c p1
284.26 224.96 0.43 c p1
284.83 224.40 0.43 c p1
285.39 227.15 0.43 c p1
285.95 221.95 0.43 c p1
286.52 227.21 0.43 c p1
287.08 228.87 0.43 c p1
287.65 231.53 0.43 c p1
288.21 226.25 0.43 c p1
288.78 220.98 0.43 c p1
289.34 215.72 0.43 c p1
289.91 215.01 0.43 c p1
290.47 217.80 0.43 c p1
291.04 221.59 0.43 c p1
291.60 219.55 0.43 c p1
292.16 225.57 0.43 c p1
292.73 226.01 0.43 c p1
293.29 222.91 0.43 c p1
293.86 224.32 0.43 c p1
294.42 226.73 0.43 c p1
294.99 232.65 0.43 c p1
295.55 233.00 0.43 c p1
296.12 229.80 0.43 c p1
296.68 223.10 0.43 c p1
297.25 225.66 0.43 c p1
297.81 223.45 0.43 c p1
298.37 216.99 0.43 c p1
298.94 225.98 0.43 c p1
299.50 221.73 0.43 c p1
300.07 219.72 0.43 c p1
300.63 217.46 0.43 c p1
301.20 219.89 0.43 c p1
301.76 224.30 0.43 c p1
302.33 226.70 0.43 c p1
302.89 225.61 0.43 c p1
303.45 227.73 0.43 c p1
304.02 224.39 0.43 c p1
304.58 228.96 0.43 c p1
305.15 225.58 0.43 c p1
305.71 232.11 0.43 c p1
306.28 226.48 0.43 c p1
306.84 223.08 0.43 c p1
307.41 220.91 0.43 c p1
307.97 215.30 0.43 c p1
308.54 216.30 0.43 c p1
309.10 219.50 0.43 c p1
309.66 220.48 0.43 c p1
310.23 222.43 0.43 c p1
310.79 224.61 0.43 c p1
311.36 225.55 0.43 c p1
311.92 218.64 0.43 c p1
312.49 226.16 0.43 c p1
313.05 227.06 0.43 c p1
313.62 225.75 0.43 c p1
314.18 224.43 0.43 c p1
314.75 228.72 0.43 c p1
315.31 232.77 0.43 c p1
315.87 226.02 0.43 c p1
316.44 220.27 0.43 c p1
317.00 223.28 0.43 c p1
317.57 218.50 0.43 c p1
318.13 217.12 0.43 c p1
318.70 219.13 0.43 c p1
319.26 223.06 0.43 c p1
319.83 222.86 0.43 c p1
320.39 221.44 0.43 c p1
320.95 228.75 0.43 c p1
321.52 222.93 0.43 c p1
322.08 228.03 0.43 c p1
322.65 226.57 0.43 c p1
323.21 229.47 0.43 c p1
323.78 225.80 0.43 c p1
324.34 224.31 0.43 c p1
324.91 225.96 0.43 c p1
325.47 220.35 0.43 c p1
326.04 218.85 0.43 c p1
326.60 220.47 0.43 c p1
327.16 220.16 0.43 c p1
327.73 220.80 0.43 c p1
328.29 220.23 0.43 c p1
328.86 223.02 0.43 c p1
329.42 227.98 0.43 c p1
329.99 224.24 0.43 c p1
330.55 227.01 0.43 c p1
331.12 228.57 0.43 c p1
331.68 226.02 0.43 c p1
332.25 223.46 0.43 c p1
332.81 224.99 0.43 c p1
333.37 222.43 0.43 c p1
333.94 221.78 0.43 c p1
334.50 221.37 0.43 c p1
335.07 219.76 0.43 c p1
335.63 222.44 0.43 c p1
336.20 218.66 0.43 c p1
336.76 227.81 0.43 c p1
337.33 219.69 0.43 c p1
337.89 226.66 0.43 c p1
338.45 222.84 0.43 c p1
339.02 228.61 0.43 c p1
339.58 226.94 0.43 c p1
340.15 225.26 0.43 c p1
340.71 230.05 0.43 c p1
341.28 226.20 0.43 c p1
341.84 225.70 0.43 c p1
342.41 226.15 0.43 c p1
342.97 228.76 0.43 c p1
343.54 222.74 0.43 c p1
344.10 224.13 0.43 c p1
344.66 228.87 0.43 c p1
345.23 226.18 0.43 c p1
345.79 225.41 0.43 c p1
346.36 231.32 0.43 c p1
346.92 227.42 0.43 c p1
347.49 227.83 0.43 c p1
348.05 231.33 0.43 c p1
348.62 226.47 0.43 c p1
349.18 229.00 0.43 c p1
349.75 223.90 0.43 c p1
350.31 230.72 0.43 c p1
350.87 223.70 0.43 c p1
351.44 220.74 0.43 c p1
352.00 227.52 0.43 c p1
352.57 221.46 0.43 c p1
353.13 223.00 0.43 c p1
353.70 224.30 0.43 c p1
354.26 223.69 0.43 c p1
354.83 226.17 0.43 c p1
355.39 224.37 0.43 c p1
355.95 222.56 0.43 c p1
356.52 225.02 0.43 c p1
357.08 229.63 0.43 c p1
357.65 229.95 0.43 c p1
358.21 230.26 0.43 c p1
358.78 231.52 0.43 c p1
359.34 227.54 0.43 c p1
359.91 223.57 0.43 c p1
360.47 221.74 0.43 c p1
361.04 223.22 0.43 c p1
361.60 221.38 0.43 c p1
0.00 0.00 432.00 576.00 cl
0 0 0 srgb
0.75 setlinewidth
[] 0 setdash
1 setlinecap
1 setlinejoin
10.00 setmiterlimit
np
234.02 201.60 m
112.90 0 l
o
np
234.02 201.60 m
0 -5.76 l
o
np
256.60 201.60 m
0 -5.76 l
o
np
279.18 201.60 m
0 -5.76 l
o
np
301.76 201.60 m
0 -5.76 l
o
np
324.34 201.60 m
0 -5.76 l
o
np
346.92 201.60 m
0 -5.76 l
o
/Font1 findfont 6 s
234.02 185.47 (20) .5 0 t
256.60 185.47 (40) .5 0 t
279.18 185.47 (60) .5 0 t
301.76 185.47 (80) .5 0 t
324.34 185.47 (100) .5 0 t
346.92 185.47 (120) .5 0 t
np
216.00 205.50 m
0 38.28 l
o
np
216.00 205.50 m
-5.76 0 l
o
np
216.00 211.88 m
-5.76 0 l
o
np
216.00 218.26 m
-5.76 0 l
o
np
216.00 224.64 m
-5.76 0 l
o
np
216.00 231.02 m
-5.76 0 l
o
np
216.00 237.40 m
-5.76 0 l
o
np
216.00 243.78 m
-5.76 0 l
o
209.09 203.34 (-0.006) 1 0 t
209.09 209.72 (-0.004) 1 0 t
209.09 216.11 (-0.002) 1 0 t
209.09 222.49 (0.000) 1 0 t
209.09 228.87 (0.002) 1 0 t
209.09 235.25 (0.004) 1 0 t
209.09 241.63 (0.006) 1 0 t
np
216.00 201.60 m
151.20 0 l
0 46.08 l
-151.20 0 l
0 -46.08 l
o
0.00 0.00 432.00 576.00 cl
/Font1 findfont 9 s
0 0 0 srgb
291.60 262.88 (Residuen) .5 0 t
59.04 73.44 401.76 516.96 cl
ep
%%Trailer
%%Pages: 1
%%EOF
