%!PS-Adobe-3.0 EPSF-3.0
%%DocumentNeededResources: font Helvetica
%%+ font Helvetica-Bold
%%+ font Helvetica-Oblique
%%+ font Helvetica-BoldOblique
%%+ font Symbol
%%Title: R Graphics Output
%%Creator: R Software
%%Pages: (atend)
%%BoundingBox: 0 0 432 576
%%EndComments
%%BeginProlog
/bp  { gs sRGB gs } def
% begin .ps.prolog
/gs  { gsave } bind def
/gr  { grestore } bind def
/ep  { showpage gr gr } bind def
/m   { moveto } bind def
/l  { rlineto } bind def
/np  { newpath } bind def
/cp  { closepath } bind def
/f   { fill } bind def
/o   { stroke } bind def
/c   { newpath 0 360 arc } bind def
/r   { 4 2 roll moveto 1 copy 3 -1 roll exch 0 exch rlineto 0 rlineto -1 mul 0 exch rlineto closepath } bind def
/p1  { stroke } bind def
/p2  { gsave bg fill grestore newpath } bind def
/p3  { gsave bg fill grestore stroke } bind def
/p6  { gsave bg eofill grestore newpath } bind def
/p7  { gsave bg eofill grestore stroke } bind def
/t   { 5 -2 roll moveto gsave rotate
       1 index stringwidth pop
       mul neg 0 rmoveto show grestore } bind def
/ta  { 4 -2 roll moveto gsave rotate show } bind def
/tb  { 2 -1 roll 0 rmoveto show } bind def
/cl  { grestore gsave newpath 3 index 3 index moveto 1 index
       4 -1 roll lineto  exch 1 index lineto lineto
       closepath clip newpath } bind def
/rgb { setrgbcolor } bind def
/s   { scalefont setfont } bind def
% end   .ps.prolog
/sRGB { [ /CIEBasedABC
          << /DecodeLMN
               [ { dup 0.03928 le
                        {12.92321 div}
                        {0.055 add 1.055 div 2.4 exp }
                     ifelse
                 } bind dup dup
               ]
             /MatrixLMN [0.412457 0.212673 0.019334
                         0.357576 0.715152 0.119192
                         0.180437 0.072175 0.950301]
             /WhitePoint [0.9505 1.0 1.0890]
           >>
         ] setcolorspace } bind def
/srgb { setcolor } bind def
%%IncludeResource: font Helvetica
/Helvetica findfont
dup length dict begin
  {1 index /FID ne {def} {pop pop} ifelse} forall
  /Encoding ISOLatin1Encoding def
  currentdict
  end
/Font1 exch definefont pop
%%IncludeResource: font Helvetica-Bold
/Helvetica-Bold findfont
dup length dict begin
  {1 index /FID ne {def} {pop pop} ifelse} forall
  /Encoding ISOLatin1Encoding def
  currentdict
  end
/Font2 exch definefont pop
%%IncludeResource: font Helvetica-Oblique
/Helvetica-Oblique findfont
dup length dict begin
  {1 index /FID ne {def} {pop pop} ifelse} forall
  /Encoding ISOLatin1Encoding def
  currentdict
  end
/Font3 exch definefont pop
%%IncludeResource: font Helvetica-BoldOblique
/Helvetica-BoldOblique findfont
dup length dict begin
  {1 index /FID ne {def} {pop pop} ifelse} forall
  /Encoding ISOLatin1Encoding def
  currentdict
  end
/Font4 exch definefont pop
%%IncludeResource: font Symbol
/Symbol findfont
dup length dict begin
  {1 index /FID ne {def} {pop pop} ifelse} forall
  currentdict
  end
/Font5 exch definefont pop
%%EndProlog
%%Page: 1 1
bp
0.00 0.00 432.00 576.00 cl
0.00 0.00 432.00 576.00 cl
0.00 0.00 432.00 576.00 cl
/Font1 findfont 12 s
0 0 0 srgb
48.00 508.72 (PCP-ETH) 0 0 t
48.00 494.89 (Blitzlicht-Photolyse) 0 0 t
/Font1 findfont 9 s
48.00 457.54 (File: Dy) 0 ta
-0.180 (e_1_3_V2_900V) tb
-1.125 (.dat) tb gr
48.00 334.87 (T) 0 ta
-1.080 (ue Apr  9 22:08:41 2019) tb gr
48.00 430.87 (Fitfunktion:  a + b * e) 0 ta
-0.270 (xp\(-c * t\)) tb gr
48.00 420.50 (t-Inter) 0 ta
0.270 (v) tb
-0.225 (all: 170.000 ... 5200.000 ms) tb gr
48.00 410.14 (P) 0 ta
-0.360 (ar) tb
-0.090 (ameter \(Standardabw) tb
-0.090 (eichung\):) tb gr
48.00 399.77 (  a = 0.00396 \(0.00030\)) 0 0 t
48.00 389.40 (  b = 0.39722 \(0.00134\)) 0 0 t
48.00 379.03 (  c = 1.186e+00 \(6.200e-03\) s^-1) 0 0 t
48.00 368.66 (  tau = 8.430e-01 \(4.406e-03\) s) 0 0 t
216.00 345.60 388.80 518.40 cl
0 0 0 srgb
0.75 setlinewidth
[] 0 setdash
1 setlinecap
1 setlinejoin
10.00 setmiterlimit
np
222.40 510.95 m
0.15 0.47 l
0.14 -0.61 l
0.15 0.61 l
0.14 -0.61 l
0.15 0.95 l
0.14 -0.81 l
0.15 0.23 l
0.14 -0.37 l
0.15 1.08 l
0.15 -0.47 l
0.14 -0.24 l
0.15 -0.37 l
0.14 0.37 l
0.15 -0.23 l
0.14 0.58 l
0.15 -0.58 l
0.14 0.58 l
0.15 -0.72 l
0.15 0.61 l
0.14 -0.47 l
0.15 0.23 l
0.14 -0.13 l
0.15 -0.10 l
0.14 -0.14 l
0.15 0.72 l
0.15 -0.72 l
0.14 1.08 l
0.15 -1.31 l
0.14 0.60 l
0.15 -0.13 l
0.14 0 l
0.15 0 l
0.14 0.37 l
0.15 -0.13 l
0.15 -0.24 l
0.14 0.13 l
0.15 0 l
0.14 -0.60 l
0.15 1.08 l
0.14 -0.61 l
0.15 0.37 l
0.14 -0.61 l
0.15 0.61 l
0.15 -0.37 l
0.14 0.61 l
0.15 -0.48 l
0.14 0.11 l
0.15 -0.48 l
0.14 0.61 l
0.15 -0.37 l
0.14 0.13 l
0.15 0 l
0.15 -0.13 l
0.14 0 l
0.15 0.13 l
0.14 0.11 l
0.15 0.37 l
0.14 -0.85 l
0.15 0.37 l
0.15 -0.37 l
0.14 0.24 l
0.15 0 l
0.14 0.37 l
0.15 -0.61 l
0.14 -0.10 l
0.15 -0.24 l
0.14 1.06 l
0.15 -0.58 l
0.15 0 l
0.14 -0.24 l
0.15 0.95 l
0.14 -0.48 l
0.15 0 l
0.14 0 l
0.15 -0.23 l
0.14 0.58 l
0.15 -0.35 l
0.15 -0.23 l
0.14 0.71 l
0.15 -0.85 l
0.14 0.95 l
0.15 -1.05 l
0.14 0.82 l
0.15 -0.58 l
0.14 0.23 l
0.15 -0.47 l
0.15 0.47 l
0.14 0 l
0.15 0 l
0.14 0.11 l
0.15 -0.34 l
0.14 0.10 l
0.15 0.37 l
0.15 -1.19 l
0.14 1.30 l
0.15 -0.72 l
0.14 0.85 l
0.15 -0.24 l
0.14 0 l
236.96 400.98 lineto
0.14 1.85 l
0.15 1.81 l
0.15 1.29 l
0.14 1.55 l
0.15 1.77 l
0.14 1.05 l
0.15 1.19 l
0.14 1.53 l
0.15 2.03 l
0.14 0.47 l
0.15 1.53 l
0.15 1.90 l
0.14 0.10 l
0.15 1.19 l
0.14 1.18 l
0.15 0.95 l
0.14 0.95 l
0.15 1.05 l
0.14 1.43 l
0.15 1.08 l
0.15 0.34 l
0.14 1.53 l
0.15 0.47 l
0.14 1.08 l
0.15 0.47 l
0.14 1.66 l
0.15 0.93 l
0.15 -0.24 l
0.14 0.37 l
0.15 1.18 l
0.14 1.66 l
0.15 0.72 l
0.14 0.34 l
0.15 0.13 l
0.14 2.00 l
0.15 0.58 l
0.15 0.61 l
0.14 -0.24 l
0.15 1.42 l
0.14 0.93 l
0.15 0.71 l
0.14 0.23 l
0.15 0.95 l
0.14 0.13 l
0.15 0.95 l
0.15 0 l
0.14 1.42 l
0.15 0.82 l
0.14 0.11 l
0.15 0.71 l
0.14 1.08 l
0.15 0.34 l
0.14 0.61 l
0.15 -0.13 l
0.15 1.18 l
0.14 0.95 l
0.15 0.10 l
0.14 1.08 l
0.15 -0.36 l
0.14 0.71 l
0.15 1.08 l
0.15 0.95 l
0.14 -0.14 l
0.15 0.37 l
0.14 1.53 l
0.15 0.11 l
0.14 0.23 l
0.15 -0.10 l
0.14 1.05 l
0.15 0.61 l
0.15 0.58 l
0.14 -0.11 l
0.15 1.19 l
0.14 0.10 l
0.15 0 l
0.14 0.85 l
0.15 1.29 l
0.14 0.23 l
0.15 -0.13 l
0.15 0.95 l
0.14 0.37 l
0.15 0.24 l
0.14 0.58 l
0.15 -0.24 l
0.14 0.71 l
0.15 0 l
0.14 1.42 l
0.15 -0.47 l
0.15 0.71 l
0.14 0.71 l
0.15 0.82 l
0.14 -0.24 l
0.15 -0.24 l
0.14 0.72 l
0.15 1.08 l
0.15 -0.14 l
0.14 0 l
0.15 1.08 l
0.14 -0.36 l
251.52 471.80 lineto
0.14 1.29 l
0.15 0.60 l
0.14 -0.13 l
0.15 0.71 l
0.15 0.24 l
0.14 -0.11 l
0.15 1.43 l
0.14 -0.48 l
0.15 0.11 l
0.14 0.84 l
0.15 0.95 l
0.14 -0.84 l
0.15 0.47 l
0.15 0.61 l
0.14 0.34 l
0.15 0 l
0.14 0.47 l
0.15 0.35 l
0.14 0 l
0.15 0.71 l
0.14 0 l
0.15 -0.11 l
0.15 0.82 l
0.14 0.24 l
0.15 -0.24 l
0.14 -0.34 l
0.15 1.52 l
0.14 0.14 l
0.15 0.23 l
0.14 0.24 l
0.15 0.47 l
0.15 0 l
0.14 0.82 l
0.15 -1.05 l
0.14 0.81 l
0.15 0.48 l
0.14 0.81 l
0.15 -0.47 l
0.15 0.47 l
0.14 0.48 l
0.15 0.13 l
0.14 0 l
0.15 0.11 l
0.14 0.37 l
0.15 0.23 l
0.14 0.11 l
0.15 0.71 l
0.15 -0.11 l
0.14 0 l
0.15 0 l
0.14 0.82 l
0.15 0 l
0.14 0.37 l
0.15 -0.24 l
0.14 0.71 l
0.15 -0.13 l
0.15 0.13 l
0.14 1.16 l
0.15 -0.10 l
0.14 -0.48 l
0.15 0.35 l
0.14 -0.11 l
0.15 0.82 l
0.14 0.23 l
0.15 0.14 l
0.15 -0.14 l
0.14 0.48 l
0.15 0.47 l
0.14 0.13 l
0.15 -0.13 l
0.14 0.48 l
0.15 0.13 l
0.15 0.10 l
0.14 0 l
0.15 0.48 l
0.14 -0.11 l
0.15 0 l
0.14 0.24 l
0.15 0.11 l
0.14 0.60 l
0.15 -0.60 l
0.15 0.71 l
0.14 0.47 l
0.15 -0.24 l
0.14 0.58 l
0.15 -0.58 l
0.14 0.58 l
0.15 0 l
0.14 0.71 l
0.15 -0.34 l
0.15 0.34 l
0.14 -0.58 l
0.15 0.58 l
0.14 -0.23 l
0.15 0.71 l
0.14 0.24 l
0.15 -0.58 l
0.14 0.23 l
0.15 0.82 l
266.08 495.45 lineto
0.14 0.72 l
0.15 -0.24 l
0.14 0.47 l
0.15 0 l
0.14 -0.60 l
0.15 0.37 l
0.15 -0.14 l
0.14 0.14 l
0.15 0.47 l
0.14 0.34 l
0.15 0.13 l
0.14 -0.13 l
0.15 0.24 l
0.14 0.37 l
0.15 0 l
0.15 0 l
0.14 0.24 l
0.15 -0.14 l
0.14 0.72 l
0.15 0 l
0.14 -0.24 l
0.15 0.24 l
0.14 -0.11 l
0.15 0.21 l
0.15 0.13 l
0.14 0.11 l
0.15 0.47 l
0.14 -0.23 l
0.15 0.60 l
0.14 -0.37 l
0.15 -0.10 l
0.14 0.23 l
0.15 0.58 l
0.15 -0.47 l
0.14 0.13 l
0.15 0.24 l
0.14 0.34 l
0.15 0.13 l
0.14 -0.13 l
0.15 0.24 l
0.15 0.13 l
0.14 -0.61 l
0.15 0.61 l
0.14 -0.13 l
0.15 0.37 l
0.14 0.81 l
0.15 -0.71 l
0.14 0 l
0.15 0.24 l
0.15 0 l
0.14 0.47 l
0.15 -0.47 l
0.14 0.47 l
0.15 0 l
0.14 0.48 l
0.15 0.13 l
0.14 -0.13 l
0.15 -0.11 l
0.15 0 l
0.14 0.11 l
0.15 0.37 l
0.14 -0.24 l
0.15 0.10 l
0.14 0.14 l
0.15 0.34 l
0.14 -0.34 l
0.15 0.34 l
0.15 0 l
0.14 0.37 l
0.15 -0.13 l
0.14 -0.35 l
0.15 1.16 l
0.14 -0.81 l
0.15 -0.11 l
0.15 0 l
0.14 0.34 l
0.15 0.58 l
0.14 -0.34 l
0.15 0.11 l
0.14 -0.58 l
0.15 0.71 l
0.14 0 l
0.15 0.47 l
0.15 -0.71 l
0.14 0.71 l
0.15 0.24 l
0.14 0 l
0.15 -0.13 l
0.14 0.13 l
0.15 -0.48 l
0.14 0.48 l
0.15 -0.13 l
0.15 0.47 l
0.14 0.13 l
0.15 0.11 l
0.14 -0.34 l
0.15 0.47 l
0.14 -0.24 l
0.15 -0.13 l
280.63 505.49 lineto
0.15 -0.34 l
0.15 0 l
0.14 0 l
0.15 0.11 l
0.14 0.13 l
0.15 0 l
0.14 0.10 l
0.15 0 l
0.15 -0.23 l
0.14 0.23 l
0.15 0.13 l
0.14 0.24 l
0.15 -0.84 l
0.14 0.24 l
0.15 0.71 l
0.14 0 l
0.15 -0.11 l
0.15 -0.24 l
0.14 0.11 l
0.15 0.13 l
0.14 0.82 l
0.15 -0.95 l
0.14 0.47 l
0.15 0.24 l
0.14 0.24 l
0.15 0 l
0.15 -0.34 l
0.14 -0.14 l
0.15 0.61 l
0.14 0 l
0.15 -0.24 l
0.14 0.24 l
0.15 -0.37 l
0.14 0.13 l
0.15 0.24 l
0.15 0.47 l
0.14 -0.94 l
0.15 0.47 l
0.14 0.71 l
0.15 -0.84 l
0.14 0.60 l
0.15 0.11 l
0.14 0.24 l
0.15 -0.58 l
0.15 0.10 l
0.14 0.37 l
0.15 0.58 l
0.14 -0.82 l
0.15 -0.23 l
0.14 0.23 l
0.15 0 l
0.15 0.72 l
0.14 -0.95 l
0.15 0.71 l
0.14 -0.13 l
0.15 0.23 l
0.14 -0.58 l
0.15 0.48 l
0.14 0 l
0.15 0.68 l
0.15 -0.68 l
0.14 -0.37 l
0.15 0.24 l
0.14 0.60 l
0.15 -0.37 l
0.14 -0.71 l
0.15 1.43 l
0.14 -0.48 l
0.15 -0.47 l
0.15 0.60 l
0.14 0.11 l
0.15 0.24 l
0.14 -0.24 l
0.15 0.24 l
0.14 -0.35 l
0.15 0.21 l
0.14 0.37 l
0.15 -0.58 l
0.15 0 l
0.14 0.11 l
0.15 0.71 l
0.14 -0.47 l
0.15 -0.48 l
0.14 0.48 l
0.15 0 l
0.15 0.10 l
0.14 0.24 l
0.15 -0.11 l
0.14 -0.37 l
0.15 0.71 l
0.14 -0.10 l
0.15 -0.24 l
0.14 0.58 l
0.15 -0.10 l
0.15 -0.37 l
0.14 -0.34 l
0.15 0.57 l
0.14 0 l
0.15 -0.92 l
295.19 508.68 lineto
0.15 -0.10 l
0.14 0.47 l
0.15 -0.13 l
0.15 -0.11 l
0.14 0.24 l
0.15 0.47 l
0.14 -0.13 l
0.15 -0.34 l
0.14 -0.13 l
0.15 0.60 l
0.14 -0.37 l
0.15 -0.10 l
0.15 0.24 l
0.14 0.58 l
0.15 -0.35 l
0.14 -0.37 l
0.15 0.24 l
0.14 -0.34 l
0.15 0.47 l
0.15 -0.47 l
0.14 0.58 l
0.15 0.13 l
0.14 -0.13 l
0.15 -0.24 l
0.14 0.37 l
0.15 -0.13 l
0.14 -0.24 l
0.15 0.13 l
0.15 0 l
0.14 -0.13 l
0.15 0.13 l
0.14 -0.13 l
0.15 0.37 l
0.14 -0.47 l
0.15 0.34 l
0.14 0.13 l
0.15 0.47 l
0.15 -0.47 l
0.14 0.24 l
0.15 -0.37 l
0.14 -0.11 l
0.15 0.58 l
0.14 -0.47 l
0.15 0.47 l
0.14 -0.34 l
0.15 -0.13 l
0.15 0.60 l
0.14 0.11 l
0.15 -0.24 l
0.14 -0.23 l
0.15 0 l
0.14 0.13 l
0.15 0.23 l
0.15 -0.60 l
0.14 0 l
0.15 0.47 l
0.14 0 l
0.15 0.13 l
0.14 -0.36 l
0.15 0.23 l
0.14 0 l
0.15 -0.10 l
0.15 -0.13 l
0.14 0 l
0.15 0.13 l
0.14 0.10 l
0.15 0.13 l
0.14 0.11 l
0.15 -0.11 l
0.14 0.24 l
0.15 -0.24 l
0.15 -0.60 l
0.14 0.60 l
0.15 -0.13 l
0.14 0.48 l
0.15 0.23 l
0.14 0.24 l
0.15 -1.29 l
0.14 0.58 l
0.15 0 l
0.15 0.13 l
0.14 0.24 l
0.15 0 l
0.14 -0.37 l
0.15 -0.11 l
0.14 0.35 l
0.15 -0.48 l
0.15 0.61 l
0.14 -0.13 l
0.15 0 l
0.14 -0.11 l
0.15 -0.24 l
0.14 0.72 l
0.15 -0.24 l
0.14 -0.48 l
0.15 0.35 l
0.15 0.23 l
0.14 0 l
0.15 0 l
309.75 510.71 lineto
0.15 -0.61 l
0.14 0.37 l
0.15 0.34 l
0.14 -0.10 l
0.15 -0.24 l
0.15 0.11 l
0.14 -0.24 l
0.15 0.37 l
0.14 0.34 l
0.15 -0.58 l
0.14 0.58 l
0.15 -0.10 l
0.14 0 l
0.15 -0.24 l
0.15 0.24 l
0.14 0.23 l
0.15 -0.47 l
0.14 0.24 l
0.15 0.23 l
0.14 -0.37 l
0.15 -0.23 l
0.15 0.47 l
0.14 0.13 l
0.15 -0.13 l
0.14 -0.58 l
0.15 0.82 l
0.14 -0.34 l
0.15 -0.48 l
0.14 0.48 l
0.15 -0.24 l
0.15 0.24 l
0.14 0 l
0.15 0 l
0.14 0.23 l
0.15 -0.60 l
0.14 0.37 l
0.15 0.34 l
0.14 0 l
0.15 -0.34 l
0.15 0.10 l
0.14 -0.34 l
0.15 0.58 l
0.14 -0.58 l
0.15 0.24 l
0.14 0 l
0.15 0.47 l
0.14 -0.47 l
0.15 0.10 l
0.15 -0.34 l
0.14 0.34 l
0.15 -0.10 l
0.14 -0.14 l
0.15 -0.47 l
0.14 0.37 l
0.15 0.24 l
0.15 0.10 l
0.14 -0.34 l
0.15 0.71 l
0.14 -0.13 l
0.15 -0.11 l
0.14 0 l
0.15 0.24 l
0.14 -0.24 l
0.15 -0.13 l
0.15 0 l
0.14 0.13 l
0.15 0.11 l
0.14 -0.34 l
0.15 0.47 l
0.14 -0.95 l
0.15 0.82 l
0.14 -0.11 l
0.15 -0.23 l
0.15 0.34 l
0.14 -0.24 l
0.15 0.37 l
0.14 -0.61 l
0.15 0.48 l
0.14 -0.34 l
0.15 -0.14 l
0.14 -0.23 l
0.15 0.71 l
0.15 0.24 l
0.14 0 l
0.15 -0.48 l
0.14 0 l
0.15 -0.34 l
0.14 0.47 l
0.15 0 l
0.14 0.24 l
0.15 -0.47 l
0.15 0.10 l
0.14 0 l
0.15 0.61 l
0.14 -0.37 l
0.15 -0.24 l
0.14 -0.58 l
0.15 0.82 l
0.15 -0.11 l
324.31 510.81 lineto
0.15 0.72 l
0.14 -0.35 l
0.15 -0.23 l
0.14 0.23 l
0.15 0.35 l
0.14 -0.11 l
0.15 -0.37 l
0.15 0.24 l
0.14 0.13 l
0.15 -0.61 l
0.14 0.14 l
0.15 0.23 l
0.14 0.24 l
0.15 -0.24 l
0.14 0.58 l
0.15 -0.23 l
0.15 -0.24 l
0.14 0.24 l
0.15 -0.24 l
0.14 0.13 l
0.15 0.11 l
0.14 0.13 l
0.15 -0.13 l
0.14 0.36 l
0.15 -0.60 l
0.15 -0.34 l
0.14 -0.24 l
0.15 0.82 l
0.14 0 l
0.15 0 l
0.14 -0.11 l
0.15 -0.13 l
0.15 -0.34 l
0.14 0.81 l
0.15 -0.23 l
0.14 -0.58 l
0.15 -0.37 l
0.14 1.18 l
0.15 -0.34 l
0.14 0.11 l
0.15 -0.35 l
0.15 0.11 l
0.14 0.47 l
0.15 -0.81 l
0.14 0.10 l
0.15 -0.10 l
0.14 0.10 l
0.15 0.37 l
0.14 -0.24 l
0.15 -0.13 l
0.15 0.37 l
0.14 0.34 l
0.15 -0.23 l
0.14 0 l
0.15 -0.24 l
0.14 0.37 l
0.15 -0.61 l
0.14 0 l
0.15 0.48 l
0.15 0.13 l
0.14 0.23 l
0.15 -0.36 l
0.14 -0.58 l
0.15 0.23 l
0.14 0.35 l
0.15 0.23 l
0.15 -0.58 l
0.14 0.11 l
0.15 -0.34 l
0.14 0.34 l
0.15 -0.11 l
0.14 0.48 l
0.15 -0.48 l
0.14 0.35 l
0.15 0 l
0.15 0.13 l
0.14 -0.37 l
0.15 0.13 l
0.14 -0.13 l
0.15 -0.11 l
0.14 0.35 l
0.15 0.23 l
0.14 -0.58 l
0.15 -0.23 l
0.15 0.34 l
0.14 0 l
0.15 0.47 l
0.14 -0.58 l
0.15 0.24 l
0.14 -0.13 l
0.15 -0.11 l
0.14 0.24 l
0.15 -0.24 l
0.15 0 l
0.14 0.82 l
0.15 -0.47 l
0.14 -0.11 l
0.15 -0.24 l
0.14 0.24 l
338.87 511.66 lineto
0.15 -0.24 l
0.14 0.24 l
0.15 -0.37 l
0.14 -0.58 l
0.15 0.71 l
0.14 0.34 l
0.15 -0.23 l
0.14 0.23 l
0.15 -1.18 l
0.15 1.31 l
0.14 -0.84 l
0.15 0.24 l
0.14 -0.24 l
0.15 0.61 l
0.14 0.10 l
0.15 -0.47 l
0.14 0.37 l
0.15 -0.95 l
0.15 0.24 l
0.14 0.23 l
0.15 0.48 l
0.14 -0.24 l
0.15 -0.71 l
0.14 0.47 l
0.15 -0.13 l
0.14 0.37 l
0.15 -0.37 l
0.15 0.61 l
0.14 -0.37 l
0.15 0.37 l
0.14 0.23 l
0.15 -0.84 l
0.14 0.37 l
0.15 0.34 l
0.15 -0.23 l
0.14 -0.11 l
0.15 -0.24 l
0.14 0.35 l
0.15 -0.24 l
0.14 0.13 l
0.15 -0.13 l
0.14 0 l
0.15 -0.34 l
0.15 0.34 l
0.14 -0.34 l
0.15 0.47 l
0.14 -0.13 l
0.15 -0.24 l
0.14 0 l
0.15 -0.24 l
0.14 0.24 l
0.15 0.24 l
0.15 0.37 l
0.14 -0.48 l
0.15 -0.37 l
0.14 0.24 l
0.15 0.61 l
0.14 -0.61 l
0.15 0 l
0.14 0.24 l
0.15 0 l
0.15 -0.11 l
0.14 0.35 l
0.15 -0.11 l
0.14 0.24 l
0.15 -0.37 l
0.14 0.13 l
0.15 0 l
0.15 -0.71 l
0.14 0.24 l
0.15 0.10 l
0.14 0.37 l
0.15 -0.24 l
0.14 0.24 l
0.15 -0.47 l
0.14 0.58 l
0.15 0.13 l
0.15 -0.24 l
0.14 0.11 l
0.15 -0.11 l
0.14 -0.47 l
0.15 0.34 l
0.14 0.37 l
0.15 -0.48 l
0.14 0.35 l
0.15 -0.24 l
0.15 0 l
0.14 0.13 l
0.15 0.11 l
0.14 0 l
0.15 -0.35 l
0.14 0 l
0.15 0.58 l
0.14 -0.58 l
0.15 -0.13 l
0.15 0 l
0.14 0 l
0.15 0.13 l
0.14 0.11 l
353.43 511.53 lineto
0.14 -0.72 l
0.15 1.08 l
0.14 -0.60 l
0.15 0.47 l
0.15 -0.58 l
0.14 -0.13 l
0.15 0.37 l
0.14 -0.13 l
0.15 0 l
0.14 0.37 l
0.15 -0.85 l
0.15 0.72 l
0.14 -0.48 l
0.15 0 l
0.14 0.13 l
0.15 0 l
0.14 0 l
0.15 0.11 l
0.14 -0.11 l
0.15 0.24 l
0.15 -0.24 l
0.14 -0.23 l
0.15 0.23 l
0.14 0 l
0.15 -0.47 l
0.14 0.71 l
0.15 -0.47 l
0.14 0.23 l
0.15 -0.23 l
0.15 0.34 l
0.14 -0.24 l
0.15 0 l
0.14 0.61 l
0.15 -0.48 l
0.14 0 l
0.15 0.24 l
0.14 -0.61 l
0.15 0.37 l
0.15 -0.37 l
0.14 0.61 l
0.15 -0.13 l
0.14 0.47 l
0.15 -0.47 l
0.14 0.13 l
0.15 -0.24 l
0.15 0 l
0.14 0 l
0.15 -0.13 l
0.14 0 l
0.15 0.13 l
0.14 0 l
0.15 0.35 l
0.14 -0.11 l
0.15 -0.37 l
0.15 0 l
0.14 0.24 l
0.15 -0.24 l
0.14 0.37 l
0.15 -0.47 l
0.14 0.47 l
0.15 -0.37 l
0.14 0.24 l
0.15 -0.71 l
0.15 0.13 l
0.14 0.34 l
0.15 0 l
0.14 -0.47 l
0.15 0.60 l
0.14 -0.13 l
0.15 0 l
0.14 -0.24 l
0.15 0.61 l
0.15 -0.84 l
0.14 0.47 l
0.15 0.24 l
0.14 -0.11 l
0.15 -0.47 l
0.14 -0.13 l
0.15 0.60 l
0.15 -0.13 l
0.14 -0.10 l
0.15 -0.14 l
0.14 -0.10 l
0.15 0.10 l
0.14 0.24 l
0.15 0.84 l
0.14 -1.08 l
0.15 -0.23 l
0.15 0.47 l
0.14 0.24 l
0.15 0.24 l
0.14 0.13 l
0.15 -0.61 l
0.14 0.13 l
0.15 -0.13 l
0.14 0 l
0.15 -0.24 l
0.15 -0.10 l
0.14 0.34 l
currentpoint o m
367.99 511.05 lineto
0.14 0 l
0.15 0 l
0.14 -0.47 l
0.15 0.13 l
0.14 0.34 l
0.15 -0.10 l
0.15 0 l
0.14 0.47 l
0.15 -0.71 l
0.14 0.34 l
0.15 -0.24 l
0.14 0 l
0.15 0.14 l
0.15 -0.37 l
0.14 0.23 l
0.15 0.14 l
0.14 -0.24 l
0.15 0.58 l
0.14 -0.58 l
0.15 0.24 l
0.14 0 l
0.15 -0.14 l
0.15 0 l
0.14 0.14 l
0.15 -0.37 l
0.14 0.23 l
0.15 -0.10 l
0.14 0.47 l
0.15 0 l
0.14 -0.37 l
0.15 0.14 l
0.15 -0.24 l
0.14 0.34 l
0.15 0.24 l
0.14 -0.71 l
0.15 0.13 l
0.14 0.24 l
0.15 0 l
0.14 -0.48 l
0.15 0.71 l
0.15 -0.23 l
0.14 0 l
0.15 -0.37 l
0.14 0 l
0.15 0.23 l
0.14 -0.10 l
0.15 0.47 l
0.15 0.11 l
0.14 -0.58 l
0.15 0.10 l
0.14 0.24 l
0.15 0.37 l
0.14 -1.32 l
0.15 0.95 l
0.14 0.13 l
0.15 -0.13 l
0.15 -0.24 l
0.14 -0.47 l
0.15 0.47 l
0.14 0.37 l
0.15 -0.37 l
0.14 -0.23 l
0.15 -0.11 l
0.14 0.34 l
0.15 0.61 l
0.15 -0.95 l
0.14 0.34 l
0.15 0.24 l
0.14 -0.47 l
0.15 0.23 l
0.14 -0.23 l
0.15 0.13 l
0.14 0.24 l
0.15 0.81 l
0.15 -0.95 l
0.14 0.14 l
0.15 -0.14 l
0.14 0.14 l
0.15 -0.61 l
0.14 0.71 l
0.15 -0.24 l
0.15 0.37 l
0.14 -0.47 l
0.15 0.10 l
0.14 -0.58 l
0.15 0.58 l
0.14 0.24 l
0.15 -0.10 l
0.14 0 l
0.15 -0.37 l
0.15 0.60 l
0.14 -0.37 l
0.15 0.24 l
0.14 -0.47 l
0.15 -0.11 l
0.14 0.48 l
0.15 0 l
0.14 0.10 l
0.15 -0.58 l
o
/bg { 1 1 1 srgb } def
222.40 510.95 0.43 c p3
222.55 511.42 0.43 c p3
222.69 510.81 0.43 c p3
222.84 511.42 0.43 c p3
222.98 510.81 0.43 c p3
223.13 511.76 0.43 c p3
223.27 510.95 0.43 c p3
223.42 511.18 0.43 c p3
223.56 510.81 0.43 c p3
223.71 511.89 0.43 c p3
223.86 511.42 0.43 c p3
224.00 511.18 0.43 c p3
224.15 510.81 0.43 c p3
224.29 511.18 0.43 c p3
224.44 510.95 0.43 c p3
224.58 511.53 0.43 c p3
224.73 510.95 0.43 c p3
224.87 511.53 0.43 c p3
225.02 510.81 0.43 c p3
225.17 511.42 0.43 c p3
225.31 510.95 0.43 c p3
225.46 511.18 0.43 c p3
225.60 511.05 0.43 c p3
225.75 510.95 0.43 c p3
225.89 510.81 0.43 c p3
226.04 511.53 0.43 c p3
226.19 510.81 0.43 c p3
226.33 511.89 0.43 c p3
226.48 510.58 0.43 c p3
226.62 511.18 0.43 c p3
226.77 511.05 0.43 c p3
226.91 511.05 0.43 c p3
227.06 511.05 0.43 c p3
227.20 511.42 0.43 c p3
227.35 511.29 0.43 c p3
227.50 511.05 0.43 c p3
227.64 511.18 0.43 c p3
227.79 511.18 0.43 c p3
227.93 510.58 0.43 c p3
228.08 511.66 0.43 c p3
228.22 511.05 0.43 c p3
228.37 511.42 0.43 c p3
228.51 510.81 0.43 c p3
228.66 511.42 0.43 c p3
228.81 511.05 0.43 c p3
228.95 511.66 0.43 c p3
229.10 511.18 0.43 c p3
229.24 511.29 0.43 c p3
229.39 510.81 0.43 c p3
229.53 511.42 0.43 c p3
229.68 511.05 0.43 c p3
229.82 511.18 0.43 c p3
229.97 511.18 0.43 c p3
230.12 511.05 0.43 c p3
230.26 511.05 0.43 c p3
230.41 511.18 0.43 c p3
230.55 511.29 0.43 c p3
230.70 511.66 0.43 c p3
230.84 510.81 0.43 c p3
230.99 511.18 0.43 c p3
231.14 510.81 0.43 c p3
231.28 511.05 0.43 c p3
231.43 511.05 0.43 c p3
231.57 511.42 0.43 c p3
231.72 510.81 0.43 c p3
231.86 510.71 0.43 c p3
232.01 510.47 0.43 c p3
232.15 511.53 0.43 c p3
232.30 510.95 0.43 c p3
232.45 510.95 0.43 c p3
232.59 510.71 0.43 c p3
232.74 511.66 0.43 c p3
232.88 511.18 0.43 c p3
233.03 511.18 0.43 c p3
233.17 511.18 0.43 c p3
233.32 510.95 0.43 c p3
233.46 511.53 0.43 c p3
233.61 511.18 0.43 c p3
233.76 510.95 0.43 c p3
233.90 511.66 0.43 c p3
234.05 510.81 0.43 c p3
234.19 511.76 0.43 c p3
234.34 510.71 0.43 c p3
234.48 511.53 0.43 c p3
234.63 510.95 0.43 c p3
234.77 511.18 0.43 c p3
234.92 510.71 0.43 c p3
235.07 511.18 0.43 c p3
235.21 511.18 0.43 c p3
235.36 511.18 0.43 c p3
235.50 511.29 0.43 c p3
235.65 510.95 0.43 c p3
235.79 511.05 0.43 c p3
235.94 511.42 0.43 c p3
236.09 510.23 0.43 c p3
236.23 511.53 0.43 c p3
236.38 510.81 0.43 c p3
236.52 511.66 0.43 c p3
236.67 511.42 0.43 c p3
236.81 511.42 0.43 c p3
236.96 400.98 0.43 c p3
237.10 402.83 0.43 c p3
237.25 404.64 0.43 c p3
237.40 405.93 0.43 c p3
237.54 407.48 0.43 c p3
237.69 409.25 0.43 c p3
237.83 410.30 0.43 c p3
237.98 411.49 0.43 c p3
238.12 413.02 0.43 c p3
238.27 415.05 0.43 c p3
238.41 415.52 0.43 c p3
238.56 417.05 0.43 c p3
238.71 418.95 0.43 c p3
238.85 419.05 0.43 c p3
239.00 420.24 0.43 c p3
239.14 421.42 0.43 c p3
239.29 422.37 0.43 c p3
239.43 423.32 0.43 c p3
239.58 424.37 0.43 c p3
239.72 425.80 0.43 c p3
239.87 426.88 0.43 c p3
240.02 427.22 0.43 c p3
240.16 428.75 0.43 c p3
240.31 429.22 0.43 c p3
240.45 430.30 0.43 c p3
240.60 430.77 0.43 c p3
240.74 432.43 0.43 c p3
240.89 433.36 0.43 c p3
241.04 433.12 0.43 c p3
241.18 433.49 0.43 c p3
241.33 434.67 0.43 c p3
241.47 436.33 0.43 c p3
241.62 437.05 0.43 c p3
241.76 437.39 0.43 c p3
241.91 437.52 0.43 c p3
242.05 439.52 0.43 c p3
242.20 440.10 0.43 c p3
242.35 440.71 0.43 c p3
242.49 440.47 0.43 c p3
242.64 441.89 0.43 c p3
242.78 442.82 0.43 c p3
242.93 443.53 0.43 c p3
243.07 443.76 0.43 c p3
243.22 444.71 0.43 c p3
243.36 444.84 0.43 c p3
243.51 445.79 0.43 c p3
243.66 445.79 0.43 c p3
243.80 447.21 0.43 c p3
243.95 448.03 0.43 c p3
244.09 448.14 0.43 c p3
244.24 448.85 0.43 c p3
244.38 449.93 0.43 c p3
244.53 450.27 0.43 c p3
244.67 450.88 0.43 c p3
244.82 450.75 0.43 c p3
244.97 451.93 0.43 c p3
245.11 452.88 0.43 c p3
245.26 452.98 0.43 c p3
245.40 454.06 0.43 c p3
245.55 453.70 0.43 c p3
245.69 454.41 0.43 c p3
245.84 455.49 0.43 c p3
245.99 456.44 0.43 c p3
246.13 456.30 0.43 c p3
246.28 456.67 0.43 c p3
246.42 458.20 0.43 c p3
246.57 458.31 0.43 c p3
246.71 458.54 0.43 c p3
246.86 458.44 0.43 c p3
247.00 459.49 0.43 c p3
247.15 460.10 0.43 c p3
247.30 460.68 0.43 c p3
247.44 460.57 0.43 c p3
247.59 461.76 0.43 c p3
247.73 461.86 0.43 c p3
247.88 461.86 0.43 c p3
248.02 462.71 0.43 c p3
248.17 464.00 0.43 c p3
248.31 464.23 0.43 c p3
248.46 464.10 0.43 c p3
248.61 465.05 0.43 c p3
248.75 465.42 0.43 c p3
248.90 465.66 0.43 c p3
249.04 466.24 0.43 c p3
249.19 466.00 0.43 c p3
249.33 466.71 0.43 c p3
249.48 466.71 0.43 c p3
249.62 468.13 0.43 c p3
249.77 467.66 0.43 c p3
249.92 468.37 0.43 c p3
250.06 469.08 0.43 c p3
250.21 469.90 0.43 c p3
250.35 469.66 0.43 c p3
250.50 469.42 0.43 c p3
250.64 470.14 0.43 c p3
250.79 471.22 0.43 c p3
250.94 471.08 0.43 c p3
251.08 471.08 0.43 c p3
251.23 472.16 0.43 c p3
251.37 471.80 0.43 c p3
251.52 471.80 0.43 c p3
251.66 473.09 0.43 c p3
251.81 473.69 0.43 c p3
251.95 473.56 0.43 c p3
252.10 474.27 0.43 c p3
252.25 474.51 0.43 c p3
252.39 474.40 0.43 c p3
252.54 475.83 0.43 c p3
252.68 475.35 0.43 c p3
252.83 475.46 0.43 c p3
252.97 476.30 0.43 c p3
253.12 477.25 0.43 c p3
253.26 476.41 0.43 c p3
253.41 476.88 0.43 c p3
253.56 477.49 0.43 c p3
253.70 477.83 0.43 c p3
253.85 477.83 0.43 c p3
253.99 478.30 0.43 c p3
254.14 478.65 0.43 c p3
254.28 478.65 0.43 c p3
254.43 479.36 0.43 c p3
254.57 479.36 0.43 c p3
254.72 479.25 0.43 c p3
254.87 480.07 0.43 c p3
255.01 480.31 0.43 c p3
255.16 480.07 0.43 c p3
255.30 479.73 0.43 c p3
255.45 481.25 0.43 c p3
255.59 481.39 0.43 c p3
255.74 481.62 0.43 c p3
255.88 481.86 0.43 c p3
256.03 482.33 0.43 c p3
256.18 482.33 0.43 c p3
256.32 483.15 0.43 c p3
256.47 482.10 0.43 c p3
256.61 482.91 0.43 c p3
256.76 483.39 0.43 c p3
256.90 484.20 0.43 c p3
257.05 483.73 0.43 c p3
257.20 484.20 0.43 c p3
257.34 484.68 0.43 c p3
257.49 484.81 0.43 c p3
257.63 484.81 0.43 c p3
257.78 484.92 0.43 c p3
257.92 485.29 0.43 c p3
258.07 485.52 0.43 c p3
258.21 485.63 0.43 c p3
258.36 486.34 0.43 c p3
258.51 486.23 0.43 c p3
258.65 486.23 0.43 c p3
258.80 486.23 0.43 c p3
258.94 487.05 0.43 c p3
259.09 487.05 0.43 c p3
259.23 487.42 0.43 c p3
259.38 487.18 0.43 c p3
259.52 487.89 0.43 c p3
259.67 487.76 0.43 c p3
259.82 487.89 0.43 c p3
259.96 489.05 0.43 c p3
260.11 488.95 0.43 c p3
260.25 488.47 0.43 c p3
260.40 488.82 0.43 c p3
260.54 488.71 0.43 c p3
260.69 489.53 0.43 c p3
260.83 489.76 0.43 c p3
260.98 489.90 0.43 c p3
261.13 489.76 0.43 c p3
261.27 490.24 0.43 c p3
261.42 490.71 0.43 c p3
261.56 490.84 0.43 c p3
261.71 490.71 0.43 c p3
261.85 491.19 0.43 c p3
262.00 491.32 0.43 c p3
262.15 491.42 0.43 c p3
262.29 491.42 0.43 c p3
262.44 491.90 0.43 c p3
262.58 491.79 0.43 c p3
262.73 491.79 0.43 c p3
262.87 492.03 0.43 c p3
263.02 492.14 0.43 c p3
263.16 492.74 0.43 c p3
263.31 492.14 0.43 c p3
263.46 492.85 0.43 c p3
263.60 493.32 0.43 c p3
263.75 493.08 0.43 c p3
263.89 493.66 0.43 c p3
264.04 493.08 0.43 c p3
264.18 493.66 0.43 c p3
264.33 493.66 0.43 c p3
264.47 494.37 0.43 c p3
264.62 494.03 0.43 c p3
264.77 494.37 0.43 c p3
264.91 493.79 0.43 c p3
265.06 494.37 0.43 c p3
265.20 494.14 0.43 c p3
265.35 494.85 0.43 c p3
265.49 495.09 0.43 c p3
265.64 494.51 0.43 c p3
265.78 494.74 0.43 c p3
265.93 495.56 0.43 c p3
266.08 495.45 0.43 c p3
266.22 496.17 0.43 c p3
266.37 495.93 0.43 c p3
266.51 496.40 0.43 c p3
266.66 496.40 0.43 c p3
266.80 495.80 0.43 c p3
266.95 496.17 0.43 c p3
267.10 496.03 0.43 c p3
267.24 496.17 0.43 c p3
267.39 496.64 0.43 c p3
267.53 496.98 0.43 c p3
267.68 497.11 0.43 c p3
267.82 496.98 0.43 c p3
267.97 497.22 0.43 c p3
268.11 497.59 0.43 c p3
268.26 497.59 0.43 c p3
268.41 497.59 0.43 c p3
268.55 497.83 0.43 c p3
268.70 497.69 0.43 c p3
268.84 498.41 0.43 c p3
268.99 498.41 0.43 c p3
269.13 498.17 0.43 c p3
269.28 498.41 0.43 c p3
269.42 498.30 0.43 c p3
269.57 498.51 0.43 c p3
269.72 498.64 0.43 c p3
269.86 498.75 0.43 c p3
270.01 499.22 0.43 c p3
270.15 498.99 0.43 c p3
270.30 499.59 0.43 c p3
270.44 499.22 0.43 c p3
270.59 499.12 0.43 c p3
270.73 499.35 0.43 c p3
270.88 499.93 0.43 c p3
271.03 499.46 0.43 c p3
271.17 499.59 0.43 c p3
271.32 499.83 0.43 c p3
271.46 500.17 0.43 c p3
271.61 500.30 0.43 c p3
271.75 500.17 0.43 c p3
271.90 500.41 0.43 c p3
272.05 500.54 0.43 c p3
272.19 499.93 0.43 c p3
272.34 500.54 0.43 c p3
272.48 500.41 0.43 c p3
272.63 500.78 0.43 c p3
272.77 501.59 0.43 c p3
272.92 500.88 0.43 c p3
273.06 500.88 0.43 c p3
273.21 501.12 0.43 c p3
273.36 501.12 0.43 c p3
273.50 501.59 0.43 c p3
273.65 501.12 0.43 c p3
273.79 501.59 0.43 c p3
273.94 501.59 0.43 c p3
274.08 502.07 0.43 c p3
274.23 502.20 0.43 c p3
274.37 502.07 0.43 c p3
274.52 501.96 0.43 c p3
274.67 501.96 0.43 c p3
274.81 502.07 0.43 c p3
274.96 502.44 0.43 c p3
275.10 502.20 0.43 c p3
275.25 502.30 0.43 c p3
275.39 502.44 0.43 c p3
275.54 502.78 0.43 c p3
275.68 502.44 0.43 c p3
275.83 502.78 0.43 c p3
275.98 502.78 0.43 c p3
276.12 503.15 0.43 c p3
276.27 503.02 0.43 c p3
276.41 502.67 0.43 c p3
276.56 503.83 0.43 c p3
276.70 503.02 0.43 c p3
276.85 502.91 0.43 c p3
277.00 502.91 0.43 c p3
277.14 503.25 0.43 c p3
277.29 503.83 0.43 c p3
277.43 503.49 0.43 c p3
277.58 503.60 0.43 c p3
277.72 503.02 0.43 c p3
277.87 503.73 0.43 c p3
278.01 503.73 0.43 c p3
278.16 504.20 0.43 c p3
278.31 503.49 0.43 c p3
278.45 504.20 0.43 c p3
278.60 504.44 0.43 c p3
278.74 504.44 0.43 c p3
278.89 504.31 0.43 c p3
279.03 504.44 0.43 c p3
279.18 503.96 0.43 c p3
279.32 504.44 0.43 c p3
279.47 504.31 0.43 c p3
279.62 504.78 0.43 c p3
279.76 504.91 0.43 c p3
279.91 505.02 0.43 c p3
280.05 504.68 0.43 c p3
280.20 505.15 0.43 c p3
280.34 504.91 0.43 c p3
280.49 504.78 0.43 c p3
280.63 505.49 0.43 c p3
280.78 505.15 0.43 c p3
280.93 505.15 0.43 c p3
281.07 505.15 0.43 c p3
281.22 505.26 0.43 c p3
281.36 505.39 0.43 c p3
281.51 505.39 0.43 c p3
281.65 505.49 0.43 c p3
281.80 505.49 0.43 c p3
281.95 505.26 0.43 c p3
282.09 505.49 0.43 c p3
282.24 505.62 0.43 c p3
282.38 505.86 0.43 c p3
282.53 505.02 0.43 c p3
282.67 505.26 0.43 c p3
282.82 505.97 0.43 c p3
282.96 505.97 0.43 c p3
283.11 505.86 0.43 c p3
283.26 505.62 0.43 c p3
283.40 505.73 0.43 c p3
283.55 505.86 0.43 c p3
283.69 506.68 0.43 c p3
283.84 505.73 0.43 c p3
283.98 506.20 0.43 c p3
284.13 506.44 0.43 c p3
284.27 506.68 0.43 c p3
284.42 506.68 0.43 c p3
284.57 506.34 0.43 c p3
284.71 506.20 0.43 c p3
284.86 506.81 0.43 c p3
285.00 506.81 0.43 c p3
285.15 506.57 0.43 c p3
285.29 506.81 0.43 c p3
285.44 506.44 0.43 c p3
285.58 506.57 0.43 c p3
285.73 506.81 0.43 c p3
285.88 507.28 0.43 c p3
286.02 506.34 0.43 c p3
286.17 506.81 0.43 c p3
286.31 507.52 0.43 c p3
286.46 506.68 0.43 c p3
286.60 507.28 0.43 c p3
286.75 507.39 0.43 c p3
286.89 507.63 0.43 c p3
287.04 507.05 0.43 c p3
287.19 507.15 0.43 c p3
287.33 507.52 0.43 c p3
287.48 508.10 0.43 c p3
287.62 507.28 0.43 c p3
287.77 507.05 0.43 c p3
287.91 507.28 0.43 c p3
288.06 507.28 0.43 c p3
288.21 508.00 0.43 c p3
288.35 507.05 0.43 c p3
288.50 507.76 0.43 c p3
288.64 507.63 0.43 c p3
288.79 507.86 0.43 c p3
288.93 507.28 0.43 c p3
289.08 507.76 0.43 c p3
289.22 507.76 0.43 c p3
289.37 508.44 0.43 c p3
289.52 507.76 0.43 c p3
289.66 507.39 0.43 c p3
289.81 507.63 0.43 c p3
289.95 508.23 0.43 c p3
290.10 507.86 0.43 c p3
290.24 507.15 0.43 c p3
290.39 508.58 0.43 c p3
290.53 508.10 0.43 c p3
290.68 507.63 0.43 c p3
290.83 508.23 0.43 c p3
290.97 508.34 0.43 c p3
291.12 508.58 0.43 c p3
291.26 508.34 0.43 c p3
291.41 508.58 0.43 c p3
291.55 508.23 0.43 c p3
291.70 508.44 0.43 c p3
291.84 508.81 0.43 c p3
291.99 508.23 0.43 c p3
292.14 508.23 0.43 c p3
292.28 508.34 0.43 c p3
292.43 509.05 0.43 c p3
292.57 508.58 0.43 c p3
292.72 508.10 0.43 c p3
292.86 508.58 0.43 c p3
293.01 508.58 0.43 c p3
293.16 508.68 0.43 c p3
293.30 508.92 0.43 c p3
293.45 508.81 0.43 c p3
293.59 508.44 0.43 c p3
293.74 509.15 0.43 c p3
293.88 509.05 0.43 c p3
294.03 508.81 0.43 c p3
294.17 509.39 0.43 c p3
294.32 509.29 0.43 c p3
294.47 508.92 0.43 c p3
294.61 508.58 0.43 c p3
294.76 509.15 0.43 c p3
294.90 509.15 0.43 c p3
295.05 508.23 0.43 c p3
295.19 508.68 0.43 c p3
295.34 508.58 0.43 c p3
295.48 509.05 0.43 c p3
295.63 508.92 0.43 c p3
295.78 508.81 0.43 c p3
295.92 509.05 0.43 c p3
296.07 509.52 0.43 c p3
296.21 509.39 0.43 c p3
296.36 509.05 0.43 c p3
296.50 508.92 0.43 c p3
296.65 509.52 0.43 c p3
296.79 509.15 0.43 c p3
296.94 509.05 0.43 c p3
297.09 509.29 0.43 c p3
297.23 509.87 0.43 c p3
297.38 509.52 0.43 c p3
297.52 509.15 0.43 c p3
297.67 509.39 0.43 c p3
297.81 509.05 0.43 c p3
297.96 509.52 0.43 c p3
298.11 509.05 0.43 c p3
298.25 509.63 0.43 c p3
298.40 509.76 0.43 c p3
298.54 509.63 0.43 c p3
298.69 509.39 0.43 c p3
298.83 509.76 0.43 c p3
298.98 509.63 0.43 c p3
299.12 509.39 0.43 c p3
299.27 509.52 0.43 c p3
299.42 509.52 0.43 c p3
299.56 509.39 0.43 c p3
299.71 509.52 0.43 c p3
299.85 509.39 0.43 c p3
300.00 509.76 0.43 c p3
300.14 509.29 0.43 c p3
300.29 509.63 0.43 c p3
300.43 509.76 0.43 c p3
300.58 510.23 0.43 c p3
300.73 509.76 0.43 c p3
300.87 510.00 0.43 c p3
301.02 509.63 0.43 c p3
301.16 509.52 0.43 c p3
301.31 510.10 0.43 c p3
301.45 509.63 0.43 c p3
301.60 510.10 0.43 c p3
301.74 509.76 0.43 c p3
301.89 509.63 0.43 c p3
302.04 510.23 0.43 c p3
302.18 510.34 0.43 c p3
302.33 510.10 0.43 c p3
302.47 509.87 0.43 c p3
302.62 509.87 0.43 c p3
302.76 510.00 0.43 c p3
302.91 510.23 0.43 c p3
303.06 509.63 0.43 c p3
303.20 509.63 0.43 c p3
303.35 510.10 0.43 c p3
303.49 510.10 0.43 c p3
303.64 510.23 0.43 c p3
303.78 509.87 0.43 c p3
303.93 510.10 0.43 c p3
304.07 510.10 0.43 c p3
304.22 510.00 0.43 c p3
304.37 509.87 0.43 c p3
304.51 509.87 0.43 c p3
304.66 510.00 0.43 c p3
304.80 510.10 0.43 c p3
304.95 510.23 0.43 c p3
305.09 510.34 0.43 c p3
305.24 510.23 0.43 c p3
305.38 510.47 0.43 c p3
305.53 510.23 0.43 c p3
305.68 509.63 0.43 c p3
305.82 510.23 0.43 c p3
305.97 510.10 0.43 c p3
306.11 510.58 0.43 c p3
306.26 510.81 0.43 c p3
306.40 511.05 0.43 c p3
306.55 509.76 0.43 c p3
306.69 510.34 0.43 c p3
306.84 510.34 0.43 c p3
306.99 510.47 0.43 c p3
307.13 510.71 0.43 c p3
307.28 510.71 0.43 c p3
307.42 510.34 0.43 c p3
307.57 510.23 0.43 c p3
307.71 510.58 0.43 c p3
307.86 510.10 0.43 c p3
308.01 510.71 0.43 c p3
308.15 510.58 0.43 c p3
308.30 510.58 0.43 c p3
308.44 510.47 0.43 c p3
308.59 510.23 0.43 c p3
308.73 510.95 0.43 c p3
308.88 510.71 0.43 c p3
309.02 510.23 0.43 c p3
309.17 510.58 0.43 c p3
309.32 510.81 0.43 c p3
309.46 510.81 0.43 c p3
309.61 510.81 0.43 c p3
309.75 510.71 0.43 c p3
309.90 510.10 0.43 c p3
310.04 510.47 0.43 c p3
310.19 510.81 0.43 c p3
310.33 510.71 0.43 c p3
310.48 510.47 0.43 c p3
310.63 510.58 0.43 c p3
310.77 510.34 0.43 c p3
310.92 510.71 0.43 c p3
311.06 511.05 0.43 c p3
311.21 510.47 0.43 c p3
311.35 511.05 0.43 c p3
311.50 510.95 0.43 c p3
311.64 510.95 0.43 c p3
311.79 510.71 0.43 c p3
311.94 510.95 0.43 c p3
312.08 511.18 0.43 c p3
312.23 510.71 0.43 c p3
312.37 510.95 0.43 c p3
312.52 511.18 0.43 c p3
312.66 510.81 0.43 c p3
312.81 510.58 0.43 c p3
312.96 511.05 0.43 c p3
313.10 511.18 0.43 c p3
313.25 511.05 0.43 c p3
313.39 510.47 0.43 c p3
313.54 511.29 0.43 c p3
313.68 510.95 0.43 c p3
313.83 510.47 0.43 c p3
313.97 510.95 0.43 c p3
314.12 510.71 0.43 c p3
314.27 510.95 0.43 c p3
314.41 510.95 0.43 c p3
314.56 510.95 0.43 c p3
314.70 511.18 0.43 c p3
314.85 510.58 0.43 c p3
314.99 510.95 0.43 c p3
315.14 511.29 0.43 c p3
315.28 511.29 0.43 c p3
315.43 510.95 0.43 c p3
315.58 511.05 0.43 c p3
315.72 510.71 0.43 c p3
315.87 511.29 0.43 c p3
316.01 510.71 0.43 c p3
316.16 510.95 0.43 c p3
316.30 510.95 0.43 c p3
316.45 511.42 0.43 c p3
316.59 510.95 0.43 c p3
316.74 511.05 0.43 c p3
316.89 510.71 0.43 c p3
317.03 511.05 0.43 c p3
317.18 510.95 0.43 c p3
317.32 510.81 0.43 c p3
317.47 510.34 0.43 c p3
317.61 510.71 0.43 c p3
317.76 510.95 0.43 c p3
317.91 511.05 0.43 c p3
318.05 510.71 0.43 c p3
318.20 511.42 0.43 c p3
318.34 511.29 0.43 c p3
318.49 511.18 0.43 c p3
318.63 511.18 0.43 c p3
318.78 511.42 0.43 c p3
318.92 511.18 0.43 c p3
319.07 511.05 0.43 c p3
319.22 511.05 0.43 c p3
319.36 511.18 0.43 c p3
319.51 511.29 0.43 c p3
319.65 510.95 0.43 c p3
319.80 511.42 0.43 c p3
319.94 510.47 0.43 c p3
320.09 511.29 0.43 c p3
320.23 511.18 0.43 c p3
320.38 510.95 0.43 c p3
320.53 511.29 0.43 c p3
320.67 511.05 0.43 c p3
320.82 511.42 0.43 c p3
320.96 510.81 0.43 c p3
321.11 511.29 0.43 c p3
321.25 510.95 0.43 c p3
321.40 510.81 0.43 c p3
321.54 510.58 0.43 c p3
321.69 511.29 0.43 c p3
321.84 511.53 0.43 c p3
321.98 511.53 0.43 c p3
322.13 511.05 0.43 c p3
322.27 511.05 0.43 c p3
322.42 510.71 0.43 c p3
322.56 511.18 0.43 c p3
322.71 511.18 0.43 c p3
322.85 511.42 0.43 c p3
323.00 510.95 0.43 c p3
323.15 511.05 0.43 c p3
323.29 511.05 0.43 c p3
323.44 511.66 0.43 c p3
323.58 511.29 0.43 c p3
323.73 511.05 0.43 c p3
323.87 510.47 0.43 c p3
324.02 511.29 0.43 c p3
324.17 511.18 0.43 c p3
324.31 510.81 0.43 c p3
324.46 511.53 0.43 c p3
324.60 511.18 0.43 c p3
324.75 510.95 0.43 c p3
324.89 511.18 0.43 c p3
325.04 511.53 0.43 c p3
325.18 511.42 0.43 c p3
325.33 511.05 0.43 c p3
325.48 511.29 0.43 c p3
325.62 511.42 0.43 c p3
325.77 510.81 0.43 c p3
325.91 510.95 0.43 c p3
326.06 511.18 0.43 c p3
326.20 511.42 0.43 c p3
326.35 511.18 0.43 c p3
326.49 511.76 0.43 c p3
326.64 511.53 0.43 c p3
326.79 511.29 0.43 c p3
326.93 511.53 0.43 c p3
327.08 511.29 0.43 c p3
327.22 511.42 0.43 c p3
327.37 511.53 0.43 c p3
327.51 511.66 0.43 c p3
327.66 511.53 0.43 c p3
327.80 511.89 0.43 c p3
327.95 511.29 0.43 c p3
328.10 510.95 0.43 c p3
328.24 510.71 0.43 c p3
328.39 511.53 0.43 c p3
328.53 511.53 0.43 c p3
328.68 511.53 0.43 c p3
328.82 511.42 0.43 c p3
328.97 511.29 0.43 c p3
329.12 510.95 0.43 c p3
329.26 511.76 0.43 c p3
329.41 511.53 0.43 c p3
329.55 510.95 0.43 c p3
329.70 510.58 0.43 c p3
329.84 511.76 0.43 c p3
329.99 511.42 0.43 c p3
330.13 511.53 0.43 c p3
330.28 511.18 0.43 c p3
330.43 511.29 0.43 c p3
330.57 511.76 0.43 c p3
330.72 510.95 0.43 c p3
330.86 511.05 0.43 c p3
331.01 510.95 0.43 c p3
331.15 511.05 0.43 c p3
331.30 511.42 0.43 c p3
331.44 511.18 0.43 c p3
331.59 511.05 0.43 c p3
331.74 511.42 0.43 c p3
331.88 511.76 0.43 c p3
332.03 511.53 0.43 c p3
332.17 511.53 0.43 c p3
332.32 511.29 0.43 c p3
332.46 511.66 0.43 c p3
332.61 511.05 0.43 c p3
332.75 511.05 0.43 c p3
332.90 511.53 0.43 c p3
333.05 511.66 0.43 c p3
333.19 511.89 0.43 c p3
333.34 511.53 0.43 c p3
333.48 510.95 0.43 c p3
333.63 511.18 0.43 c p3
333.77 511.53 0.43 c p3
333.92 511.76 0.43 c p3
334.07 511.18 0.43 c p3
334.21 511.29 0.43 c p3
334.36 510.95 0.43 c p3
334.50 511.29 0.43 c p3
334.65 511.18 0.43 c p3
334.79 511.66 0.43 c p3
334.94 511.18 0.43 c p3
335.08 511.53 0.43 c p3
335.23 511.53 0.43 c p3
335.38 511.66 0.43 c p3
335.52 511.29 0.43 c p3
335.67 511.42 0.43 c p3
335.81 511.29 0.43 c p3
335.96 511.18 0.43 c p3
336.10 511.53 0.43 c p3
336.25 511.76 0.43 c p3
336.39 511.18 0.43 c p3
336.54 510.95 0.43 c p3
336.69 511.29 0.43 c p3
336.83 511.29 0.43 c p3
336.98 511.76 0.43 c p3
337.12 511.18 0.43 c p3
337.27 511.42 0.43 c p3
337.41 511.29 0.43 c p3
337.56 511.18 0.43 c p3
337.70 511.42 0.43 c p3
337.85 511.18 0.43 c p3
338.00 511.18 0.43 c p3
338.14 512.00 0.43 c p3
338.29 511.53 0.43 c p3
338.43 511.42 0.43 c p3
338.58 511.18 0.43 c p3
338.72 511.42 0.43 c p3
338.87 511.66 0.43 c p3
339.02 511.42 0.43 c p3
339.16 511.66 0.43 c p3
339.31 511.29 0.43 c p3
339.45 510.71 0.43 c p3
339.60 511.42 0.43 c p3
339.74 511.76 0.43 c p3
339.89 511.53 0.43 c p3
340.03 511.76 0.43 c p3
340.18 510.58 0.43 c p3
340.33 511.89 0.43 c p3
340.47 511.05 0.43 c p3
340.62 511.29 0.43 c p3
340.76 511.05 0.43 c p3
340.91 511.66 0.43 c p3
341.05 511.76 0.43 c p3
341.20 511.29 0.43 c p3
341.34 511.66 0.43 c p3
341.49 510.71 0.43 c p3
341.64 510.95 0.43 c p3
341.78 511.18 0.43 c p3
341.93 511.66 0.43 c p3
342.07 511.42 0.43 c p3
342.22 510.71 0.43 c p3
342.36 511.18 0.43 c p3
342.51 511.05 0.43 c p3
342.65 511.42 0.43 c p3
342.80 511.05 0.43 c p3
342.95 511.66 0.43 c p3
343.09 511.29 0.43 c p3
343.24 511.66 0.43 c p3
343.38 511.89 0.43 c p3
343.53 511.05 0.43 c p3
343.67 511.42 0.43 c p3
343.82 511.76 0.43 c p3
343.97 511.53 0.43 c p3
344.11 511.42 0.43 c p3
344.26 511.18 0.43 c p3
344.40 511.53 0.43 c p3
344.55 511.29 0.43 c p3
344.69 511.42 0.43 c p3
344.84 511.29 0.43 c p3
344.98 511.29 0.43 c p3
345.13 510.95 0.43 c p3
345.28 511.29 0.43 c p3
345.42 510.95 0.43 c p3
345.57 511.42 0.43 c p3
345.71 511.29 0.43 c p3
345.86 511.05 0.43 c p3
346.00 511.05 0.43 c p3
346.15 510.81 0.43 c p3
346.29 511.05 0.43 c p3
346.44 511.29 0.43 c p3
346.59 511.66 0.43 c p3
346.73 511.18 0.43 c p3
346.88 510.81 0.43 c p3
347.02 511.05 0.43 c p3
347.17 511.66 0.43 c p3
347.31 511.05 0.43 c p3
347.46 511.05 0.43 c p3
347.60 511.29 0.43 c p3
347.75 511.29 0.43 c p3
347.90 511.18 0.43 c p3
348.04 511.53 0.43 c p3
348.19 511.42 0.43 c p3
348.33 511.66 0.43 c p3
348.48 511.29 0.43 c p3
348.62 511.42 0.43 c p3
348.77 511.42 0.43 c p3
348.92 510.71 0.43 c p3
349.06 510.95 0.43 c p3
349.21 511.05 0.43 c p3
349.35 511.42 0.43 c p3
349.50 511.18 0.43 c p3
349.64 511.42 0.43 c p3
349.79 510.95 0.43 c p3
349.93 511.53 0.43 c p3
350.08 511.66 0.43 c p3
350.23 511.42 0.43 c p3
350.37 511.53 0.43 c p3
350.52 511.42 0.43 c p3
350.66 510.95 0.43 c p3
350.81 511.29 0.43 c p3
350.95 511.66 0.43 c p3
351.10 511.18 0.43 c p3
351.24 511.53 0.43 c p3
351.39 511.29 0.43 c p3
351.54 511.29 0.43 c p3
351.68 511.42 0.43 c p3
351.83 511.53 0.43 c p3
351.97 511.53 0.43 c p3
352.12 511.18 0.43 c p3
352.26 511.18 0.43 c p3
352.41 511.76 0.43 c p3
352.55 511.18 0.43 c p3
352.70 511.05 0.43 c p3
352.85 511.05 0.43 c p3
352.99 511.05 0.43 c p3
353.14 511.18 0.43 c p3
353.28 511.29 0.43 c p3
353.43 511.53 0.43 c p3
353.57 510.81 0.43 c p3
353.72 511.89 0.43 c p3
353.86 511.29 0.43 c p3
354.01 511.76 0.43 c p3
354.16 511.18 0.43 c p3
354.30 511.05 0.43 c p3
354.45 511.42 0.43 c p3
354.59 511.29 0.43 c p3
354.74 511.29 0.43 c p3
354.88 511.66 0.43 c p3
355.03 510.81 0.43 c p3
355.18 511.53 0.43 c p3
355.32 511.05 0.43 c p3
355.47 511.05 0.43 c p3
355.61 511.18 0.43 c p3
355.76 511.18 0.43 c p3
355.90 511.18 0.43 c p3
356.05 511.29 0.43 c p3
356.19 511.18 0.43 c p3
356.34 511.42 0.43 c p3
356.49 511.18 0.43 c p3
356.63 510.95 0.43 c p3
356.78 511.18 0.43 c p3
356.92 511.18 0.43 c p3
357.07 510.71 0.43 c p3
357.21 511.42 0.43 c p3
357.36 510.95 0.43 c p3
357.50 511.18 0.43 c p3
357.65 510.95 0.43 c p3
357.80 511.29 0.43 c p3
357.94 511.05 0.43 c p3
358.09 511.05 0.43 c p3
358.23 511.66 0.43 c p3
358.38 511.18 0.43 c p3
358.52 511.18 0.43 c p3
358.67 511.42 0.43 c p3
358.81 510.81 0.43 c p3
358.96 511.18 0.43 c p3
359.11 510.81 0.43 c p3
359.25 511.42 0.43 c p3
359.40 511.29 0.43 c p3
359.54 511.76 0.43 c p3
359.69 511.29 0.43 c p3
359.83 511.42 0.43 c p3
359.98 511.18 0.43 c p3
360.13 511.18 0.43 c p3
360.27 511.18 0.43 c p3
360.42 511.05 0.43 c p3
360.56 511.05 0.43 c p3
360.71 511.18 0.43 c p3
360.85 511.18 0.43 c p3
361.00 511.53 0.43 c p3
361.14 511.42 0.43 c p3
361.29 511.05 0.43 c p3
361.44 511.05 0.43 c p3
361.58 511.29 0.43 c p3
361.73 511.05 0.43 c p3
361.87 511.42 0.43 c p3
362.02 510.95 0.43 c p3
362.16 511.42 0.43 c p3
362.31 511.05 0.43 c p3
362.45 511.29 0.43 c p3
362.60 510.58 0.43 c p3
362.75 510.71 0.43 c p3
362.89 511.05 0.43 c p3
363.04 511.05 0.43 c p3
363.18 510.58 0.43 c p3
363.33 511.18 0.43 c p3
363.47 511.05 0.43 c p3
363.62 511.05 0.43 c p3
363.76 510.81 0.43 c p3
363.91 511.42 0.43 c p3
364.06 510.58 0.43 c p3
364.20 511.05 0.43 c p3
364.35 511.29 0.43 c p3
364.49 511.18 0.43 c p3
364.64 510.71 0.43 c p3
364.78 510.58 0.43 c p3
364.93 511.18 0.43 c p3
365.08 511.05 0.43 c p3
365.22 510.95 0.43 c p3
365.37 510.81 0.43 c p3
365.51 510.71 0.43 c p3
365.66 510.81 0.43 c p3
365.80 511.05 0.43 c p3
365.95 511.89 0.43 c p3
366.09 510.81 0.43 c p3
366.24 510.58 0.43 c p3
366.39 511.05 0.43 c p3
366.53 511.29 0.43 c p3
366.68 511.53 0.43 c p3
366.82 511.66 0.43 c p3
366.97 511.05 0.43 c p3
367.11 511.18 0.43 c p3
367.26 511.05 0.43 c p3
367.40 511.05 0.43 c p3
367.55 510.81 0.43 c p3
367.70 510.71 0.43 c p3
367.84 511.05 0.43 c p3
367.99 511.05 0.43 c p3
368.13 511.05 0.43 c p3
368.28 511.05 0.43 c p3
368.42 510.58 0.43 c p3
368.57 510.71 0.43 c p3
368.71 511.05 0.43 c p3
368.86 510.95 0.43 c p3
369.01 510.95 0.43 c p3
369.15 511.42 0.43 c p3
369.30 510.71 0.43 c p3
369.44 511.05 0.43 c p3
369.59 510.81 0.43 c p3
369.73 510.81 0.43 c p3
369.88 510.95 0.43 c p3
370.03 510.58 0.43 c p3
370.17 510.81 0.43 c p3
370.32 510.95 0.43 c p3
370.46 510.71 0.43 c p3
370.61 511.29 0.43 c p3
370.75 510.71 0.43 c p3
370.90 510.95 0.43 c p3
371.04 510.95 0.43 c p3
371.19 510.81 0.43 c p3
371.34 510.81 0.43 c p3
371.48 510.95 0.43 c p3
371.63 510.58 0.43 c p3
371.77 510.81 0.43 c p3
371.92 510.71 0.43 c p3
372.06 511.18 0.43 c p3
372.21 511.18 0.43 c p3
372.35 510.81 0.43 c p3
372.50 510.95 0.43 c p3
372.65 510.71 0.43 c p3
372.79 511.05 0.43 c p3
372.94 511.29 0.43 c p3
373.08 510.58 0.43 c p3
373.23 510.71 0.43 c p3
373.37 510.95 0.43 c p3
373.52 510.95 0.43 c p3
373.66 510.47 0.43 c p3
373.81 511.18 0.43 c p3
373.96 510.95 0.43 c p3
374.10 510.95 0.43 c p3
374.25 510.58 0.43 c p3
374.39 510.58 0.43 c p3
374.54 510.81 0.43 c p3
374.68 510.71 0.43 c p3
374.83 511.18 0.43 c p3
374.98 511.29 0.43 c p3
375.12 510.71 0.43 c p3
375.27 510.81 0.43 c p3
375.41 511.05 0.43 c p3
375.56 511.42 0.43 c p3
375.70 510.10 0.43 c p3
375.85 511.05 0.43 c p3
375.99 511.18 0.43 c p3
376.14 511.05 0.43 c p3
376.29 510.81 0.43 c p3
376.43 510.34 0.43 c p3
376.58 510.81 0.43 c p3
376.72 511.18 0.43 c p3
376.87 510.81 0.43 c p3
377.01 510.58 0.43 c p3
377.16 510.47 0.43 c p3
377.30 510.81 0.43 c p3
377.45 511.42 0.43 c p3
377.60 510.47 0.43 c p3
377.74 510.81 0.43 c p3
377.89 511.05 0.43 c p3
378.03 510.58 0.43 c p3
378.18 510.81 0.43 c p3
378.32 510.58 0.43 c p3
378.47 510.71 0.43 c p3
378.61 510.95 0.43 c p3
378.76 511.76 0.43 c p3
378.91 510.81 0.43 c p3
379.05 510.95 0.43 c p3
379.20 510.81 0.43 c p3
379.34 510.95 0.43 c p3
379.49 510.34 0.43 c p3
379.63 511.05 0.43 c p3
379.78 510.81 0.43 c p3
379.93 511.18 0.43 c p3
380.07 510.71 0.43 c p3
380.22 510.81 0.43 c p3
380.36 510.23 0.43 c p3
380.51 510.81 0.43 c p3
380.65 511.05 0.43 c p3
380.80 510.95 0.43 c p3
380.94 510.95 0.43 c p3
381.09 510.58 0.43 c p3
381.24 511.18 0.43 c p3
381.38 510.81 0.43 c p3
381.53 511.05 0.43 c p3
381.67 510.58 0.43 c p3
381.82 510.47 0.43 c p3
381.96 510.95 0.43 c p3
382.11 510.95 0.43 c p3
382.25 511.05 0.43 c p3
382.40 510.47 0.43 c p3
0.00 0.00 432.00 576.00 cl
0 0 0 srgb
0.75 setlinewidth
[] 0 setdash
1 setlinecap
1 setlinejoin
10.00 setmiterlimit
np
236.96 345.60 m
145.59 0 l
o
np
236.96 345.60 m
0 -5.76 l
o
np
266.08 345.60 m
0 -5.76 l
o
np
295.19 345.60 m
0 -5.76 l
o
np
324.31 345.60 m
0 -5.76 l
o
np
353.43 345.60 m
0 -5.76 l
o
np
382.55 345.60 m
0 -5.76 l
o
/Font1 findfont 10 s
236.96 329.47 (0) .5 0 t
266.08 329.47 (2000) .5 0 t
324.31 329.47 (6000) .5 0 t
382.55 329.47 (10000) .5 0 t
np
216.00 352.00 m
0 161.87 l
o
np
216.00 352.00 m
-5.76 0 l
o
np
216.00 405.96 m
-5.76 0 l
o
np
216.00 459.91 m
-5.76 0 l
o
np
216.00 513.87 m
-5.76 0 l
o
209.09 348.41 (0.0) 1 0 t
209.09 402.37 (0.5) 1 0 t
209.09 456.32 (1.0) 1 0 t
209.09 510.28 (1.5) 1 0 t
np
216.00 345.60 m
172.80 0 l
0 172.80 l
-172.80 0 l
0 -172.80 l
o
0.00 0.00 432.00 576.00 cl
/Font1 findfont 10 s
0 0 0 srgb
302.40 313.34 (Zeit / ms \(total\)) .5 0 t
190.66 432.00 (U / V) .5 90 t
216.00 345.60 388.80 518.40 cl
0 0 0 srgb
0.38 setlinewidth
[ 1.12 1.88] 0 setdash
1 setlinecap
1 setlinejoin
10.00 setmiterlimit
np
223.71 345.60 m
0 172.80 l
o
np
233.76 345.60 m
0 172.80 l
o
np
239.43 345.60 m
0 172.80 l
o
np
312.66 345.60 m
0 172.80 l
o
86.40 57.60 388.80 288.00 cl
1 0 0 srgb
1.50 setlinewidth
[] 0 setdash
1 setlinecap
1 setlinejoin
10.00 setmiterlimit
np
97.60 279.47 m
1.41 -12.23 l
1.40 -11.51 l
1.41 -10.85 l
1.41 -10.23 l
1.41 -9.63 l
1.40 -9.07 l
1.41 -8.55 l
1.41 -8.05 l
1.40 -7.59 l
1.41 -7.15 l
1.41 -6.73 l
1.40 -6.35 l
1.41 -5.97 l
1.41 -5.64 l
1.41 -5.30 l
1.40 -5.00 l
1.41 -4.71 l
1.41 -4.44 l
1.40 -4.18 l
1.41 -3.94 l
1.41 -3.71 l
1.40 -3.49 l
1.41 -3.29 l
1.41 -3.11 l
1.41 -2.92 l
1.40 -2.76 l
1.41 -2.59 l
1.41 -2.44 l
1.40 -2.31 l
1.41 -2.17 l
1.41 -2.04 l
1.41 -1.93 l
1.40 -1.81 l
1.41 -1.71 l
1.41 -1.61 l
1.40 -1.52 l
1.41 -1.43 l
1.41 -1.35 l
1.40 -1.26 l
1.41 -1.20 l
1.41 -1.13 l
1.41 -1.06 l
1.40 -1.00 l
1.41 -0.94 l
1.41 -0.89 l
1.40 -0.83 l
1.41 -0.79 l
1.41 -0.74 l
1.40 -0.70 l
1.41 -0.66 l
1.41 -0.62 l
1.41 -0.59 l
1.40 -0.55 l
1.41 -0.51 l
1.41 -0.49 l
1.40 -0.46 l
1.41 -0.44 l
1.41 -0.41 l
1.41 -0.38 l
1.40 -0.37 l
1.41 -0.34 l
1.41 -0.32 l
1.40 -0.30 l
1.41 -0.29 l
1.41 -0.27 l
1.40 -0.25 l
1.41 -0.24 l
1.41 -0.23 l
1.41 -0.21 l
1.40 -0.20 l
1.41 -0.19 l
1.41 -0.17 l
1.40 -0.17 l
1.41 -0.16 l
1.41 -0.15 l
1.40 -0.14 l
1.41 -0.13 l
1.41 -0.12 l
1.41 -0.12 l
1.40 -0.11 l
1.41 -0.10 l
1.41 -0.10 l
1.40 -0.09 l
1.41 -0.09 l
1.41 -0.08 l
1.41 -0.08 l
1.40 -0.07 l
1.41 -0.07 l
1.41 -0.06 l
1.40 -0.07 l
1.41 -0.05 l
1.41 -0.06 l
1.40 -0.05 l
1.41 -0.04 l
1.41 -0.05 l
1.41 -0.04 l
1.40 -0.04 l
1.41 -0.04 l
1.41 -0.04 l
238.30 68.78 lineto
1.41 -0.03 l
1.41 -0.03 l
1.40 -0.03 l
1.41 -0.02 l
1.41 -0.03 l
1.41 -0.02 l
1.40 -0.02 l
1.41 -0.03 l
1.41 -0.01 l
1.40 -0.02 l
1.41 -0.02 l
1.41 -0.02 l
1.40 -0.01 l
1.41 -0.02 l
1.41 -0.01 l
1.41 -0.01 l
1.40 -0.02 l
1.41 -0.01 l
1.41 -0.01 l
1.40 -0.01 l
1.41 -0.01 l
1.41 -0.01 l
1.41 0 l
1.40 -0.01 l
1.41 -0.01 l
1.41 -0.01 l
1.40 0 l
1.41 -0.01 l
1.41 -0.01 l
1.40 0 l
1.41 -0.01 l
1.41 0 l
1.41 -0.01 l
1.40 0 l
1.41 -0.01 l
1.41 0 l
1.40 0 l
1.41 -0.01 l
1.41 0 l
1.40 0 l
1.41 -0.01 l
1.41 0 l
1.41 0 l
1.40 0 l
1.41 -0.01 l
1.41 0 l
1.40 0 l
1.41 0 l
1.41 0 l
1.41 -0.01 l
1.40 0 l
1.41 0 l
1.41 0 l
1.40 0 l
1.41 0 l
1.41 0 l
1.40 0 l
1.41 -0.01 l
1.41 0 l
1.41 0 l
1.40 0 l
1.41 0 l
1.41 0 l
1.40 0 l
1.41 0 l
1.41 0 l
1.40 0 l
1.41 0 l
1.41 0 l
1.41 0 l
1.40 -0.01 l
1.41 0 l
1.41 0 l
1.40 0 l
1.41 0 l
1.41 0 l
1.41 0 l
1.40 0 l
1.41 0 l
1.41 0 l
1.40 0 l
1.41 0 l
1.41 0 l
1.40 0 l
1.41 0 l
1.41 0 l
1.41 0 l
1.40 0 l
1.41 0 l
1.41 0 l
1.40 0 l
1.41 0 l
1.41 0 l
1.40 0 l
1.41 0 l
1.41 0 l
1.41 0 l
1.40 0 l
1.41 0 l
o
0.00 0.00 432.00 576.00 cl
0 0 0 srgb
0.75 setlinewidth
[] 0 setdash
1 setlinecap
1 setlinejoin
10.00 setmiterlimit
np
97.60 57.60 m
280.00 0 l
o
np
97.60 57.60 m
0 -5.76 l
o
np
153.60 57.60 m
0 -5.76 l
o
np
209.60 57.60 m
0 -5.76 l
o
np
265.60 57.60 m
0 -5.76 l
o
np
321.60 57.60 m
0 -5.76 l
o
np
377.60 57.60 m
0 -5.76 l
o
/Font1 findfont 10 s
97.60 41.47 (0) .5 0 t
153.60 41.47 (2000) .5 0 t
209.60 41.47 (4000) .5 0 t
265.60 41.47 (6000) .5 0 t
321.60 41.47 (8000) .5 0 t
377.60 41.47 (10000) .5 0 t
np
86.40 66.13 m
0 212.71 l
o
np
86.40 66.13 m
-5.76 0 l
o
np
86.40 119.31 m
-5.76 0 l
o
np
86.40 172.49 m
-5.76 0 l
o
np
86.40 225.67 m
-5.76 0 l
o
np
86.40 278.84 m
-5.76 0 l
o
79.49 62.54 (0.0) 1 0 t
79.49 115.72 (0.1) 1 0 t
79.49 168.90 (0.2) 1 0 t
79.49 222.08 (0.3) 1 0 t
79.49 275.25 (0.4) 1 0 t
np
86.40 57.60 m
302.40 0 l
0 230.40 l
-302.40 0 l
0 -230.40 l
o
0.00 0.00 432.00 576.00 cl
/Font1 findfont 10 s
0 0 0 srgb
237.60 13.82 (Zeit / ms \(nach Puls\)) .5 0 t
49.54 172.80 (Absorbanz A) .5 90 t
86.40 57.60 388.80 288.00 cl
/bg { 1 1 1 srgb } def
0 0 0 srgb
0.75 setlinewidth
[] 0 setdash
1 setlinecap
1 setlinejoin
10.00 setmiterlimit
102.64 251.50 0.65 c p3
102.92 248.12 0.65 c p3
103.20 243.62 0.65 c p3
103.48 240.26 0.65 c p3
103.76 239.21 0.65 c p3
104.04 234.57 0.65 c p3
104.32 233.14 0.65 c p3
104.60 229.93 0.65 c p3
104.88 228.54 0.65 c p3
105.16 223.72 0.65 c p3
105.44 221.09 0.65 c p3
105.72 221.77 0.65 c p3
106.00 220.72 0.65 c p3
106.28 217.38 0.65 c p3
106.56 212.79 0.65 c p3
106.84 210.85 0.65 c p3
107.12 209.92 0.65 c p3
107.40 209.57 0.65 c p3
107.68 204.22 0.65 c p3
107.96 202.70 0.65 c p3
108.24 201.12 0.65 c p3
108.52 201.73 0.65 c p3
108.80 198.05 0.65 c p3
109.08 195.69 0.65 c p3
109.36 193.89 0.65 c p3
109.64 193.29 0.65 c p3
109.92 190.92 0.65 c p3
110.20 190.59 0.65 c p3
110.48 188.24 0.65 c p3
110.76 188.24 0.65 c p3
111.04 184.77 0.65 c p3
111.32 182.79 0.65 c p3
111.60 182.54 0.65 c p3
111.88 180.84 0.65 c p3
112.16 178.28 0.65 c p3
112.44 177.47 0.65 c p3
112.72 176.05 0.65 c p3
113.00 176.36 0.65 c p3
113.28 173.60 0.65 c p3
113.56 171.42 0.65 c p3
113.84 171.18 0.65 c p3
114.12 168.72 0.65 c p3
114.40 169.56 0.65 c p3
114.68 167.95 0.65 c p3
114.96 165.52 0.65 c p3
115.24 163.42 0.65 c p3
115.52 163.71 0.65 c p3
115.80 162.89 0.65 c p3
116.08 159.55 0.65 c p3
116.36 159.32 0.65 c p3
116.64 158.80 0.65 c p3
116.92 159.03 0.65 c p3
117.20 156.76 0.65 c p3
117.48 155.46 0.65 c p3
117.76 154.22 0.65 c p3
118.04 154.45 0.65 c p3
118.32 151.94 0.65 c p3
118.60 151.72 0.65 c p3
118.88 151.72 0.65 c p3
119.16 149.95 0.65 c p3
119.44 147.27 0.65 c p3
119.72 146.79 0.65 c p3
120.00 147.06 0.65 c p3
120.28 145.11 0.65 c p3
120.56 144.36 0.65 c p3
120.84 143.88 0.65 c p3
121.12 142.70 0.65 c p3
121.40 143.18 0.65 c p3
121.68 141.75 0.65 c p3
121.96 141.75 0.65 c p3
122.24 138.90 0.65 c p3
122.52 139.84 0.65 c p3
122.80 138.43 0.65 c p3
123.08 137.02 0.65 c p3
123.36 135.41 0.65 c p3
123.64 135.88 0.65 c p3
123.92 136.35 0.65 c p3
124.20 134.95 0.65 c p3
124.48 132.85 0.65 c p3
124.76 133.10 0.65 c p3
125.04 133.10 0.65 c p3
125.32 131.02 0.65 c p3
125.60 131.73 0.65 c p3
125.88 131.73 0.65 c p3
126.16 129.25 0.65 c p3
126.44 128.10 0.65 c p3
126.72 128.35 0.65 c p3
127.00 127.00 0.65 c p3
127.28 126.56 0.65 c p3
127.56 126.75 0.65 c p3
127.84 124.09 0.65 c p3
128.12 124.97 0.65 c p3
128.40 124.77 0.65 c p3
128.68 123.20 0.65 c p3
128.96 121.45 0.65 c p3
129.24 123.01 0.65 c p3
129.52 122.13 0.65 c p3
129.80 121.01 0.65 c p3
130.08 120.38 0.65 c p3
130.36 120.38 0.65 c p3
130.64 119.51 0.65 c p3
130.92 118.89 0.65 c p3
131.20 118.89 0.65 c p3
131.48 117.59 0.65 c p3
131.76 117.59 0.65 c p3
132.04 117.78 0.65 c p3
132.32 116.31 0.65 c p3
132.60 115.88 0.65 c p3
132.88 116.31 0.65 c p3
133.16 116.93 0.65 c p3
133.44 114.18 0.65 c p3
133.72 113.94 0.65 c p3
134.00 113.52 0.65 c p3
134.28 113.10 0.65 c p3
134.56 112.26 0.65 c p3
134.84 112.26 0.65 c p3
135.12 110.81 0.65 c p3
135.40 112.68 0.65 c p3
135.68 111.23 0.65 c p3
135.96 110.40 0.65 c p3
136.24 108.97 0.65 c p3
136.52 109.80 0.65 c p3
136.80 108.97 0.65 c p3
137.08 108.14 0.65 c p3
137.36 107.91 0.65 c p3
137.64 107.91 0.65 c p3
137.92 107.73 0.65 c p3
138.20 107.09 0.65 c p3
138.48 106.68 0.65 c p3
138.76 106.49 0.65 c p3
139.04 105.27 0.65 c p3
139.32 105.45 0.65 c p3
139.60 105.45 0.65 c p3
139.88 105.45 0.65 c p3
140.16 104.05 0.65 c p3
140.44 104.05 0.65 c p3
140.72 103.42 0.65 c p3
141.00 103.82 0.65 c p3
141.28 102.61 0.65 c p3
141.56 102.83 0.65 c p3
141.84 102.61 0.65 c p3
142.12 100.65 0.65 c p3
142.40 100.83 0.65 c p3
142.68 101.63 0.65 c p3
142.96 101.05 0.65 c p3
143.24 101.23 0.65 c p3
143.52 99.85 0.65 c p3
143.80 99.45 0.65 c p3
144.08 99.23 0.65 c p3
144.36 99.45 0.65 c p3
144.64 98.66 0.65 c p3
144.92 97.87 0.65 c p3
145.20 97.65 0.65 c p3
145.48 97.87 0.65 c p3
145.76 97.08 0.65 c p3
146.04 96.86 0.65 c p3
146.32 96.69 0.65 c p3
146.60 96.69 0.65 c p3
146.88 95.90 0.65 c p3
147.16 96.08 0.65 c p3
147.44 96.08 0.65 c p3
147.72 95.69 0.65 c p3
148.00 95.51 0.65 c p3
148.28 94.52 0.65 c p3
148.56 95.51 0.65 c p3
148.84 94.34 0.65 c p3
149.12 93.57 0.65 c p3
149.40 93.95 0.65 c p3
149.68 93.01 0.65 c p3
149.96 93.95 0.65 c p3
150.24 93.01 0.65 c p3
150.52 93.01 0.65 c p3
150.80 91.85 0.65 c p3
151.08 92.41 0.65 c p3
151.36 91.85 0.65 c p3
151.64 92.79 0.65 c p3
151.92 91.85 0.65 c p3
152.20 92.24 0.65 c p3
152.48 91.08 0.65 c p3
152.76 90.70 0.65 c p3
153.04 91.64 0.65 c p3
153.32 91.25 0.65 c p3
153.60 89.94 0.65 c p3
153.88 90.11 0.65 c p3
154.16 88.96 0.65 c p3
154.44 89.34 0.65 c p3
154.72 88.58 0.65 c p3
155.00 88.58 0.65 c p3
155.28 89.55 0.65 c p3
155.56 88.96 0.65 c p3
155.84 89.17 0.65 c p3
156.12 88.96 0.65 c p3
156.40 88.20 0.65 c p3
156.68 87.66 0.65 c p3
156.96 87.45 0.65 c p3
157.24 87.66 0.65 c p3
157.52 87.28 0.65 c p3
157.80 86.70 0.65 c p3
158.08 86.70 0.65 c p3
158.36 86.70 0.65 c p3
158.64 86.32 0.65 c p3
158.92 86.53 0.65 c p3
159.20 85.40 0.65 c p3
159.48 85.40 0.65 c p3
159.76 85.78 0.65 c p3
160.04 85.40 0.65 c p3
160.32 85.57 0.65 c p3
160.60 85.24 0.65 c p3
160.88 85.03 0.65 c p3
161.16 84.86 0.65 c p3
161.44 84.12 0.65 c p3
161.72 84.49 0.65 c p3
162.00 83.54 0.65 c p3
162.28 84.12 0.65 c p3
162.56 84.28 0.65 c p3
162.84 83.91 0.65 c p3
163.12 83.01 0.65 c p3
163.40 83.75 0.65 c p3
163.68 83.54 0.65 c p3
163.96 83.17 0.65 c p3
164.24 82.64 0.65 c p3
164.52 82.43 0.65 c p3
164.80 82.64 0.65 c p3
165.08 82.27 0.65 c p3
165.36 82.06 0.65 c p3
165.64 83.01 0.65 c p3
165.92 82.06 0.65 c p3
166.20 82.27 0.65 c p3
166.48 81.69 0.65 c p3
166.76 80.43 0.65 c p3
167.04 81.53 0.65 c p3
167.32 81.53 0.65 c p3
167.60 81.16 0.65 c p3
167.88 81.16 0.65 c p3
168.16 80.43 0.65 c p3
168.44 81.16 0.65 c p3
168.72 80.43 0.65 c p3
169.00 80.43 0.65 c p3
169.28 79.70 0.65 c p3
169.56 79.49 0.65 c p3
169.84 79.70 0.65 c p3
170.12 79.86 0.65 c p3
170.40 79.86 0.65 c p3
170.68 79.70 0.65 c p3
170.96 79.13 0.65 c p3
171.24 79.49 0.65 c p3
171.52 79.33 0.65 c p3
171.80 79.13 0.65 c p3
172.08 78.61 0.65 c p3
172.36 79.13 0.65 c p3
172.64 78.61 0.65 c p3
172.92 78.61 0.65 c p3
173.20 78.04 0.65 c p3
173.48 78.24 0.65 c p3
173.76 78.77 0.65 c p3
174.04 77.00 0.65 c p3
174.32 78.24 0.65 c p3
174.60 78.40 0.65 c p3
174.88 78.40 0.65 c p3
175.16 77.88 0.65 c p3
175.44 77.00 0.65 c p3
175.72 77.52 0.65 c p3
176.00 77.36 0.65 c p3
176.28 78.24 0.65 c p3
176.56 77.16 0.65 c p3
176.84 77.16 0.65 c p3
177.12 76.44 0.65 c p3
177.40 77.52 0.65 c p3
177.68 76.44 0.65 c p3
177.96 76.08 0.65 c p3
178.24 76.08 0.65 c p3
178.52 76.28 0.65 c p3
178.80 76.08 0.65 c p3
179.08 76.80 0.65 c p3
179.36 76.08 0.65 c p3
179.64 76.28 0.65 c p3
179.92 75.56 0.65 c p3
180.20 75.36 0.65 c p3
180.48 75.20 0.65 c p3
180.76 75.72 0.65 c p3
181.04 75.00 0.65 c p3
181.32 75.36 0.65 c p3
181.60 75.56 0.65 c p3
181.88 74.49 0.65 c p3
182.16 75.00 0.65 c p3
182.44 75.00 0.65 c p3
182.72 75.00 0.65 c p3
183.00 74.84 0.65 c p3
183.28 74.64 0.65 c p3
183.56 74.64 0.65 c p3
183.84 74.49 0.65 c p3
184.12 74.49 0.65 c p3
184.40 74.84 0.65 c p3
184.68 74.49 0.65 c p3
184.96 74.29 0.65 c p3
185.24 73.93 0.65 c p3
185.52 75.20 0.65 c p3
185.80 74.84 0.65 c p3
186.08 73.77 0.65 c p3
186.36 73.77 0.65 c p3
186.64 73.93 0.65 c p3
186.92 74.29 0.65 c p3
187.20 74.13 0.65 c p3
187.48 73.93 0.65 c p3
187.76 72.71 0.65 c p3
188.04 74.13 0.65 c p3
188.32 73.42 0.65 c p3
188.60 73.06 0.65 c p3
188.88 72.71 0.65 c p3
189.16 72.71 0.65 c p3
189.44 73.22 0.65 c p3
189.72 73.42 0.65 c p3
190.00 72.51 0.65 c p3
190.28 72.51 0.65 c p3
190.56 72.87 0.65 c p3
190.84 72.51 0.65 c p3
191.12 73.06 0.65 c p3
191.40 72.87 0.65 c p3
191.68 72.51 0.65 c p3
191.96 71.81 0.65 c p3
192.24 73.22 0.65 c p3
192.52 72.51 0.65 c p3
192.80 71.45 0.65 c p3
193.08 72.71 0.65 c p3
193.36 71.81 0.65 c p3
193.64 71.65 0.65 c p3
193.92 71.30 0.65 c p3
194.20 72.16 0.65 c p3
194.48 72.00 0.65 c p3
194.76 71.45 0.65 c p3
195.04 70.59 0.65 c p3
195.32 71.81 0.65 c p3
195.60 72.16 0.65 c p3
195.88 71.81 0.65 c p3
196.16 71.81 0.65 c p3
196.44 70.75 0.65 c p3
196.72 72.16 0.65 c p3
197.00 71.10 0.65 c p3
197.28 71.30 0.65 c p3
197.56 70.95 0.65 c p3
197.84 71.81 0.65 c p3
198.12 71.10 0.65 c p3
198.40 71.10 0.65 c p3
198.68 70.09 0.65 c p3
198.96 71.10 0.65 c p3
199.24 71.65 0.65 c p3
199.52 71.30 0.65 c p3
199.80 70.40 0.65 c p3
200.08 70.95 0.65 c p3
200.36 72.00 0.65 c p3
200.64 69.89 0.65 c p3
200.92 70.59 0.65 c p3
201.20 71.30 0.65 c p3
201.48 70.40 0.65 c p3
201.76 70.24 0.65 c p3
202.04 69.89 0.65 c p3
202.32 70.24 0.65 c p3
202.60 69.89 0.65 c p3
202.88 70.40 0.65 c p3
203.16 70.09 0.65 c p3
203.44 69.54 0.65 c p3
203.72 70.40 0.65 c p3
204.00 70.40 0.65 c p3
204.28 70.24 0.65 c p3
204.56 69.20 0.65 c p3
204.84 69.89 0.65 c p3
205.12 70.59 0.65 c p3
205.40 69.89 0.65 c p3
205.68 69.89 0.65 c p3
205.96 69.74 0.65 c p3
206.24 69.39 0.65 c p3
206.52 69.54 0.65 c p3
206.80 70.09 0.65 c p3
207.08 69.04 0.65 c p3
207.36 69.20 0.65 c p3
207.64 69.54 0.65 c p3
207.92 68.69 0.65 c p3
208.20 68.85 0.65 c p3
208.48 69.39 0.65 c p3
208.76 69.89 0.65 c p3
209.04 69.04 0.65 c p3
209.32 69.04 0.65 c p3
209.60 70.40 0.65 c p3
209.88 69.74 0.65 c p3
210.16 69.89 0.65 c p3
210.44 69.20 0.65 c p3
210.72 69.39 0.65 c p3
211.00 69.54 0.65 c p3
211.28 69.20 0.65 c p3
211.56 68.50 0.65 c p3
211.84 68.69 0.65 c p3
212.12 69.20 0.65 c p3
212.40 69.39 0.65 c p3
212.68 68.50 0.65 c p3
212.96 69.04 0.65 c p3
213.24 69.20 0.65 c p3
213.52 68.85 0.65 c p3
213.80 68.00 0.65 c p3
214.08 68.50 0.65 c p3
214.36 69.04 0.65 c p3
214.64 68.69 0.65 c p3
214.92 69.20 0.65 c p3
215.20 68.50 0.65 c p3
215.48 69.20 0.65 c p3
215.76 68.34 0.65 c p3
216.04 68.15 0.65 c p3
216.32 68.34 0.65 c p3
216.60 68.69 0.65 c p3
216.88 68.15 0.65 c p3
217.16 68.34 0.65 c p3
217.44 68.69 0.65 c p3
217.72 68.50 0.65 c p3
218.00 68.50 0.65 c p3
218.28 68.69 0.65 c p3
218.56 68.50 0.65 c p3
218.84 68.69 0.65 c p3
219.12 68.15 0.65 c p3
219.40 68.85 0.65 c p3
219.68 68.34 0.65 c p3
219.96 68.15 0.65 c p3
220.24 67.46 0.65 c p3
220.52 68.15 0.65 c p3
220.80 67.80 0.65 c p3
221.08 68.34 0.65 c p3
221.36 68.50 0.65 c p3
221.64 67.65 0.65 c p3
221.92 68.34 0.65 c p3
222.20 67.65 0.65 c p3
222.48 68.15 0.65 c p3
222.76 68.34 0.65 c p3
223.04 67.46 0.65 c p3
223.32 67.30 0.65 c p3
223.60 67.65 0.65 c p3
223.88 68.00 0.65 c p3
224.16 68.00 0.65 c p3
224.44 67.80 0.65 c p3
224.72 67.46 0.65 c p3
225.00 68.34 0.65 c p3
225.28 68.34 0.65 c p3
225.56 67.65 0.65 c p3
225.84 67.65 0.65 c p3
226.12 67.46 0.65 c p3
226.40 68.00 0.65 c p3
226.68 67.65 0.65 c p3
226.96 67.65 0.65 c p3
227.24 67.80 0.65 c p3
227.52 68.00 0.65 c p3
227.80 68.00 0.65 c p3
228.08 67.80 0.65 c p3
228.36 67.65 0.65 c p3
228.64 67.46 0.65 c p3
228.92 67.30 0.65 c p3
229.20 67.46 0.65 c p3
229.48 67.11 0.65 c p3
229.76 67.46 0.65 c p3
230.04 68.34 0.65 c p3
230.32 67.46 0.65 c p3
230.60 67.65 0.65 c p3
230.88 66.96 0.65 c p3
231.16 66.61 0.65 c p3
231.44 66.27 0.65 c p3
231.72 68.15 0.65 c p3
232.00 67.30 0.65 c p3
232.28 67.30 0.65 c p3
232.56 67.11 0.65 c p3
232.84 66.77 0.65 c p3
233.12 66.77 0.65 c p3
233.40 67.30 0.65 c p3
233.68 67.46 0.65 c p3
233.96 66.96 0.65 c p3
234.24 67.65 0.65 c p3
234.52 66.77 0.65 c p3
234.80 66.96 0.65 c p3
235.08 66.96 0.65 c p3
235.36 67.11 0.65 c p3
235.64 67.46 0.65 c p3
235.92 66.42 0.65 c p3
236.20 66.77 0.65 c p3
236.48 67.46 0.65 c p3
236.76 66.96 0.65 c p3
237.04 66.61 0.65 c p3
237.32 66.61 0.65 c p3
237.60 66.61 0.65 c p3
237.88 66.77 0.65 c p3
238.16 67.65 0.65 c p3
238.44 67.11 0.65 c p3
238.72 66.61 0.65 c p3
239.00 66.77 0.65 c p3
239.28 67.11 0.65 c p3
239.56 66.96 0.65 c p3
239.84 67.30 0.65 c p3
240.12 66.77 0.65 c p3
240.40 66.27 0.65 c p3
240.68 67.11 0.65 c p3
240.96 66.27 0.65 c p3
241.24 66.42 0.65 c p3
241.52 66.42 0.65 c p3
241.80 66.77 0.65 c p3
242.08 66.42 0.65 c p3
242.36 66.08 0.65 c p3
242.64 66.77 0.65 c p3
242.92 66.42 0.65 c p3
243.20 66.08 0.65 c p3
243.48 66.61 0.65 c p3
216.00 201.60 367.20 247.68 cl
0 0 0 srgb
0.75 setlinewidth
[] 0 setdash
1 setlinecap
1 setlinejoin
10.00 setmiterlimit
221.60 238.86 0.43 c p1
221.88 237.32 0.43 c p1
222.16 234.50 0.43 c p1
222.43 232.93 0.43 c p1
222.71 233.93 0.43 c p1
222.99 230.87 0.43 c p1
223.27 231.40 0.43 c p1
223.55 229.90 0.43 c p1
223.83 230.41 0.43 c p1
224.10 227.06 0.43 c p1
224.38 226.13 0.43 c p1
224.66 228.90 0.43 c p1
224.94 229.70 0.43 c p1
225.22 227.91 0.43 c p1
225.50 224.69 0.43 c p1
225.77 224.43 0.43 c p1
226.05 225.28 0.43 c p1
226.33 226.75 0.43 c p1
226.61 222.59 0.43 c p1
226.89 222.70 0.43 c p1
227.17 222.73 0.43 c p1
227.44 225.21 0.43 c p1
227.72 222.83 0.43 c p1
228.00 221.92 0.43 c p1
228.28 221.62 0.43 c p1
228.56 222.64 0.43 c p1
228.84 221.66 0.43 c p1
229.11 222.95 0.43 c p1
229.39 221.95 0.43 c p1
229.67 223.58 0.43 c p1
229.95 221.27 0.43 c p1
230.23 220.64 0.43 c p1
230.51 221.92 0.43 c p1
230.78 221.55 0.43 c p1
231.06 220.20 0.43 c p1
231.34 220.81 0.43 c p1
231.62 220.70 0.43 c p1
231.90 222.53 0.43 c p1
232.18 220.88 0.43 c p1
232.45 219.87 0.43 c p1
232.73 221.03 0.43 c p1
233.01 219.67 0.43 c p1
233.29 222.00 0.43 c p1
233.57 221.57 0.43 c p1
233.85 220.20 0.43 c p1
234.12 219.17 0.43 c p1
234.40 220.83 0.43 c p1
234.68 221.22 0.43 c p1
234.96 218.75 0.43 c p1
235.24 219.78 0.43 c p1
235.52 220.46 0.43 c p1
235.79 221.97 0.43 c p1
236.07 220.65 0.43 c p1
236.35 220.41 0.43 c p1
236.63 220.23 0.43 c p1
236.91 221.67 0.43 c p1
237.19 220.03 0.43 c p1
237.46 220.94 0.43 c p1
237.74 222.09 0.43 c p1
238.02 221.25 0.43 c p1
238.30 219.36 0.43 c p1
238.58 219.92 0.43 c p1
238.86 221.32 0.43 c p1
239.13 220.22 0.43 c p1
239.41 220.44 0.43 c p1
239.69 220.96 0.43 c p1
239.97 220.69 0.43 c p1
240.25 222.26 0.43 c p1
240.53 221.67 0.43 c p1
240.80 222.68 0.43 c p1
241.08 220.47 0.43 c p1
241.36 222.52 0.43 c p1
241.64 221.90 0.43 c p1
241.92 221.28 0.43 c p1
242.20 220.43 0.43 c p1
242.47 221.89 0.43 c p1
242.75 223.35 0.43 c p1
243.03 222.70 0.43 c p1
243.31 221.24 0.43 c p1
243.59 222.42 0.43 c p1
243.87 223.31 0.43 c p1
244.14 221.84 0.43 c p1
244.42 223.51 0.43 c p1
244.70 224.36 0.43 c p1
244.98 222.42 0.43 c p1
245.26 221.96 0.43 c p1
245.54 223.07 0.43 c p1
245.81 222.37 0.43 c p1
246.09 222.67 0.43 c p1
246.37 223.69 0.43 c p1
246.65 221.48 0.43 c p1
246.93 223.25 0.43 c p1
247.21 223.80 0.43 c p1
247.48 222.79 0.43 c p1
247.76 221.57 0.43 c p1
248.04 224.06 0.43 c p1
248.32 223.81 0.43 c p1
248.60 223.28 0.43 c p1
248.88 223.28 0.43 c p1
249.15 223.99 0.43 c p1
249.43 223.71 0.43 c p1
249.71 223.70 0.43 c p1
249.99 224.38 0.43 c p1
250.27 223.60 0.43 c p1
250.55 224.27 0.43 c p1
250.82 225.14 0.43 c p1
251.10 224.13 0.43 c p1
251.38 224.30 0.43 c p1
251.66 225.41 0.43 c p1
251.94 226.74 0.43 c p1
252.22 224.27 0.43 c p1
252.49 224.62 0.43 c p1
252.77 224.75 0.43 c p1
253.05 224.87 0.43 c p1
253.33 224.52 0.43 c p1
253.61 225.10 0.43 c p1
253.89 224.06 0.43 c p1
254.16 226.73 0.43 c p1
254.44 225.67 0.43 c p1
254.72 225.29 0.43 c p1
255.00 224.23 0.43 c p1
255.28 225.71 0.43 c p1
255.56 225.31 0.43 c p1
255.83 224.91 0.43 c p1
256.11 225.18 0.43 c p1
256.39 225.70 0.43 c p1
256.67 226.01 0.43 c p1
256.95 225.80 0.43 c p1
257.23 225.84 0.43 c p1
257.50 226.13 0.43 c p1
257.78 225.24 0.43 c p1
258.06 225.93 0.43 c p1
258.34 226.40 0.43 c p1
258.62 226.88 0.43 c p1
258.90 225.77 0.43 c p1
259.17 226.23 0.43 c p1
259.45 225.98 0.43 c p1
259.73 226.88 0.43 c p1
260.01 225.97 0.43 c p1
260.29 226.66 0.43 c p1
260.57 226.84 0.43 c p1
260.84 225.07 0.43 c p1
261.12 225.69 0.43 c p1
261.40 227.01 0.43 c p1
261.68 226.77 0.43 c p1
261.96 227.38 0.43 c p1
262.24 226.24 0.43 c p1
262.51 226.20 0.43 c p1
262.79 226.34 0.43 c p1
263.07 226.98 0.43 c p1
263.35 226.48 0.43 c p1
263.63 225.97 0.43 c p1
263.91 226.10 0.43 c p1
264.18 226.72 0.43 c p1
264.46 226.20 0.43 c p1
264.74 226.32 0.43 c p1
265.02 226.48 0.43 c p1
265.30 226.84 0.43 c p1
265.58 226.31 0.43 c p1
265.85 226.85 0.43 c p1
266.13 227.19 0.43 c p1
266.41 227.09 0.43 c p1
266.69 227.23 0.43 c p1
266.97 226.44 0.43 c p1
267.25 227.89 0.43 c p1
267.52 226.90 0.43 c p1
267.80 226.35 0.43 c p1
268.08 227.10 0.43 c p1
268.36 226.34 0.43 c p1
268.64 227.72 0.43 c p1
268.92 226.96 0.43 c p1
269.19 227.26 0.43 c p1
269.47 226.26 0.43 c p1
269.75 227.18 0.43 c p1
270.03 226.84 0.43 c p1
270.31 228.19 0.43 c p1
270.59 227.41 0.43 c p1
270.86 228.12 0.43 c p1
271.14 227.11 0.43 c p1
271.42 226.95 0.43 c p1
271.70 228.27 0.43 c p1
271.98 228.11 0.43 c p1
272.26 226.89 0.43 c p1
272.53 227.34 0.43 c p1
272.81 226.32 0.43 c p1
273.09 227.00 0.43 c p1
273.37 226.40 0.43 c p1
273.65 226.65 0.43 c p1
273.93 227.98 0.43 c p1
274.20 227.56 0.43 c p1
274.48 228.04 0.43 c p1
274.76 228.04 0.43 c p1
275.04 227.42 0.43 c p1
275.32 227.04 0.43 c p1
275.60 227.03 0.43 c p1
275.87 227.50 0.43 c p1
276.15 227.30 0.43 c p1
276.43 226.86 0.43 c p1
276.71 227.08 0.43 c p1
276.99 227.29 0.43 c p1
277.27 227.08 0.43 c p1
277.54 227.53 0.43 c p1
277.82 226.47 0.43 c p1
278.10 226.68 0.43 c p1
278.38 227.30 0.43 c p1
278.66 227.08 0.43 c p1
278.94 227.47 0.43 c p1
279.21 227.29 0.43 c p1
279.49 227.25 0.43 c p1
279.77 227.26 0.43 c p1
280.05 226.61 0.43 c p1
280.33 227.22 0.43 c p1
280.61 226.33 0.43 c p1
280.88 227.16 0.43 c p1
281.16 227.53 0.43 c p1
281.44 227.29 0.43 c p1
281.72 226.45 0.43 c p1
282.00 227.46 0.43 c p1
282.28 227.40 0.43 c p1
282.55 227.15 0.43 c p1
282.83 226.72 0.43 c p1
283.11 226.65 0.43 c p1
283.39 227.05 0.43 c p1
283.67 226.80 0.43 c p1
283.95 226.73 0.43 c p1
284.22 227.95 0.43 c p1
284.50 227.04 0.43 c p1
284.78 227.43 0.43 c p1
285.06 226.94 0.43 c p1
285.34 225.67 0.43 c p1
285.62 227.05 0.43 c p1
285.89 227.20 0.43 c p1
286.17 226.93 0.43 c p1
286.45 227.08 0.43 c p1
286.73 226.40 0.43 c p1
287.01 227.36 0.43 c p1
287.29 226.68 0.43 c p1
287.56 226.81 0.43 c p1
287.84 226.13 0.43 c p1
288.12 226.04 0.43 c p1
288.40 226.40 0.43 c p1
288.68 226.71 0.43 c p1
288.96 226.84 0.43 c p1
289.23 226.79 0.43 c p1
289.51 226.27 0.43 c p1
289.79 226.81 0.43 c p1
290.07 226.75 0.43 c p1
290.35 226.65 0.43 c p1
290.63 226.18 0.43 c p1
290.90 226.89 0.43 c p1
291.18 226.41 0.43 c p1
291.46 226.53 0.43 c p1
291.74 226.01 0.43 c p1
292.02 226.35 0.43 c p1
292.30 227.05 0.43 c p1
292.57 225.17 0.43 c p1
292.85 226.68 0.43 c p1
293.13 226.97 0.43 c p1
293.41 227.08 0.43 c p1
293.69 226.60 0.43 c p1
293.97 225.71 0.43 c p1
294.24 226.40 0.43 c p1
294.52 226.32 0.43 c p1
294.80 227.42 0.43 c p1
295.08 226.30 0.43 c p1
295.36 226.40 0.43 c p1
295.64 225.68 0.43 c p1
295.91 227.00 0.43 c p1
296.19 225.87 0.43 c p1
296.47 225.56 0.43 c p1
296.75 225.66 0.43 c p1
297.03 225.97 0.43 c p1
297.31 225.84 0.43 c p1
297.58 226.74 0.43 c p1
297.86 226.02 0.43 c p1
298.14 226.33 0.43 c p1
298.42 225.61 0.43 c p1
298.70 225.47 0.43 c p1
298.98 225.38 0.43 c p1
299.25 226.04 0.43 c p1
299.53 225.32 0.43 c p1
299.81 225.81 0.43 c p1
300.09 226.11 0.43 c p1
300.37 224.98 0.43 c p1
300.65 225.64 0.43 c p1
300.92 225.72 0.43 c p1
301.20 225.80 0.43 c p1
301.48 225.69 0.43 c p1
301.76 225.55 0.43 c p1
302.04 225.62 0.43 c p1
302.32 225.52 0.43 c p1
302.59 225.59 0.43 c p1
302.87 226.06 0.43 c p1
303.15 225.73 0.43 c p1
303.43 225.58 0.43 c p1
303.71 225.25 0.43 c p1
303.99 226.74 0.43 c p1
304.26 226.41 0.43 c p1
304.54 225.27 0.43 c p1
304.82 225.34 0.43 c p1
305.10 225.58 0.43 c p1
305.38 226.05 0.43 c p1
305.66 225.93 0.43 c p1
305.93 225.77 0.43 c p1
306.21 224.46 0.43 c p1
306.49 226.12 0.43 c p1
306.77 225.38 0.43 c p1
307.05 225.04 0.43 c p1
307.33 224.70 0.43 c p1
307.60 224.76 0.43 c p1
307.88 225.39 0.43 c p1
308.16 225.67 0.43 c p1
308.44 224.71 0.43 c p1
308.72 224.77 0.43 c p1
309.00 225.22 0.43 c p1
309.27 224.88 0.43 c p1
309.55 225.55 0.43 c p1
309.83 225.38 0.43 c p1
310.11 225.03 0.43 c p1
310.39 224.29 0.43 c p1
310.67 225.93 0.43 c p1
310.94 225.19 0.43 c p1
311.22 224.05 0.43 c p1
311.50 225.51 0.43 c p1
311.78 224.54 0.43 c p1
312.06 224.42 0.43 c p1
312.34 224.07 0.43 c p1
312.61 225.08 0.43 c p1
312.89 224.95 0.43 c p1
313.17 224.38 0.43 c p1
313.45 223.46 0.43 c p1
313.73 224.87 0.43 c p1
314.01 225.31 0.43 c p1
314.28 224.96 0.43 c p1
314.56 225.00 0.43 c p1
314.84 223.86 0.43 c p1
315.12 225.49 0.43 c p1
315.40 224.34 0.43 c p1
315.68 224.60 0.43 c p1
315.95 224.25 0.43 c p1
316.23 225.25 0.43 c p1
316.51 224.50 0.43 c p1
316.79 224.54 0.43 c p1
317.07 223.44 0.43 c p1
317.35 224.62 0.43 c p1
317.62 225.27 0.43 c p1
317.90 224.92 0.43 c p1
318.18 223.94 0.43 c p1
318.46 224.59 0.43 c p1
318.74 225.82 0.43 c p1
319.02 223.48 0.43 c p1
319.29 224.31 0.43 c p1
319.57 225.13 0.43 c p1
319.85 224.16 0.43 c p1
320.13 224.02 0.43 c p1
320.41 223.66 0.43 c p1
320.69 224.09 0.43 c p1
320.96 223.73 0.43 c p1
321.24 224.33 0.43 c p1
321.52 224.01 0.43 c p1
321.80 223.43 0.43 c p1
322.08 224.42 0.43 c p1
322.36 224.45 0.43 c p1
322.63 224.31 0.43 c p1
322.91 223.16 0.43 c p1
323.19 223.98 0.43 c p1
323.47 224.79 0.43 c p1
323.75 224.04 0.43 c p1
324.03 224.06 0.43 c p1
324.30 223.92 0.43 c p1
324.58 223.55 0.43 c p1
324.86 223.76 0.43 c p1
325.14 224.40 0.43 c p1
325.42 223.25 0.43 c p1
325.70 223.45 0.43 c p1
325.97 223.87 0.43 c p1
326.25 222.93 0.43 c p1
326.53 223.13 0.43 c p1
326.81 223.77 0.43 c p1
327.09 224.36 0.43 c p1
327.37 223.43 0.43 c p1
327.64 223.45 0.43 c p1
327.92 225.01 0.43 c p1
328.20 224.29 0.43 c p1
328.48 224.49 0.43 c p1
328.76 223.72 0.43 c p1
329.04 223.97 0.43 c p1
329.31 224.16 0.43 c p1
329.59 223.79 0.43 c p1
329.87 223.03 0.43 c p1
330.15 223.27 0.43 c p1
330.43 223.86 0.43 c p1
330.71 224.10 0.43 c p1
330.98 223.12 0.43 c p1
331.26 223.75 0.43 c p1
331.54 223.95 0.43 c p1
331.82 223.58 0.43 c p1
332.10 222.64 0.43 c p1
332.38 223.23 0.43 c p1
332.65 223.86 0.43 c p1
332.93 223.48 0.43 c p1
333.21 224.07 0.43 c p1
333.49 223.31 0.43 c p1
333.77 224.11 0.43 c p1
334.05 223.17 0.43 c p1
334.32 222.97 0.43 c p1
334.60 223.21 0.43 c p1
334.88 223.62 0.43 c p1
335.16 223.03 0.43 c p1
335.44 223.26 0.43 c p1
335.72 223.67 0.43 c p1
335.99 223.47 0.43 c p1
336.27 223.49 0.43 c p1
336.55 223.72 0.43 c p1
336.83 223.52 0.43 c p1
337.11 223.76 0.43 c p1
337.39 223.16 0.43 c p1
337.66 223.96 0.43 c p1
337.94 223.41 0.43 c p1
338.22 223.21 0.43 c p1
338.50 222.45 0.43 c p1
338.78 223.24 0.43 c p1
339.06 222.87 0.43 c p1
339.33 223.49 0.43 c p1
339.61 223.68 0.43 c p1
339.89 222.74 0.43 c p1
340.17 223.54 0.43 c p1
340.45 222.77 0.43 c p1
340.73 223.35 0.43 c p1
341.00 223.58 0.43 c p1
341.28 222.60 0.43 c p1
341.56 222.44 0.43 c p1
341.84 222.84 0.43 c p1
342.12 223.24 0.43 c p1
342.40 223.26 0.43 c p1
342.67 223.05 0.43 c p1
342.95 222.68 0.43 c p1
343.23 223.69 0.43 c p1
343.51 223.70 0.43 c p1
343.79 222.93 0.43 c p1
344.07 222.94 0.43 c p1
344.34 222.74 0.43 c p1
344.62 223.36 0.43 c p1
344.90 222.98 0.43 c p1
345.18 222.99 0.43 c p1
345.46 223.18 0.43 c p1
345.74 223.40 0.43 c p1
346.01 223.42 0.43 c p1
346.29 223.21 0.43 c p1
346.57 223.05 0.43 c p1
346.85 222.84 0.43 c p1
347.13 222.68 0.43 c p1
347.41 222.86 0.43 c p1
347.68 222.49 0.43 c p1
347.96 222.89 0.43 c p1
348.24 223.89 0.43 c p1
348.52 222.91 0.43 c p1
348.80 223.13 0.43 c p1
349.08 222.37 0.43 c p1
349.35 221.99 0.43 c p1
349.63 221.61 0.43 c p1
349.91 223.74 0.43 c p1
350.19 222.79 0.43 c p1
350.47 222.80 0.43 c p1
350.75 222.60 0.43 c p1
351.02 222.22 0.43 c p1
351.30 222.23 0.43 c p1
351.58 222.84 0.43 c p1
351.86 223.02 0.43 c p1
352.14 222.47 0.43 c p1
352.42 223.25 0.43 c p1
352.69 222.27 0.43 c p1
352.97 222.49 0.43 c p1
353.25 222.50 0.43 c p1
353.53 222.68 0.43 c p1
353.81 223.08 0.43 c p1
354.09 221.92 0.43 c p1
354.36 222.32 0.43 c p1
354.64 223.10 0.43 c p1
354.92 222.55 0.43 c p1
355.20 222.17 0.43 c p1
355.48 222.18 0.43 c p1
355.76 222.18 0.43 c p1
356.03 222.36 0.43 c p1
356.31 223.37 0.43 c p1
356.59 222.77 0.43 c p1
356.87 222.21 0.43 c p1
357.15 222.39 0.43 c p1
357.43 222.79 0.43 c p1
357.70 222.62 0.43 c p1
357.98 223.02 0.43 c p1
358.26 222.42 0.43 c p1
358.54 221.87 0.43 c p1
358.82 222.82 0.43 c p1
359.10 221.88 0.43 c p1
359.37 222.06 0.43 c p1
359.65 222.07 0.43 c p1
359.93 222.46 0.43 c p1
360.21 222.08 0.43 c p1
360.49 221.70 0.43 c p1
360.77 222.48 0.43 c p1
361.04 222.10 0.43 c p1
361.32 221.72 0.43 c p1
361.60 222.32 0.43 c p1
0.00 0.00 432.00 576.00 cl
0 0 0 srgb
0.75 setlinewidth
[] 0 setdash
1 setlinecap
1 setlinejoin
10.00 setmiterlimit
np
216.59 201.60 m
139.17 0 l
o
np
216.59 201.60 m
0 -5.76 l
o
np
244.42 201.60 m
0 -5.76 l
o
np
272.26 201.60 m
0 -5.76 l
o
np
300.09 201.60 m
0 -5.76 l
o
np
327.92 201.60 m
0 -5.76 l
o
np
355.76 201.60 m
0 -5.76 l
o
/Font1 findfont 6 s
216.59 185.47 (0) .5 0 t
244.42 185.47 (1000) .5 0 t
272.26 185.47 (2000) .5 0 t
300.09 185.47 (3000) .5 0 t
327.92 185.47 (4000) .5 0 t
355.76 185.47 (5000) .5 0 t
np
216.00 206.70 m
0 35.88 l
o
np
216.00 206.70 m
-5.76 0 l
o
np
216.00 212.68 m
-5.76 0 l
o
np
216.00 218.66 m
-5.76 0 l
o
np
216.00 224.64 m
-5.76 0 l
o
np
216.00 230.62 m
-5.76 0 l
o
np
216.00 236.60 m
-5.76 0 l
o
np
216.00 242.58 m
-5.76 0 l
o
209.09 204.55 (-0.03) 1 0 t
209.09 210.53 (-0.02) 1 0 t
209.09 216.51 (-0.01) 1 0 t
209.09 222.49 (0.00) 1 0 t
209.09 228.46 (0.01) 1 0 t
209.09 234.44 (0.02) 1 0 t
209.09 240.42 (0.03) 1 0 t
np
216.00 201.60 m
151.20 0 l
0 46.08 l
-151.20 0 l
0 -46.08 l
o
0.00 0.00 432.00 576.00 cl
/Font1 findfont 9 s
0 0 0 srgb
291.60 262.88 (Residuen) .5 0 t
59.04 73.44 401.76 516.96 cl
ep
%%Trailer
%%Pages: 1
%%EOF
