%!PS-Adobe-3.0 EPSF-3.0
%%DocumentNeededResources: font Helvetica
%%+ font Helvetica-Bold
%%+ font Helvetica-Oblique
%%+ font Helvetica-BoldOblique
%%+ font Symbol
%%Title: R Graphics Output
%%Creator: R Software
%%Pages: (atend)
%%BoundingBox: 0 0 432 576
%%EndComments
%%BeginProlog
/bp  { gs sRGB gs } def
% begin .ps.prolog
/gs  { gsave } bind def
/gr  { grestore } bind def
/ep  { showpage gr gr } bind def
/m   { moveto } bind def
/l  { rlineto } bind def
/np  { newpath } bind def
/cp  { closepath } bind def
/f   { fill } bind def
/o   { stroke } bind def
/c   { newpath 0 360 arc } bind def
/r   { 4 2 roll moveto 1 copy 3 -1 roll exch 0 exch rlineto 0 rlineto -1 mul 0 exch rlineto closepath } bind def
/p1  { stroke } bind def
/p2  { gsave bg fill grestore newpath } bind def
/p3  { gsave bg fill grestore stroke } bind def
/p6  { gsave bg eofill grestore newpath } bind def
/p7  { gsave bg eofill grestore stroke } bind def
/t   { 5 -2 roll moveto gsave rotate
       1 index stringwidth pop
       mul neg 0 rmoveto show grestore } bind def
/ta  { 4 -2 roll moveto gsave rotate show } bind def
/tb  { 2 -1 roll 0 rmoveto show } bind def
/cl  { grestore gsave newpath 3 index 3 index moveto 1 index
       4 -1 roll lineto  exch 1 index lineto lineto
       closepath clip newpath } bind def
/rgb { setrgbcolor } bind def
/s   { scalefont setfont } bind def
% end   .ps.prolog
/sRGB { [ /CIEBasedABC
          << /DecodeLMN
               [ { dup 0.03928 le
                        {12.92321 div}
                        {0.055 add 1.055 div 2.4 exp }
                     ifelse
                 } bind dup dup
               ]
             /MatrixLMN [0.412457 0.212673 0.019334
                         0.357576 0.715152 0.119192
                         0.180437 0.072175 0.950301]
             /WhitePoint [0.9505 1.0 1.0890]
           >>
         ] setcolorspace } bind def
/srgb { setcolor } bind def
%%IncludeResource: font Helvetica
/Helvetica findfont
dup length dict begin
  {1 index /FID ne {def} {pop pop} ifelse} forall
  /Encoding ISOLatin1Encoding def
  currentdict
  end
/Font1 exch definefont pop
%%IncludeResource: font Helvetica-Bold
/Helvetica-Bold findfont
dup length dict begin
  {1 index /FID ne {def} {pop pop} ifelse} forall
  /Encoding ISOLatin1Encoding def
  currentdict
  end
/Font2 exch definefont pop
%%IncludeResource: font Helvetica-Oblique
/Helvetica-Oblique findfont
dup length dict begin
  {1 index /FID ne {def} {pop pop} ifelse} forall
  /Encoding ISOLatin1Encoding def
  currentdict
  end
/Font3 exch definefont pop
%%IncludeResource: font Helvetica-BoldOblique
/Helvetica-BoldOblique findfont
dup length dict begin
  {1 index /FID ne {def} {pop pop} ifelse} forall
  /Encoding ISOLatin1Encoding def
  currentdict
  end
/Font4 exch definefont pop
%%IncludeResource: font Symbol
/Symbol findfont
dup length dict begin
  {1 index /FID ne {def} {pop pop} ifelse} forall
  currentdict
  end
/Font5 exch definefont pop
%%EndProlog
%%Page: 1 1
bp
0.00 0.00 432.00 576.00 cl
0.00 0.00 432.00 576.00 cl
0.00 0.00 432.00 576.00 cl
/Font1 findfont 12 s
0 0 0 srgb
48.00 508.72 (PCP-ETH) 0 0 t
48.00 494.89 (Blitzlicht-Photolyse) 0 0 t
/Font1 findfont 9 s
48.00 457.54 (File: Dy) 0 ta
-0.180 (e_0_1_V2_900V_30.dat) tb gr
48.00 334.87 (T) 0 ta
-1.080 (ue Apr  9 22:04:56 2019) tb gr
48.00 430.87 (Fitfunktion:  a + b * e) 0 ta
-0.270 (xp\(-c * t\)) tb gr
48.00 420.50 (t-Inter) 0 ta
0.270 (v) tb
-0.225 (all: 18.000 ... 247.000 ms) tb gr
48.00 410.14 (P) 0 ta
-0.360 (ar) tb
-0.090 (ameter \(Standardabw) tb
-0.090 (eichung\):) tb gr
48.00 399.77 (  a = -0.00389 \(0.00035\)) 0 0 t
48.00 389.40 (  b = 0.25888 \(0.00069\)) 0 0 t
48.00 379.03 (  c = 1.429e+01 \(8.785e-02\) s^-1) 0 0 t
48.00 368.66 (  tau = 6.996e-02 \(4.299e-04\) s) 0 0 t
216.00 345.60 388.80 518.40 cl
0 0 0 srgb
0.75 setlinewidth
[] 0 setdash
1 setlinecap
1 setlinejoin
10.00 setmiterlimit
np
222.40 511.36 m
0.15 0.32 l
0.14 0 l
0.15 -0.10 l
0.14 -0.34 l
0.15 0 l
0.14 0.22 l
0.15 -0.32 l
0.14 0.44 l
0.15 -0.12 l
0.15 -0.32 l
0.14 0 l
0.15 -0.12 l
0.14 -0.22 l
0.15 -0.22 l
0.14 1.00 l
0.15 -0.44 l
0.14 0 l
0.15 0.10 l
0.15 0 l
0.14 0 l
0.15 0.34 l
0.14 -0.22 l
0.15 0 l
0.14 0 l
0.15 0.10 l
0.15 0.12 l
0.14 -0.56 l
0.15 0.12 l
0.14 -0.12 l
0.15 0 l
0.14 0.12 l
0.15 0.10 l
0.14 -0.44 l
0.15 0.22 l
0.15 -0.10 l
0.14 0.10 l
0.15 0 l
0.14 0.12 l
0.15 0 l
0.14 0.44 l
0.15 0.22 l
0.14 -0.22 l
0.15 0.10 l
0.15 -0.32 l
0.14 0 l
0.15 -0.12 l
0.14 0.12 l
0.15 0 l
0.14 -0.12 l
0.15 0.44 l
0.14 -0.66 l
0.15 -0.22 l
0.15 -0.10 l
0.14 0.22 l
0.15 0.32 l
0.14 -0.10 l
0.15 -0.22 l
0.14 0.10 l
0.15 0.22 l
0.15 -0.22 l
0.14 0.22 l
0.15 -0.10 l
0.14 0.10 l
0.15 0.56 l
0.14 -0.22 l
0.15 -0.12 l
0.14 -0.66 l
0.15 0.44 l
0.15 -0.44 l
0.14 -0.10 l
0.15 0.54 l
0.14 -0.10 l
0.15 -0.22 l
0.14 0.44 l
0.15 -0.12 l
0.14 -0.54 l
0.15 -0.22 l
0.15 0.76 l
0.14 -0.32 l
0.15 0.76 l
0.14 -0.32 l
0.15 0.32 l
0.14 0 l
0.15 -0.22 l
0.14 -0.32 l
0.15 0.22 l
0.15 0.32 l
0.14 0.32 l
0.15 -0.42 l
0.14 -0.34 l
0.15 -0.22 l
0.14 0 l
0.15 -0.22 l
0.15 0.22 l
0.14 0.22 l
0.15 -0.32 l
0.14 0.32 l
0.15 0 l
0.14 0.12 l
236.96 436.75 lineto
0.14 4.06 l
0.15 2.45 l
0.15 0.66 l
0.14 0.98 l
0.15 1.01 l
0.14 0.98 l
0.15 1.20 l
0.14 1.01 l
0.15 0 l
0.14 -0.22 l
0.15 0.76 l
0.15 1.42 l
0.14 0.89 l
0.15 0.88 l
0.14 0.12 l
0.15 0.89 l
0.14 -0.44 l
0.15 0.44 l
0.14 1.86 l
0.15 0.99 l
0.15 0.12 l
0.14 0.32 l
0.15 0.44 l
0.14 0.56 l
0.15 0.99 l
0.14 0.12 l
0.15 0.54 l
0.15 1.10 l
0.14 0.54 l
0.15 -0.44 l
0.14 1.33 l
0.15 0.88 l
0.14 0 l
0.15 0 l
0.14 1.01 l
0.15 0.76 l
0.15 0.66 l
0.14 1.11 l
0.15 0.54 l
0.14 0.22 l
0.15 -0.44 l
0.14 0.34 l
0.15 0.98 l
0.14 0.89 l
0.15 0.54 l
0.15 0.56 l
0.14 0.22 l
0.15 0.32 l
0.14 0.79 l
0.15 0.44 l
0.14 -0.22 l
0.15 0.98 l
0.14 0.56 l
0.15 -0.12 l
0.15 1.20 l
0.14 0.45 l
0.15 0.66 l
0.14 0 l
0.15 0.22 l
0.14 0.12 l
0.15 1.65 l
0.15 0.78 l
0.14 -0.34 l
0.15 0.12 l
0.14 0.99 l
0.15 0 l
0.14 0.88 l
0.15 0.32 l
0.14 0.56 l
0.15 0 l
0.15 0.22 l
0.14 0.89 l
0.15 0.66 l
0.14 0 l
0.15 0.22 l
0.14 0 l
0.15 0.54 l
0.14 0.22 l
0.15 0.98 l
0.15 0.79 l
0.14 -0.22 l
0.15 1.20 l
0.14 -0.66 l
0.15 0.56 l
0.14 0.89 l
0.15 0.32 l
0.14 0.34 l
0.15 -0.34 l
0.15 0 l
0.14 0.56 l
0.15 0.54 l
0.14 0.66 l
0.15 0.10 l
0.14 0.79 l
0.15 -0.66 l
0.15 0.31 l
0.14 1.11 l
0.15 0.22 l
0.14 0.57 l
251.52 492.06 lineto
0.14 -0.31 l
0.15 0.44 l
0.14 0.44 l
0.15 0.54 l
0.15 -0.22 l
0.14 0.44 l
0.15 0.10 l
0.14 -0.32 l
0.15 1.10 l
0.14 0 l
0.15 0.10 l
0.14 0.57 l
0.15 -0.13 l
0.15 0.35 l
0.14 0.66 l
0.15 0.32 l
0.14 0.34 l
0.15 -0.34 l
0.14 0.56 l
0.15 -0.22 l
0.14 0.45 l
0.15 1.20 l
0.15 -0.12 l
0.14 -0.64 l
0.15 0.54 l
0.14 -0.22 l
0.15 0.32 l
0.14 0.88 l
0.15 -0.32 l
0.14 0.32 l
0.15 0.44 l
0.15 -0.22 l
0.14 0.66 l
0.15 0.13 l
0.14 0.44 l
0.15 -0.89 l
0.14 0.45 l
0.15 0.09 l
0.15 1.33 l
0.14 0.12 l
0.15 0 l
0.14 -0.12 l
0.15 0.22 l
0.14 -0.22 l
0.15 0.44 l
0.14 -0.10 l
0.15 0.22 l
0.15 0 l
0.14 0.32 l
0.15 0.13 l
0.14 -0.13 l
0.15 0.45 l
0.14 0.32 l
0.15 -0.32 l
0.14 0.09 l
0.15 0.35 l
0.15 0.32 l
0.14 0.44 l
0.15 -0.54 l
0.14 0.66 l
0.15 -0.44 l
0.14 0.10 l
0.15 0.34 l
0.14 0.66 l
0.15 0.10 l
0.15 -0.44 l
0.14 0.44 l
0.15 -0.22 l
0.14 -0.10 l
0.15 0.32 l
0.14 -0.22 l
0.15 0.44 l
0.15 -0.09 l
0.14 0.31 l
0.15 -0.31 l
0.14 0.76 l
0.15 0.66 l
0.14 -0.88 l
0.15 0.88 l
0.14 -0.54 l
0.15 0 l
0.15 0.76 l
0.14 -0.10 l
0.15 0.10 l
0.14 -0.22 l
0.15 0.22 l
0.14 -0.22 l
0.15 0.34 l
0.14 0.32 l
0.15 0.13 l
0.15 0 l
0.14 -0.57 l
0.15 0.34 l
0.14 0.23 l
0.15 -0.13 l
0.14 0.32 l
0.15 -0.54 l
0.14 0 l
0.15 0.54 l
266.08 507.48 lineto
0.14 0.57 l
0.15 -0.22 l
0.14 -0.57 l
0.15 -0.19 l
0.14 1.08 l
0.15 -0.10 l
0.15 0 l
0.14 0.10 l
0.15 -0.67 l
0.14 0.22 l
0.15 -0.22 l
0.14 0 l
0.15 0.57 l
0.14 0.10 l
0.15 0.12 l
0.15 0 l
0.14 -0.22 l
0.15 0.32 l
0.14 0 l
0.15 -0.32 l
0.14 0.22 l
0.15 0.32 l
0.14 -0.22 l
0.15 0 l
0.15 0 l
0.14 0.34 l
0.15 -0.34 l
0.14 0.34 l
0.15 0.32 l
0.14 -0.32 l
0.15 0.32 l
0.14 -0.76 l
0.15 0.22 l
0.15 0.22 l
0.14 0.54 l
0.15 -0.54 l
0.14 -0.56 l
0.15 0.34 l
0.14 0.32 l
0.15 0.44 l
0.15 -0.10 l
0.14 0.10 l
0.15 0 l
0.14 -0.66 l
0.15 -0.22 l
0.14 0.88 l
0.15 -0.10 l
0.14 -0.12 l
0.15 0.22 l
0.15 -0.32 l
0.14 -0.22 l
0.15 0.22 l
0.14 0.32 l
0.15 -0.44 l
0.14 -0.22 l
0.15 0 l
0.14 0.88 l
0.15 -0.32 l
0.15 0.10 l
0.14 0.79 l
0.15 -1.23 l
0.14 0.22 l
0.15 0.22 l
0.14 0.12 l
0.15 0.10 l
0.14 0.34 l
0.15 -0.44 l
0.15 -0.44 l
0.14 0.22 l
0.15 -0.22 l
0.14 0.44 l
0.15 0.32 l
0.14 -0.88 l
0.15 0 l
0.15 0.12 l
0.14 -0.34 l
0.15 0.78 l
0.14 0.32 l
0.15 -0.32 l
0.14 0.10 l
0.15 -0.10 l
0.14 -0.12 l
0.15 0.56 l
0.15 0.10 l
0.14 -0.44 l
0.15 -0.10 l
0.14 0.10 l
0.15 -0.44 l
0.14 0.44 l
0.15 0.12 l
0.14 0.32 l
0.15 -0.88 l
0.15 0.22 l
0.14 -0.44 l
0.15 0.56 l
0.14 0.10 l
0.15 0 l
0.14 -0.10 l
0.15 0.10 l
280.63 508.59 lineto
0.15 0.88 l
0.15 0.44 l
0.14 0 l
0.15 -0.54 l
0.14 0.10 l
0.15 -0.32 l
0.14 0 l
0.15 0.66 l
0.15 -0.56 l
0.14 0 l
0.15 0.12 l
0.14 -0.78 l
0.15 0.22 l
0.14 -0.32 l
0.15 0.54 l
0.14 0.34 l
0.15 0 l
0.15 -0.56 l
0.14 0.22 l
0.15 0.56 l
0.14 0 l
0.15 -0.12 l
0.14 -0.22 l
0.15 -0.32 l
0.14 0.22 l
0.15 0.44 l
0.15 -0.44 l
0.14 -0.22 l
0.15 0 l
0.14 0 l
0.15 -0.22 l
0.14 0.66 l
0.15 0.10 l
0.14 -0.44 l
0.15 0.22 l
0.15 -0.54 l
0.14 -0.44 l
0.15 0.98 l
0.14 0.66 l
0.15 -0.76 l
0.14 0 l
0.15 0.10 l
0.14 0.34 l
0.15 0.10 l
0.15 -0.76 l
0.14 0.22 l
0.15 -0.22 l
0.14 0 l
0.15 0 l
0.14 0.54 l
0.15 -0.22 l
0.15 -0.22 l
0.14 -0.10 l
0.15 -0.34 l
0.14 0 l
0.15 1.00 l
0.14 -0.66 l
0.15 0.32 l
0.14 -0.10 l
0.15 -0.34 l
0.15 0.34 l
0.14 0.22 l
0.15 -0.12 l
0.14 -0.22 l
0.15 0.22 l
0.14 -0.66 l
0.15 0.12 l
0.14 0.76 l
0.15 -0.22 l
0.15 -0.32 l
0.14 -0.66 l
0.15 0.32 l
0.14 0.12 l
0.15 0.32 l
0.14 0.34 l
0.15 -0.34 l
0.14 -0.44 l
0.15 0.34 l
0.15 0.22 l
0.14 0 l
0.15 -0.12 l
0.14 0.44 l
0.15 -1.10 l
0.14 0.22 l
0.15 0.44 l
0.15 0.34 l
0.14 -0.34 l
0.15 0 l
0.14 0 l
0.15 -0.44 l
0.14 -0.10 l
0.15 0.44 l
0.14 -0.12 l
0.15 -0.44 l
0.15 0 l
0.14 0.44 l
0.15 0.56 l
0.14 -0.22 l
0.15 -0.66 l
295.19 508.49 lineto
0.15 0 l
0.14 0.44 l
0.15 0.22 l
0.15 -0.12 l
0.14 -0.54 l
0.15 0.44 l
0.14 -0.56 l
0.15 0.22 l
0.14 -0.10 l
0.15 0.54 l
0.14 -0.10 l
0.15 -0.66 l
0.15 -0.66 l
0.14 0.98 l
0.15 0.22 l
0.14 0.22 l
0.15 -0.66 l
0.14 0.12 l
0.15 -0.34 l
0.15 0.44 l
0.14 0.78 l
0.15 -0.44 l
0.14 -0.34 l
0.15 0.12 l
0.14 -0.56 l
0.15 -0.10 l
0.14 0.76 l
0.15 -0.10 l
0.15 0 l
0.14 -0.66 l
0.15 0.32 l
0.14 -0.22 l
0.15 0.22 l
0.14 0.66 l
0.15 -0.54 l
0.14 -0.22 l
0.15 0 l
0.15 0.32 l
0.14 0.34 l
0.15 -0.44 l
0.14 0 l
0.15 -0.34 l
0.14 0.22 l
0.15 0.12 l
0.14 0 l
0.15 0.54 l
0.15 -0.44 l
0.14 -0.67 l
0.15 0.23 l
0.14 0.56 l
0.15 -0.44 l
0.14 0.54 l
0.15 -0.32 l
0.15 -0.12 l
0.14 0.22 l
0.15 -0.10 l
0.14 -0.44 l
0.15 0.22 l
0.14 -0.12 l
0.15 0.12 l
0.14 0 l
0.15 -0.57 l
0.15 1.01 l
0.14 0 l
0.15 -0.34 l
0.14 -0.22 l
0.15 -0.10 l
0.14 0 l
0.15 0.10 l
0.14 0.66 l
0.15 0.22 l
0.15 -0.88 l
0.14 -0.67 l
0.15 0.67 l
0.14 0 l
0.15 0.22 l
0.14 0 l
0.15 -0.22 l
0.14 0.12 l
0.15 -0.44 l
0.15 0.22 l
0.14 0.76 l
0.15 -0.44 l
0.14 -0.10 l
0.15 0.44 l
0.14 -0.22 l
0.15 -0.44 l
0.15 0.44 l
0.14 -0.44 l
0.15 0.54 l
0.14 -0.54 l
0.15 -0.22 l
0.14 -0.13 l
0.15 0.35 l
0.14 0.32 l
0.15 -0.22 l
0.15 0 l
0.14 -0.67 l
0.15 0.57 l
309.75 508.81 lineto
0.15 -0.54 l
0.14 0.32 l
0.15 0 l
0.14 -0.54 l
0.15 -0.35 l
0.15 0.79 l
0.14 -0.12 l
0.15 0.12 l
0.14 0 l
0.15 -0.34 l
0.14 -0.67 l
0.15 0.44 l
0.14 -0.09 l
0.15 0.32 l
0.15 0 l
0.14 0 l
0.15 -0.54 l
0.14 0.09 l
0.15 0.67 l
0.14 0.12 l
0.15 -0.22 l
0.15 -0.79 l
0.14 0.22 l
0.15 0.67 l
0.14 0.22 l
0.15 0 l
0.14 -0.44 l
0.15 -0.23 l
0.14 0.13 l
0.15 -0.44 l
0.15 0.44 l
0.14 0.10 l
0.15 0 l
0.14 -0.32 l
0.15 0.44 l
0.14 -0.89 l
0.15 0.32 l
0.14 0.57 l
0.15 -0.22 l
0.15 0.10 l
0.14 0.34 l
0.15 -0.57 l
0.14 0.23 l
0.15 -0.10 l
0.14 0.10 l
0.15 -0.10 l
0.14 -0.57 l
0.15 -0.32 l
0.15 0.67 l
0.14 0.66 l
0.15 -0.22 l
0.14 0.10 l
0.15 0.12 l
0.14 -0.66 l
0.15 -0.67 l
0.15 0.54 l
0.14 0.45 l
0.15 0.56 l
0.14 -0.66 l
0.15 0.10 l
0.14 -0.77 l
0.15 0 l
0.14 0.99 l
0.15 0.22 l
0.15 -0.44 l
0.14 -0.23 l
0.15 0.13 l
0.14 -0.22 l
0.15 0 l
0.14 0.54 l
0.15 0.12 l
0.14 -0.79 l
0.15 0.35 l
0.15 -0.67 l
0.14 0.32 l
0.15 0.22 l
0.14 0.13 l
0.15 0 l
0.14 -0.57 l
0.15 0.13 l
0.14 -0.23 l
0.15 1.11 l
0.15 -0.44 l
0.14 0.22 l
0.15 0 l
0.14 -0.44 l
0.15 0.09 l
0.14 0.13 l
0.15 -0.13 l
0.14 -0.09 l
0.15 0 l
0.15 0 l
0.14 0 l
0.15 0.66 l
0.14 -0.44 l
0.15 -0.79 l
0.14 0.22 l
0.15 0 l
0.15 0.22 l
324.31 508.05 lineto
0.15 0.22 l
0.14 -0.79 l
0.15 0.35 l
0.14 0.09 l
0.15 0 l
0.14 -0.09 l
0.15 0.32 l
0.15 -0.32 l
0.14 0 l
0.15 -0.35 l
0.14 0.79 l
0.15 -0.35 l
0.14 0.13 l
0.15 -0.13 l
0.14 -0.09 l
0.15 -0.13 l
0.15 -0.09 l
0.14 0.88 l
0.15 -0.12 l
0.14 -0.32 l
0.15 -0.44 l
0.14 0.22 l
0.15 0 l
0.14 0.54 l
0.15 0.22 l
0.15 -0.67 l
0.14 0.35 l
0.15 -0.66 l
0.14 0.22 l
0.15 0.09 l
0.14 0.23 l
0.15 -0.23 l
0.15 0.23 l
0.14 -0.67 l
0.15 0 l
0.14 0.67 l
0.15 0.34 l
0.14 -0.12 l
0.15 -0.67 l
0.14 0.13 l
0.15 0.09 l
0.15 0.13 l
0.14 0.22 l
0.15 0.10 l
0.14 -0.10 l
0.15 -0.12 l
0.14 -0.77 l
0.15 0.77 l
0.14 0.34 l
0.15 -0.79 l
0.15 0.22 l
0.14 -0.09 l
0.15 -0.22 l
0.14 0.54 l
0.15 -0.10 l
0.14 0.44 l
0.15 -0.79 l
0.14 -0.22 l
0.15 0.13 l
0.15 0.22 l
0.14 0.44 l
0.15 -0.44 l
0.14 0.22 l
0.15 -0.13 l
0.14 -0.22 l
0.15 0 l
0.15 0.79 l
0.14 -0.12 l
0.15 -0.32 l
0.14 -0.57 l
0.15 0 l
0.14 -0.41 l
0.15 1.08 l
0.14 -0.54 l
0.15 0.22 l
0.15 -0.13 l
0.14 0.35 l
0.15 -0.13 l
0.14 -0.22 l
0.15 0.35 l
0.14 0 l
0.15 0.54 l
0.14 -0.89 l
0.15 0.13 l
0.15 0.09 l
0.14 0 l
0.15 0.23 l
0.14 -0.89 l
0.15 0.57 l
0.14 -0.45 l
0.15 0.45 l
0.14 0.22 l
0.15 0.10 l
0.15 -0.45 l
0.14 -0.09 l
0.15 0.09 l
0.14 -0.44 l
0.15 0.89 l
0.14 -0.10 l
338.87 507.92 lineto
0.15 0 l
0.14 -0.22 l
0.15 -0.09 l
0.14 0.31 l
0.15 0.45 l
0.14 -0.45 l
0.15 0.45 l
0.14 -0.54 l
0.15 -0.45 l
0.15 0.10 l
0.14 0.57 l
0.15 0.10 l
0.14 -0.45 l
0.15 0.13 l
0.14 -0.13 l
0.15 -0.54 l
0.14 0.54 l
0.15 0.13 l
0.15 -0.22 l
0.14 0.66 l
0.15 -0.57 l
0.14 -0.32 l
0.15 0.99 l
0.14 0.12 l
0.15 -0.57 l
0.14 0.35 l
0.15 -0.22 l
0.15 -0.57 l
0.14 -0.10 l
0.15 0.77 l
0.14 -0.32 l
0.15 -0.13 l
0.14 -0.09 l
0.15 -0.13 l
0.15 0.13 l
0.14 0.44 l
0.15 0.44 l
0.14 -1.01 l
0.15 0.57 l
0.14 -0.22 l
0.15 -0.22 l
0.14 0.09 l
0.15 0.22 l
0.15 0.57 l
0.14 -0.66 l
0.15 -0.13 l
0.14 -0.09 l
0.15 0.54 l
0.14 0 l
0.15 0.22 l
0.14 -0.99 l
0.15 0.45 l
0.15 -0.22 l
0.14 0 l
0.15 0.54 l
0.14 0.12 l
0.15 -1.01 l
0.14 0.44 l
0.15 0.22 l
0.14 -0.66 l
0.15 0.44 l
0.15 0.45 l
0.14 -0.10 l
0.15 -0.35 l
0.14 0.35 l
0.15 -0.35 l
0.14 0.22 l
0.15 0.57 l
0.15 -0.12 l
0.14 -0.45 l
0.15 0.13 l
0.14 -0.22 l
0.15 -0.45 l
0.14 0 l
0.15 0.89 l
0.14 -0.35 l
0.15 -0.31 l
0.15 0.44 l
0.14 -0.35 l
0.15 0 l
0.14 -0.09 l
0.15 0.66 l
0.14 0 l
0.15 -0.35 l
0.14 0.13 l
0.15 -0.44 l
0.15 -0.35 l
0.14 0.66 l
0.15 0 l
0.14 -0.22 l
0.15 -0.22 l
0.14 0.22 l
0.15 -0.44 l
0.14 0.57 l
0.15 0 l
0.15 0.22 l
0.14 0.10 l
0.15 -0.45 l
0.14 -0.09 l
353.43 507.70 lineto
0.14 -0.54 l
0.15 0.89 l
0.14 0 l
0.15 0.44 l
0.15 -0.22 l
0.14 -0.35 l
0.15 -0.54 l
0.14 0 l
0.15 -0.31 l
0.14 0.54 l
0.15 0.44 l
0.15 -0.22 l
0.14 -0.35 l
0.15 0.57 l
0.14 -0.44 l
0.15 0.22 l
0.14 0.32 l
0.15 0 l
0.14 -0.54 l
0.15 0.09 l
0.15 0.13 l
0.14 0.09 l
0.15 0 l
0.14 0.35 l
0.15 -0.35 l
0.14 -0.31 l
0.15 -0.35 l
0.14 0.66 l
0.15 0.13 l
0.15 0.44 l
0.14 -0.79 l
0.15 0 l
0.14 0.35 l
0.15 -0.67 l
0.14 0.45 l
0.15 0.22 l
0.14 0 l
0.15 -0.57 l
0.15 0.57 l
0.14 -0.22 l
0.15 0 l
0.14 0 l
0.15 0.66 l
0.14 -0.44 l
0.15 -0.35 l
0.15 0.22 l
0.14 0.13 l
0.15 -0.44 l
0.14 0.44 l
0.15 0.10 l
0.14 -0.89 l
0.15 0.35 l
0.14 -0.13 l
0.15 0 l
0.15 -0.10 l
0.14 0.23 l
0.15 0.54 l
0.14 -0.32 l
0.15 -0.13 l
0.14 -0.22 l
0.15 0.67 l
0.14 -0.23 l
0.15 0.35 l
0.15 -0.35 l
0.14 -0.22 l
0.15 0.13 l
0.14 0 l
0.15 -0.35 l
0.14 0.35 l
0.15 0.44 l
0.14 -0.57 l
0.15 -0.09 l
0.15 0.31 l
0.14 -0.54 l
0.15 -0.12 l
0.14 0.22 l
0.15 0 l
0.14 0.79 l
0.15 0 l
0.15 -0.35 l
0.14 -0.31 l
0.15 0.09 l
0.14 0.13 l
0.15 0.22 l
0.14 0.32 l
0.15 0.12 l
0.14 -0.22 l
0.15 -0.12 l
0.15 0 l
0.14 -0.54 l
0.15 0.22 l
0.14 -0.22 l
0.15 0.44 l
0.14 -0.35 l
0.15 0 l
0.14 0.22 l
0.15 0.23 l
0.15 -0.10 l
0.14 -0.44 l
currentpoint o m
367.99 507.92 lineto
0.14 -0.22 l
0.15 0.22 l
0.14 0 l
0.15 0.79 l
0.14 -0.44 l
0.15 -0.35 l
0.15 0.13 l
0.14 -0.44 l
0.15 0.54 l
0.14 -0.10 l
0.15 -0.13 l
0.14 -0.09 l
0.15 -0.45 l
0.15 0.54 l
0.14 -0.44 l
0.15 0.67 l
0.14 -0.10 l
0.15 0.10 l
0.14 -0.23 l
0.15 0.13 l
0.14 -0.35 l
0.15 0.13 l
0.15 0 l
0.14 0.66 l
0.15 -0.22 l
0.14 -0.12 l
0.15 -0.32 l
0.14 0 l
0.15 -0.22 l
0.14 0.22 l
0.15 0.54 l
0.15 -0.10 l
0.14 -0.66 l
0.15 -0.13 l
0.14 -0.22 l
0.15 0.89 l
0.14 -0.10 l
0.15 0.22 l
0.14 0 l
0.15 -0.79 l
0.15 0.22 l
0.14 -0.32 l
0.15 0.67 l
0.14 0.10 l
0.15 -0.10 l
0.14 0 l
0.15 0 l
0.15 -0.22 l
0.14 -0.22 l
0.15 0.76 l
0.14 -0.54 l
0.15 0.09 l
0.14 -0.09 l
0.15 -0.13 l
0.14 0 l
0.15 0.45 l
0.15 -0.32 l
0.14 0.66 l
0.15 -0.57 l
0.14 -0.44 l
0.15 0.22 l
0.14 1.01 l
0.15 -0.12 l
0.14 -0.67 l
0.15 0.23 l
0.15 -0.23 l
0.14 0.45 l
0.15 -0.54 l
0.14 0.76 l
0.15 -0.67 l
0.14 -0.22 l
0.15 0 l
0.14 -0.63 l
0.15 1.30 l
0.15 0 l
0.14 -0.76 l
0.15 0.09 l
0.14 -0.09 l
0.15 -0.13 l
0.14 0.79 l
0.15 0.10 l
0.15 -0.54 l
0.14 0.22 l
0.15 -0.22 l
0.14 0.09 l
0.15 0.35 l
0.14 0 l
0.15 -0.44 l
0.14 -0.13 l
0.15 0 l
0.15 -0.44 l
0.14 0.79 l
0.15 0.44 l
0.14 -0.22 l
0.15 -0.66 l
0.14 0.09 l
0.15 -0.09 l
0.14 0.66 l
0.15 -0.22 l
o
/bg { 1 1 1 srgb } def
222.40 511.36 0.43 c p3
222.55 511.68 0.43 c p3
222.69 511.68 0.43 c p3
222.84 511.58 0.43 c p3
222.98 511.24 0.43 c p3
223.13 511.24 0.43 c p3
223.27 511.46 0.43 c p3
223.42 511.14 0.43 c p3
223.56 511.58 0.43 c p3
223.71 511.46 0.43 c p3
223.86 511.14 0.43 c p3
224.00 511.14 0.43 c p3
224.15 511.02 0.43 c p3
224.29 510.80 0.43 c p3
224.44 510.58 0.43 c p3
224.58 511.58 0.43 c p3
224.73 511.14 0.43 c p3
224.87 511.14 0.43 c p3
225.02 511.24 0.43 c p3
225.17 511.24 0.43 c p3
225.31 511.24 0.43 c p3
225.46 511.58 0.43 c p3
225.60 511.36 0.43 c p3
225.75 511.36 0.43 c p3
225.89 511.36 0.43 c p3
226.04 511.46 0.43 c p3
226.19 511.58 0.43 c p3
226.33 511.02 0.43 c p3
226.48 511.14 0.43 c p3
226.62 511.02 0.43 c p3
226.77 511.02 0.43 c p3
226.91 511.14 0.43 c p3
227.06 511.24 0.43 c p3
227.20 510.80 0.43 c p3
227.35 511.02 0.43 c p3
227.50 510.92 0.43 c p3
227.64 511.02 0.43 c p3
227.79 511.02 0.43 c p3
227.93 511.14 0.43 c p3
228.08 511.14 0.43 c p3
228.22 511.58 0.43 c p3
228.37 511.80 0.43 c p3
228.51 511.58 0.43 c p3
228.66 511.68 0.43 c p3
228.81 511.36 0.43 c p3
228.95 511.36 0.43 c p3
229.10 511.24 0.43 c p3
229.24 511.36 0.43 c p3
229.39 511.36 0.43 c p3
229.53 511.24 0.43 c p3
229.68 511.68 0.43 c p3
229.82 511.02 0.43 c p3
229.97 510.80 0.43 c p3
230.12 510.70 0.43 c p3
230.26 510.92 0.43 c p3
230.41 511.24 0.43 c p3
230.55 511.14 0.43 c p3
230.70 510.92 0.43 c p3
230.84 511.02 0.43 c p3
230.99 511.24 0.43 c p3
231.14 511.02 0.43 c p3
231.28 511.24 0.43 c p3
231.43 511.14 0.43 c p3
231.57 511.24 0.43 c p3
231.72 511.80 0.43 c p3
231.86 511.58 0.43 c p3
232.01 511.46 0.43 c p3
232.15 510.80 0.43 c p3
232.30 511.24 0.43 c p3
232.45 510.80 0.43 c p3
232.59 510.70 0.43 c p3
232.74 511.24 0.43 c p3
232.88 511.14 0.43 c p3
233.03 510.92 0.43 c p3
233.17 511.36 0.43 c p3
233.32 511.24 0.43 c p3
233.46 510.70 0.43 c p3
233.61 510.48 0.43 c p3
233.76 511.24 0.43 c p3
233.90 510.92 0.43 c p3
234.05 511.68 0.43 c p3
234.19 511.36 0.43 c p3
234.34 511.68 0.43 c p3
234.48 511.68 0.43 c p3
234.63 511.46 0.43 c p3
234.77 511.14 0.43 c p3
234.92 511.36 0.43 c p3
235.07 511.68 0.43 c p3
235.21 512.00 0.43 c p3
235.36 511.58 0.43 c p3
235.50 511.24 0.43 c p3
235.65 511.02 0.43 c p3
235.79 511.02 0.43 c p3
235.94 510.80 0.43 c p3
236.09 511.02 0.43 c p3
236.23 511.24 0.43 c p3
236.38 510.92 0.43 c p3
236.52 511.24 0.43 c p3
236.67 511.24 0.43 c p3
236.81 511.36 0.43 c p3
236.96 436.75 0.43 c p3
237.10 440.81 0.43 c p3
237.25 443.26 0.43 c p3
237.40 443.92 0.43 c p3
237.54 444.90 0.43 c p3
237.69 445.91 0.43 c p3
237.83 446.89 0.43 c p3
237.98 448.09 0.43 c p3
238.12 449.10 0.43 c p3
238.27 449.10 0.43 c p3
238.41 448.88 0.43 c p3
238.56 449.64 0.43 c p3
238.71 451.06 0.43 c p3
238.85 451.95 0.43 c p3
239.00 452.83 0.43 c p3
239.14 452.95 0.43 c p3
239.29 453.84 0.43 c p3
239.43 453.40 0.43 c p3
239.58 453.84 0.43 c p3
239.72 455.70 0.43 c p3
239.87 456.69 0.43 c p3
240.02 456.81 0.43 c p3
240.16 457.13 0.43 c p3
240.31 457.57 0.43 c p3
240.45 458.13 0.43 c p3
240.60 459.12 0.43 c p3
240.74 459.24 0.43 c p3
240.89 459.78 0.43 c p3
241.04 460.88 0.43 c p3
241.18 461.42 0.43 c p3
241.33 460.98 0.43 c p3
241.47 462.31 0.43 c p3
241.62 463.19 0.43 c p3
241.76 463.19 0.43 c p3
241.91 463.19 0.43 c p3
242.05 464.20 0.43 c p3
242.20 464.96 0.43 c p3
242.35 465.62 0.43 c p3
242.49 466.73 0.43 c p3
242.64 467.27 0.43 c p3
242.78 467.49 0.43 c p3
242.93 467.05 0.43 c p3
243.07 467.39 0.43 c p3
243.22 468.37 0.43 c p3
243.36 469.26 0.43 c p3
243.51 469.80 0.43 c p3
243.66 470.36 0.43 c p3
243.80 470.58 0.43 c p3
243.95 470.90 0.43 c p3
244.09 471.69 0.43 c p3
244.24 472.13 0.43 c p3
244.38 471.91 0.43 c p3
244.53 472.89 0.43 c p3
244.67 473.45 0.43 c p3
244.82 473.33 0.43 c p3
244.97 474.53 0.43 c p3
245.11 474.98 0.43 c p3
245.26 475.64 0.43 c p3
245.40 475.64 0.43 c p3
245.55 475.86 0.43 c p3
245.69 475.98 0.43 c p3
245.84 477.63 0.43 c p3
245.99 478.41 0.43 c p3
246.13 478.07 0.43 c p3
246.28 478.19 0.43 c p3
246.42 479.18 0.43 c p3
246.57 479.18 0.43 c p3
246.71 480.06 0.43 c p3
246.86 480.38 0.43 c p3
247.00 480.94 0.43 c p3
247.15 480.94 0.43 c p3
247.30 481.16 0.43 c p3
247.44 482.05 0.43 c p3
247.59 482.71 0.43 c p3
247.73 482.71 0.43 c p3
247.88 482.93 0.43 c p3
248.02 482.93 0.43 c p3
248.17 483.47 0.43 c p3
248.31 483.69 0.43 c p3
248.46 484.67 0.43 c p3
248.61 485.46 0.43 c p3
248.75 485.24 0.43 c p3
248.90 486.44 0.43 c p3
249.04 485.78 0.43 c p3
249.19 486.34 0.43 c p3
249.33 487.23 0.43 c p3
249.48 487.55 0.43 c p3
249.62 487.89 0.43 c p3
249.77 487.55 0.43 c p3
249.92 487.55 0.43 c p3
250.06 488.11 0.43 c p3
250.21 488.65 0.43 c p3
250.35 489.31 0.43 c p3
250.50 489.41 0.43 c p3
250.64 490.20 0.43 c p3
250.79 489.54 0.43 c p3
250.94 489.85 0.43 c p3
251.08 490.96 0.43 c p3
251.23 491.18 0.43 c p3
251.37 491.75 0.43 c p3
251.52 492.06 0.43 c p3
251.66 491.75 0.43 c p3
251.81 492.19 0.43 c p3
251.95 492.63 0.43 c p3
252.10 493.17 0.43 c p3
252.25 492.95 0.43 c p3
252.39 493.39 0.43 c p3
252.54 493.49 0.43 c p3
252.68 493.17 0.43 c p3
252.83 494.27 0.43 c p3
252.97 494.27 0.43 c p3
253.12 494.37 0.43 c p3
253.26 494.94 0.43 c p3
253.41 494.81 0.43 c p3
253.56 495.16 0.43 c p3
253.70 495.82 0.43 c p3
253.85 496.14 0.43 c p3
253.99 496.48 0.43 c p3
254.14 496.14 0.43 c p3
254.28 496.70 0.43 c p3
254.43 496.48 0.43 c p3
254.57 496.93 0.43 c p3
254.72 498.13 0.43 c p3
254.87 498.01 0.43 c p3
255.01 497.37 0.43 c p3
255.16 497.91 0.43 c p3
255.30 497.69 0.43 c p3
255.45 498.01 0.43 c p3
255.59 498.89 0.43 c p3
255.74 498.57 0.43 c p3
255.88 498.89 0.43 c p3
256.03 499.33 0.43 c p3
256.18 499.11 0.43 c p3
256.32 499.77 0.43 c p3
256.47 499.90 0.43 c p3
256.61 500.34 0.43 c p3
256.76 499.45 0.43 c p3
256.90 499.90 0.43 c p3
257.05 499.99 0.43 c p3
257.20 501.32 0.43 c p3
257.34 501.44 0.43 c p3
257.49 501.44 0.43 c p3
257.63 501.32 0.43 c p3
257.78 501.54 0.43 c p3
257.92 501.32 0.43 c p3
258.07 501.76 0.43 c p3
258.21 501.66 0.43 c p3
258.36 501.88 0.43 c p3
258.51 501.88 0.43 c p3
258.65 502.20 0.43 c p3
258.80 502.33 0.43 c p3
258.94 502.20 0.43 c p3
259.09 502.65 0.43 c p3
259.23 502.97 0.43 c p3
259.38 502.65 0.43 c p3
259.52 502.74 0.43 c p3
259.67 503.09 0.43 c p3
259.82 503.41 0.43 c p3
259.96 503.85 0.43 c p3
260.11 503.31 0.43 c p3
260.25 503.97 0.43 c p3
260.40 503.53 0.43 c p3
260.54 503.63 0.43 c p3
260.69 503.97 0.43 c p3
260.83 504.63 0.43 c p3
260.98 504.73 0.43 c p3
261.13 504.29 0.43 c p3
261.27 504.73 0.43 c p3
261.42 504.51 0.43 c p3
261.56 504.41 0.43 c p3
261.71 504.73 0.43 c p3
261.85 504.51 0.43 c p3
262.00 504.95 0.43 c p3
262.15 504.86 0.43 c p3
262.29 505.17 0.43 c p3
262.44 504.86 0.43 c p3
262.58 505.62 0.43 c p3
262.73 506.28 0.43 c p3
262.87 505.40 0.43 c p3
263.02 506.28 0.43 c p3
263.16 505.74 0.43 c p3
263.31 505.74 0.43 c p3
263.46 506.50 0.43 c p3
263.60 506.40 0.43 c p3
263.75 506.50 0.43 c p3
263.89 506.28 0.43 c p3
264.04 506.50 0.43 c p3
264.18 506.28 0.43 c p3
264.33 506.62 0.43 c p3
264.47 506.94 0.43 c p3
264.62 507.07 0.43 c p3
264.77 507.07 0.43 c p3
264.91 506.50 0.43 c p3
265.06 506.84 0.43 c p3
265.20 507.07 0.43 c p3
265.35 506.94 0.43 c p3
265.49 507.26 0.43 c p3
265.64 506.72 0.43 c p3
265.78 506.72 0.43 c p3
265.93 507.26 0.43 c p3
266.08 507.48 0.43 c p3
266.22 508.05 0.43 c p3
266.37 507.83 0.43 c p3
266.51 507.26 0.43 c p3
266.66 507.07 0.43 c p3
266.80 508.15 0.43 c p3
266.95 508.05 0.43 c p3
267.10 508.05 0.43 c p3
267.24 508.15 0.43 c p3
267.39 507.48 0.43 c p3
267.53 507.70 0.43 c p3
267.68 507.48 0.43 c p3
267.82 507.48 0.43 c p3
267.97 508.05 0.43 c p3
268.11 508.15 0.43 c p3
268.26 508.27 0.43 c p3
268.41 508.27 0.43 c p3
268.55 508.05 0.43 c p3
268.70 508.37 0.43 c p3
268.84 508.37 0.43 c p3
268.99 508.05 0.43 c p3
269.13 508.27 0.43 c p3
269.28 508.59 0.43 c p3
269.42 508.37 0.43 c p3
269.57 508.37 0.43 c p3
269.72 508.37 0.43 c p3
269.86 508.71 0.43 c p3
270.01 508.37 0.43 c p3
270.15 508.71 0.43 c p3
270.30 509.03 0.43 c p3
270.44 508.71 0.43 c p3
270.59 509.03 0.43 c p3
270.73 508.27 0.43 c p3
270.88 508.49 0.43 c p3
271.03 508.71 0.43 c p3
271.17 509.25 0.43 c p3
271.32 508.71 0.43 c p3
271.46 508.15 0.43 c p3
271.61 508.49 0.43 c p3
271.75 508.81 0.43 c p3
271.90 509.25 0.43 c p3
272.05 509.15 0.43 c p3
272.19 509.25 0.43 c p3
272.34 509.25 0.43 c p3
272.48 508.59 0.43 c p3
272.63 508.37 0.43 c p3
272.77 509.25 0.43 c p3
272.92 509.15 0.43 c p3
273.06 509.03 0.43 c p3
273.21 509.25 0.43 c p3
273.36 508.93 0.43 c p3
273.50 508.71 0.43 c p3
273.65 508.93 0.43 c p3
273.79 509.25 0.43 c p3
273.94 508.81 0.43 c p3
274.08 508.59 0.43 c p3
274.23 508.59 0.43 c p3
274.37 509.47 0.43 c p3
274.52 509.15 0.43 c p3
274.67 509.25 0.43 c p3
274.81 510.04 0.43 c p3
274.96 508.81 0.43 c p3
275.10 509.03 0.43 c p3
275.25 509.25 0.43 c p3
275.39 509.37 0.43 c p3
275.54 509.47 0.43 c p3
275.68 509.81 0.43 c p3
275.83 509.37 0.43 c p3
275.98 508.93 0.43 c p3
276.12 509.15 0.43 c p3
276.27 508.93 0.43 c p3
276.41 509.37 0.43 c p3
276.56 509.69 0.43 c p3
276.70 508.81 0.43 c p3
276.85 508.81 0.43 c p3
277.00 508.93 0.43 c p3
277.14 508.59 0.43 c p3
277.29 509.37 0.43 c p3
277.43 509.69 0.43 c p3
277.58 509.37 0.43 c p3
277.72 509.47 0.43 c p3
277.87 509.37 0.43 c p3
278.01 509.25 0.43 c p3
278.16 509.81 0.43 c p3
278.31 509.91 0.43 c p3
278.45 509.47 0.43 c p3
278.60 509.37 0.43 c p3
278.74 509.47 0.43 c p3
278.89 509.03 0.43 c p3
279.03 509.47 0.43 c p3
279.18 509.59 0.43 c p3
279.32 509.91 0.43 c p3
279.47 509.03 0.43 c p3
279.62 509.25 0.43 c p3
279.76 508.81 0.43 c p3
279.91 509.37 0.43 c p3
280.05 509.47 0.43 c p3
280.20 509.47 0.43 c p3
280.34 509.37 0.43 c p3
280.49 509.47 0.43 c p3
280.63 508.59 0.43 c p3
280.78 509.47 0.43 c p3
280.93 509.91 0.43 c p3
281.07 509.91 0.43 c p3
281.22 509.37 0.43 c p3
281.36 509.47 0.43 c p3
281.51 509.15 0.43 c p3
281.65 509.15 0.43 c p3
281.80 509.81 0.43 c p3
281.95 509.25 0.43 c p3
282.09 509.25 0.43 c p3
282.24 509.37 0.43 c p3
282.38 508.59 0.43 c p3
282.53 508.81 0.43 c p3
282.67 508.49 0.43 c p3
282.82 509.03 0.43 c p3
282.96 509.37 0.43 c p3
283.11 509.37 0.43 c p3
283.26 508.81 0.43 c p3
283.40 509.03 0.43 c p3
283.55 509.59 0.43 c p3
283.69 509.59 0.43 c p3
283.84 509.47 0.43 c p3
283.98 509.25 0.43 c p3
284.13 508.93 0.43 c p3
284.27 509.15 0.43 c p3
284.42 509.59 0.43 c p3
284.57 509.15 0.43 c p3
284.71 508.93 0.43 c p3
284.86 508.93 0.43 c p3
285.00 508.93 0.43 c p3
285.15 508.71 0.43 c p3
285.29 509.37 0.43 c p3
285.44 509.47 0.43 c p3
285.58 509.03 0.43 c p3
285.73 509.25 0.43 c p3
285.88 508.71 0.43 c p3
286.02 508.27 0.43 c p3
286.17 509.25 0.43 c p3
286.31 509.91 0.43 c p3
286.46 509.15 0.43 c p3
286.60 509.15 0.43 c p3
286.75 509.25 0.43 c p3
286.89 509.59 0.43 c p3
287.04 509.69 0.43 c p3
287.19 508.93 0.43 c p3
287.33 509.15 0.43 c p3
287.48 508.93 0.43 c p3
287.62 508.93 0.43 c p3
287.77 508.93 0.43 c p3
287.91 509.47 0.43 c p3
288.06 509.25 0.43 c p3
288.21 509.03 0.43 c p3
288.35 508.93 0.43 c p3
288.50 508.59 0.43 c p3
288.64 508.59 0.43 c p3
288.79 509.59 0.43 c p3
288.93 508.93 0.43 c p3
289.08 509.25 0.43 c p3
289.22 509.15 0.43 c p3
289.37 508.81 0.43 c p3
289.52 509.15 0.43 c p3
289.66 509.37 0.43 c p3
289.81 509.25 0.43 c p3
289.95 509.03 0.43 c p3
290.10 509.25 0.43 c p3
290.24 508.59 0.43 c p3
290.39 508.71 0.43 c p3
290.53 509.47 0.43 c p3
290.68 509.25 0.43 c p3
290.83 508.93 0.43 c p3
290.97 508.27 0.43 c p3
291.12 508.59 0.43 c p3
291.26 508.71 0.43 c p3
291.41 509.03 0.43 c p3
291.55 509.37 0.43 c p3
291.70 509.03 0.43 c p3
291.84 508.59 0.43 c p3
291.99 508.93 0.43 c p3
292.14 509.15 0.43 c p3
292.28 509.15 0.43 c p3
292.43 509.03 0.43 c p3
292.57 509.47 0.43 c p3
292.72 508.37 0.43 c p3
292.86 508.59 0.43 c p3
293.01 509.03 0.43 c p3
293.16 509.37 0.43 c p3
293.30 509.03 0.43 c p3
293.45 509.03 0.43 c p3
293.59 509.03 0.43 c p3
293.74 508.59 0.43 c p3
293.88 508.49 0.43 c p3
294.03 508.93 0.43 c p3
294.17 508.81 0.43 c p3
294.32 508.37 0.43 c p3
294.47 508.37 0.43 c p3
294.61 508.81 0.43 c p3
294.76 509.37 0.43 c p3
294.90 509.15 0.43 c p3
295.05 508.49 0.43 c p3
295.19 508.49 0.43 c p3
295.34 508.49 0.43 c p3
295.48 508.93 0.43 c p3
295.63 509.15 0.43 c p3
295.78 509.03 0.43 c p3
295.92 508.49 0.43 c p3
296.07 508.93 0.43 c p3
296.21 508.37 0.43 c p3
296.36 508.59 0.43 c p3
296.50 508.49 0.43 c p3
296.65 509.03 0.43 c p3
296.79 508.93 0.43 c p3
296.94 508.27 0.43 c p3
297.09 507.61 0.43 c p3
297.23 508.59 0.43 c p3
297.38 508.81 0.43 c p3
297.52 509.03 0.43 c p3
297.67 508.37 0.43 c p3
297.81 508.49 0.43 c p3
297.96 508.15 0.43 c p3
298.11 508.59 0.43 c p3
298.25 509.37 0.43 c p3
298.40 508.93 0.43 c p3
298.54 508.59 0.43 c p3
298.69 508.71 0.43 c p3
298.83 508.15 0.43 c p3
298.98 508.05 0.43 c p3
299.12 508.81 0.43 c p3
299.27 508.71 0.43 c p3
299.42 508.71 0.43 c p3
299.56 508.05 0.43 c p3
299.71 508.37 0.43 c p3
299.85 508.15 0.43 c p3
300.00 508.37 0.43 c p3
300.14 509.03 0.43 c p3
300.29 508.49 0.43 c p3
300.43 508.27 0.43 c p3
300.58 508.27 0.43 c p3
300.73 508.59 0.43 c p3
300.87 508.93 0.43 c p3
301.02 508.49 0.43 c p3
301.16 508.49 0.43 c p3
301.31 508.15 0.43 c p3
301.45 508.37 0.43 c p3
301.60 508.49 0.43 c p3
301.74 508.49 0.43 c p3
301.89 509.03 0.43 c p3
302.04 508.59 0.43 c p3
302.18 507.92 0.43 c p3
302.33 508.15 0.43 c p3
302.47 508.71 0.43 c p3
302.62 508.27 0.43 c p3
302.76 508.81 0.43 c p3
302.91 508.49 0.43 c p3
303.06 508.37 0.43 c p3
303.20 508.59 0.43 c p3
303.35 508.49 0.43 c p3
303.49 508.05 0.43 c p3
303.64 508.27 0.43 c p3
303.78 508.15 0.43 c p3
303.93 508.27 0.43 c p3
304.07 508.27 0.43 c p3
304.22 507.70 0.43 c p3
304.37 508.71 0.43 c p3
304.51 508.71 0.43 c p3
304.66 508.37 0.43 c p3
304.80 508.15 0.43 c p3
304.95 508.05 0.43 c p3
305.09 508.05 0.43 c p3
305.24 508.15 0.43 c p3
305.38 508.81 0.43 c p3
305.53 509.03 0.43 c p3
305.68 508.15 0.43 c p3
305.82 507.48 0.43 c p3
305.97 508.15 0.43 c p3
306.11 508.15 0.43 c p3
306.26 508.37 0.43 c p3
306.40 508.37 0.43 c p3
306.55 508.15 0.43 c p3
306.69 508.27 0.43 c p3
306.84 507.83 0.43 c p3
306.99 508.05 0.43 c p3
307.13 508.81 0.43 c p3
307.28 508.37 0.43 c p3
307.42 508.27 0.43 c p3
307.57 508.71 0.43 c p3
307.71 508.49 0.43 c p3
307.86 508.05 0.43 c p3
308.01 508.49 0.43 c p3
308.15 508.05 0.43 c p3
308.30 508.59 0.43 c p3
308.44 508.05 0.43 c p3
308.59 507.83 0.43 c p3
308.73 507.70 0.43 c p3
308.88 508.05 0.43 c p3
309.02 508.37 0.43 c p3
309.17 508.15 0.43 c p3
309.32 508.15 0.43 c p3
309.46 507.48 0.43 c p3
309.61 508.05 0.43 c p3
309.75 508.81 0.43 c p3
309.90 508.27 0.43 c p3
310.04 508.59 0.43 c p3
310.19 508.59 0.43 c p3
310.33 508.05 0.43 c p3
310.48 507.70 0.43 c p3
310.63 508.49 0.43 c p3
310.77 508.37 0.43 c p3
310.92 508.49 0.43 c p3
311.06 508.49 0.43 c p3
311.21 508.15 0.43 c p3
311.35 507.48 0.43 c p3
311.50 507.92 0.43 c p3
311.64 507.83 0.43 c p3
311.79 508.15 0.43 c p3
311.94 508.15 0.43 c p3
312.08 508.15 0.43 c p3
312.23 507.61 0.43 c p3
312.37 507.70 0.43 c p3
312.52 508.37 0.43 c p3
312.66 508.49 0.43 c p3
312.81 508.27 0.43 c p3
312.96 507.48 0.43 c p3
313.10 507.70 0.43 c p3
313.25 508.37 0.43 c p3
313.39 508.59 0.43 c p3
313.54 508.59 0.43 c p3
313.68 508.15 0.43 c p3
313.83 507.92 0.43 c p3
313.97 508.05 0.43 c p3
314.12 507.61 0.43 c p3
314.27 508.05 0.43 c p3
314.41 508.15 0.43 c p3
314.56 508.15 0.43 c p3
314.70 507.83 0.43 c p3
314.85 508.27 0.43 c p3
314.99 507.38 0.43 c p3
315.14 507.70 0.43 c p3
315.28 508.27 0.43 c p3
315.43 508.05 0.43 c p3
315.58 508.15 0.43 c p3
315.72 508.49 0.43 c p3
315.87 507.92 0.43 c p3
316.01 508.15 0.43 c p3
316.16 508.05 0.43 c p3
316.30 508.15 0.43 c p3
316.45 508.05 0.43 c p3
316.59 507.48 0.43 c p3
316.74 507.16 0.43 c p3
316.89 507.83 0.43 c p3
317.03 508.49 0.43 c p3
317.18 508.27 0.43 c p3
317.32 508.37 0.43 c p3
317.47 508.49 0.43 c p3
317.61 507.83 0.43 c p3
317.76 507.16 0.43 c p3
317.91 507.70 0.43 c p3
318.05 508.15 0.43 c p3
318.20 508.71 0.43 c p3
318.34 508.05 0.43 c p3
318.49 508.15 0.43 c p3
318.63 507.38 0.43 c p3
318.78 507.38 0.43 c p3
318.92 508.37 0.43 c p3
319.07 508.59 0.43 c p3
319.22 508.15 0.43 c p3
319.36 507.92 0.43 c p3
319.51 508.05 0.43 c p3
319.65 507.83 0.43 c p3
319.80 507.83 0.43 c p3
319.94 508.37 0.43 c p3
320.09 508.49 0.43 c p3
320.23 507.70 0.43 c p3
320.38 508.05 0.43 c p3
320.53 507.38 0.43 c p3
320.67 507.70 0.43 c p3
320.82 507.92 0.43 c p3
320.96 508.05 0.43 c p3
321.11 508.05 0.43 c p3
321.25 507.48 0.43 c p3
321.40 507.61 0.43 c p3
321.54 507.38 0.43 c p3
321.69 508.49 0.43 c p3
321.84 508.05 0.43 c p3
321.98 508.27 0.43 c p3
322.13 508.27 0.43 c p3
322.27 507.83 0.43 c p3
322.42 507.92 0.43 c p3
322.56 508.05 0.43 c p3
322.71 507.92 0.43 c p3
322.85 507.83 0.43 c p3
323.00 507.83 0.43 c p3
323.15 507.83 0.43 c p3
323.29 507.83 0.43 c p3
323.44 508.49 0.43 c p3
323.58 508.05 0.43 c p3
323.73 507.26 0.43 c p3
323.87 507.48 0.43 c p3
324.02 507.48 0.43 c p3
324.17 507.70 0.43 c p3
324.31 508.05 0.43 c p3
324.46 508.27 0.43 c p3
324.60 507.48 0.43 c p3
324.75 507.83 0.43 c p3
324.89 507.92 0.43 c p3
325.04 507.92 0.43 c p3
325.18 507.83 0.43 c p3
325.33 508.15 0.43 c p3
325.48 507.83 0.43 c p3
325.62 507.83 0.43 c p3
325.77 507.48 0.43 c p3
325.91 508.27 0.43 c p3
326.06 507.92 0.43 c p3
326.20 508.05 0.43 c p3
326.35 507.92 0.43 c p3
326.49 507.83 0.43 c p3
326.64 507.70 0.43 c p3
326.79 507.61 0.43 c p3
326.93 508.49 0.43 c p3
327.08 508.37 0.43 c p3
327.22 508.05 0.43 c p3
327.37 507.61 0.43 c p3
327.51 507.83 0.43 c p3
327.66 507.83 0.43 c p3
327.80 508.37 0.43 c p3
327.95 508.59 0.43 c p3
328.10 507.92 0.43 c p3
328.24 508.27 0.43 c p3
328.39 507.61 0.43 c p3
328.53 507.83 0.43 c p3
328.68 507.92 0.43 c p3
328.82 508.15 0.43 c p3
328.97 507.92 0.43 c p3
329.12 508.15 0.43 c p3
329.26 507.48 0.43 c p3
329.41 507.48 0.43 c p3
329.55 508.15 0.43 c p3
329.70 508.49 0.43 c p3
329.84 508.37 0.43 c p3
329.99 507.70 0.43 c p3
330.13 507.83 0.43 c p3
330.28 507.92 0.43 c p3
330.43 508.05 0.43 c p3
330.57 508.27 0.43 c p3
330.72 508.37 0.43 c p3
330.86 508.27 0.43 c p3
331.01 508.15 0.43 c p3
331.15 507.38 0.43 c p3
331.30 508.15 0.43 c p3
331.44 508.49 0.43 c p3
331.59 507.70 0.43 c p3
331.74 507.92 0.43 c p3
331.88 507.83 0.43 c p3
332.03 507.61 0.43 c p3
332.17 508.15 0.43 c p3
332.32 508.05 0.43 c p3
332.46 508.49 0.43 c p3
332.61 507.70 0.43 c p3
332.75 507.48 0.43 c p3
332.90 507.61 0.43 c p3
333.05 507.83 0.43 c p3
333.19 508.27 0.43 c p3
333.34 507.83 0.43 c p3
333.48 508.05 0.43 c p3
333.63 507.92 0.43 c p3
333.77 507.70 0.43 c p3
333.92 507.70 0.43 c p3
334.07 508.49 0.43 c p3
334.21 508.37 0.43 c p3
334.36 508.05 0.43 c p3
334.50 507.48 0.43 c p3
334.65 507.48 0.43 c p3
334.79 507.07 0.43 c p3
334.94 508.15 0.43 c p3
335.08 507.61 0.43 c p3
335.23 507.83 0.43 c p3
335.38 507.70 0.43 c p3
335.52 508.05 0.43 c p3
335.67 507.92 0.43 c p3
335.81 507.70 0.43 c p3
335.96 508.05 0.43 c p3
336.10 508.05 0.43 c p3
336.25 508.59 0.43 c p3
336.39 507.70 0.43 c p3
336.54 507.83 0.43 c p3
336.69 507.92 0.43 c p3
336.83 507.92 0.43 c p3
336.98 508.15 0.43 c p3
337.12 507.26 0.43 c p3
337.27 507.83 0.43 c p3
337.41 507.38 0.43 c p3
337.56 507.83 0.43 c p3
337.70 508.05 0.43 c p3
337.85 508.15 0.43 c p3
338.00 507.70 0.43 c p3
338.14 507.61 0.43 c p3
338.29 507.70 0.43 c p3
338.43 507.26 0.43 c p3
338.58 508.15 0.43 c p3
338.72 508.05 0.43 c p3
338.87 507.92 0.43 c p3
339.02 507.92 0.43 c p3
339.16 507.70 0.43 c p3
339.31 507.61 0.43 c p3
339.45 507.92 0.43 c p3
339.60 508.37 0.43 c p3
339.74 507.92 0.43 c p3
339.89 508.37 0.43 c p3
340.03 507.83 0.43 c p3
340.18 507.38 0.43 c p3
340.33 507.48 0.43 c p3
340.47 508.05 0.43 c p3
340.62 508.15 0.43 c p3
340.76 507.70 0.43 c p3
340.91 507.83 0.43 c p3
341.05 507.70 0.43 c p3
341.20 507.16 0.43 c p3
341.34 507.70 0.43 c p3
341.49 507.83 0.43 c p3
341.64 507.61 0.43 c p3
341.78 508.27 0.43 c p3
341.93 507.70 0.43 c p3
342.07 507.38 0.43 c p3
342.22 508.37 0.43 c p3
342.36 508.49 0.43 c p3
342.51 507.92 0.43 c p3
342.65 508.27 0.43 c p3
342.80 508.05 0.43 c p3
342.95 507.48 0.43 c p3
343.09 507.38 0.43 c p3
343.24 508.15 0.43 c p3
343.38 507.83 0.43 c p3
343.53 507.70 0.43 c p3
343.67 507.61 0.43 c p3
343.82 507.48 0.43 c p3
343.97 507.61 0.43 c p3
344.11 508.05 0.43 c p3
344.26 508.49 0.43 c p3
344.40 507.48 0.43 c p3
344.55 508.05 0.43 c p3
344.69 507.83 0.43 c p3
344.84 507.61 0.43 c p3
344.98 507.70 0.43 c p3
345.13 507.92 0.43 c p3
345.28 508.49 0.43 c p3
345.42 507.83 0.43 c p3
345.57 507.70 0.43 c p3
345.71 507.61 0.43 c p3
345.86 508.15 0.43 c p3
346.00 508.15 0.43 c p3
346.15 508.37 0.43 c p3
346.29 507.38 0.43 c p3
346.44 507.83 0.43 c p3
346.59 507.61 0.43 c p3
346.73 507.61 0.43 c p3
346.88 508.15 0.43 c p3
347.02 508.27 0.43 c p3
347.17 507.26 0.43 c p3
347.31 507.70 0.43 c p3
347.46 507.92 0.43 c p3
347.60 507.26 0.43 c p3
347.75 507.70 0.43 c p3
347.90 508.15 0.43 c p3
348.04 508.05 0.43 c p3
348.19 507.70 0.43 c p3
348.33 508.05 0.43 c p3
348.48 507.70 0.43 c p3
348.62 507.92 0.43 c p3
348.77 508.49 0.43 c p3
348.92 508.37 0.43 c p3
349.06 507.92 0.43 c p3
349.21 508.05 0.43 c p3
349.35 507.83 0.43 c p3
349.50 507.38 0.43 c p3
349.64 507.38 0.43 c p3
349.79 508.27 0.43 c p3
349.93 507.92 0.43 c p3
350.08 507.61 0.43 c p3
350.23 508.05 0.43 c p3
350.37 507.70 0.43 c p3
350.52 507.70 0.43 c p3
350.66 507.61 0.43 c p3
350.81 508.27 0.43 c p3
350.95 508.27 0.43 c p3
351.10 507.92 0.43 c p3
351.24 508.05 0.43 c p3
351.39 507.61 0.43 c p3
351.54 507.26 0.43 c p3
351.68 507.92 0.43 c p3
351.83 507.92 0.43 c p3
351.97 507.70 0.43 c p3
352.12 507.48 0.43 c p3
352.26 507.70 0.43 c p3
352.41 507.26 0.43 c p3
352.55 507.83 0.43 c p3
352.70 507.83 0.43 c p3
352.85 508.05 0.43 c p3
352.99 508.15 0.43 c p3
353.14 507.70 0.43 c p3
353.28 507.61 0.43 c p3
353.43 507.70 0.43 c p3
353.57 507.16 0.43 c p3
353.72 508.05 0.43 c p3
353.86 508.05 0.43 c p3
354.01 508.49 0.43 c p3
354.16 508.27 0.43 c p3
354.30 507.92 0.43 c p3
354.45 507.38 0.43 c p3
354.59 507.38 0.43 c p3
354.74 507.07 0.43 c p3
354.88 507.61 0.43 c p3
355.03 508.05 0.43 c p3
355.18 507.83 0.43 c p3
355.32 507.48 0.43 c p3
355.47 508.05 0.43 c p3
355.61 507.61 0.43 c p3
355.76 507.83 0.43 c p3
355.90 508.15 0.43 c p3
356.05 508.15 0.43 c p3
356.19 507.61 0.43 c p3
356.34 507.70 0.43 c p3
356.49 507.83 0.43 c p3
356.63 507.92 0.43 c p3
356.78 507.92 0.43 c p3
356.92 508.27 0.43 c p3
357.07 507.92 0.43 c p3
357.21 507.61 0.43 c p3
357.36 507.26 0.43 c p3
357.50 507.92 0.43 c p3
357.65 508.05 0.43 c p3
357.80 508.49 0.43 c p3
357.94 507.70 0.43 c p3
358.09 507.70 0.43 c p3
358.23 508.05 0.43 c p3
358.38 507.38 0.43 c p3
358.52 507.83 0.43 c p3
358.67 508.05 0.43 c p3
358.81 508.05 0.43 c p3
358.96 507.48 0.43 c p3
359.11 508.05 0.43 c p3
359.25 507.83 0.43 c p3
359.40 507.83 0.43 c p3
359.54 507.83 0.43 c p3
359.69 508.49 0.43 c p3
359.83 508.05 0.43 c p3
359.98 507.70 0.43 c p3
360.13 507.92 0.43 c p3
360.27 508.05 0.43 c p3
360.42 507.61 0.43 c p3
360.56 508.05 0.43 c p3
360.71 508.15 0.43 c p3
360.85 507.26 0.43 c p3
361.00 507.61 0.43 c p3
361.14 507.48 0.43 c p3
361.29 507.48 0.43 c p3
361.44 507.38 0.43 c p3
361.58 507.61 0.43 c p3
361.73 508.15 0.43 c p3
361.87 507.83 0.43 c p3
362.02 507.70 0.43 c p3
362.16 507.48 0.43 c p3
362.31 508.15 0.43 c p3
362.45 507.92 0.43 c p3
362.60 508.27 0.43 c p3
362.75 507.92 0.43 c p3
362.89 507.70 0.43 c p3
363.04 507.83 0.43 c p3
363.18 507.83 0.43 c p3
363.33 507.48 0.43 c p3
363.47 507.83 0.43 c p3
363.62 508.27 0.43 c p3
363.76 507.70 0.43 c p3
363.91 507.61 0.43 c p3
364.06 507.92 0.43 c p3
364.20 507.38 0.43 c p3
364.35 507.26 0.43 c p3
364.49 507.48 0.43 c p3
364.64 507.48 0.43 c p3
364.78 508.27 0.43 c p3
364.93 508.27 0.43 c p3
365.08 507.92 0.43 c p3
365.22 507.61 0.43 c p3
365.37 507.70 0.43 c p3
365.51 507.83 0.43 c p3
365.66 508.05 0.43 c p3
365.80 508.37 0.43 c p3
365.95 508.49 0.43 c p3
366.09 508.27 0.43 c p3
366.24 508.15 0.43 c p3
366.39 508.15 0.43 c p3
366.53 507.61 0.43 c p3
366.68 507.83 0.43 c p3
366.82 507.61 0.43 c p3
366.97 508.05 0.43 c p3
367.11 507.70 0.43 c p3
367.26 507.70 0.43 c p3
367.40 507.92 0.43 c p3
367.55 508.15 0.43 c p3
367.70 508.05 0.43 c p3
367.84 507.61 0.43 c p3
367.99 507.92 0.43 c p3
368.13 507.70 0.43 c p3
368.28 507.92 0.43 c p3
368.42 507.92 0.43 c p3
368.57 508.71 0.43 c p3
368.71 508.27 0.43 c p3
368.86 507.92 0.43 c p3
369.01 508.05 0.43 c p3
369.15 507.61 0.43 c p3
369.30 508.15 0.43 c p3
369.44 508.05 0.43 c p3
369.59 507.92 0.43 c p3
369.73 507.83 0.43 c p3
369.88 507.38 0.43 c p3
370.03 507.92 0.43 c p3
370.17 507.48 0.43 c p3
370.32 508.15 0.43 c p3
370.46 508.05 0.43 c p3
370.61 508.15 0.43 c p3
370.75 507.92 0.43 c p3
370.90 508.05 0.43 c p3
371.04 507.70 0.43 c p3
371.19 507.83 0.43 c p3
371.34 507.83 0.43 c p3
371.48 508.49 0.43 c p3
371.63 508.27 0.43 c p3
371.77 508.15 0.43 c p3
371.92 507.83 0.43 c p3
372.06 507.83 0.43 c p3
372.21 507.61 0.43 c p3
372.35 507.83 0.43 c p3
372.50 508.37 0.43 c p3
372.65 508.27 0.43 c p3
372.79 507.61 0.43 c p3
372.94 507.48 0.43 c p3
373.08 507.26 0.43 c p3
373.23 508.15 0.43 c p3
373.37 508.05 0.43 c p3
373.52 508.27 0.43 c p3
373.66 508.27 0.43 c p3
373.81 507.48 0.43 c p3
373.96 507.70 0.43 c p3
374.10 507.38 0.43 c p3
374.25 508.05 0.43 c p3
374.39 508.15 0.43 c p3
374.54 508.05 0.43 c p3
374.68 508.05 0.43 c p3
374.83 508.05 0.43 c p3
374.98 507.83 0.43 c p3
375.12 507.61 0.43 c p3
375.27 508.37 0.43 c p3
375.41 507.83 0.43 c p3
375.56 507.92 0.43 c p3
375.70 507.83 0.43 c p3
375.85 507.70 0.43 c p3
375.99 507.70 0.43 c p3
376.14 508.15 0.43 c p3
376.29 507.83 0.43 c p3
376.43 508.49 0.43 c p3
376.58 507.92 0.43 c p3
376.72 507.48 0.43 c p3
376.87 507.70 0.43 c p3
377.01 508.71 0.43 c p3
377.16 508.59 0.43 c p3
377.30 507.92 0.43 c p3
377.45 508.15 0.43 c p3
377.60 507.92 0.43 c p3
377.74 508.37 0.43 c p3
377.89 507.83 0.43 c p3
378.03 508.59 0.43 c p3
378.18 507.92 0.43 c p3
378.32 507.70 0.43 c p3
378.47 507.70 0.43 c p3
378.61 507.07 0.43 c p3
378.76 508.37 0.43 c p3
378.91 508.37 0.43 c p3
379.05 507.61 0.43 c p3
379.20 507.70 0.43 c p3
379.34 507.61 0.43 c p3
379.49 507.48 0.43 c p3
379.63 508.27 0.43 c p3
379.78 508.37 0.43 c p3
379.93 507.83 0.43 c p3
380.07 508.05 0.43 c p3
380.22 507.83 0.43 c p3
380.36 507.92 0.43 c p3
380.51 508.27 0.43 c p3
380.65 508.27 0.43 c p3
380.80 507.83 0.43 c p3
380.94 507.70 0.43 c p3
381.09 507.70 0.43 c p3
381.24 507.26 0.43 c p3
381.38 508.05 0.43 c p3
381.53 508.49 0.43 c p3
381.67 508.27 0.43 c p3
381.82 507.61 0.43 c p3
381.96 507.70 0.43 c p3
382.11 507.61 0.43 c p3
382.25 508.27 0.43 c p3
382.40 508.05 0.43 c p3
0.00 0.00 432.00 576.00 cl
0 0 0 srgb
0.75 setlinewidth
[] 0 setdash
1 setlinecap
1 setlinejoin
10.00 setmiterlimit
np
236.96 345.60 m
145.59 0 l
o
np
236.96 345.60 m
0 -5.76 l
o
np
266.08 345.60 m
0 -5.76 l
o
np
295.19 345.60 m
0 -5.76 l
o
np
324.31 345.60 m
0 -5.76 l
o
np
353.43 345.60 m
0 -5.76 l
o
np
382.55 345.60 m
0 -5.76 l
o
/Font1 findfont 10 s
236.96 329.47 (0) .5 0 t
266.08 329.47 (200) .5 0 t
295.19 329.47 (400) .5 0 t
324.31 329.47 (600) .5 0 t
353.43 329.47 (800) .5 0 t
382.55 329.47 (1000) .5 0 t
np
216.00 352.00 m
0 150.84 l
o
np
216.00 352.00 m
-5.76 0 l
o
np
216.00 402.28 m
-5.76 0 l
o
np
216.00 452.56 m
-5.76 0 l
o
np
216.00 502.84 m
-5.76 0 l
o
209.09 348.41 (0.0) 1 0 t
209.09 398.69 (0.5) 1 0 t
209.09 448.97 (1.0) 1 0 t
209.09 499.25 (1.5) 1 0 t
np
216.00 345.60 m
172.80 0 l
0 172.80 l
-172.80 0 l
0 -172.80 l
o
0.00 0.00 432.00 576.00 cl
/Font1 findfont 10 s
0 0 0 srgb
302.40 313.34 (Zeit / ms \(total\)) .5 0 t
190.66 432.00 (U / V) .5 90 t
216.00 345.60 388.80 518.40 cl
0 0 0 srgb
0.38 setlinewidth
[ 1.12 1.88] 0 setdash
1 setlinecap
1 setlinejoin
10.00 setmiterlimit
np
223.42 345.60 m
0 172.80 l
o
np
234.34 345.60 m
0 172.80 l
o
np
239.58 345.60 m
0 172.80 l
o
np
272.92 345.60 m
0 172.80 l
o
86.40 57.60 388.80 288.00 cl
1 0 0 srgb
1.50 setlinewidth
[] 0 setdash
1 setlinecap
1 setlinejoin
10.00 setmiterlimit
np
97.60 279.47 m
1.41 -14.79 l
1.40 -13.76 l
1.41 -12.81 l
1.41 -11.92 l
1.41 -11.09 l
1.40 -10.33 l
1.41 -9.61 l
1.41 -8.94 l
1.40 -8.32 l
1.41 -7.75 l
1.41 -7.21 l
1.40 -6.71 l
1.41 -6.24 l
1.41 -5.81 l
1.41 -5.41 l
1.40 -5.04 l
1.41 -4.68 l
1.41 -4.36 l
1.40 -4.06 l
1.41 -3.78 l
1.41 -3.51 l
1.40 -3.28 l
1.41 -3.04 l
1.41 -2.83 l
1.41 -2.64 l
1.40 -2.46 l
1.41 -2.28 l
1.41 -2.13 l
1.40 -1.98 l
1.41 -1.84 l
1.41 -1.71 l
1.41 -1.60 l
1.40 -1.48 l
1.41 -1.38 l
1.41 -1.29 l
1.40 -1.20 l
1.41 -1.11 l
1.41 -1.04 l
1.40 -0.96 l
1.41 -0.90 l
1.41 -0.83 l
1.41 -0.78 l
1.40 -0.73 l
1.41 -0.67 l
1.41 -0.63 l
1.40 -0.58 l
1.41 -0.54 l
1.41 -0.51 l
1.40 -0.47 l
1.41 -0.44 l
1.41 -0.41 l
1.41 -0.37 l
1.40 -0.36 l
1.41 -0.33 l
1.41 -0.30 l
1.40 -0.29 l
1.41 -0.26 l
1.41 -0.25 l
1.41 -0.23 l
1.40 -0.21 l
1.41 -0.20 l
1.41 -0.18 l
1.40 -0.18 l
1.41 -0.16 l
1.41 -0.15 l
1.40 -0.13 l
1.41 -0.13 l
1.41 -0.12 l
1.41 -0.12 l
1.40 -0.10 l
1.41 -0.10 l
1.41 -0.09 l
1.40 -0.08 l
1.41 -0.08 l
1.41 -0.07 l
1.40 -0.07 l
1.41 -0.06 l
1.41 -0.06 l
1.41 -0.05 l
1.40 -0.06 l
1.41 -0.04 l
1.41 -0.05 l
1.40 -0.04 l
1.41 -0.04 l
1.41 -0.03 l
1.41 -0.03 l
1.40 -0.03 l
1.41 -0.03 l
1.41 -0.03 l
1.40 -0.02 l
1.41 -0.03 l
1.41 -0.02 l
1.40 -0.02 l
1.41 -0.02 l
1.41 -0.01 l
1.41 -0.02 l
1.40 -0.02 l
1.41 -0.01 l
1.41 -0.01 l
238.30 66.30 lineto
1.41 -0.02 l
1.41 -0.01 l
1.40 -0.01 l
1.41 -0.01 l
1.41 0 l
1.41 -0.01 l
1.40 -0.01 l
1.41 -0.01 l
1.41 0 l
1.40 -0.01 l
1.41 0 l
1.41 -0.01 l
1.40 0 l
1.41 -0.01 l
1.41 0 l
1.41 -0.01 l
1.40 0 l
1.41 0 l
1.41 -0.01 l
1.40 0 l
1.41 0 l
1.41 0 l
1.41 -0.01 l
1.40 0 l
1.41 0 l
1.41 0 l
1.40 0 l
1.41 -0.01 l
1.41 0 l
1.40 0 l
1.41 0 l
1.41 0 l
1.41 0 l
1.40 0 l
1.41 0 l
1.41 0 l
1.40 -0.01 l
1.41 0 l
1.41 0 l
1.40 0 l
1.41 0 l
1.41 0 l
1.41 0 l
1.40 0 l
1.41 0 l
1.41 0 l
1.40 0 l
1.41 0 l
1.41 0 l
1.41 0 l
1.40 0 l
1.41 0 l
1.41 0 l
1.40 0 l
1.41 0 l
1.41 0 l
1.40 0 l
1.41 0 l
1.41 0 l
1.41 0 l
1.40 0 l
1.41 0 l
1.41 -0.01 l
1.40 0 l
1.41 0 l
1.41 0 l
1.40 0 l
1.41 0 l
1.41 0 l
1.41 0 l
1.40 0 l
1.41 0 l
1.41 0 l
1.40 0 l
1.41 0 l
1.41 0 l
1.41 0 l
1.40 0 l
1.41 0 l
1.41 0 l
1.40 0 l
1.41 0 l
1.41 0 l
1.40 0 l
1.41 0 l
1.41 0 l
1.41 0 l
1.40 0 l
1.41 0 l
1.41 0 l
1.40 0 l
1.41 0 l
1.41 0 l
1.40 0 l
1.41 0 l
1.41 0 l
1.41 0 l
1.40 0 l
1.41 0 l
o
0.00 0.00 432.00 576.00 cl
0 0 0 srgb
0.75 setlinewidth
[] 0 setdash
1 setlinecap
1 setlinejoin
10.00 setmiterlimit
np
97.60 57.60 m
280.00 0 l
o
np
97.60 57.60 m
0 -5.76 l
o
np
153.60 57.60 m
0 -5.76 l
o
np
209.60 57.60 m
0 -5.76 l
o
np
265.60 57.60 m
0 -5.76 l
o
np
321.60 57.60 m
0 -5.76 l
o
np
377.60 57.60 m
0 -5.76 l
o
/Font1 findfont 10 s
97.60 41.47 (0) .5 0 t
153.60 41.47 (200) .5 0 t
209.60 41.47 (400) .5 0 t
265.60 41.47 (600) .5 0 t
321.60 41.47 (800) .5 0 t
377.60 41.47 (1000) .5 0 t
np
86.40 69.34 m
0 206.02 l
o
np
86.40 69.34 m
-5.76 0 l
o
np
86.40 110.54 m
-5.76 0 l
o
np
86.40 151.75 m
-5.76 0 l
o
np
86.40 192.95 m
-5.76 0 l
o
np
86.40 234.15 m
-5.76 0 l
o
np
86.40 275.36 m
-5.76 0 l
o
79.49 65.75 (0.00) 1 0 t
79.49 106.95 (0.05) 1 0 t
79.49 148.16 (0.10) 1 0 t
79.49 189.36 (0.15) 1 0 t
79.49 230.56 (0.20) 1 0 t
79.49 271.77 (0.25) 1 0 t
np
86.40 57.60 m
302.40 0 l
0 230.40 l
-302.40 0 l
0 -230.40 l
o
0.00 0.00 432.00 576.00 cl
/Font1 findfont 10 s
0 0 0 srgb
237.60 13.82 (Zeit / ms \(nach Puls\)) .5 0 t
49.54 172.80 (Absorbanz A) .5 90 t
86.40 57.60 388.80 288.00 cl
/bg { 1 1 1 srgb } def
0 0 0 srgb
0.75 setlinewidth
[] 0 setdash
1 setlinecap
1 setlinejoin
10.00 setmiterlimit
102.92 229.23 0.65 c p3
103.20 222.73 0.65 c p3
103.48 219.36 0.65 c p3
103.76 218.94 0.65 c p3
104.04 217.85 0.65 c p3
104.32 216.35 0.65 c p3
104.60 214.44 0.65 c p3
104.88 211.14 0.65 c p3
105.16 210.73 0.65 c p3
105.44 208.94 0.65 c p3
105.72 205.29 0.65 c p3
106.00 203.51 0.65 c p3
106.28 204.96 0.65 c p3
106.56 200.64 0.65 c p3
106.84 197.78 0.65 c p3
107.12 197.78 0.65 c p3
107.40 197.78 0.65 c p3
107.68 194.55 0.65 c p3
107.96 192.13 0.65 c p3
108.24 190.04 0.65 c p3
108.52 186.58 0.65 c p3
108.80 184.90 0.65 c p3
109.08 184.21 0.65 c p3
109.36 185.58 0.65 c p3
109.64 184.52 0.65 c p3
109.92 181.48 0.65 c p3
110.20 178.77 0.65 c p3
110.48 177.13 0.65 c p3
110.76 175.42 0.65 c p3
111.04 174.75 0.65 c p3
111.32 173.79 0.65 c p3
111.60 171.43 0.65 c p3
111.88 170.11 0.65 c p3
112.16 170.77 0.65 c p3
112.44 167.85 0.65 c p3
112.72 166.18 0.65 c p3
113.00 166.55 0.65 c p3
113.28 163.02 0.65 c p3
113.56 161.73 0.65 c p3
113.84 159.80 0.65 c p3
114.12 159.80 0.65 c p3
114.40 159.16 0.65 c p3
114.68 158.81 0.65 c p3
114.96 154.09 0.65 c p3
115.24 151.86 0.65 c p3
115.52 152.84 0.65 c p3
115.80 152.49 0.65 c p3
116.08 149.71 0.65 c p3
116.36 149.71 0.65 c p3
116.64 147.23 0.65 c p3
116.92 146.34 0.65 c p3
117.20 144.77 0.65 c p3
117.48 144.77 0.65 c p3
117.76 144.16 0.65 c p3
118.04 141.72 0.65 c p3
118.32 139.90 0.65 c p3
118.60 139.90 0.65 c p3
118.88 139.30 0.65 c p3
119.16 139.30 0.65 c p3
119.44 137.82 0.65 c p3
119.72 137.22 0.65 c p3
120.00 134.56 0.65 c p3
120.28 132.45 0.65 c p3
120.56 133.04 0.65 c p3
120.84 129.83 0.65 c p3
121.12 131.59 0.65 c p3
121.40 130.09 0.65 c p3
121.68 127.74 0.65 c p3
121.96 126.90 0.65 c p3
122.24 125.99 0.65 c p3
122.52 126.90 0.65 c p3
122.80 126.90 0.65 c p3
123.08 125.41 0.65 c p3
123.36 123.99 0.65 c p3
123.64 122.26 0.65 c p3
123.92 122.00 0.65 c p3
124.20 119.96 0.65 c p3
124.48 121.68 0.65 c p3
124.76 120.85 0.65 c p3
125.04 118.00 0.65 c p3
125.32 117.43 0.65 c p3
125.60 115.98 0.65 c p3
125.88 115.16 0.65 c p3
126.16 115.98 0.65 c p3
126.44 114.85 0.65 c p3
126.72 113.72 0.65 c p3
127.00 112.35 0.65 c p3
127.28 112.91 0.65 c p3
127.56 111.79 0.65 c p3
127.84 111.54 0.65 c p3
128.12 112.35 0.65 c p3
128.40 109.56 0.65 c p3
128.68 109.56 0.65 c p3
128.96 109.31 0.65 c p3
129.24 107.90 0.65 c p3
129.52 108.21 0.65 c p3
129.80 107.35 0.65 c p3
130.08 105.69 0.65 c p3
130.36 104.90 0.65 c p3
130.64 104.05 0.65 c p3
130.92 104.90 0.65 c p3
131.20 103.50 0.65 c p3
131.48 104.05 0.65 c p3
131.76 102.95 0.65 c p3
132.04 99.99 0.65 c p3
132.32 100.30 0.65 c p3
132.60 101.86 0.65 c p3
132.88 100.54 0.65 c p3
133.16 101.08 0.65 c p3
133.44 100.30 0.65 c p3
133.72 98.14 0.65 c p3
134.00 98.91 0.65 c p3
134.28 98.14 0.65 c p3
134.56 97.06 0.65 c p3
134.84 97.60 0.65 c p3
135.12 95.99 0.65 c p3
135.40 95.69 0.65 c p3
135.68 94.62 0.65 c p3
135.96 96.76 0.65 c p3
136.24 95.69 0.65 c p3
136.52 95.45 0.65 c p3
136.80 92.26 0.65 c p3
137.08 91.97 0.65 c p3
137.36 91.97 0.65 c p3
137.64 92.26 0.65 c p3
137.92 91.73 0.65 c p3
138.20 92.26 0.65 c p3
138.48 91.20 0.65 c p3
138.76 91.44 0.65 c p3
139.04 90.91 0.65 c p3
139.32 90.91 0.65 c p3
139.60 90.15 0.65 c p3
139.88 89.86 0.65 c p3
140.16 90.15 0.65 c p3
140.44 89.10 0.65 c p3
140.72 88.34 0.65 c p3
141.00 89.10 0.65 c p3
141.28 88.87 0.65 c p3
141.56 88.05 0.65 c p3
141.84 87.30 0.65 c p3
142.12 86.25 0.65 c p3
142.40 87.53 0.65 c p3
142.68 85.96 0.65 c p3
142.96 87.00 0.65 c p3
143.24 86.77 0.65 c p3
143.52 85.96 0.65 c p3
143.80 84.40 0.65 c p3
144.08 84.17 0.65 c p3
144.36 85.21 0.65 c p3
144.64 84.17 0.65 c p3
144.92 84.69 0.65 c p3
145.20 84.92 0.65 c p3
145.48 84.17 0.65 c p3
145.76 84.69 0.65 c p3
146.04 83.66 0.65 c p3
146.32 83.89 0.65 c p3
146.60 83.14 0.65 c p3
146.88 83.89 0.65 c p3
147.16 82.11 0.65 c p3
147.44 80.57 0.65 c p3
147.72 82.63 0.65 c p3
148.00 80.57 0.65 c p3
148.28 81.82 0.65 c p3
148.56 81.82 0.65 c p3
148.84 80.06 0.65 c p3
149.12 80.28 0.65 c p3
149.40 80.06 0.65 c p3
149.68 80.57 0.65 c p3
149.96 80.06 0.65 c p3
150.24 80.57 0.65 c p3
150.52 79.77 0.65 c p3
150.80 79.03 0.65 c p3
151.08 78.75 0.65 c p3
151.36 78.75 0.65 c p3
151.64 80.06 0.65 c p3
151.92 79.26 0.65 c p3
152.20 78.75 0.65 c p3
152.48 79.03 0.65 c p3
152.76 78.30 0.65 c p3
153.04 79.55 0.65 c p3
153.32 79.55 0.65 c p3
153.60 78.30 0.65 c p3
153.88 77.79 0.65 c p3
154.16 76.49 0.65 c p3
154.44 77.00 0.65 c p3
154.72 78.30 0.65 c p3
155.00 78.75 0.65 c p3
155.28 76.27 0.65 c p3
155.56 76.49 0.65 c p3
155.84 76.49 0.65 c p3
156.12 76.27 0.65 c p3
156.40 77.79 0.65 c p3
156.68 77.28 0.65 c p3
156.96 77.79 0.65 c p3
157.24 77.79 0.65 c p3
157.52 76.49 0.65 c p3
157.80 76.27 0.65 c p3
158.08 75.99 0.65 c p3
158.36 75.99 0.65 c p3
158.64 76.49 0.65 c p3
158.92 75.76 0.65 c p3
159.20 75.76 0.65 c p3
159.48 76.49 0.65 c p3
159.76 75.99 0.65 c p3
160.04 75.26 0.65 c p3
160.32 75.76 0.65 c p3
160.60 75.76 0.65 c p3
160.88 75.76 0.65 c p3
161.16 74.97 0.65 c p3
161.44 75.76 0.65 c p3
161.72 74.97 0.65 c p3
162.00 74.25 0.65 c p3
162.28 74.97 0.65 c p3
162.56 74.25 0.65 c p3
162.84 75.99 0.65 c p3
163.12 75.48 0.65 c p3
163.40 74.97 0.65 c p3
163.68 73.74 0.65 c p3
163.96 74.97 0.65 c p3
164.24 76.27 0.65 c p3
164.52 75.48 0.65 c p3
164.80 74.75 0.65 c p3
165.08 73.74 0.65 c p3
165.36 73.97 0.65 c p3
165.64 73.74 0.65 c p3
165.92 73.74 0.65 c p3
166.20 75.26 0.65 c p3
166.48 75.76 0.65 c p3
166.76 73.74 0.65 c p3
167.04 73.97 0.65 c p3
216.00 201.60 367.20 247.68 cl
0 0 0 srgb
0.75 setlinewidth
[] 0 setdash
1 setlinecap
1 setlinejoin
10.00 setmiterlimit
221.60 226.12 0.43 c p1
222.21 213.68 0.43 c p1
222.82 210.42 0.43 c p1
223.43 215.83 0.43 c p1
224.05 219.16 0.43 c p1
224.66 221.18 0.43 c p1
225.27 221.89 0.43 c p1
225.88 218.39 0.43 c p1
226.49 223.37 0.43 c p1
227.10 224.15 0.43 c p1
227.71 219.33 0.43 c p1
228.32 220.01 0.43 c p1
228.94 230.17 0.43 c p1
229.55 223.09 0.43 c p1
230.16 220.30 0.43 c p1
230.77 225.91 0.43 c p1
231.38 231.44 0.43 c p1
231.99 227.31 0.43 c p1
232.60 225.50 0.43 c p1
233.22 224.58 0.43 c p1
233.83 219.52 0.43 c p1
234.44 219.68 0.43 c p1
235.05 222.72 0.43 c p1
235.66 231.80 0.43 c p1
236.27 233.56 0.43 c p1
236.88 229.42 0.43 c p1
237.50 226.17 0.43 c p1
238.11 226.01 0.43 c p1
238.72 225.59 0.43 c p1
239.33 228.20 0.43 c p1
239.94 229.87 0.43 c p1
240.55 227.33 0.43 c p1
241.16 227.81 0.43 c p1
241.77 234.11 0.43 c p1
242.39 229.71 0.43 c p1
243.00 228.98 0.43 c p1
243.61 234.21 0.43 c p1
244.22 227.82 0.43 c p1
244.83 228.03 0.43 c p1
245.44 226.30 0.43 c p1
246.05 230.22 0.43 c p1
246.67 232.19 0.43 c p1
247.28 234.95 0.43 c p1
247.89 224.70 0.43 c p1
248.50 221.79 0.43 c p1
249.11 228.33 0.43 c p1
249.72 230.90 0.43 c p1
250.33 226.21 0.43 c p1
250.94 229.71 0.43 c p1
251.56 225.80 0.43 c p1
252.17 226.56 0.43 c p1
252.78 225.25 0.43 c p1
253.39 228.55 0.43 c p1
254.00 229.99 0.43 c p1
254.61 225.96 0.43 c p1
255.22 223.72 0.43 c p1
255.84 226.84 0.43 c p1
256.45 228.12 0.43 c p1
257.06 231.16 0.43 c p1
257.67 229.77 0.43 c p1
258.28 230.94 0.43 c p1
258.89 225.95 0.43 c p1
259.50 222.54 0.43 c p1
260.12 227.12 0.43 c p1
260.73 220.36 0.43 c p1
261.34 228.36 0.43 c p1
261.95 226.59 0.43 c p1
262.56 222.28 0.43 c p1
263.17 222.41 0.43 c p1
263.78 222.31 0.43 c p1
264.39 227.56 0.43 c p1
265.01 230.08 0.43 c p1
265.62 228.14 0.43 c p1
266.23 226.38 0.43 c p1
266.84 223.65 0.43 c p1
267.45 225.27 0.43 c p1
268.06 221.56 0.43 c p1
268.67 228.98 0.43 c p1
269.29 228.80 0.43 c p1
269.90 222.56 0.43 c p1
270.51 223.09 0.43 c p1
271.12 220.97 0.43 c p1
271.73 220.70 0.43 c p1
272.34 225.24 0.43 c p1
272.95 223.98 0.43 c p1
273.57 222.70 0.43 c p1
274.18 220.66 0.43 c p1
274.79 224.33 0.43 c p1
275.40 222.98 0.43 c p1
276.01 224.19 0.43 c p1
276.62 228.51 0.43 c p1
277.23 222.11 0.43 c p1
277.84 223.98 0.43 c p1
278.46 225.09 0.43 c p1
279.07 222.69 0.43 c p1
279.68 225.39 0.43 c p1
280.29 224.60 0.43 c p1
280.90 221.43 0.43 c p1
281.51 220.79 0.43 c p1
282.12 219.94 0.43 c p1
282.74 224.14 0.43 c p1
283.35 221.62 0.43 c p1
283.96 224.87 0.43 c p1
284.57 223.22 0.43 c p1
285.18 216.00 0.43 c p1
285.79 218.44 0.43 c p1
286.40 224.63 0.43 c p1
287.01 222.19 0.43 c p1
287.63 225.29 0.43 c p1
288.24 224.43 0.43 c p1
288.85 219.46 0.43 c p1
289.46 223.19 0.43 c p1
290.07 222.28 0.43 c p1
290.68 220.47 0.43 c p1
291.29 223.43 0.43 c p1
291.91 219.99 0.43 c p1
292.52 220.43 0.43 c p1
293.13 218.57 0.43 c p1
293.74 226.21 0.43 c p1
294.35 224.29 0.43 c p1
294.96 224.84 0.43 c p1
295.57 216.59 0.43 c p1
296.19 216.94 0.43 c p1
296.80 218.14 0.43 c p1
297.41 220.19 0.43 c p1
298.02 219.78 0.43 c p1
298.63 222.50 0.43 c p1
299.24 220.49 0.43 c p1
299.85 222.31 0.43 c p1
300.46 221.84 0.43 c p1
301.08 222.92 0.43 c p1
301.69 221.73 0.43 c p1
302.30 221.91 0.43 c p1
302.91 223.82 0.43 c p1
303.52 221.72 0.43 c p1
304.13 220.48 0.43 c p1
304.74 223.73 0.43 c p1
305.36 224.02 0.43 c p1
305.97 222.56 0.43 c p1
306.58 221.27 0.43 c p1
307.19 219.11 0.43 c p1
307.80 223.83 0.43 c p1
308.41 220.09 0.43 c p1
309.02 224.09 0.43 c p1
309.63 224.29 0.43 c p1
310.25 222.76 0.43 c p1
310.86 218.99 0.43 c p1
311.47 219.16 0.43 c p1
312.08 223.08 0.43 c p1
312.69 220.83 0.43 c p1
313.30 223.18 0.43 c p1
313.91 224.67 0.43 c p1
314.53 223.23 0.43 c p1
315.14 225.55 0.43 c p1
315.75 223.25 0.43 c p1
316.36 224.69 0.43 c p1
316.97 223.22 0.43 c p1
317.58 226.17 0.43 c p1
318.19 221.62 0.43 c p1
318.81 217.76 0.43 c p1
319.42 224.57 0.43 c p1
320.03 219.16 0.43 c p1
320.64 223.58 0.43 c p1
321.25 224.25 0.43 c p1
321.86 219.67 0.43 c p1
322.47 221.00 0.43 c p1
323.08 220.98 0.43 c p1
323.70 223.14 0.43 c p1
324.31 222.24 0.43 c p1
324.92 224.39 0.43 c p1
325.53 222.63 0.43 c p1
326.14 221.05 0.43 c p1
326.75 220.80 0.43 c p1
327.36 221.39 0.43 c p1
327.98 225.84 0.43 c p1
328.59 224.05 0.43 c p1
329.20 223.09 0.43 c p1
329.81 224.49 0.43 c p1
330.42 222.85 0.43 c p1
331.03 227.09 0.43 c p1
331.64 227.62 0.43 c p1
332.26 224.44 0.43 c p1
332.87 223.44 0.43 c p1
333.48 220.10 0.43 c p1
334.09 222.11 0.43 c p1
334.70 226.46 0.43 c p1
335.31 228.29 0.43 c p1
335.92 221.39 0.43 c p1
336.53 222.53 0.43 c p1
337.15 223.00 0.43 c p1
337.76 222.79 0.43 c p1
338.37 227.77 0.43 c p1
338.98 226.70 0.43 c p1
339.59 228.65 0.43 c p1
340.20 229.09 0.43 c p1
340.81 225.66 0.43 c p1
341.43 225.42 0.43 c p1
342.04 225.00 0.43 c p1
342.65 225.41 0.43 c p1
343.26 227.32 0.43 c p1
343.87 225.54 0.43 c p1
344.48 225.94 0.43 c p1
345.09 228.50 0.43 c p1
345.70 227.37 0.43 c p1
346.32 225.58 0.43 c p1
346.93 227.45 0.43 c p1
347.54 227.82 0.43 c p1
348.15 228.18 0.43 c p1
348.76 226.20 0.43 c p1
349.37 228.89 0.43 c p1
349.98 226.90 0.43 c p1
350.60 225.08 0.43 c p1
351.21 227.57 0.43 c p1
351.82 225.74 0.43 c p1
352.43 231.23 0.43 c p1
353.04 230.05 0.43 c p1
353.65 228.87 0.43 c p1
354.26 225.53 0.43 c p1
354.88 229.49 0.43 c p1
355.49 233.63 0.43 c p1
356.10 231.59 0.43 c p1
356.71 229.72 0.43 c p1
357.32 227.02 0.43 c p1
357.93 227.97 0.43 c p1
358.54 227.59 0.43 c p1
359.15 227.87 0.43 c p1
359.77 232.64 0.43 c p1
360.38 234.41 0.43 c p1
360.99 228.68 0.43 c p1
361.60 229.61 0.43 c p1
0.00 0.00 432.00 576.00 cl
0 0 0 srgb
0.75 setlinewidth
[] 0 setdash
1 setlinecap
1 setlinejoin
10.00 setmiterlimit
np
240.55 201.60 m
122.27 0 l
o
np
240.55 201.60 m
0 -5.76 l
o
np
271.12 201.60 m
0 -5.76 l
o
np
301.69 201.60 m
0 -5.76 l
o
np
332.26 201.60 m
0 -5.76 l
o
np
362.82 201.60 m
0 -5.76 l
o
/Font1 findfont 6 s
240.55 185.47 (50) .5 0 t
271.12 185.47 (100) .5 0 t
301.69 185.47 (150) .5 0 t
332.26 185.47 (200) .5 0 t
362.82 185.47 (250) .5 0 t
np
216.00 212.40 m
0 24.48 l
o
np
216.00 212.40 m
-5.76 0 l
o
np
216.00 224.64 m
-5.76 0 l
o
np
216.00 236.88 m
-5.76 0 l
o
209.09 210.25 (-0.005) 1 0 t
209.09 222.49 (0.000) 1 0 t
209.09 234.72 (0.005) 1 0 t
np
216.00 201.60 m
151.20 0 l
0 46.08 l
-151.20 0 l
0 -46.08 l
o
0.00 0.00 432.00 576.00 cl
/Font1 findfont 9 s
0 0 0 srgb
291.60 262.88 (Residuen) .5 0 t
59.04 73.44 401.76 516.96 cl
ep
%%Trailer
%%Pages: 1
%%EOF
