%!PS-Adobe-3.0 EPSF-3.0
%%DocumentNeededResources: font Helvetica
%%+ font Helvetica-Bold
%%+ font Helvetica-Oblique
%%+ font Helvetica-BoldOblique
%%+ font Symbol
%%Title: R Graphics Output
%%Creator: R Software
%%Pages: (atend)
%%BoundingBox: 0 0 432 576
%%EndComments
%%BeginProlog
/bp  { gs sRGB gs } def
% begin .ps.prolog
/gs  { gsave } bind def
/gr  { grestore } bind def
/ep  { showpage gr gr } bind def
/m   { moveto } bind def
/l  { rlineto } bind def
/np  { newpath } bind def
/cp  { closepath } bind def
/f   { fill } bind def
/o   { stroke } bind def
/c   { newpath 0 360 arc } bind def
/r   { 4 2 roll moveto 1 copy 3 -1 roll exch 0 exch rlineto 0 rlineto -1 mul 0 exch rlineto closepath } bind def
/p1  { stroke } bind def
/p2  { gsave bg fill grestore newpath } bind def
/p3  { gsave bg fill grestore stroke } bind def
/p6  { gsave bg eofill grestore newpath } bind def
/p7  { gsave bg eofill grestore stroke } bind def
/t   { 5 -2 roll moveto gsave rotate
       1 index stringwidth pop
       mul neg 0 rmoveto show grestore } bind def
/ta  { 4 -2 roll moveto gsave rotate show } bind def
/tb  { 2 -1 roll 0 rmoveto show } bind def
/cl  { grestore gsave newpath 3 index 3 index moveto 1 index
       4 -1 roll lineto  exch 1 index lineto lineto
       closepath clip newpath } bind def
/rgb { setrgbcolor } bind def
/s   { scalefont setfont } bind def
% end   .ps.prolog
/sRGB { [ /CIEBasedABC
          << /DecodeLMN
               [ { dup 0.03928 le
                        {12.92321 div}
                        {0.055 add 1.055 div 2.4 exp }
                     ifelse
                 } bind dup dup
               ]
             /MatrixLMN [0.412457 0.212673 0.019334
                         0.357576 0.715152 0.119192
                         0.180437 0.072175 0.950301]
             /WhitePoint [0.9505 1.0 1.0890]
           >>
         ] setcolorspace } bind def
/srgb { setcolor } bind def
%%IncludeResource: font Helvetica
/Helvetica findfont
dup length dict begin
  {1 index /FID ne {def} {pop pop} ifelse} forall
  /Encoding ISOLatin1Encoding def
  currentdict
  end
/Font1 exch definefont pop
%%IncludeResource: font Helvetica-Bold
/Helvetica-Bold findfont
dup length dict begin
  {1 index /FID ne {def} {pop pop} ifelse} forall
  /Encoding ISOLatin1Encoding def
  currentdict
  end
/Font2 exch definefont pop
%%IncludeResource: font Helvetica-Oblique
/Helvetica-Oblique findfont
dup length dict begin
  {1 index /FID ne {def} {pop pop} ifelse} forall
  /Encoding ISOLatin1Encoding def
  currentdict
  end
/Font3 exch definefont pop
%%IncludeResource: font Helvetica-BoldOblique
/Helvetica-BoldOblique findfont
dup length dict begin
  {1 index /FID ne {def} {pop pop} ifelse} forall
  /Encoding ISOLatin1Encoding def
  currentdict
  end
/Font4 exch definefont pop
%%IncludeResource: font Symbol
/Symbol findfont
dup length dict begin
  {1 index /FID ne {def} {pop pop} ifelse} forall
  currentdict
  end
/Font5 exch definefont pop
%%EndProlog
%%Page: 1 1
bp
0.00 0.00 432.00 576.00 cl
0.00 0.00 432.00 576.00 cl
0.00 0.00 432.00 576.00 cl
/Font1 findfont 12 s
0 0 0 srgb
48.00 508.72 (PCP-ETH) 0 0 t
48.00 494.89 (Blitzlicht-Photolyse) 0 0 t
/Font1 findfont 9 s
48.00 457.54 (File: Dy) 0 ta
-0.180 (e_0_1_V2_900V_35.dat) tb gr
48.00 334.87 (T) 0 ta
-1.080 (ue Apr  9 22:05:07 2019) tb gr
48.00 430.87 (Fitfunktion:  a + b * e) 0 ta
-0.270 (xp\(-c * t\)) tb gr
48.00 420.50 (t-Inter) 0 ta
0.270 (v) tb
-0.225 (all: 12.000 ... 193.000 ms) tb gr
48.00 410.14 (P) 0 ta
-0.360 (ar) tb
-0.090 (ameter \(Standardabw) tb
-0.090 (eichung\):) tb gr
48.00 399.77 (  a = -0.00101 \(0.00032\)) 0 0 t
48.00 389.40 (  b = 0.23238 \(0.00070\)) 0 0 t
48.00 379.03 (  c = 1.959e+01 \(1.273e-01\) s^-1) 0 0 t
48.00 368.66 (  tau = 5.104e-02 \(3.316e-04\) s) 0 0 t
216.00 345.60 388.80 518.40 cl
0 0 0 srgb
0.75 setlinewidth
[] 0 setdash
1 setlinecap
1 setlinejoin
10.00 setmiterlimit
np
222.40 510.88 m
0.15 0 l
0.14 0.55 l
0.15 -0.23 l
0.14 0.13 l
0.15 0.32 l
0.14 0.35 l
0.15 -0.45 l
0.14 0 l
0.15 0.45 l
0.15 -0.35 l
0.14 -0.55 l
0.15 0.55 l
0.14 -0.10 l
0.15 -0.22 l
0.14 -0.13 l
0.15 -0.32 l
0.14 0.32 l
0.15 -0.22 l
0.15 0.35 l
0.14 0 l
0.15 -0.13 l
0.14 0.13 l
0.15 0.45 l
0.14 -0.45 l
0.15 0.45 l
0.15 0.22 l
0.14 -0.45 l
0.15 0.23 l
0.14 -0.45 l
0.15 0.22 l
0.14 0 l
0.15 -0.35 l
0.14 -0.10 l
0.15 0.10 l
0.15 0.13 l
0.14 0.10 l
0.15 -0.23 l
0.14 -0.10 l
0.15 0.23 l
0.14 -0.13 l
0.15 0.58 l
0.14 -0.58 l
0.15 0.13 l
0.15 0 l
0.14 -0.35 l
0.15 0.45 l
0.14 0.57 l
0.15 -0.35 l
0.14 -0.22 l
0.15 0.35 l
0.14 0.10 l
0.15 -0.68 l
0.15 0 l
0.14 0.45 l
0.15 -0.32 l
0.14 0.22 l
0.15 -0.45 l
0.14 0.10 l
0.15 0 l
0.15 0.35 l
0.14 -0.45 l
0.15 -0.12 l
0.14 0.22 l
0.15 -0.10 l
0.14 0.78 l
0.15 -0.78 l
0.14 0.45 l
0.15 0.23 l
0.15 -0.68 l
0.14 0.33 l
0.15 0.12 l
0.14 0.33 l
0.15 -0.33 l
0.14 -0.12 l
0.15 -0.68 l
0.14 0.45 l
0.15 0.23 l
0.15 -0.33 l
0.14 0.33 l
0.15 -0.23 l
0.14 -0.32 l
0.15 0.45 l
0.14 -0.45 l
0.15 0.77 l
0.14 -0.10 l
0.15 0 l
0.15 -0.22 l
0.14 -0.35 l
0.15 0.35 l
0.14 0.10 l
0.15 -0.23 l
0.14 0.13 l
0.15 -0.35 l
0.15 0.80 l
0.14 -0.23 l
0.15 -0.57 l
0.14 0.45 l
0.15 -0.10 l
0.14 -0.23 l
236.96 442.98 lineto
0.14 2.79 l
0.15 2.13 l
0.15 1.12 l
0.14 1.13 l
0.15 1.57 l
0.14 1.00 l
0.15 1.25 l
0.14 0.99 l
0.15 0.68 l
0.14 0.35 l
0.15 1.12 l
0.15 0.77 l
0.14 0.55 l
0.15 2.03 l
0.14 0.34 l
0.15 0.33 l
0.14 0.12 l
0.15 0.78 l
0.14 1.90 l
0.15 0 l
0.15 1.79 l
0.14 0.58 l
0.15 0.55 l
0.14 0 l
0.15 0.44 l
0.14 0.45 l
0.15 1.13 l
0.15 1.57 l
0.14 0 l
0.15 0.90 l
0.14 0.77 l
0.15 0.68 l
0.14 -0.35 l
0.15 0.90 l
0.14 0.89 l
0.15 0.80 l
0.15 0.68 l
0.14 0.65 l
0.15 0.79 l
0.14 0.45 l
0.15 -0.57 l
0.14 1.02 l
0.15 0.78 l
0.14 1.12 l
0.15 0.57 l
0.15 0 l
0.14 1.33 l
0.15 -0.33 l
0.14 0.78 l
0.15 0.45 l
0.14 0.89 l
0.15 0.35 l
0.14 0.33 l
0.15 0.80 l
0.15 0.32 l
0.14 0.78 l
0.15 -0.10 l
0.14 -0.33 l
0.15 0.87 l
0.14 0.90 l
0.15 0.80 l
0.15 0.10 l
0.14 0.45 l
0.15 1.47 l
0.14 -0.12 l
0.15 -0.10 l
0.14 0.22 l
0.15 0.23 l
0.14 0.87 l
0.15 0.58 l
0.15 0.67 l
0.14 0.10 l
0.15 0.22 l
0.14 0.13 l
0.15 -0.13 l
0.14 0.23 l
0.15 0.80 l
0.14 1.22 l
0.15 0 l
0.15 0.23 l
0.14 0 l
0.15 -0.13 l
0.14 0.23 l
0.15 1.02 l
0.14 0.55 l
0.15 0.22 l
0.14 0 l
0.15 0.90 l
0.15 -0.10 l
0.14 -0.67 l
0.15 0.77 l
0.14 0.23 l
0.15 0.89 l
0.14 0.35 l
0.15 -0.45 l
0.15 0.10 l
0.14 0.23 l
0.15 0.45 l
0.14 -0.10 l
251.52 500.44 lineto
0.14 0.35 l
0.15 0.78 l
0.14 0 l
0.15 -0.55 l
0.15 0.45 l
0.14 0.77 l
0.15 -0.32 l
0.14 0.67 l
0.15 0.10 l
0.14 -0.55 l
0.15 0.45 l
0.14 0.45 l
0.15 0.10 l
0.15 0.80 l
0.14 -0.45 l
0.15 0.32 l
0.14 -0.10 l
0.15 0.23 l
0.14 0 l
0.15 0.67 l
0.14 -0.12 l
0.15 0 l
0.15 0.35 l
0.14 0.10 l
0.15 -0.23 l
0.14 0.55 l
0.15 0.13 l
0.14 0.10 l
0.15 0.12 l
0.14 0.22 l
0.15 -0.22 l
0.15 0.10 l
0.14 0 l
0.15 0.80 l
0.14 0 l
0.15 -0.23 l
0.14 -0.22 l
0.15 -0.35 l
0.15 0.45 l
0.14 0.57 l
0.15 0 l
0.14 0.90 l
0.15 -0.67 l
0.14 0.32 l
0.15 -0.55 l
0.14 -0.22 l
0.15 0.32 l
0.15 0.90 l
0.14 -0.45 l
0.15 0.68 l
0.14 -0.45 l
0.15 0.22 l
0.14 -0.22 l
0.15 -0.23 l
0.14 0.35 l
0.15 0.45 l
0.15 -0.22 l
0.14 -0.23 l
0.15 0.23 l
0.14 0.55 l
0.15 -0.90 l
0.14 0.67 l
0.15 0.23 l
0.14 0.57 l
0.15 -0.57 l
0.15 -0.10 l
0.14 0 l
0.15 0.10 l
0.14 -0.55 l
0.15 0.67 l
0.14 0.10 l
0.15 0.35 l
0.15 -0.35 l
0.14 0.13 l
0.15 -0.23 l
0.14 0 l
0.15 0.23 l
0.14 0.09 l
0.15 -0.09 l
0.14 0.32 l
0.15 -0.55 l
0.15 0.67 l
0.14 -0.79 l
0.15 0.89 l
0.14 0.45 l
0.15 -0.32 l
0.14 -0.58 l
0.15 0 l
0.14 0.23 l
0.15 0 l
0.15 0.12 l
0.14 0.33 l
0.15 0.12 l
0.14 -0.35 l
0.15 -0.45 l
0.14 0 l
0.15 -0.32 l
0.14 0 l
0.15 0.77 l
266.08 509.30 lineto
0.14 -0.10 l
0.15 0 l
0.14 0.55 l
0.15 -0.45 l
0.14 0 l
0.15 0.55 l
0.15 -0.20 l
0.14 0 l
0.15 -0.35 l
0.14 0.23 l
0.15 -0.45 l
0.14 -0.32 l
0.15 0.67 l
0.14 0 l
0.15 -0.35 l
0.15 0.22 l
0.14 -0.54 l
0.15 0.09 l
0.14 0.13 l
0.15 -0.13 l
0.14 1.00 l
0.15 -0.55 l
0.14 0 l
0.15 -0.22 l
0.15 0 l
0.14 0.22 l
0.15 -0.10 l
0.14 0.45 l
0.15 -0.45 l
0.14 -0.57 l
0.15 0.80 l
0.14 -0.80 l
0.15 0.22 l
0.15 0.45 l
0.14 0.55 l
0.15 -0.65 l
0.14 -0.12 l
0.15 -0.10 l
0.14 -0.22 l
0.15 0.32 l
0.15 0 l
0.14 0.67 l
0.15 -0.22 l
0.14 -0.23 l
0.15 0 l
0.14 -0.10 l
0.15 0.23 l
0.14 -0.45 l
0.15 0.22 l
0.15 0.33 l
0.14 -0.68 l
0.15 0.35 l
0.14 -0.44 l
0.15 -0.13 l
0.14 0.22 l
0.15 0.68 l
0.14 -0.55 l
0.15 -0.22 l
0.15 0.54 l
0.14 -0.32 l
0.15 -0.57 l
0.14 0.35 l
0.15 0.77 l
0.14 -0.10 l
0.15 -0.23 l
0.14 0.10 l
0.15 0 l
0.15 -0.67 l
0.14 0.13 l
0.15 0.44 l
0.14 -0.22 l
0.15 0.10 l
0.14 -0.23 l
0.15 0.35 l
0.15 -0.35 l
0.14 -0.32 l
0.15 0.10 l
0.14 0.35 l
0.15 0.22 l
0.14 -0.44 l
0.15 0.09 l
0.14 -0.22 l
0.15 -0.10 l
0.15 0 l
0.14 0.67 l
0.15 0 l
0.14 -0.89 l
0.15 0.67 l
0.14 -0.22 l
0.15 0 l
0.14 0.32 l
0.15 -0.32 l
0.15 0.09 l
0.14 0 l
0.15 0.23 l
0.14 -0.55 l
0.15 -0.35 l
0.14 0 l
0.15 0.45 l
280.63 509.08 lineto
0.15 -0.45 l
0.15 0.22 l
0.14 -0.32 l
0.15 0.10 l
0.14 0 l
0.15 0.45 l
0.14 -0.10 l
0.15 0.10 l
0.15 -0.55 l
0.14 0.23 l
0.15 -0.23 l
0.14 -0.45 l
0.15 0.10 l
0.14 0.67 l
0.15 -0.22 l
0.14 -0.55 l
0.15 0.10 l
0.15 0 l
0.14 0.23 l
0.15 -0.55 l
0.14 0.99 l
0.15 0.35 l
0.14 -0.44 l
0.15 -0.13 l
0.14 -0.10 l
0.15 -0.35 l
0.15 0.23 l
0.14 0.35 l
0.15 -0.23 l
0.14 -0.12 l
0.15 0.12 l
0.14 -0.12 l
0.15 -0.10 l
0.14 -0.35 l
0.15 0.22 l
0.15 0.45 l
0.14 -0.32 l
0.15 0.22 l
0.14 -0.67 l
0.15 0.22 l
0.14 0 l
0.15 0.23 l
0.14 0 l
0.15 0.32 l
0.15 -0.32 l
0.14 -0.13 l
0.15 -0.67 l
0.14 0.57 l
0.15 0.55 l
0.14 0 l
0.15 -0.32 l
0.15 0.10 l
0.14 0.12 l
0.15 -1.02 l
0.14 0.57 l
0.15 0 l
0.14 0 l
0.15 0.23 l
0.14 0 l
0.15 -0.13 l
0.15 -0.45 l
0.14 0.68 l
0.15 -0.33 l
0.14 0 l
0.15 0.55 l
0.14 -0.32 l
0.15 0 l
0.14 0 l
0.15 -0.35 l
0.15 0 l
0.14 0.45 l
0.15 -0.23 l
0.14 0.35 l
0.15 -0.57 l
0.14 -0.68 l
0.15 -0.55 l
0.14 0.68 l
0.15 0.90 l
0.15 0.10 l
0.14 -0.33 l
0.15 0 l
0.14 -0.22 l
0.15 -0.68 l
0.14 0.78 l
0.15 0 l
0.15 0.45 l
0.14 0 l
0.15 -0.45 l
0.14 0 l
0.15 0.57 l
0.14 -1.35 l
0.15 0.90 l
0.14 0.10 l
0.15 -0.22 l
0.15 0.12 l
0.14 -0.12 l
0.15 -0.23 l
0.14 -0.55 l
0.15 0.55 l
295.19 507.96 lineto
0.15 0.12 l
0.14 -0.35 l
0.15 0.23 l
0.15 -0.23 l
0.14 0.35 l
0.15 -0.67 l
0.14 0.22 l
0.15 0.45 l
0.14 -0.12 l
0.15 0 l
0.14 -0.55 l
0.15 -0.45 l
0.15 0.67 l
0.14 0.55 l
0.15 -0.22 l
0.14 -0.68 l
0.15 0.35 l
0.14 -0.12 l
0.15 -0.68 l
0.15 0.45 l
0.14 0 l
0.15 0.68 l
0.14 0.67 l
0.15 -0.55 l
0.14 -0.35 l
0.15 0 l
0.14 -0.45 l
0.15 0.13 l
0.15 0.77 l
0.14 -0.22 l
0.15 -0.23 l
0.14 0.13 l
0.15 0 l
0.14 -0.13 l
0.15 -0.32 l
0.14 -0.23 l
0.15 0.68 l
0.15 0.32 l
0.14 -0.55 l
0.15 0 l
0.14 0 l
0.15 -0.12 l
0.14 0 l
0.15 0.45 l
0.14 0.45 l
0.15 -0.33 l
0.15 0 l
0.14 0 l
0.15 -0.35 l
0.14 -0.32 l
0.15 0.10 l
0.14 0.90 l
0.15 -0.90 l
0.15 0 l
0.14 0.67 l
0.15 -0.90 l
0.14 -0.32 l
0.15 0.67 l
0.14 0.55 l
0.15 -0.22 l
0.14 -0.23 l
0.15 -0.45 l
0.15 0.45 l
0.14 0 l
0.15 -0.45 l
0.14 0.58 l
0.15 0.32 l
0.14 -0.32 l
0.15 -0.45 l
0.14 0.10 l
0.15 -0.45 l
0.15 -0.23 l
0.14 0.58 l
0.15 0.45 l
0.14 -0.13 l
0.15 -0.10 l
0.14 0 l
0.15 -0.45 l
0.14 -0.22 l
0.15 0.32 l
0.15 0.35 l
0.14 0 l
0.15 -0.35 l
0.14 0.68 l
0.15 -0.33 l
0.14 -0.45 l
0.15 0 l
0.15 0.78 l
0.14 -0.45 l
0.15 0.57 l
0.14 -0.45 l
0.15 -0.12 l
0.14 -0.23 l
0.15 -0.10 l
0.14 0.10 l
0.15 0 l
0.15 0.35 l
0.14 -0.22 l
0.15 -0.13 l
309.75 507.41 lineto
0.15 -0.35 l
0.14 0.22 l
0.15 0.35 l
0.14 -0.12 l
0.15 0.57 l
0.15 -0.57 l
0.14 0 l
0.15 0 l
0.14 -0.45 l
0.15 0.67 l
0.14 0.23 l
0.15 -0.10 l
0.14 -0.13 l
0.15 -0.32 l
0.15 0.10 l
0.14 -0.10 l
0.15 -0.13 l
0.14 0.23 l
0.15 -0.45 l
0.14 0.12 l
0.15 -0.12 l
0.15 0.22 l
0.14 -0.22 l
0.15 0.57 l
0.14 0.33 l
0.15 0.12 l
0.14 -0.57 l
0.15 -0.10 l
0.14 -0.23 l
0.15 0.10 l
0.15 0.35 l
0.14 0.10 l
0.15 -0.10 l
0.14 0 l
0.15 -0.57 l
0.14 0.12 l
0.15 0.10 l
0.14 -0.22 l
0.15 0.45 l
0.15 0 l
0.14 0 l
0.15 0 l
0.14 0.12 l
0.15 0.23 l
0.14 -0.45 l
0.15 0 l
0.14 0.32 l
0.15 0.35 l
0.15 -0.22 l
0.14 -0.58 l
0.15 0 l
0.14 -0.22 l
0.15 -0.10 l
0.14 0.32 l
0.15 0.23 l
0.15 -0.33 l
0.14 0 l
0.15 0.23 l
0.14 -0.68 l
0.15 0.10 l
0.14 0.35 l
0.15 0.68 l
0.14 -0.23 l
0.15 -0.45 l
0.15 0.23 l
0.14 0 l
0.15 0 l
0.14 -0.23 l
0.15 0.55 l
0.14 0 l
0.15 0.68 l
0.14 -0.90 l
0.15 -0.10 l
0.15 -0.80 l
0.14 0.35 l
0.15 0.10 l
0.14 0.67 l
0.15 -0.45 l
0.14 -0.32 l
0.15 0.32 l
0.14 0 l
0.15 -0.32 l
0.15 -0.13 l
0.14 0.35 l
0.15 0.45 l
0.14 0 l
0.15 0.45 l
0.14 -0.35 l
0.15 -0.45 l
0.14 -0.10 l
0.15 0.10 l
0.15 0.13 l
0.14 0.22 l
0.15 -0.35 l
0.14 -0.22 l
0.15 0 l
0.14 0 l
0.15 0.12 l
0.15 0 l
324.31 507.63 lineto
0.15 -0.67 l
0.14 0.10 l
0.15 0 l
0.14 -0.33 l
0.15 0.78 l
0.14 0.67 l
0.15 -0.67 l
0.15 0.22 l
0.14 -0.22 l
0.15 -0.23 l
0.14 0.13 l
0.15 -0.23 l
0.14 0.78 l
0.15 -0.23 l
0.14 -0.32 l
0.15 0.10 l
0.15 -0.33 l
0.14 0.10 l
0.15 -0.55 l
0.14 1.00 l
0.15 -0.32 l
0.14 0 l
0.15 0 l
0.14 0 l
0.15 -0.13 l
0.15 -0.10 l
0.14 0.33 l
0.15 0.22 l
0.14 0.23 l
0.15 -0.68 l
0.14 -0.22 l
0.15 -0.23 l
0.15 0.23 l
0.14 0 l
0.15 0.35 l
0.14 -0.13 l
0.15 -0.10 l
0.14 0 l
0.15 0 l
0.14 -0.12 l
0.15 -0.33 l
0.15 0.90 l
0.14 0 l
0.15 -0.12 l
0.14 0.12 l
0.15 -0.57 l
0.14 0.35 l
0.15 -0.68 l
0.14 0.78 l
0.15 0.35 l
0.15 0.10 l
0.14 -0.68 l
0.15 -0.22 l
0.14 0 l
0.15 0.12 l
0.14 -0.22 l
0.15 0.32 l
0.14 0.58 l
0.15 -0.23 l
0.15 -0.45 l
0.14 0.45 l
0.15 0 l
0.14 -0.80 l
0.15 0.58 l
0.14 0.67 l
0.15 -0.22 l
0.15 -0.58 l
0.14 0.23 l
0.15 -0.10 l
0.14 -0.23 l
0.15 -0.22 l
0.14 0.45 l
0.15 0.32 l
0.14 -0.22 l
0.15 -0.55 l
0.15 0 l
0.14 -0.35 l
0.15 0.80 l
0.14 0.10 l
0.15 0 l
0.14 -0.45 l
0.15 -0.45 l
0.14 1.02 l
0.15 -0.57 l
0.15 0.12 l
0.14 0.23 l
0.15 0.67 l
0.14 -0.35 l
0.15 -0.55 l
0.14 0.33 l
0.15 -0.10 l
0.14 0 l
0.15 -0.35 l
0.15 0.80 l
0.14 0 l
0.15 -0.35 l
0.14 -0.55 l
0.15 0.55 l
0.14 -0.68 l
338.87 507.06 lineto
0.15 0.35 l
0.14 0.32 l
0.15 -0.22 l
0.14 0.12 l
0.15 -0.80 l
0.14 0.45 l
0.15 0 l
0.14 0.45 l
0.15 0 l
0.15 0.13 l
0.14 -0.23 l
0.15 -0.35 l
0.14 0.35 l
0.15 -0.45 l
0.14 -0.45 l
0.15 1.00 l
0.14 0 l
0.15 -0.67 l
0.15 0 l
0.14 0 l
0.15 0.12 l
0.14 0.33 l
0.15 -0.33 l
0.14 0.45 l
0.15 0.45 l
0.14 -0.45 l
0.15 -0.22 l
0.15 0.10 l
0.14 -0.33 l
0.15 0.23 l
0.14 0.32 l
0.15 0.35 l
0.14 0.10 l
0.15 -1.12 l
0.15 0.22 l
0.14 0 l
0.15 0 l
0.14 0.35 l
0.15 -0.22 l
0.14 0.22 l
0.15 -0.35 l
0.14 -0.10 l
0.15 -0.22 l
0.15 0.55 l
0.14 -0.10 l
0.15 0.32 l
0.14 0.13 l
0.15 -0.13 l
0.14 0 l
0.15 -0.55 l
0.14 -0.57 l
0.15 0.90 l
0.15 0 l
0.14 0.35 l
0.15 0 l
0.14 -0.80 l
0.15 0 l
0.14 0.12 l
0.15 0 l
0.14 0.33 l
0.15 0.22 l
0.15 -0.32 l
0.14 -0.35 l
0.15 0.80 l
0.14 -0.35 l
0.15 -0.10 l
0.14 0.10 l
0.15 0.35 l
0.15 0.22 l
0.14 -0.67 l
0.15 0 l
0.14 0.22 l
0.15 -0.80 l
0.14 0.68 l
0.15 -0.33 l
0.14 0.33 l
0.15 -0.23 l
0.15 -0.32 l
0.14 -0.13 l
0.15 0.13 l
0.14 -0.13 l
0.15 0.80 l
0.14 0.23 l
0.15 -0.23 l
0.14 -0.80 l
0.15 0.68 l
0.15 -0.23 l
0.14 -0.45 l
0.15 1.03 l
0.14 0.22 l
0.15 0.33 l
0.14 -0.90 l
0.15 0 l
0.14 -0.55 l
0.15 0.10 l
0.15 0.12 l
0.14 0.33 l
0.15 0.35 l
0.14 -0.35 l
353.43 507.28 lineto
0.14 0.13 l
0.15 -0.13 l
0.14 -0.45 l
0.15 0.45 l
0.15 0.58 l
0.14 -0.23 l
0.15 0.10 l
0.14 -0.45 l
0.15 0 l
0.14 -0.22 l
0.15 0 l
0.15 0.35 l
0.14 0.10 l
0.15 0.12 l
0.14 -0.35 l
0.15 -0.22 l
0.14 0.57 l
0.15 -0.35 l
0.14 -0.10 l
0.15 0.68 l
0.15 -0.13 l
0.14 -0.55 l
0.15 0.10 l
0.14 0.45 l
0.15 -0.67 l
0.14 0.45 l
0.15 0.35 l
0.14 0.22 l
0.15 -0.45 l
0.15 -0.12 l
0.14 0.45 l
0.15 -0.45 l
0.14 0.22 l
0.15 -0.32 l
0.14 0 l
0.15 -0.45 l
0.14 -0.23 l
0.15 0 l
0.15 0.33 l
0.14 0.12 l
0.15 0.23 l
0.14 0.32 l
0.15 -0.10 l
0.14 -0.45 l
0.15 0.45 l
0.15 0 l
0.14 -0.22 l
0.15 0.10 l
0.14 0.57 l
0.15 -0.12 l
0.14 -0.23 l
0.15 -0.32 l
0.14 -0.13 l
0.15 0.35 l
0.15 -0.45 l
0.14 0.33 l
0.15 0 l
0.14 0.22 l
0.15 -0.45 l
0.14 -0.22 l
0.15 0.22 l
0.14 -0.32 l
0.15 0.67 l
0.15 0 l
0.14 0.23 l
0.15 -0.45 l
0.14 0.32 l
0.15 -0.45 l
0.14 0.35 l
0.15 0 l
0.14 0.45 l
0.15 -0.57 l
0.15 0 l
0.14 -0.10 l
0.15 -0.35 l
0.14 -0.23 l
0.15 0.58 l
0.14 -0.13 l
0.15 0.35 l
0.15 0.10 l
0.14 -0.22 l
0.15 -0.23 l
0.14 -0.22 l
0.15 0 l
0.14 0.45 l
0.15 -0.10 l
0.14 0.45 l
0.15 0.32 l
0.15 -0.67 l
0.14 0.12 l
0.15 0 l
0.14 0.10 l
0.15 -0.10 l
0.14 0.45 l
0.15 -0.12 l
0.14 -0.68 l
0.15 -0.55 l
0.15 0.33 l
0.14 0.35 l
currentpoint o m
367.99 507.63 lineto
0.14 -0.35 l
0.15 0.35 l
0.14 -0.35 l
0.15 0.45 l
0.14 -0.45 l
0.15 -0.10 l
0.15 0.33 l
0.14 0.57 l
0.15 -0.22 l
0.14 -0.23 l
0.15 -0.12 l
0.14 -0.23 l
0.15 0.23 l
0.15 -0.10 l
0.14 0.32 l
0.15 0.23 l
0.14 -0.45 l
0.15 -0.23 l
0.14 -0.10 l
0.15 0.23 l
0.14 -0.23 l
0.15 0.23 l
0.15 0.45 l
0.14 0 l
0.15 -0.23 l
0.14 0 l
0.15 -0.35 l
0.14 0.35 l
0.15 -0.57 l
0.14 0.90 l
0.15 -0.23 l
0.15 -0.45 l
0.14 0 l
0.15 0.23 l
0.14 -0.68 l
0.15 0 l
0.14 0.90 l
0.15 -0.22 l
0.14 0.57 l
0.15 -0.45 l
0.15 -0.22 l
0.14 0 l
0.15 0 l
0.14 -0.23 l
0.15 0.55 l
0.14 0.13 l
0.15 -0.45 l
0.15 -0.13 l
0.14 0.23 l
0.15 -0.10 l
0.14 -0.13 l
0.15 0.45 l
0.14 -0.22 l
0.15 0.22 l
0.14 -0.45 l
0.15 0.35 l
0.15 -0.57 l
0.14 -0.10 l
0.15 0.67 l
0.14 0.45 l
0.15 -0.45 l
0.14 0.10 l
0.15 -0.45 l
0.14 0.13 l
0.15 -0.35 l
0.15 0.57 l
0.14 0.55 l
0.15 -0.22 l
0.14 -0.10 l
0.15 -0.35 l
0.14 0 l
0.15 0 l
0.14 -0.45 l
0.15 0.12 l
0.15 0.68 l
0.14 -0.13 l
0.15 -0.32 l
0.14 0.10 l
0.15 -0.23 l
0.14 -0.45 l
0.15 0.58 l
0.15 0.67 l
0.14 0.23 l
0.15 -1.03 l
0.14 0.80 l
0.15 -0.90 l
0.14 0.10 l
0.15 -0.10 l
0.14 0.78 l
0.15 0 l
0.15 -0.23 l
0.14 -0.32 l
0.15 0.10 l
0.14 -0.33 l
0.15 0.55 l
0.14 0 l
0.15 -0.22 l
0.14 0.12 l
0.15 -0.35 l
o
/bg { 1 1 1 srgb } def
222.40 510.88 0.43 c p3
222.55 510.88 0.43 c p3
222.69 511.43 0.43 c p3
222.84 511.20 0.43 c p3
222.98 511.33 0.43 c p3
223.13 511.65 0.43 c p3
223.27 512.00 0.43 c p3
223.42 511.55 0.43 c p3
223.56 511.55 0.43 c p3
223.71 512.00 0.43 c p3
223.86 511.65 0.43 c p3
224.00 511.10 0.43 c p3
224.15 511.65 0.43 c p3
224.29 511.55 0.43 c p3
224.44 511.33 0.43 c p3
224.58 511.20 0.43 c p3
224.73 510.88 0.43 c p3
224.87 511.20 0.43 c p3
225.02 510.98 0.43 c p3
225.17 511.33 0.43 c p3
225.31 511.33 0.43 c p3
225.46 511.20 0.43 c p3
225.60 511.33 0.43 c p3
225.75 511.78 0.43 c p3
225.89 511.33 0.43 c p3
226.04 511.78 0.43 c p3
226.19 512.00 0.43 c p3
226.33 511.55 0.43 c p3
226.48 511.78 0.43 c p3
226.62 511.33 0.43 c p3
226.77 511.55 0.43 c p3
226.91 511.55 0.43 c p3
227.06 511.20 0.43 c p3
227.20 511.10 0.43 c p3
227.35 511.20 0.43 c p3
227.50 511.33 0.43 c p3
227.64 511.43 0.43 c p3
227.79 511.20 0.43 c p3
227.93 511.10 0.43 c p3
228.08 511.33 0.43 c p3
228.22 511.20 0.43 c p3
228.37 511.78 0.43 c p3
228.51 511.20 0.43 c p3
228.66 511.33 0.43 c p3
228.81 511.33 0.43 c p3
228.95 510.98 0.43 c p3
229.10 511.43 0.43 c p3
229.24 512.00 0.43 c p3
229.39 511.65 0.43 c p3
229.53 511.43 0.43 c p3
229.68 511.78 0.43 c p3
229.82 511.88 0.43 c p3
229.97 511.20 0.43 c p3
230.12 511.20 0.43 c p3
230.26 511.65 0.43 c p3
230.41 511.33 0.43 c p3
230.55 511.55 0.43 c p3
230.70 511.10 0.43 c p3
230.84 511.20 0.43 c p3
230.99 511.20 0.43 c p3
231.14 511.55 0.43 c p3
231.28 511.10 0.43 c p3
231.43 510.98 0.43 c p3
231.57 511.20 0.43 c p3
231.72 511.10 0.43 c p3
231.86 511.88 0.43 c p3
232.01 511.10 0.43 c p3
232.15 511.55 0.43 c p3
232.30 511.78 0.43 c p3
232.45 511.10 0.43 c p3
232.59 511.43 0.43 c p3
232.74 511.55 0.43 c p3
232.88 511.88 0.43 c p3
233.03 511.55 0.43 c p3
233.17 511.43 0.43 c p3
233.32 510.75 0.43 c p3
233.46 511.20 0.43 c p3
233.61 511.43 0.43 c p3
233.76 511.10 0.43 c p3
233.90 511.43 0.43 c p3
234.05 511.20 0.43 c p3
234.19 510.88 0.43 c p3
234.34 511.33 0.43 c p3
234.48 510.88 0.43 c p3
234.63 511.65 0.43 c p3
234.77 511.55 0.43 c p3
234.92 511.55 0.43 c p3
235.07 511.33 0.43 c p3
235.21 510.98 0.43 c p3
235.36 511.33 0.43 c p3
235.50 511.43 0.43 c p3
235.65 511.20 0.43 c p3
235.79 511.33 0.43 c p3
235.94 510.98 0.43 c p3
236.09 511.78 0.43 c p3
236.23 511.55 0.43 c p3
236.38 510.98 0.43 c p3
236.52 511.43 0.43 c p3
236.67 511.33 0.43 c p3
236.81 511.10 0.43 c p3
236.96 442.98 0.43 c p3
237.10 445.77 0.43 c p3
237.25 447.90 0.43 c p3
237.40 449.02 0.43 c p3
237.54 450.15 0.43 c p3
237.69 451.72 0.43 c p3
237.83 452.72 0.43 c p3
237.98 453.97 0.43 c p3
238.12 454.96 0.43 c p3
238.27 455.64 0.43 c p3
238.41 455.99 0.43 c p3
238.56 457.11 0.43 c p3
238.71 457.88 0.43 c p3
238.85 458.43 0.43 c p3
239.00 460.46 0.43 c p3
239.14 460.80 0.43 c p3
239.29 461.13 0.43 c p3
239.43 461.25 0.43 c p3
239.58 462.03 0.43 c p3
239.72 463.93 0.43 c p3
239.87 463.93 0.43 c p3
240.02 465.72 0.43 c p3
240.16 466.30 0.43 c p3
240.31 466.85 0.43 c p3
240.45 466.85 0.43 c p3
240.60 467.29 0.43 c p3
240.74 467.74 0.43 c p3
240.89 468.87 0.43 c p3
241.04 470.44 0.43 c p3
241.18 470.44 0.43 c p3
241.33 471.34 0.43 c p3
241.47 472.11 0.43 c p3
241.62 472.79 0.43 c p3
241.76 472.44 0.43 c p3
241.91 473.34 0.43 c p3
242.05 474.23 0.43 c p3
242.20 475.03 0.43 c p3
242.35 475.71 0.43 c p3
242.49 476.36 0.43 c p3
242.64 477.15 0.43 c p3
242.78 477.60 0.43 c p3
242.93 477.03 0.43 c p3
243.07 478.05 0.43 c p3
243.22 478.83 0.43 c p3
243.36 479.95 0.43 c p3
243.51 480.52 0.43 c p3
243.66 480.52 0.43 c p3
243.80 481.85 0.43 c p3
243.95 481.52 0.43 c p3
244.09 482.30 0.43 c p3
244.24 482.75 0.43 c p3
244.38 483.64 0.43 c p3
244.53 483.99 0.43 c p3
244.67 484.32 0.43 c p3
244.82 485.12 0.43 c p3
244.97 485.44 0.43 c p3
245.11 486.22 0.43 c p3
245.26 486.12 0.43 c p3
245.40 485.79 0.43 c p3
245.55 486.66 0.43 c p3
245.69 487.56 0.43 c p3
245.84 488.36 0.43 c p3
245.99 488.46 0.43 c p3
246.13 488.91 0.43 c p3
246.28 490.38 0.43 c p3
246.42 490.26 0.43 c p3
246.57 490.16 0.43 c p3
246.71 490.38 0.43 c p3
246.86 490.61 0.43 c p3
247.00 491.48 0.43 c p3
247.15 492.06 0.43 c p3
247.30 492.73 0.43 c p3
247.44 492.83 0.43 c p3
247.59 493.05 0.43 c p3
247.73 493.18 0.43 c p3
247.88 493.05 0.43 c p3
248.02 493.28 0.43 c p3
248.17 494.08 0.43 c p3
248.31 495.30 0.43 c p3
248.46 495.30 0.43 c p3
248.61 495.53 0.43 c p3
248.75 495.53 0.43 c p3
248.90 495.40 0.43 c p3
249.04 495.63 0.43 c p3
249.19 496.65 0.43 c p3
249.33 497.20 0.43 c p3
249.48 497.42 0.43 c p3
249.62 497.42 0.43 c p3
249.77 498.32 0.43 c p3
249.92 498.22 0.43 c p3
250.06 497.55 0.43 c p3
250.21 498.32 0.43 c p3
250.35 498.55 0.43 c p3
250.50 499.44 0.43 c p3
250.64 499.79 0.43 c p3
250.79 499.34 0.43 c p3
250.94 499.44 0.43 c p3
251.08 499.67 0.43 c p3
251.23 500.12 0.43 c p3
251.37 500.02 0.43 c p3
251.52 500.44 0.43 c p3
251.66 500.79 0.43 c p3
251.81 501.57 0.43 c p3
251.95 501.57 0.43 c p3
252.10 501.02 0.43 c p3
252.25 501.47 0.43 c p3
252.39 502.24 0.43 c p3
252.54 501.92 0.43 c p3
252.68 502.59 0.43 c p3
252.83 502.69 0.43 c p3
252.97 502.14 0.43 c p3
253.12 502.59 0.43 c p3
253.26 503.04 0.43 c p3
253.41 503.14 0.43 c p3
253.56 503.94 0.43 c p3
253.70 503.49 0.43 c p3
253.85 503.81 0.43 c p3
253.99 503.71 0.43 c p3
254.14 503.94 0.43 c p3
254.28 503.94 0.43 c p3
254.43 504.61 0.43 c p3
254.57 504.49 0.43 c p3
254.72 504.49 0.43 c p3
254.87 504.84 0.43 c p3
255.01 504.94 0.43 c p3
255.16 504.71 0.43 c p3
255.30 505.26 0.43 c p3
255.45 505.39 0.43 c p3
255.59 505.49 0.43 c p3
255.74 505.61 0.43 c p3
255.88 505.83 0.43 c p3
256.03 505.61 0.43 c p3
256.18 505.71 0.43 c p3
256.32 505.71 0.43 c p3
256.47 506.51 0.43 c p3
256.61 506.51 0.43 c p3
256.76 506.28 0.43 c p3
256.90 506.06 0.43 c p3
257.05 505.71 0.43 c p3
257.20 506.16 0.43 c p3
257.34 506.73 0.43 c p3
257.49 506.73 0.43 c p3
257.63 507.63 0.43 c p3
257.78 506.96 0.43 c p3
257.92 507.28 0.43 c p3
258.07 506.73 0.43 c p3
258.21 506.51 0.43 c p3
258.36 506.83 0.43 c p3
258.51 507.73 0.43 c p3
258.65 507.28 0.43 c p3
258.80 507.96 0.43 c p3
258.94 507.51 0.43 c p3
259.09 507.73 0.43 c p3
259.23 507.51 0.43 c p3
259.38 507.28 0.43 c p3
259.52 507.63 0.43 c p3
259.67 508.08 0.43 c p3
259.82 507.86 0.43 c p3
259.96 507.63 0.43 c p3
260.11 507.86 0.43 c p3
260.25 508.41 0.43 c p3
260.40 507.51 0.43 c p3
260.54 508.18 0.43 c p3
260.69 508.41 0.43 c p3
260.83 508.98 0.43 c p3
260.98 508.41 0.43 c p3
261.13 508.31 0.43 c p3
261.27 508.31 0.43 c p3
261.42 508.41 0.43 c p3
261.56 507.86 0.43 c p3
261.71 508.53 0.43 c p3
261.85 508.63 0.43 c p3
262.00 508.98 0.43 c p3
262.15 508.63 0.43 c p3
262.29 508.76 0.43 c p3
262.44 508.53 0.43 c p3
262.58 508.53 0.43 c p3
262.73 508.76 0.43 c p3
262.87 508.85 0.43 c p3
263.02 508.76 0.43 c p3
263.16 509.08 0.43 c p3
263.31 508.53 0.43 c p3
263.46 509.20 0.43 c p3
263.60 508.41 0.43 c p3
263.75 509.30 0.43 c p3
263.89 509.75 0.43 c p3
264.04 509.43 0.43 c p3
264.18 508.85 0.43 c p3
264.33 508.85 0.43 c p3
264.47 509.08 0.43 c p3
264.62 509.08 0.43 c p3
264.77 509.20 0.43 c p3
264.91 509.53 0.43 c p3
265.06 509.65 0.43 c p3
265.20 509.30 0.43 c p3
265.35 508.85 0.43 c p3
265.49 508.85 0.43 c p3
265.64 508.53 0.43 c p3
265.78 508.53 0.43 c p3
265.93 509.30 0.43 c p3
266.08 509.30 0.43 c p3
266.22 509.20 0.43 c p3
266.37 509.20 0.43 c p3
266.51 509.75 0.43 c p3
266.66 509.30 0.43 c p3
266.80 509.30 0.43 c p3
266.95 509.85 0.43 c p3
267.10 509.65 0.43 c p3
267.24 509.65 0.43 c p3
267.39 509.30 0.43 c p3
267.53 509.53 0.43 c p3
267.68 509.08 0.43 c p3
267.82 508.76 0.43 c p3
267.97 509.43 0.43 c p3
268.11 509.43 0.43 c p3
268.26 509.08 0.43 c p3
268.41 509.30 0.43 c p3
268.55 508.76 0.43 c p3
268.70 508.85 0.43 c p3
268.84 508.98 0.43 c p3
268.99 508.85 0.43 c p3
269.13 509.85 0.43 c p3
269.28 509.30 0.43 c p3
269.42 509.30 0.43 c p3
269.57 509.08 0.43 c p3
269.72 509.08 0.43 c p3
269.86 509.30 0.43 c p3
270.01 509.20 0.43 c p3
270.15 509.65 0.43 c p3
270.30 509.20 0.43 c p3
270.44 508.63 0.43 c p3
270.59 509.43 0.43 c p3
270.73 508.63 0.43 c p3
270.88 508.85 0.43 c p3
271.03 509.30 0.43 c p3
271.17 509.85 0.43 c p3
271.32 509.20 0.43 c p3
271.46 509.08 0.43 c p3
271.61 508.98 0.43 c p3
271.75 508.76 0.43 c p3
271.90 509.08 0.43 c p3
272.05 509.08 0.43 c p3
272.19 509.75 0.43 c p3
272.34 509.53 0.43 c p3
272.48 509.30 0.43 c p3
272.63 509.30 0.43 c p3
272.77 509.20 0.43 c p3
272.92 509.43 0.43 c p3
273.06 508.98 0.43 c p3
273.21 509.20 0.43 c p3
273.36 509.53 0.43 c p3
273.50 508.85 0.43 c p3
273.65 509.20 0.43 c p3
273.79 508.76 0.43 c p3
273.94 508.63 0.43 c p3
274.08 508.85 0.43 c p3
274.23 509.53 0.43 c p3
274.37 508.98 0.43 c p3
274.52 508.76 0.43 c p3
274.67 509.30 0.43 c p3
274.81 508.98 0.43 c p3
274.96 508.41 0.43 c p3
275.10 508.76 0.43 c p3
275.25 509.53 0.43 c p3
275.39 509.43 0.43 c p3
275.54 509.20 0.43 c p3
275.68 509.30 0.43 c p3
275.83 509.30 0.43 c p3
275.98 508.63 0.43 c p3
276.12 508.76 0.43 c p3
276.27 509.20 0.43 c p3
276.41 508.98 0.43 c p3
276.56 509.08 0.43 c p3
276.70 508.85 0.43 c p3
276.85 509.20 0.43 c p3
277.00 508.85 0.43 c p3
277.14 508.53 0.43 c p3
277.29 508.63 0.43 c p3
277.43 508.98 0.43 c p3
277.58 509.20 0.43 c p3
277.72 508.76 0.43 c p3
277.87 508.85 0.43 c p3
278.01 508.63 0.43 c p3
278.16 508.53 0.43 c p3
278.31 508.53 0.43 c p3
278.45 509.20 0.43 c p3
278.60 509.20 0.43 c p3
278.74 508.31 0.43 c p3
278.89 508.98 0.43 c p3
279.03 508.76 0.43 c p3
279.18 508.76 0.43 c p3
279.32 509.08 0.43 c p3
279.47 508.76 0.43 c p3
279.62 508.85 0.43 c p3
279.76 508.85 0.43 c p3
279.91 509.08 0.43 c p3
280.05 508.53 0.43 c p3
280.20 508.18 0.43 c p3
280.34 508.18 0.43 c p3
280.49 508.63 0.43 c p3
280.63 509.08 0.43 c p3
280.78 508.63 0.43 c p3
280.93 508.85 0.43 c p3
281.07 508.53 0.43 c p3
281.22 508.63 0.43 c p3
281.36 508.63 0.43 c p3
281.51 509.08 0.43 c p3
281.65 508.98 0.43 c p3
281.80 509.08 0.43 c p3
281.95 508.53 0.43 c p3
282.09 508.76 0.43 c p3
282.24 508.53 0.43 c p3
282.38 508.08 0.43 c p3
282.53 508.18 0.43 c p3
282.67 508.85 0.43 c p3
282.82 508.63 0.43 c p3
282.96 508.08 0.43 c p3
283.11 508.18 0.43 c p3
283.26 508.18 0.43 c p3
283.40 508.41 0.43 c p3
283.55 507.86 0.43 c p3
283.69 508.85 0.43 c p3
283.84 509.20 0.43 c p3
283.98 508.76 0.43 c p3
284.13 508.63 0.43 c p3
284.27 508.53 0.43 c p3
284.42 508.18 0.43 c p3
284.57 508.41 0.43 c p3
284.71 508.76 0.43 c p3
284.86 508.53 0.43 c p3
285.00 508.41 0.43 c p3
285.15 508.53 0.43 c p3
285.29 508.41 0.43 c p3
285.44 508.31 0.43 c p3
285.58 507.96 0.43 c p3
285.73 508.18 0.43 c p3
285.88 508.63 0.43 c p3
286.02 508.31 0.43 c p3
286.17 508.53 0.43 c p3
286.31 507.86 0.43 c p3
286.46 508.08 0.43 c p3
286.60 508.08 0.43 c p3
286.75 508.31 0.43 c p3
286.89 508.31 0.43 c p3
287.04 508.63 0.43 c p3
287.19 508.31 0.43 c p3
287.33 508.18 0.43 c p3
287.48 507.51 0.43 c p3
287.62 508.08 0.43 c p3
287.77 508.63 0.43 c p3
287.91 508.63 0.43 c p3
288.06 508.31 0.43 c p3
288.21 508.41 0.43 c p3
288.35 508.53 0.43 c p3
288.50 507.51 0.43 c p3
288.64 508.08 0.43 c p3
288.79 508.08 0.43 c p3
288.93 508.08 0.43 c p3
289.08 508.31 0.43 c p3
289.22 508.31 0.43 c p3
289.37 508.18 0.43 c p3
289.52 507.73 0.43 c p3
289.66 508.41 0.43 c p3
289.81 508.08 0.43 c p3
289.95 508.08 0.43 c p3
290.10 508.63 0.43 c p3
290.24 508.31 0.43 c p3
290.39 508.31 0.43 c p3
290.53 508.31 0.43 c p3
290.68 507.96 0.43 c p3
290.83 507.96 0.43 c p3
290.97 508.41 0.43 c p3
291.12 508.18 0.43 c p3
291.26 508.53 0.43 c p3
291.41 507.96 0.43 c p3
291.55 507.28 0.43 c p3
291.70 506.73 0.43 c p3
291.84 507.41 0.43 c p3
291.99 508.31 0.43 c p3
292.14 508.41 0.43 c p3
292.28 508.08 0.43 c p3
292.43 508.08 0.43 c p3
292.57 507.86 0.43 c p3
292.72 507.18 0.43 c p3
292.86 507.96 0.43 c p3
293.01 507.96 0.43 c p3
293.16 508.41 0.43 c p3
293.30 508.41 0.43 c p3
293.45 507.96 0.43 c p3
293.59 507.96 0.43 c p3
293.74 508.53 0.43 c p3
293.88 507.18 0.43 c p3
294.03 508.08 0.43 c p3
294.17 508.18 0.43 c p3
294.32 507.96 0.43 c p3
294.47 508.08 0.43 c p3
294.61 507.96 0.43 c p3
294.76 507.73 0.43 c p3
294.90 507.18 0.43 c p3
295.05 507.73 0.43 c p3
295.19 507.96 0.43 c p3
295.34 508.08 0.43 c p3
295.48 507.73 0.43 c p3
295.63 507.96 0.43 c p3
295.78 507.73 0.43 c p3
295.92 508.08 0.43 c p3
296.07 507.41 0.43 c p3
296.21 507.63 0.43 c p3
296.36 508.08 0.43 c p3
296.50 507.96 0.43 c p3
296.65 507.96 0.43 c p3
296.79 507.41 0.43 c p3
296.94 506.96 0.43 c p3
297.09 507.63 0.43 c p3
297.23 508.18 0.43 c p3
297.38 507.96 0.43 c p3
297.52 507.28 0.43 c p3
297.67 507.63 0.43 c p3
297.81 507.51 0.43 c p3
297.96 506.83 0.43 c p3
298.11 507.28 0.43 c p3
298.25 507.28 0.43 c p3
298.40 507.96 0.43 c p3
298.54 508.63 0.43 c p3
298.69 508.08 0.43 c p3
298.83 507.73 0.43 c p3
298.98 507.73 0.43 c p3
299.12 507.28 0.43 c p3
299.27 507.41 0.43 c p3
299.42 508.18 0.43 c p3
299.56 507.96 0.43 c p3
299.71 507.73 0.43 c p3
299.85 507.86 0.43 c p3
300.00 507.86 0.43 c p3
300.14 507.73 0.43 c p3
300.29 507.41 0.43 c p3
300.43 507.18 0.43 c p3
300.58 507.86 0.43 c p3
300.73 508.18 0.43 c p3
300.87 507.63 0.43 c p3
301.02 507.63 0.43 c p3
301.16 507.63 0.43 c p3
301.31 507.51 0.43 c p3
301.45 507.51 0.43 c p3
301.60 507.96 0.43 c p3
301.74 508.41 0.43 c p3
301.89 508.08 0.43 c p3
302.04 508.08 0.43 c p3
302.18 508.08 0.43 c p3
302.33 507.73 0.43 c p3
302.47 507.41 0.43 c p3
302.62 507.51 0.43 c p3
302.76 508.41 0.43 c p3
302.91 507.51 0.43 c p3
303.06 507.51 0.43 c p3
303.20 508.18 0.43 c p3
303.35 507.28 0.43 c p3
303.49 506.96 0.43 c p3
303.64 507.63 0.43 c p3
303.78 508.18 0.43 c p3
303.93 507.96 0.43 c p3
304.07 507.73 0.43 c p3
304.22 507.28 0.43 c p3
304.37 507.73 0.43 c p3
304.51 507.73 0.43 c p3
304.66 507.28 0.43 c p3
304.80 507.86 0.43 c p3
304.95 508.18 0.43 c p3
305.09 507.86 0.43 c p3
305.24 507.41 0.43 c p3
305.38 507.51 0.43 c p3
305.53 507.06 0.43 c p3
305.68 506.83 0.43 c p3
305.82 507.41 0.43 c p3
305.97 507.86 0.43 c p3
306.11 507.73 0.43 c p3
306.26 507.63 0.43 c p3
306.40 507.63 0.43 c p3
306.55 507.18 0.43 c p3
306.69 506.96 0.43 c p3
306.84 507.28 0.43 c p3
306.99 507.63 0.43 c p3
307.13 507.63 0.43 c p3
307.28 507.28 0.43 c p3
307.42 507.96 0.43 c p3
307.57 507.63 0.43 c p3
307.71 507.18 0.43 c p3
307.86 507.18 0.43 c p3
308.01 507.96 0.43 c p3
308.15 507.51 0.43 c p3
308.30 508.08 0.43 c p3
308.44 507.63 0.43 c p3
308.59 507.51 0.43 c p3
308.73 507.28 0.43 c p3
308.88 507.18 0.43 c p3
309.02 507.28 0.43 c p3
309.17 507.28 0.43 c p3
309.32 507.63 0.43 c p3
309.46 507.41 0.43 c p3
309.61 507.28 0.43 c p3
309.75 507.41 0.43 c p3
309.90 507.06 0.43 c p3
310.04 507.28 0.43 c p3
310.19 507.63 0.43 c p3
310.33 507.51 0.43 c p3
310.48 508.08 0.43 c p3
310.63 507.51 0.43 c p3
310.77 507.51 0.43 c p3
310.92 507.51 0.43 c p3
311.06 507.06 0.43 c p3
311.21 507.73 0.43 c p3
311.35 507.96 0.43 c p3
311.50 507.86 0.43 c p3
311.64 507.73 0.43 c p3
311.79 507.41 0.43 c p3
311.94 507.51 0.43 c p3
312.08 507.41 0.43 c p3
312.23 507.28 0.43 c p3
312.37 507.51 0.43 c p3
312.52 507.06 0.43 c p3
312.66 507.18 0.43 c p3
312.81 507.06 0.43 c p3
312.96 507.28 0.43 c p3
313.10 507.06 0.43 c p3
313.25 507.63 0.43 c p3
313.39 507.96 0.43 c p3
313.54 508.08 0.43 c p3
313.68 507.51 0.43 c p3
313.83 507.41 0.43 c p3
313.97 507.18 0.43 c p3
314.12 507.28 0.43 c p3
314.27 507.63 0.43 c p3
314.41 507.73 0.43 c p3
314.56 507.63 0.43 c p3
314.70 507.63 0.43 c p3
314.85 507.06 0.43 c p3
314.99 507.18 0.43 c p3
315.14 507.28 0.43 c p3
315.28 507.06 0.43 c p3
315.43 507.51 0.43 c p3
315.58 507.51 0.43 c p3
315.72 507.51 0.43 c p3
315.87 507.51 0.43 c p3
316.01 507.63 0.43 c p3
316.16 507.86 0.43 c p3
316.30 507.41 0.43 c p3
316.45 507.41 0.43 c p3
316.59 507.73 0.43 c p3
316.74 508.08 0.43 c p3
316.89 507.86 0.43 c p3
317.03 507.28 0.43 c p3
317.18 507.28 0.43 c p3
317.32 507.06 0.43 c p3
317.47 506.96 0.43 c p3
317.61 507.28 0.43 c p3
317.76 507.51 0.43 c p3
317.91 507.18 0.43 c p3
318.05 507.18 0.43 c p3
318.20 507.41 0.43 c p3
318.34 506.73 0.43 c p3
318.49 506.83 0.43 c p3
318.63 507.18 0.43 c p3
318.78 507.86 0.43 c p3
318.92 507.63 0.43 c p3
319.07 507.18 0.43 c p3
319.22 507.41 0.43 c p3
319.36 507.41 0.43 c p3
319.51 507.41 0.43 c p3
319.65 507.18 0.43 c p3
319.80 507.73 0.43 c p3
319.94 507.73 0.43 c p3
320.09 508.41 0.43 c p3
320.23 507.51 0.43 c p3
320.38 507.41 0.43 c p3
320.53 506.61 0.43 c p3
320.67 506.96 0.43 c p3
320.82 507.06 0.43 c p3
320.96 507.73 0.43 c p3
321.11 507.28 0.43 c p3
321.25 506.96 0.43 c p3
321.40 507.28 0.43 c p3
321.54 507.28 0.43 c p3
321.69 506.96 0.43 c p3
321.84 506.83 0.43 c p3
321.98 507.18 0.43 c p3
322.13 507.63 0.43 c p3
322.27 507.63 0.43 c p3
322.42 508.08 0.43 c p3
322.56 507.73 0.43 c p3
322.71 507.28 0.43 c p3
322.85 507.18 0.43 c p3
323.00 507.28 0.43 c p3
323.15 507.41 0.43 c p3
323.29 507.63 0.43 c p3
323.44 507.28 0.43 c p3
323.58 507.06 0.43 c p3
323.73 507.06 0.43 c p3
323.87 507.06 0.43 c p3
324.02 507.18 0.43 c p3
324.17 507.18 0.43 c p3
324.31 507.63 0.43 c p3
324.46 506.96 0.43 c p3
324.60 507.06 0.43 c p3
324.75 507.06 0.43 c p3
324.89 506.73 0.43 c p3
325.04 507.51 0.43 c p3
325.18 508.18 0.43 c p3
325.33 507.51 0.43 c p3
325.48 507.73 0.43 c p3
325.62 507.51 0.43 c p3
325.77 507.28 0.43 c p3
325.91 507.41 0.43 c p3
326.06 507.18 0.43 c p3
326.20 507.96 0.43 c p3
326.35 507.73 0.43 c p3
326.49 507.41 0.43 c p3
326.64 507.51 0.43 c p3
326.79 507.18 0.43 c p3
326.93 507.28 0.43 c p3
327.08 506.73 0.43 c p3
327.22 507.73 0.43 c p3
327.37 507.41 0.43 c p3
327.51 507.41 0.43 c p3
327.66 507.41 0.43 c p3
327.80 507.41 0.43 c p3
327.95 507.28 0.43 c p3
328.10 507.18 0.43 c p3
328.24 507.51 0.43 c p3
328.39 507.73 0.43 c p3
328.53 507.96 0.43 c p3
328.68 507.28 0.43 c p3
328.82 507.06 0.43 c p3
328.97 506.83 0.43 c p3
329.12 507.06 0.43 c p3
329.26 507.06 0.43 c p3
329.41 507.41 0.43 c p3
329.55 507.28 0.43 c p3
329.70 507.18 0.43 c p3
329.84 507.18 0.43 c p3
329.99 507.18 0.43 c p3
330.13 507.06 0.43 c p3
330.28 506.73 0.43 c p3
330.43 507.63 0.43 c p3
330.57 507.63 0.43 c p3
330.72 507.51 0.43 c p3
330.86 507.63 0.43 c p3
331.01 507.06 0.43 c p3
331.15 507.41 0.43 c p3
331.30 506.73 0.43 c p3
331.44 507.51 0.43 c p3
331.59 507.86 0.43 c p3
331.74 507.96 0.43 c p3
331.88 507.28 0.43 c p3
332.03 507.06 0.43 c p3
332.17 507.06 0.43 c p3
332.32 507.18 0.43 c p3
332.46 506.96 0.43 c p3
332.61 507.28 0.43 c p3
332.75 507.86 0.43 c p3
332.90 507.63 0.43 c p3
333.05 507.18 0.43 c p3
333.19 507.63 0.43 c p3
333.34 507.63 0.43 c p3
333.48 506.83 0.43 c p3
333.63 507.41 0.43 c p3
333.77 508.08 0.43 c p3
333.92 507.86 0.43 c p3
334.07 507.28 0.43 c p3
334.21 507.51 0.43 c p3
334.36 507.41 0.43 c p3
334.50 507.18 0.43 c p3
334.65 506.96 0.43 c p3
334.79 507.41 0.43 c p3
334.94 507.73 0.43 c p3
335.08 507.51 0.43 c p3
335.23 506.96 0.43 c p3
335.38 506.96 0.43 c p3
335.52 506.61 0.43 c p3
335.67 507.41 0.43 c p3
335.81 507.51 0.43 c p3
335.96 507.51 0.43 c p3
336.10 507.06 0.43 c p3
336.25 506.61 0.43 c p3
336.39 507.63 0.43 c p3
336.54 507.06 0.43 c p3
336.69 507.18 0.43 c p3
336.83 507.41 0.43 c p3
336.98 508.08 0.43 c p3
337.12 507.73 0.43 c p3
337.27 507.18 0.43 c p3
337.41 507.51 0.43 c p3
337.56 507.41 0.43 c p3
337.70 507.41 0.43 c p3
337.85 507.06 0.43 c p3
338.00 507.86 0.43 c p3
338.14 507.86 0.43 c p3
338.29 507.51 0.43 c p3
338.43 506.96 0.43 c p3
338.58 507.51 0.43 c p3
338.72 506.83 0.43 c p3
338.87 507.06 0.43 c p3
339.02 507.41 0.43 c p3
339.16 507.73 0.43 c p3
339.31 507.51 0.43 c p3
339.45 507.63 0.43 c p3
339.60 506.83 0.43 c p3
339.74 507.28 0.43 c p3
339.89 507.28 0.43 c p3
340.03 507.73 0.43 c p3
340.18 507.73 0.43 c p3
340.33 507.86 0.43 c p3
340.47 507.63 0.43 c p3
340.62 507.28 0.43 c p3
340.76 507.63 0.43 c p3
340.91 507.18 0.43 c p3
341.05 506.73 0.43 c p3
341.20 507.73 0.43 c p3
341.34 507.73 0.43 c p3
341.49 507.06 0.43 c p3
341.64 507.06 0.43 c p3
341.78 507.06 0.43 c p3
341.93 507.18 0.43 c p3
342.07 507.51 0.43 c p3
342.22 507.18 0.43 c p3
342.36 507.63 0.43 c p3
342.51 508.08 0.43 c p3
342.65 507.63 0.43 c p3
342.80 507.41 0.43 c p3
342.95 507.51 0.43 c p3
343.09 507.18 0.43 c p3
343.24 507.41 0.43 c p3
343.38 507.73 0.43 c p3
343.53 508.08 0.43 c p3
343.67 508.18 0.43 c p3
343.82 507.06 0.43 c p3
343.97 507.28 0.43 c p3
344.11 507.28 0.43 c p3
344.26 507.28 0.43 c p3
344.40 507.63 0.43 c p3
344.55 507.41 0.43 c p3
344.69 507.63 0.43 c p3
344.84 507.28 0.43 c p3
344.98 507.18 0.43 c p3
345.13 506.96 0.43 c p3
345.28 507.51 0.43 c p3
345.42 507.41 0.43 c p3
345.57 507.73 0.43 c p3
345.71 507.86 0.43 c p3
345.86 507.73 0.43 c p3
346.00 507.73 0.43 c p3
346.15 507.18 0.43 c p3
346.29 506.61 0.43 c p3
346.44 507.51 0.43 c p3
346.59 507.51 0.43 c p3
346.73 507.86 0.43 c p3
346.88 507.86 0.43 c p3
347.02 507.06 0.43 c p3
347.17 507.06 0.43 c p3
347.31 507.18 0.43 c p3
347.46 507.18 0.43 c p3
347.60 507.51 0.43 c p3
347.75 507.73 0.43 c p3
347.90 507.41 0.43 c p3
348.04 507.06 0.43 c p3
348.19 507.86 0.43 c p3
348.33 507.51 0.43 c p3
348.48 507.41 0.43 c p3
348.62 507.51 0.43 c p3
348.77 507.86 0.43 c p3
348.92 508.08 0.43 c p3
349.06 507.41 0.43 c p3
349.21 507.41 0.43 c p3
349.35 507.63 0.43 c p3
349.50 506.83 0.43 c p3
349.64 507.51 0.43 c p3
349.79 507.18 0.43 c p3
349.93 507.51 0.43 c p3
350.08 507.28 0.43 c p3
350.23 506.96 0.43 c p3
350.37 506.83 0.43 c p3
350.52 506.96 0.43 c p3
350.66 506.83 0.43 c p3
350.81 507.63 0.43 c p3
350.95 507.86 0.43 c p3
351.10 507.63 0.43 c p3
351.24 506.83 0.43 c p3
351.39 507.51 0.43 c p3
351.54 507.28 0.43 c p3
351.68 506.83 0.43 c p3
351.83 507.86 0.43 c p3
351.97 508.08 0.43 c p3
352.12 508.41 0.43 c p3
352.26 507.51 0.43 c p3
352.41 507.51 0.43 c p3
352.55 506.96 0.43 c p3
352.70 507.06 0.43 c p3
352.85 507.18 0.43 c p3
352.99 507.51 0.43 c p3
353.14 507.86 0.43 c p3
353.28 507.51 0.43 c p3
353.43 507.28 0.43 c p3
353.57 507.41 0.43 c p3
353.72 507.28 0.43 c p3
353.86 506.83 0.43 c p3
354.01 507.28 0.43 c p3
354.16 507.86 0.43 c p3
354.30 507.63 0.43 c p3
354.45 507.73 0.43 c p3
354.59 507.28 0.43 c p3
354.74 507.28 0.43 c p3
354.88 507.06 0.43 c p3
355.03 507.06 0.43 c p3
355.18 507.41 0.43 c p3
355.32 507.51 0.43 c p3
355.47 507.63 0.43 c p3
355.61 507.28 0.43 c p3
355.76 507.06 0.43 c p3
355.90 507.63 0.43 c p3
356.05 507.28 0.43 c p3
356.19 507.18 0.43 c p3
356.34 507.86 0.43 c p3
356.49 507.73 0.43 c p3
356.63 507.18 0.43 c p3
356.78 507.28 0.43 c p3
356.92 507.73 0.43 c p3
357.07 507.06 0.43 c p3
357.21 507.51 0.43 c p3
357.36 507.86 0.43 c p3
357.50 508.08 0.43 c p3
357.65 507.63 0.43 c p3
357.80 507.51 0.43 c p3
357.94 507.96 0.43 c p3
358.09 507.51 0.43 c p3
358.23 507.73 0.43 c p3
358.38 507.41 0.43 c p3
358.52 507.41 0.43 c p3
358.67 506.96 0.43 c p3
358.81 506.73 0.43 c p3
358.96 506.73 0.43 c p3
359.11 507.06 0.43 c p3
359.25 507.18 0.43 c p3
359.40 507.41 0.43 c p3
359.54 507.73 0.43 c p3
359.69 507.63 0.43 c p3
359.83 507.18 0.43 c p3
359.98 507.63 0.43 c p3
360.13 507.63 0.43 c p3
360.27 507.41 0.43 c p3
360.42 507.51 0.43 c p3
360.56 508.08 0.43 c p3
360.71 507.96 0.43 c p3
360.85 507.73 0.43 c p3
361.00 507.41 0.43 c p3
361.14 507.28 0.43 c p3
361.29 507.63 0.43 c p3
361.44 507.18 0.43 c p3
361.58 507.51 0.43 c p3
361.73 507.51 0.43 c p3
361.87 507.73 0.43 c p3
362.02 507.28 0.43 c p3
362.16 507.06 0.43 c p3
362.31 507.28 0.43 c p3
362.45 506.96 0.43 c p3
362.60 507.63 0.43 c p3
362.75 507.63 0.43 c p3
362.89 507.86 0.43 c p3
363.04 507.41 0.43 c p3
363.18 507.73 0.43 c p3
363.33 507.28 0.43 c p3
363.47 507.63 0.43 c p3
363.62 507.63 0.43 c p3
363.76 508.08 0.43 c p3
363.91 507.51 0.43 c p3
364.06 507.51 0.43 c p3
364.20 507.41 0.43 c p3
364.35 507.06 0.43 c p3
364.49 506.83 0.43 c p3
364.64 507.41 0.43 c p3
364.78 507.28 0.43 c p3
364.93 507.63 0.43 c p3
365.08 507.73 0.43 c p3
365.22 507.51 0.43 c p3
365.37 507.28 0.43 c p3
365.51 507.06 0.43 c p3
365.66 507.06 0.43 c p3
365.80 507.51 0.43 c p3
365.95 507.41 0.43 c p3
366.09 507.86 0.43 c p3
366.24 508.18 0.43 c p3
366.39 507.51 0.43 c p3
366.53 507.63 0.43 c p3
366.68 507.63 0.43 c p3
366.82 507.73 0.43 c p3
366.97 507.63 0.43 c p3
367.11 508.08 0.43 c p3
367.26 507.96 0.43 c p3
367.40 507.28 0.43 c p3
367.55 506.73 0.43 c p3
367.70 507.06 0.43 c p3
367.84 507.41 0.43 c p3
367.99 507.63 0.43 c p3
368.13 507.28 0.43 c p3
368.28 507.63 0.43 c p3
368.42 507.28 0.43 c p3
368.57 507.73 0.43 c p3
368.71 507.28 0.43 c p3
368.86 507.18 0.43 c p3
369.01 507.51 0.43 c p3
369.15 508.08 0.43 c p3
369.30 507.86 0.43 c p3
369.44 507.63 0.43 c p3
369.59 507.51 0.43 c p3
369.73 507.28 0.43 c p3
369.88 507.51 0.43 c p3
370.03 507.41 0.43 c p3
370.17 507.73 0.43 c p3
370.32 507.96 0.43 c p3
370.46 507.51 0.43 c p3
370.61 507.28 0.43 c p3
370.75 507.18 0.43 c p3
370.90 507.41 0.43 c p3
371.04 507.18 0.43 c p3
371.19 507.41 0.43 c p3
371.34 507.86 0.43 c p3
371.48 507.86 0.43 c p3
371.63 507.63 0.43 c p3
371.77 507.63 0.43 c p3
371.92 507.28 0.43 c p3
372.06 507.63 0.43 c p3
372.21 507.06 0.43 c p3
372.35 507.96 0.43 c p3
372.50 507.73 0.43 c p3
372.65 507.28 0.43 c p3
372.79 507.28 0.43 c p3
372.94 507.51 0.43 c p3
373.08 506.83 0.43 c p3
373.23 506.83 0.43 c p3
373.37 507.73 0.43 c p3
373.52 507.51 0.43 c p3
373.66 508.08 0.43 c p3
373.81 507.63 0.43 c p3
373.96 507.41 0.43 c p3
374.10 507.41 0.43 c p3
374.25 507.41 0.43 c p3
374.39 507.18 0.43 c p3
374.54 507.73 0.43 c p3
374.68 507.86 0.43 c p3
374.83 507.41 0.43 c p3
374.98 507.28 0.43 c p3
375.12 507.51 0.43 c p3
375.27 507.41 0.43 c p3
375.41 507.28 0.43 c p3
375.56 507.73 0.43 c p3
375.70 507.51 0.43 c p3
375.85 507.73 0.43 c p3
375.99 507.28 0.43 c p3
376.14 507.63 0.43 c p3
376.29 507.06 0.43 c p3
376.43 506.96 0.43 c p3
376.58 507.63 0.43 c p3
376.72 508.08 0.43 c p3
376.87 507.63 0.43 c p3
377.01 507.73 0.43 c p3
377.16 507.28 0.43 c p3
377.30 507.41 0.43 c p3
377.45 507.06 0.43 c p3
377.60 507.63 0.43 c p3
377.74 508.18 0.43 c p3
377.89 507.96 0.43 c p3
378.03 507.86 0.43 c p3
378.18 507.51 0.43 c p3
378.32 507.51 0.43 c p3
378.47 507.51 0.43 c p3
378.61 507.06 0.43 c p3
378.76 507.18 0.43 c p3
378.91 507.86 0.43 c p3
379.05 507.73 0.43 c p3
379.20 507.41 0.43 c p3
379.34 507.51 0.43 c p3
379.49 507.28 0.43 c p3
379.63 506.83 0.43 c p3
379.78 507.41 0.43 c p3
379.93 508.08 0.43 c p3
380.07 508.31 0.43 c p3
380.22 507.28 0.43 c p3
380.36 508.08 0.43 c p3
380.51 507.18 0.43 c p3
380.65 507.28 0.43 c p3
380.80 507.18 0.43 c p3
380.94 507.96 0.43 c p3
381.09 507.96 0.43 c p3
381.24 507.73 0.43 c p3
381.38 507.41 0.43 c p3
381.53 507.51 0.43 c p3
381.67 507.18 0.43 c p3
381.82 507.73 0.43 c p3
381.96 507.73 0.43 c p3
382.11 507.51 0.43 c p3
382.25 507.63 0.43 c p3
382.40 507.28 0.43 c p3
0.00 0.00 432.00 576.00 cl
0 0 0 srgb
0.75 setlinewidth
[] 0 setdash
1 setlinecap
1 setlinejoin
10.00 setmiterlimit
np
236.96 345.60 m
145.59 0 l
o
np
236.96 345.60 m
0 -5.76 l
o
np
266.08 345.60 m
0 -5.76 l
o
np
295.19 345.60 m
0 -5.76 l
o
np
324.31 345.60 m
0 -5.76 l
o
np
353.43 345.60 m
0 -5.76 l
o
np
382.55 345.60 m
0 -5.76 l
o
/Font1 findfont 10 s
236.96 329.47 (0) .5 0 t
266.08 329.47 (200) .5 0 t
295.19 329.47 (400) .5 0 t
324.31 329.47 (600) .5 0 t
353.43 329.47 (800) .5 0 t
382.55 329.47 (1000) .5 0 t
np
216.00 352.00 m
0 153.36 l
o
np
216.00 352.00 m
-5.76 0 l
o
np
216.00 403.12 m
-5.76 0 l
o
np
216.00 454.24 m
-5.76 0 l
o
np
216.00 505.36 m
-5.76 0 l
o
209.09 348.41 (0.0) 1 0 t
209.09 399.53 (0.5) 1 0 t
209.09 450.65 (1.0) 1 0 t
209.09 501.77 (1.5) 1 0 t
np
216.00 345.60 m
172.80 0 l
0 172.80 l
-172.80 0 l
0 -172.80 l
o
0.00 0.00 432.00 576.00 cl
/Font1 findfont 10 s
0 0 0 srgb
302.40 313.34 (Zeit / ms \(total\)) .5 0 t
190.66 432.00 (U / V) .5 90 t
216.00 345.60 388.80 518.40 cl
0 0 0 srgb
0.38 setlinewidth
[ 1.12 1.88] 0 setdash
1 setlinecap
1 setlinejoin
10.00 setmiterlimit
np
223.86 345.60 m
0 172.80 l
o
np
234.77 345.60 m
0 172.80 l
o
np
238.71 345.60 m
0 172.80 l
o
np
265.06 345.60 m
0 172.80 l
o
86.40 57.60 388.80 288.00 cl
1 0 0 srgb
1.50 setlinewidth
[] 0 setdash
1 setlinecap
1 setlinejoin
10.00 setmiterlimit
np
97.60 279.47 m
1.41 -20.01 l
1.40 -18.12 l
1.41 -16.43 l
1.41 -14.89 l
1.41 -13.49 l
1.40 -12.23 l
1.41 -11.08 l
1.41 -10.04 l
1.40 -9.10 l
1.41 -8.25 l
1.41 -7.47 l
1.40 -6.77 l
1.41 -6.14 l
1.41 -5.56 l
1.41 -5.04 l
1.40 -4.57 l
1.41 -4.14 l
1.41 -3.75 l
1.40 -3.40 l
1.41 -3.08 l
1.41 -2.79 l
1.40 -2.53 l
1.41 -2.30 l
1.41 -2.07 l
1.41 -1.89 l
1.40 -1.70 l
1.41 -1.55 l
1.41 -1.40 l
1.40 -1.27 l
1.41 -1.15 l
1.41 -1.05 l
1.41 -0.94 l
1.40 -0.86 l
1.41 -0.77 l
1.41 -0.71 l
1.40 -0.63 l
1.41 -0.58 l
1.41 -0.53 l
1.40 -0.47 l
1.41 -0.43 l
1.41 -0.39 l
1.41 -0.35 l
1.40 -0.32 l
1.41 -0.29 l
1.41 -0.27 l
1.40 -0.23 l
1.41 -0.22 l
1.41 -0.20 l
1.40 -0.17 l
1.41 -0.16 l
1.41 -0.15 l
1.41 -0.13 l
1.40 -0.12 l
1.41 -0.11 l
1.41 -0.10 l
1.40 -0.09 l
1.41 -0.08 l
1.41 -0.07 l
1.41 -0.07 l
1.40 -0.06 l
1.41 -0.05 l
1.41 -0.05 l
1.40 -0.04 l
1.41 -0.05 l
1.41 -0.03 l
1.40 -0.04 l
1.41 -0.03 l
1.41 -0.02 l
1.41 -0.03 l
1.40 -0.02 l
1.41 -0.02 l
1.41 -0.02 l
1.40 -0.02 l
1.41 -0.01 l
1.41 -0.01 l
1.40 -0.02 l
1.41 -0.01 l
1.41 -0.01 l
1.41 -0.01 l
1.40 -0.01 l
1.41 0 l
1.41 -0.01 l
1.40 -0.01 l
1.41 0 l
1.41 -0.01 l
1.41 0 l
1.40 -0.01 l
1.41 0 l
1.41 0 l
1.40 -0.01 l
1.41 0 l
1.41 0 l
1.40 0 l
1.41 -0.01 l
1.41 0 l
1.41 0 l
1.40 0 l
1.41 0 l
1.41 0 l
238.30 66.14 lineto
1.41 0 l
1.41 0 l
1.40 0 l
1.41 0 l
1.41 0 l
1.41 0 l
1.40 0 l
1.41 0 l
1.41 0 l
1.40 0 l
1.41 0 l
1.41 0 l
1.40 0 l
1.41 0 l
1.41 0 l
1.41 0 l
1.40 0 l
1.41 0 l
1.41 0 l
1.40 -0.01 l
1.41 0 l
1.41 0 l
1.41 0 l
1.40 0 l
1.41 0 l
1.41 0 l
1.40 0 l
1.41 0 l
1.41 0 l
1.40 0 l
1.41 0 l
1.41 0 l
1.41 0 l
1.40 0 l
1.41 0 l
1.41 0 l
1.40 0 l
1.41 0 l
1.41 0 l
1.40 0 l
1.41 0 l
1.41 0 l
1.41 0 l
1.40 0 l
1.41 0 l
1.41 0 l
1.40 0 l
1.41 0 l
1.41 0 l
1.41 0 l
1.40 0 l
1.41 0 l
1.41 0 l
1.40 0 l
1.41 0 l
1.41 0 l
1.40 0 l
1.41 0 l
1.41 0 l
1.41 0 l
1.40 0 l
1.41 0 l
1.41 0 l
1.40 0 l
1.41 0 l
1.41 0 l
1.40 0 l
1.41 0 l
1.41 0 l
1.41 0 l
1.40 0 l
1.41 0 l
1.41 0 l
1.40 0 l
1.41 0 l
1.41 0 l
1.41 0 l
1.40 0 l
1.41 0 l
1.41 0 l
1.40 0 l
1.41 0 l
1.41 0 l
1.40 0 l
1.41 0 l
1.41 0 l
1.41 0 l
1.40 0 l
1.41 0 l
1.41 0 l
1.40 0 l
1.41 0 l
1.41 0 l
1.40 0 l
1.41 0 l
1.41 0 l
1.41 0 l
1.40 0 l
1.41 0 l
o
0.00 0.00 432.00 576.00 cl
0 0 0 srgb
0.75 setlinewidth
[] 0 setdash
1 setlinecap
1 setlinejoin
10.00 setmiterlimit
np
97.60 57.60 m
280.00 0 l
o
np
97.60 57.60 m
0 -5.76 l
o
np
153.60 57.60 m
0 -5.76 l
o
np
209.60 57.60 m
0 -5.76 l
o
np
265.60 57.60 m
0 -5.76 l
o
np
321.60 57.60 m
0 -5.76 l
o
np
377.60 57.60 m
0 -5.76 l
o
/Font1 findfont 10 s
97.60 41.47 (0) .5 0 t
153.60 41.47 (200) .5 0 t
209.60 41.47 (400) .5 0 t
265.60 41.47 (600) .5 0 t
321.60 41.47 (800) .5 0 t
377.60 41.47 (1000) .5 0 t
np
86.40 67.06 m
0 183.60 l
o
np
86.40 67.06 m
-5.76 0 l
o
np
86.40 112.96 m
-5.76 0 l
o
np
86.40 158.86 m
-5.76 0 l
o
np
86.40 204.76 m
-5.76 0 l
o
np
86.40 250.66 m
-5.76 0 l
o
79.49 63.47 (0.00) 1 0 t
79.49 109.37 (0.05) 1 0 t
79.49 155.27 (0.10) 1 0 t
79.49 201.17 (0.15) 1 0 t
79.49 247.07 (0.20) 1 0 t
np
86.40 57.60 m
302.40 0 l
0 230.40 l
-302.40 0 l
0 -230.40 l
o
0.00 0.00 432.00 576.00 cl
/Font1 findfont 10 s
0 0 0 srgb
237.60 13.82 (Zeit / ms \(nach Puls\)) .5 0 t
49.54 172.80 (Absorbanz A) .5 90 t
86.40 57.60 388.80 288.00 cl
/bg { 1 1 1 srgb } def
0 0 0 srgb
0.75 setlinewidth
[] 0 setdash
1 setlinecap
1 setlinejoin
10.00 setmiterlimit
101.24 230.08 0.65 c p3
101.52 228.01 0.65 c p3
101.80 220.51 0.65 c p3
102.08 219.23 0.65 c p3
102.36 218.04 0.65 c p3
102.64 217.59 0.65 c p3
102.92 214.77 0.65 c p3
103.20 207.96 0.65 c p3
103.48 207.96 0.65 c p3
103.76 201.61 0.65 c p3
104.04 199.60 0.65 c p3
104.32 197.69 0.65 c p3
104.60 197.69 0.65 c p3
104.88 196.13 0.65 c p3
105.16 194.58 0.65 c p3
105.44 190.73 0.65 c p3
105.72 185.40 0.65 c p3
106.00 185.40 0.65 c p3
106.28 182.39 0.65 c p3
106.56 179.81 0.65 c p3
106.84 177.58 0.65 c p3
107.12 178.73 0.65 c p3
107.40 175.77 0.65 c p3
107.68 172.83 0.65 c p3
107.96 170.23 0.65 c p3
108.24 168.05 0.65 c p3
108.52 165.97 0.65 c p3
108.80 163.41 0.65 c p3
109.08 161.99 0.65 c p3
109.36 163.81 0.65 c p3
109.64 160.56 0.65 c p3
109.92 158.12 0.65 c p3
110.20 154.61 0.65 c p3
110.48 152.82 0.65 c p3
110.76 152.82 0.65 c p3
111.04 148.74 0.65 c p3
111.32 149.74 0.65 c p3
111.60 147.36 0.65 c p3
111.88 145.99 0.65 c p3
112.16 143.26 0.65 c p3
112.44 142.20 0.65 c p3
112.72 141.22 0.65 c p3
113.00 138.82 0.65 c p3
113.28 137.85 0.65 c p3
113.56 135.55 0.65 c p3
113.84 135.84 0.65 c p3
114.12 136.81 0.65 c p3
114.40 134.21 0.65 c p3
114.68 131.56 0.65 c p3
114.96 129.22 0.65 c p3
115.24 128.93 0.65 c p3
115.52 127.62 0.65 c p3
115.80 123.35 0.65 c p3
116.08 123.71 0.65 c p3
116.36 124.00 0.65 c p3
116.64 123.35 0.65 c p3
116.92 122.71 0.65 c p3
117.20 120.20 0.65 c p3
117.48 118.56 0.65 c p3
117.76 116.65 0.65 c p3
118.04 116.37 0.65 c p3
118.32 115.73 0.65 c p3
118.60 115.38 0.65 c p3
118.88 115.73 0.65 c p3
119.16 115.10 0.65 c p3
119.44 112.85 0.65 c p3
119.72 109.43 0.65 c p3
120.00 109.43 0.65 c p3
120.28 108.81 0.65 c p3
120.56 108.81 0.65 c p3
120.84 109.15 0.65 c p3
121.12 108.53 0.65 c p3
121.40 105.70 0.65 c p3
121.68 104.19 0.65 c p3
121.96 103.57 0.65 c p3
122.24 103.57 0.65 c p3
122.52 101.12 0.65 c p3
122.80 101.39 0.65 c p3
123.08 103.23 0.65 c p3
123.36 101.12 0.65 c p3
123.64 100.50 0.65 c p3
123.92 98.07 0.65 c p3
124.20 97.12 0.65 c p3
124.48 98.34 0.65 c p3
124.76 98.07 0.65 c p3
125.04 97.46 0.65 c p3
125.32 96.25 0.65 c p3
125.60 96.52 0.65 c p3
125.88 95.38 0.65 c p3
126.16 94.44 0.65 c p3
126.44 92.37 0.65 c p3
126.72 92.37 0.65 c p3
127.00 93.84 0.65 c p3
127.28 92.64 0.65 c p3
127.56 90.58 0.65 c p3
127.84 91.44 0.65 c p3
128.12 89.65 0.65 c p3
128.40 89.39 0.65 c p3
128.68 90.84 0.65 c p3
128.96 89.65 0.65 c p3
129.24 88.46 0.65 c p3
129.52 88.20 0.65 c p3
129.80 86.10 0.65 c p3
130.08 87.28 0.65 c p3
130.36 86.43 0.65 c p3
130.64 86.69 0.65 c p3
130.92 86.10 0.65 c p3
131.20 86.10 0.65 c p3
131.48 84.33 0.65 c p3
131.76 84.66 0.65 c p3
132.04 84.66 0.65 c p3
132.32 83.75 0.65 c p3
132.60 83.49 0.65 c p3
132.88 84.07 0.65 c p3
133.16 82.64 0.65 c p3
133.44 82.32 0.65 c p3
133.72 82.06 0.65 c p3
134.00 81.73 0.65 c p3
134.28 81.15 0.65 c p3
134.56 81.73 0.65 c p3
134.84 81.48 0.65 c p3
135.12 81.48 0.65 c p3
135.40 79.41 0.65 c p3
135.68 79.41 0.65 c p3
135.96 79.99 0.65 c p3
136.24 80.57 0.65 c p3
136.52 81.48 0.65 c p3
136.80 80.31 0.65 c p3
137.08 78.83 0.65 c p3
137.36 78.83 0.65 c p3
137.64 76.52 0.65 c p3
137.92 78.25 0.65 c p3
138.20 77.42 0.65 c p3
138.48 78.83 0.65 c p3
138.76 79.41 0.65 c p3
139.04 78.57 0.65 c p3
139.32 76.27 0.65 c p3
139.60 77.42 0.65 c p3
139.88 75.69 0.65 c p3
140.16 76.84 0.65 c p3
140.44 76.27 0.65 c p3
140.72 76.84 0.65 c p3
141.00 77.42 0.65 c p3
141.28 76.52 0.65 c p3
141.56 75.37 0.65 c p3
141.84 75.95 0.65 c p3
142.12 76.52 0.65 c p3
142.40 75.95 0.65 c p3
142.68 74.54 0.65 c p3
142.96 76.84 0.65 c p3
143.24 75.12 0.65 c p3
143.52 74.54 0.65 c p3
143.80 73.08 0.65 c p3
144.08 74.54 0.65 c p3
144.36 74.80 0.65 c p3
144.64 74.80 0.65 c p3
144.92 74.54 0.65 c p3
145.20 75.95 0.65 c p3
145.48 74.23 0.65 c p3
145.76 73.97 0.65 c p3
146.04 73.08 0.65 c p3
146.32 73.97 0.65 c p3
146.60 73.65 0.65 c p3
146.88 74.23 0.65 c p3
147.16 74.23 0.65 c p3
147.44 73.65 0.65 c p3
147.72 73.40 0.65 c p3
148.00 73.65 0.65 c p3
148.28 72.83 0.65 c p3
148.56 74.23 0.65 c p3
148.84 72.51 0.65 c p3
149.12 74.54 0.65 c p3
149.40 72.26 0.65 c p3
149.68 71.12 0.65 c p3
149.96 71.94 0.65 c p3
150.24 73.40 0.65 c p3
150.52 73.40 0.65 c p3
150.80 72.83 0.65 c p3
151.08 72.83 0.65 c p3
151.36 72.51 0.65 c p3
151.64 71.69 0.65 c p3
151.92 71.38 0.65 c p3
216.00 201.60 367.20 247.68 cl
0 0 0 srgb
0.75 setlinewidth
[] 0 setdash
1 setlinecap
1 setlinejoin
10.00 setmiterlimit
221.60 220.28 0.43 c p1
222.37 223.80 0.43 c p1
223.15 210.42 0.43 c p1
223.92 215.95 0.43 c p1
224.69 221.60 0.43 c p1
225.47 229.31 0.43 c p1
226.24 229.60 0.43 c p1
227.01 217.43 0.43 c p1
227.79 226.02 0.43 c p1
228.56 214.94 0.43 c p1
229.33 217.04 0.43 c p1
230.11 219.27 0.43 c p1
230.88 227.21 0.43 c p1
231.66 230.22 0.43 c p1
232.43 233.10 0.43 c p1
233.20 228.76 0.43 c p1
233.98 219.74 0.43 c p1
234.75 226.94 0.43 c p1
235.52 224.75 0.43 c p1
236.30 223.76 0.43 c p1
237.07 223.70 0.43 c p1
237.84 233.91 0.43 c p1
238.62 231.33 0.43 c p1
239.39 228.70 0.43 c p1
240.16 227.01 0.43 c p1
240.94 226.47 0.43 c p1
241.71 226.10 0.43 c p1
242.48 224.19 0.43 c p1
243.26 225.60 0.43 c p1
244.03 236.91 0.43 c p1
244.80 232.51 0.43 c p1
245.58 230.49 0.43 c p1
246.35 225.06 0.43 c p1
247.12 224.84 0.43 c p1
247.90 230.00 0.43 c p1
248.67 222.52 0.43 c p1
249.45 230.55 0.43 c p1
250.22 228.13 0.43 c p1
250.99 228.68 0.43 c p1
251.77 224.98 0.43 c p1
252.54 226.32 0.43 c p1
253.31 227.81 0.43 c p1
254.09 224.86 0.43 c p1
254.86 226.20 0.43 c p1
255.63 223.37 0.43 c p1
256.41 228.44 0.43 c p1
257.18 235.49 0.43 c p1
257.95 231.52 0.43 c p1
258.73 227.30 0.43 c p1
259.50 223.95 0.43 c p1
260.27 226.83 0.43 c p1
261.05 226.50 0.43 c p1
261.82 217.03 0.43 c p1
262.59 221.69 0.43 c p1
263.37 226.06 0.43 c p1
264.14 227.49 0.43 c p1
264.91 228.86 0.43 c p1
265.69 224.46 0.43 c p1
266.46 222.65 0.43 c p1
267.24 219.94 0.43 c p1
268.01 222.17 0.43 c p1
268.78 223.26 0.43 c p1
269.56 225.16 0.43 c p1
270.33 229.17 0.43 c p1
271.10 230.09 0.43 c p1
271.88 226.00 0.43 c p1
272.65 218.26 0.43 c p1
273.42 220.96 0.43 c p1
274.20 221.69 0.43 c p1
274.97 224.29 0.43 c p1
275.74 227.91 0.43 c p1
276.52 228.49 0.43 c p1
277.29 222.25 0.43 c p1
278.06 220.01 0.43 c p1
278.84 220.48 0.43 c p1
279.61 222.79 0.43 c p1
280.38 217.51 0.43 c p1
281.16 220.57 0.43 c p1
281.93 228.41 0.43 c p1
282.70 224.05 0.43 c p1
283.48 224.27 0.43 c p1
284.25 218.84 0.43 c p1
285.03 217.96 0.43 c p1
285.80 223.66 0.43 c p1
286.57 224.77 0.43 c p1
287.35 224.81 0.43 c p1
288.12 222.95 0.43 c p1
288.89 225.60 0.43 c p1
289.67 223.89 0.43 c p1
290.44 222.77 0.43 c p1
291.21 218.14 0.43 c p1
291.99 219.83 0.43 c p1
292.76 225.99 0.43 c p1
293.53 223.93 0.43 c p1
294.31 219.20 0.43 c p1
295.08 223.41 0.43 c p1
295.85 219.45 0.43 c p1
296.63 220.14 0.43 c p1
297.40 226.08 0.43 c p1
298.17 223.87 0.43 c p1
298.95 221.64 0.43 c p1
299.72 222.22 0.43 c p1
300.50 217.12 0.43 c p1
301.27 222.09 0.43 c p1
302.04 220.78 0.43 c p1
302.82 222.87 0.43 c p1
303.59 222.31 0.43 c p1
304.36 223.55 0.43 c p1
305.14 219.34 0.43 c p1
305.91 221.53 0.43 c p1
306.68 222.69 0.43 c p1
307.46 221.03 0.43 c p1
308.23 221.35 0.43 c p1
309.00 224.25 0.43 c p1
309.78 220.93 0.43 c p1
310.55 220.99 0.43 c p1
311.32 221.23 0.43 c p1
312.10 221.25 0.43 c p1
312.87 220.45 0.43 c p1
313.64 223.22 0.43 c p1
314.42 223.38 0.43 c p1
315.19 224.32 0.43 c p1
315.96 218.89 0.43 c p1
316.74 219.80 0.43 c p1
317.51 222.46 0.43 c p1
318.29 225.12 0.43 c p1
319.06 228.75 0.43 c p1
319.83 226.01 0.43 c p1
320.61 222.27 0.43 c p1
321.38 223.08 0.43 c p1
322.15 216.77 0.43 c p1
322.93 222.86 0.43 c p1
323.70 221.05 0.43 c p1
324.47 226.13 0.43 c p1
325.25 228.64 0.43 c p1
326.02 226.79 0.43 c p1
326.79 220.40 0.43 c p1
327.57 224.62 0.43 c p1
328.34 219.99 0.43 c p1
329.11 224.18 0.43 c p1
329.89 223.06 0.43 c p1
330.66 225.47 0.43 c p1
331.43 227.86 0.43 c p1
332.21 225.72 0.43 c p1
332.98 222.78 0.43 c p1
333.75 225.13 0.43 c p1
334.53 227.48 0.43 c p1
335.30 226.27 0.43 c p1
336.08 222.52 0.43 c p1
336.85 230.12 0.43 c p1
337.62 225.35 0.43 c p1
338.40 224.12 0.43 c p1
339.17 220.14 0.43 c p1
339.94 225.13 0.43 c p1
340.72 226.40 0.43 c p1
341.49 226.88 0.43 c p1
342.26 226.57 0.43 c p1
343.04 231.35 0.43 c p1
343.81 226.52 0.43 c p1
344.58 226.18 0.43 c p1
345.36 223.89 0.43 c p1
346.13 227.05 0.43 c p1
346.90 226.49 0.43 c p1
347.68 228.66 0.43 c p1
348.45 229.06 0.43 c p1
349.22 227.71 0.43 c p1
350.00 227.31 0.43 c p1
350.77 228.48 0.43 c p1
351.54 226.32 0.43 c p1
352.32 230.97 0.43 c p1
353.09 226.07 0.43 c p1
353.87 232.66 0.43 c p1
354.64 225.99 0.43 c p1
355.41 222.84 0.43 c p1
356.19 225.69 0.43 c p1
356.96 230.49 0.43 c p1
357.73 230.81 0.43 c p1
358.51 229.37 0.43 c p1
359.28 229.68 0.43 c p1
360.05 229.01 0.43 c p1
360.83 226.78 0.43 c p1
361.60 226.10 0.43 c p1
0.00 0.00 432.00 576.00 cl
0 0 0 srgb
0.75 setlinewidth
[] 0 setdash
1 setlinecap
1 setlinejoin
10.00 setmiterlimit
np
250.22 201.60 m
116.02 0 l
o
np
250.22 201.60 m
0 -5.76 l
o
np
288.89 201.60 m
0 -5.76 l
o
np
327.57 201.60 m
0 -5.76 l
o
np
366.24 201.60 m
0 -5.76 l
o
/Font1 findfont 6 s
250.22 185.47 (50) .5 0 t
288.89 185.47 (100) .5 0 t
327.57 185.47 (150) .5 0 t
366.24 185.47 (200) .5 0 t
np
216.00 210.54 m
0 28.20 l
o
np
216.00 210.54 m
-5.76 0 l
o
np
216.00 224.64 m
-5.76 0 l
o
np
216.00 238.74 m
-5.76 0 l
o
209.09 208.39 (-0.005) 1 0 t
209.09 222.49 (0.000) 1 0 t
209.09 236.58 (0.005) 1 0 t
np
216.00 201.60 m
151.20 0 l
0 46.08 l
-151.20 0 l
0 -46.08 l
o
0.00 0.00 432.00 576.00 cl
/Font1 findfont 9 s
0 0 0 srgb
291.60 262.88 (Residuen) .5 0 t
59.04 73.44 401.76 516.96 cl
ep
%%Trailer
%%Pages: 1
%%EOF
