%!PS-Adobe-3.0 EPSF-3.0
%%DocumentNeededResources: font Helvetica
%%+ font Helvetica-Bold
%%+ font Helvetica-Oblique
%%+ font Helvetica-BoldOblique
%%+ font Symbol
%%Title: R Graphics Output
%%Creator: R Software
%%Pages: (atend)
%%BoundingBox: 0 0 432 576
%%EndComments
%%BeginProlog
/bp  { gs sRGB gs } def
% begin .ps.prolog
/gs  { gsave } bind def
/gr  { grestore } bind def
/ep  { showpage gr gr } bind def
/m   { moveto } bind def
/l  { rlineto } bind def
/np  { newpath } bind def
/cp  { closepath } bind def
/f   { fill } bind def
/o   { stroke } bind def
/c   { newpath 0 360 arc } bind def
/r   { 4 2 roll moveto 1 copy 3 -1 roll exch 0 exch rlineto 0 rlineto -1 mul 0 exch rlineto closepath } bind def
/p1  { stroke } bind def
/p2  { gsave bg fill grestore newpath } bind def
/p3  { gsave bg fill grestore stroke } bind def
/p6  { gsave bg eofill grestore newpath } bind def
/p7  { gsave bg eofill grestore stroke } bind def
/t   { 5 -2 roll moveto gsave rotate
       1 index stringwidth pop
       mul neg 0 rmoveto show grestore } bind def
/ta  { 4 -2 roll moveto gsave rotate show } bind def
/tb  { 2 -1 roll 0 rmoveto show } bind def
/cl  { grestore gsave newpath 3 index 3 index moveto 1 index
       4 -1 roll lineto  exch 1 index lineto lineto
       closepath clip newpath } bind def
/rgb { setrgbcolor } bind def
/s   { scalefont setfont } bind def
% end   .ps.prolog
/sRGB { [ /CIEBasedABC
          << /DecodeLMN
               [ { dup 0.03928 le
                        {12.92321 div}
                        {0.055 add 1.055 div 2.4 exp }
                     ifelse
                 } bind dup dup
               ]
             /MatrixLMN [0.412457 0.212673 0.019334
                         0.357576 0.715152 0.119192
                         0.180437 0.072175 0.950301]
             /WhitePoint [0.9505 1.0 1.0890]
           >>
         ] setcolorspace } bind def
/srgb { setcolor } bind def
%%IncludeResource: font Helvetica
/Helvetica findfont
dup length dict begin
  {1 index /FID ne {def} {pop pop} ifelse} forall
  /Encoding ISOLatin1Encoding def
  currentdict
  end
/Font1 exch definefont pop
%%IncludeResource: font Helvetica-Bold
/Helvetica-Bold findfont
dup length dict begin
  {1 index /FID ne {def} {pop pop} ifelse} forall
  /Encoding ISOLatin1Encoding def
  currentdict
  end
/Font2 exch definefont pop
%%IncludeResource: font Helvetica-Oblique
/Helvetica-Oblique findfont
dup length dict begin
  {1 index /FID ne {def} {pop pop} ifelse} forall
  /Encoding ISOLatin1Encoding def
  currentdict
  end
/Font3 exch definefont pop
%%IncludeResource: font Helvetica-BoldOblique
/Helvetica-BoldOblique findfont
dup length dict begin
  {1 index /FID ne {def} {pop pop} ifelse} forall
  /Encoding ISOLatin1Encoding def
  currentdict
  end
/Font4 exch definefont pop
%%IncludeResource: font Symbol
/Symbol findfont
dup length dict begin
  {1 index /FID ne {def} {pop pop} ifelse} forall
  currentdict
  end
/Font5 exch definefont pop
%%EndProlog
%%Page: 1 1
bp
0.00 0.00 432.00 576.00 cl
0.00 0.00 432.00 576.00 cl
0.00 0.00 432.00 576.00 cl
/Font1 findfont 12 s
0 0 0 srgb
48.00 508.72 (PCP-ETH) 0 0 t
48.00 494.89 (Blitzlicht-Photolyse) 0 0 t
/Font1 findfont 9 s
48.00 457.54 (File: Dy) 0 ta
-0.180 (e_0_1_V3_900V_35.dat) tb gr
48.00 334.87 (T) 0 ta
-1.080 (ue Apr  9 22:06:48 2019) tb gr
48.00 430.87 (Fitfunktion:  a + b * e) 0 ta
-0.270 (xp\(-c * t\)) tb gr
48.00 420.50 (t-Inter) 0 ta
0.270 (v) tb
-0.225 (all: 20.000 ... 198.000 ms) tb gr
48.00 410.14 (P) 0 ta
-0.360 (ar) tb
-0.090 (ameter \(Standardabw) tb
-0.090 (eichung\):) tb gr
48.00 399.77 (  a = 0.00060 \(0.00032\)) 0 0 t
48.00 389.40 (  b = 0.24269 \(0.00110\)) 0 0 t
48.00 379.03 (  c = 2.029e+01 \(1.544e-01\) s^-1) 0 0 t
48.00 368.66 (  tau = 4.929e-02 \(3.750e-04\) s) 0 0 t
216.00 345.60 388.80 518.40 cl
0 0 0 srgb
0.75 setlinewidth
[] 0 setdash
1 setlinecap
1 setlinejoin
10.00 setmiterlimit
np
222.40 511.55 m
0.15 -0.78 l
0.14 0.68 l
0.15 0 l
0.14 -0.13 l
0.15 0 l
0.14 0.13 l
0.15 0.10 l
0.14 -0.23 l
0.15 0.23 l
0.15 -0.55 l
0.14 0.22 l
0.15 -0.22 l
0.14 -0.13 l
0.15 0.23 l
0.14 0.12 l
0.15 -0.12 l
0.14 0.12 l
0.15 0.33 l
0.15 -0.90 l
0.14 0.80 l
0.15 0 l
0.14 -0.13 l
0.15 -0.22 l
0.14 0.67 l
0.15 -0.55 l
0.15 -0.22 l
0.14 0.32 l
0.15 0.13 l
0.14 -0.35 l
0.15 0 l
0.14 0.12 l
0.15 -0.57 l
0.14 0.67 l
0.15 -0.45 l
0.15 0.23 l
0.14 -0.10 l
0.15 0.45 l
0.14 -0.13 l
0.15 -0.22 l
0.14 0.57 l
0.15 -0.22 l
0.14 0 l
0.15 0.55 l
0.15 -0.78 l
0.14 0 l
0.15 0 l
0.14 -0.45 l
0.15 0.68 l
0.14 -0.35 l
0.15 0.57 l
0.14 -0.80 l
0.15 0.58 l
0.15 -0.35 l
0.14 -0.33 l
0.15 0.45 l
0.14 0.10 l
0.15 -0.32 l
0.14 0.22 l
0.15 0.45 l
0.15 -0.45 l
0.14 -0.35 l
0.15 0.45 l
0.14 -0.10 l
0.15 0.33 l
0.14 -0.55 l
0.15 0.45 l
0.14 -0.68 l
0.15 0.33 l
0.15 0 l
0.14 0.22 l
0.15 0 l
0.14 -0.22 l
0.15 0.35 l
0.14 -0.45 l
0.15 -0.13 l
0.14 0.80 l
0.15 -0.67 l
0.15 0.45 l
0.14 -0.13 l
0.15 0.13 l
0.14 -0.13 l
0.15 -0.22 l
0.14 0.45 l
0.15 -0.68 l
0.14 0.68 l
0.15 -0.33 l
0.15 0 l
0.14 0.33 l
0.15 -0.33 l
0.14 -0.12 l
0.15 0 l
0.14 0.35 l
0.15 0 l
0.15 -0.35 l
0.14 -0.45 l
0.15 0.22 l
0.14 0.13 l
0.15 0.10 l
0.14 0 l
236.96 438.80 lineto
0.14 4.92 l
0.15 2.61 l
0.15 1.13 l
0.14 1.55 l
0.15 1.25 l
0.14 1.13 l
0.15 0.77 l
0.14 1.58 l
0.15 -0.23 l
0.14 0.68 l
0.15 0.77 l
0.15 1.58 l
0.14 0.90 l
0.15 1.23 l
0.14 1.35 l
0.15 0.35 l
0.14 -0.35 l
0.15 1.02 l
0.14 1.00 l
0.15 0.45 l
0.15 1.58 l
0.14 1.13 l
0.15 0.10 l
0.14 0.45 l
0.15 1.02 l
0.14 0.10 l
0.15 0.78 l
0.15 0.90 l
0.14 1.35 l
0.15 0 l
0.14 0.90 l
0.15 0.80 l
0.14 0.32 l
0.15 0.56 l
0.14 0.45 l
0.15 1.25 l
0.15 0.45 l
0.14 1.35 l
0.15 0.65 l
0.14 -0.20 l
0.15 0.42 l
0.14 0.13 l
0.15 1.00 l
0.14 0.80 l
0.15 1.90 l
0.15 -0.67 l
0.14 0.80 l
0.15 0 l
0.14 0.32 l
0.15 0.23 l
0.14 0.22 l
0.15 1.58 l
0.14 0.67 l
0.15 0.78 l
0.15 -0.45 l
0.14 0.90 l
0.15 0.45 l
0.14 0.57 l
0.15 0 l
0.14 0.33 l
0.15 1.68 l
0.15 0.57 l
0.14 0 l
0.15 0.10 l
0.14 -0.10 l
0.15 0.23 l
0.14 0.55 l
0.15 0.57 l
0.14 1.45 l
0.15 0.23 l
0.15 -0.45 l
0.14 0.22 l
0.15 0.23 l
0.14 0.10 l
0.15 1.35 l
0.14 0.22 l
0.15 0.68 l
0.14 0.57 l
0.15 0.10 l
0.15 -0.22 l
0.14 0.67 l
0.15 -0.22 l
0.14 0.12 l
0.15 1.01 l
0.14 0.77 l
0.15 0.23 l
0.14 0 l
0.15 0 l
0.15 -0.23 l
0.14 0.45 l
0.15 0.23 l
0.14 0.90 l
0.15 1.12 l
0.14 -0.22 l
0.15 -0.23 l
0.15 0.23 l
0.14 -0.10 l
0.15 0.67 l
0.14 0.23 l
251.52 500.54 lineto
0.14 0.35 l
0.15 0.10 l
0.14 0.13 l
0.15 0 l
0.15 -0.23 l
0.14 0.68 l
0.15 0.77 l
0.14 -0.10 l
0.15 0.33 l
0.14 -0.23 l
0.15 -0.22 l
0.14 0.12 l
0.15 0.33 l
0.15 0 l
0.14 1.02 l
0.15 -0.22 l
0.14 0 l
0.15 0.55 l
0.14 0.13 l
0.15 -0.68 l
0.14 0.55 l
0.15 0.35 l
0.15 0 l
0.14 0.55 l
0.15 -0.10 l
0.14 0 l
0.15 -0.12 l
0.14 0.12 l
0.15 0.33 l
0.14 0.32 l
0.15 0.13 l
0.15 0.22 l
0.14 0.10 l
0.15 -0.32 l
0.14 0.32 l
0.15 0.23 l
0.14 0.22 l
0.15 0.23 l
0.15 -0.23 l
0.14 0.45 l
0.15 -0.55 l
0.14 -0.12 l
0.15 0.45 l
0.14 0.80 l
0.15 -0.80 l
0.14 -0.10 l
0.15 0.45 l
0.15 0.10 l
0.14 -0.55 l
0.15 0.55 l
0.14 -0.10 l
0.15 0.67 l
0.14 -0.57 l
0.15 -0.33 l
0.14 0.68 l
0.15 -0.45 l
0.15 0.55 l
0.14 0.45 l
0.15 0.22 l
0.14 -0.10 l
0.15 -0.12 l
0.14 0 l
0.15 -0.23 l
0.14 -0.10 l
0.15 0.68 l
0.15 0.10 l
0.14 0 l
0.15 -0.10 l
0.14 -0.58 l
0.15 0.13 l
0.14 0.10 l
0.15 0 l
0.15 0.45 l
0.14 0.57 l
0.15 -0.12 l
0.14 -0.23 l
0.15 -0.10 l
0.14 -0.35 l
0.15 0 l
0.14 0.35 l
0.15 0.45 l
0.15 -0.22 l
0.14 0.22 l
0.15 -0.12 l
0.14 -0.10 l
0.15 0 l
0.14 0.32 l
0.15 -0.22 l
0.14 0.12 l
0.15 -0.22 l
0.15 0.10 l
0.14 0 l
0.15 -0.68 l
0.14 0.45 l
0.15 0.23 l
0.14 0.22 l
0.15 -0.45 l
0.14 0.35 l
0.15 0.10 l
266.08 508.52 lineto
0.14 0.35 l
0.15 0.33 l
0.14 0.22 l
0.15 -0.10 l
0.14 -0.67 l
0.15 -0.23 l
0.15 0.78 l
0.14 -0.68 l
0.15 0.13 l
0.14 0.22 l
0.15 0.45 l
0.14 -0.45 l
0.15 -0.45 l
0.14 0.33 l
0.15 -0.68 l
0.15 0.58 l
0.14 0.45 l
0.15 0 l
0.14 0 l
0.15 -0.13 l
0.14 -0.10 l
0.15 0.10 l
0.14 -0.32 l
0.15 0 l
0.15 1.00 l
0.14 0.12 l
0.15 -0.45 l
0.14 -0.67 l
0.15 -0.45 l
0.14 0.10 l
0.15 0.22 l
0.14 0.45 l
0.15 0.13 l
0.15 -0.13 l
0.14 -0.32 l
0.15 0.10 l
0.14 -0.33 l
0.15 -0.12 l
0.14 0.45 l
0.15 0.57 l
0.15 0.45 l
0.14 -0.45 l
0.15 0.10 l
0.14 -0.90 l
0.15 -0.10 l
0.14 -0.12 l
0.15 0.90 l
0.14 0 l
0.15 0 l
0.15 -0.45 l
0.14 -0.55 l
0.15 0.45 l
0.14 -0.13 l
0.15 0 l
0.14 -0.10 l
0.15 0.45 l
0.14 -0.67 l
0.15 0.55 l
0.15 -0.10 l
0.14 -0.13 l
0.15 0.45 l
0.14 0.58 l
0.15 -0.68 l
0.14 0.10 l
0.15 -0.32 l
0.14 0.32 l
0.15 -0.55 l
0.15 0.23 l
0.14 -0.13 l
0.15 0.45 l
0.14 -0.32 l
0.15 0 l
0.14 -0.13 l
0.15 -0.22 l
0.15 -0.10 l
0.14 0.45 l
0.15 0.22 l
0.14 0.10 l
0.15 -0.55 l
0.14 0.23 l
0.15 -0.35 l
0.14 -0.45 l
0.15 0.80 l
0.15 -0.23 l
0.14 0.55 l
0.15 -0.67 l
0.14 0.45 l
0.15 -1.00 l
0.14 0.32 l
0.15 0.23 l
0.14 0.57 l
0.15 -0.35 l
0.15 0.45 l
0.14 -1.00 l
0.15 0 l
0.14 0.10 l
0.15 0 l
0.14 0.45 l
0.15 0.13 l
280.63 508.30 lineto
0.15 -0.23 l
0.15 0 l
0.14 0 l
0.15 0.13 l
0.14 0.10 l
0.15 0.35 l
0.14 -0.23 l
0.15 -0.35 l
0.15 -0.10 l
0.14 0.23 l
0.15 0 l
0.14 0.10 l
0.15 -0.45 l
0.14 1.25 l
0.15 -1.03 l
0.14 -0.45 l
0.15 0.68 l
0.15 -0.10 l
0.14 -0.45 l
0.15 1.00 l
0.14 -0.33 l
0.15 -0.22 l
0.14 -0.13 l
0.15 -0.10 l
0.14 0 l
0.15 -0.12 l
0.15 0.35 l
0.14 0.32 l
0.15 -0.45 l
0.14 -0.67 l
0.15 -0.55 l
0.14 0.32 l
0.15 0.35 l
0.14 0.45 l
0.15 0.33 l
0.15 0.35 l
0.14 -0.58 l
0.15 -0.32 l
0.14 0 l
0.15 0 l
0.14 0.45 l
0.15 -0.58 l
0.14 0.45 l
0.15 0.23 l
0.15 -0.23 l
0.14 -0.10 l
0.15 -0.90 l
0.14 0.33 l
0.15 0.35 l
0.14 0.55 l
0.15 -0.45 l
0.15 -0.23 l
0.14 -0.22 l
0.15 -0.23 l
0.14 0.23 l
0.15 0.12 l
0.14 0.33 l
0.15 -0.10 l
0.14 0.10 l
0.15 -0.10 l
0.15 0.10 l
0.14 -0.33 l
0.15 0 l
0.14 0.33 l
0.15 0.45 l
0.14 -0.55 l
0.15 0 l
0.14 -0.68 l
0.15 0.55 l
0.15 -0.22 l
0.14 -0.10 l
0.15 0.55 l
0.14 -0.55 l
0.15 0.10 l
0.14 0 l
0.15 0.12 l
0.14 -0.35 l
0.15 0.45 l
0.15 0.35 l
0.14 -0.22 l
0.15 0.22 l
0.14 -0.45 l
0.15 0.23 l
0.14 -0.58 l
0.15 0.23 l
0.15 0 l
0.14 0.22 l
0.15 0.45 l
0.14 -0.32 l
0.15 0.22 l
0.14 -0.80 l
0.15 0.35 l
0.14 -0.80 l
0.15 0.90 l
0.15 0.23 l
0.14 -0.23 l
0.15 -0.32 l
0.14 0.22 l
0.15 -0.22 l
295.19 507.30 lineto
0.15 -0.23 l
0.14 0.78 l
0.15 -0.10 l
0.15 -0.23 l
0.14 0.33 l
0.15 -0.55 l
0.14 -0.13 l
0.15 -0.10 l
0.14 0.45 l
0.15 0.45 l
0.14 -0.35 l
0.15 -0.55 l
0.15 0.10 l
0.14 -0.22 l
0.15 0.22 l
0.14 -0.55 l
0.15 0.90 l
0.14 0.33 l
0.15 -0.55 l
0.15 0.22 l
0.14 -0.22 l
0.15 0 l
0.14 -0.23 l
0.15 0.68 l
0.14 0 l
0.15 0.45 l
0.14 -0.45 l
0.15 -0.80 l
0.15 0.45 l
0.14 -0.45 l
0.15 0.35 l
0.14 0.10 l
0.15 0 l
0.14 0.12 l
0.15 -0.67 l
0.14 0.32 l
0.15 0.13 l
0.15 -0.23 l
0.14 0.45 l
0.15 0.45 l
0.14 -0.22 l
0.15 -0.35 l
0.14 0.45 l
0.15 -0.45 l
0.14 0.22 l
0.15 -0.55 l
0.15 0.23 l
0.14 0.45 l
0.15 -0.68 l
0.14 0.10 l
0.15 -0.10 l
0.14 -0.12 l
0.15 0 l
0.15 0 l
0.14 0.57 l
0.15 -0.35 l
0.14 -0.10 l
0.15 -0.45 l
0.14 0.78 l
0.15 -0.23 l
0.14 -0.10 l
0.15 0.45 l
0.15 -0.35 l
0.14 -0.10 l
0.15 0.10 l
0.14 -0.32 l
0.15 -0.45 l
0.14 0.45 l
0.15 0.32 l
0.14 0.23 l
0.15 -0.68 l
0.15 0.23 l
0.14 -0.10 l
0.15 -0.90 l
0.14 0.77 l
0.15 0.58 l
0.14 0.10 l
0.15 -0.10 l
0.14 0 l
0.15 -0.58 l
0.15 0.68 l
0.14 -0.45 l
0.15 0.67 l
0.14 -0.22 l
0.15 0.12 l
0.14 -0.12 l
0.15 -0.45 l
0.15 0.35 l
0.14 -0.35 l
0.15 -0.10 l
0.14 0.32 l
0.15 0.58 l
0.14 -0.80 l
0.15 0.80 l
0.14 -1.03 l
0.15 0.68 l
0.15 -0.45 l
0.14 0.12 l
0.15 0.23 l
309.75 507.07 lineto
0.15 0 l
0.14 0.23 l
0.15 -0.45 l
0.14 0 l
0.15 0.32 l
0.15 0 l
0.14 0.13 l
0.15 -0.23 l
0.14 0.23 l
0.15 -0.13 l
0.14 -0.45 l
0.15 0 l
0.14 0.35 l
0.15 0.45 l
0.15 0 l
0.14 -0.45 l
0.15 0.33 l
0.14 -0.33 l
0.15 -0.12 l
0.14 0 l
0.15 -0.10 l
0.15 1.00 l
0.14 -0.55 l
0.15 0.10 l
0.14 -0.45 l
0.15 0.12 l
0.14 -0.57 l
0.15 1.02 l
0.14 -0.35 l
0.15 -0.10 l
0.15 0 l
0.14 -0.35 l
0.15 0.13 l
0.14 -0.45 l
0.15 0.77 l
0.14 -0.45 l
0.15 0.58 l
0.14 -0.58 l
0.15 0.35 l
0.15 -0.22 l
0.14 0 l
0.15 0 l
0.14 0.67 l
0.15 0.33 l
0.14 -0.78 l
0.15 0 l
0.14 0.23 l
0.15 -0.45 l
0.15 -0.13 l
0.14 0.23 l
0.15 -0.33 l
0.14 0.68 l
0.15 -0.35 l
0.14 0.12 l
0.15 -0.22 l
0.15 -0.35 l
0.14 0.57 l
0.15 0.10 l
0.14 0.45 l
0.15 -0.22 l
0.14 -0.23 l
0.15 0.35 l
0.14 -0.90 l
0.15 0.23 l
0.15 -0.13 l
0.14 0.35 l
0.15 0.45 l
0.14 -0.45 l
0.15 0 l
0.14 0 l
0.15 -0.22 l
0.14 0.10 l
0.15 0.35 l
0.15 0 l
0.14 0.32 l
0.15 -0.77 l
0.14 0.10 l
0.15 -0.10 l
0.14 -0.35 l
0.15 1.02 l
0.14 -0.57 l
0.15 0.67 l
0.15 0.13 l
0.14 -0.45 l
0.15 -0.68 l
0.14 0.10 l
0.15 0.13 l
0.14 0.45 l
0.15 0.22 l
0.14 0 l
0.15 -0.35 l
0.15 -0.10 l
0.14 -0.35 l
0.15 0 l
0.14 0.35 l
0.15 0 l
0.14 0.10 l
0.15 -0.10 l
0.15 -0.45 l
324.31 506.72 lineto
0.15 0 l
0.14 -0.22 l
0.15 1.02 l
0.14 0.10 l
0.15 -0.22 l
0.14 -0.23 l
0.15 -0.22 l
0.15 0 l
0.14 -0.33 l
0.15 0.10 l
0.14 0.13 l
0.15 0.55 l
0.14 -0.55 l
0.15 0 l
0.14 -0.13 l
0.15 -0.10 l
0.15 0.10 l
0.14 0.23 l
0.15 0.57 l
0.14 0 l
0.15 -0.45 l
0.14 -0.12 l
0.15 0 l
0.14 -0.23 l
0.15 0.68 l
0.15 0 l
0.14 -0.33 l
0.15 -0.45 l
0.14 -0.12 l
0.15 0.22 l
0.14 -0.10 l
0.15 0.45 l
0.15 -0.12 l
0.14 0.22 l
0.15 -0.10 l
0.14 -0.57 l
0.15 0.22 l
0.14 0 l
0.15 0.35 l
0.14 0.33 l
0.15 -0.10 l
0.15 0.45 l
0.14 -0.90 l
0.15 -0.13 l
0.14 0.23 l
0.15 0.12 l
0.14 0.10 l
0.15 0.23 l
0.14 -0.55 l
0.15 -0.13 l
0.15 -0.10 l
0.14 0 l
0.15 -0.12 l
0.14 0.45 l
0.15 0.57 l
0.14 -0.22 l
0.15 -0.23 l
0.14 -0.22 l
0.15 0 l
0.15 0 l
0.14 0.22 l
0.15 0.90 l
0.14 -0.67 l
0.15 -0.13 l
0.14 0.35 l
0.15 -1.02 l
0.15 0.22 l
0.14 0 l
0.15 0.35 l
0.14 -0.12 l
0.15 0.12 l
0.14 -0.22 l
0.15 0.10 l
0.14 -0.45 l
0.15 0.35 l
0.15 0.32 l
0.14 -0.10 l
0.15 0.10 l
0.14 0 l
0.15 -0.10 l
0.14 -0.45 l
0.15 0.55 l
0.14 -0.22 l
0.15 0.12 l
0.15 0.23 l
0.14 -0.23 l
0.15 -0.22 l
0.14 -0.58 l
0.15 0.58 l
0.14 0.22 l
0.15 0.33 l
0.14 0 l
0.15 -0.55 l
0.15 -0.13 l
0.14 0.23 l
0.15 -0.10 l
0.14 0.55 l
0.15 0.22 l
0.14 -0.32 l
338.87 506.85 lineto
0.15 0 l
0.14 -0.13 l
0.15 0 l
0.14 0.68 l
0.15 -0.23 l
0.14 0.13 l
0.15 -0.58 l
0.14 0.13 l
0.15 0 l
0.15 0.10 l
0.14 0.22 l
0.15 -0.10 l
0.14 0.68 l
0.15 -0.13 l
0.14 -0.67 l
0.15 0.35 l
0.14 -0.68 l
0.15 0.33 l
0.15 -0.23 l
0.14 0.58 l
0.15 -0.13 l
0.14 -0.10 l
0.15 0.10 l
0.14 0.13 l
0.15 0.22 l
0.14 -0.22 l
0.15 0.10 l
0.15 -0.33 l
0.14 0.23 l
0.15 -0.35 l
0.14 0.22 l
0.15 -1.22 l
0.14 1.00 l
0.15 0.22 l
0.15 0.35 l
0.14 -0.35 l
0.15 0 l
0.14 0.23 l
0.15 -0.45 l
0.14 0 l
0.15 0.22 l
0.14 0.68 l
0.15 -0.68 l
0.15 -0.10 l
0.14 0.10 l
0.15 -0.67 l
0.14 0.22 l
0.15 -0.10 l
0.14 0.90 l
0.15 -0.35 l
0.14 -0.45 l
0.15 -0.32 l
0.15 0.10 l
0.14 0.12 l
0.15 0.10 l
0.14 1.03 l
0.15 -0.45 l
0.14 -0.23 l
0.15 -0.35 l
0.14 0.23 l
0.15 0.12 l
0.15 0.33 l
0.14 -0.23 l
0.15 0.68 l
0.14 -1.00 l
0.15 0.10 l
0.14 0 l
0.15 -0.10 l
0.15 -0.23 l
0.14 0.33 l
0.15 1.02 l
0.14 -0.67 l
0.15 -0.68 l
0.14 0.10 l
0.15 0.58 l
0.14 -0.58 l
0.15 0.58 l
0.15 0.22 l
0.14 0.10 l
0.15 -0.32 l
0.14 0 l
0.15 -0.35 l
0.14 0.12 l
0.15 -0.22 l
0.14 0.77 l
0.15 0 l
0.15 -1.00 l
0.14 0.23 l
0.15 0 l
0.14 -0.13 l
0.15 0 l
0.14 0.45 l
0.15 0.35 l
0.14 -0.67 l
0.15 0.45 l
0.15 -0.68 l
0.14 0.45 l
0.15 -0.22 l
0.14 0.67 l
353.43 507.52 lineto
0.14 -0.35 l
0.15 0 l
0.14 -0.32 l
0.15 -0.23 l
0.15 0.23 l
0.14 0.32 l
0.15 0.45 l
0.14 -0.10 l
0.15 -0.45 l
0.14 0.23 l
0.15 -0.68 l
0.15 -0.45 l
0.14 0.33 l
0.15 0.90 l
0.14 -0.10 l
0.15 0.10 l
0.14 -0.33 l
0.15 -0.22 l
0.14 -0.13 l
0.15 0.45 l
0.15 0.35 l
0.14 -0.22 l
0.15 0.22 l
0.14 -0.57 l
0.15 0.35 l
0.14 -0.23 l
0.15 0.10 l
0.14 0.23 l
0.15 -0.23 l
0.15 -0.10 l
0.14 0.10 l
0.15 -0.22 l
0.14 0.35 l
0.15 -0.45 l
0.14 0 l
0.15 0.67 l
0.14 -0.12 l
0.15 0.12 l
0.15 -0.22 l
0.14 -0.13 l
0.15 -0.22 l
0.14 0.45 l
0.15 0.45 l
0.14 -0.10 l
0.15 0 l
0.15 -0.58 l
0.14 0 l
0.15 -0.10 l
0.14 -0.12 l
0.15 0.35 l
0.14 -0.13 l
0.15 -0.32 l
0.14 -0.23 l
0.15 0.10 l
0.15 0 l
0.14 0.13 l
0.15 0.32 l
0.14 0.45 l
0.15 -0.45 l
0.14 0.13 l
0.15 -0.45 l
0.14 0 l
0.15 0.32 l
0.15 0.58 l
0.14 -0.23 l
0.15 -0.35 l
0.14 -0.22 l
0.15 0.22 l
0.14 -0.45 l
0.15 -0.10 l
0.14 0.78 l
0.15 0.12 l
0.15 -0.22 l
0.14 -0.23 l
0.15 0 l
0.14 -0.45 l
0.15 0.10 l
0.14 0.90 l
0.15 0 l
0.15 0 l
0.14 -0.45 l
0.15 0.13 l
0.14 -0.13 l
0.15 -0.45 l
0.14 0.23 l
0.15 0.35 l
0.14 0.22 l
0.15 0 l
0.15 -0.35 l
0.14 -0.45 l
0.15 -0.22 l
0.14 -0.23 l
0.15 0.80 l
0.14 0.33 l
0.15 0.12 l
0.14 0.10 l
0.15 -0.45 l
0.15 -0.10 l
0.14 -0.12 l
currentpoint o m
367.99 506.85 lineto
0.14 0.45 l
0.15 0.45 l
0.14 -0.13 l
0.15 -0.10 l
0.14 -0.35 l
0.15 -0.32 l
0.15 -0.23 l
0.14 0.78 l
0.15 0.12 l
0.14 -0.22 l
0.15 -0.13 l
0.14 -0.45 l
0.15 0.35 l
0.15 -0.45 l
0.14 -0.12 l
0.15 1.02 l
0.14 -0.35 l
0.15 0.45 l
0.14 -0.55 l
0.15 0.23 l
0.14 -0.45 l
0.15 0.45 l
0.15 0.22 l
0.14 0.23 l
0.15 0.55 l
0.14 -1.00 l
0.15 -0.35 l
0.14 0.12 l
0.15 -0.22 l
0.14 0.22 l
0.15 0.23 l
0.15 -0.23 l
0.14 0.23 l
0.15 -0.13 l
0.14 -0.45 l
0.15 -0.22 l
0.14 0.45 l
0.15 0.35 l
0.14 0.32 l
0.15 0.35 l
0.15 -0.12 l
0.14 -0.78 l
0.15 0.23 l
0.14 -0.35 l
0.15 0.22 l
0.14 0.68 l
0.15 -0.33 l
0.15 -0.45 l
0.14 0.10 l
0.15 0 l
0.14 -0.67 l
0.15 1.02 l
0.14 0.23 l
0.15 -0.35 l
0.14 -0.23 l
0.15 0 l
0.15 -0.67 l
0.14 0.67 l
0.15 -0.22 l
0.14 0.90 l
0.15 -0.45 l
0.14 0.45 l
0.15 -0.45 l
0.14 -0.33 l
0.15 -0.35 l
0.15 0.23 l
0.14 0 l
0.15 0.67 l
0.14 -0.45 l
0.15 0.13 l
0.14 0 l
0.15 0 l
0.14 -0.23 l
0.15 0.10 l
0.15 0.13 l
0.14 0.22 l
0.15 0.23 l
0.14 0.10 l
0.15 -0.78 l
0.14 -0.22 l
0.15 0.22 l
0.15 0.68 l
0.14 -0.23 l
0.15 0 l
0.14 -0.45 l
0.15 0.33 l
0.14 0 l
0.15 -0.45 l
0.14 0.12 l
0.15 0 l
0.15 0.68 l
0.14 -0.58 l
0.15 0.35 l
0.14 -0.57 l
0.15 -0.33 l
0.14 0.45 l
0.15 0.33 l
0.14 -0.45 l
0.15 0.12 l
o
/bg { 1 1 1 srgb } def
222.40 511.55 0.43 c p3
222.55 510.77 0.43 c p3
222.69 511.45 0.43 c p3
222.84 511.45 0.43 c p3
222.98 511.32 0.43 c p3
223.13 511.32 0.43 c p3
223.27 511.45 0.43 c p3
223.42 511.55 0.43 c p3
223.56 511.32 0.43 c p3
223.71 511.55 0.43 c p3
223.86 511.00 0.43 c p3
224.00 511.22 0.43 c p3
224.15 511.00 0.43 c p3
224.29 510.87 0.43 c p3
224.44 511.10 0.43 c p3
224.58 511.22 0.43 c p3
224.73 511.10 0.43 c p3
224.87 511.22 0.43 c p3
225.02 511.55 0.43 c p3
225.17 510.65 0.43 c p3
225.31 511.45 0.43 c p3
225.46 511.45 0.43 c p3
225.60 511.32 0.43 c p3
225.75 511.10 0.43 c p3
225.89 511.77 0.43 c p3
226.04 511.22 0.43 c p3
226.19 511.00 0.43 c p3
226.33 511.32 0.43 c p3
226.48 511.45 0.43 c p3
226.62 511.10 0.43 c p3
226.77 511.10 0.43 c p3
226.91 511.22 0.43 c p3
227.06 510.65 0.43 c p3
227.20 511.32 0.43 c p3
227.35 510.87 0.43 c p3
227.50 511.10 0.43 c p3
227.64 511.00 0.43 c p3
227.79 511.45 0.43 c p3
227.93 511.32 0.43 c p3
228.08 511.10 0.43 c p3
228.22 511.67 0.43 c p3
228.37 511.45 0.43 c p3
228.51 511.45 0.43 c p3
228.66 512.00 0.43 c p3
228.81 511.22 0.43 c p3
228.95 511.22 0.43 c p3
229.10 511.22 0.43 c p3
229.24 510.77 0.43 c p3
229.39 511.45 0.43 c p3
229.53 511.10 0.43 c p3
229.68 511.67 0.43 c p3
229.82 510.87 0.43 c p3
229.97 511.45 0.43 c p3
230.12 511.10 0.43 c p3
230.26 510.77 0.43 c p3
230.41 511.22 0.43 c p3
230.55 511.32 0.43 c p3
230.70 511.00 0.43 c p3
230.84 511.22 0.43 c p3
230.99 511.67 0.43 c p3
231.14 511.22 0.43 c p3
231.28 510.87 0.43 c p3
231.43 511.32 0.43 c p3
231.57 511.22 0.43 c p3
231.72 511.55 0.43 c p3
231.86 511.00 0.43 c p3
232.01 511.45 0.43 c p3
232.15 510.77 0.43 c p3
232.30 511.10 0.43 c p3
232.45 511.10 0.43 c p3
232.59 511.32 0.43 c p3
232.74 511.32 0.43 c p3
232.88 511.10 0.43 c p3
233.03 511.45 0.43 c p3
233.17 511.00 0.43 c p3
233.32 510.87 0.43 c p3
233.46 511.67 0.43 c p3
233.61 511.00 0.43 c p3
233.76 511.45 0.43 c p3
233.90 511.32 0.43 c p3
234.05 511.45 0.43 c p3
234.19 511.32 0.43 c p3
234.34 511.10 0.43 c p3
234.48 511.55 0.43 c p3
234.63 510.87 0.43 c p3
234.77 511.55 0.43 c p3
234.92 511.22 0.43 c p3
235.07 511.22 0.43 c p3
235.21 511.55 0.43 c p3
235.36 511.22 0.43 c p3
235.50 511.10 0.43 c p3
235.65 511.10 0.43 c p3
235.79 511.45 0.43 c p3
235.94 511.45 0.43 c p3
236.09 511.10 0.43 c p3
236.23 510.65 0.43 c p3
236.38 510.87 0.43 c p3
236.52 511.00 0.43 c p3
236.67 511.10 0.43 c p3
236.81 511.10 0.43 c p3
236.96 438.80 0.43 c p3
237.10 443.72 0.43 c p3
237.25 446.33 0.43 c p3
237.40 447.46 0.43 c p3
237.54 449.01 0.43 c p3
237.69 450.26 0.43 c p3
237.83 451.39 0.43 c p3
237.98 452.16 0.43 c p3
238.12 453.74 0.43 c p3
238.27 453.51 0.43 c p3
238.41 454.19 0.43 c p3
238.56 454.96 0.43 c p3
238.71 456.54 0.43 c p3
238.85 457.44 0.43 c p3
239.00 458.67 0.43 c p3
239.14 460.02 0.43 c p3
239.29 460.37 0.43 c p3
239.43 460.02 0.43 c p3
239.58 461.04 0.43 c p3
239.72 462.04 0.43 c p3
239.87 462.49 0.43 c p3
240.02 464.07 0.43 c p3
240.16 465.20 0.43 c p3
240.31 465.30 0.43 c p3
240.45 465.75 0.43 c p3
240.60 466.77 0.43 c p3
240.74 466.87 0.43 c p3
240.89 467.65 0.43 c p3
241.04 468.55 0.43 c p3
241.18 469.90 0.43 c p3
241.33 469.90 0.43 c p3
241.47 470.80 0.43 c p3
241.62 471.60 0.43 c p3
241.76 471.92 0.43 c p3
241.91 472.48 0.43 c p3
242.05 472.93 0.43 c p3
242.20 474.18 0.43 c p3
242.35 474.63 0.43 c p3
242.49 475.98 0.43 c p3
242.64 476.63 0.43 c p3
242.78 476.43 0.43 c p3
242.93 476.85 0.43 c p3
243.07 476.98 0.43 c p3
243.22 477.98 0.43 c p3
243.36 478.78 0.43 c p3
243.51 480.68 0.43 c p3
243.66 480.01 0.43 c p3
243.80 480.81 0.43 c p3
243.95 480.81 0.43 c p3
244.09 481.13 0.43 c p3
244.24 481.36 0.43 c p3
244.38 481.58 0.43 c p3
244.53 483.16 0.43 c p3
244.67 483.83 0.43 c p3
244.82 484.61 0.43 c p3
244.97 484.16 0.43 c p3
245.11 485.06 0.43 c p3
245.26 485.51 0.43 c p3
245.40 486.08 0.43 c p3
245.55 486.08 0.43 c p3
245.69 486.41 0.43 c p3
245.84 488.09 0.43 c p3
245.99 488.66 0.43 c p3
246.13 488.66 0.43 c p3
246.28 488.76 0.43 c p3
246.42 488.66 0.43 c p3
246.57 488.89 0.43 c p3
246.71 489.44 0.43 c p3
246.86 490.01 0.43 c p3
247.00 491.46 0.43 c p3
247.15 491.69 0.43 c p3
247.30 491.24 0.43 c p3
247.44 491.46 0.43 c p3
247.59 491.69 0.43 c p3
247.73 491.79 0.43 c p3
247.88 493.14 0.43 c p3
248.02 493.36 0.43 c p3
248.17 494.04 0.43 c p3
248.31 494.61 0.43 c p3
248.46 494.71 0.43 c p3
248.61 494.49 0.43 c p3
248.75 495.16 0.43 c p3
248.90 494.94 0.43 c p3
249.04 495.06 0.43 c p3
249.19 496.07 0.43 c p3
249.33 496.84 0.43 c p3
249.48 497.07 0.43 c p3
249.62 497.07 0.43 c p3
249.77 497.07 0.43 c p3
249.92 496.84 0.43 c p3
250.06 497.29 0.43 c p3
250.21 497.52 0.43 c p3
250.35 498.42 0.43 c p3
250.50 499.54 0.43 c p3
250.64 499.32 0.43 c p3
250.79 499.09 0.43 c p3
250.94 499.32 0.43 c p3
251.08 499.22 0.43 c p3
251.23 499.89 0.43 c p3
251.37 500.12 0.43 c p3
251.52 500.54 0.43 c p3
251.66 500.89 0.43 c p3
251.81 500.99 0.43 c p3
251.95 501.12 0.43 c p3
252.10 501.12 0.43 c p3
252.25 500.89 0.43 c p3
252.39 501.57 0.43 c p3
252.54 502.34 0.43 c p3
252.68 502.24 0.43 c p3
252.83 502.57 0.43 c p3
252.97 502.34 0.43 c p3
253.12 502.12 0.43 c p3
253.26 502.24 0.43 c p3
253.41 502.57 0.43 c p3
253.56 502.57 0.43 c p3
253.70 503.59 0.43 c p3
253.85 503.37 0.43 c p3
253.99 503.37 0.43 c p3
254.14 503.92 0.43 c p3
254.28 504.05 0.43 c p3
254.43 503.37 0.43 c p3
254.57 503.92 0.43 c p3
254.72 504.27 0.43 c p3
254.87 504.27 0.43 c p3
255.01 504.82 0.43 c p3
255.16 504.72 0.43 c p3
255.30 504.72 0.43 c p3
255.45 504.60 0.43 c p3
255.59 504.72 0.43 c p3
255.74 505.05 0.43 c p3
255.88 505.37 0.43 c p3
256.03 505.50 0.43 c p3
256.18 505.72 0.43 c p3
256.32 505.82 0.43 c p3
256.47 505.50 0.43 c p3
256.61 505.82 0.43 c p3
256.76 506.05 0.43 c p3
256.90 506.27 0.43 c p3
257.05 506.50 0.43 c p3
257.20 506.27 0.43 c p3
257.34 506.72 0.43 c p3
257.49 506.17 0.43 c p3
257.63 506.05 0.43 c p3
257.78 506.50 0.43 c p3
257.92 507.30 0.43 c p3
258.07 506.50 0.43 c p3
258.21 506.40 0.43 c p3
258.36 506.85 0.43 c p3
258.51 506.95 0.43 c p3
258.65 506.40 0.43 c p3
258.80 506.95 0.43 c p3
258.94 506.85 0.43 c p3
259.09 507.52 0.43 c p3
259.23 506.95 0.43 c p3
259.38 506.62 0.43 c p3
259.52 507.30 0.43 c p3
259.67 506.85 0.43 c p3
259.82 507.40 0.43 c p3
259.96 507.85 0.43 c p3
260.11 508.07 0.43 c p3
260.25 507.97 0.43 c p3
260.40 507.85 0.43 c p3
260.54 507.85 0.43 c p3
260.69 507.62 0.43 c p3
260.83 507.52 0.43 c p3
260.98 508.20 0.43 c p3
261.13 508.30 0.43 c p3
261.27 508.30 0.43 c p3
261.42 508.20 0.43 c p3
261.56 507.62 0.43 c p3
261.71 507.75 0.43 c p3
261.85 507.85 0.43 c p3
262.00 507.85 0.43 c p3
262.15 508.30 0.43 c p3
262.29 508.87 0.43 c p3
262.44 508.75 0.43 c p3
262.58 508.52 0.43 c p3
262.73 508.42 0.43 c p3
262.87 508.07 0.43 c p3
263.02 508.07 0.43 c p3
263.16 508.42 0.43 c p3
263.31 508.87 0.43 c p3
263.46 508.65 0.43 c p3
263.60 508.87 0.43 c p3
263.75 508.75 0.43 c p3
263.89 508.65 0.43 c p3
264.04 508.65 0.43 c p3
264.18 508.97 0.43 c p3
264.33 508.75 0.43 c p3
264.47 508.87 0.43 c p3
264.62 508.65 0.43 c p3
264.77 508.75 0.43 c p3
264.91 508.75 0.43 c p3
265.06 508.07 0.43 c p3
265.20 508.52 0.43 c p3
265.35 508.75 0.43 c p3
265.49 508.97 0.43 c p3
265.64 508.52 0.43 c p3
265.78 508.87 0.43 c p3
265.93 508.97 0.43 c p3
266.08 508.52 0.43 c p3
266.22 508.87 0.43 c p3
266.37 509.20 0.43 c p3
266.51 509.42 0.43 c p3
266.66 509.32 0.43 c p3
266.80 508.65 0.43 c p3
266.95 508.42 0.43 c p3
267.10 509.20 0.43 c p3
267.24 508.52 0.43 c p3
267.39 508.65 0.43 c p3
267.53 508.87 0.43 c p3
267.68 509.32 0.43 c p3
267.82 508.87 0.43 c p3
267.97 508.42 0.43 c p3
268.11 508.75 0.43 c p3
268.26 508.07 0.43 c p3
268.41 508.65 0.43 c p3
268.55 509.10 0.43 c p3
268.70 509.10 0.43 c p3
268.84 509.10 0.43 c p3
268.99 508.97 0.43 c p3
269.13 508.87 0.43 c p3
269.28 508.97 0.43 c p3
269.42 508.65 0.43 c p3
269.57 508.65 0.43 c p3
269.72 509.65 0.43 c p3
269.86 509.77 0.43 c p3
270.01 509.32 0.43 c p3
270.15 508.65 0.43 c p3
270.30 508.20 0.43 c p3
270.44 508.30 0.43 c p3
270.59 508.52 0.43 c p3
270.73 508.97 0.43 c p3
270.88 509.10 0.43 c p3
271.03 508.97 0.43 c p3
271.17 508.65 0.43 c p3
271.32 508.75 0.43 c p3
271.46 508.42 0.43 c p3
271.61 508.30 0.43 c p3
271.75 508.75 0.43 c p3
271.90 509.32 0.43 c p3
272.05 509.77 0.43 c p3
272.19 509.32 0.43 c p3
272.34 509.42 0.43 c p3
272.48 508.52 0.43 c p3
272.63 508.42 0.43 c p3
272.77 508.30 0.43 c p3
272.92 509.20 0.43 c p3
273.06 509.20 0.43 c p3
273.21 509.20 0.43 c p3
273.36 508.75 0.43 c p3
273.50 508.20 0.43 c p3
273.65 508.65 0.43 c p3
273.79 508.52 0.43 c p3
273.94 508.52 0.43 c p3
274.08 508.42 0.43 c p3
274.23 508.87 0.43 c p3
274.37 508.20 0.43 c p3
274.52 508.75 0.43 c p3
274.67 508.65 0.43 c p3
274.81 508.52 0.43 c p3
274.96 508.97 0.43 c p3
275.10 509.55 0.43 c p3
275.25 508.87 0.43 c p3
275.39 508.97 0.43 c p3
275.54 508.65 0.43 c p3
275.68 508.97 0.43 c p3
275.83 508.42 0.43 c p3
275.98 508.65 0.43 c p3
276.12 508.52 0.43 c p3
276.27 508.97 0.43 c p3
276.41 508.65 0.43 c p3
276.56 508.65 0.43 c p3
276.70 508.52 0.43 c p3
276.85 508.30 0.43 c p3
277.00 508.20 0.43 c p3
277.14 508.65 0.43 c p3
277.29 508.87 0.43 c p3
277.43 508.97 0.43 c p3
277.58 508.42 0.43 c p3
277.72 508.65 0.43 c p3
277.87 508.30 0.43 c p3
278.01 507.85 0.43 c p3
278.16 508.65 0.43 c p3
278.31 508.42 0.43 c p3
278.45 508.97 0.43 c p3
278.60 508.30 0.43 c p3
278.74 508.75 0.43 c p3
278.89 507.75 0.43 c p3
279.03 508.07 0.43 c p3
279.18 508.30 0.43 c p3
279.32 508.87 0.43 c p3
279.47 508.52 0.43 c p3
279.62 508.97 0.43 c p3
279.76 507.97 0.43 c p3
279.91 507.97 0.43 c p3
280.05 508.07 0.43 c p3
280.20 508.07 0.43 c p3
280.34 508.52 0.43 c p3
280.49 508.65 0.43 c p3
280.63 508.30 0.43 c p3
280.78 508.07 0.43 c p3
280.93 508.07 0.43 c p3
281.07 508.07 0.43 c p3
281.22 508.20 0.43 c p3
281.36 508.30 0.43 c p3
281.51 508.65 0.43 c p3
281.65 508.42 0.43 c p3
281.80 508.07 0.43 c p3
281.95 507.97 0.43 c p3
282.09 508.20 0.43 c p3
282.24 508.20 0.43 c p3
282.38 508.30 0.43 c p3
282.53 507.85 0.43 c p3
282.67 509.10 0.43 c p3
282.82 508.07 0.43 c p3
282.96 507.62 0.43 c p3
283.11 508.30 0.43 c p3
283.26 508.20 0.43 c p3
283.40 507.75 0.43 c p3
283.55 508.75 0.43 c p3
283.69 508.42 0.43 c p3
283.84 508.20 0.43 c p3
283.98 508.07 0.43 c p3
284.13 507.97 0.43 c p3
284.27 507.97 0.43 c p3
284.42 507.85 0.43 c p3
284.57 508.20 0.43 c p3
284.71 508.52 0.43 c p3
284.86 508.07 0.43 c p3
285.00 507.40 0.43 c p3
285.15 506.85 0.43 c p3
285.29 507.17 0.43 c p3
285.44 507.52 0.43 c p3
285.58 507.97 0.43 c p3
285.73 508.30 0.43 c p3
285.88 508.65 0.43 c p3
286.02 508.07 0.43 c p3
286.17 507.75 0.43 c p3
286.31 507.75 0.43 c p3
286.46 507.75 0.43 c p3
286.60 508.20 0.43 c p3
286.75 507.62 0.43 c p3
286.89 508.07 0.43 c p3
287.04 508.30 0.43 c p3
287.19 508.07 0.43 c p3
287.33 507.97 0.43 c p3
287.48 507.07 0.43 c p3
287.62 507.40 0.43 c p3
287.77 507.75 0.43 c p3
287.91 508.30 0.43 c p3
288.06 507.85 0.43 c p3
288.21 507.62 0.43 c p3
288.35 507.40 0.43 c p3
288.50 507.17 0.43 c p3
288.64 507.40 0.43 c p3
288.79 507.52 0.43 c p3
288.93 507.85 0.43 c p3
289.08 507.75 0.43 c p3
289.22 507.85 0.43 c p3
289.37 507.75 0.43 c p3
289.52 507.85 0.43 c p3
289.66 507.52 0.43 c p3
289.81 507.52 0.43 c p3
289.95 507.85 0.43 c p3
290.10 508.30 0.43 c p3
290.24 507.75 0.43 c p3
290.39 507.75 0.43 c p3
290.53 507.07 0.43 c p3
290.68 507.62 0.43 c p3
290.83 507.40 0.43 c p3
290.97 507.30 0.43 c p3
291.12 507.85 0.43 c p3
291.26 507.30 0.43 c p3
291.41 507.40 0.43 c p3
291.55 507.40 0.43 c p3
291.70 507.52 0.43 c p3
291.84 507.17 0.43 c p3
291.99 507.62 0.43 c p3
292.14 507.97 0.43 c p3
292.28 507.75 0.43 c p3
292.43 507.97 0.43 c p3
292.57 507.52 0.43 c p3
292.72 507.75 0.43 c p3
292.86 507.17 0.43 c p3
293.01 507.40 0.43 c p3
293.16 507.40 0.43 c p3
293.30 507.62 0.43 c p3
293.45 508.07 0.43 c p3
293.59 507.75 0.43 c p3
293.74 507.97 0.43 c p3
293.88 507.17 0.43 c p3
294.03 507.52 0.43 c p3
294.17 506.72 0.43 c p3
294.32 507.62 0.43 c p3
294.47 507.85 0.43 c p3
294.61 507.62 0.43 c p3
294.76 507.30 0.43 c p3
294.90 507.52 0.43 c p3
295.05 507.30 0.43 c p3
295.19 507.30 0.43 c p3
295.34 507.07 0.43 c p3
295.48 507.85 0.43 c p3
295.63 507.75 0.43 c p3
295.78 507.52 0.43 c p3
295.92 507.85 0.43 c p3
296.07 507.30 0.43 c p3
296.21 507.17 0.43 c p3
296.36 507.07 0.43 c p3
296.50 507.52 0.43 c p3
296.65 507.97 0.43 c p3
296.79 507.62 0.43 c p3
296.94 507.07 0.43 c p3
297.09 507.17 0.43 c p3
297.23 506.95 0.43 c p3
297.38 507.17 0.43 c p3
297.52 506.62 0.43 c p3
297.67 507.52 0.43 c p3
297.81 507.85 0.43 c p3
297.96 507.30 0.43 c p3
298.11 507.52 0.43 c p3
298.25 507.30 0.43 c p3
298.40 507.30 0.43 c p3
298.54 507.07 0.43 c p3
298.69 507.75 0.43 c p3
298.83 507.75 0.43 c p3
298.98 508.20 0.43 c p3
299.12 507.75 0.43 c p3
299.27 506.95 0.43 c p3
299.42 507.40 0.43 c p3
299.56 506.95 0.43 c p3
299.71 507.30 0.43 c p3
299.85 507.40 0.43 c p3
300.00 507.40 0.43 c p3
300.14 507.52 0.43 c p3
300.29 506.85 0.43 c p3
300.43 507.17 0.43 c p3
300.58 507.30 0.43 c p3
300.73 507.07 0.43 c p3
300.87 507.52 0.43 c p3
301.02 507.97 0.43 c p3
301.16 507.75 0.43 c p3
301.31 507.40 0.43 c p3
301.45 507.85 0.43 c p3
301.60 507.40 0.43 c p3
301.74 507.62 0.43 c p3
301.89 507.07 0.43 c p3
302.04 507.30 0.43 c p3
302.18 507.75 0.43 c p3
302.33 507.07 0.43 c p3
302.47 507.17 0.43 c p3
302.62 507.07 0.43 c p3
302.76 506.95 0.43 c p3
302.91 506.95 0.43 c p3
303.06 506.95 0.43 c p3
303.20 507.52 0.43 c p3
303.35 507.17 0.43 c p3
303.49 507.07 0.43 c p3
303.64 506.62 0.43 c p3
303.78 507.40 0.43 c p3
303.93 507.17 0.43 c p3
304.07 507.07 0.43 c p3
304.22 507.52 0.43 c p3
304.37 507.17 0.43 c p3
304.51 507.07 0.43 c p3
304.66 507.17 0.43 c p3
304.80 506.85 0.43 c p3
304.95 506.40 0.43 c p3
305.09 506.85 0.43 c p3
305.24 507.17 0.43 c p3
305.38 507.40 0.43 c p3
305.53 506.72 0.43 c p3
305.68 506.95 0.43 c p3
305.82 506.85 0.43 c p3
305.97 505.95 0.43 c p3
306.11 506.72 0.43 c p3
306.26 507.30 0.43 c p3
306.40 507.40 0.43 c p3
306.55 507.30 0.43 c p3
306.69 507.30 0.43 c p3
306.84 506.72 0.43 c p3
306.99 507.40 0.43 c p3
307.13 506.95 0.43 c p3
307.28 507.62 0.43 c p3
307.42 507.40 0.43 c p3
307.57 507.52 0.43 c p3
307.71 507.40 0.43 c p3
307.86 506.95 0.43 c p3
308.01 507.30 0.43 c p3
308.15 506.95 0.43 c p3
308.30 506.85 0.43 c p3
308.44 507.17 0.43 c p3
308.59 507.75 0.43 c p3
308.73 506.95 0.43 c p3
308.88 507.75 0.43 c p3
309.02 506.72 0.43 c p3
309.17 507.40 0.43 c p3
309.32 506.95 0.43 c p3
309.46 507.07 0.43 c p3
309.61 507.30 0.43 c p3
309.75 507.07 0.43 c p3
309.90 507.07 0.43 c p3
310.04 507.30 0.43 c p3
310.19 506.85 0.43 c p3
310.33 506.85 0.43 c p3
310.48 507.17 0.43 c p3
310.63 507.17 0.43 c p3
310.77 507.30 0.43 c p3
310.92 507.07 0.43 c p3
311.06 507.30 0.43 c p3
311.21 507.17 0.43 c p3
311.35 506.72 0.43 c p3
311.50 506.72 0.43 c p3
311.64 507.07 0.43 c p3
311.79 507.52 0.43 c p3
311.94 507.52 0.43 c p3
312.08 507.07 0.43 c p3
312.23 507.40 0.43 c p3
312.37 507.07 0.43 c p3
312.52 506.95 0.43 c p3
312.66 506.95 0.43 c p3
312.81 506.85 0.43 c p3
312.96 507.85 0.43 c p3
313.10 507.30 0.43 c p3
313.25 507.40 0.43 c p3
313.39 506.95 0.43 c p3
313.54 507.07 0.43 c p3
313.68 506.50 0.43 c p3
313.83 507.52 0.43 c p3
313.97 507.17 0.43 c p3
314.12 507.07 0.43 c p3
314.27 507.07 0.43 c p3
314.41 506.72 0.43 c p3
314.56 506.85 0.43 c p3
314.70 506.40 0.43 c p3
314.85 507.17 0.43 c p3
314.99 506.72 0.43 c p3
315.14 507.30 0.43 c p3
315.28 506.72 0.43 c p3
315.43 507.07 0.43 c p3
315.58 506.85 0.43 c p3
315.72 506.85 0.43 c p3
315.87 506.85 0.43 c p3
316.01 507.52 0.43 c p3
316.16 507.85 0.43 c p3
316.30 507.07 0.43 c p3
316.45 507.07 0.43 c p3
316.59 507.30 0.43 c p3
316.74 506.85 0.43 c p3
316.89 506.72 0.43 c p3
317.03 506.95 0.43 c p3
317.18 506.62 0.43 c p3
317.32 507.30 0.43 c p3
317.47 506.95 0.43 c p3
317.61 507.07 0.43 c p3
317.76 506.85 0.43 c p3
317.91 506.50 0.43 c p3
318.05 507.07 0.43 c p3
318.20 507.17 0.43 c p3
318.34 507.62 0.43 c p3
318.49 507.40 0.43 c p3
318.63 507.17 0.43 c p3
318.78 507.52 0.43 c p3
318.92 506.62 0.43 c p3
319.07 506.85 0.43 c p3
319.22 506.72 0.43 c p3
319.36 507.07 0.43 c p3
319.51 507.52 0.43 c p3
319.65 507.07 0.43 c p3
319.80 507.07 0.43 c p3
319.94 507.07 0.43 c p3
320.09 506.85 0.43 c p3
320.23 506.95 0.43 c p3
320.38 507.30 0.43 c p3
320.53 507.30 0.43 c p3
320.67 507.62 0.43 c p3
320.82 506.85 0.43 c p3
320.96 506.95 0.43 c p3
321.11 506.85 0.43 c p3
321.25 506.50 0.43 c p3
321.40 507.52 0.43 c p3
321.54 506.95 0.43 c p3
321.69 507.62 0.43 c p3
321.84 507.75 0.43 c p3
321.98 507.30 0.43 c p3
322.13 506.62 0.43 c p3
322.27 506.72 0.43 c p3
322.42 506.85 0.43 c p3
322.56 507.30 0.43 c p3
322.71 507.52 0.43 c p3
322.85 507.52 0.43 c p3
323.00 507.17 0.43 c p3
323.15 507.07 0.43 c p3
323.29 506.72 0.43 c p3
323.44 506.72 0.43 c p3
323.58 507.07 0.43 c p3
323.73 507.07 0.43 c p3
323.87 507.17 0.43 c p3
324.02 507.07 0.43 c p3
324.17 506.62 0.43 c p3
324.31 506.72 0.43 c p3
324.46 506.72 0.43 c p3
324.60 506.50 0.43 c p3
324.75 507.52 0.43 c p3
324.89 507.62 0.43 c p3
325.04 507.40 0.43 c p3
325.18 507.17 0.43 c p3
325.33 506.95 0.43 c p3
325.48 506.95 0.43 c p3
325.62 506.62 0.43 c p3
325.77 506.72 0.43 c p3
325.91 506.85 0.43 c p3
326.06 507.40 0.43 c p3
326.20 506.85 0.43 c p3
326.35 506.85 0.43 c p3
326.49 506.72 0.43 c p3
326.64 506.62 0.43 c p3
326.79 506.72 0.43 c p3
326.93 506.95 0.43 c p3
327.08 507.52 0.43 c p3
327.22 507.52 0.43 c p3
327.37 507.07 0.43 c p3
327.51 506.95 0.43 c p3
327.66 506.95 0.43 c p3
327.80 506.72 0.43 c p3
327.95 507.40 0.43 c p3
328.10 507.40 0.43 c p3
328.24 507.07 0.43 c p3
328.39 506.62 0.43 c p3
328.53 506.50 0.43 c p3
328.68 506.72 0.43 c p3
328.82 506.62 0.43 c p3
328.97 507.07 0.43 c p3
329.12 506.95 0.43 c p3
329.26 507.17 0.43 c p3
329.41 507.07 0.43 c p3
329.55 506.50 0.43 c p3
329.70 506.72 0.43 c p3
329.84 506.72 0.43 c p3
329.99 507.07 0.43 c p3
330.13 507.40 0.43 c p3
330.28 507.30 0.43 c p3
330.43 507.75 0.43 c p3
330.57 506.85 0.43 c p3
330.72 506.72 0.43 c p3
330.86 506.95 0.43 c p3
331.01 507.07 0.43 c p3
331.15 507.17 0.43 c p3
331.30 507.40 0.43 c p3
331.44 506.85 0.43 c p3
331.59 506.72 0.43 c p3
331.74 506.62 0.43 c p3
331.88 506.62 0.43 c p3
332.03 506.50 0.43 c p3
332.17 506.95 0.43 c p3
332.32 507.52 0.43 c p3
332.46 507.30 0.43 c p3
332.61 507.07 0.43 c p3
332.75 506.85 0.43 c p3
332.90 506.85 0.43 c p3
333.05 506.85 0.43 c p3
333.19 507.07 0.43 c p3
333.34 507.97 0.43 c p3
333.48 507.30 0.43 c p3
333.63 507.17 0.43 c p3
333.77 507.52 0.43 c p3
333.92 506.50 0.43 c p3
334.07 506.72 0.43 c p3
334.21 506.72 0.43 c p3
334.36 507.07 0.43 c p3
334.50 506.95 0.43 c p3
334.65 507.07 0.43 c p3
334.79 506.85 0.43 c p3
334.94 506.95 0.43 c p3
335.08 506.50 0.43 c p3
335.23 506.85 0.43 c p3
335.38 507.17 0.43 c p3
335.52 507.07 0.43 c p3
335.67 507.17 0.43 c p3
335.81 507.17 0.43 c p3
335.96 507.07 0.43 c p3
336.10 506.62 0.43 c p3
336.25 507.17 0.43 c p3
336.39 506.95 0.43 c p3
336.54 507.07 0.43 c p3
336.69 507.30 0.43 c p3
336.83 507.07 0.43 c p3
336.98 506.85 0.43 c p3
337.12 506.27 0.43 c p3
337.27 506.85 0.43 c p3
337.41 507.07 0.43 c p3
337.56 507.40 0.43 c p3
337.70 507.40 0.43 c p3
337.85 506.85 0.43 c p3
338.00 506.72 0.43 c p3
338.14 506.95 0.43 c p3
338.29 506.85 0.43 c p3
338.43 507.40 0.43 c p3
338.58 507.62 0.43 c p3
338.72 507.30 0.43 c p3
338.87 506.85 0.43 c p3
339.02 506.85 0.43 c p3
339.16 506.72 0.43 c p3
339.31 506.72 0.43 c p3
339.45 507.40 0.43 c p3
339.60 507.17 0.43 c p3
339.74 507.30 0.43 c p3
339.89 506.72 0.43 c p3
340.03 506.85 0.43 c p3
340.18 506.85 0.43 c p3
340.33 506.95 0.43 c p3
340.47 507.17 0.43 c p3
340.62 507.07 0.43 c p3
340.76 507.75 0.43 c p3
340.91 507.62 0.43 c p3
341.05 506.95 0.43 c p3
341.20 507.30 0.43 c p3
341.34 506.62 0.43 c p3
341.49 506.95 0.43 c p3
341.64 506.72 0.43 c p3
341.78 507.30 0.43 c p3
341.93 507.17 0.43 c p3
342.07 507.07 0.43 c p3
342.22 507.17 0.43 c p3
342.36 507.30 0.43 c p3
342.51 507.52 0.43 c p3
342.65 507.30 0.43 c p3
342.80 507.40 0.43 c p3
342.95 507.07 0.43 c p3
343.09 507.30 0.43 c p3
343.24 506.95 0.43 c p3
343.38 507.17 0.43 c p3
343.53 505.95 0.43 c p3
343.67 506.95 0.43 c p3
343.82 507.17 0.43 c p3
343.97 507.52 0.43 c p3
344.11 507.17 0.43 c p3
344.26 507.17 0.43 c p3
344.40 507.40 0.43 c p3
344.55 506.95 0.43 c p3
344.69 506.95 0.43 c p3
344.84 507.17 0.43 c p3
344.98 507.85 0.43 c p3
345.13 507.17 0.43 c p3
345.28 507.07 0.43 c p3
345.42 507.17 0.43 c p3
345.57 506.50 0.43 c p3
345.71 506.72 0.43 c p3
345.86 506.62 0.43 c p3
346.00 507.52 0.43 c p3
346.15 507.17 0.43 c p3
346.29 506.72 0.43 c p3
346.44 506.40 0.43 c p3
346.59 506.50 0.43 c p3
346.73 506.62 0.43 c p3
346.88 506.72 0.43 c p3
347.02 507.75 0.43 c p3
347.17 507.30 0.43 c p3
347.31 507.07 0.43 c p3
347.46 506.72 0.43 c p3
347.60 506.95 0.43 c p3
347.75 507.07 0.43 c p3
347.90 507.40 0.43 c p3
348.04 507.17 0.43 c p3
348.19 507.85 0.43 c p3
348.33 506.85 0.43 c p3
348.48 506.95 0.43 c p3
348.62 506.95 0.43 c p3
348.77 506.85 0.43 c p3
348.92 506.62 0.43 c p3
349.06 506.95 0.43 c p3
349.21 507.97 0.43 c p3
349.35 507.30 0.43 c p3
349.50 506.62 0.43 c p3
349.64 506.72 0.43 c p3
349.79 507.30 0.43 c p3
349.93 506.72 0.43 c p3
350.08 507.30 0.43 c p3
350.23 507.52 0.43 c p3
350.37 507.62 0.43 c p3
350.52 507.30 0.43 c p3
350.66 507.30 0.43 c p3
350.81 506.95 0.43 c p3
350.95 507.07 0.43 c p3
351.10 506.85 0.43 c p3
351.24 507.62 0.43 c p3
351.39 507.62 0.43 c p3
351.54 506.62 0.43 c p3
351.68 506.85 0.43 c p3
351.83 506.85 0.43 c p3
351.97 506.72 0.43 c p3
352.12 506.72 0.43 c p3
352.26 507.17 0.43 c p3
352.41 507.52 0.43 c p3
352.55 506.85 0.43 c p3
352.70 507.30 0.43 c p3
352.85 506.62 0.43 c p3
352.99 507.07 0.43 c p3
353.14 506.85 0.43 c p3
353.28 507.52 0.43 c p3
353.43 507.52 0.43 c p3
353.57 507.17 0.43 c p3
353.72 507.17 0.43 c p3
353.86 506.85 0.43 c p3
354.01 506.62 0.43 c p3
354.16 506.85 0.43 c p3
354.30 507.17 0.43 c p3
354.45 507.62 0.43 c p3
354.59 507.52 0.43 c p3
354.74 507.07 0.43 c p3
354.88 507.30 0.43 c p3
355.03 506.62 0.43 c p3
355.18 506.17 0.43 c p3
355.32 506.50 0.43 c p3
355.47 507.40 0.43 c p3
355.61 507.30 0.43 c p3
355.76 507.40 0.43 c p3
355.90 507.07 0.43 c p3
356.05 506.85 0.43 c p3
356.19 506.72 0.43 c p3
356.34 507.17 0.43 c p3
356.49 507.52 0.43 c p3
356.63 507.30 0.43 c p3
356.78 507.52 0.43 c p3
356.92 506.95 0.43 c p3
357.07 507.30 0.43 c p3
357.21 507.07 0.43 c p3
357.36 507.17 0.43 c p3
357.50 507.40 0.43 c p3
357.65 507.17 0.43 c p3
357.80 507.07 0.43 c p3
357.94 507.17 0.43 c p3
358.09 506.95 0.43 c p3
358.23 507.30 0.43 c p3
358.38 506.85 0.43 c p3
358.52 506.85 0.43 c p3
358.67 507.52 0.43 c p3
358.81 507.40 0.43 c p3
358.96 507.52 0.43 c p3
359.11 507.30 0.43 c p3
359.25 507.17 0.43 c p3
359.40 506.95 0.43 c p3
359.54 507.40 0.43 c p3
359.69 507.85 0.43 c p3
359.83 507.75 0.43 c p3
359.98 507.75 0.43 c p3
360.13 507.17 0.43 c p3
360.27 507.17 0.43 c p3
360.42 507.07 0.43 c p3
360.56 506.95 0.43 c p3
360.71 507.30 0.43 c p3
360.85 507.17 0.43 c p3
361.00 506.85 0.43 c p3
361.14 506.62 0.43 c p3
361.29 506.72 0.43 c p3
361.44 506.72 0.43 c p3
361.58 506.85 0.43 c p3
361.73 507.17 0.43 c p3
361.87 507.62 0.43 c p3
362.02 507.17 0.43 c p3
362.16 507.30 0.43 c p3
362.31 506.85 0.43 c p3
362.45 506.85 0.43 c p3
362.60 507.17 0.43 c p3
362.75 507.75 0.43 c p3
362.89 507.52 0.43 c p3
363.04 507.17 0.43 c p3
363.18 506.95 0.43 c p3
363.33 507.17 0.43 c p3
363.47 506.72 0.43 c p3
363.62 506.62 0.43 c p3
363.76 507.40 0.43 c p3
363.91 507.52 0.43 c p3
364.06 507.30 0.43 c p3
364.20 507.07 0.43 c p3
364.35 507.07 0.43 c p3
364.49 506.62 0.43 c p3
364.64 506.72 0.43 c p3
364.78 507.62 0.43 c p3
364.93 507.62 0.43 c p3
365.08 507.62 0.43 c p3
365.22 507.17 0.43 c p3
365.37 507.30 0.43 c p3
365.51 507.17 0.43 c p3
365.66 506.72 0.43 c p3
365.80 506.95 0.43 c p3
365.95 507.30 0.43 c p3
366.09 507.52 0.43 c p3
366.24 507.52 0.43 c p3
366.39 507.17 0.43 c p3
366.53 506.72 0.43 c p3
366.68 506.50 0.43 c p3
366.82 506.27 0.43 c p3
366.97 507.07 0.43 c p3
367.11 507.40 0.43 c p3
367.26 507.52 0.43 c p3
367.40 507.62 0.43 c p3
367.55 507.17 0.43 c p3
367.70 507.07 0.43 c p3
367.84 506.95 0.43 c p3
367.99 506.85 0.43 c p3
368.13 507.30 0.43 c p3
368.28 507.75 0.43 c p3
368.42 507.62 0.43 c p3
368.57 507.52 0.43 c p3
368.71 507.17 0.43 c p3
368.86 506.85 0.43 c p3
369.01 506.62 0.43 c p3
369.15 507.40 0.43 c p3
369.30 507.52 0.43 c p3
369.44 507.30 0.43 c p3
369.59 507.17 0.43 c p3
369.73 506.72 0.43 c p3
369.88 507.07 0.43 c p3
370.03 506.62 0.43 c p3
370.17 506.50 0.43 c p3
370.32 507.52 0.43 c p3
370.46 507.17 0.43 c p3
370.61 507.62 0.43 c p3
370.75 507.07 0.43 c p3
370.90 507.30 0.43 c p3
371.04 506.85 0.43 c p3
371.19 507.30 0.43 c p3
371.34 507.52 0.43 c p3
371.48 507.75 0.43 c p3
371.63 508.30 0.43 c p3
371.77 507.30 0.43 c p3
371.92 506.95 0.43 c p3
372.06 507.07 0.43 c p3
372.21 506.85 0.43 c p3
372.35 507.07 0.43 c p3
372.50 507.30 0.43 c p3
372.65 507.07 0.43 c p3
372.79 507.30 0.43 c p3
372.94 507.17 0.43 c p3
373.08 506.72 0.43 c p3
373.23 506.50 0.43 c p3
373.37 506.95 0.43 c p3
373.52 507.30 0.43 c p3
373.66 507.62 0.43 c p3
373.81 507.97 0.43 c p3
373.96 507.85 0.43 c p3
374.10 507.07 0.43 c p3
374.25 507.30 0.43 c p3
374.39 506.95 0.43 c p3
374.54 507.17 0.43 c p3
374.68 507.85 0.43 c p3
374.83 507.52 0.43 c p3
374.98 507.07 0.43 c p3
375.12 507.17 0.43 c p3
375.27 507.17 0.43 c p3
375.41 506.50 0.43 c p3
375.56 507.52 0.43 c p3
375.70 507.75 0.43 c p3
375.85 507.40 0.43 c p3
375.99 507.17 0.43 c p3
376.14 507.17 0.43 c p3
376.29 506.50 0.43 c p3
376.43 507.17 0.43 c p3
376.58 506.95 0.43 c p3
376.72 507.85 0.43 c p3
376.87 507.40 0.43 c p3
377.01 507.85 0.43 c p3
377.16 507.40 0.43 c p3
377.30 507.07 0.43 c p3
377.45 506.72 0.43 c p3
377.60 506.95 0.43 c p3
377.74 506.95 0.43 c p3
377.89 507.62 0.43 c p3
378.03 507.17 0.43 c p3
378.18 507.30 0.43 c p3
378.32 507.30 0.43 c p3
378.47 507.30 0.43 c p3
378.61 507.07 0.43 c p3
378.76 507.17 0.43 c p3
378.91 507.30 0.43 c p3
379.05 507.52 0.43 c p3
379.20 507.75 0.43 c p3
379.34 507.85 0.43 c p3
379.49 507.07 0.43 c p3
379.63 506.85 0.43 c p3
379.78 507.07 0.43 c p3
379.93 507.75 0.43 c p3
380.07 507.52 0.43 c p3
380.22 507.52 0.43 c p3
380.36 507.07 0.43 c p3
380.51 507.40 0.43 c p3
380.65 507.40 0.43 c p3
380.80 506.95 0.43 c p3
380.94 507.07 0.43 c p3
381.09 507.07 0.43 c p3
381.24 507.75 0.43 c p3
381.38 507.17 0.43 c p3
381.53 507.52 0.43 c p3
381.67 506.95 0.43 c p3
381.82 506.62 0.43 c p3
381.96 507.07 0.43 c p3
382.11 507.40 0.43 c p3
382.25 506.95 0.43 c p3
382.40 507.07 0.43 c p3
0.00 0.00 432.00 576.00 cl
0 0 0 srgb
0.75 setlinewidth
[] 0 setdash
1 setlinecap
1 setlinejoin
10.00 setmiterlimit
np
236.96 345.60 m
145.59 0 l
o
np
236.96 345.60 m
0 -5.76 l
o
np
266.08 345.60 m
0 -5.76 l
o
np
295.19 345.60 m
0 -5.76 l
o
np
324.31 345.60 m
0 -5.76 l
o
np
353.43 345.60 m
0 -5.76 l
o
np
382.55 345.60 m
0 -5.76 l
o
/Font1 findfont 10 s
236.96 329.47 (0) .5 0 t
266.08 329.47 (200) .5 0 t
295.19 329.47 (400) .5 0 t
324.31 329.47 (600) .5 0 t
353.43 329.47 (800) .5 0 t
382.55 329.47 (1000) .5 0 t
np
216.00 352.00 m
0 153.69 l
o
np
216.00 352.00 m
-5.76 0 l
o
np
216.00 403.23 m
-5.76 0 l
o
np
216.00 454.46 m
-5.76 0 l
o
np
216.00 505.69 m
-5.76 0 l
o
209.09 348.41 (0.0) 1 0 t
209.09 399.64 (0.5) 1 0 t
209.09 450.87 (1.0) 1 0 t
209.09 502.10 (1.5) 1 0 t
np
216.00 345.60 m
172.80 0 l
0 172.80 l
-172.80 0 l
0 -172.80 l
o
0.00 0.00 432.00 576.00 cl
/Font1 findfont 10 s
0 0 0 srgb
302.40 313.34 (Zeit / ms \(total\)) .5 0 t
190.66 432.00 (U / V) .5 90 t
216.00 345.60 388.80 518.40 cl
0 0 0 srgb
0.38 setlinewidth
[ 1.12 1.88] 0 setdash
1 setlinecap
1 setlinejoin
10.00 setmiterlimit
np
222.98 345.60 m
0 172.80 l
o
np
234.77 345.60 m
0 172.80 l
o
np
239.87 345.60 m
0 172.80 l
o
np
265.78 345.60 m
0 172.80 l
o
86.40 57.60 388.80 288.00 cl
1 0 0 srgb
1.50 setlinewidth
[] 0 setdash
1 setlinecap
1 setlinejoin
10.00 setmiterlimit
np
97.60 279.47 m
1.41 -20.63 l
1.40 -18.63 l
1.41 -16.82 l
1.41 -15.19 l
1.41 -13.72 l
1.40 -12.39 l
1.41 -11.19 l
1.41 -10.10 l
1.40 -9.13 l
1.41 -8.24 l
1.41 -7.44 l
1.40 -6.72 l
1.41 -6.07 l
1.41 -5.48 l
1.41 -4.95 l
1.40 -4.47 l
1.41 -4.03 l
1.41 -3.65 l
1.40 -3.29 l
1.41 -2.97 l
1.41 -2.69 l
1.40 -2.42 l
1.41 -2.19 l
1.41 -1.98 l
1.41 -1.79 l
1.40 -1.61 l
1.41 -1.45 l
1.41 -1.32 l
1.40 -1.19 l
1.41 -1.07 l
1.41 -0.97 l
1.41 -0.87 l
1.40 -0.79 l
1.41 -0.72 l
1.41 -0.64 l
1.40 -0.58 l
1.41 -0.53 l
1.41 -0.47 l
1.40 -0.43 l
1.41 -0.39 l
1.41 -0.35 l
1.41 -0.31 l
1.40 -0.29 l
1.41 -0.25 l
1.41 -0.24 l
1.40 -0.21 l
1.41 -0.19 l
1.41 -0.17 l
1.40 -0.15 l
1.41 -0.14 l
1.41 -0.13 l
1.41 -0.11 l
1.40 -0.10 l
1.41 -0.10 l
1.41 -0.08 l
1.40 -0.08 l
1.41 -0.06 l
1.41 -0.07 l
1.41 -0.05 l
1.40 -0.05 l
1.41 -0.05 l
1.41 -0.04 l
1.40 -0.04 l
1.41 -0.03 l
1.41 -0.03 l
1.40 -0.03 l
1.41 -0.02 l
1.41 -0.02 l
1.41 -0.02 l
1.40 -0.02 l
1.41 -0.02 l
1.41 -0.01 l
1.40 -0.02 l
1.41 -0.01 l
1.41 -0.01 l
1.40 -0.01 l
1.41 -0.01 l
1.41 -0.01 l
1.41 0 l
1.40 -0.01 l
1.41 -0.01 l
1.41 0 l
1.40 -0.01 l
1.41 0 l
1.41 0 l
1.41 -0.01 l
1.40 0 l
1.41 0 l
1.41 -0.01 l
1.40 0 l
1.41 0 l
1.41 0 l
1.40 0 l
1.41 -0.01 l
1.41 0 l
1.41 0 l
1.40 0 l
1.41 0 l
1.41 0 l
238.30 66.67 lineto
1.41 0 l
1.41 0 l
1.40 -0.01 l
1.41 0 l
1.41 0 l
1.41 0 l
1.40 0 l
1.41 0 l
1.41 0 l
1.40 0 l
1.41 0 l
1.41 0 l
1.40 0 l
1.41 0 l
1.41 0 l
1.41 0 l
1.40 0 l
1.41 0 l
1.41 0 l
1.40 0 l
1.41 0 l
1.41 0 l
1.41 0 l
1.40 0 l
1.41 0 l
1.41 0 l
1.40 0 l
1.41 0 l
1.41 0 l
1.40 0 l
1.41 0 l
1.41 0 l
1.41 0 l
1.40 0 l
1.41 0 l
1.41 0 l
1.40 0 l
1.41 0 l
1.41 0 l
1.40 0 l
1.41 0 l
1.41 0 l
1.41 0 l
1.40 0 l
1.41 0 l
1.41 0 l
1.40 0 l
1.41 0 l
1.41 0 l
1.41 0 l
1.40 0 l
1.41 0 l
1.41 0 l
1.40 0 l
1.41 0 l
1.41 0 l
1.40 0 l
1.41 0 l
1.41 0 l
1.41 0 l
1.40 0 l
1.41 0 l
1.41 0 l
1.40 0 l
1.41 0 l
1.41 0 l
1.40 0 l
1.41 0 l
1.41 0 l
1.41 0 l
1.40 0 l
1.41 0 l
1.41 0 l
1.40 0 l
1.41 0 l
1.41 0 l
1.41 0 l
1.40 0 l
1.41 0 l
1.41 0 l
1.40 0 l
1.41 0 l
1.41 0 l
1.40 0 l
1.41 0 l
1.41 0 l
1.41 0 l
1.40 0 l
1.41 0 l
1.41 0 l
1.40 0 l
1.41 0 l
1.41 0 l
1.40 0 l
1.41 0 l
1.41 0 l
1.41 0 l
1.40 0 l
1.41 0 l
o
0.00 0.00 432.00 576.00 cl
0 0 0 srgb
0.75 setlinewidth
[] 0 setdash
1 setlinecap
1 setlinejoin
10.00 setmiterlimit
np
97.60 57.60 m
280.00 0 l
o
np
97.60 57.60 m
0 -5.76 l
o
np
153.60 57.60 m
0 -5.76 l
o
np
209.60 57.60 m
0 -5.76 l
o
np
265.60 57.60 m
0 -5.76 l
o
np
321.60 57.60 m
0 -5.76 l
o
np
377.60 57.60 m
0 -5.76 l
o
/Font1 findfont 10 s
97.60 41.47 (0) .5 0 t
153.60 41.47 (200) .5 0 t
209.60 41.47 (400) .5 0 t
265.60 41.47 (600) .5 0 t
321.60 41.47 (800) .5 0 t
377.60 41.47 (1000) .5 0 t
np
86.40 66.13 m
0 219.22 l
o
np
86.40 66.13 m
-5.76 0 l
o
np
86.40 109.98 m
-5.76 0 l
o
np
86.40 153.82 m
-5.76 0 l
o
np
86.40 197.66 m
-5.76 0 l
o
np
86.40 241.51 m
-5.76 0 l
o
np
86.40 285.35 m
-5.76 0 l
o
79.49 62.54 (0.00) 1 0 t
79.49 106.39 (0.05) 1 0 t
79.49 150.23 (0.10) 1 0 t
79.49 194.07 (0.15) 1 0 t
79.49 237.92 (0.20) 1 0 t
79.49 281.76 (0.25) 1 0 t
np
86.40 57.60 m
302.40 0 l
0 230.40 l
-302.40 0 l
0 -230.40 l
o
0.00 0.00 432.00 576.00 cl
/Font1 findfont 10 s
0 0 0 srgb
237.60 13.82 (Zeit / ms \(nach Puls\)) .5 0 t
49.54 172.80 (Absorbanz A) .5 90 t
86.40 57.60 388.80 288.00 cl
/bg { 1 1 1 srgb } def
0 0 0 srgb
0.75 setlinewidth
[] 0 setdash
1 setlinecap
1 setlinejoin
10.00 setmiterlimit
103.48 205.30 0.65 c p3
103.76 199.91 0.65 c p3
104.04 196.10 0.65 c p3
104.32 195.77 0.65 c p3
104.60 194.26 0.65 c p3
104.88 190.84 0.65 c p3
105.16 190.51 0.65 c p3
105.44 187.94 0.65 c p3
105.72 184.99 0.65 c p3
106.00 180.60 0.65 c p3
106.28 180.60 0.65 c p3
106.56 177.70 0.65 c p3
106.84 175.15 0.65 c p3
107.12 174.11 0.65 c p3
107.40 172.37 0.65 c p3
107.68 170.95 0.65 c p3
107.96 167.03 0.65 c p3
108.24 165.63 0.65 c p3
108.52 161.46 0.65 c p3
108.80 159.46 0.65 c p3
109.08 160.08 0.65 c p3
109.36 158.78 0.65 c p3
109.64 158.40 0.65 c p3
109.92 155.36 0.65 c p3
110.20 152.95 0.65 c p3
110.48 147.28 0.65 c p3
110.76 149.28 0.65 c p3
111.04 146.91 0.65 c p3
111.32 146.91 0.65 c p3
111.60 145.95 0.65 c p3
111.88 145.28 0.65 c p3
112.16 144.62 0.65 c p3
112.44 140.02 0.65 c p3
112.72 138.06 0.65 c p3
113.00 135.83 0.65 c p3
113.28 137.12 0.65 c p3
113.56 134.54 0.65 c p3
113.84 133.25 0.65 c p3
114.12 131.61 0.65 c p3
114.40 131.61 0.65 c p3
114.68 130.69 0.65 c p3
114.96 125.97 0.65 c p3
115.24 124.37 0.65 c p3
115.52 124.37 0.65 c p3
115.80 124.09 0.65 c p3
116.08 124.37 0.65 c p3
116.36 123.74 0.65 c p3
116.64 122.21 0.65 c p3
116.92 120.62 0.65 c p3
117.20 116.64 0.65 c p3
117.48 116.02 0.65 c p3
117.76 117.25 0.65 c p3
118.04 116.64 0.65 c p3
118.32 116.02 0.65 c p3
118.60 115.75 0.65 c p3
118.88 112.09 0.65 c p3
119.16 111.48 0.65 c p3
119.44 109.67 0.65 c p3
119.72 108.13 0.65 c p3
120.00 107.86 0.65 c p3
120.28 108.46 0.65 c p3
120.56 106.66 0.65 c p3
120.84 107.26 0.65 c p3
121.12 106.93 0.65 c p3
121.40 104.27 0.65 c p3
121.68 102.23 0.65 c p3
121.96 101.64 0.65 c p3
122.24 101.64 0.65 c p3
122.52 101.64 0.65 c p3
122.80 102.23 0.65 c p3
123.08 101.05 0.65 c p3
123.36 100.46 0.65 c p3
123.64 98.11 0.65 c p3
123.92 95.19 0.65 c p3
124.20 95.77 0.65 c p3
124.48 96.35 0.65 c p3
124.76 95.77 0.65 c p3
125.04 96.03 0.65 c p3
125.32 94.29 0.65 c p3
125.60 93.71 0.65 c p3
125.88 92.62 0.65 c p3
126.16 91.72 0.65 c p3
126.44 91.46 0.65 c p3
126.72 91.14 0.65 c p3
127.00 91.14 0.65 c p3
127.28 91.72 0.65 c p3
127.56 90.00 0.65 c p3
127.84 88.03 0.65 c p3
128.12 88.28 0.65 c p3
128.40 87.46 0.65 c p3
128.68 88.03 0.65 c p3
128.96 88.60 0.65 c p3
129.24 88.28 0.65 c p3
129.52 87.46 0.65 c p3
129.80 87.46 0.65 c p3
130.08 84.87 0.65 c p3
130.36 85.44 0.65 c p3
130.64 85.44 0.65 c p3
130.92 84.05 0.65 c p3
131.20 83.74 0.65 c p3
131.48 85.44 0.65 c p3
131.76 84.05 0.65 c p3
132.04 83.18 0.65 c p3
132.32 83.18 0.65 c p3
132.60 81.80 0.65 c p3
132.88 82.05 0.65 c p3
133.16 82.05 0.65 c p3
133.44 82.37 0.65 c p3
133.72 82.05 0.65 c p3
134.00 81.24 0.65 c p3
134.28 80.43 0.65 c p3
134.56 80.12 0.65 c p3
134.84 79.57 0.65 c p3
135.12 79.32 0.65 c p3
135.40 80.12 0.65 c p3
135.68 79.32 0.65 c p3
135.96 78.76 0.65 c p3
136.24 78.21 0.65 c p3
136.52 77.65 0.65 c p3
136.80 78.21 0.65 c p3
137.08 77.10 0.65 c p3
137.36 78.45 0.65 c p3
137.64 78.76 0.65 c p3
137.92 77.65 0.65 c p3
138.20 75.68 0.65 c p3
138.48 77.65 0.65 c p3
138.76 77.90 0.65 c p3
139.04 76.79 0.65 c p3
139.32 76.54 0.65 c p3
139.60 77.90 0.65 c p3
139.88 76.54 0.65 c p3
140.16 76.79 0.65 c p3
140.44 75.13 0.65 c p3
140.72 76.54 0.65 c p3
141.00 77.34 0.65 c p3
141.28 75.68 0.65 c p3
141.56 76.79 0.65 c p3
141.84 75.44 0.65 c p3
142.12 74.33 0.65 c p3
142.40 73.78 0.65 c p3
142.68 74.03 0.65 c p3
142.96 74.33 0.65 c p3
143.24 74.33 0.65 c p3
143.52 74.89 0.65 c p3
143.80 75.13 0.65 c p3
144.08 73.48 0.65 c p3
144.36 73.24 0.65 c p3
144.64 73.24 0.65 c p3
144.92 73.48 0.65 c p3
145.20 74.89 0.65 c p3
145.48 74.58 0.65 c p3
145.76 74.33 0.65 c p3
146.04 74.33 0.65 c p3
146.32 73.24 0.65 c p3
146.60 71.84 0.65 c p3
146.88 72.14 0.65 c p3
147.16 72.69 0.65 c p3
147.44 72.93 0.65 c p3
147.72 73.78 0.65 c p3
148.00 73.78 0.65 c p3
148.28 72.93 0.65 c p3
148.56 71.84 0.65 c p3
148.84 72.38 0.65 c p3
149.12 71.84 0.65 c p3
149.40 72.14 0.65 c p3
149.68 72.38 0.65 c p3
149.96 72.38 0.65 c p3
150.24 71.59 0.65 c p3
150.52 72.14 0.65 c p3
150.80 71.84 0.65 c p3
151.08 72.38 0.65 c p3
151.36 72.14 0.65 c p3
151.64 72.14 0.65 c p3
151.92 73.78 0.65 c p3
152.20 72.69 0.65 c p3
152.48 72.14 0.65 c p3
152.76 71.59 0.65 c p3
153.04 72.69 0.65 c p3
153.32 71.84 0.65 c p3
216.00 201.60 367.20 247.68 cl
0 0 0 srgb
0.75 setlinewidth
[] 0 setdash
1 setlinecap
1 setlinejoin
10.00 setmiterlimit
221.60 223.46 0.43 c p1
222.39 214.22 0.43 c p1
223.17 210.42 0.43 c p1
223.96 218.74 0.43 c p1
224.75 222.70 0.43 c p1
225.53 219.70 0.43 c p1
226.32 227.47 0.43 c p1
227.11 227.15 0.43 c p1
227.89 225.26 0.43 c p1
228.68 218.11 0.43 c p1
229.47 226.36 0.43 c p1
230.25 224.17 0.43 c p1
231.04 223.01 0.43 c p1
231.82 227.11 0.43 c p1
232.61 228.53 0.43 c p1
233.40 230.95 0.43 c p1
234.18 224.35 0.43 c p1
234.97 226.54 0.43 c p1
235.76 218.74 0.43 c p1
236.54 218.55 0.43 c p1
237.33 227.46 0.43 c p1
238.12 229.45 0.43 c p1
238.90 234.57 0.43 c p1
239.69 230.13 0.43 c p1
240.48 227.78 0.43 c p1
241.26 213.75 0.43 c p1
242.05 226.83 0.43 c p1
242.84 224.25 0.43 c p1
243.62 229.98 0.43 c p1
244.41 232.18 0.43 c p1
245.20 235.33 0.43 c p1
245.98 238.37 0.43 c p1
246.77 227.31 0.43 c p1
247.56 225.54 0.43 c p1
248.34 222.69 0.43 c p1
249.13 232.26 0.43 c p1
249.91 227.95 0.43 c p1
250.70 228.15 0.43 c p1
251.49 227.02 0.43 c p1
252.27 231.60 0.43 c p1
253.06 232.81 0.43 c p1
253.85 220.46 0.43 c p1
254.63 219.07 0.43 c p1
255.42 223.30 0.43 c p1
256.21 226.45 0.43 c p1
256.99 231.50 0.43 c p1
257.78 233.25 0.43 c p1
258.57 231.72 0.43 c p1
259.35 229.89 0.43 c p1
260.14 219.50 0.43 c p1
260.93 220.98 0.43 c p1
261.71 228.94 0.43 c p1
262.50 230.28 0.43 c p1
263.29 231.55 0.43 c p1
264.07 233.96 0.43 c p1
264.86 224.27 0.43 c p1
265.64 225.36 0.43 c p1
266.43 222.10 0.43 c p1
267.22 219.75 0.43 c p1
268.00 221.86 0.43 c p1
268.79 226.99 0.43 c p1
269.58 223.53 0.43 c p1
270.36 228.53 0.43 c p1
271.15 230.16 0.43 c p1
271.94 223.50 0.43 c p1
272.72 218.95 0.43 c p1
273.51 219.50 0.43 c p1
274.30 222.10 0.43 c p1
275.08 224.64 0.43 c p1
275.87 229.23 0.43 c p1
276.66 227.48 0.43 c p1
277.44 227.78 0.43 c p1
278.23 221.79 0.43 c p1
279.02 213.74 0.43 c p1
279.80 218.05 0.43 c p1
280.59 222.33 0.43 c p1
281.38 222.42 0.43 c p1
282.16 225.46 0.43 c p1
282.95 221.35 0.43 c p1
283.73 221.33 0.43 c p1
284.52 219.45 0.43 c p1
285.31 218.22 0.43 c p1
286.09 219.23 0.43 c p1
286.88 219.97 0.43 c p1
287.67 221.81 0.43 c p1
288.45 225.66 0.43 c p1
289.24 221.30 0.43 c p1
290.03 216.04 0.43 c p1
290.81 218.64 0.43 c p1
291.60 217.38 0.43 c p1
292.39 221.03 0.43 c p1
293.17 224.65 0.43 c p1
293.96 225.09 0.43 c p1
294.75 223.70 0.43 c p1
295.53 225.20 0.43 c p1
296.32 217.50 0.43 c p1
297.11 220.95 0.43 c p1
297.89 222.36 0.43 c p1
298.68 218.84 0.43 c p1
299.47 219.08 0.43 c p1
300.25 226.43 0.43 c p1
301.04 222.83 0.43 c p1
301.82 220.99 0.43 c p1
302.61 222.24 0.43 c p1
303.40 218.59 0.43 c p1
304.18 220.68 0.43 c p1
304.97 221.85 0.43 c p1
305.76 224.12 0.43 c p1
306.54 224.14 0.43 c p1
307.33 222.37 0.43 c p1
308.12 220.59 0.43 c p1
308.90 220.55 0.43 c p1
309.69 219.61 0.43 c p1
310.48 219.75 0.43 c p1
311.26 223.61 0.43 c p1
312.05 221.73 0.43 c p1
312.84 220.72 0.43 c p1
313.62 219.68 0.43 c p1
314.41 218.63 0.43 c p1
315.20 221.51 0.43 c p1
315.98 218.46 0.43 c p1
316.77 224.14 0.43 c p1
317.56 226.09 0.43 c p1
318.34 222.98 0.43 c p1
319.13 216.81 0.43 c p1
319.91 224.59 0.43 c p1
320.70 226.26 0.43 c p1
321.49 223.09 0.43 c p1
322.27 222.97 0.43 c p1
323.06 228.52 0.43 c p1
323.85 224.43 0.43 c p1
324.63 226.01 0.43 c p1
325.42 220.82 0.43 c p1
326.21 226.51 0.43 c p1
326.99 230.02 0.43 c p1
327.78 224.78 0.43 c p1
328.57 229.35 0.43 c p1
329.35 225.18 0.43 c p1
330.14 221.88 0.43 c p1
330.93 220.53 0.43 c p1
331.71 221.99 0.43 c p1
332.50 223.65 0.43 c p1
333.29 224.22 0.43 c p1
334.07 226.73 0.43 c p1
334.86 228.14 0.43 c p1
335.64 222.82 0.43 c p1
336.43 222.48 0.43 c p1
337.22 222.99 0.43 c p1
338.00 224.36 0.43 c p1
338.79 229.84 0.43 c p1
339.58 229.23 0.43 c p1
340.36 228.84 0.43 c p1
341.15 229.30 0.43 c p1
341.94 225.85 0.43 c p1
342.72 221.33 0.43 c p1
343.51 222.85 0.43 c p1
344.30 225.22 0.43 c p1
345.08 226.50 0.43 c p1
345.87 229.94 0.43 c p1
346.66 230.34 0.43 c p1
347.44 227.70 0.43 c p1
348.23 224.20 0.43 c p1
349.02 226.52 0.43 c p1
349.80 224.95 0.43 c p1
350.59 226.39 0.43 c p1
351.38 227.61 0.43 c p1
352.16 227.96 0.43 c p1
352.95 225.50 0.43 c p1
353.73 227.77 0.43 c p1
354.52 227.02 0.43 c p1
355.31 229.29 0.43 c p1
356.09 228.74 0.43 c p1
356.88 229.05 0.43 c p1
357.67 235.18 0.43 c p1
358.45 231.59 0.43 c p1
359.24 229.93 0.43 c p1
360.03 228.28 0.43 c p1
360.81 232.44 0.43 c p1
361.60 229.69 0.43 c p1
0.00 0.00 432.00 576.00 cl
0 0 0 srgb
0.75 setlinewidth
[] 0 setdash
1 setlinecap
1 setlinejoin
10.00 setmiterlimit
np
244.41 201.60 m
117.98 0 l
o
np
244.41 201.60 m
0 -5.76 l
o
np
283.73 201.60 m
0 -5.76 l
o
np
323.06 201.60 m
0 -5.76 l
o
np
362.39 201.60 m
0 -5.76 l
o
/Font1 findfont 6 s
244.41 185.47 (50) .5 0 t
283.73 185.47 (100) .5 0 t
323.06 185.47 (150) .5 0 t
362.39 185.47 (200) .5 0 t
np
216.00 205.96 m
0 37.36 l
o
np
216.00 205.96 m
-5.76 0 l
o
np
216.00 212.19 m
-5.76 0 l
o
np
216.00 218.41 m
-5.76 0 l
o
np
216.00 224.64 m
-5.76 0 l
o
np
216.00 230.87 m
-5.76 0 l
o
np
216.00 237.09 m
-5.76 0 l
o
np
216.00 243.32 m
-5.76 0 l
o
209.09 203.81 (-0.006) 1 0 t
209.09 210.04 (-0.004) 1 0 t
209.09 216.26 (-0.002) 1 0 t
209.09 222.49 (0.000) 1 0 t
209.09 228.71 (0.002) 1 0 t
209.09 234.94 (0.004) 1 0 t
209.09 241.16 (0.006) 1 0 t
np
216.00 201.60 m
151.20 0 l
0 46.08 l
-151.20 0 l
0 -46.08 l
o
0.00 0.00 432.00 576.00 cl
/Font1 findfont 9 s
0 0 0 srgb
291.60 262.88 (Residuen) .5 0 t
59.04 73.44 401.76 516.96 cl
ep
%%Trailer
%%Pages: 1
%%EOF
