%!PS-Adobe-3.0 EPSF-3.0
%%DocumentNeededResources: font Helvetica
%%+ font Helvetica-Bold
%%+ font Helvetica-Oblique
%%+ font Helvetica-BoldOblique
%%+ font Symbol
%%Title: R Graphics Output
%%Creator: R Software
%%Pages: (atend)
%%BoundingBox: 0 0 432 576
%%EndComments
%%BeginProlog
/bp  { gs sRGB gs } def
% begin .ps.prolog
/gs  { gsave } bind def
/gr  { grestore } bind def
/ep  { showpage gr gr } bind def
/m   { moveto } bind def
/l  { rlineto } bind def
/np  { newpath } bind def
/cp  { closepath } bind def
/f   { fill } bind def
/o   { stroke } bind def
/c   { newpath 0 360 arc } bind def
/r   { 4 2 roll moveto 1 copy 3 -1 roll exch 0 exch rlineto 0 rlineto -1 mul 0 exch rlineto closepath } bind def
/p1  { stroke } bind def
/p2  { gsave bg fill grestore newpath } bind def
/p3  { gsave bg fill grestore stroke } bind def
/p6  { gsave bg eofill grestore newpath } bind def
/p7  { gsave bg eofill grestore stroke } bind def
/t   { 5 -2 roll moveto gsave rotate
       1 index stringwidth pop
       mul neg 0 rmoveto show grestore } bind def
/ta  { 4 -2 roll moveto gsave rotate show } bind def
/tb  { 2 -1 roll 0 rmoveto show } bind def
/cl  { grestore gsave newpath 3 index 3 index moveto 1 index
       4 -1 roll lineto  exch 1 index lineto lineto
       closepath clip newpath } bind def
/rgb { setrgbcolor } bind def
/s   { scalefont setfont } bind def
% end   .ps.prolog
/sRGB { [ /CIEBasedABC
          << /DecodeLMN
               [ { dup 0.03928 le
                        {12.92321 div}
                        {0.055 add 1.055 div 2.4 exp }
                     ifelse
                 } bind dup dup
               ]
             /MatrixLMN [0.412457 0.212673 0.019334
                         0.357576 0.715152 0.119192
                         0.180437 0.072175 0.950301]
             /WhitePoint [0.9505 1.0 1.0890]
           >>
         ] setcolorspace } bind def
/srgb { setcolor } bind def
%%IncludeResource: font Helvetica
/Helvetica findfont
dup length dict begin
  {1 index /FID ne {def} {pop pop} ifelse} forall
  /Encoding ISOLatin1Encoding def
  currentdict
  end
/Font1 exch definefont pop
%%IncludeResource: font Helvetica-Bold
/Helvetica-Bold findfont
dup length dict begin
  {1 index /FID ne {def} {pop pop} ifelse} forall
  /Encoding ISOLatin1Encoding def
  currentdict
  end
/Font2 exch definefont pop
%%IncludeResource: font Helvetica-Oblique
/Helvetica-Oblique findfont
dup length dict begin
  {1 index /FID ne {def} {pop pop} ifelse} forall
  /Encoding ISOLatin1Encoding def
  currentdict
  end
/Font3 exch definefont pop
%%IncludeResource: font Helvetica-BoldOblique
/Helvetica-BoldOblique findfont
dup length dict begin
  {1 index /FID ne {def} {pop pop} ifelse} forall
  /Encoding ISOLatin1Encoding def
  currentdict
  end
/Font4 exch definefont pop
%%IncludeResource: font Symbol
/Symbol findfont
dup length dict begin
  {1 index /FID ne {def} {pop pop} ifelse} forall
  currentdict
  end
/Font5 exch definefont pop
%%EndProlog
%%Page: 1 1
bp
0.00 0.00 432.00 576.00 cl
0.00 0.00 432.00 576.00 cl
0.00 0.00 432.00 576.00 cl
/Font1 findfont 12 s
0 0 0 srgb
48.00 508.72 (PCP-ETH) 0 0 t
48.00 494.89 (Blitzlicht-Photolyse) 0 0 t
/Font1 findfont 9 s
48.00 457.54 (File: Dy) 0 ta
-0.180 (e_0_1_V3_900V_30.dat) tb gr
48.00 334.87 (T) 0 ta
-1.080 (ue Apr  9 22:06:36 2019) tb gr
48.00 430.87 (Fitfunktion:  a + b * e) 0 ta
-0.270 (xp\(-c * t\)) tb gr
48.00 420.50 (t-Inter) 0 ta
0.270 (v) tb
-0.225 (all: 12.000 ... 257.000 ms) tb gr
48.00 410.14 (P) 0 ta
-0.360 (ar) tb
-0.090 (ameter \(Standardabw) tb
-0.090 (eichung\):) tb gr
48.00 399.77 (  a = -0.00337 \(0.00036\)) 0 0 t
48.00 389.40 (  b = 0.25703 \(0.00065\)) 0 0 t
48.00 379.03 (  c = 1.414e+01 \(8.676e-02\) s^-1) 0 0 t
48.00 368.66 (  tau = 7.071e-02 \(4.338e-04\) s) 0 0 t
216.00 345.60 388.80 518.40 cl
0 0 0 srgb
0.75 setlinewidth
[] 0 setdash
1 setlinecap
1 setlinejoin
10.00 setmiterlimit
np
222.40 511.02 m
0.15 -0.13 l
0.14 0.35 l
0.15 0 l
0.14 0 l
0.15 -0.22 l
0.14 0 l
0.15 0.22 l
0.14 -0.44 l
0.15 0.66 l
0.15 0.22 l
0.14 -0.12 l
0.15 -0.10 l
0.14 0 l
0.15 0.10 l
0.14 -0.54 l
0.15 0.22 l
0.14 0.22 l
0.15 -0.44 l
0.15 0.10 l
0.14 -0.32 l
0.15 0.54 l
0.14 0 l
0.15 0 l
0.14 0.12 l
0.15 -0.22 l
0.15 0 l
0.14 0.22 l
0.15 0 l
0.14 0.44 l
0.15 -1.01 l
0.14 0.13 l
0.15 0.54 l
0.14 -0.32 l
0.15 -0.22 l
0.15 0.76 l
0.14 -0.32 l
0.15 -0.22 l
0.14 -0.22 l
0.15 0 l
0.14 0.32 l
0.15 0.12 l
0.14 -0.44 l
0.15 0.10 l
0.15 -0.10 l
0.14 0.32 l
0.15 -0.10 l
0.14 0.22 l
0.15 -0.44 l
0.14 0.22 l
0.15 0.10 l
0.14 0.22 l
0.15 -0.44 l
0.15 0.34 l
0.14 0.10 l
0.15 -0.44 l
0.14 0.12 l
0.15 0 l
0.14 0.10 l
0.15 0.22 l
0.15 -0.32 l
0.14 0.10 l
0.15 0.22 l
0.14 -0.44 l
0.15 -0.10 l
0.14 0.54 l
0.15 -0.32 l
0.14 0.10 l
0.15 -0.22 l
0.15 0.56 l
0.14 -0.79 l
0.15 0.89 l
0.14 -0.44 l
0.15 0.34 l
0.14 -0.44 l
0.15 0.32 l
0.14 0.22 l
0.15 -0.98 l
0.15 0.44 l
0.14 0.10 l
0.15 -0.22 l
0.14 0.22 l
0.15 -0.45 l
0.14 0.23 l
0.15 0.44 l
0.14 -0.54 l
0.15 0.44 l
0.15 0.22 l
0.14 0 l
0.15 -0.22 l
0.14 0 l
0.15 -0.12 l
0.14 0.66 l
0.15 -0.98 l
0.15 0.44 l
0.14 -0.22 l
0.15 0.10 l
0.14 -0.22 l
0.15 0.34 l
0.14 0 l
236.96 501.85 lineto
0.14 -62.41 l
0.15 2.99 l
0.15 1.32 l
0.14 0.45 l
0.15 1.64 l
0.14 0.99 l
0.15 0.56 l
0.14 0.98 l
0.15 1.55 l
0.14 0.35 l
0.15 -0.23 l
0.15 0.67 l
0.14 0.64 l
0.15 0.88 l
0.14 0.88 l
0.15 1.11 l
0.14 -0.88 l
0.15 0.66 l
0.14 0.66 l
0.15 1.43 l
0.15 0.34 l
0.14 1.43 l
0.15 -0.45 l
0.14 1.33 l
0.15 0 l
0.14 0.34 l
0.15 0.77 l
0.15 1.32 l
0.14 0.54 l
0.15 -0.22 l
0.14 0.44 l
0.15 0.89 l
0.14 0.66 l
0.15 0.35 l
0.14 0 l
0.15 1.08 l
0.15 0 l
0.14 0.44 l
0.15 0.78 l
0.14 1.55 l
0.15 -0.34 l
0.14 0.12 l
0.15 0.44 l
0.14 0.54 l
0.15 0.89 l
0.15 1.20 l
0.14 0.44 l
0.15 0.13 l
0.14 0.22 l
0.15 0.22 l
0.14 0.66 l
0.15 0.44 l
0.14 0.55 l
0.15 0.66 l
0.15 0.12 l
0.14 0.76 l
0.15 -0.34 l
0.14 1.45 l
0.15 0 l
0.14 0.54 l
0.15 0.44 l
0.15 0.57 l
0.14 0.32 l
0.15 1.00 l
0.14 0.42 l
0.15 0.44 l
0.14 -0.44 l
0.15 0.44 l
0.14 1.01 l
0.15 0.22 l
0.15 0.98 l
0.14 -0.32 l
0.15 0.67 l
0.14 0.10 l
0.15 0.12 l
0.14 0.66 l
0.15 0.67 l
0.14 0.41 l
0.15 0.35 l
0.15 0.09 l
0.14 0.45 l
0.15 0.22 l
0.14 0.66 l
0.15 0.12 l
0.14 0.45 l
0.15 0.54 l
0.14 0.44 l
0.15 0.22 l
0.15 0.34 l
0.14 0.45 l
0.15 0.19 l
0.14 -0.19 l
0.15 0.64 l
0.14 0.56 l
0.15 0.54 l
0.15 0.44 l
0.14 -0.22 l
0.15 0.67 l
0.14 0 l
251.52 490.38 lineto
0.14 1.45 l
0.15 0.44 l
0.14 0.32 l
0.15 -0.44 l
0.15 0.12 l
0.14 0.32 l
0.15 1.11 l
0.14 0.88 l
0.15 0.22 l
0.14 -0.12 l
0.15 0.12 l
0.14 0.32 l
0.15 0 l
0.15 0.45 l
0.14 0.22 l
0.15 -0.22 l
0.14 0.12 l
0.15 0.22 l
0.14 0.22 l
0.15 0 l
0.14 0.98 l
0.15 -0.10 l
0.15 0.23 l
0.14 0.22 l
0.15 -0.13 l
0.14 0.77 l
0.15 0.66 l
0.14 -0.22 l
0.15 0.22 l
0.14 -0.22 l
0.15 0.34 l
0.15 0.54 l
0.14 0.67 l
0.15 -0.55 l
0.14 0 l
0.15 0.55 l
0.14 0 l
0.15 -0.10 l
0.15 0.54 l
0.14 -0.32 l
0.15 0.44 l
0.14 0.66 l
0.15 -0.34 l
0.14 -0.22 l
0.15 0.78 l
0.14 0.45 l
0.15 -0.35 l
0.15 0 l
0.14 0.57 l
0.15 0.42 l
0.14 0.56 l
0.15 -0.22 l
0.14 0.22 l
0.15 -0.22 l
0.14 0 l
0.15 0 l
0.15 0.32 l
0.14 0.44 l
0.15 -0.44 l
0.14 0.34 l
0.15 -0.12 l
0.14 0 l
0.15 0.57 l
0.14 0.22 l
0.15 -0.13 l
0.15 0.13 l
0.14 0 l
0.15 0.44 l
0.14 0 l
0.15 0.76 l
0.14 0 l
0.15 -0.10 l
0.15 0.10 l
0.14 -0.32 l
0.15 0.10 l
0.14 -0.10 l
0.15 0.44 l
0.14 -0.12 l
0.15 -0.10 l
0.14 0.44 l
0.15 -0.66 l
0.15 0.54 l
0.14 0.44 l
0.15 0.13 l
0.14 -0.35 l
0.15 0.44 l
0.14 -0.22 l
0.15 -0.32 l
0.14 1.33 l
0.15 -0.22 l
0.15 0.32 l
0.14 -0.66 l
0.15 -0.23 l
0.14 0.45 l
0.15 0.12 l
0.14 0.54 l
0.15 -0.44 l
0.14 0.12 l
0.15 -0.44 l
266.08 507.04 lineto
0.14 -0.22 l
0.15 0.88 l
0.14 0.10 l
0.15 -0.76 l
0.14 0.32 l
0.15 0 l
0.15 0.34 l
0.14 0.10 l
0.15 0.12 l
0.14 -0.22 l
0.15 0.32 l
0.14 -0.22 l
0.15 0.22 l
0.14 0.22 l
0.15 0.12 l
0.15 -0.22 l
0.14 -0.22 l
0.15 0.10 l
0.14 -0.32 l
0.15 0.66 l
0.14 0.10 l
0.15 -0.32 l
0.14 -0.34 l
0.15 0.56 l
0.15 0.10 l
0.14 0.44 l
0.15 -0.09 l
0.14 -0.13 l
0.15 -0.22 l
0.14 0.22 l
0.15 -0.54 l
0.14 -0.34 l
0.15 1.10 l
0.15 -0.22 l
0.14 -0.22 l
0.15 -0.32 l
0.14 0.32 l
0.15 -0.44 l
0.14 0.88 l
0.15 0 l
0.15 0 l
0.14 0.23 l
0.15 -0.54 l
0.14 -0.35 l
0.15 0.79 l
0.14 0.44 l
0.15 -0.22 l
0.14 -0.57 l
0.15 0 l
0.15 0.22 l
0.14 0.23 l
0.15 0.12 l
0.14 -0.12 l
0.15 0.12 l
0.14 -0.22 l
0.15 -0.67 l
0.14 0.67 l
0.15 0.44 l
0.15 0 l
0.14 -0.57 l
0.15 -0.09 l
0.14 -0.35 l
0.15 0.35 l
0.14 0.54 l
0.15 0.56 l
0.14 -1.01 l
0.15 -0.09 l
0.15 0.22 l
0.14 0.22 l
0.15 0.54 l
0.14 -0.54 l
0.15 0.10 l
0.14 -0.22 l
0.15 -0.45 l
0.15 0 l
0.14 0.67 l
0.15 -0.32 l
0.14 0.10 l
0.15 0.22 l
0.14 -0.22 l
0.15 -0.32 l
0.14 0.32 l
0.15 0.22 l
0.15 -0.22 l
0.14 0 l
0.15 -0.23 l
0.14 -0.31 l
0.15 0.76 l
0.14 0 l
0.15 0.12 l
0.14 0 l
0.15 -0.57 l
0.15 0.13 l
0.14 0.32 l
0.15 0.12 l
0.14 0.22 l
0.15 -0.44 l
0.14 -0.12 l
0.15 -0.10 l
280.63 509.13 lineto
0.15 0.12 l
0.15 -0.12 l
0.14 0.12 l
0.15 -0.22 l
0.14 -0.22 l
0.15 0.32 l
0.14 0 l
0.15 0.34 l
0.15 0 l
0.14 -0.34 l
0.15 0.66 l
0.14 -0.44 l
0.15 0.78 l
0.14 -0.44 l
0.15 -0.44 l
0.14 -0.12 l
0.15 -0.54 l
0.15 0.76 l
0.14 0.12 l
0.15 0.10 l
0.14 -0.22 l
0.15 -0.45 l
0.14 -0.76 l
0.15 0.76 l
0.14 0.13 l
0.15 0.54 l
0.15 -0.32 l
0.14 0 l
0.15 -0.22 l
0.14 0 l
0.15 0 l
0.14 0.10 l
0.15 -0.10 l
0.14 -0.13 l
0.15 0.23 l
0.15 -0.45 l
0.14 0.57 l
0.15 -0.22 l
0.14 0.32 l
0.15 -0.54 l
0.14 -0.22 l
0.15 0.31 l
0.14 0.13 l
0.15 0.22 l
0.15 0 l
0.14 0 l
0.15 -0.35 l
0.14 -0.22 l
0.15 0.35 l
0.14 -0.22 l
0.15 0.54 l
0.15 -0.22 l
0.14 0.34 l
0.15 -0.79 l
0.14 0.35 l
0.15 0.10 l
0.14 0.22 l
0.15 -0.22 l
0.14 -0.45 l
0.15 -0.09 l
0.15 0.44 l
0.14 0 l
0.15 0.10 l
0.14 -0.54 l
0.15 0.22 l
0.14 -0.13 l
0.15 0.45 l
0.14 0.12 l
0.15 0 l
0.15 -0.44 l
0.14 -0.13 l
0.15 0.35 l
0.14 -0.44 l
0.15 0.44 l
0.14 0 l
0.15 -0.44 l
0.14 0.09 l
0.15 -0.44 l
0.15 0.66 l
0.14 -0.22 l
0.15 0.13 l
0.14 -0.22 l
0.15 0.22 l
0.14 -0.67 l
0.15 0.54 l
0.15 0.22 l
0.14 -0.09 l
0.15 0 l
0.14 -0.13 l
0.15 0.22 l
0.14 -0.22 l
0.15 0.45 l
0.14 -0.10 l
0.15 -0.13 l
0.15 -0.66 l
0.14 0.22 l
0.15 0.35 l
0.14 0.09 l
0.15 -0.31 l
295.19 508.46 lineto
0.15 0.13 l
0.14 0.09 l
0.15 -0.32 l
0.15 0.10 l
0.14 0 l
0.15 0.13 l
0.14 0 l
0.15 -0.13 l
0.14 -0.32 l
0.15 0.99 l
0.14 -0.32 l
0.15 -0.13 l
0.15 0 l
0.14 -0.44 l
0.15 0.35 l
0.14 -0.23 l
0.15 0.32 l
0.14 -0.09 l
0.15 -0.45 l
0.15 0 l
0.14 -0.44 l
0.15 0.66 l
0.14 0.32 l
0.15 0 l
0.14 -0.44 l
0.15 0.22 l
0.14 -0.44 l
0.15 0.34 l
0.15 0.45 l
0.14 0.32 l
0.15 -0.45 l
0.14 -0.32 l
0.15 -0.34 l
0.14 0.22 l
0.15 0.79 l
0.14 -0.35 l
0.15 -0.98 l
0.15 0.98 l
0.14 -0.76 l
0.15 0.76 l
0.14 -0.32 l
0.15 -0.12 l
0.14 0 l
0.15 0.35 l
0.14 -0.57 l
0.15 0 l
0.15 0.44 l
0.14 0 l
0.15 0.22 l
0.14 0 l
0.15 -0.44 l
0.14 0 l
0.15 0.12 l
0.15 0.89 l
0.14 -1.01 l
0.15 0.35 l
0.14 -0.45 l
0.15 -0.34 l
0.14 0.44 l
0.15 0.57 l
0.14 -0.57 l
0.15 -0.10 l
0.15 -0.22 l
0.14 -0.12 l
0.15 0.56 l
0.14 0.10 l
0.15 0.13 l
0.14 -0.57 l
0.15 0.22 l
0.14 -0.10 l
0.15 0 l
0.15 0.67 l
0.14 -0.67 l
0.15 -0.44 l
0.14 0.44 l
0.15 0 l
0.14 0.32 l
0.15 0 l
0.14 -0.32 l
0.15 0 l
0.15 -0.44 l
0.14 0 l
0.15 0.44 l
0.14 0.32 l
0.15 0.13 l
0.14 -0.67 l
0.15 0.54 l
0.15 -0.54 l
0.14 0.44 l
0.15 0.32 l
0.14 -0.09 l
0.15 -0.13 l
0.14 -0.22 l
0.15 -0.10 l
0.14 -0.44 l
0.15 0.32 l
0.15 0.22 l
0.14 0 l
0.15 -0.76 l
309.75 507.80 lineto
0.15 -0.10 l
0.14 0.10 l
0.15 0.56 l
0.14 -0.22 l
0.15 -0.44 l
0.15 0 l
0.14 0.44 l
0.15 0.10 l
0.14 0.57 l
0.15 -0.67 l
0.14 0.10 l
0.15 0.12 l
0.14 -0.22 l
0.15 -0.44 l
0.15 0.44 l
0.14 -0.22 l
0.15 -0.44 l
0.14 0.32 l
0.15 0 l
0.14 -0.10 l
0.15 0.10 l
0.15 0.22 l
0.14 -0.10 l
0.15 0 l
0.14 -0.12 l
0.15 0.34 l
0.14 -0.22 l
0.15 0.67 l
0.14 -0.67 l
0.15 0.32 l
0.15 0.22 l
0.14 -0.76 l
0.15 0.44 l
0.14 0.54 l
0.15 -0.54 l
0.14 -0.78 l
0.15 0.78 l
0.14 -0.22 l
0.15 -0.56 l
0.15 0.78 l
0.14 -0.34 l
0.15 0 l
0.14 0.12 l
0.15 -0.12 l
0.14 0.12 l
0.15 -0.22 l
0.14 0.89 l
0.15 -0.67 l
0.15 0.44 l
0.14 -0.78 l
0.15 -0.10 l
0.14 0.76 l
0.15 0.35 l
0.14 -0.35 l
0.15 -0.22 l
0.15 0 l
0.14 -0.66 l
0.15 0.22 l
0.14 0.56 l
0.15 -0.22 l
0.14 0.10 l
0.15 -0.10 l
0.14 -0.22 l
0.15 0.10 l
0.15 -0.10 l
0.14 0.32 l
0.15 0.34 l
0.14 -0.66 l
0.15 -0.44 l
0.14 0.54 l
0.15 0.34 l
0.14 0.22 l
0.15 -0.12 l
0.15 -0.66 l
0.14 -0.22 l
0.15 0.12 l
0.14 0.22 l
0.15 -0.12 l
0.14 0 l
0.15 -0.22 l
0.14 0 l
0.15 0 l
0.15 0.22 l
0.14 -0.22 l
0.15 0.34 l
0.14 0.22 l
0.15 -0.56 l
0.14 0.66 l
0.15 0.57 l
0.14 -0.57 l
0.15 0.34 l
0.15 -0.44 l
0.14 -0.22 l
0.15 -0.44 l
0.14 0.54 l
0.15 0.22 l
0.14 0.57 l
0.15 -1.11 l
0.15 0.32 l
324.31 507.70 lineto
0.15 -0.34 l
0.14 0.78 l
0.15 -0.12 l
0.14 -0.10 l
0.15 -0.12 l
0.14 -0.32 l
0.15 -0.12 l
0.15 1.00 l
0.14 -0.22 l
0.15 -0.98 l
0.14 0.64 l
0.15 -0.10 l
0.14 0.10 l
0.15 0.34 l
0.14 0.10 l
0.15 -0.54 l
0.15 0.10 l
0.14 -0.54 l
0.15 0 l
0.14 0 l
0.15 0.22 l
0.14 0.32 l
0.15 0.34 l
0.14 -0.56 l
0.15 0 l
0.15 0.34 l
0.14 0 l
0.15 0.76 l
0.14 -1.42 l
0.15 0.22 l
0.14 0.54 l
0.15 -0.32 l
0.15 0.44 l
0.14 0 l
0.15 0.10 l
0.14 -0.54 l
0.15 -0.34 l
0.14 0.12 l
0.15 0.32 l
0.14 0.12 l
0.15 0 l
0.15 -0.44 l
0.14 -0.12 l
0.15 -0.32 l
0.14 0.98 l
0.15 0.12 l
0.14 0.22 l
0.15 -0.56 l
0.14 -0.76 l
0.15 0.32 l
0.15 0.34 l
0.14 0.66 l
0.15 -0.44 l
0.14 0.10 l
0.15 -0.22 l
0.14 -0.10 l
0.15 0.22 l
0.14 0 l
0.15 -0.22 l
0.15 0.22 l
0.14 -0.12 l
0.15 -0.54 l
0.14 0.44 l
0.15 0.22 l
0.14 -0.22 l
0.15 -0.22 l
0.15 0.22 l
0.14 -0.22 l
0.15 0.22 l
0.14 0.22 l
0.15 0.32 l
0.14 -0.22 l
0.15 -0.22 l
0.14 -0.44 l
0.15 0.44 l
0.15 -0.32 l
0.14 0.44 l
0.15 -0.34 l
0.14 0.56 l
0.15 -0.44 l
0.14 -0.66 l
0.15 0.54 l
0.14 -0.10 l
0.15 0.22 l
0.15 -0.22 l
0.14 0.44 l
0.15 -0.66 l
0.14 0.22 l
0.15 0.98 l
0.14 -0.32 l
0.15 0.10 l
0.14 -0.44 l
0.15 -0.22 l
0.15 0.12 l
0.14 -0.44 l
0.15 0.66 l
0.14 -0.44 l
0.15 0 l
0.14 -0.22 l
338.87 507.48 lineto
0.15 0.10 l
0.14 0.22 l
0.15 0.22 l
0.14 0.12 l
0.15 -0.78 l
0.14 -0.10 l
0.15 0.88 l
0.14 -0.34 l
0.15 0.34 l
0.15 -0.34 l
0.14 -0.10 l
0.15 -0.12 l
0.14 -0.42 l
0.15 0.54 l
0.14 0.76 l
0.15 -0.98 l
0.14 -0.12 l
0.15 0 l
0.15 0 l
0.14 0.56 l
0.15 0.32 l
0.14 -0.88 l
0.15 0.22 l
0.14 -0.22 l
0.15 -0.42 l
0.14 0.54 l
0.15 0.66 l
0.15 -0.12 l
0.14 -0.44 l
0.15 0.34 l
0.14 0 l
0.15 0 l
0.14 0.10 l
0.15 0.12 l
0.15 -0.22 l
0.14 -0.34 l
0.15 0 l
0.14 -0.32 l
0.15 0.66 l
0.14 -0.44 l
0.15 0.22 l
0.14 -0.44 l
0.15 0.10 l
0.15 0.12 l
0.14 0.22 l
0.15 0.89 l
0.14 -0.35 l
0.15 -0.32 l
0.14 -0.22 l
0.15 -0.22 l
0.14 0.22 l
0.15 0.54 l
0.15 -0.66 l
0.14 0 l
0.15 0.12 l
0.14 -0.12 l
0.15 -0.32 l
0.14 0.66 l
0.15 0.10 l
0.14 -0.22 l
0.15 -0.76 l
0.15 0.66 l
0.14 0.10 l
0.15 0.12 l
0.14 -0.22 l
0.15 0 l
0.14 0.32 l
0.15 -0.76 l
0.15 0.32 l
0.14 0.34 l
0.15 0.32 l
0.14 -0.44 l
0.15 0.22 l
0.14 -0.32 l
0.15 -0.54 l
0.14 0.54 l
0.15 0.32 l
0.15 -0.32 l
0.14 0.22 l
0.15 -0.56 l
0.14 0.12 l
0.15 0.22 l
0.14 0.32 l
0.15 -0.10 l
0.14 -0.56 l
0.15 -0.10 l
0.15 0.10 l
0.14 0 l
0.15 0.78 l
0.14 0.54 l
0.15 -1.10 l
0.14 0.34 l
0.15 -0.12 l
0.14 -0.44 l
0.15 0.66 l
0.15 -0.10 l
0.14 -0.22 l
0.15 -0.34 l
0.14 -0.32 l
353.43 506.94 lineto
0.14 0.42 l
0.15 1.10 l
0.14 -0.54 l
0.15 -0.56 l
0.15 0 l
0.14 -0.20 l
0.15 0.42 l
0.14 0.12 l
0.15 0.32 l
0.14 0 l
0.15 -0.66 l
0.15 0.34 l
0.14 0.22 l
0.15 0.32 l
0.14 -0.10 l
0.15 -0.78 l
0.14 0.12 l
0.15 0.22 l
0.14 -0.12 l
0.15 0 l
0.15 0.44 l
0.14 -0.22 l
0.15 -0.22 l
0.14 -0.32 l
0.15 0.10 l
0.14 0.56 l
0.15 0.22 l
0.14 -0.34 l
0.15 0.34 l
0.15 -0.56 l
0.14 -0.32 l
0.15 0.76 l
0.14 0.66 l
0.15 -0.54 l
0.14 -0.56 l
0.15 0 l
0.14 -0.10 l
0.15 0.32 l
0.15 0.12 l
0.14 0.32 l
0.15 -0.66 l
0.14 -0.22 l
0.15 0 l
0.14 0.44 l
0.15 0.12 l
0.15 0.22 l
0.14 -0.34 l
0.15 -0.22 l
0.14 0.44 l
0.15 -0.54 l
0.14 0.76 l
0.15 -0.32 l
0.14 -0.12 l
0.15 0.22 l
0.15 -0.54 l
0.14 0 l
0.15 0.32 l
0.14 -0.22 l
0.15 0.12 l
0.14 -0.66 l
0.15 0.44 l
0.14 0 l
0.15 0.98 l
0.15 -0.44 l
0.14 0.34 l
0.15 -1.00 l
0.14 0.56 l
0.15 -0.44 l
0.14 0.32 l
0.15 0.56 l
0.14 -0.12 l
0.15 -0.22 l
0.15 -0.22 l
0.14 -0.22 l
0.15 -0.10 l
0.14 0.44 l
0.15 0 l
0.14 -0.22 l
0.15 -0.22 l
0.15 -0.22 l
0.14 0.32 l
0.15 -0.10 l
0.14 0 l
0.15 0.22 l
0.14 -0.34 l
0.15 0.12 l
0.14 0.32 l
0.15 0.79 l
0.15 -0.23 l
0.14 -0.34 l
0.15 -0.44 l
0.14 0.12 l
0.15 0.54 l
0.14 -0.32 l
0.15 0.32 l
0.14 0 l
0.15 -0.54 l
0.15 -0.76 l
0.14 0.42 l
currentpoint o m
367.99 507.80 lineto
0.14 0.34 l
0.15 -0.78 l
0.14 0.22 l
0.15 0.66 l
0.14 -0.76 l
0.15 0.54 l
0.15 0.12 l
0.14 0 l
0.15 -0.56 l
0.14 0.12 l
0.15 -0.34 l
0.14 0.34 l
0.15 0.89 l
0.15 -1.01 l
0.14 0 l
0.15 -0.22 l
0.14 0 l
0.15 0.22 l
0.14 0.12 l
0.15 0.22 l
0.14 0.10 l
0.15 -0.22 l
0.15 -0.44 l
0.14 0.22 l
0.15 0.56 l
0.14 -0.12 l
0.15 -0.22 l
0.14 0.56 l
0.15 -0.88 l
0.14 0.66 l
0.15 -0.44 l
0.15 0 l
0.14 0 l
0.15 0.22 l
0.14 -0.76 l
0.15 0.54 l
0.14 0.54 l
0.15 -0.22 l
0.14 0.22 l
0.15 0 l
0.15 -0.98 l
0.14 0 l
0.15 0.22 l
0.14 0.66 l
0.15 -0.12 l
0.14 -0.44 l
0.15 0.44 l
0.15 -0.44 l
0.14 0.66 l
0.15 -0.44 l
0.14 0.12 l
0.15 -0.12 l
0.14 -0.22 l
0.15 -0.10 l
0.14 0.32 l
0.15 0.44 l
0.15 -0.54 l
0.14 0.32 l
0.15 -0.22 l
0.14 -0.44 l
0.15 0.22 l
0.14 0.78 l
0.15 -0.44 l
0.14 0 l
0.15 -0.56 l
0.15 0 l
0.14 0.56 l
0.15 0.32 l
0.14 0.35 l
0.15 -0.57 l
0.14 0.12 l
0.15 -0.44 l
0.14 0.66 l
0.15 0.23 l
0.15 -0.79 l
0.14 0.12 l
0.15 -0.34 l
0.14 -0.32 l
0.15 0.54 l
0.14 0.56 l
0.15 -0.12 l
0.15 -0.54 l
0.14 -0.34 l
0.15 0.22 l
0.14 0 l
0.15 0.12 l
0.14 0.66 l
0.15 -0.22 l
0.14 0.10 l
0.15 -0.32 l
0.15 0.10 l
0.14 0.12 l
0.15 -0.22 l
0.14 0 l
0.15 -0.22 l
0.14 0.10 l
0.15 -0.32 l
0.14 0.44 l
0.15 0.10 l
o
/bg { 1 1 1 srgb } def
222.40 511.02 0.43 c p3
222.55 510.89 0.43 c p3
222.69 511.24 0.43 c p3
222.84 511.24 0.43 c p3
222.98 511.24 0.43 c p3
223.13 511.02 0.43 c p3
223.27 511.02 0.43 c p3
223.42 511.24 0.43 c p3
223.56 510.80 0.43 c p3
223.71 511.46 0.43 c p3
223.86 511.68 0.43 c p3
224.00 511.56 0.43 c p3
224.15 511.46 0.43 c p3
224.29 511.46 0.43 c p3
224.44 511.56 0.43 c p3
224.58 511.02 0.43 c p3
224.73 511.24 0.43 c p3
224.87 511.46 0.43 c p3
225.02 511.02 0.43 c p3
225.17 511.12 0.43 c p3
225.31 510.80 0.43 c p3
225.46 511.34 0.43 c p3
225.60 511.34 0.43 c p3
225.75 511.34 0.43 c p3
225.89 511.46 0.43 c p3
226.04 511.24 0.43 c p3
226.19 511.24 0.43 c p3
226.33 511.46 0.43 c p3
226.48 511.46 0.43 c p3
226.62 511.90 0.43 c p3
226.77 510.89 0.43 c p3
226.91 511.02 0.43 c p3
227.06 511.56 0.43 c p3
227.20 511.24 0.43 c p3
227.35 511.02 0.43 c p3
227.50 511.78 0.43 c p3
227.64 511.46 0.43 c p3
227.79 511.24 0.43 c p3
227.93 511.02 0.43 c p3
228.08 511.02 0.43 c p3
228.22 511.34 0.43 c p3
228.37 511.46 0.43 c p3
228.51 511.02 0.43 c p3
228.66 511.12 0.43 c p3
228.81 511.02 0.43 c p3
228.95 511.34 0.43 c p3
229.10 511.24 0.43 c p3
229.24 511.46 0.43 c p3
229.39 511.02 0.43 c p3
229.53 511.24 0.43 c p3
229.68 511.34 0.43 c p3
229.82 511.56 0.43 c p3
229.97 511.12 0.43 c p3
230.12 511.46 0.43 c p3
230.26 511.56 0.43 c p3
230.41 511.12 0.43 c p3
230.55 511.24 0.43 c p3
230.70 511.24 0.43 c p3
230.84 511.34 0.43 c p3
230.99 511.56 0.43 c p3
231.14 511.24 0.43 c p3
231.28 511.34 0.43 c p3
231.43 511.56 0.43 c p3
231.57 511.12 0.43 c p3
231.72 511.02 0.43 c p3
231.86 511.56 0.43 c p3
232.01 511.24 0.43 c p3
232.15 511.34 0.43 c p3
232.30 511.12 0.43 c p3
232.45 511.68 0.43 c p3
232.59 510.89 0.43 c p3
232.74 511.78 0.43 c p3
232.88 511.34 0.43 c p3
233.03 511.68 0.43 c p3
233.17 511.24 0.43 c p3
233.32 511.56 0.43 c p3
233.46 511.78 0.43 c p3
233.61 510.80 0.43 c p3
233.76 511.24 0.43 c p3
233.90 511.34 0.43 c p3
234.05 511.12 0.43 c p3
234.19 511.34 0.43 c p3
234.34 510.89 0.43 c p3
234.48 511.12 0.43 c p3
234.63 511.56 0.43 c p3
234.77 511.02 0.43 c p3
234.92 511.46 0.43 c p3
235.07 511.68 0.43 c p3
235.21 511.68 0.43 c p3
235.36 511.46 0.43 c p3
235.50 511.46 0.43 c p3
235.65 511.34 0.43 c p3
235.79 512.00 0.43 c p3
235.94 511.02 0.43 c p3
236.09 511.46 0.43 c p3
236.23 511.24 0.43 c p3
236.38 511.34 0.43 c p3
236.52 511.12 0.43 c p3
236.67 511.46 0.43 c p3
236.81 511.46 0.43 c p3
236.96 501.85 0.43 c p3
237.10 439.44 0.43 c p3
237.25 442.43 0.43 c p3
237.40 443.75 0.43 c p3
237.54 444.20 0.43 c p3
237.69 445.84 0.43 c p3
237.83 446.83 0.43 c p3
237.98 447.39 0.43 c p3
238.12 448.37 0.43 c p3
238.27 449.92 0.43 c p3
238.41 450.27 0.43 c p3
238.56 450.04 0.43 c p3
238.71 450.71 0.43 c p3
238.85 451.35 0.43 c p3
239.00 452.23 0.43 c p3
239.14 453.11 0.43 c p3
239.29 454.22 0.43 c p3
239.43 453.34 0.43 c p3
239.58 454.00 0.43 c p3
239.72 454.66 0.43 c p3
239.87 456.09 0.43 c p3
240.02 456.43 0.43 c p3
240.16 457.86 0.43 c p3
240.31 457.41 0.43 c p3
240.45 458.74 0.43 c p3
240.60 458.74 0.43 c p3
240.74 459.08 0.43 c p3
240.89 459.85 0.43 c p3
241.04 461.17 0.43 c p3
241.18 461.71 0.43 c p3
241.33 461.49 0.43 c p3
241.47 461.93 0.43 c p3
241.62 462.82 0.43 c p3
241.76 463.48 0.43 c p3
241.91 463.83 0.43 c p3
242.05 463.83 0.43 c p3
242.20 464.91 0.43 c p3
242.35 464.91 0.43 c p3
242.49 465.35 0.43 c p3
242.64 466.13 0.43 c p3
242.78 467.68 0.43 c p3
242.93 467.34 0.43 c p3
243.07 467.46 0.43 c p3
243.22 467.90 0.43 c p3
243.36 468.44 0.43 c p3
243.51 469.33 0.43 c p3
243.66 470.53 0.43 c p3
243.80 470.97 0.43 c p3
243.95 471.10 0.43 c p3
244.09 471.32 0.43 c p3
244.24 471.54 0.43 c p3
244.38 472.20 0.43 c p3
244.53 472.64 0.43 c p3
244.67 473.19 0.43 c p3
244.82 473.85 0.43 c p3
244.97 473.97 0.43 c p3
245.11 474.73 0.43 c p3
245.26 474.39 0.43 c p3
245.40 475.84 0.43 c p3
245.55 475.84 0.43 c p3
245.69 476.38 0.43 c p3
245.84 476.82 0.43 c p3
245.99 477.39 0.43 c p3
246.13 477.71 0.43 c p3
246.28 478.71 0.43 c p3
246.42 479.13 0.43 c p3
246.57 479.57 0.43 c p3
246.71 479.13 0.43 c p3
246.86 479.57 0.43 c p3
247.00 480.58 0.43 c p3
247.15 480.80 0.43 c p3
247.30 481.78 0.43 c p3
247.44 481.46 0.43 c p3
247.59 482.13 0.43 c p3
247.73 482.23 0.43 c p3
247.88 482.35 0.43 c p3
248.02 483.01 0.43 c p3
248.17 483.68 0.43 c p3
248.31 484.09 0.43 c p3
248.46 484.44 0.43 c p3
248.61 484.53 0.43 c p3
248.75 484.98 0.43 c p3
248.90 485.20 0.43 c p3
249.04 485.86 0.43 c p3
249.19 485.98 0.43 c p3
249.33 486.43 0.43 c p3
249.48 486.97 0.43 c p3
249.62 487.41 0.43 c p3
249.77 487.63 0.43 c p3
249.92 487.97 0.43 c p3
250.06 488.42 0.43 c p3
250.21 488.61 0.43 c p3
250.35 488.42 0.43 c p3
250.50 489.06 0.43 c p3
250.64 489.62 0.43 c p3
250.79 490.16 0.43 c p3
250.94 490.60 0.43 c p3
251.08 490.38 0.43 c p3
251.23 491.05 0.43 c p3
251.37 491.05 0.43 c p3
251.52 490.38 0.43 c p3
251.66 491.83 0.43 c p3
251.81 492.27 0.43 c p3
251.95 492.59 0.43 c p3
252.10 492.15 0.43 c p3
252.25 492.27 0.43 c p3
252.39 492.59 0.43 c p3
252.54 493.70 0.43 c p3
252.68 494.58 0.43 c p3
252.83 494.80 0.43 c p3
252.97 494.68 0.43 c p3
253.12 494.80 0.43 c p3
253.26 495.12 0.43 c p3
253.41 495.12 0.43 c p3
253.56 495.57 0.43 c p3
253.70 495.79 0.43 c p3
253.85 495.57 0.43 c p3
253.99 495.69 0.43 c p3
254.14 495.91 0.43 c p3
254.28 496.13 0.43 c p3
254.43 496.13 0.43 c p3
254.57 497.11 0.43 c p3
254.72 497.01 0.43 c p3
254.87 497.24 0.43 c p3
255.01 497.46 0.43 c p3
255.16 497.33 0.43 c p3
255.30 498.10 0.43 c p3
255.45 498.76 0.43 c p3
255.59 498.54 0.43 c p3
255.74 498.76 0.43 c p3
255.88 498.54 0.43 c p3
256.03 498.88 0.43 c p3
256.18 499.42 0.43 c p3
256.32 500.09 0.43 c p3
256.47 499.54 0.43 c p3
256.61 499.54 0.43 c p3
256.76 500.09 0.43 c p3
256.90 500.09 0.43 c p3
257.05 499.99 0.43 c p3
257.20 500.53 0.43 c p3
257.34 500.21 0.43 c p3
257.49 500.65 0.43 c p3
257.63 501.31 0.43 c p3
257.78 500.97 0.43 c p3
257.92 500.75 0.43 c p3
258.07 501.53 0.43 c p3
258.21 501.98 0.43 c p3
258.36 501.63 0.43 c p3
258.51 501.63 0.43 c p3
258.65 502.20 0.43 c p3
258.80 502.62 0.43 c p3
258.94 503.18 0.43 c p3
259.09 502.96 0.43 c p3
259.23 503.18 0.43 c p3
259.38 502.96 0.43 c p3
259.52 502.96 0.43 c p3
259.67 502.96 0.43 c p3
259.82 503.28 0.43 c p3
259.96 503.72 0.43 c p3
260.11 503.28 0.43 c p3
260.25 503.62 0.43 c p3
260.40 503.50 0.43 c p3
260.54 503.50 0.43 c p3
260.69 504.07 0.43 c p3
260.83 504.29 0.43 c p3
260.98 504.16 0.43 c p3
261.13 504.29 0.43 c p3
261.27 504.29 0.43 c p3
261.42 504.73 0.43 c p3
261.56 504.73 0.43 c p3
261.71 505.49 0.43 c p3
261.85 505.49 0.43 c p3
262.00 505.39 0.43 c p3
262.15 505.49 0.43 c p3
262.29 505.17 0.43 c p3
262.44 505.27 0.43 c p3
262.58 505.17 0.43 c p3
262.73 505.61 0.43 c p3
262.87 505.49 0.43 c p3
263.02 505.39 0.43 c p3
263.16 505.83 0.43 c p3
263.31 505.17 0.43 c p3
263.46 505.71 0.43 c p3
263.60 506.15 0.43 c p3
263.75 506.28 0.43 c p3
263.89 505.93 0.43 c p3
264.04 506.37 0.43 c p3
264.18 506.15 0.43 c p3
264.33 505.83 0.43 c p3
264.47 507.16 0.43 c p3
264.62 506.94 0.43 c p3
264.77 507.26 0.43 c p3
264.91 506.60 0.43 c p3
265.06 506.37 0.43 c p3
265.20 506.82 0.43 c p3
265.35 506.94 0.43 c p3
265.49 507.48 0.43 c p3
265.64 507.04 0.43 c p3
265.78 507.16 0.43 c p3
265.93 506.72 0.43 c p3
266.08 507.04 0.43 c p3
266.22 506.82 0.43 c p3
266.37 507.70 0.43 c p3
266.51 507.80 0.43 c p3
266.66 507.04 0.43 c p3
266.80 507.36 0.43 c p3
266.95 507.36 0.43 c p3
267.10 507.70 0.43 c p3
267.24 507.80 0.43 c p3
267.39 507.92 0.43 c p3
267.53 507.70 0.43 c p3
267.68 508.02 0.43 c p3
267.82 507.80 0.43 c p3
267.97 508.02 0.43 c p3
268.11 508.24 0.43 c p3
268.26 508.36 0.43 c p3
268.41 508.14 0.43 c p3
268.55 507.92 0.43 c p3
268.70 508.02 0.43 c p3
268.84 507.70 0.43 c p3
268.99 508.36 0.43 c p3
269.13 508.46 0.43 c p3
269.28 508.14 0.43 c p3
269.42 507.80 0.43 c p3
269.57 508.36 0.43 c p3
269.72 508.46 0.43 c p3
269.86 508.90 0.43 c p3
270.01 508.81 0.43 c p3
270.15 508.68 0.43 c p3
270.30 508.46 0.43 c p3
270.44 508.68 0.43 c p3
270.59 508.14 0.43 c p3
270.73 507.80 0.43 c p3
270.88 508.90 0.43 c p3
271.03 508.68 0.43 c p3
271.17 508.46 0.43 c p3
271.32 508.14 0.43 c p3
271.46 508.46 0.43 c p3
271.61 508.02 0.43 c p3
271.75 508.90 0.43 c p3
271.90 508.90 0.43 c p3
272.05 508.90 0.43 c p3
272.19 509.13 0.43 c p3
272.34 508.59 0.43 c p3
272.48 508.24 0.43 c p3
272.63 509.03 0.43 c p3
272.77 509.47 0.43 c p3
272.92 509.25 0.43 c p3
273.06 508.68 0.43 c p3
273.21 508.68 0.43 c p3
273.36 508.90 0.43 c p3
273.50 509.13 0.43 c p3
273.65 509.25 0.43 c p3
273.79 509.13 0.43 c p3
273.94 509.25 0.43 c p3
274.08 509.03 0.43 c p3
274.23 508.36 0.43 c p3
274.37 509.03 0.43 c p3
274.52 509.47 0.43 c p3
274.67 509.47 0.43 c p3
274.81 508.90 0.43 c p3
274.96 508.81 0.43 c p3
275.10 508.46 0.43 c p3
275.25 508.81 0.43 c p3
275.39 509.35 0.43 c p3
275.54 509.91 0.43 c p3
275.68 508.90 0.43 c p3
275.83 508.81 0.43 c p3
275.98 509.03 0.43 c p3
276.12 509.25 0.43 c p3
276.27 509.79 0.43 c p3
276.41 509.25 0.43 c p3
276.56 509.35 0.43 c p3
276.70 509.13 0.43 c p3
276.85 508.68 0.43 c p3
277.00 508.68 0.43 c p3
277.14 509.35 0.43 c p3
277.29 509.03 0.43 c p3
277.43 509.13 0.43 c p3
277.58 509.35 0.43 c p3
277.72 509.13 0.43 c p3
277.87 508.81 0.43 c p3
278.01 509.13 0.43 c p3
278.16 509.35 0.43 c p3
278.31 509.13 0.43 c p3
278.45 509.13 0.43 c p3
278.60 508.90 0.43 c p3
278.74 508.59 0.43 c p3
278.89 509.35 0.43 c p3
279.03 509.35 0.43 c p3
279.18 509.47 0.43 c p3
279.32 509.47 0.43 c p3
279.47 508.90 0.43 c p3
279.62 509.03 0.43 c p3
279.76 509.35 0.43 c p3
279.91 509.47 0.43 c p3
280.05 509.69 0.43 c p3
280.20 509.25 0.43 c p3
280.34 509.13 0.43 c p3
280.49 509.03 0.43 c p3
280.63 509.13 0.43 c p3
280.78 509.25 0.43 c p3
280.93 509.13 0.43 c p3
281.07 509.25 0.43 c p3
281.22 509.03 0.43 c p3
281.36 508.81 0.43 c p3
281.51 509.13 0.43 c p3
281.65 509.13 0.43 c p3
281.80 509.47 0.43 c p3
281.95 509.47 0.43 c p3
282.09 509.13 0.43 c p3
282.24 509.79 0.43 c p3
282.38 509.35 0.43 c p3
282.53 510.13 0.43 c p3
282.67 509.69 0.43 c p3
282.82 509.25 0.43 c p3
282.96 509.13 0.43 c p3
283.11 508.59 0.43 c p3
283.26 509.35 0.43 c p3
283.40 509.47 0.43 c p3
283.55 509.57 0.43 c p3
283.69 509.35 0.43 c p3
283.84 508.90 0.43 c p3
283.98 508.14 0.43 c p3
284.13 508.90 0.43 c p3
284.27 509.03 0.43 c p3
284.42 509.57 0.43 c p3
284.57 509.25 0.43 c p3
284.71 509.25 0.43 c p3
284.86 509.03 0.43 c p3
285.00 509.03 0.43 c p3
285.15 509.03 0.43 c p3
285.29 509.13 0.43 c p3
285.44 509.03 0.43 c p3
285.58 508.90 0.43 c p3
285.73 509.13 0.43 c p3
285.88 508.68 0.43 c p3
286.02 509.25 0.43 c p3
286.17 509.03 0.43 c p3
286.31 509.35 0.43 c p3
286.46 508.81 0.43 c p3
286.60 508.59 0.43 c p3
286.75 508.90 0.43 c p3
286.89 509.03 0.43 c p3
287.04 509.25 0.43 c p3
287.19 509.25 0.43 c p3
287.33 509.25 0.43 c p3
287.48 508.90 0.43 c p3
287.62 508.68 0.43 c p3
287.77 509.03 0.43 c p3
287.91 508.81 0.43 c p3
288.06 509.35 0.43 c p3
288.21 509.13 0.43 c p3
288.35 509.47 0.43 c p3
288.50 508.68 0.43 c p3
288.64 509.03 0.43 c p3
288.79 509.13 0.43 c p3
288.93 509.35 0.43 c p3
289.08 509.13 0.43 c p3
289.22 508.68 0.43 c p3
289.37 508.59 0.43 c p3
289.52 509.03 0.43 c p3
289.66 509.03 0.43 c p3
289.81 509.13 0.43 c p3
289.95 508.59 0.43 c p3
290.10 508.81 0.43 c p3
290.24 508.68 0.43 c p3
290.39 509.13 0.43 c p3
290.53 509.25 0.43 c p3
290.68 509.25 0.43 c p3
290.83 508.81 0.43 c p3
290.97 508.68 0.43 c p3
291.12 509.03 0.43 c p3
291.26 508.59 0.43 c p3
291.41 509.03 0.43 c p3
291.55 509.03 0.43 c p3
291.70 508.59 0.43 c p3
291.84 508.68 0.43 c p3
291.99 508.24 0.43 c p3
292.14 508.90 0.43 c p3
292.28 508.68 0.43 c p3
292.43 508.81 0.43 c p3
292.57 508.59 0.43 c p3
292.72 508.81 0.43 c p3
292.86 508.14 0.43 c p3
293.01 508.68 0.43 c p3
293.16 508.90 0.43 c p3
293.30 508.81 0.43 c p3
293.45 508.81 0.43 c p3
293.59 508.68 0.43 c p3
293.74 508.90 0.43 c p3
293.88 508.68 0.43 c p3
294.03 509.13 0.43 c p3
294.17 509.03 0.43 c p3
294.32 508.90 0.43 c p3
294.47 508.24 0.43 c p3
294.61 508.46 0.43 c p3
294.76 508.81 0.43 c p3
294.90 508.90 0.43 c p3
295.05 508.59 0.43 c p3
295.19 508.46 0.43 c p3
295.34 508.59 0.43 c p3
295.48 508.68 0.43 c p3
295.63 508.36 0.43 c p3
295.78 508.46 0.43 c p3
295.92 508.46 0.43 c p3
296.07 508.59 0.43 c p3
296.21 508.59 0.43 c p3
296.36 508.46 0.43 c p3
296.50 508.14 0.43 c p3
296.65 509.13 0.43 c p3
296.79 508.81 0.43 c p3
296.94 508.68 0.43 c p3
297.09 508.68 0.43 c p3
297.23 508.24 0.43 c p3
297.38 508.59 0.43 c p3
297.52 508.36 0.43 c p3
297.67 508.68 0.43 c p3
297.81 508.59 0.43 c p3
297.96 508.14 0.43 c p3
298.11 508.14 0.43 c p3
298.25 507.70 0.43 c p3
298.40 508.36 0.43 c p3
298.54 508.68 0.43 c p3
298.69 508.68 0.43 c p3
298.83 508.24 0.43 c p3
298.98 508.46 0.43 c p3
299.12 508.02 0.43 c p3
299.27 508.36 0.43 c p3
299.42 508.81 0.43 c p3
299.56 509.13 0.43 c p3
299.71 508.68 0.43 c p3
299.85 508.36 0.43 c p3
300.00 508.02 0.43 c p3
300.14 508.24 0.43 c p3
300.29 509.03 0.43 c p3
300.43 508.68 0.43 c p3
300.58 507.70 0.43 c p3
300.73 508.68 0.43 c p3
300.87 507.92 0.43 c p3
301.02 508.68 0.43 c p3
301.16 508.36 0.43 c p3
301.31 508.24 0.43 c p3
301.45 508.24 0.43 c p3
301.60 508.59 0.43 c p3
301.74 508.02 0.43 c p3
301.89 508.02 0.43 c p3
302.04 508.46 0.43 c p3
302.18 508.46 0.43 c p3
302.33 508.68 0.43 c p3
302.47 508.68 0.43 c p3
302.62 508.24 0.43 c p3
302.76 508.24 0.43 c p3
302.91 508.36 0.43 c p3
303.06 509.25 0.43 c p3
303.20 508.24 0.43 c p3
303.35 508.59 0.43 c p3
303.49 508.14 0.43 c p3
303.64 507.80 0.43 c p3
303.78 508.24 0.43 c p3
303.93 508.81 0.43 c p3
304.07 508.24 0.43 c p3
304.22 508.14 0.43 c p3
304.37 507.92 0.43 c p3
304.51 507.80 0.43 c p3
304.66 508.36 0.43 c p3
304.80 508.46 0.43 c p3
304.95 508.59 0.43 c p3
305.09 508.02 0.43 c p3
305.24 508.24 0.43 c p3
305.38 508.14 0.43 c p3
305.53 508.14 0.43 c p3
305.68 508.81 0.43 c p3
305.82 508.14 0.43 c p3
305.97 507.70 0.43 c p3
306.11 508.14 0.43 c p3
306.26 508.14 0.43 c p3
306.40 508.46 0.43 c p3
306.55 508.46 0.43 c p3
306.69 508.14 0.43 c p3
306.84 508.14 0.43 c p3
306.99 507.70 0.43 c p3
307.13 507.70 0.43 c p3
307.28 508.14 0.43 c p3
307.42 508.46 0.43 c p3
307.57 508.59 0.43 c p3
307.71 507.92 0.43 c p3
307.86 508.46 0.43 c p3
308.01 507.92 0.43 c p3
308.15 508.36 0.43 c p3
308.30 508.68 0.43 c p3
308.44 508.59 0.43 c p3
308.59 508.46 0.43 c p3
308.73 508.24 0.43 c p3
308.88 508.14 0.43 c p3
309.02 507.70 0.43 c p3
309.17 508.02 0.43 c p3
309.32 508.24 0.43 c p3
309.46 508.24 0.43 c p3
309.61 507.48 0.43 c p3
309.75 507.80 0.43 c p3
309.90 507.70 0.43 c p3
310.04 507.80 0.43 c p3
310.19 508.36 0.43 c p3
310.33 508.14 0.43 c p3
310.48 507.70 0.43 c p3
310.63 507.70 0.43 c p3
310.77 508.14 0.43 c p3
310.92 508.24 0.43 c p3
311.06 508.81 0.43 c p3
311.21 508.14 0.43 c p3
311.35 508.24 0.43 c p3
311.50 508.36 0.43 c p3
311.64 508.14 0.43 c p3
311.79 507.70 0.43 c p3
311.94 508.14 0.43 c p3
312.08 507.92 0.43 c p3
312.23 507.48 0.43 c p3
312.37 507.80 0.43 c p3
312.52 507.80 0.43 c p3
312.66 507.70 0.43 c p3
312.81 507.80 0.43 c p3
312.96 508.02 0.43 c p3
313.10 507.92 0.43 c p3
313.25 507.92 0.43 c p3
313.39 507.80 0.43 c p3
313.54 508.14 0.43 c p3
313.68 507.92 0.43 c p3
313.83 508.59 0.43 c p3
313.97 507.92 0.43 c p3
314.12 508.24 0.43 c p3
314.27 508.46 0.43 c p3
314.41 507.70 0.43 c p3
314.56 508.14 0.43 c p3
314.70 508.68 0.43 c p3
314.85 508.14 0.43 c p3
314.99 507.36 0.43 c p3
315.14 508.14 0.43 c p3
315.28 507.92 0.43 c p3
315.43 507.36 0.43 c p3
315.58 508.14 0.43 c p3
315.72 507.80 0.43 c p3
315.87 507.80 0.43 c p3
316.01 507.92 0.43 c p3
316.16 507.80 0.43 c p3
316.30 507.92 0.43 c p3
316.45 507.70 0.43 c p3
316.59 508.59 0.43 c p3
316.74 507.92 0.43 c p3
316.89 508.36 0.43 c p3
317.03 507.58 0.43 c p3
317.18 507.48 0.43 c p3
317.32 508.24 0.43 c p3
317.47 508.59 0.43 c p3
317.61 508.24 0.43 c p3
317.76 508.02 0.43 c p3
317.91 508.02 0.43 c p3
318.05 507.36 0.43 c p3
318.20 507.58 0.43 c p3
318.34 508.14 0.43 c p3
318.49 507.92 0.43 c p3
318.63 508.02 0.43 c p3
318.78 507.92 0.43 c p3
318.92 507.70 0.43 c p3
319.07 507.80 0.43 c p3
319.22 507.70 0.43 c p3
319.36 508.02 0.43 c p3
319.51 508.36 0.43 c p3
319.65 507.70 0.43 c p3
319.80 507.26 0.43 c p3
319.94 507.80 0.43 c p3
320.09 508.14 0.43 c p3
320.23 508.36 0.43 c p3
320.38 508.24 0.43 c p3
320.53 507.58 0.43 c p3
320.67 507.36 0.43 c p3
320.82 507.48 0.43 c p3
320.96 507.70 0.43 c p3
321.11 507.58 0.43 c p3
321.25 507.58 0.43 c p3
321.40 507.36 0.43 c p3
321.54 507.36 0.43 c p3
321.69 507.36 0.43 c p3
321.84 507.58 0.43 c p3
321.98 507.36 0.43 c p3
322.13 507.70 0.43 c p3
322.27 507.92 0.43 c p3
322.42 507.36 0.43 c p3
322.56 508.02 0.43 c p3
322.71 508.59 0.43 c p3
322.85 508.02 0.43 c p3
323.00 508.36 0.43 c p3
323.15 507.92 0.43 c p3
323.29 507.70 0.43 c p3
323.44 507.26 0.43 c p3
323.58 507.80 0.43 c p3
323.73 508.02 0.43 c p3
323.87 508.59 0.43 c p3
324.02 507.48 0.43 c p3
324.17 507.80 0.43 c p3
324.31 507.70 0.43 c p3
324.46 507.36 0.43 c p3
324.60 508.14 0.43 c p3
324.75 508.02 0.43 c p3
324.89 507.92 0.43 c p3
325.04 507.80 0.43 c p3
325.18 507.48 0.43 c p3
325.33 507.36 0.43 c p3
325.48 508.36 0.43 c p3
325.62 508.14 0.43 c p3
325.77 507.16 0.43 c p3
325.91 507.80 0.43 c p3
326.06 507.70 0.43 c p3
326.20 507.80 0.43 c p3
326.35 508.14 0.43 c p3
326.49 508.24 0.43 c p3
326.64 507.70 0.43 c p3
326.79 507.80 0.43 c p3
326.93 507.26 0.43 c p3
327.08 507.26 0.43 c p3
327.22 507.26 0.43 c p3
327.37 507.48 0.43 c p3
327.51 507.80 0.43 c p3
327.66 508.14 0.43 c p3
327.80 507.58 0.43 c p3
327.95 507.58 0.43 c p3
328.10 507.92 0.43 c p3
328.24 507.92 0.43 c p3
328.39 508.68 0.43 c p3
328.53 507.26 0.43 c p3
328.68 507.48 0.43 c p3
328.82 508.02 0.43 c p3
328.97 507.70 0.43 c p3
329.12 508.14 0.43 c p3
329.26 508.14 0.43 c p3
329.41 508.24 0.43 c p3
329.55 507.70 0.43 c p3
329.70 507.36 0.43 c p3
329.84 507.48 0.43 c p3
329.99 507.80 0.43 c p3
330.13 507.92 0.43 c p3
330.28 507.92 0.43 c p3
330.43 507.48 0.43 c p3
330.57 507.36 0.43 c p3
330.72 507.04 0.43 c p3
330.86 508.02 0.43 c p3
331.01 508.14 0.43 c p3
331.15 508.36 0.43 c p3
331.30 507.80 0.43 c p3
331.44 507.04 0.43 c p3
331.59 507.36 0.43 c p3
331.74 507.70 0.43 c p3
331.88 508.36 0.43 c p3
332.03 507.92 0.43 c p3
332.17 508.02 0.43 c p3
332.32 507.80 0.43 c p3
332.46 507.70 0.43 c p3
332.61 507.92 0.43 c p3
332.75 507.92 0.43 c p3
332.90 507.70 0.43 c p3
333.05 507.92 0.43 c p3
333.19 507.80 0.43 c p3
333.34 507.26 0.43 c p3
333.48 507.70 0.43 c p3
333.63 507.92 0.43 c p3
333.77 507.70 0.43 c p3
333.92 507.48 0.43 c p3
334.07 507.70 0.43 c p3
334.21 507.48 0.43 c p3
334.36 507.70 0.43 c p3
334.50 507.92 0.43 c p3
334.65 508.24 0.43 c p3
334.79 508.02 0.43 c p3
334.94 507.80 0.43 c p3
335.08 507.36 0.43 c p3
335.23 507.80 0.43 c p3
335.38 507.48 0.43 c p3
335.52 507.92 0.43 c p3
335.67 507.58 0.43 c p3
335.81 508.14 0.43 c p3
335.96 507.70 0.43 c p3
336.10 507.04 0.43 c p3
336.25 507.58 0.43 c p3
336.39 507.48 0.43 c p3
336.54 507.70 0.43 c p3
336.69 507.48 0.43 c p3
336.83 507.92 0.43 c p3
336.98 507.26 0.43 c p3
337.12 507.48 0.43 c p3
337.27 508.46 0.43 c p3
337.41 508.14 0.43 c p3
337.56 508.24 0.43 c p3
337.70 507.80 0.43 c p3
337.85 507.58 0.43 c p3
338.00 507.70 0.43 c p3
338.14 507.26 0.43 c p3
338.29 507.92 0.43 c p3
338.43 507.48 0.43 c p3
338.58 507.48 0.43 c p3
338.72 507.26 0.43 c p3
338.87 507.48 0.43 c p3
339.02 507.58 0.43 c p3
339.16 507.80 0.43 c p3
339.31 508.02 0.43 c p3
339.45 508.14 0.43 c p3
339.60 507.36 0.43 c p3
339.74 507.26 0.43 c p3
339.89 508.14 0.43 c p3
340.03 507.80 0.43 c p3
340.18 508.14 0.43 c p3
340.33 507.80 0.43 c p3
340.47 507.70 0.43 c p3
340.62 507.58 0.43 c p3
340.76 507.16 0.43 c p3
340.91 507.70 0.43 c p3
341.05 508.46 0.43 c p3
341.20 507.48 0.43 c p3
341.34 507.36 0.43 c p3
341.49 507.36 0.43 c p3
341.64 507.36 0.43 c p3
341.78 507.92 0.43 c p3
341.93 508.24 0.43 c p3
342.07 507.36 0.43 c p3
342.22 507.58 0.43 c p3
342.36 507.36 0.43 c p3
342.51 506.94 0.43 c p3
342.65 507.48 0.43 c p3
342.80 508.14 0.43 c p3
342.95 508.02 0.43 c p3
343.09 507.58 0.43 c p3
343.24 507.92 0.43 c p3
343.38 507.92 0.43 c p3
343.53 507.92 0.43 c p3
343.67 508.02 0.43 c p3
343.82 508.14 0.43 c p3
343.97 507.92 0.43 c p3
344.11 507.58 0.43 c p3
344.26 507.58 0.43 c p3
344.40 507.26 0.43 c p3
344.55 507.92 0.43 c p3
344.69 507.48 0.43 c p3
344.84 507.70 0.43 c p3
344.98 507.26 0.43 c p3
345.13 507.36 0.43 c p3
345.28 507.48 0.43 c p3
345.42 507.70 0.43 c p3
345.57 508.59 0.43 c p3
345.71 508.24 0.43 c p3
345.86 507.92 0.43 c p3
346.00 507.70 0.43 c p3
346.15 507.48 0.43 c p3
346.29 507.70 0.43 c p3
346.44 508.24 0.43 c p3
346.59 507.58 0.43 c p3
346.73 507.58 0.43 c p3
346.88 507.70 0.43 c p3
347.02 507.58 0.43 c p3
347.17 507.26 0.43 c p3
347.31 507.92 0.43 c p3
347.46 508.02 0.43 c p3
347.60 507.80 0.43 c p3
347.75 507.04 0.43 c p3
347.90 507.70 0.43 c p3
348.04 507.80 0.43 c p3
348.19 507.92 0.43 c p3
348.33 507.70 0.43 c p3
348.48 507.70 0.43 c p3
348.62 508.02 0.43 c p3
348.77 507.26 0.43 c p3
348.92 507.58 0.43 c p3
349.06 507.92 0.43 c p3
349.21 508.24 0.43 c p3
349.35 507.80 0.43 c p3
349.50 508.02 0.43 c p3
349.64 507.70 0.43 c p3
349.79 507.16 0.43 c p3
349.93 507.70 0.43 c p3
350.08 508.02 0.43 c p3
350.23 507.70 0.43 c p3
350.37 507.92 0.43 c p3
350.52 507.36 0.43 c p3
350.66 507.48 0.43 c p3
350.81 507.70 0.43 c p3
350.95 508.02 0.43 c p3
351.10 507.92 0.43 c p3
351.24 507.36 0.43 c p3
351.39 507.26 0.43 c p3
351.54 507.36 0.43 c p3
351.68 507.36 0.43 c p3
351.83 508.14 0.43 c p3
351.97 508.68 0.43 c p3
352.12 507.58 0.43 c p3
352.26 507.92 0.43 c p3
352.41 507.80 0.43 c p3
352.55 507.36 0.43 c p3
352.70 508.02 0.43 c p3
352.85 507.92 0.43 c p3
352.99 507.70 0.43 c p3
353.14 507.36 0.43 c p3
353.28 507.04 0.43 c p3
353.43 506.94 0.43 c p3
353.57 507.36 0.43 c p3
353.72 508.46 0.43 c p3
353.86 507.92 0.43 c p3
354.01 507.36 0.43 c p3
354.16 507.36 0.43 c p3
354.30 507.16 0.43 c p3
354.45 507.58 0.43 c p3
354.59 507.70 0.43 c p3
354.74 508.02 0.43 c p3
354.88 508.02 0.43 c p3
355.03 507.36 0.43 c p3
355.18 507.70 0.43 c p3
355.32 507.92 0.43 c p3
355.47 508.24 0.43 c p3
355.61 508.14 0.43 c p3
355.76 507.36 0.43 c p3
355.90 507.48 0.43 c p3
356.05 507.70 0.43 c p3
356.19 507.58 0.43 c p3
356.34 507.58 0.43 c p3
356.49 508.02 0.43 c p3
356.63 507.80 0.43 c p3
356.78 507.58 0.43 c p3
356.92 507.26 0.43 c p3
357.07 507.36 0.43 c p3
357.21 507.92 0.43 c p3
357.36 508.14 0.43 c p3
357.50 507.80 0.43 c p3
357.65 508.14 0.43 c p3
357.80 507.58 0.43 c p3
357.94 507.26 0.43 c p3
358.09 508.02 0.43 c p3
358.23 508.68 0.43 c p3
358.38 508.14 0.43 c p3
358.52 507.58 0.43 c p3
358.67 507.58 0.43 c p3
358.81 507.48 0.43 c p3
358.96 507.80 0.43 c p3
359.11 507.92 0.43 c p3
359.25 508.24 0.43 c p3
359.40 507.58 0.43 c p3
359.54 507.36 0.43 c p3
359.69 507.36 0.43 c p3
359.83 507.80 0.43 c p3
359.98 507.92 0.43 c p3
360.13 508.14 0.43 c p3
360.27 507.80 0.43 c p3
360.42 507.58 0.43 c p3
360.56 508.02 0.43 c p3
360.71 507.48 0.43 c p3
360.85 508.24 0.43 c p3
361.00 507.92 0.43 c p3
361.14 507.80 0.43 c p3
361.29 508.02 0.43 c p3
361.44 507.48 0.43 c p3
361.58 507.48 0.43 c p3
361.73 507.80 0.43 c p3
361.87 507.58 0.43 c p3
362.02 507.70 0.43 c p3
362.16 507.04 0.43 c p3
362.31 507.48 0.43 c p3
362.45 507.48 0.43 c p3
362.60 508.46 0.43 c p3
362.75 508.02 0.43 c p3
362.89 508.36 0.43 c p3
363.04 507.36 0.43 c p3
363.18 507.92 0.43 c p3
363.33 507.48 0.43 c p3
363.47 507.80 0.43 c p3
363.62 508.36 0.43 c p3
363.76 508.24 0.43 c p3
363.91 508.02 0.43 c p3
364.06 507.80 0.43 c p3
364.20 507.58 0.43 c p3
364.35 507.48 0.43 c p3
364.49 507.92 0.43 c p3
364.64 507.92 0.43 c p3
364.78 507.70 0.43 c p3
364.93 507.48 0.43 c p3
365.08 507.26 0.43 c p3
365.22 507.58 0.43 c p3
365.37 507.48 0.43 c p3
365.51 507.48 0.43 c p3
365.66 507.70 0.43 c p3
365.80 507.36 0.43 c p3
365.95 507.48 0.43 c p3
366.09 507.80 0.43 c p3
366.24 508.59 0.43 c p3
366.39 508.36 0.43 c p3
366.53 508.02 0.43 c p3
366.68 507.58 0.43 c p3
366.82 507.70 0.43 c p3
366.97 508.24 0.43 c p3
367.11 507.92 0.43 c p3
367.26 508.24 0.43 c p3
367.40 508.24 0.43 c p3
367.55 507.70 0.43 c p3
367.70 506.94 0.43 c p3
367.84 507.36 0.43 c p3
367.99 507.80 0.43 c p3
368.13 508.14 0.43 c p3
368.28 507.36 0.43 c p3
368.42 507.58 0.43 c p3
368.57 508.24 0.43 c p3
368.71 507.48 0.43 c p3
368.86 508.02 0.43 c p3
369.01 508.14 0.43 c p3
369.15 508.14 0.43 c p3
369.30 507.58 0.43 c p3
369.44 507.70 0.43 c p3
369.59 507.36 0.43 c p3
369.73 507.70 0.43 c p3
369.88 508.59 0.43 c p3
370.03 507.58 0.43 c p3
370.17 507.58 0.43 c p3
370.32 507.36 0.43 c p3
370.46 507.36 0.43 c p3
370.61 507.58 0.43 c p3
370.75 507.70 0.43 c p3
370.90 507.92 0.43 c p3
371.04 508.02 0.43 c p3
371.19 507.80 0.43 c p3
371.34 507.36 0.43 c p3
371.48 507.58 0.43 c p3
371.63 508.14 0.43 c p3
371.77 508.02 0.43 c p3
371.92 507.80 0.43 c p3
372.06 508.36 0.43 c p3
372.21 507.48 0.43 c p3
372.35 508.14 0.43 c p3
372.50 507.70 0.43 c p3
372.65 507.70 0.43 c p3
372.79 507.70 0.43 c p3
372.94 507.92 0.43 c p3
373.08 507.16 0.43 c p3
373.23 507.70 0.43 c p3
373.37 508.24 0.43 c p3
373.52 508.02 0.43 c p3
373.66 508.24 0.43 c p3
373.81 508.24 0.43 c p3
373.96 507.26 0.43 c p3
374.10 507.26 0.43 c p3
374.25 507.48 0.43 c p3
374.39 508.14 0.43 c p3
374.54 508.02 0.43 c p3
374.68 507.58 0.43 c p3
374.83 508.02 0.43 c p3
374.98 507.58 0.43 c p3
375.12 508.24 0.43 c p3
375.27 507.80 0.43 c p3
375.41 507.92 0.43 c p3
375.56 507.80 0.43 c p3
375.70 507.58 0.43 c p3
375.85 507.48 0.43 c p3
375.99 507.80 0.43 c p3
376.14 508.24 0.43 c p3
376.29 507.70 0.43 c p3
376.43 508.02 0.43 c p3
376.58 507.80 0.43 c p3
376.72 507.36 0.43 c p3
376.87 507.58 0.43 c p3
377.01 508.36 0.43 c p3
377.16 507.92 0.43 c p3
377.30 507.92 0.43 c p3
377.45 507.36 0.43 c p3
377.60 507.36 0.43 c p3
377.74 507.92 0.43 c p3
377.89 508.24 0.43 c p3
378.03 508.59 0.43 c p3
378.18 508.02 0.43 c p3
378.32 508.14 0.43 c p3
378.47 507.70 0.43 c p3
378.61 508.36 0.43 c p3
378.76 508.59 0.43 c p3
378.91 507.80 0.43 c p3
379.05 507.92 0.43 c p3
379.20 507.58 0.43 c p3
379.34 507.26 0.43 c p3
379.49 507.80 0.43 c p3
379.63 508.36 0.43 c p3
379.78 508.24 0.43 c p3
379.93 507.70 0.43 c p3
380.07 507.36 0.43 c p3
380.22 507.58 0.43 c p3
380.36 507.58 0.43 c p3
380.51 507.70 0.43 c p3
380.65 508.36 0.43 c p3
380.80 508.14 0.43 c p3
380.94 508.24 0.43 c p3
381.09 507.92 0.43 c p3
381.24 508.02 0.43 c p3
381.38 508.14 0.43 c p3
381.53 507.92 0.43 c p3
381.67 507.92 0.43 c p3
381.82 507.70 0.43 c p3
381.96 507.80 0.43 c p3
382.11 507.48 0.43 c p3
382.25 507.92 0.43 c p3
382.40 508.02 0.43 c p3
0.00 0.00 432.00 576.00 cl
0 0 0 srgb
0.75 setlinewidth
[] 0 setdash
1 setlinecap
1 setlinejoin
10.00 setmiterlimit
np
236.96 345.60 m
145.59 0 l
o
np
236.96 345.60 m
0 -5.76 l
o
np
266.08 345.60 m
0 -5.76 l
o
np
295.19 345.60 m
0 -5.76 l
o
np
324.31 345.60 m
0 -5.76 l
o
np
353.43 345.60 m
0 -5.76 l
o
np
382.55 345.60 m
0 -5.76 l
o
/Font1 findfont 10 s
236.96 329.47 (0) .5 0 t
266.08 329.47 (200) .5 0 t
295.19 329.47 (400) .5 0 t
324.31 329.47 (600) .5 0 t
353.43 329.47 (800) .5 0 t
382.55 329.47 (1000) .5 0 t
np
216.00 352.00 m
0 150.93 l
o
np
216.00 352.00 m
-5.76 0 l
o
np
216.00 402.31 m
-5.76 0 l
o
np
216.00 452.62 m
-5.76 0 l
o
np
216.00 502.93 m
-5.76 0 l
o
209.09 348.41 (0.0) 1 0 t
209.09 398.72 (0.5) 1 0 t
209.09 449.03 (1.0) 1 0 t
209.09 499.34 (1.5) 1 0 t
np
216.00 345.60 m
172.80 0 l
0 172.80 l
-172.80 0 l
0 -172.80 l
o
0.00 0.00 432.00 576.00 cl
/Font1 findfont 10 s
0 0 0 srgb
302.40 313.34 (Zeit / ms \(total\)) .5 0 t
190.66 432.00 (U / V) .5 90 t
216.00 345.60 388.80 518.40 cl
0 0 0 srgb
0.38 setlinewidth
[ 1.12 1.88] 0 setdash
1 setlinecap
1 setlinejoin
10.00 setmiterlimit
np
223.42 345.60 m
0 172.80 l
o
np
235.21 345.60 m
0 172.80 l
o
np
238.71 345.60 m
0 172.80 l
o
np
274.37 345.60 m
0 172.80 l
o
86.40 57.60 388.80 288.00 cl
1 0 0 srgb
1.50 setlinewidth
[] 0 setdash
1 setlinecap
1 setlinejoin
10.00 setmiterlimit
np
97.60 279.47 m
1.41 -14.64 l
1.40 -13.63 l
1.41 -12.69 l
1.41 -11.83 l
1.41 -11.01 l
1.40 -10.26 l
1.41 -9.56 l
1.41 -8.89 l
1.40 -8.29 l
1.41 -7.72 l
1.41 -7.19 l
1.40 -6.70 l
1.41 -6.24 l
1.41 -5.81 l
1.41 -5.41 l
1.40 -5.04 l
1.41 -4.69 l
1.41 -4.37 l
1.40 -4.08 l
1.41 -3.79 l
1.41 -3.53 l
1.40 -3.29 l
1.41 -3.07 l
1.41 -2.85 l
1.41 -2.66 l
1.40 -2.48 l
1.41 -2.30 l
1.41 -2.15 l
1.40 -2.00 l
1.41 -1.87 l
1.41 -1.73 l
1.41 -1.62 l
1.40 -1.50 l
1.41 -1.41 l
1.41 -1.30 l
1.40 -1.22 l
1.41 -1.13 l
1.41 -1.06 l
1.40 -0.98 l
1.41 -0.92 l
1.41 -0.85 l
1.41 -0.79 l
1.40 -0.74 l
1.41 -0.69 l
1.41 -0.64 l
1.40 -0.60 l
1.41 -0.56 l
1.41 -0.52 l
1.40 -0.48 l
1.41 -0.45 l
1.41 -0.42 l
1.41 -0.39 l
1.40 -0.36 l
1.41 -0.34 l
1.41 -0.32 l
1.40 -0.29 l
1.41 -0.27 l
1.41 -0.26 l
1.41 -0.24 l
1.40 -0.22 l
1.41 -0.20 l
1.41 -0.19 l
1.40 -0.18 l
1.41 -0.17 l
1.41 -0.15 l
1.40 -0.15 l
1.41 -0.13 l
1.41 -0.13 l
1.41 -0.11 l
1.40 -0.11 l
1.41 -0.10 l
1.41 -0.10 l
1.40 -0.09 l
1.41 -0.08 l
1.41 -0.07 l
1.40 -0.07 l
1.41 -0.07 l
1.41 -0.06 l
1.41 -0.06 l
1.40 -0.05 l
1.41 -0.05 l
1.41 -0.05 l
1.40 -0.04 l
1.41 -0.04 l
1.41 -0.04 l
1.41 -0.03 l
1.40 -0.04 l
1.41 -0.03 l
1.41 -0.02 l
1.40 -0.03 l
1.41 -0.03 l
1.41 -0.02 l
1.40 -0.02 l
1.41 -0.02 l
1.41 -0.02 l
1.41 -0.01 l
1.40 -0.02 l
1.41 -0.02 l
1.41 -0.01 l
238.30 66.31 lineto
1.41 -0.01 l
1.41 -0.02 l
1.40 -0.01 l
1.41 -0.01 l
1.41 0 l
1.41 -0.01 l
1.40 -0.01 l
1.41 -0.01 l
1.41 0 l
1.40 -0.01 l
1.41 -0.01 l
1.41 0 l
1.40 -0.01 l
1.41 0 l
1.41 -0.01 l
1.41 0 l
1.40 0 l
1.41 -0.01 l
1.41 0 l
1.40 0 l
1.41 -0.01 l
1.41 0 l
1.41 0 l
1.40 -0.01 l
1.41 0 l
1.41 0 l
1.40 0 l
1.41 0 l
1.41 0 l
1.40 -0.01 l
1.41 0 l
1.41 0 l
1.41 0 l
1.40 0 l
1.41 0 l
1.41 0 l
1.40 0 l
1.41 -0.01 l
1.41 0 l
1.40 0 l
1.41 0 l
1.41 0 l
1.41 0 l
1.40 0 l
1.41 0 l
1.41 0 l
1.40 0 l
1.41 0 l
1.41 0 l
1.41 0 l
1.40 0 l
1.41 0 l
1.41 0 l
1.40 0 l
1.41 0 l
1.41 0 l
1.40 0 l
1.41 0 l
1.41 0 l
1.41 0 l
1.40 0 l
1.41 0 l
1.41 0 l
1.40 0 l
1.41 -0.01 l
1.41 0 l
1.40 0 l
1.41 0 l
1.41 0 l
1.41 0 l
1.40 0 l
1.41 0 l
1.41 0 l
1.40 0 l
1.41 0 l
1.41 0 l
1.41 0 l
1.40 0 l
1.41 0 l
1.41 0 l
1.40 0 l
1.41 0 l
1.41 0 l
1.40 0 l
1.41 0 l
1.41 0 l
1.41 0 l
1.40 0 l
1.41 0 l
1.41 0 l
1.40 0 l
1.41 0 l
1.41 0 l
1.40 0 l
1.41 0 l
1.41 0 l
1.41 0 l
1.40 0 l
1.41 0 l
o
0.00 0.00 432.00 576.00 cl
0 0 0 srgb
0.75 setlinewidth
[] 0 setdash
1 setlinecap
1 setlinejoin
10.00 setmiterlimit
np
97.60 57.60 m
280.00 0 l
o
np
97.60 57.60 m
0 -5.76 l
o
np
153.60 57.60 m
0 -5.76 l
o
np
209.60 57.60 m
0 -5.76 l
o
np
265.60 57.60 m
0 -5.76 l
o
np
321.60 57.60 m
0 -5.76 l
o
np
377.60 57.60 m
0 -5.76 l
o
/Font1 findfont 10 s
97.60 41.47 (0) .5 0 t
153.60 41.47 (200) .5 0 t
209.60 41.47 (400) .5 0 t
265.60 41.47 (600) .5 0 t
321.60 41.47 (800) .5 0 t
377.60 41.47 (1000) .5 0 t
np
86.40 68.93 m
0 207.50 l
o
np
86.40 68.93 m
-5.76 0 l
o
np
86.40 110.43 m
-5.76 0 l
o
np
86.40 151.93 m
-5.76 0 l
o
np
86.40 193.43 m
-5.76 0 l
o
np
86.40 234.93 m
-5.76 0 l
o
np
86.40 276.43 m
-5.76 0 l
o
79.49 65.34 (0.00) 1 0 t
79.49 106.84 (0.05) 1 0 t
79.49 148.34 (0.10) 1 0 t
79.49 189.84 (0.15) 1 0 t
79.49 231.34 (0.20) 1 0 t
79.49 272.84 (0.25) 1 0 t
np
86.40 57.60 m
302.40 0 l
0 230.40 l
-302.40 0 l
0 -230.40 l
o
0.00 0.00 432.00 576.00 cl
/Font1 findfont 10 s
0 0 0 srgb
237.60 13.82 (Zeit / ms \(nach Puls\)) .5 0 t
49.54 172.80 (Absorbanz A) .5 90 t
86.40 57.60 388.80 288.00 cl
/bg { 1 1 1 srgb } def
0 0 0 srgb
0.75 setlinewidth
[] 0 setdash
1 setlinecap
1 setlinejoin
10.00 setmiterlimit
101.24 241.48 0.65 c p3
101.52 239.16 0.65 c p3
101.80 235.96 0.65 c p3
102.08 232.80 0.65 c p3
102.36 228.88 0.65 c p3
102.64 232.01 0.65 c p3
102.92 229.66 0.65 c p3
103.20 227.32 0.65 c p3
103.48 222.35 0.65 c p3
103.76 221.16 0.65 c p3
104.04 216.28 0.65 c p3
104.32 217.79 0.65 c p3
104.60 213.28 0.65 c p3
104.88 213.28 0.65 c p3
105.16 212.12 0.65 c p3
105.44 209.57 0.65 c p3
105.72 205.16 0.65 c p3
106.00 203.38 0.65 c p3
106.28 204.11 0.65 c p3
106.56 202.65 0.65 c p3
106.84 199.76 0.65 c p3
107.12 197.61 0.65 c p3
107.40 196.50 0.65 c p3
107.68 196.50 0.65 c p3
107.96 193.04 0.65 c p3
108.24 193.04 0.65 c p3
108.52 191.63 0.65 c p3
108.80 189.14 0.65 c p3
109.08 184.28 0.65 c p3
109.36 185.35 0.65 c p3
109.64 184.97 0.65 c p3
109.92 183.59 0.65 c p3
110.20 181.92 0.65 c p3
110.48 179.19 0.65 c p3
110.76 175.51 0.65 c p3
111.04 174.17 0.65 c p3
111.32 173.79 0.65 c p3
111.60 173.13 0.65 c p3
111.88 172.46 0.65 c p3
112.16 170.46 0.65 c p3
112.44 169.14 0.65 c p3
112.72 167.53 0.65 c p3
113.00 165.56 0.65 c p3
113.28 165.20 0.65 c p3
113.56 162.95 0.65 c p3
113.84 163.97 0.65 c p3
114.12 159.72 0.65 c p3
114.40 159.72 0.65 c p3
114.68 158.15 0.65 c p3
114.96 156.87 0.65 c p3
115.24 155.25 0.65 c p3
115.52 154.33 0.65 c p3
115.80 151.45 0.65 c p3
116.08 150.27 0.65 c p3
116.36 149.01 0.65 c p3
116.64 150.27 0.65 c p3
116.92 149.01 0.65 c p3
117.20 146.18 0.65 c p3
117.48 145.56 0.65 c p3
117.76 142.82 0.65 c p3
118.04 143.71 0.65 c p3
118.32 141.87 0.65 c p3
118.60 141.59 0.65 c p3
118.88 141.25 0.65 c p3
119.16 139.42 0.65 c p3
119.44 137.60 0.65 c p3
119.72 136.46 0.65 c p3
120.00 135.53 0.65 c p3
120.28 135.26 0.65 c p3
120.56 134.06 0.65 c p3
120.84 133.46 0.65 c p3
121.12 131.67 0.65 c p3
121.40 131.34 0.65 c p3
121.68 130.15 0.65 c p3
121.96 128.70 0.65 c p3
122.24 127.52 0.65 c p3
122.52 126.94 0.65 c p3
122.80 126.02 0.65 c p3
123.08 124.85 0.65 c p3
123.36 124.33 0.65 c p3
123.64 124.85 0.65 c p3
123.92 123.17 0.65 c p3
124.20 121.69 0.65 c p3
124.48 120.27 0.65 c p3
124.76 119.12 0.65 c p3
125.04 119.70 0.65 c p3
125.32 117.97 0.65 c p3
125.60 117.97 0.65 c p3
125.88 119.70 0.65 c p3
126.16 115.94 0.65 c p3
126.44 114.80 0.65 c p3
126.72 113.98 0.65 c p3
127.00 115.12 0.65 c p3
127.28 114.80 0.65 c p3
127.56 113.98 0.65 c p3
127.84 111.16 0.65 c p3
128.12 108.92 0.65 c p3
128.40 108.36 0.65 c p3
128.68 108.67 0.65 c p3
128.96 108.36 0.65 c p3
129.24 107.55 0.65 c p3
129.52 107.55 0.65 c p3
129.80 106.44 0.65 c p3
130.08 105.89 0.65 c p3
130.36 106.44 0.65 c p3
130.64 106.13 0.65 c p3
130.92 105.58 0.65 c p3
131.20 105.03 0.65 c p3
131.48 105.03 0.65 c p3
131.76 102.58 0.65 c p3
132.04 102.82 0.65 c p3
132.32 102.27 0.65 c p3
132.60 101.72 0.65 c p3
132.88 102.03 0.65 c p3
133.16 100.14 0.65 c p3
133.44 98.51 0.65 c p3
133.72 99.05 0.65 c p3
134.00 98.51 0.65 c p3
134.28 99.05 0.65 c p3
134.56 98.21 0.65 c p3
134.84 96.89 0.65 c p3
135.12 95.27 0.65 c p3
135.40 96.59 0.65 c p3
135.68 96.59 0.65 c p3
135.96 95.27 0.65 c p3
136.24 95.27 0.65 c p3
136.52 95.51 0.65 c p3
136.80 94.19 0.65 c p3
137.08 94.97 0.65 c p3
137.36 93.89 0.65 c p3
137.64 92.29 0.65 c p3
137.92 93.12 0.65 c p3
138.20 93.66 0.65 c p3
138.48 91.76 0.65 c p3
138.76 90.69 0.65 c p3
139.04 91.52 0.65 c p3
139.32 91.52 0.65 c p3
139.60 90.16 0.65 c p3
139.88 89.16 0.65 c p3
140.16 87.81 0.65 c p3
140.44 88.34 0.65 c p3
140.72 87.81 0.65 c p3
141.00 88.34 0.65 c p3
141.28 88.34 0.65 c p3
141.56 88.34 0.65 c p3
141.84 87.58 0.65 c p3
142.12 86.52 0.65 c p3
142.40 87.58 0.65 c p3
142.68 86.76 0.65 c p3
142.96 87.05 0.65 c p3
143.24 87.05 0.65 c p3
143.52 85.71 0.65 c p3
143.80 85.18 0.65 c p3
144.08 85.48 0.65 c p3
144.36 85.18 0.65 c p3
144.64 85.18 0.65 c p3
144.92 84.14 0.65 c p3
145.20 84.14 0.65 c p3
145.48 82.35 0.65 c p3
145.76 82.35 0.65 c p3
146.04 82.58 0.65 c p3
146.32 82.35 0.65 c p3
146.60 83.10 0.65 c p3
146.88 82.87 0.65 c p3
147.16 83.10 0.65 c p3
147.44 82.06 0.65 c p3
147.72 82.35 0.65 c p3
148.00 82.58 0.65 c p3
148.28 81.54 0.65 c p3
148.56 83.10 0.65 c p3
148.84 81.83 0.65 c p3
149.12 80.79 0.65 c p3
149.40 80.50 0.65 c p3
149.68 81.31 0.65 c p3
149.96 80.28 0.65 c p3
150.24 80.79 0.65 c p3
150.52 81.54 0.65 c p3
150.80 78.44 0.65 c p3
151.08 78.96 0.65 c p3
151.36 78.22 0.65 c p3
151.64 79.76 0.65 c p3
151.92 80.28 0.65 c p3
152.20 79.24 0.65 c p3
152.48 78.96 0.65 c p3
152.76 77.70 0.65 c p3
153.04 78.73 0.65 c p3
153.32 78.44 0.65 c p3
153.60 79.47 0.65 c p3
153.88 78.73 0.65 c p3
154.16 79.24 0.65 c p3
154.44 77.19 0.65 c p3
154.72 76.96 0.65 c p3
155.00 78.73 0.65 c p3
155.28 77.99 0.65 c p3
155.56 77.99 0.65 c p3
155.84 77.19 0.65 c p3
156.12 76.96 0.65 c p3
156.40 76.68 0.65 c p3
156.68 77.19 0.65 c p3
156.96 76.45 0.65 c p3
157.24 76.96 0.65 c p3
157.52 76.45 0.65 c p3
157.80 75.94 0.65 c p3
158.08 75.66 0.65 c p3
158.36 76.17 0.65 c p3
158.64 76.68 0.65 c p3
158.92 76.45 0.65 c p3
159.20 77.19 0.65 c p3
159.48 75.66 0.65 c p3
159.76 75.43 0.65 c p3
160.04 76.17 0.65 c p3
160.32 76.96 0.65 c p3
160.60 75.66 0.65 c p3
160.88 75.43 0.65 c p3
161.16 74.41 0.65 c p3
161.44 74.64 0.65 c p3
161.72 74.92 0.65 c p3
162.00 75.43 0.65 c p3
162.28 74.92 0.65 c p3
162.56 76.17 0.65 c p3
162.84 76.96 0.65 c p3
163.12 74.41 0.65 c p3
163.40 74.92 0.65 c p3
163.68 75.43 0.65 c p3
163.96 76.17 0.65 c p3
164.24 75.43 0.65 c p3
164.52 76.45 0.65 c p3
164.80 74.41 0.65 c p3
165.08 74.41 0.65 c p3
165.36 74.41 0.65 c p3
165.64 73.91 0.65 c p3
165.92 75.15 0.65 c p3
166.20 75.94 0.65 c p3
166.48 74.13 0.65 c p3
166.76 73.12 0.65 c p3
167.04 73.63 0.65 c p3
167.32 74.92 0.65 c p3
167.60 74.92 0.65 c p3
167.88 74.41 0.65 c p3
168.16 73.91 0.65 c p3
168.44 73.63 0.65 c p3
168.72 73.91 0.65 c p3
169.00 73.63 0.65 c p3
169.28 74.13 0.65 c p3
169.56 75.66 0.65 c p3
169.84 74.13 0.65 c p3
216.00 201.60 367.20 247.68 cl
0 0 0 srgb
0.75 setlinewidth
[] 0 setdash
1 setlinecap
1 setlinejoin
10.00 setmiterlimit
221.60 218.51 0.43 c p1
222.17 218.98 0.43 c p1
222.74 216.89 0.43 c p1
223.31 214.77 0.43 c p1
223.89 210.42 0.43 c p1
224.46 226.03 0.43 c p1
225.03 225.94 0.43 c p1
225.60 225.81 0.43 c p1
226.17 218.10 0.43 c p1
226.74 221.05 0.43 c p1
227.31 213.40 0.43 c p1
227.89 223.85 0.43 c p1
228.46 217.09 0.43 c p1
229.03 223.08 0.43 c p1
229.60 225.68 0.43 c p1
230.17 224.23 0.43 c p1
230.74 217.43 0.43 c p1
231.31 218.02 0.43 c p1
231.89 225.66 0.43 c p1
232.46 227.03 0.43 c p1
233.03 224.23 0.43 c p1
233.60 223.46 0.43 c p1
234.17 225.57 0.43 c p1
234.74 230.76 0.43 c p1
235.31 226.02 0.43 c p1
235.89 231.07 0.43 c p1
236.46 232.04 0.43 c p1
237.03 229.86 0.43 c p1
237.60 220.89 0.43 c p1
238.17 228.72 0.43 c p1
238.74 232.33 0.43 c p1
239.31 233.05 0.43 c p1
239.89 232.85 0.43 c p1
240.46 229.61 0.43 c p1
241.03 223.59 0.43 c p1
241.60 224.15 0.43 c p1
242.17 227.42 0.43 c p1
242.74 229.78 0.43 c p1
243.31 232.08 0.43 c p1
243.89 230.55 0.43 c p1
244.46 230.87 0.43 c p1
245.03 230.31 0.43 c p1
245.60 228.69 0.43 c p1
246.17 231.57 0.43 c p1
246.74 229.04 0.43 c p1
247.31 235.73 0.43 c p1
247.89 227.41 0.43 c p1
248.46 231.11 0.43 c p1
249.03 230.29 0.43 c p1
249.60 230.25 0.43 c p1
250.17 229.16 0.43 c p1
250.74 230.05 0.43 c p1
251.31 225.31 0.43 c p1
251.89 225.34 0.43 c p1
252.46 225.13 0.43 c p1
253.03 231.99 0.43 c p1
253.60 231.69 0.43 c p1
254.17 226.84 0.43 c p1
254.74 228.24 0.43 c p1
255.31 223.57 0.43 c p1
255.89 229.18 0.43 c p1
256.46 226.97 0.43 c p1
257.03 229.19 0.43 c p1
257.60 231.17 0.43 c p1
258.17 228.88 0.43 c p1
258.74 226.57 0.43 c p1
259.31 226.15 0.43 c p1
259.89 226.27 0.43 c p1
260.46 228.26 0.43 c p1
261.03 227.56 0.43 c p1
261.60 228.52 0.43 c p1
262.17 226.07 0.43 c p1
262.74 227.72 0.43 c p1
263.31 226.91 0.43 c p1
263.89 225.32 0.43 c p1
264.46 224.45 0.43 c p1
265.03 225.24 0.43 c p1
265.60 225.06 0.43 c p1
266.17 224.12 0.43 c p1
266.74 224.99 0.43 c p1
267.31 228.79 0.43 c p1
267.89 226.29 0.43 c p1
268.46 224.32 0.43 c p1
269.03 222.53 0.43 c p1
269.60 221.44 0.43 c p1
270.17 225.24 0.43 c p1
270.74 222.47 0.43 c p1
271.31 224.57 0.43 c p1
271.89 231.55 0.43 c p1
272.46 222.91 0.43 c p1
273.03 221.68 0.43 c p1
273.60 221.34 0.43 c p1
274.17 226.52 0.43 c p1
274.74 227.56 0.43 c p1
275.31 227.13 0.43 c p1
275.89 220.97 0.43 c p1
276.46 216.44 0.43 c p1
277.03 216.68 0.43 c p1
277.60 219.36 0.43 c p1
278.17 220.25 0.43 c p1
278.74 219.71 0.43 c p1
279.31 221.43 0.43 c p1
279.89 219.97 0.43 c p1
280.46 220.07 0.43 c p1
281.03 223.30 0.43 c p1
281.60 224.05 0.43 c p1
282.17 224.08 0.43 c p1
282.74 224.09 0.43 c p1
283.31 225.65 0.43 c p1
283.89 220.22 0.43 c p1
284.46 222.43 0.43 c p1
285.03 222.37 0.43 c p1
285.60 222.28 0.43 c p1
286.17 224.61 0.43 c p1
286.74 220.68 0.43 c p1
287.31 217.45 0.43 c p1
287.89 220.39 0.43 c p1
288.46 220.22 0.43 c p1
289.03 223.12 0.43 c p1
289.60 222.05 0.43 c p1
290.17 219.60 0.43 c p1
290.74 216.30 0.43 c p1
291.31 221.33 0.43 c p1
291.89 222.59 0.43 c p1
292.46 220.09 0.43 c p1
293.03 221.32 0.43 c p1
293.60 223.21 0.43 c p1
294.17 220.66 0.43 c p1
294.74 224.05 0.43 c p1
295.31 222.15 0.43 c p1
295.89 218.73 0.43 c p1
296.46 222.22 0.43 c p1
297.03 224.86 0.43 c p1
297.60 220.55 0.43 c p1
298.17 218.60 0.43 c p1
298.74 222.02 0.43 c p1
299.31 223.08 0.43 c p1
299.89 220.25 0.43 c p1
300.46 218.42 0.43 c p1
301.03 215.59 0.43 c p1
301.60 218.08 0.43 c p1
302.17 217.56 0.43 c p1
302.74 220.03 0.43 c p1
303.31 220.98 0.43 c p1
303.89 221.92 0.43 c p1
304.46 220.68 0.43 c p1
305.03 218.59 0.43 c p1
305.60 222.49 0.43 c p1
306.17 221.05 0.43 c p1
306.74 222.75 0.43 c p1
307.31 223.61 0.43 c p1
307.89 220.65 0.43 c p1
308.46 219.99 0.43 c p1
309.03 221.65 0.43 c p1
309.60 221.63 0.43 c p1
310.17 222.44 0.43 c p1
310.74 220.26 0.43 c p1
311.31 221.04 0.43 c p1
311.89 216.71 0.43 c p1
312.46 217.47 0.43 c p1
313.03 218.87 0.43 c p1
313.60 218.95 0.43 c p1
314.17 221.82 0.43 c p1
314.74 221.88 0.43 c p1
315.31 223.24 0.43 c p1
315.89 220.98 0.43 c p1
316.46 222.49 0.43 c p1
317.03 223.82 0.43 c p1
317.60 221.54 0.43 c p1
318.17 226.63 0.43 c p1
318.74 223.67 0.43 c p1
319.31 221.36 0.43 c p1
319.89 221.18 0.43 c p1
320.46 224.09 0.43 c p1
321.03 221.76 0.43 c p1
321.60 223.84 0.43 c p1
322.17 226.56 0.43 c p1
322.74 218.34 0.43 c p1
323.31 220.39 0.43 c p1
323.89 218.85 0.43 c p1
324.46 223.80 0.43 c p1
325.03 225.82 0.43 c p1
325.60 223.44 0.43 c p1
326.17 223.17 0.43 c p1
326.74 220.13 0.43 c p1
327.31 223.58 0.43 c p1
327.89 223.28 0.43 c p1
328.46 226.72 0.43 c p1
329.03 225.11 0.43 c p1
329.60 227.07 0.43 c p1
330.17 221.72 0.43 c p1
330.74 221.55 0.43 c p1
331.31 227.05 0.43 c p1
331.89 225.41 0.43 c p1
332.46 225.88 0.43 c p1
333.03 224.06 0.43 c p1
333.60 223.87 0.43 c p1
334.17 223.50 0.43 c p1
334.74 225.39 0.43 c p1
335.31 223.73 0.43 c p1
335.89 225.60 0.43 c p1
336.46 224.57 0.43 c p1
337.03 223.53 0.43 c p1
337.60 223.13 0.43 c p1
338.17 224.98 0.43 c p1
338.74 226.83 0.43 c p1
339.31 226.58 0.43 c p1
339.89 229.06 0.43 c p1
340.46 225.08 0.43 c p1
341.03 224.82 0.43 c p1
341.60 227.28 0.43 c p1
342.17 229.90 0.43 c p1
342.74 226.55 0.43 c p1
343.31 226.26 0.43 c p1
343.89 223.71 0.43 c p1
344.46 224.70 0.43 c p1
345.03 225.84 0.43 c p1
345.60 227.63 0.43 c p1
346.17 226.51 0.43 c p1
346.74 230.38 0.43 c p1
347.31 232.96 0.43 c p1
347.89 226.02 0.43 c p1
348.46 227.78 0.43 c p1
349.03 229.53 0.43 c p1
349.60 231.93 0.43 c p1
350.17 230.14 0.43 c p1
350.74 233.33 0.43 c p1
351.31 227.83 0.43 c p1
351.89 228.11 0.43 c p1
352.46 228.39 0.43 c p1
353.03 227.23 0.43 c p1
353.60 231.04 0.43 c p1
354.17 233.56 0.43 c p1
354.74 228.68 0.43 c p1
355.31 226.06 0.43 c p1
355.89 227.76 0.43 c p1
356.46 231.71 0.43 c p1
357.03 231.96 0.43 c p1
357.60 230.76 0.43 c p1
358.17 229.56 0.43 c p1
358.74 229.00 0.43 c p1
359.31 230.04 0.43 c p1
359.89 229.48 0.43 c p1
360.46 231.15 0.43 c p1
361.03 235.72 0.43 c p1
361.60 231.60 0.43 c p1
0.00 0.00 432.00 576.00 cl
0 0 0 srgb
0.75 setlinewidth
[] 0 setdash
1 setlinecap
1 setlinejoin
10.00 setmiterlimit
np
242.74 201.60 m
114.29 0 l
o
np
242.74 201.60 m
0 -5.76 l
o
np
271.31 201.60 m
0 -5.76 l
o
np
299.89 201.60 m
0 -5.76 l
o
np
328.46 201.60 m
0 -5.76 l
o
np
357.03 201.60 m
0 -5.76 l
o
/Font1 findfont 6 s
242.74 185.47 (50) .5 0 t
271.31 185.47 (100) .5 0 t
299.89 185.47 (150) .5 0 t
328.46 185.47 (200) .5 0 t
357.03 185.47 (250) .5 0 t
np
216.00 212.84 m
0 23.60 l
o
np
216.00 212.84 m
-5.76 0 l
o
np
216.00 224.64 m
-5.76 0 l
o
np
216.00 236.44 m
-5.76 0 l
o
209.09 210.68 (-0.005) 1 0 t
209.09 222.49 (0.000) 1 0 t
209.09 234.29 (0.005) 1 0 t
np
216.00 201.60 m
151.20 0 l
0 46.08 l
-151.20 0 l
0 -46.08 l
o
0.00 0.00 432.00 576.00 cl
/Font1 findfont 9 s
0 0 0 srgb
291.60 262.88 (Residuen) .5 0 t
59.04 73.44 401.76 516.96 cl
ep
%%Trailer
%%Pages: 1
%%EOF
