%!PS-Adobe-3.0 EPSF-3.0
%%DocumentNeededResources: font Helvetica
%%+ font Helvetica-Bold
%%+ font Helvetica-Oblique
%%+ font Helvetica-BoldOblique
%%+ font Symbol
%%Title: R Graphics Output
%%Creator: R Software
%%Pages: (atend)
%%BoundingBox: 0 0 432 576
%%EndComments
%%BeginProlog
/bp  { gs sRGB gs } def
% begin .ps.prolog
/gs  { gsave } bind def
/gr  { grestore } bind def
/ep  { showpage gr gr } bind def
/m   { moveto } bind def
/l  { rlineto } bind def
/np  { newpath } bind def
/cp  { closepath } bind def
/f   { fill } bind def
/o   { stroke } bind def
/c   { newpath 0 360 arc } bind def
/r   { 4 2 roll moveto 1 copy 3 -1 roll exch 0 exch rlineto 0 rlineto -1 mul 0 exch rlineto closepath } bind def
/p1  { stroke } bind def
/p2  { gsave bg fill grestore newpath } bind def
/p3  { gsave bg fill grestore stroke } bind def
/p6  { gsave bg eofill grestore newpath } bind def
/p7  { gsave bg eofill grestore stroke } bind def
/t   { 5 -2 roll moveto gsave rotate
       1 index stringwidth pop
       mul neg 0 rmoveto show grestore } bind def
/ta  { 4 -2 roll moveto gsave rotate show } bind def
/tb  { 2 -1 roll 0 rmoveto show } bind def
/cl  { grestore gsave newpath 3 index 3 index moveto 1 index
       4 -1 roll lineto  exch 1 index lineto lineto
       closepath clip newpath } bind def
/rgb { setrgbcolor } bind def
/s   { scalefont setfont } bind def
% end   .ps.prolog
/sRGB { [ /CIEBasedABC
          << /DecodeLMN
               [ { dup 0.03928 le
                        {12.92321 div}
                        {0.055 add 1.055 div 2.4 exp }
                     ifelse
                 } bind dup dup
               ]
             /MatrixLMN [0.412457 0.212673 0.019334
                         0.357576 0.715152 0.119192
                         0.180437 0.072175 0.950301]
             /WhitePoint [0.9505 1.0 1.0890]
           >>
         ] setcolorspace } bind def
/srgb { setcolor } bind def
%%IncludeResource: font Helvetica
/Helvetica findfont
dup length dict begin
  {1 index /FID ne {def} {pop pop} ifelse} forall
  /Encoding ISOLatin1Encoding def
  currentdict
  end
/Font1 exch definefont pop
%%IncludeResource: font Helvetica-Bold
/Helvetica-Bold findfont
dup length dict begin
  {1 index /FID ne {def} {pop pop} ifelse} forall
  /Encoding ISOLatin1Encoding def
  currentdict
  end
/Font2 exch definefont pop
%%IncludeResource: font Helvetica-Oblique
/Helvetica-Oblique findfont
dup length dict begin
  {1 index /FID ne {def} {pop pop} ifelse} forall
  /Encoding ISOLatin1Encoding def
  currentdict
  end
/Font3 exch definefont pop
%%IncludeResource: font Helvetica-BoldOblique
/Helvetica-BoldOblique findfont
dup length dict begin
  {1 index /FID ne {def} {pop pop} ifelse} forall
  /Encoding ISOLatin1Encoding def
  currentdict
  end
/Font4 exch definefont pop
%%IncludeResource: font Symbol
/Symbol findfont
dup length dict begin
  {1 index /FID ne {def} {pop pop} ifelse} forall
  currentdict
  end
/Font5 exch definefont pop
%%EndProlog
%%Page: 1 1
bp
0.00 0.00 432.00 576.00 cl
0.00 0.00 432.00 576.00 cl
0.00 0.00 432.00 576.00 cl
/Font1 findfont 12 s
0 0 0 srgb
48.00 508.72 (PCP-ETH) 0 0 t
48.00 494.89 (Blitzlicht-Photolyse) 0 0 t
/Font1 findfont 9 s
48.00 457.54 (File: Dy) 0 ta
-0.180 (e_0_1_V2_900V_25.dat) tb gr
48.00 334.87 (T) 0 ta
-1.080 (ue Apr  9 22:04:45 2019) tb gr
48.00 430.87 (Fitfunktion:  a + b * e) 0 ta
-0.270 (xp\(-c * t\)) tb gr
48.00 420.50 (t-Inter) 0 ta
0.270 (v) tb
-0.225 (all: 17.000 ... 351.000 ms) tb gr
48.00 410.14 (P) 0 ta
-0.360 (ar) tb
-0.090 (ameter \(Standardabw) tb
-0.090 (eichung\):) tb gr
48.00 399.77 (  a = 0.00096 \(0.00020\)) 0 0 t
48.00 389.40 (  b = 0.09451 \(0.00043\)) 0 0 t
48.00 379.03 (  c = 1.130e+01 \(1.127e-01\) s^-1) 0 0 t
48.00 368.66 (  tau = 8.846e-02 \(8.821e-04\) s) 0 0 t
216.00 345.60 388.80 518.40 cl
0 0 0 srgb
0.75 setlinewidth
[] 0 setdash
1 setlinecap
1 setlinejoin
10.00 setmiterlimit
np
222.40 510.99 m
0.15 0.76 l
0.14 -0.40 l
0.15 0 l
0.14 0 l
0.15 -0.50 l
0.14 0.64 l
0.15 0 l
0.14 0 l
0.15 0.37 l
0.15 0.14 l
0.14 -0.51 l
0.15 -0.50 l
0.14 0.62 l
0.15 0 l
0.14 -0.62 l
0.15 0.62 l
0.14 -0.51 l
0.15 -0.25 l
0.15 0.25 l
0.14 0.51 l
0.15 -0.12 l
0.14 -0.76 l
0.15 1.02 l
0.14 -0.65 l
0.15 0.14 l
0.15 -0.51 l
0.14 1.27 l
0.15 -0.39 l
0.14 0 l
0.15 -0.12 l
0.14 -0.25 l
0.15 0 l
0.14 0.62 l
0.15 -0.76 l
0.15 0.25 l
0.14 -0.25 l
0.15 0 l
0.14 -0.11 l
0.15 0 l
0.14 0.25 l
0.15 -0.25 l
0.14 -0.14 l
0.15 -0.12 l
0.15 0.37 l
0.14 0.14 l
0.15 0.11 l
0.14 0.40 l
0.15 0.11 l
0.14 -0.11 l
0.15 -0.40 l
0.14 0.14 l
0.15 0.12 l
0.15 -0.62 l
0.14 0.11 l
0.15 0.25 l
0.14 0 l
0.15 0.26 l
0.14 -1.13 l
0.15 0 l
0.15 0.11 l
0.14 0.65 l
0.15 -0.25 l
0.14 0.11 l
0.15 -0.37 l
0.14 0.88 l
0.15 -0.51 l
0.14 -0.25 l
0.15 0.39 l
0.15 -0.14 l
0.14 0.76 l
0.15 -0.37 l
0.14 -0.14 l
0.15 -0.50 l
0.14 0.50 l
0.15 0 l
0.14 -0.11 l
0.15 0 l
0.15 0.25 l
0.14 -0.39 l
0.15 -0.11 l
0.14 -0.14 l
0.15 0.25 l
0.14 0.51 l
0.15 -0.12 l
0.14 -0.14 l
0.15 0.14 l
0.15 0.26 l
0.14 -0.14 l
0.15 0 l
0.14 -0.12 l
0.15 0 l
0.14 0.12 l
0.15 0.14 l
0.15 -0.65 l
0.14 0.51 l
0.15 -1.38 l
0.14 1.38 l
0.15 -0.51 l
0.14 -0.62 l
236.96 480.16 lineto
0.14 -2.44 l
0.15 1.68 l
0.15 1.01 l
0.14 0.37 l
0.15 0.39 l
0.14 0.62 l
0.15 1.01 l
0.14 0.62 l
0.15 0.76 l
0.14 -1.01 l
0.15 0.76 l
0.15 0.14 l
0.14 0.87 l
0.15 0 l
0.14 0.26 l
0.15 0.50 l
0.14 -1.01 l
0.15 0.14 l
0.14 0.37 l
0.15 1.52 l
0.15 -1.02 l
0.14 1.89 l
0.15 0.14 l
0.14 -0.39 l
0.15 0.25 l
0.14 -1.24 l
0.15 1.24 l
0.15 0.65 l
0.14 0.25 l
0.15 -0.25 l
0.14 0.50 l
0.15 1.02 l
0.14 -1.16 l
0.15 0.65 l
0.14 0.51 l
0.15 0.11 l
0.15 0.25 l
0.14 -0.11 l
0.15 0.37 l
0.14 0.39 l
0.15 -0.39 l
0.14 0.14 l
0.15 -0.40 l
0.14 0.91 l
0.15 0.25 l
0.15 0.25 l
0.14 0.26 l
0.15 1.88 l
0.14 -1.01 l
0.15 0.36 l
0.14 -0.76 l
0.15 0.51 l
0.14 0.51 l
0.15 0.50 l
0.15 -0.76 l
0.14 0.40 l
0.15 0.11 l
0.14 0.51 l
0.15 -0.12 l
0.14 0.37 l
0.15 0.90 l
0.15 0.26 l
0.14 0.11 l
0.15 0 l
0.14 0.25 l
0.15 -0.62 l
0.14 0.26 l
0.15 0.61 l
0.14 0 l
0.15 0.40 l
0.15 -0.25 l
0.14 -0.40 l
0.15 0.65 l
0.14 0 l
0.15 0 l
0.14 1.38 l
0.15 -0.37 l
0.14 -0.25 l
0.15 0 l
0.15 0.25 l
0.14 -0.25 l
0.15 0.48 l
0.14 -0.73 l
0.15 1.12 l
0.14 0.11 l
0.15 0.15 l
0.14 0.36 l
0.15 -0.11 l
0.15 0.62 l
0.14 0.14 l
0.15 -0.76 l
0.14 0.87 l
0.15 0.25 l
0.14 -0.25 l
0.15 -0.11 l
0.15 -0.14 l
0.14 -0.11 l
0.15 0.11 l
0.14 0.14 l
251.52 500.23 lineto
0.14 0.14 l
0.15 0.51 l
0.14 0.37 l
0.15 -0.62 l
0.15 -0.15 l
0.14 0.77 l
0.15 -0.37 l
0.14 0.37 l
0.15 -0.26 l
0.14 0 l
0.15 0.26 l
0.14 0.14 l
0.15 -0.26 l
0.15 0.62 l
0.14 0.65 l
0.15 0.51 l
0.14 -1.16 l
0.15 0.90 l
0.14 -0.39 l
0.15 -0.25 l
0.14 -0.12 l
0.15 0.12 l
0.15 0.64 l
0.14 -0.14 l
0.15 0.51 l
0.14 -0.37 l
0.15 0.37 l
0.14 0.51 l
0.15 -0.76 l
0.14 1.12 l
0.15 -0.62 l
0.15 0.51 l
0.14 0 l
0.15 0 l
0.14 0.51 l
0.15 -1.27 l
0.14 0.11 l
0.15 -0.11 l
0.15 1.12 l
0.14 0.26 l
0.15 0.14 l
0.14 0 l
0.15 -0.25 l
0.14 0.36 l
0.15 -0.25 l
0.14 0.14 l
0.15 0.11 l
0.15 -0.11 l
0.14 0.51 l
0.15 0.11 l
0.14 -0.25 l
0.15 0.14 l
0.14 0.11 l
0.15 0.25 l
0.14 -0.25 l
0.15 0.39 l
0.15 0 l
0.14 -0.50 l
0.15 0 l
0.14 -0.14 l
0.15 0 l
0.14 0 l
0.15 0.39 l
0.14 0.62 l
0.15 0.25 l
0.15 0.65 l
0.14 0.11 l
0.15 -0.62 l
0.14 0.12 l
0.15 -0.62 l
0.14 0.11 l
0.15 0 l
0.15 1.01 l
0.14 -0.76 l
0.15 -0.50 l
0.14 -0.26 l
0.15 0.65 l
0.14 0.87 l
0.15 -0.87 l
0.14 1.01 l
0.15 -0.25 l
0.15 0 l
0.14 -0.14 l
0.15 -0.25 l
0.14 0.64 l
0.15 -0.50 l
0.14 0.11 l
0.15 0 l
0.14 -0.37 l
0.15 0.12 l
0.15 0.76 l
0.14 0.64 l
0.15 -0.50 l
0.14 0 l
0.15 0 l
0.14 0.25 l
0.15 -0.25 l
0.14 0.11 l
0.15 -0.37 l
266.08 507.07 lineto
0.14 0.37 l
0.15 -0.37 l
0.14 0.51 l
0.15 -0.65 l
0.14 0.65 l
0.15 0.51 l
0.15 0.87 l
0.14 0.62 l
0.15 -1.13 l
0.14 -0.62 l
0.15 -0.25 l
0.14 0.51 l
0.15 -0.26 l
0.14 -0.14 l
0.15 0.65 l
0.15 -0.65 l
0.14 0.26 l
0.15 0.14 l
0.14 0 l
0.15 0.25 l
0.14 -0.25 l
0.15 0.25 l
0.14 0.73 l
0.15 -0.36 l
0.15 -0.37 l
0.14 0.11 l
0.15 -0.76 l
0.14 0.65 l
0.15 -0.14 l
0.14 0.51 l
0.15 -0.26 l
0.14 0 l
0.15 0.88 l
0.15 -0.26 l
0.14 0 l
0.15 -0.98 l
0.14 0.73 l
0.15 0.14 l
0.14 -0.76 l
0.15 1.13 l
0.15 -0.51 l
0.14 -0.99 l
0.15 0.51 l
0.14 0.37 l
0.15 -0.37 l
0.14 1.38 l
0.15 -0.25 l
0.14 0.36 l
0.15 -0.36 l
0.15 -0.26 l
0.14 -0.76 l
0.15 0.76 l
0.14 0 l
0.15 0 l
0.14 -0.25 l
0.15 -0.14 l
0.14 0 l
0.15 -0.37 l
0.15 -0.11 l
0.14 0.87 l
0.15 -0.25 l
0.14 0.87 l
0.15 -0.36 l
0.14 0.36 l
0.15 -0.25 l
0.14 -0.37 l
0.15 -0.14 l
0.15 0.14 l
0.14 -0.14 l
0.15 0.40 l
0.14 0.76 l
0.15 -1.52 l
0.14 1.12 l
0.15 0 l
0.15 -0.50 l
0.14 0.14 l
0.15 0.76 l
0.14 -0.14 l
0.15 -0.51 l
0.14 -0.37 l
0.15 0 l
0.14 0.37 l
0.15 -0.51 l
0.15 0.14 l
0.14 0.51 l
0.15 0.11 l
0.14 0.51 l
0.15 -0.11 l
0.14 0.36 l
0.15 -1.01 l
0.14 0.76 l
0.15 -0.37 l
0.15 -0.64 l
0.14 0.76 l
0.15 -0.88 l
0.14 0.37 l
0.15 0.14 l
0.14 -0.14 l
0.15 -0.37 l
280.63 509.21 lineto
0.15 0.62 l
0.15 0.14 l
0.14 0.37 l
0.15 -0.51 l
0.14 0.40 l
0.15 -0.65 l
0.14 0.51 l
0.15 -0.12 l
0.15 -0.90 l
0.14 0.76 l
0.15 -0.62 l
0.14 0.26 l
0.15 0.62 l
0.14 0.39 l
0.15 -0.65 l
0.14 -0.25 l
0.15 0 l
0.15 -0.37 l
0.14 0.62 l
0.15 -0.36 l
0.14 0.36 l
0.15 -0.50 l
0.14 0 l
0.15 0 l
0.14 0.39 l
0.15 0.62 l
0.15 0.39 l
0.14 -0.64 l
0.15 0.39 l
0.14 -0.25 l
0.15 -0.40 l
0.14 0 l
0.15 0.14 l
0.14 0.12 l
0.15 -0.76 l
0.15 -0.12 l
0.14 0.51 l
0.15 0.25 l
0.14 -0.90 l
0.15 1.02 l
0.14 0.14 l
0.15 0.11 l
0.14 -0.11 l
0.15 -0.14 l
0.15 0 l
0.14 0.14 l
0.15 0.11 l
0.14 -0.25 l
0.15 0.14 l
0.14 -0.26 l
0.15 0.12 l
0.15 0.50 l
0.14 -0.25 l
0.15 -0.51 l
0.14 0.51 l
0.15 -0.51 l
0.14 0 l
0.15 0.14 l
0.14 0.51 l
0.15 -0.65 l
0.15 0.26 l
0.14 0 l
0.15 0.14 l
0.14 -0.26 l
0.15 0.12 l
0.14 0.50 l
0.15 0.65 l
0.14 -0.51 l
0.15 -0.25 l
0.15 0 l
0.14 0.25 l
0.15 -1.01 l
0.14 0.37 l
0.15 0 l
0.14 -0.26 l
0.15 -0.36 l
0.14 0.50 l
0.15 -0.14 l
0.15 0.76 l
0.14 -0.25 l
0.15 0.39 l
0.14 -0.90 l
0.15 0.14 l
0.14 0.12 l
0.15 0.39 l
0.15 -0.14 l
0.14 -0.25 l
0.15 0.25 l
0.14 -0.11 l
0.15 -0.40 l
0.14 0.76 l
0.15 -0.50 l
0.14 0.25 l
0.15 0.39 l
0.15 0 l
0.14 0 l
0.15 -0.39 l
0.14 -0.37 l
0.15 0.12 l
295.19 509.58 lineto
0.15 -0.25 l
0.14 0.14 l
0.15 0.62 l
0.15 0.39 l
0.14 -0.14 l
0.15 0.39 l
0.14 -0.14 l
0.15 -0.11 l
0.14 -0.39 l
0.15 0.39 l
0.14 0 l
0.15 0 l
0.15 -0.76 l
0.14 0.37 l
0.15 -0.76 l
0.14 0.50 l
0.15 0.14 l
0.14 0.51 l
0.15 0.25 l
0.15 -0.39 l
0.14 -0.25 l
0.15 0.39 l
0.14 -0.25 l
0.15 0.11 l
0.14 -0.25 l
0.15 -0.12 l
0.14 -0.25 l
0.15 0.87 l
0.15 -0.36 l
0.14 0.11 l
0.15 0.14 l
0.14 0 l
0.15 0.25 l
0.14 -0.76 l
0.15 0.37 l
0.14 -0.11 l
0.15 0.25 l
0.15 -0.90 l
0.14 0.65 l
0.15 0 l
0.14 -0.51 l
0.15 -0.25 l
0.14 0.50 l
0.15 0.51 l
0.14 0.51 l
0.15 -0.14 l
0.15 -0.26 l
0.14 -0.11 l
0.15 0 l
0.14 -0.39 l
0.15 0.39 l
0.14 -0.90 l
0.15 0.25 l
0.15 -0.11 l
0.14 0.51 l
0.15 0.25 l
0.14 0.11 l
0.15 -0.76 l
0.14 0.51 l
0.15 -0.25 l
0.14 0.64 l
0.15 0.12 l
0.15 -0.26 l
0.14 -0.50 l
0.15 0 l
0.14 0.64 l
0.15 -0.25 l
0.14 -0.90 l
0.15 0.65 l
0.14 0 l
0.15 0 l
0.15 0.11 l
0.14 0.39 l
0.15 0 l
0.14 0 l
0.15 -0.25 l
0.14 0.11 l
0.15 -0.25 l
0.14 0.14 l
0.15 -0.65 l
0.15 0.26 l
0.14 -0.26 l
0.15 0.40 l
0.14 0 l
0.15 0.25 l
0.14 0.25 l
0.15 -0.39 l
0.15 0.76 l
0.14 -0.11 l
0.15 -0.90 l
0.14 -0.12 l
0.15 0.37 l
0.14 -0.25 l
0.15 0.14 l
0.14 -0.40 l
0.15 0.14 l
0.15 -0.14 l
0.14 0.40 l
0.15 -0.65 l
309.75 510.09 lineto
0.15 0.76 l
0.14 -0.62 l
0.15 0.50 l
0.14 0.12 l
0.15 -0.62 l
0.15 0.11 l
0.14 -0.37 l
0.15 0.51 l
0.14 -0.51 l
0.15 0 l
0.14 0.51 l
0.15 -0.25 l
0.14 -0.26 l
0.15 0.51 l
0.15 0.11 l
0.14 -0.50 l
0.15 0 l
0.14 0.14 l
0.15 -0.14 l
0.14 0 l
0.15 -0.12 l
0.15 0 l
0.14 -0.25 l
0.15 0 l
0.14 0.25 l
0.15 -0.14 l
0.14 0.76 l
0.15 -0.11 l
0.14 0.37 l
0.15 0.14 l
0.15 -1.02 l
0.14 -0.14 l
0.15 0.51 l
0.14 -0.51 l
0.15 0.14 l
0.14 0 l
0.15 -0.39 l
0.14 0.14 l
0.15 0.51 l
0.15 -0.26 l
0.14 0.76 l
0.15 -0.76 l
0.14 0.37 l
0.15 0 l
0.14 -0.25 l
0.15 -0.37 l
0.14 1.01 l
0.15 -0.39 l
0.15 -0.25 l
0.14 -0.12 l
0.15 -0.25 l
0.14 0.11 l
0.15 0.40 l
0.14 0.25 l
0.15 0.37 l
0.15 -0.26 l
0.14 -0.62 l
0.15 0.51 l
0.14 -0.39 l
0.15 -0.26 l
0.14 0.51 l
0.15 -0.37 l
0.14 -0.25 l
0.15 0 l
0.15 0.11 l
0.14 -0.11 l
0.15 0.37 l
0.14 0.25 l
0.15 0.39 l
0.14 0 l
0.15 -0.64 l
0.14 0.25 l
0.15 -0.25 l
0.15 -0.26 l
0.14 0 l
0.15 -0.11 l
0.14 0 l
0.15 -0.14 l
0.14 -0.25 l
0.15 1.15 l
0.14 -0.39 l
0.15 0.64 l
0.15 0 l
0.14 0.12 l
0.15 -0.88 l
0.14 0 l
0.15 0.12 l
0.14 0 l
0.15 -0.12 l
0.14 0.12 l
0.15 0 l
0.15 0 l
0.14 0.39 l
0.15 -0.51 l
0.14 0.62 l
0.15 -0.25 l
0.14 0 l
0.15 -0.76 l
0.15 0.14 l
324.31 510.48 lineto
0.15 -0.39 l
0.14 -0.62 l
0.15 0.25 l
0.14 0.11 l
0.15 0.40 l
0.14 0.25 l
0.15 0.11 l
0.15 -0.11 l
0.14 -0.14 l
0.15 0.14 l
0.14 0 l
0.15 -0.14 l
0.14 0 l
0.15 -0.11 l
0.14 -0.14 l
0.15 -0.88 l
0.15 0.76 l
0.14 0.26 l
0.15 -0.26 l
0.14 0.51 l
0.15 0.37 l
0.14 0 l
0.15 -0.51 l
0.14 0.14 l
0.15 -0.14 l
0.15 0 l
0.14 0.14 l
0.15 -0.39 l
0.14 0.39 l
0.15 -0.14 l
0.14 -0.25 l
0.15 0.25 l
0.15 0.39 l
0.14 -0.76 l
0.15 0.62 l
0.14 0 l
0.15 -0.25 l
0.14 -0.51 l
0.15 0.76 l
0.14 -0.87 l
0.15 0 l
0.15 0.51 l
0.14 -0.65 l
0.15 0.14 l
0.14 0.76 l
0.15 0.11 l
0.14 -0.25 l
0.15 0.14 l
0.14 0.25 l
0.15 -0.76 l
0.15 0.37 l
0.14 -0.37 l
0.15 -0.25 l
0.14 -0.25 l
0.15 0.25 l
0.14 0.11 l
0.15 0.40 l
0.14 -0.26 l
0.15 0.26 l
0.15 -0.40 l
0.14 0.76 l
0.15 -0.36 l
0.14 0.25 l
0.15 -0.51 l
0.14 0.37 l
0.15 -0.25 l
0.15 -0.62 l
0.14 0.25 l
0.15 0.25 l
0.14 0.26 l
0.15 0.50 l
0.14 0.12 l
0.15 -0.51 l
0.14 -0.11 l
0.15 -0.14 l
0.15 -0.12 l
0.14 0.62 l
0.15 -1.12 l
0.14 0.76 l
0.15 0 l
0.14 -0.40 l
0.15 -0.25 l
0.14 0.39 l
0.15 -0.25 l
0.15 0.37 l
0.14 0.64 l
0.15 -0.39 l
0.14 0.14 l
0.15 0.11 l
0.14 -0.50 l
0.15 0.39 l
0.14 -0.76 l
0.15 0 l
0.15 0.11 l
0.14 0.14 l
0.15 0 l
0.14 0.12 l
0.15 0.25 l
0.14 0.14 l
338.87 509.47 lineto
0.15 1.01 l
0.14 -0.39 l
0.15 0.39 l
0.14 -0.25 l
0.15 0.11 l
0.14 -0.62 l
0.15 0 l
0.14 0.25 l
0.15 -0.25 l
0.15 1.01 l
0.14 -0.39 l
0.15 0.65 l
0.14 -0.65 l
0.15 -0.11 l
0.14 -0.65 l
0.15 0.65 l
0.14 -0.14 l
0.15 -0.51 l
0.15 0.25 l
0.14 -0.25 l
0.15 0.39 l
0.14 0 l
0.15 0.26 l
0.14 -0.40 l
0.15 0 l
0.14 0.65 l
0.15 0.25 l
0.15 -0.39 l
0.14 -0.11 l
0.15 -0.26 l
0.14 0.12 l
0.15 -0.26 l
0.14 0.14 l
0.15 -0.50 l
0.15 0.36 l
0.14 -0.36 l
0.15 0.50 l
0.14 -0.25 l
0.15 0.62 l
0.14 -0.11 l
0.15 -0.51 l
0.14 0.25 l
0.15 0.37 l
0.15 -0.87 l
0.14 0.36 l
0.15 0.14 l
0.14 0.37 l
0.15 -0.37 l
0.14 -0.14 l
0.15 -0.25 l
0.14 0 l
0.15 0.51 l
0.15 0.64 l
0.14 -0.64 l
0.15 0.25 l
0.14 -0.25 l
0.15 0 l
0.14 -0.12 l
0.15 -0.14 l
0.14 0.14 l
0.15 -0.14 l
0.15 -0.36 l
0.14 0.11 l
0.15 0.39 l
0.14 -0.14 l
0.15 0.40 l
0.14 0.50 l
0.15 -0.25 l
0.15 0.11 l
0.14 -0.36 l
0.15 0 l
0.14 0.36 l
0.15 -0.62 l
0.14 -0.64 l
0.15 0.39 l
0.14 0.11 l
0.15 -0.36 l
0.15 0.11 l
0.14 0 l
0.15 0.65 l
0.14 -0.51 l
0.15 0 l
0.14 0 l
0.15 0.62 l
0.14 -0.25 l
0.15 0 l
0.15 0 l
0.14 -0.26 l
0.15 -0.50 l
0.14 0.90 l
0.15 -0.26 l
0.14 -0.64 l
0.15 0.90 l
0.14 0.36 l
0.15 -0.11 l
0.15 -0.14 l
0.14 -0.37 l
0.15 0.26 l
0.14 -0.40 l
353.43 509.07 lineto
0.14 0.76 l
0.15 0 l
0.14 -0.50 l
0.15 0.50 l
0.15 0 l
0.14 0.76 l
0.15 -0.50 l
0.14 0.50 l
0.15 0.26 l
0.14 -1.13 l
0.15 0.62 l
0.15 -0.37 l
0.14 0.26 l
0.15 -0.26 l
0.14 -0.64 l
0.15 0.39 l
0.14 -0.14 l
0.15 0.14 l
0.14 0.11 l
0.15 0.76 l
0.15 -0.25 l
0.14 -0.11 l
0.15 0 l
0.14 0.25 l
0.15 0 l
0.14 -0.90 l
0.15 0.65 l
0.14 -0.65 l
0.15 0.39 l
0.15 -0.25 l
0.14 0.51 l
0.15 -0.65 l
0.14 1.01 l
0.15 -0.50 l
0.14 -0.26 l
0.15 0.40 l
0.14 -0.40 l
0.15 -0.11 l
0.15 0.11 l
0.14 0 l
0.15 0.51 l
0.14 -0.76 l
0.15 -0.25 l
0.14 0.25 l
0.15 -0.11 l
0.15 0.62 l
0.14 -0.12 l
0.15 0.76 l
0.14 -0.25 l
0.15 -0.14 l
0.14 -0.37 l
0.15 -0.39 l
0.14 0.76 l
0.15 -0.37 l
0.15 0 l
0.14 -0.14 l
0.15 -0.50 l
0.14 0.25 l
0.15 -0.37 l
0.14 0.76 l
0.15 0.12 l
0.14 0 l
0.15 0.25 l
0.15 -0.11 l
0.14 -0.40 l
0.15 -0.25 l
0.14 0.39 l
0.15 -0.14 l
0.14 -0.11 l
0.15 -0.14 l
0.14 0.90 l
0.15 -0.65 l
0.15 0.40 l
0.14 -0.51 l
0.15 1.01 l
0.14 0.12 l
0.15 -1.02 l
0.14 -0.25 l
0.15 0.25 l
0.15 0.14 l
0.14 -0.39 l
0.15 -0.25 l
0.14 0 l
0.15 0.25 l
0.14 -0.11 l
0.15 0.25 l
0.14 0.76 l
0.15 -0.14 l
0.15 -0.11 l
0.14 -0.65 l
0.15 1.01 l
0.14 -0.87 l
0.15 0 l
0.14 0.25 l
0.15 -0.64 l
0.14 0.64 l
0.15 -0.64 l
0.15 0.25 l
0.14 -0.11 l
currentpoint o m
367.99 509.47 lineto
0.14 0.76 l
0.15 0.36 l
0.14 -0.50 l
0.15 0.14 l
0.14 0.50 l
0.15 -0.90 l
0.15 0.51 l
0.14 -1.38 l
0.15 0.76 l
0.14 0.25 l
0.15 0 l
0.14 -0.14 l
0.15 0.76 l
0.15 -0.36 l
0.14 0.50 l
0.15 -0.39 l
0.14 0.25 l
0.15 -0.50 l
0.14 -0.62 l
0.15 0.76 l
0.14 -0.51 l
0.15 -0.39 l
0.15 -0.26 l
0.14 0.40 l
0.15 0 l
0.14 0.62 l
0.15 0 l
0.14 -0.37 l
0.15 0.87 l
0.14 -0.62 l
0.15 0.51 l
0.15 -0.25 l
0.14 -0.26 l
0.15 0.12 l
0.14 -0.51 l
0.15 -0.37 l
0.14 0.37 l
0.15 0.25 l
0.14 0.14 l
0.15 0.26 l
0.15 -0.26 l
0.14 0.26 l
0.15 -0.14 l
0.14 -0.12 l
0.15 -0.14 l
0.14 0.65 l
0.15 -0.14 l
0.15 -1.01 l
0.14 0.39 l
0.15 -0.14 l
0.14 0 l
0.15 0.65 l
0.14 0 l
0.15 -0.26 l
0.14 -0.14 l
0.15 -0.11 l
0.15 0.25 l
0.14 -0.14 l
0.15 -0.11 l
0.14 0.37 l
0.15 -0.51 l
0.14 0 l
0.15 0.25 l
0.14 -0.36 l
0.15 0.76 l
0.15 -0.14 l
0.14 0.14 l
0.15 0.11 l
0.14 -0.11 l
0.15 -0.14 l
0.14 -0.12 l
0.15 -0.25 l
0.14 0 l
0.15 -0.25 l
0.15 -0.14 l
0.14 0.64 l
0.15 -0.50 l
0.14 0.62 l
0.15 0 l
0.14 -0.26 l
0.15 0.51 l
0.15 -0.76 l
0.14 0.39 l
0.15 -0.14 l
0.14 -0.62 l
0.15 0.37 l
0.14 0.51 l
0.15 -0.12 l
0.14 -0.76 l
0.15 0.51 l
0.15 0.11 l
0.14 -0.11 l
0.15 1.38 l
0.14 -0.62 l
0.15 -0.14 l
0.14 -1.13 l
0.15 0.76 l
0.14 -0.25 l
0.15 -0.51 l
o
/bg { 1 1 1 srgb } def
222.40 510.99 0.43 c p3
222.55 511.75 0.43 c p3
222.69 511.35 0.43 c p3
222.84 511.35 0.43 c p3
222.98 511.35 0.43 c p3
223.13 510.85 0.43 c p3
223.27 511.49 0.43 c p3
223.42 511.49 0.43 c p3
223.56 511.49 0.43 c p3
223.71 511.86 0.43 c p3
223.86 512.00 0.43 c p3
224.00 511.49 0.43 c p3
224.15 510.99 0.43 c p3
224.29 511.61 0.43 c p3
224.44 511.61 0.43 c p3
224.58 510.99 0.43 c p3
224.73 511.61 0.43 c p3
224.87 511.10 0.43 c p3
225.02 510.85 0.43 c p3
225.17 511.10 0.43 c p3
225.31 511.61 0.43 c p3
225.46 511.49 0.43 c p3
225.60 510.73 0.43 c p3
225.75 511.75 0.43 c p3
225.89 511.10 0.43 c p3
226.04 511.24 0.43 c p3
226.19 510.73 0.43 c p3
226.33 512.00 0.43 c p3
226.48 511.61 0.43 c p3
226.62 511.61 0.43 c p3
226.77 511.49 0.43 c p3
226.91 511.24 0.43 c p3
227.06 511.24 0.43 c p3
227.20 511.86 0.43 c p3
227.35 511.10 0.43 c p3
227.50 511.35 0.43 c p3
227.64 511.10 0.43 c p3
227.79 511.10 0.43 c p3
227.93 510.99 0.43 c p3
228.08 510.99 0.43 c p3
228.22 511.24 0.43 c p3
228.37 510.99 0.43 c p3
228.51 510.85 0.43 c p3
228.66 510.73 0.43 c p3
228.81 511.10 0.43 c p3
228.95 511.24 0.43 c p3
229.10 511.35 0.43 c p3
229.24 511.75 0.43 c p3
229.39 511.86 0.43 c p3
229.53 511.75 0.43 c p3
229.68 511.35 0.43 c p3
229.82 511.49 0.43 c p3
229.97 511.61 0.43 c p3
230.12 510.99 0.43 c p3
230.26 511.10 0.43 c p3
230.41 511.35 0.43 c p3
230.55 511.35 0.43 c p3
230.70 511.61 0.43 c p3
230.84 510.48 0.43 c p3
230.99 510.48 0.43 c p3
231.14 510.59 0.43 c p3
231.28 511.24 0.43 c p3
231.43 510.99 0.43 c p3
231.57 511.10 0.43 c p3
231.72 510.73 0.43 c p3
231.86 511.61 0.43 c p3
232.01 511.10 0.43 c p3
232.15 510.85 0.43 c p3
232.30 511.24 0.43 c p3
232.45 511.10 0.43 c p3
232.59 511.86 0.43 c p3
232.74 511.49 0.43 c p3
232.88 511.35 0.43 c p3
233.03 510.85 0.43 c p3
233.17 511.35 0.43 c p3
233.32 511.35 0.43 c p3
233.46 511.24 0.43 c p3
233.61 511.24 0.43 c p3
233.76 511.49 0.43 c p3
233.90 511.10 0.43 c p3
234.05 510.99 0.43 c p3
234.19 510.85 0.43 c p3
234.34 511.10 0.43 c p3
234.48 511.61 0.43 c p3
234.63 511.49 0.43 c p3
234.77 511.35 0.43 c p3
234.92 511.49 0.43 c p3
235.07 511.75 0.43 c p3
235.21 511.61 0.43 c p3
235.36 511.61 0.43 c p3
235.50 511.49 0.43 c p3
235.65 511.49 0.43 c p3
235.79 511.61 0.43 c p3
235.94 511.75 0.43 c p3
236.09 511.10 0.43 c p3
236.23 511.61 0.43 c p3
236.38 510.23 0.43 c p3
236.52 511.61 0.43 c p3
236.67 511.10 0.43 c p3
236.81 510.48 0.43 c p3
236.96 480.16 0.43 c p3
237.10 477.72 0.43 c p3
237.25 479.40 0.43 c p3
237.40 480.41 0.43 c p3
237.54 480.78 0.43 c p3
237.69 481.17 0.43 c p3
237.83 481.79 0.43 c p3
237.98 482.80 0.43 c p3
238.12 483.42 0.43 c p3
238.27 484.18 0.43 c p3
238.41 483.17 0.43 c p3
238.56 483.93 0.43 c p3
238.71 484.07 0.43 c p3
238.85 484.94 0.43 c p3
239.00 484.94 0.43 c p3
239.14 485.20 0.43 c p3
239.29 485.70 0.43 c p3
239.43 484.69 0.43 c p3
239.58 484.83 0.43 c p3
239.72 485.20 0.43 c p3
239.87 486.72 0.43 c p3
240.02 485.70 0.43 c p3
240.16 487.59 0.43 c p3
240.31 487.73 0.43 c p3
240.45 487.34 0.43 c p3
240.60 487.59 0.43 c p3
240.74 486.35 0.43 c p3
240.89 487.59 0.43 c p3
241.04 488.24 0.43 c p3
241.18 488.49 0.43 c p3
241.33 488.24 0.43 c p3
241.47 488.74 0.43 c p3
241.62 489.76 0.43 c p3
241.76 488.60 0.43 c p3
241.91 489.25 0.43 c p3
242.05 489.76 0.43 c p3
242.20 489.87 0.43 c p3
242.35 490.12 0.43 c p3
242.49 490.01 0.43 c p3
242.64 490.38 0.43 c p3
242.78 490.77 0.43 c p3
242.93 490.38 0.43 c p3
243.07 490.52 0.43 c p3
243.22 490.12 0.43 c p3
243.36 491.03 0.43 c p3
243.51 491.28 0.43 c p3
243.66 491.53 0.43 c p3
243.80 491.79 0.43 c p3
243.95 493.67 0.43 c p3
244.09 492.66 0.43 c p3
244.24 493.02 0.43 c p3
244.38 492.26 0.43 c p3
244.53 492.77 0.43 c p3
244.67 493.28 0.43 c p3
244.82 493.78 0.43 c p3
244.97 493.02 0.43 c p3
245.11 493.42 0.43 c p3
245.26 493.53 0.43 c p3
245.40 494.04 0.43 c p3
245.55 493.92 0.43 c p3
245.69 494.29 0.43 c p3
245.84 495.19 0.43 c p3
245.99 495.45 0.43 c p3
246.13 495.56 0.43 c p3
246.28 495.56 0.43 c p3
246.42 495.81 0.43 c p3
246.57 495.19 0.43 c p3
246.71 495.45 0.43 c p3
246.86 496.06 0.43 c p3
247.00 496.06 0.43 c p3
247.15 496.46 0.43 c p3
247.30 496.21 0.43 c p3
247.44 495.81 0.43 c p3
247.59 496.46 0.43 c p3
247.73 496.46 0.43 c p3
247.88 496.46 0.43 c p3
248.02 497.84 0.43 c p3
248.17 497.47 0.43 c p3
248.31 497.22 0.43 c p3
248.46 497.22 0.43 c p3
248.61 497.47 0.43 c p3
248.75 497.22 0.43 c p3
248.90 497.70 0.43 c p3
249.04 496.97 0.43 c p3
249.19 498.09 0.43 c p3
249.33 498.20 0.43 c p3
249.48 498.35 0.43 c p3
249.62 498.71 0.43 c p3
249.77 498.60 0.43 c p3
249.92 499.22 0.43 c p3
250.06 499.36 0.43 c p3
250.21 498.60 0.43 c p3
250.35 499.47 0.43 c p3
250.50 499.72 0.43 c p3
250.64 499.47 0.43 c p3
250.79 499.36 0.43 c p3
250.94 499.22 0.43 c p3
251.08 499.11 0.43 c p3
251.23 499.22 0.43 c p3
251.37 499.36 0.43 c p3
251.52 500.23 0.43 c p3
251.66 500.37 0.43 c p3
251.81 500.88 0.43 c p3
251.95 501.25 0.43 c p3
252.10 500.63 0.43 c p3
252.25 500.48 0.43 c p3
252.39 501.25 0.43 c p3
252.54 500.88 0.43 c p3
252.68 501.25 0.43 c p3
252.83 500.99 0.43 c p3
252.97 500.99 0.43 c p3
253.12 501.25 0.43 c p3
253.26 501.39 0.43 c p3
253.41 501.13 0.43 c p3
253.56 501.75 0.43 c p3
253.70 502.40 0.43 c p3
253.85 502.91 0.43 c p3
253.99 501.75 0.43 c p3
254.14 502.65 0.43 c p3
254.28 502.26 0.43 c p3
254.43 502.01 0.43 c p3
254.57 501.89 0.43 c p3
254.72 502.01 0.43 c p3
254.87 502.65 0.43 c p3
255.01 502.51 0.43 c p3
255.16 503.02 0.43 c p3
255.30 502.65 0.43 c p3
255.45 503.02 0.43 c p3
255.59 503.53 0.43 c p3
255.74 502.77 0.43 c p3
255.88 503.89 0.43 c p3
256.03 503.27 0.43 c p3
256.18 503.78 0.43 c p3
256.32 503.78 0.43 c p3
256.47 503.78 0.43 c p3
256.61 504.29 0.43 c p3
256.76 503.02 0.43 c p3
256.90 503.13 0.43 c p3
257.05 503.02 0.43 c p3
257.20 504.14 0.43 c p3
257.34 504.40 0.43 c p3
257.49 504.54 0.43 c p3
257.63 504.54 0.43 c p3
257.78 504.29 0.43 c p3
257.92 504.65 0.43 c p3
258.07 504.40 0.43 c p3
258.21 504.54 0.43 c p3
258.36 504.65 0.43 c p3
258.51 504.54 0.43 c p3
258.65 505.05 0.43 c p3
258.80 505.16 0.43 c p3
258.94 504.91 0.43 c p3
259.09 505.05 0.43 c p3
259.23 505.16 0.43 c p3
259.38 505.41 0.43 c p3
259.52 505.16 0.43 c p3
259.67 505.55 0.43 c p3
259.82 505.55 0.43 c p3
259.96 505.05 0.43 c p3
260.11 505.05 0.43 c p3
260.25 504.91 0.43 c p3
260.40 504.91 0.43 c p3
260.54 504.91 0.43 c p3
260.69 505.30 0.43 c p3
260.83 505.92 0.43 c p3
260.98 506.17 0.43 c p3
261.13 506.82 0.43 c p3
261.27 506.93 0.43 c p3
261.42 506.31 0.43 c p3
261.56 506.43 0.43 c p3
261.71 505.81 0.43 c p3
261.85 505.92 0.43 c p3
262.00 505.92 0.43 c p3
262.15 506.93 0.43 c p3
262.29 506.17 0.43 c p3
262.44 505.67 0.43 c p3
262.58 505.41 0.43 c p3
262.73 506.06 0.43 c p3
262.87 506.93 0.43 c p3
263.02 506.06 0.43 c p3
263.16 507.07 0.43 c p3
263.31 506.82 0.43 c p3
263.46 506.82 0.43 c p3
263.60 506.68 0.43 c p3
263.75 506.43 0.43 c p3
263.89 507.07 0.43 c p3
264.04 506.57 0.43 c p3
264.18 506.68 0.43 c p3
264.33 506.68 0.43 c p3
264.47 506.31 0.43 c p3
264.62 506.43 0.43 c p3
264.77 507.19 0.43 c p3
264.91 507.83 0.43 c p3
265.06 507.33 0.43 c p3
265.20 507.33 0.43 c p3
265.35 507.33 0.43 c p3
265.49 507.58 0.43 c p3
265.64 507.33 0.43 c p3
265.78 507.44 0.43 c p3
265.93 507.07 0.43 c p3
266.08 507.07 0.43 c p3
266.22 507.44 0.43 c p3
266.37 507.07 0.43 c p3
266.51 507.58 0.43 c p3
266.66 506.93 0.43 c p3
266.80 507.58 0.43 c p3
266.95 508.09 0.43 c p3
267.10 508.96 0.43 c p3
267.24 509.58 0.43 c p3
267.39 508.45 0.43 c p3
267.53 507.83 0.43 c p3
267.68 507.58 0.43 c p3
267.82 508.09 0.43 c p3
267.97 507.83 0.43 c p3
268.11 507.69 0.43 c p3
268.26 508.34 0.43 c p3
268.41 507.69 0.43 c p3
268.55 507.95 0.43 c p3
268.70 508.09 0.43 c p3
268.84 508.09 0.43 c p3
268.99 508.34 0.43 c p3
269.13 508.09 0.43 c p3
269.28 508.34 0.43 c p3
269.42 509.07 0.43 c p3
269.57 508.71 0.43 c p3
269.72 508.34 0.43 c p3
269.86 508.45 0.43 c p3
270.01 507.69 0.43 c p3
270.15 508.34 0.43 c p3
270.30 508.20 0.43 c p3
270.44 508.71 0.43 c p3
270.59 508.45 0.43 c p3
270.73 508.45 0.43 c p3
270.88 509.33 0.43 c p3
271.03 509.07 0.43 c p3
271.17 509.07 0.43 c p3
271.32 508.09 0.43 c p3
271.46 508.82 0.43 c p3
271.61 508.96 0.43 c p3
271.75 508.20 0.43 c p3
271.90 509.33 0.43 c p3
272.05 508.82 0.43 c p3
272.19 507.83 0.43 c p3
272.34 508.34 0.43 c p3
272.48 508.71 0.43 c p3
272.63 508.34 0.43 c p3
272.77 509.72 0.43 c p3
272.92 509.47 0.43 c p3
273.06 509.83 0.43 c p3
273.21 509.47 0.43 c p3
273.36 509.21 0.43 c p3
273.50 508.45 0.43 c p3
273.65 509.21 0.43 c p3
273.79 509.21 0.43 c p3
273.94 509.21 0.43 c p3
274.08 508.96 0.43 c p3
274.23 508.82 0.43 c p3
274.37 508.82 0.43 c p3
274.52 508.45 0.43 c p3
274.67 508.34 0.43 c p3
274.81 509.21 0.43 c p3
274.96 508.96 0.43 c p3
275.10 509.83 0.43 c p3
275.25 509.47 0.43 c p3
275.39 509.83 0.43 c p3
275.54 509.58 0.43 c p3
275.68 509.21 0.43 c p3
275.83 509.07 0.43 c p3
275.98 509.21 0.43 c p3
276.12 509.07 0.43 c p3
276.27 509.47 0.43 c p3
276.41 510.23 0.43 c p3
276.56 508.71 0.43 c p3
276.70 509.83 0.43 c p3
276.85 509.83 0.43 c p3
277.00 509.33 0.43 c p3
277.14 509.47 0.43 c p3
277.29 510.23 0.43 c p3
277.43 510.09 0.43 c p3
277.58 509.58 0.43 c p3
277.72 509.21 0.43 c p3
277.87 509.21 0.43 c p3
278.01 509.58 0.43 c p3
278.16 509.07 0.43 c p3
278.31 509.21 0.43 c p3
278.45 509.72 0.43 c p3
278.60 509.83 0.43 c p3
278.74 510.34 0.43 c p3
278.89 510.23 0.43 c p3
279.03 510.59 0.43 c p3
279.18 509.58 0.43 c p3
279.32 510.34 0.43 c p3
279.47 509.97 0.43 c p3
279.62 509.33 0.43 c p3
279.76 510.09 0.43 c p3
279.91 509.21 0.43 c p3
280.05 509.58 0.43 c p3
280.20 509.72 0.43 c p3
280.34 509.58 0.43 c p3
280.49 509.21 0.43 c p3
280.63 509.21 0.43 c p3
280.78 509.83 0.43 c p3
280.93 509.97 0.43 c p3
281.07 510.34 0.43 c p3
281.22 509.83 0.43 c p3
281.36 510.23 0.43 c p3
281.51 509.58 0.43 c p3
281.65 510.09 0.43 c p3
281.80 509.97 0.43 c p3
281.95 509.07 0.43 c p3
282.09 509.83 0.43 c p3
282.24 509.21 0.43 c p3
282.38 509.47 0.43 c p3
282.53 510.09 0.43 c p3
282.67 510.48 0.43 c p3
282.82 509.83 0.43 c p3
282.96 509.58 0.43 c p3
283.11 509.58 0.43 c p3
283.26 509.21 0.43 c p3
283.40 509.83 0.43 c p3
283.55 509.47 0.43 c p3
283.69 509.83 0.43 c p3
283.84 509.33 0.43 c p3
283.98 509.33 0.43 c p3
284.13 509.33 0.43 c p3
284.27 509.72 0.43 c p3
284.42 510.34 0.43 c p3
284.57 510.73 0.43 c p3
284.71 510.09 0.43 c p3
284.86 510.48 0.43 c p3
285.00 510.23 0.43 c p3
285.15 509.83 0.43 c p3
285.29 509.83 0.43 c p3
285.44 509.97 0.43 c p3
285.58 510.09 0.43 c p3
285.73 509.33 0.43 c p3
285.88 509.21 0.43 c p3
286.02 509.72 0.43 c p3
286.17 509.97 0.43 c p3
286.31 509.07 0.43 c p3
286.46 510.09 0.43 c p3
286.60 510.23 0.43 c p3
286.75 510.34 0.43 c p3
286.89 510.23 0.43 c p3
287.04 510.09 0.43 c p3
287.19 510.09 0.43 c p3
287.33 510.23 0.43 c p3
287.48 510.34 0.43 c p3
287.62 510.09 0.43 c p3
287.77 510.23 0.43 c p3
287.91 509.97 0.43 c p3
288.06 510.09 0.43 c p3
288.21 510.59 0.43 c p3
288.35 510.34 0.43 c p3
288.50 509.83 0.43 c p3
288.64 510.34 0.43 c p3
288.79 509.83 0.43 c p3
288.93 509.83 0.43 c p3
289.08 509.97 0.43 c p3
289.22 510.48 0.43 c p3
289.37 509.83 0.43 c p3
289.52 510.09 0.43 c p3
289.66 510.09 0.43 c p3
289.81 510.23 0.43 c p3
289.95 509.97 0.43 c p3
290.10 510.09 0.43 c p3
290.24 510.59 0.43 c p3
290.39 511.24 0.43 c p3
290.53 510.73 0.43 c p3
290.68 510.48 0.43 c p3
290.83 510.48 0.43 c p3
290.97 510.73 0.43 c p3
291.12 509.72 0.43 c p3
291.26 510.09 0.43 c p3
291.41 510.09 0.43 c p3
291.55 509.83 0.43 c p3
291.70 509.47 0.43 c p3
291.84 509.97 0.43 c p3
291.99 509.83 0.43 c p3
292.14 510.59 0.43 c p3
292.28 510.34 0.43 c p3
292.43 510.73 0.43 c p3
292.57 509.83 0.43 c p3
292.72 509.97 0.43 c p3
292.86 510.09 0.43 c p3
293.01 510.48 0.43 c p3
293.16 510.34 0.43 c p3
293.30 510.09 0.43 c p3
293.45 510.34 0.43 c p3
293.59 510.23 0.43 c p3
293.74 509.83 0.43 c p3
293.88 510.59 0.43 c p3
294.03 510.09 0.43 c p3
294.17 510.34 0.43 c p3
294.32 510.73 0.43 c p3
294.47 510.73 0.43 c p3
294.61 510.73 0.43 c p3
294.76 510.34 0.43 c p3
294.90 509.97 0.43 c p3
295.05 510.09 0.43 c p3
295.19 509.58 0.43 c p3
295.34 509.33 0.43 c p3
295.48 509.47 0.43 c p3
295.63 510.09 0.43 c p3
295.78 510.48 0.43 c p3
295.92 510.34 0.43 c p3
296.07 510.73 0.43 c p3
296.21 510.59 0.43 c p3
296.36 510.48 0.43 c p3
296.50 510.09 0.43 c p3
296.65 510.48 0.43 c p3
296.79 510.48 0.43 c p3
296.94 510.48 0.43 c p3
297.09 509.72 0.43 c p3
297.23 510.09 0.43 c p3
297.38 509.33 0.43 c p3
297.52 509.83 0.43 c p3
297.67 509.97 0.43 c p3
297.81 510.48 0.43 c p3
297.96 510.73 0.43 c p3
298.11 510.34 0.43 c p3
298.25 510.09 0.43 c p3
298.40 510.48 0.43 c p3
298.54 510.23 0.43 c p3
298.69 510.34 0.43 c p3
298.83 510.09 0.43 c p3
298.98 509.97 0.43 c p3
299.12 509.72 0.43 c p3
299.27 510.59 0.43 c p3
299.42 510.23 0.43 c p3
299.56 510.34 0.43 c p3
299.71 510.48 0.43 c p3
299.85 510.48 0.43 c p3
300.00 510.73 0.43 c p3
300.14 509.97 0.43 c p3
300.29 510.34 0.43 c p3
300.43 510.23 0.43 c p3
300.58 510.48 0.43 c p3
300.73 509.58 0.43 c p3
300.87 510.23 0.43 c p3
301.02 510.23 0.43 c p3
301.16 509.72 0.43 c p3
301.31 509.47 0.43 c p3
301.45 509.97 0.43 c p3
301.60 510.48 0.43 c p3
301.74 510.99 0.43 c p3
301.89 510.85 0.43 c p3
302.04 510.59 0.43 c p3
302.18 510.48 0.43 c p3
302.33 510.48 0.43 c p3
302.47 510.09 0.43 c p3
302.62 510.48 0.43 c p3
302.76 509.58 0.43 c p3
302.91 509.83 0.43 c p3
303.06 509.72 0.43 c p3
303.20 510.23 0.43 c p3
303.35 510.48 0.43 c p3
303.49 510.59 0.43 c p3
303.64 509.83 0.43 c p3
303.78 510.34 0.43 c p3
303.93 510.09 0.43 c p3
304.07 510.73 0.43 c p3
304.22 510.85 0.43 c p3
304.37 510.59 0.43 c p3
304.51 510.09 0.43 c p3
304.66 510.09 0.43 c p3
304.80 510.73 0.43 c p3
304.95 510.48 0.43 c p3
305.09 509.58 0.43 c p3
305.24 510.23 0.43 c p3
305.38 510.23 0.43 c p3
305.53 510.23 0.43 c p3
305.68 510.34 0.43 c p3
305.82 510.73 0.43 c p3
305.97 510.73 0.43 c p3
306.11 510.73 0.43 c p3
306.26 510.48 0.43 c p3
306.40 510.59 0.43 c p3
306.55 510.34 0.43 c p3
306.69 510.48 0.43 c p3
306.84 509.83 0.43 c p3
306.99 510.09 0.43 c p3
307.13 509.83 0.43 c p3
307.28 510.23 0.43 c p3
307.42 510.23 0.43 c p3
307.57 510.48 0.43 c p3
307.71 510.73 0.43 c p3
307.86 510.34 0.43 c p3
308.01 511.10 0.43 c p3
308.15 510.99 0.43 c p3
308.30 510.09 0.43 c p3
308.44 509.97 0.43 c p3
308.59 510.34 0.43 c p3
308.73 510.09 0.43 c p3
308.88 510.23 0.43 c p3
309.02 509.83 0.43 c p3
309.17 509.97 0.43 c p3
309.32 509.83 0.43 c p3
309.46 510.23 0.43 c p3
309.61 509.58 0.43 c p3
309.75 510.09 0.43 c p3
309.90 510.85 0.43 c p3
310.04 510.23 0.43 c p3
310.19 510.73 0.43 c p3
310.33 510.85 0.43 c p3
310.48 510.23 0.43 c p3
310.63 510.34 0.43 c p3
310.77 509.97 0.43 c p3
310.92 510.48 0.43 c p3
311.06 509.97 0.43 c p3
311.21 509.97 0.43 c p3
311.35 510.48 0.43 c p3
311.50 510.23 0.43 c p3
311.64 509.97 0.43 c p3
311.79 510.48 0.43 c p3
311.94 510.59 0.43 c p3
312.08 510.09 0.43 c p3
312.23 510.09 0.43 c p3
312.37 510.23 0.43 c p3
312.52 510.09 0.43 c p3
312.66 510.09 0.43 c p3
312.81 509.97 0.43 c p3
312.96 509.97 0.43 c p3
313.10 509.72 0.43 c p3
313.25 509.72 0.43 c p3
313.39 509.97 0.43 c p3
313.54 509.83 0.43 c p3
313.68 510.59 0.43 c p3
313.83 510.48 0.43 c p3
313.97 510.85 0.43 c p3
314.12 510.99 0.43 c p3
314.27 509.97 0.43 c p3
314.41 509.83 0.43 c p3
314.56 510.34 0.43 c p3
314.70 509.83 0.43 c p3
314.85 509.97 0.43 c p3
314.99 509.97 0.43 c p3
315.14 509.58 0.43 c p3
315.28 509.72 0.43 c p3
315.43 510.23 0.43 c p3
315.58 509.97 0.43 c p3
315.72 510.73 0.43 c p3
315.87 509.97 0.43 c p3
316.01 510.34 0.43 c p3
316.16 510.34 0.43 c p3
316.30 510.09 0.43 c p3
316.45 509.72 0.43 c p3
316.59 510.73 0.43 c p3
316.74 510.34 0.43 c p3
316.89 510.09 0.43 c p3
317.03 509.97 0.43 c p3
317.18 509.72 0.43 c p3
317.32 509.83 0.43 c p3
317.47 510.23 0.43 c p3
317.61 510.48 0.43 c p3
317.76 510.85 0.43 c p3
317.91 510.59 0.43 c p3
318.05 509.97 0.43 c p3
318.20 510.48 0.43 c p3
318.34 510.09 0.43 c p3
318.49 509.83 0.43 c p3
318.63 510.34 0.43 c p3
318.78 509.97 0.43 c p3
318.92 509.72 0.43 c p3
319.07 509.72 0.43 c p3
319.22 509.83 0.43 c p3
319.36 509.72 0.43 c p3
319.51 510.09 0.43 c p3
319.65 510.34 0.43 c p3
319.80 510.73 0.43 c p3
319.94 510.73 0.43 c p3
320.09 510.09 0.43 c p3
320.23 510.34 0.43 c p3
320.38 510.09 0.43 c p3
320.53 509.83 0.43 c p3
320.67 509.83 0.43 c p3
320.82 509.72 0.43 c p3
320.96 509.72 0.43 c p3
321.11 509.58 0.43 c p3
321.25 509.33 0.43 c p3
321.40 510.48 0.43 c p3
321.54 510.09 0.43 c p3
321.69 510.73 0.43 c p3
321.84 510.73 0.43 c p3
321.98 510.85 0.43 c p3
322.13 509.97 0.43 c p3
322.27 509.97 0.43 c p3
322.42 510.09 0.43 c p3
322.56 510.09 0.43 c p3
322.71 509.97 0.43 c p3
322.85 510.09 0.43 c p3
323.00 510.09 0.43 c p3
323.15 510.09 0.43 c p3
323.29 510.48 0.43 c p3
323.44 509.97 0.43 c p3
323.58 510.59 0.43 c p3
323.73 510.34 0.43 c p3
323.87 510.34 0.43 c p3
324.02 509.58 0.43 c p3
324.17 509.72 0.43 c p3
324.31 510.48 0.43 c p3
324.46 510.09 0.43 c p3
324.60 509.47 0.43 c p3
324.75 509.72 0.43 c p3
324.89 509.83 0.43 c p3
325.04 510.23 0.43 c p3
325.18 510.48 0.43 c p3
325.33 510.59 0.43 c p3
325.48 510.48 0.43 c p3
325.62 510.34 0.43 c p3
325.77 510.48 0.43 c p3
325.91 510.48 0.43 c p3
326.06 510.34 0.43 c p3
326.20 510.34 0.43 c p3
326.35 510.23 0.43 c p3
326.49 510.09 0.43 c p3
326.64 509.21 0.43 c p3
326.79 509.97 0.43 c p3
326.93 510.23 0.43 c p3
327.08 509.97 0.43 c p3
327.22 510.48 0.43 c p3
327.37 510.85 0.43 c p3
327.51 510.85 0.43 c p3
327.66 510.34 0.43 c p3
327.80 510.48 0.43 c p3
327.95 510.34 0.43 c p3
328.10 510.34 0.43 c p3
328.24 510.48 0.43 c p3
328.39 510.09 0.43 c p3
328.53 510.48 0.43 c p3
328.68 510.34 0.43 c p3
328.82 510.09 0.43 c p3
328.97 510.34 0.43 c p3
329.12 510.73 0.43 c p3
329.26 509.97 0.43 c p3
329.41 510.59 0.43 c p3
329.55 510.59 0.43 c p3
329.70 510.34 0.43 c p3
329.84 509.83 0.43 c p3
329.99 510.59 0.43 c p3
330.13 509.72 0.43 c p3
330.28 509.72 0.43 c p3
330.43 510.23 0.43 c p3
330.57 509.58 0.43 c p3
330.72 509.72 0.43 c p3
330.86 510.48 0.43 c p3
331.01 510.59 0.43 c p3
331.15 510.34 0.43 c p3
331.30 510.48 0.43 c p3
331.44 510.73 0.43 c p3
331.59 509.97 0.43 c p3
331.74 510.34 0.43 c p3
331.88 509.97 0.43 c p3
332.03 509.72 0.43 c p3
332.17 509.47 0.43 c p3
332.32 509.72 0.43 c p3
332.46 509.83 0.43 c p3
332.61 510.23 0.43 c p3
332.75 509.97 0.43 c p3
332.90 510.23 0.43 c p3
333.05 509.83 0.43 c p3
333.19 510.59 0.43 c p3
333.34 510.23 0.43 c p3
333.48 510.48 0.43 c p3
333.63 509.97 0.43 c p3
333.77 510.34 0.43 c p3
333.92 510.09 0.43 c p3
334.07 509.47 0.43 c p3
334.21 509.72 0.43 c p3
334.36 509.97 0.43 c p3
334.50 510.23 0.43 c p3
334.65 510.73 0.43 c p3
334.79 510.85 0.43 c p3
334.94 510.34 0.43 c p3
335.08 510.23 0.43 c p3
335.23 510.09 0.43 c p3
335.38 509.97 0.43 c p3
335.52 510.59 0.43 c p3
335.67 509.47 0.43 c p3
335.81 510.23 0.43 c p3
335.96 510.23 0.43 c p3
336.10 509.83 0.43 c p3
336.25 509.58 0.43 c p3
336.39 509.97 0.43 c p3
336.54 509.72 0.43 c p3
336.69 510.09 0.43 c p3
336.83 510.73 0.43 c p3
336.98 510.34 0.43 c p3
337.12 510.48 0.43 c p3
337.27 510.59 0.43 c p3
337.41 510.09 0.43 c p3
337.56 510.48 0.43 c p3
337.70 509.72 0.43 c p3
337.85 509.72 0.43 c p3
338.00 509.83 0.43 c p3
338.14 509.97 0.43 c p3
338.29 509.97 0.43 c p3
338.43 510.09 0.43 c p3
338.58 510.34 0.43 c p3
338.72 510.48 0.43 c p3
338.87 509.47 0.43 c p3
339.02 510.48 0.43 c p3
339.16 510.09 0.43 c p3
339.31 510.48 0.43 c p3
339.45 510.23 0.43 c p3
339.60 510.34 0.43 c p3
339.74 509.72 0.43 c p3
339.89 509.72 0.43 c p3
340.03 509.97 0.43 c p3
340.18 509.72 0.43 c p3
340.33 510.73 0.43 c p3
340.47 510.34 0.43 c p3
340.62 510.99 0.43 c p3
340.76 510.34 0.43 c p3
340.91 510.23 0.43 c p3
341.05 509.58 0.43 c p3
341.20 510.23 0.43 c p3
341.34 510.09 0.43 c p3
341.49 509.58 0.43 c p3
341.64 509.83 0.43 c p3
341.78 509.58 0.43 c p3
341.93 509.97 0.43 c p3
342.07 509.97 0.43 c p3
342.22 510.23 0.43 c p3
342.36 509.83 0.43 c p3
342.51 509.83 0.43 c p3
342.65 510.48 0.43 c p3
342.80 510.73 0.43 c p3
342.95 510.34 0.43 c p3
343.09 510.23 0.43 c p3
343.24 509.97 0.43 c p3
343.38 510.09 0.43 c p3
343.53 509.83 0.43 c p3
343.67 509.97 0.43 c p3
343.82 509.47 0.43 c p3
343.97 509.83 0.43 c p3
344.11 509.47 0.43 c p3
344.26 509.97 0.43 c p3
344.40 509.72 0.43 c p3
344.55 510.34 0.43 c p3
344.69 510.23 0.43 c p3
344.84 509.72 0.43 c p3
344.98 509.97 0.43 c p3
345.13 510.34 0.43 c p3
345.28 509.47 0.43 c p3
345.42 509.83 0.43 c p3
345.57 509.97 0.43 c p3
345.71 510.34 0.43 c p3
345.86 509.97 0.43 c p3
346.00 509.83 0.43 c p3
346.15 509.58 0.43 c p3
346.29 509.58 0.43 c p3
346.44 510.09 0.43 c p3
346.59 510.73 0.43 c p3
346.73 510.09 0.43 c p3
346.88 510.34 0.43 c p3
347.02 510.09 0.43 c p3
347.17 510.09 0.43 c p3
347.31 509.97 0.43 c p3
347.46 509.83 0.43 c p3
347.60 509.97 0.43 c p3
347.75 509.83 0.43 c p3
347.90 509.47 0.43 c p3
348.04 509.58 0.43 c p3
348.19 509.97 0.43 c p3
348.33 509.83 0.43 c p3
348.48 510.23 0.43 c p3
348.62 510.73 0.43 c p3
348.77 510.48 0.43 c p3
348.92 510.59 0.43 c p3
349.06 510.23 0.43 c p3
349.21 510.23 0.43 c p3
349.35 510.59 0.43 c p3
349.50 509.97 0.43 c p3
349.64 509.33 0.43 c p3
349.79 509.72 0.43 c p3
349.93 509.83 0.43 c p3
350.08 509.47 0.43 c p3
350.23 509.58 0.43 c p3
350.37 509.58 0.43 c p3
350.52 510.23 0.43 c p3
350.66 509.72 0.43 c p3
350.81 509.72 0.43 c p3
350.95 509.72 0.43 c p3
351.10 510.34 0.43 c p3
351.24 510.09 0.43 c p3
351.39 510.09 0.43 c p3
351.54 510.09 0.43 c p3
351.68 509.83 0.43 c p3
351.83 509.33 0.43 c p3
351.97 510.23 0.43 c p3
352.12 509.97 0.43 c p3
352.26 509.33 0.43 c p3
352.41 510.23 0.43 c p3
352.55 510.59 0.43 c p3
352.70 510.48 0.43 c p3
352.85 510.34 0.43 c p3
352.99 509.97 0.43 c p3
353.14 510.23 0.43 c p3
353.28 509.83 0.43 c p3
353.43 509.07 0.43 c p3
353.57 509.83 0.43 c p3
353.72 509.83 0.43 c p3
353.86 509.33 0.43 c p3
354.01 509.83 0.43 c p3
354.16 509.83 0.43 c p3
354.30 510.59 0.43 c p3
354.45 510.09 0.43 c p3
354.59 510.59 0.43 c p3
354.74 510.85 0.43 c p3
354.88 509.72 0.43 c p3
355.03 510.34 0.43 c p3
355.18 509.97 0.43 c p3
355.32 510.23 0.43 c p3
355.47 509.97 0.43 c p3
355.61 509.33 0.43 c p3
355.76 509.72 0.43 c p3
355.90 509.58 0.43 c p3
356.05 509.72 0.43 c p3
356.19 509.83 0.43 c p3
356.34 510.59 0.43 c p3
356.49 510.34 0.43 c p3
356.63 510.23 0.43 c p3
356.78 510.23 0.43 c p3
356.92 510.48 0.43 c p3
357.07 510.48 0.43 c p3
357.21 509.58 0.43 c p3
357.36 510.23 0.43 c p3
357.50 509.58 0.43 c p3
357.65 509.97 0.43 c p3
357.80 509.72 0.43 c p3
357.94 510.23 0.43 c p3
358.09 509.58 0.43 c p3
358.23 510.59 0.43 c p3
358.38 510.09 0.43 c p3
358.52 509.83 0.43 c p3
358.67 510.23 0.43 c p3
358.81 509.83 0.43 c p3
358.96 509.72 0.43 c p3
359.11 509.83 0.43 c p3
359.25 509.83 0.43 c p3
359.40 510.34 0.43 c p3
359.54 509.58 0.43 c p3
359.69 509.33 0.43 c p3
359.83 509.58 0.43 c p3
359.98 509.47 0.43 c p3
360.13 510.09 0.43 c p3
360.27 509.97 0.43 c p3
360.42 510.73 0.43 c p3
360.56 510.48 0.43 c p3
360.71 510.34 0.43 c p3
360.85 509.97 0.43 c p3
361.00 509.58 0.43 c p3
361.14 510.34 0.43 c p3
361.29 509.97 0.43 c p3
361.44 509.97 0.43 c p3
361.58 509.83 0.43 c p3
361.73 509.33 0.43 c p3
361.87 509.58 0.43 c p3
362.02 509.21 0.43 c p3
362.16 509.97 0.43 c p3
362.31 510.09 0.43 c p3
362.45 510.09 0.43 c p3
362.60 510.34 0.43 c p3
362.75 510.23 0.43 c p3
362.89 509.83 0.43 c p3
363.04 509.58 0.43 c p3
363.18 509.97 0.43 c p3
363.33 509.83 0.43 c p3
363.47 509.72 0.43 c p3
363.62 509.58 0.43 c p3
363.76 510.48 0.43 c p3
363.91 509.83 0.43 c p3
364.06 510.23 0.43 c p3
364.20 509.72 0.43 c p3
364.35 510.73 0.43 c p3
364.49 510.85 0.43 c p3
364.64 509.83 0.43 c p3
364.78 509.58 0.43 c p3
364.93 509.83 0.43 c p3
365.08 509.97 0.43 c p3
365.22 509.58 0.43 c p3
365.37 509.33 0.43 c p3
365.51 509.33 0.43 c p3
365.66 509.58 0.43 c p3
365.80 509.47 0.43 c p3
365.95 509.72 0.43 c p3
366.09 510.48 0.43 c p3
366.24 510.34 0.43 c p3
366.39 510.23 0.43 c p3
366.53 509.58 0.43 c p3
366.68 510.59 0.43 c p3
366.82 509.72 0.43 c p3
366.97 509.72 0.43 c p3
367.11 509.97 0.43 c p3
367.26 509.33 0.43 c p3
367.40 509.97 0.43 c p3
367.55 509.33 0.43 c p3
367.70 509.58 0.43 c p3
367.84 509.47 0.43 c p3
367.99 509.47 0.43 c p3
368.13 510.23 0.43 c p3
368.28 510.59 0.43 c p3
368.42 510.09 0.43 c p3
368.57 510.23 0.43 c p3
368.71 510.73 0.43 c p3
368.86 509.83 0.43 c p3
369.01 510.34 0.43 c p3
369.15 508.96 0.43 c p3
369.30 509.72 0.43 c p3
369.44 509.97 0.43 c p3
369.59 509.97 0.43 c p3
369.73 509.83 0.43 c p3
369.88 510.59 0.43 c p3
370.03 510.23 0.43 c p3
370.17 510.73 0.43 c p3
370.32 510.34 0.43 c p3
370.46 510.59 0.43 c p3
370.61 510.09 0.43 c p3
370.75 509.47 0.43 c p3
370.90 510.23 0.43 c p3
371.04 509.72 0.43 c p3
371.19 509.33 0.43 c p3
371.34 509.07 0.43 c p3
371.48 509.47 0.43 c p3
371.63 509.47 0.43 c p3
371.77 510.09 0.43 c p3
371.92 510.09 0.43 c p3
372.06 509.72 0.43 c p3
372.21 510.59 0.43 c p3
372.35 509.97 0.43 c p3
372.50 510.48 0.43 c p3
372.65 510.23 0.43 c p3
372.79 509.97 0.43 c p3
372.94 510.09 0.43 c p3
373.08 509.58 0.43 c p3
373.23 509.21 0.43 c p3
373.37 509.58 0.43 c p3
373.52 509.83 0.43 c p3
373.66 509.97 0.43 c p3
373.81 510.23 0.43 c p3
373.96 509.97 0.43 c p3
374.10 510.23 0.43 c p3
374.25 510.09 0.43 c p3
374.39 509.97 0.43 c p3
374.54 509.83 0.43 c p3
374.68 510.48 0.43 c p3
374.83 510.34 0.43 c p3
374.98 509.33 0.43 c p3
375.12 509.72 0.43 c p3
375.27 509.58 0.43 c p3
375.41 509.58 0.43 c p3
375.56 510.23 0.43 c p3
375.70 510.23 0.43 c p3
375.85 509.97 0.43 c p3
375.99 509.83 0.43 c p3
376.14 509.72 0.43 c p3
376.29 509.97 0.43 c p3
376.43 509.83 0.43 c p3
376.58 509.72 0.43 c p3
376.72 510.09 0.43 c p3
376.87 509.58 0.43 c p3
377.01 509.58 0.43 c p3
377.16 509.83 0.43 c p3
377.30 509.47 0.43 c p3
377.45 510.23 0.43 c p3
377.60 510.09 0.43 c p3
377.74 510.23 0.43 c p3
377.89 510.34 0.43 c p3
378.03 510.23 0.43 c p3
378.18 510.09 0.43 c p3
378.32 509.97 0.43 c p3
378.47 509.72 0.43 c p3
378.61 509.72 0.43 c p3
378.76 509.47 0.43 c p3
378.91 509.33 0.43 c p3
379.05 509.97 0.43 c p3
379.20 509.47 0.43 c p3
379.34 510.09 0.43 c p3
379.49 510.09 0.43 c p3
379.63 509.83 0.43 c p3
379.78 510.34 0.43 c p3
379.93 509.58 0.43 c p3
380.07 509.97 0.43 c p3
380.22 509.83 0.43 c p3
380.36 509.21 0.43 c p3
380.51 509.58 0.43 c p3
380.65 510.09 0.43 c p3
380.80 509.97 0.43 c p3
380.94 509.21 0.43 c p3
381.09 509.72 0.43 c p3
381.24 509.83 0.43 c p3
381.38 509.72 0.43 c p3
381.53 511.10 0.43 c p3
381.67 510.48 0.43 c p3
381.82 510.34 0.43 c p3
381.96 509.21 0.43 c p3
382.11 509.97 0.43 c p3
382.25 509.72 0.43 c p3
382.40 509.21 0.43 c p3
0.00 0.00 432.00 576.00 cl
0 0 0 srgb
0.75 setlinewidth
[] 0 setdash
1 setlinecap
1 setlinejoin
10.00 setmiterlimit
np
236.96 345.60 m
145.59 0 l
o
np
236.96 345.60 m
0 -5.76 l
o
np
266.08 345.60 m
0 -5.76 l
o
np
295.19 345.60 m
0 -5.76 l
o
np
324.31 345.60 m
0 -5.76 l
o
np
353.43 345.60 m
0 -5.76 l
o
np
382.55 345.60 m
0 -5.76 l
o
/Font1 findfont 10 s
236.96 329.47 (0) .5 0 t
266.08 329.47 (200) .5 0 t
295.19 329.47 (400) .5 0 t
324.31 329.47 (600) .5 0 t
353.43 329.47 (800) .5 0 t
382.55 329.47 (1000) .5 0 t
np
216.00 352.00 m
0 161.44 l
o
np
216.00 352.00 m
-5.76 0 l
o
np
216.00 375.06 m
-5.76 0 l
o
np
216.00 398.13 m
-5.76 0 l
o
np
216.00 421.19 m
-5.76 0 l
o
np
216.00 444.25 m
-5.76 0 l
o
np
216.00 467.32 m
-5.76 0 l
o
np
216.00 490.38 m
-5.76 0 l
o
np
216.00 513.44 m
-5.76 0 l
o
209.09 348.41 (0.0) 1 0 t
209.09 371.47 (0.2) 1 0 t
209.09 394.54 (0.4) 1 0 t
209.09 417.60 (0.6) 1 0 t
209.09 440.66 (0.8) 1 0 t
209.09 463.73 (1.0) 1 0 t
209.09 486.79 (1.2) 1 0 t
209.09 509.85 (1.4) 1 0 t
np
216.00 345.60 m
172.80 0 l
0 172.80 l
-172.80 0 l
0 -172.80 l
o
0.00 0.00 432.00 576.00 cl
/Font1 findfont 10 s
0 0 0 srgb
302.40 313.34 (Zeit / ms \(total\)) .5 0 t
190.66 432.00 (U / V) .5 90 t
216.00 345.60 388.80 518.40 cl
0 0 0 srgb
0.38 setlinewidth
[ 1.12 1.88] 0 setdash
1 setlinecap
1 setlinejoin
10.00 setmiterlimit
np
223.42 345.60 m
0 172.80 l
o
np
235.07 345.60 m
0 172.80 l
o
np
239.43 345.60 m
0 172.80 l
o
np
288.06 345.60 m
0 172.80 l
o
86.40 57.60 388.80 288.00 cl
1 0 0 srgb
1.50 setlinewidth
[] 0 setdash
1 setlinecap
1 setlinejoin
10.00 setmiterlimit
np
97.60 279.47 m
1.41 -11.67 l
1.40 -11.01 l
1.41 -10.41 l
1.41 -9.84 l
1.41 -9.29 l
1.40 -8.78 l
1.41 -8.29 l
1.41 -7.84 l
1.40 -7.40 l
1.41 -7.00 l
1.41 -6.61 l
1.40 -6.24 l
1.41 -5.90 l
1.41 -5.57 l
1.41 -5.26 l
1.40 -4.98 l
1.41 -4.70 l
1.41 -4.44 l
1.40 -4.19 l
1.41 -3.97 l
1.41 -3.74 l
1.40 -3.54 l
1.41 -3.34 l
1.41 -3.16 l
1.41 -2.98 l
1.40 -2.82 l
1.41 -2.66 l
1.41 -2.52 l
1.40 -2.38 l
1.41 -2.24 l
1.41 -2.12 l
1.41 -2.01 l
1.40 -1.89 l
1.41 -1.79 l
1.41 -1.69 l
1.40 -1.60 l
1.41 -1.51 l
1.41 -1.42 l
1.40 -1.35 l
1.41 -1.27 l
1.41 -1.20 l
1.41 -1.14 l
1.40 -1.07 l
1.41 -1.02 l
1.41 -0.95 l
1.40 -0.91 l
1.41 -0.85 l
1.41 -0.81 l
1.40 -0.76 l
1.41 -0.72 l
1.41 -0.69 l
1.41 -0.64 l
1.40 -0.61 l
1.41 -0.57 l
1.41 -0.54 l
1.40 -0.52 l
1.41 -0.48 l
1.41 -0.46 l
1.41 -0.43 l
1.40 -0.41 l
1.41 -0.39 l
1.41 -0.36 l
1.40 -0.35 l
1.41 -0.32 l
1.41 -0.31 l
1.40 -0.29 l
1.41 -0.27 l
1.41 -0.26 l
1.41 -0.25 l
1.40 -0.23 l
1.41 -0.22 l
1.41 -0.20 l
1.40 -0.20 l
1.41 -0.18 l
1.41 -0.18 l
1.40 -0.16 l
1.41 -0.16 l
1.41 -0.15 l
1.41 -0.13 l
1.40 -0.14 l
1.41 -0.12 l
1.41 -0.12 l
1.40 -0.11 l
1.41 -0.10 l
1.41 -0.10 l
1.41 -0.09 l
1.40 -0.09 l
1.41 -0.08 l
1.41 -0.08 l
1.40 -0.08 l
1.41 -0.07 l
1.41 -0.06 l
1.40 -0.07 l
1.41 -0.06 l
1.41 -0.05 l
1.41 -0.05 l
1.40 -0.05 l
1.41 -0.05 l
1.41 -0.05 l
238.30 69.00 lineto
1.41 -0.04 l
1.41 -0.04 l
1.40 -0.03 l
1.41 -0.03 l
1.41 -0.04 l
1.41 -0.03 l
1.40 -0.02 l
1.41 -0.03 l
1.41 -0.03 l
1.40 -0.02 l
1.41 -0.02 l
1.41 -0.02 l
1.40 -0.02 l
1.41 -0.02 l
1.41 -0.02 l
1.41 -0.02 l
1.40 -0.01 l
1.41 -0.02 l
1.41 -0.01 l
1.40 -0.02 l
1.41 -0.01 l
1.41 -0.01 l
1.41 -0.01 l
1.40 -0.01 l
1.41 -0.01 l
1.41 -0.01 l
1.40 -0.01 l
1.41 -0.01 l
1.41 -0.01 l
1.40 -0.01 l
1.41 -0.01 l
1.41 0 l
1.41 -0.01 l
1.40 0 l
1.41 -0.01 l
1.41 -0.01 l
1.40 0 l
1.41 -0.01 l
1.41 0 l
1.40 0 l
1.41 -0.01 l
1.41 0 l
1.41 -0.01 l
1.40 0 l
1.41 0 l
1.41 -0.01 l
1.40 0 l
1.41 0 l
1.41 0 l
1.41 -0.01 l
1.40 0 l
1.41 0 l
1.41 0 l
1.40 -0.01 l
1.41 0 l
1.41 0 l
1.40 0 l
1.41 0 l
1.41 0 l
1.41 -0.01 l
1.40 0 l
1.41 0 l
1.41 0 l
1.40 0 l
1.41 0 l
1.41 0 l
1.40 0 l
1.41 0 l
1.41 0 l
1.41 -0.01 l
1.40 0 l
1.41 0 l
1.41 0 l
1.40 0 l
1.41 0 l
1.41 0 l
1.41 0 l
1.40 0 l
1.41 0 l
1.41 0 l
1.40 0 l
1.41 0 l
1.41 0 l
1.40 0 l
1.41 0 l
1.41 0 l
1.41 0 l
1.40 0 l
1.41 0 l
1.41 0 l
1.40 0 l
1.41 0 l
1.41 -0.01 l
1.40 0 l
1.41 0 l
1.41 0 l
1.41 0 l
1.40 0 l
1.41 0 l
o
0.00 0.00 432.00 576.00 cl
0 0 0 srgb
0.75 setlinewidth
[] 0 setdash
1 setlinecap
1 setlinejoin
10.00 setmiterlimit
np
97.60 57.60 m
280.00 0 l
o
np
97.60 57.60 m
0 -5.76 l
o
np
153.60 57.60 m
0 -5.76 l
o
np
209.60 57.60 m
0 -5.76 l
o
np
265.60 57.60 m
0 -5.76 l
o
np
321.60 57.60 m
0 -5.76 l
o
np
377.60 57.60 m
0 -5.76 l
o
/Font1 findfont 10 s
97.60 41.47 (0) .5 0 t
153.60 41.47 (200) .5 0 t
209.60 41.47 (400) .5 0 t
265.60 41.47 (600) .5 0 t
321.60 41.47 (800) .5 0 t
377.60 41.47 (1000) .5 0 t
np
86.40 66.13 m
0 178.76 l
o
np
86.40 66.13 m
-5.76 0 l
o
np
86.40 110.82 m
-5.76 0 l
o
np
86.40 155.51 m
-5.76 0 l
o
np
86.40 200.20 m
-5.76 0 l
o
np
86.40 244.89 m
-5.76 0 l
o
79.49 62.54 (0.00) 1 0 t
79.49 107.23 (0.02) 1 0 t
79.49 151.92 (0.04) 1 0 t
79.49 196.61 (0.06) 1 0 t
79.49 241.30 (0.08) 1 0 t
np
86.40 57.60 m
302.40 0 l
0 230.40 l
-302.40 0 l
0 -230.40 l
o
0.00 0.00 432.00 576.00 cl
/Font1 findfont 10 s
0 0 0 srgb
237.60 13.82 (Zeit / ms \(nach Puls\)) .5 0 t
49.54 172.80 (Absorbanz A) .5 90 t
86.40 57.60 388.80 288.00 cl
/bg { 1 1 1 srgb } def
0 0 0 srgb
0.75 setlinewidth
[] 0 setdash
1 setlinecap
1 setlinejoin
10.00 setmiterlimit
102.64 243.37 0.65 c p3
102.92 242.35 0.65 c p3
103.20 239.68 0.65 c p3
103.48 228.66 0.65 c p3
103.76 235.99 0.65 c p3
104.04 222.40 0.65 c p3
104.32 221.39 0.65 c p3
104.60 224.21 0.65 c p3
104.88 222.40 0.65 c p3
105.16 231.30 0.65 c p3
105.44 222.40 0.65 c p3
105.72 217.77 0.65 c p3
106.00 215.97 0.65 c p3
106.28 217.77 0.65 c p3
106.56 214.17 0.65 c p3
106.84 207.00 0.65 c p3
107.12 215.17 0.65 c p3
107.40 210.58 0.65 c p3
107.68 207.00 0.65 c p3
107.96 206.21 0.65 c p3
108.24 204.43 0.65 c p3
108.52 205.22 0.65 c p3
108.80 202.65 0.65 c p3
109.08 199.89 0.65 c p3
109.36 202.65 0.65 c p3
109.64 201.66 0.65 c p3
109.92 204.43 0.65 c p3
110.20 198.12 0.65 c p3
110.48 196.35 0.65 c p3
110.76 194.59 0.65 c p3
111.04 192.83 0.65 c p3
111.32 179.82 0.65 c p3
111.60 186.79 0.65 c p3
111.88 184.26 0.65 c p3
112.16 189.51 0.65 c p3
112.44 186.01 0.65 c p3
112.72 182.52 0.65 c p3
113.00 179.05 0.65 c p3
113.28 184.26 0.65 c p3
113.56 181.56 0.65 c p3
113.84 180.78 0.65 c p3
114.12 177.31 0.65 c p3
114.40 178.08 0.65 c p3
114.68 175.58 0.65 c p3
114.96 169.46 0.65 c p3
115.24 167.74 0.65 c p3
115.52 166.98 0.65 c p3
115.80 166.98 0.65 c p3
116.08 165.27 0.65 c p3
116.36 169.46 0.65 c p3
116.64 167.74 0.65 c p3
116.92 163.56 0.65 c p3
117.20 163.56 0.65 c p3
117.48 160.91 0.65 c p3
117.76 162.62 0.65 c p3
118.04 165.27 0.65 c p3
118.32 160.91 0.65 c p3
118.60 160.91 0.65 c p3
118.88 160.91 0.65 c p3
119.16 151.69 0.65 c p3
119.44 154.13 0.65 c p3
119.72 155.82 0.65 c p3
120.00 155.82 0.65 c p3
120.28 154.13 0.65 c p3
120.56 155.82 0.65 c p3
120.84 152.63 0.65 c p3
121.12 157.51 0.65 c p3
121.40 150.00 0.65 c p3
121.68 149.26 0.65 c p3
121.96 148.32 0.65 c p3
122.24 145.90 0.65 c p3
122.52 146.64 0.65 c p3
122.80 142.55 0.65 c p3
123.08 141.62 0.65 c p3
123.36 146.64 0.65 c p3
123.64 140.88 0.65 c p3
123.92 139.22 0.65 c p3
124.20 140.88 0.65 c p3
124.48 141.62 0.65 c p3
124.76 142.55 0.65 c p3
125.04 143.29 0.65 c p3
125.32 142.55 0.65 c p3
125.60 141.62 0.65 c p3
125.88 135.89 0.65 c p3
126.16 134.97 0.65 c p3
126.44 131.66 0.65 c p3
126.72 129.28 0.65 c p3
127.00 133.32 0.65 c p3
127.28 134.24 0.65 c p3
127.56 129.28 0.65 c p3
127.84 131.66 0.65 c p3
128.12 129.28 0.65 c p3
128.40 130.93 0.65 c p3
128.68 130.93 0.65 c p3
128.96 129.28 0.65 c p3
129.24 128.36 0.65 c p3
129.52 130.01 0.65 c p3
129.80 125.99 0.65 c p3
130.08 121.80 0.65 c p3
130.36 118.54 0.65 c p3
130.64 125.99 0.65 c p3
130.92 120.17 0.65 c p3
131.20 122.71 0.65 c p3
131.48 124.35 0.65 c p3
131.76 125.08 0.65 c p3
132.04 124.35 0.65 c p3
132.32 120.17 0.65 c p3
132.60 121.08 0.65 c p3
132.88 117.81 0.65 c p3
133.16 120.17 0.65 c p3
133.44 117.81 0.65 c p3
133.72 114.56 0.65 c p3
134.00 119.44 0.65 c p3
134.28 112.22 0.65 c p3
134.56 116.19 0.65 c p3
134.84 112.94 0.65 c p3
135.12 112.94 0.65 c p3
135.40 112.94 0.65 c p3
135.68 109.71 0.65 c p3
135.96 117.81 0.65 c p3
136.24 117.09 0.65 c p3
136.52 117.81 0.65 c p3
136.80 110.60 0.65 c p3
137.08 108.99 0.65 c p3
137.36 108.09 0.65 c p3
137.64 108.09 0.65 c p3
137.92 109.71 0.65 c p3
138.20 107.38 0.65 c p3
138.48 108.99 0.65 c p3
138.76 108.09 0.65 c p3
139.04 107.38 0.65 c p3
139.32 108.09 0.65 c p3
139.60 104.88 0.65 c p3
139.88 104.16 0.65 c p3
140.16 105.77 0.65 c p3
140.44 104.88 0.65 c p3
140.72 104.16 0.65 c p3
141.00 102.56 0.65 c p3
141.28 104.16 0.65 c p3
141.56 101.67 0.65 c p3
141.84 101.67 0.65 c p3
142.12 104.88 0.65 c p3
142.40 104.88 0.65 c p3
142.68 105.77 0.65 c p3
142.96 105.77 0.65 c p3
143.24 105.77 0.65 c p3
143.52 103.27 0.65 c p3
143.80 99.36 0.65 c p3
144.08 97.76 0.65 c p3
144.36 93.69 0.65 c p3
144.64 92.99 0.65 c p3
144.92 96.87 0.65 c p3
145.20 96.17 0.65 c p3
145.48 100.07 0.65 c p3
145.76 99.36 0.65 c p3
146.04 99.36 0.65 c p3
146.32 92.99 0.65 c p3
146.60 97.76 0.65 c p3
146.88 100.96 0.65 c p3
147.16 102.56 0.65 c p3
147.44 98.47 0.65 c p3
147.72 92.99 0.65 c p3
148.00 98.47 0.65 c p3
148.28 92.11 0.65 c p3
148.56 93.69 0.65 c p3
148.84 93.69 0.65 c p3
149.12 94.58 0.65 c p3
149.40 96.17 0.65 c p3
149.68 92.11 0.65 c p3
149.96 95.28 0.65 c p3
150.24 94.58 0.65 c p3
150.52 94.58 0.65 c p3
150.80 96.87 0.65 c p3
151.08 96.17 0.65 c p3
151.36 91.40 0.65 c p3
151.64 87.36 0.65 c p3
151.92 90.52 0.65 c p3
152.20 90.52 0.65 c p3
152.48 90.52 0.65 c p3
152.76 88.94 0.65 c p3
153.04 90.52 0.65 c p3
153.32 89.82 0.65 c p3
153.60 92.11 0.65 c p3
153.88 92.11 0.65 c p3
154.16 89.82 0.65 c p3
154.44 92.11 0.65 c p3
154.72 88.94 0.65 c p3
155.00 92.99 0.65 c p3
155.28 88.94 0.65 c p3
155.56 85.78 0.65 c p3
155.84 80.37 0.65 c p3
156.12 76.55 0.65 c p3
156.40 83.51 0.65 c p3
156.68 87.36 0.65 c p3
156.96 88.94 0.65 c p3
157.24 85.78 0.65 c p3
157.52 87.36 0.65 c p3
157.80 88.24 0.65 c p3
158.08 84.21 0.65 c p3
158.36 88.24 0.65 c p3
158.64 86.66 0.65 c p3
158.92 85.78 0.65 c p3
159.20 85.78 0.65 c p3
159.48 84.21 0.65 c p3
159.76 85.78 0.65 c p3
160.04 84.21 0.65 c p3
160.32 79.68 0.65 c p3
160.60 81.94 0.65 c p3
160.88 84.21 0.65 c p3
161.16 83.51 0.65 c p3
161.44 88.24 0.65 c p3
161.72 84.21 0.65 c p3
162.00 85.08 0.65 c p3
162.28 81.94 0.65 c p3
162.56 83.51 0.65 c p3
162.84 83.51 0.65 c p3
163.12 78.11 0.65 c p3
163.40 79.68 0.65 c p3
163.68 79.68 0.65 c p3
163.96 85.78 0.65 c p3
164.24 81.24 0.65 c p3
164.52 80.37 0.65 c p3
164.80 85.08 0.65 c p3
165.08 78.11 0.65 c p3
165.36 81.24 0.65 c p3
165.64 87.36 0.65 c p3
165.92 84.21 0.65 c p3
166.20 81.94 0.65 c p3
166.48 84.21 0.65 c p3
166.76 75.68 0.65 c p3
167.04 77.24 0.65 c p3
167.32 74.99 0.65 c p3
167.60 77.24 0.65 c p3
167.88 78.81 0.65 c p3
168.16 83.51 0.65 c p3
168.44 78.81 0.65 c p3
168.72 78.81 0.65 c p3
169.00 78.81 0.65 c p3
169.28 80.37 0.65 c p3
169.56 81.24 0.65 c p3
169.84 81.24 0.65 c p3
170.12 83.51 0.65 c p3
170.40 84.21 0.65 c p3
170.68 78.81 0.65 c p3
170.96 80.37 0.65 c p3
171.24 74.99 0.65 c p3
171.52 77.24 0.65 c p3
171.80 74.99 0.65 c p3
172.08 76.55 0.65 c p3
172.36 78.81 0.65 c p3
172.64 79.68 0.65 c p3
172.92 78.81 0.65 c p3
173.20 79.68 0.65 c p3
173.48 77.24 0.65 c p3
173.76 72.57 0.65 c p3
174.04 81.94 0.65 c p3
174.32 74.99 0.65 c p3
174.60 74.99 0.65 c p3
174.88 78.11 0.65 c p3
175.16 77.24 0.65 c p3
175.44 72.57 0.65 c p3
175.72 73.44 0.65 c p3
176.00 76.55 0.65 c p3
176.28 78.81 0.65 c p3
176.56 78.81 0.65 c p3
176.84 76.55 0.65 c p3
177.12 79.68 0.65 c p3
177.40 78.81 0.65 c p3
177.68 75.68 0.65 c p3
177.96 74.99 0.65 c p3
178.24 71.88 0.65 c p3
178.52 72.57 0.65 c p3
178.80 70.33 0.65 c p3
179.08 76.55 0.65 c p3
179.36 71.88 0.65 c p3
179.64 74.13 0.65 c p3
179.92 78.11 0.65 c p3
180.20 73.44 0.65 c p3
180.48 78.81 0.65 c p3
180.76 76.55 0.65 c p3
181.04 75.68 0.65 c p3
181.32 76.55 0.65 c p3
181.60 78.81 0.65 c p3
181.88 78.81 0.65 c p3
182.16 74.99 0.65 c p3
182.44 74.13 0.65 c p3
182.72 71.88 0.65 c p3
183.00 74.99 0.65 c p3
183.28 72.57 0.65 c p3
183.56 76.55 0.65 c p3
183.84 73.44 0.65 c p3
184.12 74.13 0.65 c p3
184.40 79.68 0.65 c p3
184.68 74.99 0.65 c p3
184.96 78.81 0.65 c p3
185.24 77.24 0.65 c p3
185.52 73.44 0.65 c p3
185.80 71.02 0.65 c p3
186.08 74.99 0.65 c p3
186.36 76.55 0.65 c p3
186.64 76.55 0.65 c p3
186.92 78.81 0.65 c p3
187.20 74.99 0.65 c p3
187.48 77.24 0.65 c p3
187.76 74.99 0.65 c p3
188.04 78.11 0.65 c p3
188.32 78.11 0.65 c p3
188.60 78.11 0.65 c p3
188.88 75.68 0.65 c p3
189.16 71.88 0.65 c p3
189.44 69.47 0.65 c p3
189.72 73.44 0.65 c p3
190.00 71.02 0.65 c p3
190.28 72.57 0.65 c p3
190.56 74.99 0.65 c p3
190.84 74.99 0.65 c p3
191.12 74.13 0.65 c p3
191.40 73.44 0.65 c p3
191.68 78.11 0.65 c p3
191.96 78.81 0.65 c p3
192.24 75.68 0.65 c p3
192.52 74.13 0.65 c p3
192.80 79.68 0.65 c p3
193.08 73.44 0.65 c p3
193.36 72.57 0.65 c p3
193.64 71.88 0.65 c p3
193.92 72.57 0.65 c p3
194.20 73.44 0.65 c p3
194.48 73.44 0.65 c p3
194.76 72.57 0.65 c p3
195.04 71.88 0.65 c p3
195.32 73.44 0.65 c p3
195.60 72.57 0.65 c p3
195.88 74.13 0.65 c p3
196.16 73.44 0.65 c p3
216.00 201.60 367.20 247.68 cl
0 0 0 srgb
0.75 setlinewidth
[] 0 setdash
1 setlinecap
1 setlinejoin
10.00 setmiterlimit
221.60 228.06 0.43 c p1
222.02 229.17 0.43 c p1
222.44 228.24 0.43 c p1
222.86 217.08 0.43 c p1
223.28 228.34 0.43 c p1
223.70 213.96 0.43 c p1
224.11 214.97 0.43 c p1
224.53 220.64 0.43 c p1
224.95 220.61 0.43 c p1
225.37 233.68 0.43 c p1
225.79 224.92 0.43 c p1
226.21 221.38 0.43 c p1
226.63 221.26 0.43 c p1
227.05 225.54 0.43 c p1
227.47 223.18 0.43 c p1
227.89 216.43 0.43 c p1
228.31 228.43 0.43 c p1
228.73 224.79 0.43 c p1
229.14 222.36 0.43 c p1
229.56 223.33 0.43 c p1
229.98 223.06 0.43 c p1
230.40 225.92 0.43 c p1
230.82 224.64 0.43 c p1
231.24 223.11 0.43 c p1
231.66 228.32 0.43 c p1
232.08 228.92 0.43 c p1
232.50 234.09 0.43 c p1
232.92 228.14 0.43 c p1
233.34 227.72 0.43 c p1
233.76 227.29 0.43 c p1
234.17 226.84 0.43 c p1
234.59 212.61 0.43 c p1
235.01 222.81 0.43 c p1
235.43 221.37 0.43 c p1
235.85 229.42 0.43 c p1
236.27 226.76 0.43 c p1
236.69 224.08 0.43 c p1
237.11 221.41 0.43 c p1
237.53 229.35 0.43 c p1
237.95 227.58 0.43 c p1
238.37 228.16 0.43 c p1
238.79 225.42 0.43 c p1
239.20 227.86 0.43 c p1
239.62 226.27 0.43 c p1
240.04 220.23 0.43 c p1
240.46 219.57 0.43 c p1
240.88 220.07 0.43 c p1
241.30 221.48 0.43 c p1
241.72 220.78 0.43 c p1
242.14 227.28 0.43 c p1
242.56 226.54 0.43 c p1
242.98 222.77 0.43 c p1
243.40 224.10 0.43 c p1
243.82 222.18 0.43 c p1
244.23 225.56 0.43 c p1
244.65 230.10 0.43 c p1
245.07 226.04 0.43 c p1
245.49 227.30 0.43 c p1
245.91 228.54 0.43 c p1
246.33 218.48 0.43 c p1
246.75 222.68 0.43 c p1
247.17 225.96 0.43 c p1
247.59 227.15 0.43 c p1
248.01 226.25 0.43 c p1
248.43 229.49 0.43 c p1
248.85 226.73 0.43 c p1
249.26 233.85 0.43 c p1
249.68 225.78 0.43 c p1
250.10 225.98 0.43 c p1
250.52 225.93 0.43 c p1
250.94 224.05 0.43 c p1
251.36 226.04 0.43 c p1
251.78 222.09 0.43 c p1
252.20 222.01 0.43 c p1
252.62 229.19 0.43 c p1
253.04 223.17 0.43 c p1
253.46 222.14 0.43 c p1
253.88 225.19 0.43 c p1
254.29 227.09 0.43 c p1
254.71 229.21 0.43 c p1
255.13 231.08 0.43 c p1
255.55 231.14 0.43 c p1
255.97 230.95 0.43 c p1
256.39 224.87 0.43 c p1
256.81 224.67 0.43 c p1
257.23 221.54 0.43 c p1
257.65 219.53 0.43 c p1
258.07 225.37 0.43 c p1
258.49 227.38 0.43 c p1
258.91 222.19 0.43 c p1
259.32 225.97 0.43 c p1
259.74 223.91 0.43 c p1
260.16 226.78 0.43 c p1
260.58 227.62 0.43 c p1
261.00 226.43 0.43 c p1
261.42 226.13 0.43 c p1
261.84 228.95 0.43 c p1
262.26 224.83 0.43 c p1
262.68 220.50 0.43 c p1
263.10 217.28 0.43 c p1
263.52 227.18 0.43 c p1
263.94 220.82 0.43 c p1
264.35 224.69 0.43 c p1
264.77 227.44 0.43 c p1
265.19 229.08 0.43 c p1
265.61 228.91 0.43 c p1
266.03 224.52 0.43 c p1
266.45 226.35 0.43 c p1
266.87 223.06 0.43 c p1
267.29 226.64 0.43 c p1
267.71 224.45 0.43 c p1
268.13 221.16 0.43 c p1
268.55 227.81 0.43 c p1
268.97 219.63 0.43 c p1
269.38 225.15 0.43 c p1
269.80 221.83 0.43 c p1
270.22 222.48 0.43 c p1
270.64 223.11 0.43 c p1
271.06 219.79 0.43 c p1
271.48 230.34 0.43 c p1
271.90 230.07 0.43 c p1
272.32 231.56 0.43 c p1
272.74 223.34 0.43 c p1
273.16 221.96 0.43 c p1
273.58 221.46 0.43 c p1
274.00 222.04 0.43 c p1
274.41 224.59 0.43 c p1
274.83 222.31 0.43 c p1
275.25 224.85 0.43 c p1
275.67 224.31 0.43 c p1
276.09 223.98 0.43 c p1
276.51 225.41 0.43 c p1
276.93 222.00 0.43 c p1
277.35 221.66 0.43 c p1
277.77 224.16 0.43 c p1
278.19 223.59 0.43 c p1
278.61 223.23 0.43 c p1
279.03 221.77 0.43 c p1
279.44 224.24 0.43 c p1
279.86 221.69 0.43 c p1
280.28 222.18 0.43 c p1
280.70 226.59 0.43 c p1
281.12 227.07 0.43 c p1
281.54 228.64 0.43 c p1
281.96 229.12 0.43 c p1
282.38 229.58 0.43 c p1
282.80 226.98 0.43 c p1
283.22 222.65 0.43 c p1
283.64 221.14 0.43 c p1
284.06 216.61 0.43 c p1
284.47 216.18 0.43 c p1
284.89 221.38 0.43 c p1
285.31 220.94 0.43 c p1
285.73 226.14 0.43 c p1
286.15 225.69 0.43 c p1
286.57 226.11 0.43 c p1
286.99 218.72 0.43 c p1
287.41 224.97 0.43 c p1
287.83 229.29 0.43 c p1
288.25 231.64 0.43 c p1
288.67 227.03 0.43 c p1
289.09 220.71 0.43 c p1
289.50 227.81 0.43 c p1
289.92 220.39 0.43 c p1
290.34 222.71 0.43 c p1
290.76 223.09 0.43 c p1
291.18 224.53 0.43 c p1
291.60 226.84 0.43 c p1
292.02 222.23 0.43 c p1
292.44 226.48 0.43 c p1
292.86 225.96 0.43 c p1
293.28 226.31 0.43 c p1
293.70 229.46 0.43 c p1
294.11 228.94 0.43 c p1
294.53 223.44 0.43 c p1
294.95 218.82 0.43 c p1
295.37 223.02 0.43 c p1
295.79 223.35 0.43 c p1
296.21 223.67 0.43 c p1
296.63 222.05 0.43 c p1
297.05 224.30 0.43 c p1
297.47 223.75 0.43 c p1
297.89 226.85 0.43 c p1
298.31 227.16 0.43 c p1
298.73 224.65 0.43 c p1
299.14 227.75 0.43 c p1
299.56 224.17 0.43 c p1
299.98 229.41 0.43 c p1
300.40 224.75 0.43 c p1
300.82 221.16 0.43 c p1
301.24 214.82 0.43 c p1
301.66 210.42 0.43 c p1
302.08 219.21 0.43 c p1
302.50 224.20 0.43 c p1
302.92 226.40 0.43 c p1
303.34 222.80 0.43 c p1
303.76 224.99 0.43 c p1
304.17 226.32 0.43 c p1
304.59 221.65 0.43 c p1
305.01 226.83 0.43 c p1
305.43 225.15 0.43 c p1
305.85 224.32 0.43 c p1
306.27 224.57 0.43 c p1
306.69 222.88 0.43 c p1
307.11 225.05 0.43 c p1
307.53 223.36 0.43 c p1
307.95 218.04 0.43 c p1
308.37 221.04 0.43 c p1
308.79 224.05 0.43 c p1
309.20 223.42 0.43 c p1
309.62 229.43 0.43 c p1
310.04 224.72 0.43 c p1
310.46 226.01 0.43 c p1
310.88 222.38 0.43 c p1
311.30 224.51 0.43 c p1
311.72 224.72 0.43 c p1
312.14 218.32 0.43 c p1
312.56 220.44 0.43 c p1
312.98 220.65 0.43 c p1
313.40 228.33 0.43 c p1
313.82 222.97 0.43 c p1
314.23 222.10 0.43 c p1
314.65 228.06 0.43 c p1
315.07 219.72 0.43 c p1
315.49 223.74 0.43 c p1
315.91 231.42 0.43 c p1
316.33 227.75 0.43 c p1
316.75 225.16 0.43 c p1
317.17 228.12 0.43 c p1
317.59 217.86 0.43 c p1
318.01 219.95 0.43 c p1
318.43 217.37 0.43 c p1
318.85 220.30 0.43 c p1
319.26 222.38 0.43 c p1
319.68 228.31 0.43 c p1
320.10 222.72 0.43 c p1
320.52 222.89 0.43 c p1
320.94 223.05 0.43 c p1
321.36 225.13 0.43 c p1
321.78 226.36 0.43 c p1
322.20 226.52 0.43 c p1
322.62 229.45 0.43 c p1
323.04 230.46 0.43 c p1
323.46 224.00 0.43 c p1
323.88 226.07 0.43 c p1
324.29 219.63 0.43 c p1
324.71 222.54 0.43 c p1
325.13 219.93 0.43 c p1
325.55 221.98 0.43 c p1
325.97 224.89 0.43 c p1
326.39 226.09 0.43 c p1
326.81 225.17 0.43 c p1
327.23 226.37 0.43 c p1
327.65 223.53 0.43 c p1
328.07 217.95 0.43 c p1
328.49 229.55 0.43 c p1
328.91 221.18 0.43 c p1
329.32 221.31 0.43 c p1
329.74 225.26 0.43 c p1
330.16 224.33 0.43 c p1
330.58 218.73 0.43 c p1
331.00 219.92 0.43 c p1
331.42 223.85 0.43 c p1
331.84 226.74 0.43 c p1
332.26 226.86 0.43 c p1
332.68 224.22 0.43 c p1
333.10 228.16 0.43 c p1
333.52 227.22 0.43 c p1
333.94 223.51 0.43 c p1
334.35 222.77 0.43 c p1
334.77 219.08 0.43 c p1
335.19 220.04 0.43 c p1
335.61 217.40 0.43 c p1
336.03 225.13 0.43 c p1
336.45 219.52 0.43 c p1
336.87 222.38 0.43 c p1
337.29 227.36 0.43 c p1
337.71 221.74 0.43 c p1
338.13 228.42 0.43 c p1
338.55 225.76 0.43 c p1
338.97 224.80 0.43 c p1
339.38 225.96 0.43 c p1
339.80 228.82 0.43 c p1
340.22 228.92 0.43 c p1
340.64 224.35 0.43 c p1
341.06 223.38 0.43 c p1
341.48 220.73 0.43 c p1
341.90 224.63 0.43 c p1
342.32 221.76 0.43 c p1
342.74 226.72 0.43 c p1
343.16 223.00 0.43 c p1
343.58 223.93 0.43 c p1
344.00 230.82 0.43 c p1
344.41 225.17 0.43 c p1
344.83 229.93 0.43 c p1
345.25 228.10 0.43 c p1
345.67 223.52 0.43 c p1
346.09 220.65 0.43 c p1
346.51 225.59 0.43 c p1
346.93 227.58 0.43 c p1
347.35 227.66 0.43 c p1
347.77 230.51 0.43 c p1
348.19 225.91 0.43 c p1
348.61 228.75 0.43 c p1
349.03 226.07 0.43 c p1
349.44 229.97 0.43 c p1
349.86 230.04 0.43 c p1
350.28 230.12 0.43 c p1
350.70 227.22 0.43 c p1
351.12 222.63 0.43 c p1
351.54 219.75 0.43 c p1
351.96 224.68 0.43 c p1
352.38 221.79 0.43 c p1
352.80 223.76 0.43 c p1
353.22 226.79 0.43 c p1
353.64 226.86 0.43 c p1
354.06 225.87 0.43 c p1
354.47 225.09 0.43 c p1
354.89 230.88 0.43 c p1
355.31 231.80 0.43 c p1
355.73 228.04 0.43 c p1
356.15 226.20 0.43 c p1
356.57 233.05 0.43 c p1
356.99 225.47 0.43 c p1
357.41 224.48 0.43 c p1
357.83 223.69 0.43 c p1
358.25 224.60 0.43 c p1
358.67 225.72 0.43 c p1
359.09 225.78 0.43 c p1
359.50 224.78 0.43 c p1
359.92 223.99 0.43 c p1
360.34 225.95 0.43 c p1
360.76 224.95 0.43 c p1
361.18 226.91 0.43 c p1
361.60 226.12 0.43 c p1
0.00 0.00 432.00 576.00 cl
0 0 0 srgb
0.75 setlinewidth
[] 0 setdash
1 setlinecap
1 setlinejoin
10.00 setmiterlimit
np
235.01 201.60 m
125.75 0 l
o
np
235.01 201.60 m
0 -5.76 l
o
np
255.97 201.60 m
0 -5.76 l
o
np
276.93 201.60 m
0 -5.76 l
o
np
297.89 201.60 m
0 -5.76 l
o
np
318.85 201.60 m
0 -5.76 l
o
np
339.80 201.60 m
0 -5.76 l
o
np
360.76 201.60 m
0 -5.76 l
o
/Font1 findfont 6 s
235.01 185.47 (50) .5 0 t
255.97 185.47 (100) .5 0 t
276.93 185.47 (150) .5 0 t
297.89 185.47 (200) .5 0 t
318.85 185.47 (250) .5 0 t
339.80 185.47 (300) .5 0 t
360.76 185.47 (350) .5 0 t
np
216.00 210.96 m
0 27.36 l
o
np
216.00 210.96 m
-5.76 0 l
o
np
216.00 224.64 m
-5.76 0 l
o
np
216.00 238.32 m
-5.76 0 l
o
209.09 208.81 (-0.005) 1 0 t
209.09 222.49 (0.000) 1 0 t
209.09 236.16 (0.005) 1 0 t
np
216.00 201.60 m
151.20 0 l
0 46.08 l
-151.20 0 l
0 -46.08 l
o
0.00 0.00 432.00 576.00 cl
/Font1 findfont 9 s
0 0 0 srgb
291.60 262.88 (Residuen) .5 0 t
59.04 73.44 401.76 516.96 cl
ep
%%Trailer
%%Pages: 1
%%EOF
