%!PS-Adobe-3.0 EPSF-3.0
%%DocumentNeededResources: font Helvetica
%%+ font Helvetica-Bold
%%+ font Helvetica-Oblique
%%+ font Helvetica-BoldOblique
%%+ font Symbol
%%Title: R Graphics Output
%%Creator: R Software
%%Pages: (atend)
%%BoundingBox: 0 0 432 576
%%EndComments
%%BeginProlog
/bp  { gs sRGB gs } def
% begin .ps.prolog
/gs  { gsave } bind def
/gr  { grestore } bind def
/ep  { showpage gr gr } bind def
/m   { moveto } bind def
/l  { rlineto } bind def
/np  { newpath } bind def
/cp  { closepath } bind def
/f   { fill } bind def
/o   { stroke } bind def
/c   { newpath 0 360 arc } bind def
/r   { 4 2 roll moveto 1 copy 3 -1 roll exch 0 exch rlineto 0 rlineto -1 mul 0 exch rlineto closepath } bind def
/p1  { stroke } bind def
/p2  { gsave bg fill grestore newpath } bind def
/p3  { gsave bg fill grestore stroke } bind def
/p6  { gsave bg eofill grestore newpath } bind def
/p7  { gsave bg eofill grestore stroke } bind def
/t   { 5 -2 roll moveto gsave rotate
       1 index stringwidth pop
       mul neg 0 rmoveto show grestore } bind def
/ta  { 4 -2 roll moveto gsave rotate show } bind def
/tb  { 2 -1 roll 0 rmoveto show } bind def
/cl  { grestore gsave newpath 3 index 3 index moveto 1 index
       4 -1 roll lineto  exch 1 index lineto lineto
       closepath clip newpath } bind def
/rgb { setrgbcolor } bind def
/s   { scalefont setfont } bind def
% end   .ps.prolog
/sRGB { [ /CIEBasedABC
          << /DecodeLMN
               [ { dup 0.03928 le
                        {12.92321 div}
                        {0.055 add 1.055 div 2.4 exp }
                     ifelse
                 } bind dup dup
               ]
             /MatrixLMN [0.412457 0.212673 0.019334
                         0.357576 0.715152 0.119192
                         0.180437 0.072175 0.950301]
             /WhitePoint [0.9505 1.0 1.0890]
           >>
         ] setcolorspace } bind def
/srgb { setcolor } bind def
%%IncludeResource: font Helvetica
/Helvetica findfont
dup length dict begin
  {1 index /FID ne {def} {pop pop} ifelse} forall
  /Encoding ISOLatin1Encoding def
  currentdict
  end
/Font1 exch definefont pop
%%IncludeResource: font Helvetica-Bold
/Helvetica-Bold findfont
dup length dict begin
  {1 index /FID ne {def} {pop pop} ifelse} forall
  /Encoding ISOLatin1Encoding def
  currentdict
  end
/Font2 exch definefont pop
%%IncludeResource: font Helvetica-Oblique
/Helvetica-Oblique findfont
dup length dict begin
  {1 index /FID ne {def} {pop pop} ifelse} forall
  /Encoding ISOLatin1Encoding def
  currentdict
  end
/Font3 exch definefont pop
%%IncludeResource: font Helvetica-BoldOblique
/Helvetica-BoldOblique findfont
dup length dict begin
  {1 index /FID ne {def} {pop pop} ifelse} forall
  /Encoding ISOLatin1Encoding def
  currentdict
  end
/Font4 exch definefont pop
%%IncludeResource: font Symbol
/Symbol findfont
dup length dict begin
  {1 index /FID ne {def} {pop pop} ifelse} forall
  currentdict
  end
/Font5 exch definefont pop
%%EndProlog
%%Page: 1 1
bp
0.00 0.00 432.00 576.00 cl
0.00 0.00 432.00 576.00 cl
0.00 0.00 432.00 576.00 cl
/Font1 findfont 12 s
0 0 0 srgb
48.00 508.72 (PCP-ETH) 0 0 t
48.00 494.89 (Blitzlicht-Photolyse) 0 0 t
/Font1 findfont 9 s
48.00 457.54 (File: Dy) 0 ta
-0.180 (e_0_1_V1_900V) tb
-1.125 (.dat) tb gr
48.00 334.87 (T) 0 ta
-1.080 (ue Apr  9 22:04:06 2019) tb gr
48.00 430.87 (Fitfunktion:  a + b * e) 0 ta
-0.270 (xp\(-c * t\)) tb gr
48.00 420.50 (t-Inter) 0 ta
0.270 (v) tb
-0.225 (all: 60.000 ... 960.000 ms) tb gr
48.00 410.14 (P) 0 ta
-0.360 (ar) tb
-0.090 (ameter \(Standardabw) tb
-0.090 (eichung\):) tb gr
48.00 399.77 (  a = 0.01169 \(0.00040\)) 0 0 t
48.00 389.40 (  b = 0.27686 \(0.00237\)) 0 0 t
48.00 379.03 (  c = 6.026e+00 \(6.797e-02\) s^-1) 0 0 t
48.00 368.66 (  tau = 1.659e-01 \(1.872e-03\) s) 0 0 t
216.00 345.60 388.80 518.40 cl
0 0 0 srgb
0.75 setlinewidth
[] 0 setdash
1 setlinecap
1 setlinejoin
10.00 setmiterlimit
np
222.40 503.64 m
0.15 0.66 l
0.14 -0.46 l
0.15 0.36 l
0.14 -0.13 l
0.15 0.36 l
0.14 -0.69 l
0.15 0.23 l
0.14 0 l
0.15 -0.13 l
0.15 -0.20 l
0.14 0.20 l
0.15 -0.20 l
0.14 0.56 l
0.15 -0.69 l
0.14 0.92 l
0.15 -0.59 l
0.14 0.23 l
0.15 0.36 l
0.15 -0.23 l
0.14 -0.13 l
0.15 0 l
0.14 -0.23 l
0.15 0.59 l
0.14 -1.02 l
0.15 0.56 l
0.15 0.33 l
0.14 -0.10 l
0.15 -0.23 l
0.14 0.56 l
0.15 -0.69 l
0.14 0.46 l
0.15 -0.10 l
0.14 0 l
0.15 -0.46 l
0.15 1.02 l
0.14 -0.79 l
0.15 0.46 l
0.14 -0.13 l
0.15 0.23 l
0.14 -0.10 l
0.15 -0.36 l
0.14 0 l
0.15 -0.10 l
0.15 0.10 l
0.14 0.69 l
0.15 -0.79 l
0.14 0.46 l
0.15 -0.92 l
0.14 0.69 l
0.15 -0.13 l
0.14 0.23 l
0.15 -0.56 l
0.15 0.79 l
0.14 -0.23 l
0.15 0.36 l
0.14 -0.59 l
0.15 -0.33 l
0.14 0.33 l
0.15 0.23 l
0.15 -0.33 l
0.14 -0.23 l
0.15 0.33 l
0.14 -0.10 l
0.15 0.10 l
0.14 0.92 l
0.15 -1.15 l
0.14 0.13 l
0.15 -0.33 l
0.15 0.79 l
0.14 -0.79 l
0.15 0.56 l
0.14 -0.23 l
0.15 0.69 l
0.14 -0.69 l
0.15 0.46 l
0.14 -1.02 l
0.15 1.02 l
0.15 -0.23 l
0.14 0.23 l
0.15 -0.79 l
0.14 1.02 l
0.15 -0.36 l
0.14 -0.10 l
0.15 0.10 l
0.14 0 l
0.15 -0.66 l
0.15 1.12 l
0.14 -0.33 l
0.15 -0.23 l
0.14 0 l
0.15 0.10 l
0.14 -0.23 l
0.15 0.36 l
0.15 -0.23 l
0.14 -0.23 l
0.15 0.10 l
0.14 0.46 l
0.15 -0.79 l
0.14 0.23 l
236.96 432.12 lineto
0.14 2.18 l
0.15 2.75 l
0.15 2.99 l
0.14 3.45 l
0.15 2.18 l
0.14 3.09 l
0.15 3.45 l
0.14 1.03 l
0.15 2.86 l
0.14 2.53 l
0.15 2.18 l
0.15 1.61 l
0.14 2.07 l
0.15 2.53 l
0.14 1.38 l
0.15 1.82 l
0.14 1.04 l
0.15 2.41 l
0.14 0.92 l
0.15 1.71 l
0.15 1.05 l
0.14 1.71 l
0.15 0.57 l
0.14 1.61 l
0.15 1.38 l
0.14 0.69 l
0.15 0.69 l
0.15 0.56 l
0.14 1.28 l
0.15 1.02 l
0.14 -0.23 l
0.15 1.15 l
0.14 0.92 l
0.15 0.36 l
0.14 0.21 l
0.15 0.82 l
0.15 0.79 l
0.14 -0.10 l
0.15 0.79 l
0.14 -0.10 l
0.15 1.61 l
0.14 -0.92 l
0.15 0.46 l
0.14 0.69 l
0.15 0.56 l
0.15 -0.23 l
0.14 0.46 l
0.15 0.23 l
0.14 1.02 l
0.15 -0.23 l
0.14 0.46 l
0.15 0.46 l
0.14 0.13 l
0.15 -0.36 l
0.15 0.46 l
0.14 0.23 l
0.15 -0.10 l
0.14 -0.23 l
0.15 1.02 l
0.14 0.13 l
0.15 -0.59 l
0.15 0.36 l
0.14 0.56 l
0.15 0 l
0.14 0.23 l
0.15 0.13 l
0.14 0.10 l
0.15 0.23 l
0.14 0 l
0.15 -0.23 l
0.15 0.13 l
0.14 0.67 l
0.15 -0.21 l
0.14 -0.23 l
0.15 1.03 l
0.14 0.33 l
0.15 -0.79 l
0.14 -0.34 l
0.15 1.03 l
0.15 0.56 l
0.14 -0.79 l
0.15 0.23 l
0.14 -0.13 l
0.15 0.69 l
0.14 0 l
0.15 -0.23 l
0.14 -0.33 l
0.15 1.48 l
0.15 -0.79 l
0.14 -0.36 l
0.15 0.69 l
0.14 0.69 l
0.15 -0.69 l
0.14 -0.10 l
0.15 1.02 l
0.15 -0.56 l
0.14 -0.46 l
0.15 0.79 l
0.14 0.13 l
251.52 501.11 lineto
0.14 0.23 l
0.15 0.46 l
0.14 -0.13 l
0.15 0.13 l
0.15 0 l
0.14 0.33 l
0.15 -0.10 l
0.14 0.33 l
0.15 0 l
0.14 0.36 l
0.15 -0.46 l
0.14 0.10 l
0.15 0.36 l
0.15 -0.36 l
0.14 0 l
0.15 0.46 l
0.14 0.23 l
0.15 -0.10 l
0.14 0.23 l
0.15 -0.46 l
0.14 0.92 l
0.15 -0.46 l
0.15 0.33 l
0.14 -0.33 l
0.15 0 l
0.14 0 l
0.15 0.56 l
0.14 -0.33 l
0.15 0.33 l
0.14 0 l
0.15 0.69 l
0.15 -1.02 l
0.14 0.79 l
0.15 0 l
0.14 0 l
0.15 -0.56 l
0.14 0.66 l
0.15 -0.46 l
0.15 0.59 l
0.14 -0.23 l
0.15 0.10 l
0.14 -0.23 l
0.15 0.82 l
0.14 -0.13 l
0.15 0.23 l
0.14 -0.69 l
0.15 0.92 l
0.15 -0.10 l
0.14 0.33 l
0.15 -1.02 l
0.14 0.92 l
0.15 -0.13 l
0.14 -0.33 l
0.15 0 l
0.14 0.23 l
0.15 0.10 l
0.15 0.36 l
0.14 0 l
0.15 0.10 l
0.14 -0.46 l
0.15 0.69 l
0.14 -0.33 l
0.15 0.46 l
0.14 -0.46 l
0.15 0.92 l
0.15 -1.15 l
0.14 0.46 l
0.15 0.23 l
0.14 0.33 l
0.15 -0.46 l
0.14 0 l
0.15 0.36 l
0.15 0.46 l
0.14 -0.36 l
0.15 0.13 l
0.14 -0.59 l
0.15 0.82 l
0.14 -0.36 l
0.15 0 l
0.14 0.46 l
0.15 0.13 l
0.15 -0.46 l
0.14 0.46 l
0.15 -0.36 l
0.14 0.36 l
0.15 -0.59 l
0.14 0.69 l
0.15 0.36 l
0.14 -0.13 l
0.15 -0.10 l
0.15 0.46 l
0.14 -0.36 l
0.15 0.59 l
0.14 -0.35 l
0.15 -0.11 l
0.14 0 l
0.15 -0.23 l
0.14 0.57 l
0.15 0.58 l
266.08 507.53 lineto
0.14 0.92 l
0.15 -1.03 l
0.14 0.57 l
0.15 -0.23 l
0.14 0.81 l
0.15 -0.69 l
0.15 0.57 l
0.14 -0.69 l
0.15 0.92 l
0.14 -0.46 l
0.15 -0.23 l
0.14 0.23 l
0.15 0.23 l
0.14 -0.57 l
0.15 0.80 l
0.15 -0.46 l
0.14 0.79 l
0.15 -1.13 l
0.14 0.90 l
0.15 -0.33 l
0.14 0.33 l
0.15 -0.21 l
0.14 0.44 l
0.15 -0.33 l
0.15 0.46 l
0.14 -0.46 l
0.15 0.46 l
0.14 -0.36 l
0.15 0.69 l
0.14 -0.90 l
0.15 0.67 l
0.14 -0.56 l
0.15 0.69 l
0.15 -0.59 l
0.14 0.69 l
0.15 -0.33 l
0.14 -0.36 l
0.15 0.82 l
0.14 -0.13 l
0.15 -0.56 l
0.15 0.33 l
0.14 0.59 l
0.15 -0.13 l
0.14 -0.46 l
0.15 0.46 l
0.14 -0.23 l
0.15 0.36 l
0.14 -0.69 l
0.15 0.79 l
0.15 -0.46 l
0.14 0.69 l
0.15 -1.02 l
0.14 0.56 l
0.15 0.13 l
0.14 0.23 l
0.15 -0.46 l
0.14 0.10 l
0.15 0.23 l
0.15 0 l
0.14 0.23 l
0.15 -0.23 l
0.14 -0.10 l
0.15 0.46 l
0.14 -0.69 l
0.15 0 l
0.14 0.56 l
0.15 -0.46 l
0.15 0.59 l
0.14 0.33 l
0.15 -0.23 l
0.14 -0.33 l
0.15 -0.23 l
0.14 0.33 l
0.15 0.36 l
0.15 -0.13 l
0.14 -0.46 l
0.15 0.46 l
0.14 0.23 l
0.15 0.13 l
0.14 -0.36 l
0.15 -0.23 l
0.14 0.36 l
0.15 -0.13 l
0.15 -0.23 l
0.14 0.23 l
0.15 0.23 l
0.14 -0.10 l
0.15 0.23 l
0.14 -0.46 l
0.15 0.46 l
0.14 -0.13 l
0.15 0.46 l
0.15 -0.23 l
0.14 -0.33 l
0.15 0.23 l
0.14 0.10 l
0.15 0 l
0.14 -0.33 l
0.15 0.46 l
280.63 510.16 lineto
0.15 0.69 l
0.15 -0.10 l
0.14 0 l
0.15 -0.13 l
0.14 0.82 l
0.15 -0.92 l
0.14 0 l
0.15 0.33 l
0.15 0.36 l
0.14 -0.46 l
0.15 0.23 l
0.14 0.10 l
0.15 0 l
0.14 0.23 l
0.15 -0.23 l
0.14 -0.46 l
0.15 0.13 l
0.15 0.23 l
0.14 0.10 l
0.15 -0.46 l
0.14 0.82 l
0.15 -0.23 l
0.14 -0.13 l
0.15 -0.46 l
0.14 0.46 l
0.15 -0.10 l
0.15 -0.36 l
0.14 0.36 l
0.15 -0.13 l
0.14 0 l
0.15 0 l
0.14 -0.23 l
0.15 0.36 l
0.14 -0.46 l
0.15 1.02 l
0.15 -0.79 l
0.14 0.10 l
0.15 0.23 l
0.14 0.23 l
0.15 -0.10 l
0.14 -0.36 l
0.15 -0.23 l
0.14 1.28 l
0.15 -1.05 l
0.15 0.23 l
0.14 -0.23 l
0.15 0.23 l
0.14 -0.33 l
0.15 0.10 l
0.14 -0.46 l
0.15 0.59 l
0.15 -0.46 l
0.14 0.79 l
0.15 -0.23 l
0.14 -0.33 l
0.15 -0.13 l
0.14 1.38 l
0.15 -1.02 l
0.14 -0.13 l
0.15 0.13 l
0.15 0.23 l
0.14 -0.46 l
0.15 0 l
0.14 0.10 l
0.15 0.46 l
0.14 -0.69 l
0.15 0.82 l
0.14 -0.69 l
0.15 0.33 l
0.15 -0.69 l
0.14 0.13 l
0.15 0.33 l
0.14 0 l
0.15 -0.10 l
0.14 0 l
0.15 -0.36 l
0.14 0.13 l
0.15 0.10 l
0.15 0.46 l
0.14 -0.56 l
0.15 0.10 l
0.14 -0.10 l
0.15 0.46 l
0.14 -0.23 l
0.15 0.23 l
0.15 -0.69 l
0.14 0.33 l
0.15 -0.33 l
0.14 0.33 l
0.15 -0.23 l
0.14 0.46 l
0.15 -0.46 l
0.14 0.23 l
0.15 -0.23 l
0.15 0.36 l
0.14 -0.23 l
0.15 -0.46 l
0.14 0.33 l
0.15 -0.10 l
295.19 509.83 lineto
0.15 0.79 l
0.14 -0.23 l
0.15 -0.23 l
0.15 0.13 l
0.14 0.33 l
0.15 -0.10 l
0.14 -0.36 l
0.15 0.36 l
0.14 0.10 l
0.15 -0.69 l
0.14 0.59 l
0.15 -0.59 l
0.15 0.36 l
0.14 -0.13 l
0.15 -0.10 l
0.14 -0.13 l
0.15 0.46 l
0.14 -0.92 l
0.15 0.59 l
0.15 0 l
0.14 -0.36 l
0.15 0.46 l
0.14 0 l
0.15 -0.23 l
0.14 0.46 l
0.15 -0.69 l
0.14 0.23 l
0.15 -0.10 l
0.15 0.33 l
0.14 -0.56 l
0.15 0.10 l
0.14 -0.10 l
0.15 0.33 l
0.14 -0.46 l
0.15 0.36 l
0.14 0.23 l
0.15 -0.36 l
0.15 -0.23 l
0.14 0.13 l
0.15 -0.23 l
0.14 -0.59 l
0.15 0.69 l
0.14 0 l
0.15 0 l
0.14 0.36 l
0.15 -0.46 l
0.15 0.33 l
0.14 -0.46 l
0.15 0 l
0.14 0.36 l
0.15 -0.36 l
0.14 -0.33 l
0.15 0.33 l
0.15 -0.23 l
0.14 0.23 l
0.15 0.46 l
0.14 -0.10 l
0.15 -0.23 l
0.14 -0.23 l
0.15 0.46 l
0.14 -0.36 l
0.15 -0.33 l
0.15 0.23 l
0.14 -0.13 l
0.15 -0.33 l
0.14 0.56 l
0.15 -0.10 l
0.14 -0.23 l
0.15 0 l
0.14 -0.57 l
0.15 0.23 l
0.15 0.21 l
0.14 0 l
0.15 -0.10 l
0.14 0.56 l
0.15 -0.90 l
0.14 0.67 l
0.15 -0.33 l
0.14 -0.11 l
0.15 0 l
0.15 0.11 l
0.14 -0.57 l
0.15 0.46 l
0.14 0.21 l
0.15 -0.44 l
0.14 -0.23 l
0.15 0.57 l
0.15 -0.23 l
0.14 0.23 l
0.15 -0.34 l
0.14 0.44 l
0.15 -0.10 l
0.14 -0.34 l
0.15 0.57 l
0.14 -0.34 l
0.15 -0.35 l
0.15 0.12 l
0.14 0.11 l
0.15 0.12 l
309.75 507.76 lineto
0.15 0.58 l
0.14 -0.12 l
0.15 0 l
0.14 -0.46 l
0.15 0.46 l
0.15 -0.34 l
0.14 0.11 l
0.15 0.23 l
0.14 0.46 l
0.15 -0.92 l
0.14 0.46 l
0.15 -0.69 l
0.14 0.69 l
0.15 -0.11 l
0.15 0.23 l
0.14 -0.69 l
0.15 0.57 l
0.14 -0.23 l
0.15 -0.23 l
0.14 0 l
0.15 0.12 l
0.15 -0.35 l
0.14 0.12 l
0.15 0 l
0.14 0.46 l
0.15 -0.92 l
0.14 0.80 l
0.15 -0.80 l
0.14 0.69 l
0.15 -0.46 l
0.15 0 l
0.14 -0.46 l
0.15 0.69 l
0.14 -0.23 l
0.15 0.23 l
0.14 -0.59 l
0.15 0.36 l
0.14 -0.13 l
0.15 0.13 l
0.15 -0.46 l
0.14 0.69 l
0.15 -0.23 l
0.14 -0.23 l
0.15 0.10 l
0.14 0.36 l
0.15 -0.82 l
0.14 1.16 l
0.15 -0.80 l
0.15 -0.13 l
0.14 -0.33 l
0.15 0.46 l
0.14 -0.23 l
0.15 0.10 l
0.14 0.13 l
0.15 0.57 l
0.15 -0.47 l
0.14 -0.10 l
0.15 -0.23 l
0.14 0.33 l
0.15 -0.10 l
0.14 -0.23 l
0.15 0.23 l
0.14 0.34 l
0.15 -1.03 l
0.15 0.56 l
0.14 0 l
0.15 -0.33 l
0.14 0.10 l
0.15 0.36 l
0.14 -0.46 l
0.15 0.10 l
0.14 0.23 l
0.15 -0.33 l
0.15 -0.36 l
0.14 0.46 l
0.15 -0.46 l
0.14 -0.10 l
0.15 0.10 l
0.14 0.59 l
0.15 -0.46 l
0.14 0.33 l
0.15 -0.10 l
0.15 0.10 l
0.14 -0.56 l
0.15 0.46 l
0.14 -0.13 l
0.15 -0.10 l
0.14 -0.36 l
0.15 0.82 l
0.14 -0.59 l
0.15 0.23 l
0.15 -0.23 l
0.14 0.46 l
0.15 -0.56 l
0.14 0.56 l
0.15 -0.56 l
0.14 0.46 l
0.15 -0.46 l
0.15 -0.13 l
324.31 506.14 lineto
0.15 0.23 l
0.14 0 l
0.15 -0.23 l
0.14 -0.10 l
0.15 0.46 l
0.14 -0.13 l
0.15 0.13 l
0.15 -0.59 l
0.14 1.05 l
0.15 -0.69 l
0.14 0.10 l
0.15 -0.69 l
0.14 0.59 l
0.15 0.46 l
0.14 -0.69 l
0.15 0.33 l
0.15 0.13 l
0.14 -0.69 l
0.15 0.79 l
0.14 -0.33 l
0.15 0.10 l
0.14 0.13 l
0.15 -0.46 l
0.14 -0.13 l
0.15 0.23 l
0.15 -0.23 l
0.14 -0.10 l
0.15 0.46 l
0.14 -0.13 l
0.15 0.23 l
0.14 0.23 l
0.15 -1.02 l
0.15 0.33 l
0.14 0.13 l
0.15 0.23 l
0.14 -0.36 l
0.15 0 l
0.14 0.36 l
0.15 -0.23 l
0.14 -0.23 l
0.15 0.33 l
0.15 0.13 l
0.14 -0.46 l
0.15 0.23 l
0.14 0.23 l
0.15 -0.13 l
0.14 -0.10 l
0.15 0 l
0.14 0 l
0.15 -0.59 l
0.15 0.36 l
0.14 0.10 l
0.15 0.46 l
0.14 -0.23 l
0.15 -0.56 l
0.14 0.10 l
0.15 0.13 l
0.14 0.23 l
0.15 0.33 l
0.15 -0.79 l
0.14 0.56 l
0.15 0 l
0.14 -0.23 l
0.15 0.13 l
0.14 -0.13 l
0.15 -0.33 l
0.15 0.46 l
0.14 -0.13 l
0.15 0 l
0.14 -0.33 l
0.15 0.69 l
0.14 -1.05 l
0.15 0.36 l
0.14 0.10 l
0.15 0.46 l
0.15 0 l
0.14 -0.23 l
0.15 -0.23 l
0.14 0.59 l
0.15 -0.13 l
0.14 -0.33 l
0.15 0.10 l
0.14 0.23 l
0.15 -0.33 l
0.15 0.10 l
0.14 -0.10 l
0.15 0.56 l
0.14 -1.71 l
0.15 1.38 l
0.14 -0.36 l
0.15 0.46 l
0.14 -0.56 l
0.15 0.56 l
0.15 -0.10 l
0.14 -0.13 l
0.15 -0.23 l
0.14 0.23 l
0.15 -0.23 l
0.14 -0.10 l
338.87 505.68 lineto
0.15 0.46 l
0.14 -0.10 l
0.15 0.23 l
0.14 -0.36 l
0.15 0.46 l
0.14 -0.92 l
0.15 0.36 l
0.14 0.10 l
0.15 -0.10 l
0.15 0.33 l
0.14 -0.10 l
0.15 0 l
0.14 -0.13 l
0.15 0.13 l
0.14 0.10 l
0.15 -0.46 l
0.14 0 l
0.15 0.23 l
0.15 0 l
0.14 -0.23 l
0.15 -0.23 l
0.14 0.13 l
0.15 0.10 l
0.14 0 l
0.15 0.13 l
0.14 -0.13 l
0.15 0.46 l
0.15 -0.33 l
0.14 0 l
0.15 0 l
0.14 0.23 l
0.15 -0.59 l
0.14 0.69 l
0.15 -0.23 l
0.15 0.13 l
0.14 -0.23 l
0.15 0.46 l
0.14 -0.23 l
0.15 -0.23 l
0.14 0.10 l
0.15 0.36 l
0.14 -0.23 l
0.15 -0.46 l
0.15 -0.36 l
0.14 0.82 l
0.15 -0.36 l
0.14 0.46 l
0.15 -0.33 l
0.14 0.46 l
0.15 -0.46 l
0.14 0.33 l
0.15 0.69 l
0.15 -0.79 l
0.14 -0.46 l
0.15 0.46 l
0.14 0 l
0.15 -0.23 l
0.14 -0.23 l
0.15 0.33 l
0.14 -0.10 l
0.15 0.46 l
0.15 -0.69 l
0.14 0.92 l
0.15 -0.59 l
0.14 -0.10 l
0.15 0 l
0.14 -0.13 l
0.15 0.23 l
0.15 0.69 l
0.14 -0.56 l
0.15 0.10 l
0.14 -0.33 l
0.15 0.56 l
0.14 -0.33 l
0.15 -0.13 l
0.14 -0.10 l
0.15 0.46 l
0.15 -0.13 l
0.14 -0.23 l
0.15 0.13 l
0.14 0.56 l
0.15 -1.15 l
0.14 1.38 l
0.15 -0.69 l
0.14 0 l
0.15 -0.23 l
0.15 0.13 l
0.14 0 l
0.15 0 l
0.14 0 l
0.15 0.23 l
0.14 -0.13 l
0.15 0.13 l
0.14 -0.13 l
0.15 0 l
0.15 -0.33 l
0.14 0.33 l
0.15 -0.23 l
0.14 0.23 l
353.43 506.14 lineto
0.14 -0.10 l
0.15 -0.69 l
0.14 1.38 l
0.15 -0.59 l
0.15 0 l
0.14 0.13 l
0.15 -0.23 l
0.14 -0.13 l
0.15 0.69 l
0.14 -0.33 l
0.15 0.23 l
0.15 -0.36 l
0.14 0.23 l
0.15 -0.23 l
0.14 0.59 l
0.15 -0.59 l
0.14 0.59 l
0.15 -0.59 l
0.14 0 l
0.15 0.59 l
0.15 -0.23 l
0.14 -0.36 l
0.15 -0.23 l
0.14 0.36 l
0.15 0.10 l
0.14 -0.56 l
0.15 1.02 l
0.14 -0.79 l
0.15 0.10 l
0.15 -0.46 l
0.14 1.05 l
0.15 -0.82 l
0.14 0.69 l
0.15 0 l
0.14 0.13 l
0.15 -0.36 l
0.14 0.46 l
0.15 -0.23 l
0.15 0.13 l
0.14 -0.82 l
0.15 0.59 l
0.14 -0.13 l
0.15 0 l
0.14 0.36 l
0.15 0.33 l
0.15 -0.92 l
0.14 0.36 l
0.15 0.23 l
0.14 -0.13 l
0.15 -0.33 l
0.14 0.46 l
0.15 0.10 l
0.14 -0.46 l
0.15 0.13 l
0.15 0 l
0.14 -0.13 l
0.15 0.23 l
0.14 -0.46 l
0.15 1.15 l
0.14 -0.23 l
0.15 -0.33 l
0.14 -0.36 l
0.15 0.23 l
0.15 0.13 l
0.14 0.46 l
0.15 -1.28 l
0.14 0.92 l
0.15 0 l
0.14 0.23 l
0.15 -0.79 l
0.14 0.56 l
0.15 -0.46 l
0.15 0.23 l
0.14 0 l
0.15 -0.23 l
0.14 0.13 l
0.15 0.10 l
0.14 0.23 l
0.15 -0.23 l
0.15 -0.23 l
0.14 0.69 l
0.15 -0.56 l
0.14 0.33 l
0.15 0.46 l
0.14 -0.69 l
0.15 -0.23 l
0.14 0.36 l
0.15 0.10 l
0.15 0.46 l
0.14 -0.56 l
0.15 0.10 l
0.14 -0.56 l
0.15 0.69 l
0.14 -0.13 l
0.15 0 l
0.14 -0.10 l
0.15 0 l
0.15 0.10 l
0.14 0.23 l
currentpoint o m
367.99 506.96 lineto
0.14 -0.13 l
0.15 -0.56 l
0.14 0.69 l
0.15 -0.36 l
0.14 0.13 l
0.15 0.23 l
0.15 -0.13 l
0.14 0.13 l
0.15 0 l
0.14 0.23 l
0.15 0.10 l
0.14 -0.56 l
0.15 0.33 l
0.15 -0.56 l
0.14 0.56 l
0.15 -0.46 l
0.14 -0.23 l
0.15 0.82 l
0.14 0.10 l
0.15 -0.33 l
0.14 -0.13 l
0.15 0.36 l
0.15 -0.36 l
0.14 -0.23 l
0.15 0.59 l
0.14 0 l
0.15 -0.13 l
0.14 -0.33 l
0.15 1.03 l
0.14 -0.93 l
0.15 -0.10 l
0.15 0.23 l
0.14 0.46 l
0.15 -0.82 l
0.14 0.36 l
0.15 -0.59 l
0.14 0.69 l
0.15 -0.23 l
0.14 0.59 l
0.15 -0.36 l
0.15 -0.69 l
0.14 0.59 l
0.15 -0.23 l
0.14 -0.59 l
0.15 0.82 l
0.14 -0.36 l
0.15 0.36 l
0.15 0.23 l
0.14 -0.23 l
0.15 -0.46 l
0.14 0.56 l
0.15 -0.33 l
0.14 0.80 l
0.15 -0.80 l
0.14 0.10 l
0.15 0.23 l
0.15 -0.10 l
0.14 0.23 l
0.15 0 l
0.14 -0.46 l
0.15 0.69 l
0.14 -0.92 l
0.15 0.33 l
0.14 0 l
0.15 0.36 l
0.15 -0.23 l
0.14 0.10 l
0.15 -0.10 l
0.14 -0.13 l
0.15 0 l
0.14 0.36 l
0.15 -0.36 l
0.14 0.70 l
0.15 -0.57 l
0.15 0.46 l
0.14 -0.59 l
0.15 0.23 l
0.14 -0.23 l
0.15 0.36 l
0.14 -0.23 l
0.15 0.69 l
0.15 -1.15 l
0.14 0.79 l
0.15 0.13 l
0.14 0.23 l
0.15 -0.59 l
0.14 0.47 l
0.15 -0.47 l
0.14 -0.10 l
0.15 -0.13 l
0.15 0.59 l
0.14 -0.46 l
0.15 0 l
0.14 0.33 l
0.15 -0.92 l
0.14 0.59 l
0.15 0 l
0.14 0.10 l
0.15 0 l
o
/bg { 1 1 1 srgb } def
222.40 503.64 0.43 c p3
222.55 504.30 0.43 c p3
222.69 503.84 0.43 c p3
222.84 504.20 0.43 c p3
222.98 504.07 0.43 c p3
223.13 504.43 0.43 c p3
223.27 503.74 0.43 c p3
223.42 503.97 0.43 c p3
223.56 503.97 0.43 c p3
223.71 503.84 0.43 c p3
223.86 503.64 0.43 c p3
224.00 503.84 0.43 c p3
224.15 503.64 0.43 c p3
224.29 504.20 0.43 c p3
224.44 503.51 0.43 c p3
224.58 504.43 0.43 c p3
224.73 503.84 0.43 c p3
224.87 504.07 0.43 c p3
225.02 504.43 0.43 c p3
225.17 504.20 0.43 c p3
225.31 504.07 0.43 c p3
225.46 504.07 0.43 c p3
225.60 503.84 0.43 c p3
225.75 504.43 0.43 c p3
225.89 503.41 0.43 c p3
226.04 503.97 0.43 c p3
226.19 504.30 0.43 c p3
226.33 504.20 0.43 c p3
226.48 503.97 0.43 c p3
226.62 504.53 0.43 c p3
226.77 503.84 0.43 c p3
226.91 504.30 0.43 c p3
227.06 504.20 0.43 c p3
227.20 504.20 0.43 c p3
227.35 503.74 0.43 c p3
227.50 504.76 0.43 c p3
227.64 503.97 0.43 c p3
227.79 504.43 0.43 c p3
227.93 504.30 0.43 c p3
228.08 504.53 0.43 c p3
228.22 504.43 0.43 c p3
228.37 504.07 0.43 c p3
228.51 504.07 0.43 c p3
228.66 503.97 0.43 c p3
228.81 504.07 0.43 c p3
228.95 504.76 0.43 c p3
229.10 503.97 0.43 c p3
229.24 504.43 0.43 c p3
229.39 503.51 0.43 c p3
229.53 504.20 0.43 c p3
229.68 504.07 0.43 c p3
229.82 504.30 0.43 c p3
229.97 503.74 0.43 c p3
230.12 504.53 0.43 c p3
230.26 504.30 0.43 c p3
230.41 504.66 0.43 c p3
230.55 504.07 0.43 c p3
230.70 503.74 0.43 c p3
230.84 504.07 0.43 c p3
230.99 504.30 0.43 c p3
231.14 503.97 0.43 c p3
231.28 503.74 0.43 c p3
231.43 504.07 0.43 c p3
231.57 503.97 0.43 c p3
231.72 504.07 0.43 c p3
231.86 504.99 0.43 c p3
232.01 503.84 0.43 c p3
232.15 503.97 0.43 c p3
232.30 503.64 0.43 c p3
232.45 504.43 0.43 c p3
232.59 503.64 0.43 c p3
232.74 504.20 0.43 c p3
232.88 503.97 0.43 c p3
233.03 504.66 0.43 c p3
233.17 503.97 0.43 c p3
233.32 504.43 0.43 c p3
233.46 503.41 0.43 c p3
233.61 504.43 0.43 c p3
233.76 504.20 0.43 c p3
233.90 504.43 0.43 c p3
234.05 503.64 0.43 c p3
234.19 504.66 0.43 c p3
234.34 504.30 0.43 c p3
234.48 504.20 0.43 c p3
234.63 504.30 0.43 c p3
234.77 504.30 0.43 c p3
234.92 503.64 0.43 c p3
235.07 504.76 0.43 c p3
235.21 504.43 0.43 c p3
235.36 504.20 0.43 c p3
235.50 504.20 0.43 c p3
235.65 504.30 0.43 c p3
235.79 504.07 0.43 c p3
235.94 504.43 0.43 c p3
236.09 504.20 0.43 c p3
236.23 503.97 0.43 c p3
236.38 504.07 0.43 c p3
236.52 504.53 0.43 c p3
236.67 503.74 0.43 c p3
236.81 503.97 0.43 c p3
236.96 432.12 0.43 c p3
237.10 434.30 0.43 c p3
237.25 437.05 0.43 c p3
237.40 440.04 0.43 c p3
237.54 443.49 0.43 c p3
237.69 445.67 0.43 c p3
237.83 448.76 0.43 c p3
237.98 452.21 0.43 c p3
238.12 453.24 0.43 c p3
238.27 456.10 0.43 c p3
238.41 458.63 0.43 c p3
238.56 460.81 0.43 c p3
238.71 462.42 0.43 c p3
238.85 464.49 0.43 c p3
239.00 467.02 0.43 c p3
239.14 468.40 0.43 c p3
239.29 470.22 0.43 c p3
239.43 471.26 0.43 c p3
239.58 473.67 0.43 c p3
239.72 474.59 0.43 c p3
239.87 476.30 0.43 c p3
240.02 477.35 0.43 c p3
240.16 479.06 0.43 c p3
240.31 479.63 0.43 c p3
240.45 481.24 0.43 c p3
240.60 482.62 0.43 c p3
240.74 483.31 0.43 c p3
240.89 484.00 0.43 c p3
241.04 484.56 0.43 c p3
241.18 485.84 0.43 c p3
241.33 486.86 0.43 c p3
241.47 486.63 0.43 c p3
241.62 487.78 0.43 c p3
241.76 488.70 0.43 c p3
241.91 489.06 0.43 c p3
242.05 489.27 0.43 c p3
242.20 490.09 0.43 c p3
242.35 490.88 0.43 c p3
242.49 490.78 0.43 c p3
242.64 491.57 0.43 c p3
242.78 491.47 0.43 c p3
242.93 493.08 0.43 c p3
243.07 492.16 0.43 c p3
243.22 492.62 0.43 c p3
243.36 493.31 0.43 c p3
243.51 493.87 0.43 c p3
243.66 493.64 0.43 c p3
243.80 494.10 0.43 c p3
243.95 494.33 0.43 c p3
244.09 495.35 0.43 c p3
244.24 495.12 0.43 c p3
244.38 495.58 0.43 c p3
244.53 496.04 0.43 c p3
244.67 496.17 0.43 c p3
244.82 495.81 0.43 c p3
244.97 496.27 0.43 c p3
245.11 496.50 0.43 c p3
245.26 496.40 0.43 c p3
245.40 496.17 0.43 c p3
245.55 497.19 0.43 c p3
245.69 497.32 0.43 c p3
245.84 496.73 0.43 c p3
245.99 497.09 0.43 c p3
246.13 497.65 0.43 c p3
246.28 497.65 0.43 c p3
246.42 497.88 0.43 c p3
246.57 498.01 0.43 c p3
246.71 498.11 0.43 c p3
246.86 498.34 0.43 c p3
247.00 498.34 0.43 c p3
247.15 498.11 0.43 c p3
247.30 498.24 0.43 c p3
247.44 498.91 0.43 c p3
247.59 498.70 0.43 c p3
247.73 498.47 0.43 c p3
247.88 499.50 0.43 c p3
248.02 499.83 0.43 c p3
248.17 499.04 0.43 c p3
248.31 498.70 0.43 c p3
248.46 499.73 0.43 c p3
248.61 500.29 0.43 c p3
248.75 499.50 0.43 c p3
248.90 499.73 0.43 c p3
249.04 499.60 0.43 c p3
249.19 500.29 0.43 c p3
249.33 500.29 0.43 c p3
249.48 500.06 0.43 c p3
249.62 499.73 0.43 c p3
249.77 501.21 0.43 c p3
249.92 500.42 0.43 c p3
250.06 500.06 0.43 c p3
250.21 500.75 0.43 c p3
250.35 501.44 0.43 c p3
250.50 500.75 0.43 c p3
250.64 500.65 0.43 c p3
250.79 501.67 0.43 c p3
250.94 501.11 0.43 c p3
251.08 500.65 0.43 c p3
251.23 501.44 0.43 c p3
251.37 501.57 0.43 c p3
251.52 501.11 0.43 c p3
251.66 501.34 0.43 c p3
251.81 501.80 0.43 c p3
251.95 501.67 0.43 c p3
252.10 501.80 0.43 c p3
252.25 501.80 0.43 c p3
252.39 502.13 0.43 c p3
252.54 502.03 0.43 c p3
252.68 502.36 0.43 c p3
252.83 502.36 0.43 c p3
252.97 502.72 0.43 c p3
253.12 502.26 0.43 c p3
253.26 502.36 0.43 c p3
253.41 502.72 0.43 c p3
253.56 502.36 0.43 c p3
253.70 502.36 0.43 c p3
253.85 502.82 0.43 c p3
253.99 503.05 0.43 c p3
254.14 502.95 0.43 c p3
254.28 503.18 0.43 c p3
254.43 502.72 0.43 c p3
254.57 503.64 0.43 c p3
254.72 503.18 0.43 c p3
254.87 503.51 0.43 c p3
255.01 503.18 0.43 c p3
255.16 503.18 0.43 c p3
255.30 503.18 0.43 c p3
255.45 503.74 0.43 c p3
255.59 503.41 0.43 c p3
255.74 503.74 0.43 c p3
255.88 503.74 0.43 c p3
256.03 504.43 0.43 c p3
256.18 503.41 0.43 c p3
256.32 504.20 0.43 c p3
256.47 504.20 0.43 c p3
256.61 504.20 0.43 c p3
256.76 503.64 0.43 c p3
256.90 504.30 0.43 c p3
257.05 503.84 0.43 c p3
257.20 504.43 0.43 c p3
257.34 504.20 0.43 c p3
257.49 504.30 0.43 c p3
257.63 504.07 0.43 c p3
257.78 504.89 0.43 c p3
257.92 504.76 0.43 c p3
258.07 504.99 0.43 c p3
258.21 504.30 0.43 c p3
258.36 505.22 0.43 c p3
258.51 505.12 0.43 c p3
258.65 505.45 0.43 c p3
258.80 504.43 0.43 c p3
258.94 505.35 0.43 c p3
259.09 505.22 0.43 c p3
259.23 504.89 0.43 c p3
259.38 504.89 0.43 c p3
259.52 505.12 0.43 c p3
259.67 505.22 0.43 c p3
259.82 505.58 0.43 c p3
259.96 505.58 0.43 c p3
260.11 505.68 0.43 c p3
260.25 505.22 0.43 c p3
260.40 505.91 0.43 c p3
260.54 505.58 0.43 c p3
260.69 506.04 0.43 c p3
260.83 505.58 0.43 c p3
260.98 506.50 0.43 c p3
261.13 505.35 0.43 c p3
261.27 505.81 0.43 c p3
261.42 506.04 0.43 c p3
261.56 506.37 0.43 c p3
261.71 505.91 0.43 c p3
261.85 505.91 0.43 c p3
262.00 506.27 0.43 c p3
262.15 506.73 0.43 c p3
262.29 506.37 0.43 c p3
262.44 506.50 0.43 c p3
262.58 505.91 0.43 c p3
262.73 506.73 0.43 c p3
262.87 506.37 0.43 c p3
263.02 506.37 0.43 c p3
263.16 506.83 0.43 c p3
263.31 506.96 0.43 c p3
263.46 506.50 0.43 c p3
263.60 506.96 0.43 c p3
263.75 506.60 0.43 c p3
263.89 506.96 0.43 c p3
264.04 506.37 0.43 c p3
264.18 507.06 0.43 c p3
264.33 507.42 0.43 c p3
264.47 507.29 0.43 c p3
264.62 507.19 0.43 c p3
264.77 507.65 0.43 c p3
264.91 507.29 0.43 c p3
265.06 507.88 0.43 c p3
265.20 507.53 0.43 c p3
265.35 507.42 0.43 c p3
265.49 507.42 0.43 c p3
265.64 507.19 0.43 c p3
265.78 507.76 0.43 c p3
265.93 508.34 0.43 c p3
266.08 507.53 0.43 c p3
266.22 508.45 0.43 c p3
266.37 507.42 0.43 c p3
266.51 507.99 0.43 c p3
266.66 507.76 0.43 c p3
266.80 508.57 0.43 c p3
266.95 507.88 0.43 c p3
267.10 508.45 0.43 c p3
267.24 507.76 0.43 c p3
267.39 508.68 0.43 c p3
267.53 508.22 0.43 c p3
267.68 507.99 0.43 c p3
267.82 508.22 0.43 c p3
267.97 508.45 0.43 c p3
268.11 507.88 0.43 c p3
268.26 508.68 0.43 c p3
268.41 508.22 0.43 c p3
268.55 509.01 0.43 c p3
268.70 507.88 0.43 c p3
268.84 508.78 0.43 c p3
268.99 508.45 0.43 c p3
269.13 508.78 0.43 c p3
269.28 508.57 0.43 c p3
269.42 509.01 0.43 c p3
269.57 508.68 0.43 c p3
269.72 509.14 0.43 c p3
269.86 508.68 0.43 c p3
270.01 509.14 0.43 c p3
270.15 508.78 0.43 c p3
270.30 509.47 0.43 c p3
270.44 508.57 0.43 c p3
270.59 509.24 0.43 c p3
270.73 508.68 0.43 c p3
270.88 509.37 0.43 c p3
271.03 508.78 0.43 c p3
271.17 509.47 0.43 c p3
271.32 509.14 0.43 c p3
271.46 508.78 0.43 c p3
271.61 509.60 0.43 c p3
271.75 509.47 0.43 c p3
271.90 508.91 0.43 c p3
272.05 509.24 0.43 c p3
272.19 509.83 0.43 c p3
272.34 509.70 0.43 c p3
272.48 509.24 0.43 c p3
272.63 509.70 0.43 c p3
272.77 509.47 0.43 c p3
272.92 509.83 0.43 c p3
273.06 509.14 0.43 c p3
273.21 509.93 0.43 c p3
273.36 509.47 0.43 c p3
273.50 510.16 0.43 c p3
273.65 509.14 0.43 c p3
273.79 509.70 0.43 c p3
273.94 509.83 0.43 c p3
274.08 510.06 0.43 c p3
274.23 509.60 0.43 c p3
274.37 509.70 0.43 c p3
274.52 509.93 0.43 c p3
274.67 509.93 0.43 c p3
274.81 510.16 0.43 c p3
274.96 509.93 0.43 c p3
275.10 509.83 0.43 c p3
275.25 510.29 0.43 c p3
275.39 509.60 0.43 c p3
275.54 509.60 0.43 c p3
275.68 510.16 0.43 c p3
275.83 509.70 0.43 c p3
275.98 510.29 0.43 c p3
276.12 510.62 0.43 c p3
276.27 510.39 0.43 c p3
276.41 510.06 0.43 c p3
276.56 509.83 0.43 c p3
276.70 510.16 0.43 c p3
276.85 510.52 0.43 c p3
277.00 510.39 0.43 c p3
277.14 509.93 0.43 c p3
277.29 510.39 0.43 c p3
277.43 510.62 0.43 c p3
277.58 510.75 0.43 c p3
277.72 510.39 0.43 c p3
277.87 510.16 0.43 c p3
278.01 510.52 0.43 c p3
278.16 510.39 0.43 c p3
278.31 510.16 0.43 c p3
278.45 510.39 0.43 c p3
278.60 510.62 0.43 c p3
278.74 510.52 0.43 c p3
278.89 510.75 0.43 c p3
279.03 510.29 0.43 c p3
279.18 510.75 0.43 c p3
279.32 510.62 0.43 c p3
279.47 511.08 0.43 c p3
279.62 510.85 0.43 c p3
279.76 510.52 0.43 c p3
279.91 510.75 0.43 c p3
280.05 510.85 0.43 c p3
280.20 510.85 0.43 c p3
280.34 510.52 0.43 c p3
280.49 510.98 0.43 c p3
280.63 510.16 0.43 c p3
280.78 510.85 0.43 c p3
280.93 510.75 0.43 c p3
281.07 510.75 0.43 c p3
281.22 510.62 0.43 c p3
281.36 511.44 0.43 c p3
281.51 510.52 0.43 c p3
281.65 510.52 0.43 c p3
281.80 510.85 0.43 c p3
281.95 511.21 0.43 c p3
282.09 510.75 0.43 c p3
282.24 510.98 0.43 c p3
282.38 511.08 0.43 c p3
282.53 511.08 0.43 c p3
282.67 511.31 0.43 c p3
282.82 511.08 0.43 c p3
282.96 510.62 0.43 c p3
283.11 510.75 0.43 c p3
283.26 510.98 0.43 c p3
283.40 511.08 0.43 c p3
283.55 510.62 0.43 c p3
283.69 511.44 0.43 c p3
283.84 511.21 0.43 c p3
283.98 511.08 0.43 c p3
284.13 510.62 0.43 c p3
284.27 511.08 0.43 c p3
284.42 510.98 0.43 c p3
284.57 510.62 0.43 c p3
284.71 510.98 0.43 c p3
284.86 510.85 0.43 c p3
285.00 510.85 0.43 c p3
285.15 510.85 0.43 c p3
285.29 510.62 0.43 c p3
285.44 510.98 0.43 c p3
285.58 510.52 0.43 c p3
285.73 511.54 0.43 c p3
285.88 510.75 0.43 c p3
286.02 510.85 0.43 c p3
286.17 511.08 0.43 c p3
286.31 511.31 0.43 c p3
286.46 511.21 0.43 c p3
286.60 510.85 0.43 c p3
286.75 510.62 0.43 c p3
286.89 511.90 0.43 c p3
287.04 510.85 0.43 c p3
287.19 511.08 0.43 c p3
287.33 510.85 0.43 c p3
287.48 511.08 0.43 c p3
287.62 510.75 0.43 c p3
287.77 510.85 0.43 c p3
287.91 510.39 0.43 c p3
288.06 510.98 0.43 c p3
288.21 510.52 0.43 c p3
288.35 511.31 0.43 c p3
288.50 511.08 0.43 c p3
288.64 510.75 0.43 c p3
288.79 510.62 0.43 c p3
288.93 512.00 0.43 c p3
289.08 510.98 0.43 c p3
289.22 510.85 0.43 c p3
289.37 510.98 0.43 c p3
289.52 511.21 0.43 c p3
289.66 510.75 0.43 c p3
289.81 510.75 0.43 c p3
289.95 510.85 0.43 c p3
290.10 511.31 0.43 c p3
290.24 510.62 0.43 c p3
290.39 511.44 0.43 c p3
290.53 510.75 0.43 c p3
290.68 511.08 0.43 c p3
290.83 510.39 0.43 c p3
290.97 510.52 0.43 c p3
291.12 510.85 0.43 c p3
291.26 510.85 0.43 c p3
291.41 510.75 0.43 c p3
291.55 510.75 0.43 c p3
291.70 510.39 0.43 c p3
291.84 510.52 0.43 c p3
291.99 510.62 0.43 c p3
292.14 511.08 0.43 c p3
292.28 510.52 0.43 c p3
292.43 510.62 0.43 c p3
292.57 510.52 0.43 c p3
292.72 510.98 0.43 c p3
292.86 510.75 0.43 c p3
293.01 510.98 0.43 c p3
293.16 510.29 0.43 c p3
293.30 510.62 0.43 c p3
293.45 510.29 0.43 c p3
293.59 510.62 0.43 c p3
293.74 510.39 0.43 c p3
293.88 510.85 0.43 c p3
294.03 510.39 0.43 c p3
294.17 510.62 0.43 c p3
294.32 510.39 0.43 c p3
294.47 510.75 0.43 c p3
294.61 510.52 0.43 c p3
294.76 510.06 0.43 c p3
294.90 510.39 0.43 c p3
295.05 510.29 0.43 c p3
295.19 509.83 0.43 c p3
295.34 510.62 0.43 c p3
295.48 510.39 0.43 c p3
295.63 510.16 0.43 c p3
295.78 510.29 0.43 c p3
295.92 510.62 0.43 c p3
296.07 510.52 0.43 c p3
296.21 510.16 0.43 c p3
296.36 510.52 0.43 c p3
296.50 510.62 0.43 c p3
296.65 509.93 0.43 c p3
296.79 510.52 0.43 c p3
296.94 509.93 0.43 c p3
297.09 510.29 0.43 c p3
297.23 510.16 0.43 c p3
297.38 510.06 0.43 c p3
297.52 509.93 0.43 c p3
297.67 510.39 0.43 c p3
297.81 509.47 0.43 c p3
297.96 510.06 0.43 c p3
298.11 510.06 0.43 c p3
298.25 509.70 0.43 c p3
298.40 510.16 0.43 c p3
298.54 510.16 0.43 c p3
298.69 509.93 0.43 c p3
298.83 510.39 0.43 c p3
298.98 509.70 0.43 c p3
299.12 509.93 0.43 c p3
299.27 509.83 0.43 c p3
299.42 510.16 0.43 c p3
299.56 509.60 0.43 c p3
299.71 509.70 0.43 c p3
299.85 509.60 0.43 c p3
300.00 509.93 0.43 c p3
300.14 509.47 0.43 c p3
300.29 509.83 0.43 c p3
300.43 510.06 0.43 c p3
300.58 509.70 0.43 c p3
300.73 509.47 0.43 c p3
300.87 509.60 0.43 c p3
301.02 509.37 0.43 c p3
301.16 508.78 0.43 c p3
301.31 509.47 0.43 c p3
301.45 509.47 0.43 c p3
301.60 509.47 0.43 c p3
301.74 509.83 0.43 c p3
301.89 509.37 0.43 c p3
302.04 509.70 0.43 c p3
302.18 509.24 0.43 c p3
302.33 509.24 0.43 c p3
302.47 509.60 0.43 c p3
302.62 509.24 0.43 c p3
302.76 508.91 0.43 c p3
302.91 509.24 0.43 c p3
303.06 509.01 0.43 c p3
303.20 509.24 0.43 c p3
303.35 509.70 0.43 c p3
303.49 509.60 0.43 c p3
303.64 509.37 0.43 c p3
303.78 509.14 0.43 c p3
303.93 509.60 0.43 c p3
304.07 509.24 0.43 c p3
304.22 508.91 0.43 c p3
304.37 509.14 0.43 c p3
304.51 509.01 0.43 c p3
304.66 508.68 0.43 c p3
304.80 509.24 0.43 c p3
304.95 509.14 0.43 c p3
305.09 508.91 0.43 c p3
305.24 508.91 0.43 c p3
305.38 508.34 0.43 c p3
305.53 508.57 0.43 c p3
305.68 508.78 0.43 c p3
305.82 508.78 0.43 c p3
305.97 508.68 0.43 c p3
306.11 509.24 0.43 c p3
306.26 508.34 0.43 c p3
306.40 509.01 0.43 c p3
306.55 508.68 0.43 c p3
306.69 508.57 0.43 c p3
306.84 508.57 0.43 c p3
306.99 508.68 0.43 c p3
307.13 508.11 0.43 c p3
307.28 508.57 0.43 c p3
307.42 508.78 0.43 c p3
307.57 508.34 0.43 c p3
307.71 508.11 0.43 c p3
307.86 508.68 0.43 c p3
308.01 508.45 0.43 c p3
308.15 508.68 0.43 c p3
308.30 508.34 0.43 c p3
308.44 508.78 0.43 c p3
308.59 508.68 0.43 c p3
308.73 508.34 0.43 c p3
308.88 508.91 0.43 c p3
309.02 508.57 0.43 c p3
309.17 508.22 0.43 c p3
309.32 508.34 0.43 c p3
309.46 508.45 0.43 c p3
309.61 508.57 0.43 c p3
309.75 507.76 0.43 c p3
309.90 508.34 0.43 c p3
310.04 508.22 0.43 c p3
310.19 508.22 0.43 c p3
310.33 507.76 0.43 c p3
310.48 508.22 0.43 c p3
310.63 507.88 0.43 c p3
310.77 507.99 0.43 c p3
310.92 508.22 0.43 c p3
311.06 508.68 0.43 c p3
311.21 507.76 0.43 c p3
311.35 508.22 0.43 c p3
311.50 507.53 0.43 c p3
311.64 508.22 0.43 c p3
311.79 508.11 0.43 c p3
311.94 508.34 0.43 c p3
312.08 507.65 0.43 c p3
312.23 508.22 0.43 c p3
312.37 507.99 0.43 c p3
312.52 507.76 0.43 c p3
312.66 507.76 0.43 c p3
312.81 507.88 0.43 c p3
312.96 507.53 0.43 c p3
313.10 507.65 0.43 c p3
313.25 507.65 0.43 c p3
313.39 508.11 0.43 c p3
313.54 507.19 0.43 c p3
313.68 507.99 0.43 c p3
313.83 507.19 0.43 c p3
313.97 507.88 0.43 c p3
314.12 507.42 0.43 c p3
314.27 507.42 0.43 c p3
314.41 506.96 0.43 c p3
314.56 507.65 0.43 c p3
314.70 507.42 0.43 c p3
314.85 507.65 0.43 c p3
314.99 507.06 0.43 c p3
315.14 507.42 0.43 c p3
315.28 507.29 0.43 c p3
315.43 507.42 0.43 c p3
315.58 506.96 0.43 c p3
315.72 507.65 0.43 c p3
315.87 507.42 0.43 c p3
316.01 507.19 0.43 c p3
316.16 507.29 0.43 c p3
316.30 507.65 0.43 c p3
316.45 506.83 0.43 c p3
316.59 507.99 0.43 c p3
316.74 507.19 0.43 c p3
316.89 507.06 0.43 c p3
317.03 506.73 0.43 c p3
317.18 507.19 0.43 c p3
317.32 506.96 0.43 c p3
317.47 507.06 0.43 c p3
317.61 507.19 0.43 c p3
317.76 507.76 0.43 c p3
317.91 507.29 0.43 c p3
318.05 507.19 0.43 c p3
318.20 506.96 0.43 c p3
318.34 507.29 0.43 c p3
318.49 507.19 0.43 c p3
318.63 506.96 0.43 c p3
318.78 507.19 0.43 c p3
318.92 507.53 0.43 c p3
319.07 506.50 0.43 c p3
319.22 507.06 0.43 c p3
319.36 507.06 0.43 c p3
319.51 506.73 0.43 c p3
319.65 506.83 0.43 c p3
319.80 507.19 0.43 c p3
319.94 506.73 0.43 c p3
320.09 506.83 0.43 c p3
320.23 507.06 0.43 c p3
320.38 506.73 0.43 c p3
320.53 506.37 0.43 c p3
320.67 506.83 0.43 c p3
320.82 506.37 0.43 c p3
320.96 506.27 0.43 c p3
321.11 506.37 0.43 c p3
321.25 506.96 0.43 c p3
321.40 506.50 0.43 c p3
321.54 506.83 0.43 c p3
321.69 506.73 0.43 c p3
321.84 506.83 0.43 c p3
321.98 506.27 0.43 c p3
322.13 506.73 0.43 c p3
322.27 506.60 0.43 c p3
322.42 506.50 0.43 c p3
322.56 506.14 0.43 c p3
322.71 506.96 0.43 c p3
322.85 506.37 0.43 c p3
323.00 506.60 0.43 c p3
323.15 506.37 0.43 c p3
323.29 506.83 0.43 c p3
323.44 506.27 0.43 c p3
323.58 506.83 0.43 c p3
323.73 506.27 0.43 c p3
323.87 506.73 0.43 c p3
324.02 506.27 0.43 c p3
324.17 506.14 0.43 c p3
324.31 506.14 0.43 c p3
324.46 506.37 0.43 c p3
324.60 506.37 0.43 c p3
324.75 506.14 0.43 c p3
324.89 506.04 0.43 c p3
325.04 506.50 0.43 c p3
325.18 506.37 0.43 c p3
325.33 506.50 0.43 c p3
325.48 505.91 0.43 c p3
325.62 506.96 0.43 c p3
325.77 506.27 0.43 c p3
325.91 506.37 0.43 c p3
326.06 505.68 0.43 c p3
326.20 506.27 0.43 c p3
326.35 506.73 0.43 c p3
326.49 506.04 0.43 c p3
326.64 506.37 0.43 c p3
326.79 506.50 0.43 c p3
326.93 505.81 0.43 c p3
327.08 506.60 0.43 c p3
327.22 506.27 0.43 c p3
327.37 506.37 0.43 c p3
327.51 506.50 0.43 c p3
327.66 506.04 0.43 c p3
327.80 505.91 0.43 c p3
327.95 506.14 0.43 c p3
328.10 505.91 0.43 c p3
328.24 505.81 0.43 c p3
328.39 506.27 0.43 c p3
328.53 506.14 0.43 c p3
328.68 506.37 0.43 c p3
328.82 506.60 0.43 c p3
328.97 505.58 0.43 c p3
329.12 505.91 0.43 c p3
329.26 506.04 0.43 c p3
329.41 506.27 0.43 c p3
329.55 505.91 0.43 c p3
329.70 505.91 0.43 c p3
329.84 506.27 0.43 c p3
329.99 506.04 0.43 c p3
330.13 505.81 0.43 c p3
330.28 506.14 0.43 c p3
330.43 506.27 0.43 c p3
330.57 505.81 0.43 c p3
330.72 506.04 0.43 c p3
330.86 506.27 0.43 c p3
331.01 506.14 0.43 c p3
331.15 506.04 0.43 c p3
331.30 506.04 0.43 c p3
331.44 506.04 0.43 c p3
331.59 505.45 0.43 c p3
331.74 505.81 0.43 c p3
331.88 505.91 0.43 c p3
332.03 506.37 0.43 c p3
332.17 506.14 0.43 c p3
332.32 505.58 0.43 c p3
332.46 505.68 0.43 c p3
332.61 505.81 0.43 c p3
332.75 506.04 0.43 c p3
332.90 506.37 0.43 c p3
333.05 505.58 0.43 c p3
333.19 506.14 0.43 c p3
333.34 506.14 0.43 c p3
333.48 505.91 0.43 c p3
333.63 506.04 0.43 c p3
333.77 505.91 0.43 c p3
333.92 505.58 0.43 c p3
334.07 506.04 0.43 c p3
334.21 505.91 0.43 c p3
334.36 505.91 0.43 c p3
334.50 505.58 0.43 c p3
334.65 506.27 0.43 c p3
334.79 505.22 0.43 c p3
334.94 505.58 0.43 c p3
335.08 505.68 0.43 c p3
335.23 506.14 0.43 c p3
335.38 506.14 0.43 c p3
335.52 505.91 0.43 c p3
335.67 505.68 0.43 c p3
335.81 506.27 0.43 c p3
335.96 506.14 0.43 c p3
336.10 505.81 0.43 c p3
336.25 505.91 0.43 c p3
336.39 506.14 0.43 c p3
336.54 505.81 0.43 c p3
336.69 505.91 0.43 c p3
336.83 505.81 0.43 c p3
336.98 506.37 0.43 c p3
337.12 504.66 0.43 c p3
337.27 506.04 0.43 c p3
337.41 505.68 0.43 c p3
337.56 506.14 0.43 c p3
337.70 505.58 0.43 c p3
337.85 506.14 0.43 c p3
338.00 506.04 0.43 c p3
338.14 505.91 0.43 c p3
338.29 505.68 0.43 c p3
338.43 505.91 0.43 c p3
338.58 505.68 0.43 c p3
338.72 505.58 0.43 c p3
338.87 505.68 0.43 c p3
339.02 506.14 0.43 c p3
339.16 506.04 0.43 c p3
339.31 506.27 0.43 c p3
339.45 505.91 0.43 c p3
339.60 506.37 0.43 c p3
339.74 505.45 0.43 c p3
339.89 505.81 0.43 c p3
340.03 505.91 0.43 c p3
340.18 505.81 0.43 c p3
340.33 506.14 0.43 c p3
340.47 506.04 0.43 c p3
340.62 506.04 0.43 c p3
340.76 505.91 0.43 c p3
340.91 506.04 0.43 c p3
341.05 506.14 0.43 c p3
341.20 505.68 0.43 c p3
341.34 505.68 0.43 c p3
341.49 505.91 0.43 c p3
341.64 505.91 0.43 c p3
341.78 505.68 0.43 c p3
341.93 505.45 0.43 c p3
342.07 505.58 0.43 c p3
342.22 505.68 0.43 c p3
342.36 505.68 0.43 c p3
342.51 505.81 0.43 c p3
342.65 505.68 0.43 c p3
342.80 506.14 0.43 c p3
342.95 505.81 0.43 c p3
343.09 505.81 0.43 c p3
343.24 505.81 0.43 c p3
343.38 506.04 0.43 c p3
343.53 505.45 0.43 c p3
343.67 506.14 0.43 c p3
343.82 505.91 0.43 c p3
343.97 506.04 0.43 c p3
344.11 505.81 0.43 c p3
344.26 506.27 0.43 c p3
344.40 506.04 0.43 c p3
344.55 505.81 0.43 c p3
344.69 505.91 0.43 c p3
344.84 506.27 0.43 c p3
344.98 506.04 0.43 c p3
345.13 505.58 0.43 c p3
345.28 505.22 0.43 c p3
345.42 506.04 0.43 c p3
345.57 505.68 0.43 c p3
345.71 506.14 0.43 c p3
345.86 505.81 0.43 c p3
346.00 506.27 0.43 c p3
346.15 505.81 0.43 c p3
346.29 506.14 0.43 c p3
346.44 506.83 0.43 c p3
346.59 506.04 0.43 c p3
346.73 505.58 0.43 c p3
346.88 506.04 0.43 c p3
347.02 506.04 0.43 c p3
347.17 505.81 0.43 c p3
347.31 505.58 0.43 c p3
347.46 505.91 0.43 c p3
347.60 505.81 0.43 c p3
347.75 506.27 0.43 c p3
347.90 505.58 0.43 c p3
348.04 506.50 0.43 c p3
348.19 505.91 0.43 c p3
348.33 505.81 0.43 c p3
348.48 505.81 0.43 c p3
348.62 505.68 0.43 c p3
348.77 505.91 0.43 c p3
348.92 506.60 0.43 c p3
349.06 506.04 0.43 c p3
349.21 506.14 0.43 c p3
349.35 505.81 0.43 c p3
349.50 506.37 0.43 c p3
349.64 506.04 0.43 c p3
349.79 505.91 0.43 c p3
349.93 505.81 0.43 c p3
350.08 506.27 0.43 c p3
350.23 506.14 0.43 c p3
350.37 505.91 0.43 c p3
350.52 506.04 0.43 c p3
350.66 506.60 0.43 c p3
350.81 505.45 0.43 c p3
350.95 506.83 0.43 c p3
351.10 506.14 0.43 c p3
351.24 506.14 0.43 c p3
351.39 505.91 0.43 c p3
351.54 506.04 0.43 c p3
351.68 506.04 0.43 c p3
351.83 506.04 0.43 c p3
351.97 506.04 0.43 c p3
352.12 506.27 0.43 c p3
352.26 506.14 0.43 c p3
352.41 506.27 0.43 c p3
352.55 506.14 0.43 c p3
352.70 506.14 0.43 c p3
352.85 505.81 0.43 c p3
352.99 506.14 0.43 c p3
353.14 505.91 0.43 c p3
353.28 506.14 0.43 c p3
353.43 506.14 0.43 c p3
353.57 506.04 0.43 c p3
353.72 505.35 0.43 c p3
353.86 506.73 0.43 c p3
354.01 506.14 0.43 c p3
354.16 506.14 0.43 c p3
354.30 506.27 0.43 c p3
354.45 506.04 0.43 c p3
354.59 505.91 0.43 c p3
354.74 506.60 0.43 c p3
354.88 506.27 0.43 c p3
355.03 506.50 0.43 c p3
355.18 506.14 0.43 c p3
355.32 506.37 0.43 c p3
355.47 506.14 0.43 c p3
355.61 506.73 0.43 c p3
355.76 506.14 0.43 c p3
355.90 506.73 0.43 c p3
356.05 506.14 0.43 c p3
356.19 506.14 0.43 c p3
356.34 506.73 0.43 c p3
356.49 506.50 0.43 c p3
356.63 506.14 0.43 c p3
356.78 505.91 0.43 c p3
356.92 506.27 0.43 c p3
357.07 506.37 0.43 c p3
357.21 505.81 0.43 c p3
357.36 506.83 0.43 c p3
357.50 506.04 0.43 c p3
357.65 506.14 0.43 c p3
357.80 505.68 0.43 c p3
357.94 506.73 0.43 c p3
358.09 505.91 0.43 c p3
358.23 506.60 0.43 c p3
358.38 506.60 0.43 c p3
358.52 506.73 0.43 c p3
358.67 506.37 0.43 c p3
358.81 506.83 0.43 c p3
358.96 506.60 0.43 c p3
359.11 506.73 0.43 c p3
359.25 505.91 0.43 c p3
359.40 506.50 0.43 c p3
359.54 506.37 0.43 c p3
359.69 506.37 0.43 c p3
359.83 506.73 0.43 c p3
359.98 507.06 0.43 c p3
360.13 506.14 0.43 c p3
360.27 506.50 0.43 c p3
360.42 506.73 0.43 c p3
360.56 506.60 0.43 c p3
360.71 506.27 0.43 c p3
360.85 506.73 0.43 c p3
361.00 506.83 0.43 c p3
361.14 506.37 0.43 c p3
361.29 506.50 0.43 c p3
361.44 506.50 0.43 c p3
361.58 506.37 0.43 c p3
361.73 506.60 0.43 c p3
361.87 506.14 0.43 c p3
362.02 507.29 0.43 c p3
362.16 507.06 0.43 c p3
362.31 506.73 0.43 c p3
362.45 506.37 0.43 c p3
362.60 506.60 0.43 c p3
362.75 506.73 0.43 c p3
362.89 507.19 0.43 c p3
363.04 505.91 0.43 c p3
363.18 506.83 0.43 c p3
363.33 506.83 0.43 c p3
363.47 507.06 0.43 c p3
363.62 506.27 0.43 c p3
363.76 506.83 0.43 c p3
363.91 506.37 0.43 c p3
364.06 506.60 0.43 c p3
364.20 506.60 0.43 c p3
364.35 506.37 0.43 c p3
364.49 506.50 0.43 c p3
364.64 506.60 0.43 c p3
364.78 506.83 0.43 c p3
364.93 506.60 0.43 c p3
365.08 506.37 0.43 c p3
365.22 507.06 0.43 c p3
365.37 506.50 0.43 c p3
365.51 506.83 0.43 c p3
365.66 507.29 0.43 c p3
365.80 506.60 0.43 c p3
365.95 506.37 0.43 c p3
366.09 506.73 0.43 c p3
366.24 506.83 0.43 c p3
366.39 507.29 0.43 c p3
366.53 506.73 0.43 c p3
366.68 506.83 0.43 c p3
366.82 506.27 0.43 c p3
366.97 506.96 0.43 c p3
367.11 506.83 0.43 c p3
367.26 506.83 0.43 c p3
367.40 506.73 0.43 c p3
367.55 506.73 0.43 c p3
367.70 506.83 0.43 c p3
367.84 507.06 0.43 c p3
367.99 506.96 0.43 c p3
368.13 506.83 0.43 c p3
368.28 506.27 0.43 c p3
368.42 506.96 0.43 c p3
368.57 506.60 0.43 c p3
368.71 506.73 0.43 c p3
368.86 506.96 0.43 c p3
369.01 506.83 0.43 c p3
369.15 506.96 0.43 c p3
369.30 506.96 0.43 c p3
369.44 507.19 0.43 c p3
369.59 507.29 0.43 c p3
369.73 506.73 0.43 c p3
369.88 507.06 0.43 c p3
370.03 506.50 0.43 c p3
370.17 507.06 0.43 c p3
370.32 506.60 0.43 c p3
370.46 506.37 0.43 c p3
370.61 507.19 0.43 c p3
370.75 507.29 0.43 c p3
370.90 506.96 0.43 c p3
371.04 506.83 0.43 c p3
371.19 507.19 0.43 c p3
371.34 506.83 0.43 c p3
371.48 506.60 0.43 c p3
371.63 507.19 0.43 c p3
371.77 507.19 0.43 c p3
371.92 507.06 0.43 c p3
372.06 506.73 0.43 c p3
372.21 507.76 0.43 c p3
372.35 506.83 0.43 c p3
372.50 506.73 0.43 c p3
372.65 506.96 0.43 c p3
372.79 507.42 0.43 c p3
372.94 506.60 0.43 c p3
373.08 506.96 0.43 c p3
373.23 506.37 0.43 c p3
373.37 507.06 0.43 c p3
373.52 506.83 0.43 c p3
373.66 507.42 0.43 c p3
373.81 507.06 0.43 c p3
373.96 506.37 0.43 c p3
374.10 506.96 0.43 c p3
374.25 506.73 0.43 c p3
374.39 506.14 0.43 c p3
374.54 506.96 0.43 c p3
374.68 506.60 0.43 c p3
374.83 506.96 0.43 c p3
374.98 507.19 0.43 c p3
375.12 506.96 0.43 c p3
375.27 506.50 0.43 c p3
375.41 507.06 0.43 c p3
375.56 506.73 0.43 c p3
375.70 507.53 0.43 c p3
375.85 506.73 0.43 c p3
375.99 506.83 0.43 c p3
376.14 507.06 0.43 c p3
376.29 506.96 0.43 c p3
376.43 507.19 0.43 c p3
376.58 507.19 0.43 c p3
376.72 506.73 0.43 c p3
376.87 507.42 0.43 c p3
377.01 506.50 0.43 c p3
377.16 506.83 0.43 c p3
377.30 506.83 0.43 c p3
377.45 507.19 0.43 c p3
377.60 506.96 0.43 c p3
377.74 507.06 0.43 c p3
377.89 506.96 0.43 c p3
378.03 506.83 0.43 c p3
378.18 506.83 0.43 c p3
378.32 507.19 0.43 c p3
378.47 506.83 0.43 c p3
378.61 507.53 0.43 c p3
378.76 506.96 0.43 c p3
378.91 507.42 0.43 c p3
379.05 506.83 0.43 c p3
379.20 507.06 0.43 c p3
379.34 506.83 0.43 c p3
379.49 507.19 0.43 c p3
379.63 506.96 0.43 c p3
379.78 507.65 0.43 c p3
379.93 506.50 0.43 c p3
380.07 507.29 0.43 c p3
380.22 507.42 0.43 c p3
380.36 507.65 0.43 c p3
380.51 507.06 0.43 c p3
380.65 507.53 0.43 c p3
380.80 507.06 0.43 c p3
380.94 506.96 0.43 c p3
381.09 506.83 0.43 c p3
381.24 507.42 0.43 c p3
381.38 506.96 0.43 c p3
381.53 506.96 0.43 c p3
381.67 507.29 0.43 c p3
381.82 506.37 0.43 c p3
381.96 506.96 0.43 c p3
382.11 506.96 0.43 c p3
382.25 507.06 0.43 c p3
382.40 507.06 0.43 c p3
0.00 0.00 432.00 576.00 cl
0 0 0 srgb
0.75 setlinewidth
[] 0 setdash
1 setlinecap
1 setlinejoin
10.00 setmiterlimit
np
236.96 345.60 m
145.59 0 l
o
np
236.96 345.60 m
0 -5.76 l
o
np
266.08 345.60 m
0 -5.76 l
o
np
295.19 345.60 m
0 -5.76 l
o
np
324.31 345.60 m
0 -5.76 l
o
np
353.43 345.60 m
0 -5.76 l
o
np
382.55 345.60 m
0 -5.76 l
o
/Font1 findfont 10 s
236.96 329.47 (0) .5 0 t
266.08 329.47 (2000) .5 0 t
324.31 329.47 (6000) .5 0 t
382.55 329.47 (10000) .5 0 t
np
216.00 352.00 m
0 157.11 l
o
np
216.00 352.00 m
-5.76 0 l
o
np
216.00 404.37 m
-5.76 0 l
o
np
216.00 456.74 m
-5.76 0 l
o
np
216.00 509.11 m
-5.76 0 l
o
209.09 348.41 (0.0) 1 0 t
209.09 400.78 (0.5) 1 0 t
209.09 453.15 (1.0) 1 0 t
209.09 505.52 (1.5) 1 0 t
np
216.00 345.60 m
172.80 0 l
0 172.80 l
-172.80 0 l
0 -172.80 l
o
0.00 0.00 432.00 576.00 cl
/Font1 findfont 10 s
0 0 0 srgb
302.40 313.34 (Zeit / ms \(total\)) .5 0 t
190.66 432.00 (U / V) .5 90 t
216.00 345.60 388.80 518.40 cl
0 0 0 srgb
0.38 setlinewidth
[ 1.12 1.88] 0 setdash
1 setlinecap
1 setlinejoin
10.00 setmiterlimit
np
223.27 345.60 m
0 172.80 l
o
np
234.63 345.60 m
0 172.80 l
o
np
237.83 345.60 m
0 172.80 l
o
np
250.94 345.60 m
0 172.80 l
o
86.40 57.60 388.80 288.00 cl
1 0 0 srgb
1.50 setlinewidth
[] 0 setdash
1 setlinecap
1 setlinejoin
10.00 setmiterlimit
np
97.60 279.47 m
1.41 -53.49 l
1.40 -39.50 l
1.41 -29.19 l
1.41 -21.56 l
1.41 -15.92 l
1.40 -11.77 l
1.41 -8.69 l
1.41 -6.42 l
1.40 -4.74 l
1.41 -3.51 l
1.41 -2.59 l
1.40 -1.91 l
1.41 -1.41 l
1.41 -1.04 l
1.41 -0.77 l
1.40 -0.57 l
1.41 -0.42 l
1.41 -0.32 l
1.40 -0.22 l
1.41 -0.17 l
1.41 -0.13 l
1.40 -0.09 l
1.41 -0.07 l
1.41 -0.05 l
1.41 -0.04 l
1.40 -0.03 l
1.41 -0.02 l
1.41 -0.01 l
1.40 -0.01 l
1.41 -0.01 l
1.41 -0.01 l
1.41 0 l
1.40 0 l
1.41 -0.01 l
1.41 0 l
1.40 0 l
1.41 0 l
1.41 0 l
1.40 0 l
1.41 0 l
1.41 0 l
1.41 0 l
1.40 0 l
1.41 0 l
1.41 0 l
1.40 0 l
1.41 0 l
1.41 0 l
1.40 0 l
1.41 0 l
1.41 0 l
1.41 0 l
1.40 0 l
1.41 0 l
1.41 0 l
1.40 0 l
1.41 0 l
1.41 0 l
1.41 0 l
1.40 0 l
1.41 0 l
1.41 0 l
1.40 0 l
1.41 0 l
1.41 0 l
1.40 0 l
1.41 0 l
1.41 0 l
1.41 0 l
1.40 0 l
1.41 0 l
1.41 0 l
1.40 0 l
1.41 0 l
1.41 0 l
1.40 0 l
1.41 0 l
1.41 0 l
1.41 0 l
1.40 0 l
1.41 0 l
1.41 0 l
1.40 0 l
1.41 0 l
1.41 0 l
1.41 0 l
1.40 0 l
1.41 0 l
1.41 0 l
1.40 0 l
1.41 0 l
1.41 0 l
1.40 0 l
1.41 0 l
1.41 0 l
1.41 0 l
1.40 0 l
1.41 0 l
1.41 0 l
238.30 74.78 lineto
1.41 0 l
1.41 0 l
1.40 0 l
1.41 0 l
1.41 0 l
1.41 0 l
1.40 0 l
1.41 0 l
1.41 0 l
1.40 0 l
1.41 0 l
1.41 0 l
1.40 0 l
1.41 0 l
1.41 0 l
1.41 0 l
1.40 0 l
1.41 0 l
1.41 0 l
1.40 0 l
1.41 0 l
1.41 0 l
1.41 0 l
1.40 0 l
1.41 0 l
1.41 0 l
1.40 0 l
1.41 0 l
1.41 0 l
1.40 0 l
1.41 0 l
1.41 0 l
1.41 0 l
1.40 0 l
1.41 0 l
1.41 0 l
1.40 0 l
1.41 0 l
1.41 0 l
1.40 0 l
1.41 0 l
1.41 0 l
1.41 0 l
1.40 0 l
1.41 0 l
1.41 0 l
1.40 0 l
1.41 0 l
1.41 0 l
1.41 0 l
1.40 0 l
1.41 0 l
1.41 0 l
1.40 0 l
1.41 0 l
1.41 0 l
1.40 0 l
1.41 0 l
1.41 0 l
1.41 0 l
1.40 0 l
1.41 0 l
1.41 0 l
1.40 0 l
1.41 0 l
1.41 0 l
1.40 0 l
1.41 0 l
1.41 0 l
1.41 0 l
1.40 0 l
1.41 0 l
1.41 0 l
1.40 0 l
1.41 0 l
1.41 0 l
1.41 0 l
1.40 0 l
1.41 0 l
1.41 0 l
1.40 0 l
1.41 0 l
1.41 0 l
1.40 0 l
1.41 0 l
1.41 0 l
1.41 0 l
1.40 0 l
1.41 0 l
1.41 0 l
1.40 0 l
1.41 0 l
1.41 0 l
1.40 0 l
1.41 0 l
1.41 0 l
1.41 0 l
1.40 0 l
1.41 0 l
o
0.00 0.00 432.00 576.00 cl
0 0 0 srgb
0.75 setlinewidth
[] 0 setdash
1 setlinecap
1 setlinejoin
10.00 setmiterlimit
np
97.60 57.60 m
280.00 0 l
o
np
97.60 57.60 m
0 -5.76 l
o
np
153.60 57.60 m
0 -5.76 l
o
np
209.60 57.60 m
0 -5.76 l
o
np
265.60 57.60 m
0 -5.76 l
o
np
321.60 57.60 m
0 -5.76 l
o
np
377.60 57.60 m
0 -5.76 l
o
/Font1 findfont 10 s
97.60 41.47 (0) .5 0 t
153.60 41.47 (2000) .5 0 t
209.60 41.47 (4000) .5 0 t
265.60 41.47 (6000) .5 0 t
321.60 41.47 (8000) .5 0 t
377.60 41.47 (10000) .5 0 t
np
86.40 66.13 m
0 221.80 l
o
np
86.40 66.13 m
-5.76 0 l
o
np
86.40 103.10 m
-5.76 0 l
o
np
86.40 140.07 m
-5.76 0 l
o
np
86.40 177.03 m
-5.76 0 l
o
np
86.40 214.00 m
-5.76 0 l
o
np
86.40 250.96 m
-5.76 0 l
o
np
86.40 287.93 m
-5.76 0 l
o
79.49 62.54 (0.00) 1 0 t
79.49 99.51 (0.05) 1 0 t
79.49 136.48 (0.10) 1 0 t
79.49 173.44 (0.15) 1 0 t
79.49 210.41 (0.20) 1 0 t
79.49 247.37 (0.25) 1 0 t
79.49 284.34 (0.30) 1 0 t
np
86.40 57.60 m
302.40 0 l
0 230.40 l
-302.40 0 l
0 -230.40 l
o
0.00 0.00 432.00 576.00 cl
/Font1 findfont 10 s
0 0 0 srgb
237.60 13.82 (Zeit / ms \(nach Puls\)) .5 0 t
49.54 172.80 (Absorbanz A) .5 90 t
86.40 57.60 388.80 288.00 cl
/bg { 1 1 1 srgb } def
0 0 0 srgb
0.75 setlinewidth
[] 0 setdash
1 setlinecap
1 setlinejoin
10.00 setmiterlimit
99.56 211.38 0.65 c p3
99.84 200.12 0.65 c p3
100.12 196.86 0.65 c p3
100.40 187.91 0.65 c p3
100.68 180.19 0.65 c p3
100.96 173.71 0.65 c p3
101.24 168.99 0.65 c p3
101.52 163.03 0.65 c p3
101.80 155.88 0.65 c p3
102.08 152.05 0.65 c p3
102.36 147.08 0.65 c p3
102.64 144.24 0.65 c p3
102.92 137.84 0.65 c p3
103.20 135.42 0.65 c p3
103.48 130.96 0.65 c p3
103.76 128.26 0.65 c p3
104.04 123.90 0.65 c p3
104.32 122.49 0.65 c p3
104.60 118.46 0.65 c p3
104.88 115.05 0.65 c p3
105.16 113.35 0.65 c p3
105.44 111.67 0.65 c p3
105.72 110.30 0.65 c p3
106.00 107.22 0.65 c p3
106.28 104.78 0.65 c p3
106.56 105.33 0.65 c p3
106.84 102.59 0.65 c p3
107.12 100.42 0.65 c p3
107.40 99.58 0.65 c p3
107.68 99.11 0.65 c p3
107.96 97.20 0.65 c p3
108.24 95.36 0.65 c p3
108.52 95.60 0.65 c p3
108.80 93.77 0.65 c p3
109.08 94.00 0.65 c p3
109.36 90.31 0.65 c p3
109.64 92.42 0.65 c p3
109.92 91.36 0.65 c p3
110.20 89.79 0.65 c p3
110.48 88.52 0.65 c p3
110.76 89.04 0.65 c p3
111.04 88.00 0.65 c p3
111.32 87.48 0.65 c p3
111.60 85.18 0.65 c p3
111.88 85.69 0.65 c p3
112.16 84.66 0.65 c p3
112.44 83.63 0.65 c p3
112.72 83.35 0.65 c p3
113.00 84.15 0.65 c p3
113.28 83.12 0.65 c p3
113.56 82.61 0.65 c p3
113.84 82.84 0.65 c p3
114.12 83.35 0.65 c p3
114.40 81.08 0.65 c p3
114.68 80.80 0.65 c p3
114.96 82.10 0.65 c p3
115.24 81.31 0.65 c p3
115.52 80.06 0.65 c p3
115.80 80.06 0.65 c p3
116.08 79.56 0.65 c p3
116.36 79.27 0.65 c p3
116.64 79.05 0.65 c p3
116.92 78.54 0.65 c p3
117.20 78.54 0.65 c p3
117.48 79.05 0.65 c p3
117.76 78.77 0.65 c p3
118.04 77.31 0.65 c p3
118.32 77.76 0.65 c p3
118.60 78.26 0.65 c p3
118.88 76.03 0.65 c p3
119.16 75.31 0.65 c p3
119.44 77.03 0.65 c p3
119.72 77.76 0.65 c p3
120.00 75.53 0.65 c p3
120.28 74.31 0.65 c p3
120.56 76.03 0.65 c p3
120.84 75.53 0.65 c p3
121.12 75.81 0.65 c p3
121.40 74.31 0.65 c p3
121.68 74.31 0.65 c p3
121.96 74.81 0.65 c p3
122.24 75.53 0.65 c p3
122.52 72.32 0.65 c p3
122.80 74.03 0.65 c p3
123.08 74.81 0.65 c p3
123.36 73.31 0.65 c p3
123.64 71.83 0.65 c p3
123.92 73.31 0.65 c p3
124.20 73.53 0.65 c p3
124.48 71.33 0.65 c p3
124.76 72.54 0.65 c p3
216.00 201.60 367.20 247.68 cl
0 0 0 srgb
0.75 setlinewidth
[] 0 setdash
1 setlinecap
1 setlinejoin
10.00 setmiterlimit
221.60 232.89 0.43 c p1
223.16 221.00 0.43 c p1
224.71 235.43 0.43 c p1
226.27 228.45 0.43 c p1
227.82 224.39 0.43 c p1
229.38 223.31 0.43 c p1
230.93 227.11 0.43 c p1
232.49 225.37 0.43 c p1
234.04 218.40 0.43 c p1
235.60 221.95 0.43 c p1
237.16 220.53 0.43 c p1
238.71 225.64 0.43 c p1
240.27 217.40 0.43 c p1
241.82 222.25 0.43 c p1
243.38 219.21 0.43 c p1
244.93 221.58 0.43 c p1
246.49 217.47 0.43 c p1
248.04 222.97 0.43 c p1
249.60 218.74 0.43 c p1
251.16 216.09 0.43 c p1
252.71 218.91 0.43 c p1
254.27 221.24 0.43 c p1
255.82 224.21 0.43 c p1
257.38 220.73 0.43 c p1
258.93 219.04 0.43 c p1
260.49 227.41 0.43 c p1
262.04 223.95 0.43 c p1
263.60 222.09 0.43 c p1
265.16 224.55 0.43 c p1
266.71 227.95 0.43 c p1
268.27 226.06 0.43 c p1
269.82 224.14 0.43 c p1
271.38 229.20 0.43 c p1
272.93 226.80 0.43 c p1
274.49 231.37 0.43 c p1
276.04 222.03 0.43 c p1
277.60 232.69 0.43 c p1
279.16 232.15 0.43 c p1
280.71 229.61 0.43 c p1
282.27 227.93 0.43 c p1
283.82 232.36 0.43 c p1
285.38 231.18 0.43 c p1
286.93 231.69 0.43 c p1
288.49 225.84 0.43 c p1
290.04 229.69 0.43 c p1
291.60 228.03 0.43 c p1
293.16 226.26 0.43 c p1
294.71 226.98 0.43 c p1
296.27 231.38 0.43 c p1
297.82 229.32 0.43 c p1
299.38 228.96 0.43 c p1
300.93 231.10 0.43 c p1
302.49 234.16 0.43 c p1
304.04 227.43 0.43 c p1
305.60 227.56 0.43 c p1
307.16 233.17 0.43 c p1
308.71 231.40 0.43 c p1
310.27 228.00 0.43 c p1
311.82 228.88 0.43 c p1
313.38 227.94 0.43 c p1
314.93 227.74 0.43 c p1
316.49 227.69 0.43 c p1
318.04 226.62 0.43 c p1
319.60 227.28 0.43 c p1
321.16 229.66 0.43 c p1
322.71 229.26 0.43 c p1
324.27 224.71 0.43 c p1
325.82 226.79 0.43 c p1
327.38 229.04 0.43 c p1
328.93 221.69 0.43 c p1
330.49 219.59 0.43 c p1
332.04 226.02 0.43 c p1
333.60 228.94 0.43 c p1
335.16 221.51 0.43 c p1
336.71 217.58 0.43 c p1
338.27 223.91 0.43 c p1
339.82 222.46 0.43 c p1
341.38 223.71 0.43 c p1
342.93 218.75 0.43 c p1
344.49 218.99 0.43 c p1
346.04 220.97 0.43 c p1
347.60 223.71 0.43 c p1
349.16 212.72 0.43 c p1
350.71 218.89 0.43 c p1
352.27 221.78 0.43 c p1
353.82 216.74 0.43 c p1
355.38 211.71 0.43 c p1
356.93 217.05 0.43 c p1
358.49 217.97 0.43 c p1
360.04 210.42 0.43 c p1
361.60 214.77 0.43 c p1
0.00 0.00 432.00 576.00 cl
0 0 0 srgb
0.75 setlinewidth
[] 0 setdash
1 setlinecap
1 setlinejoin
10.00 setmiterlimit
np
241.82 201.60 m
124.45 0 l
o
np
241.82 201.60 m
0 -5.76 l
o
np
272.93 201.60 m
0 -5.76 l
o
np
304.04 201.60 m
0 -5.76 l
o
np
335.16 201.60 m
0 -5.76 l
o
np
366.27 201.60 m
0 -5.76 l
o
/Font1 findfont 6 s
241.82 185.47 (200) .5 0 t
272.93 185.47 (400) .5 0 t
304.04 185.47 (600) .5 0 t
335.16 185.47 (800) .5 0 t
366.27 185.47 (1000) .5 0 t
np
216.00 211.73 m
0 25.82 l
o
np
216.00 211.73 m
-5.76 0 l
o
np
216.00 224.64 m
-5.76 0 l
o
np
216.00 237.55 m
-5.76 0 l
o
209.09 209.58 (-0.005) 1 0 t
209.09 222.49 (0.000) 1 0 t
209.09 235.40 (0.005) 1 0 t
np
216.00 201.60 m
151.20 0 l
0 46.08 l
-151.20 0 l
0 -46.08 l
o
0.00 0.00 432.00 576.00 cl
/Font1 findfont 9 s
0 0 0 srgb
291.60 262.88 (Residuen) .5 0 t
59.04 73.44 401.76 516.96 cl
ep
%%Trailer
%%Pages: 1
%%EOF
