%!PS-Adobe-3.0 EPSF-3.0
%%DocumentNeededResources: font Helvetica
%%+ font Helvetica-Bold
%%+ font Helvetica-Oblique
%%+ font Helvetica-BoldOblique
%%+ font Symbol
%%Title: R Graphics Output
%%Creator: R Software
%%Pages: (atend)
%%BoundingBox: 0 0 432 576
%%EndComments
%%BeginProlog
/bp  { gs sRGB gs } def
% begin .ps.prolog
/gs  { gsave } bind def
/gr  { grestore } bind def
/ep  { showpage gr gr } bind def
/m   { moveto } bind def
/l  { rlineto } bind def
/np  { newpath } bind def
/cp  { closepath } bind def
/f   { fill } bind def
/o   { stroke } bind def
/c   { newpath 0 360 arc } bind def
/r   { 4 2 roll moveto 1 copy 3 -1 roll exch 0 exch rlineto 0 rlineto -1 mul 0 exch rlineto closepath } bind def
/p1  { stroke } bind def
/p2  { gsave bg fill grestore newpath } bind def
/p3  { gsave bg fill grestore stroke } bind def
/p6  { gsave bg eofill grestore newpath } bind def
/p7  { gsave bg eofill grestore stroke } bind def
/t   { 5 -2 roll moveto gsave rotate
       1 index stringwidth pop
       mul neg 0 rmoveto show grestore } bind def
/ta  { 4 -2 roll moveto gsave rotate show } bind def
/tb  { 2 -1 roll 0 rmoveto show } bind def
/cl  { grestore gsave newpath 3 index 3 index moveto 1 index
       4 -1 roll lineto  exch 1 index lineto lineto
       closepath clip newpath } bind def
/rgb { setrgbcolor } bind def
/s   { scalefont setfont } bind def
% end   .ps.prolog
/sRGB { [ /CIEBasedABC
          << /DecodeLMN
               [ { dup 0.03928 le
                        {12.92321 div}
                        {0.055 add 1.055 div 2.4 exp }
                     ifelse
                 } bind dup dup
               ]
             /MatrixLMN [0.412457 0.212673 0.019334
                         0.357576 0.715152 0.119192
                         0.180437 0.072175 0.950301]
             /WhitePoint [0.9505 1.0 1.0890]
           >>
         ] setcolorspace } bind def
/srgb { setcolor } bind def
%%IncludeResource: font Helvetica
/Helvetica findfont
dup length dict begin
  {1 index /FID ne {def} {pop pop} ifelse} forall
  /Encoding ISOLatin1Encoding def
  currentdict
  end
/Font1 exch definefont pop
%%IncludeResource: font Helvetica-Bold
/Helvetica-Bold findfont
dup length dict begin
  {1 index /FID ne {def} {pop pop} ifelse} forall
  /Encoding ISOLatin1Encoding def
  currentdict
  end
/Font2 exch definefont pop
%%IncludeResource: font Helvetica-Oblique
/Helvetica-Oblique findfont
dup length dict begin
  {1 index /FID ne {def} {pop pop} ifelse} forall
  /Encoding ISOLatin1Encoding def
  currentdict
  end
/Font3 exch definefont pop
%%IncludeResource: font Helvetica-BoldOblique
/Helvetica-BoldOblique findfont
dup length dict begin
  {1 index /FID ne {def} {pop pop} ifelse} forall
  /Encoding ISOLatin1Encoding def
  currentdict
  end
/Font4 exch definefont pop
%%IncludeResource: font Symbol
/Symbol findfont
dup length dict begin
  {1 index /FID ne {def} {pop pop} ifelse} forall
  currentdict
  end
/Font5 exch definefont pop
%%EndProlog
%%Page: 1 1
bp
0.00 0.00 432.00 576.00 cl
0.00 0.00 432.00 576.00 cl
0.00 0.00 432.00 576.00 cl
/Font1 findfont 12 s
0 0 0 srgb
48.00 508.72 (PCP-ETH) 0 0 t
48.00 494.89 (Blitzlicht-Photolyse) 0 0 t
/Font1 findfont 9 s
48.00 457.54 (File: Dy) 0 ta
-0.180 (e_0_1_V1_900V_25.2.dat) tb gr
48.00 334.87 (T) 0 ta
-1.080 (ue Apr  9 22:02:15 2019) tb gr
48.00 430.87 (Fitfunktion:  a + b * e) 0 ta
-0.270 (xp\(-c * t\)) tb gr
48.00 420.50 (t-Inter) 0 ta
0.270 (v) tb
-0.225 (all: 70.000 ... 3070.000 ms) tb gr
48.00 410.14 (P) 0 ta
-0.360 (ar) tb
-0.090 (ameter \(Standardabw) tb
-0.090 (eichung\):) tb gr
48.00 399.77 (  a = 0.00758 \(0.00035\)) 0 0 t
48.00 389.40 (  b = 0.24593 \(0.00757\)) 0 0 t
48.00 379.03 (  c = 6.796e+00 \(1.941e-01\) s^-1) 0 0 t
48.00 368.66 (  tau = 1.471e-01 \(4.203e-03\) s) 0 0 t
216.00 345.60 388.80 518.40 cl
0 0 0 srgb
0.75 setlinewidth
[] 0 setdash
1 setlinecap
1 setlinejoin
10.00 setmiterlimit
np
222.40 505.35 m
0.15 -0.55 l
0.14 0.35 l
0.15 0.35 l
0.14 -0.70 l
0.15 0.90 l
0.14 0 l
0.15 0.86 l
0.14 -1.21 l
0.15 0 l
0.15 -0.20 l
0.14 -0.70 l
0.15 0.90 l
0.14 0.35 l
0.15 -1.06 l
0.14 1.57 l
0.15 -1.21 l
0.14 0.15 l
0.15 -0.51 l
0.15 0.51 l
0.14 -0.15 l
0.15 1.05 l
0.14 -0.70 l
0.15 0.70 l
0.14 -0.55 l
0.15 0.55 l
0.15 0.16 l
0.14 0.19 l
0.15 -1.40 l
0.14 1.56 l
0.15 -1.56 l
0.14 0.70 l
0.15 -1.06 l
0.14 2.12 l
0.15 -1.26 l
0.15 0.55 l
0.14 0 l
0.15 -0.55 l
0.14 -0.15 l
0.15 0.15 l
0.14 0 l
0.15 0.90 l
0.14 -1.25 l
0.15 1.06 l
0.15 -2.27 l
0.14 1.76 l
0.15 0.35 l
0.14 -0.35 l
0.15 -0.20 l
0.14 0.36 l
0.15 -0.36 l
0.14 0.36 l
0.15 -1.06 l
0.15 0.55 l
0.14 0.70 l
0.15 -1.25 l
0.14 1.41 l
0.15 -0.71 l
0.14 0.20 l
0.15 -0.20 l
0.15 -0.15 l
0.14 -0.20 l
0.15 0.35 l
0.14 0.20 l
0.15 0.70 l
0.14 -0.70 l
0.15 -0.90 l
0.14 0.70 l
0.15 -1.40 l
0.15 1.60 l
0.14 -0.70 l
0.15 0.50 l
0.14 -0.35 l
0.15 0.71 l
0.14 0.54 l
0.15 -0.54 l
0.14 -0.51 l
0.15 0 l
0.15 0.51 l
0.14 0.35 l
0.15 -0.51 l
0.14 0.16 l
0.15 -0.71 l
0.14 0.35 l
0.15 -0.15 l
0.14 -0.35 l
0.15 0.50 l
0.15 0.55 l
0.14 0.16 l
0.15 0.35 l
0.14 -1.56 l
0.15 0.70 l
0.14 -1.06 l
0.15 0.51 l
0.15 0.90 l
0.14 0.35 l
0.15 -1.76 l
0.14 0.71 l
0.15 0.35 l
0.14 -0.55 l
236.96 457.57 lineto
0.14 -18.29 l
0.15 4.05 l
0.15 2.82 l
0.14 3.32 l
0.15 3.01 l
0.14 2.82 l
0.15 4.03 l
0.14 2.62 l
0.15 1.96 l
0.14 3.33 l
0.15 1.91 l
0.15 2.12 l
0.14 1.76 l
0.15 2.46 l
0.14 1.92 l
0.15 1.60 l
0.14 1.22 l
0.15 1.56 l
0.14 1.76 l
0.15 0.55 l
0.15 2.27 l
0.14 0.86 l
0.15 1.25 l
0.14 0.71 l
0.15 1.56 l
0.14 0.71 l
0.15 0.19 l
0.15 0.86 l
0.14 0.71 l
0.15 0.35 l
0.14 1.06 l
0.15 -0.51 l
0.14 0.86 l
0.15 0.51 l
0.14 0.70 l
0.15 0 l
0.15 1.25 l
0.14 -0.19 l
0.15 0.35 l
0.14 -0.16 l
0.15 -0.35 l
0.14 0.16 l
0.15 0.35 l
0.14 0.70 l
0.15 0.71 l
0.15 -0.51 l
0.14 -0.20 l
0.15 0.36 l
0.14 0.35 l
0.15 -0.71 l
0.14 0.90 l
0.15 0 l
0.14 0.51 l
0.15 0.36 l
0.15 -0.16 l
0.14 -1.25 l
0.15 1.05 l
0.14 0.20 l
0.15 -0.20 l
0.14 1.41 l
0.15 -0.15 l
0.15 -1.96 l
0.14 1.60 l
0.15 -0.54 l
0.14 -0.36 l
0.15 0.20 l
0.14 0 l
0.15 0 l
0.14 0.16 l
0.15 0 l
0.15 0.54 l
0.14 0 l
0.15 0.36 l
0.14 -0.55 l
0.15 0 l
0.14 -0.35 l
0.15 0 l
0.14 0.70 l
0.15 -1.06 l
0.15 0.71 l
0.14 0.55 l
0.15 -1.06 l
0.14 0 l
0.15 -0.71 l
0.14 2.12 l
0.15 -1.41 l
0.14 0.70 l
0.15 1.06 l
0.15 -1.06 l
0.14 0.51 l
0.15 -1.05 l
0.14 0.70 l
0.15 -1.21 l
0.14 0.70 l
0.15 -0.70 l
0.15 1.05 l
0.14 -0.35 l
0.15 0.35 l
0.14 -0.70 l
251.52 500.07 lineto
0.14 0.35 l
0.15 0.55 l
0.14 0 l
0.15 -0.36 l
0.15 -0.19 l
0.14 0.55 l
0.15 -0.55 l
0.14 0.70 l
0.15 -0.35 l
0.14 0.20 l
0.15 0.50 l
0.14 -1.21 l
0.15 0.35 l
0.15 0 l
0.14 0.71 l
0.15 -0.71 l
0.14 -0.70 l
0.15 1.76 l
0.14 -1.41 l
0.15 0.35 l
0.14 -0.19 l
0.15 0.55 l
0.15 0 l
0.14 -0.20 l
0.15 0.35 l
0.14 0 l
0.15 0.35 l
0.14 -0.15 l
0.15 0 l
0.14 0.15 l
0.15 0.20 l
0.15 0 l
0.14 -0.20 l
0.15 0.36 l
0.14 -0.86 l
0.15 0.15 l
0.14 0 l
0.15 0.35 l
0.15 -1.05 l
0.14 1.05 l
0.15 -0.35 l
0.14 0.55 l
0.15 -0.20 l
0.14 0.51 l
0.15 -0.51 l
0.14 0 l
0.15 -0.35 l
0.15 -0.15 l
0.14 0.35 l
0.15 0.51 l
0.14 0.51 l
0.15 -0.36 l
0.14 -0.51 l
0.15 0 l
0.14 0 l
0.15 0.36 l
0.15 0.35 l
0.14 -0.35 l
0.15 0.15 l
0.14 0.20 l
0.15 -0.35 l
0.14 0.51 l
0.15 -0.51 l
0.14 0.35 l
0.15 -0.20 l
0.15 -0.51 l
0.14 1.41 l
0.15 -0.19 l
0.14 -0.16 l
0.15 -0.70 l
0.14 0.86 l
0.15 0 l
0.15 0 l
0.14 -0.16 l
0.15 -0.19 l
0.14 0 l
0.15 0.19 l
0.14 -0.35 l
0.15 0.70 l
0.14 -0.19 l
0.15 0.55 l
0.15 -1.06 l
0.14 -0.35 l
0.15 0.70 l
0.14 0.16 l
0.15 0.19 l
0.14 0.71 l
0.15 -1.41 l
0.14 0.70 l
0.15 0.51 l
0.15 -1.05 l
0.14 -0.36 l
0.15 1.76 l
0.14 -0.50 l
0.15 -0.20 l
0.14 -0.70 l
0.15 0.35 l
0.14 -0.16 l
0.15 -0.86 l
266.08 503.24 lineto
0.14 0 l
0.15 0 l
0.14 -0.20 l
0.15 -0.86 l
0.14 0.70 l
0.15 0.16 l
0.15 0.35 l
0.14 0.20 l
0.15 -0.55 l
0.14 0.20 l
0.15 0.50 l
0.14 0.36 l
0.15 -1.57 l
0.14 1.57 l
0.15 -0.16 l
0.15 -0.70 l
0.14 0.86 l
0.15 -1.41 l
0.14 0.90 l
0.15 0 l
0.14 0.70 l
0.15 -0.55 l
0.14 0.36 l
0.15 -0.36 l
0.15 0.71 l
0.14 -0.71 l
0.15 0 l
0.14 0 l
0.15 0.20 l
0.14 -0.20 l
0.15 -0.50 l
0.14 0.70 l
0.15 -0.35 l
0.15 1.21 l
0.14 -0.70 l
0.15 1.25 l
0.14 -0.35 l
0.15 -0.55 l
0.14 0 l
0.15 0.35 l
0.15 -0.35 l
0.14 0.19 l
0.15 -0.70 l
0.14 0.16 l
0.15 0.35 l
0.14 0.19 l
0.15 0.51 l
0.14 -0.51 l
0.15 0.51 l
0.15 0.35 l
0.14 -0.15 l
0.15 -0.35 l
0.14 1.05 l
0.15 -0.35 l
0.14 -0.90 l
0.15 -0.51 l
0.14 0 l
0.15 0 l
0.15 0.35 l
0.14 0 l
0.15 1.22 l
0.14 -0.71 l
0.15 1.06 l
0.14 -0.71 l
0.15 -0.86 l
0.14 0.16 l
0.15 -0.16 l
0.15 0.51 l
0.14 -0.70 l
0.15 0.35 l
0.14 1.06 l
0.15 -0.51 l
0.14 0.35 l
0.15 0.35 l
0.15 -0.35 l
0.14 1.21 l
0.15 -1.56 l
0.14 0 l
0.15 0.86 l
0.14 0 l
0.15 1.06 l
0.14 0.54 l
0.15 -0.54 l
0.15 -0.71 l
0.14 -2.11 l
0.15 -0.35 l
0.14 -0.16 l
0.15 0 l
0.14 1.56 l
0.15 1.06 l
0.14 0.35 l
0.15 -0.15 l
0.15 0.15 l
0.14 0.55 l
0.15 0 l
0.14 -0.55 l
0.15 -1.76 l
0.14 1.76 l
0.15 0 l
280.63 505.86 lineto
0.15 0.35 l
0.15 -0.51 l
0.14 0.35 l
0.15 0 l
0.14 -0.35 l
0.15 0.16 l
0.14 -0.71 l
0.15 0 l
0.15 1.61 l
0.14 0.15 l
0.15 1.26 l
0.14 -1.06 l
0.15 0.86 l
0.14 0 l
0.15 -0.16 l
0.14 -0.35 l
0.15 -0.70 l
0.15 0.70 l
0.14 -1.60 l
0.15 0.35 l
0.14 0 l
0.15 0 l
0.14 -0.16 l
0.15 0.35 l
0.14 -0.19 l
0.15 0.70 l
0.15 0.55 l
0.14 0 l
0.15 -0.19 l
0.14 0.54 l
0.15 -0.19 l
0.14 0.70 l
0.15 -1.21 l
0.14 0.16 l
0.15 0.54 l
0.15 -1.60 l
0.14 1.25 l
0.15 -0.19 l
0.14 0 l
0.15 -0.16 l
0.14 -0.35 l
0.15 1.21 l
0.14 0.35 l
0.15 -0.70 l
0.15 0.35 l
0.14 -0.35 l
0.15 0.55 l
0.14 0.70 l
0.15 -0.90 l
0.14 -0.16 l
0.15 -0.35 l
0.15 0.86 l
0.14 -0.15 l
0.15 -1.41 l
0.14 1.21 l
0.15 -1.41 l
0.14 1.06 l
0.15 -0.16 l
0.14 -0.70 l
0.15 1.05 l
0.15 -0.35 l
0.14 1.41 l
0.15 -1.06 l
0.14 0.51 l
0.15 0.20 l
0.14 0.51 l
0.15 -0.86 l
0.14 0 l
0.15 0.50 l
0.15 0 l
0.14 0.20 l
0.15 0.35 l
0.14 -1.76 l
0.15 0.51 l
0.14 -0.51 l
0.15 0.51 l
0.14 0.20 l
0.15 0.50 l
0.15 -0.50 l
0.14 0.70 l
0.15 -0.20 l
0.14 0.55 l
0.15 -1.25 l
0.14 1.56 l
0.15 0.20 l
0.15 -1.56 l
0.14 1.05 l
0.15 -0.19 l
0.14 -0.36 l
0.15 0 l
0.14 -0.70 l
0.15 1.25 l
0.14 -1.25 l
0.15 1.06 l
0.15 0 l
0.14 0.50 l
0.15 -0.66 l
0.14 1.02 l
0.15 -0.67 l
295.19 509.38 lineto
0.15 0 l
0.14 0 l
0.15 -0.35 l
0.15 -0.16 l
0.14 0.51 l
0.15 0.35 l
0.14 0 l
0.15 -0.35 l
0.14 0 l
0.15 0 l
0.14 0.35 l
0.15 -0.35 l
0.15 -0.71 l
0.14 1.41 l
0.15 -0.19 l
0.14 0 l
0.15 -0.86 l
0.14 1.40 l
0.15 -0.35 l
0.15 -1.41 l
0.14 1.22 l
0.15 -0.51 l
0.14 0.70 l
0.15 -0.19 l
0.14 -0.86 l
0.15 1.05 l
0.14 -0.55 l
0.15 -0.66 l
0.15 -0.20 l
0.14 1.22 l
0.15 -0.36 l
0.14 0 l
0.15 0.20 l
0.14 0.16 l
0.15 -0.36 l
0.14 -0.31 l
0.15 0.67 l
0.15 0.54 l
0.14 0.16 l
0.15 0 l
0.14 -0.16 l
0.15 -0.70 l
0.14 -0.70 l
0.15 1.76 l
0.14 -0.90 l
0.15 0 l
0.15 1.05 l
0.14 -0.70 l
0.15 -0.16 l
0.14 0.71 l
0.15 -1.57 l
0.14 1.02 l
0.15 -0.16 l
0.15 -0.55 l
0.14 0.20 l
0.15 0.16 l
0.14 0 l
0.15 0 l
0.14 0.19 l
0.15 0.35 l
0.14 -0.35 l
0.15 -0.35 l
0.15 0.16 l
0.14 0.70 l
0.15 -1.21 l
0.14 0.70 l
0.15 -0.70 l
0.14 1.05 l
0.15 -0.54 l
0.14 0.19 l
0.15 0.86 l
0.15 -1.21 l
0.14 0 l
0.15 0.16 l
0.14 0.19 l
0.15 0.86 l
0.14 -0.35 l
0.15 -0.35 l
0.14 0 l
0.15 0.35 l
0.15 -0.70 l
0.14 0.19 l
0.15 1.06 l
0.14 -1.41 l
0.15 0.70 l
0.14 -0.19 l
0.15 -0.16 l
0.15 0.51 l
0.14 -0.16 l
0.15 0.71 l
0.14 -0.71 l
0.15 -0.35 l
0.14 0.16 l
0.15 0.35 l
0.14 -0.70 l
0.15 0.54 l
0.15 0.51 l
0.14 -0.51 l
0.15 0.16 l
309.75 510.24 lineto
0.15 0.70 l
0.14 -0.70 l
0.15 0.19 l
0.14 0.51 l
0.15 -0.86 l
0.15 0.51 l
0.14 0.55 l
0.15 -1.61 l
0.14 1.26 l
0.15 0.15 l
0.14 -0.35 l
0.15 0.55 l
0.14 0.70 l
0.15 -0.54 l
0.15 -0.87 l
0.14 1.22 l
0.15 -0.71 l
0.14 -0.51 l
0.15 0.36 l
0.14 0.86 l
0.15 -1.06 l
0.15 -0.86 l
0.14 1.21 l
0.15 -0.51 l
0.14 -0.19 l
0.15 0.90 l
0.14 -0.35 l
0.15 0 l
0.14 0.15 l
0.15 0.20 l
0.15 -1.06 l
0.14 1.22 l
0.15 -0.71 l
0.14 0.20 l
0.15 -0.20 l
0.14 0.71 l
0.15 -0.87 l
0.14 -0.19 l
0.15 0.90 l
0.15 -0.55 l
0.14 0 l
0.15 -1.06 l
0.14 0.90 l
0.15 -1.05 l
0.14 0.70 l
0.15 1.06 l
0.14 -0.35 l
0.15 0.51 l
0.15 -0.16 l
0.14 0 l
0.15 -1.25 l
0.14 1.41 l
0.15 -0.51 l
0.14 0.15 l
0.15 -0.35 l
0.15 0.20 l
0.14 -0.36 l
0.15 0 l
0.14 0.16 l
0.15 0.55 l
0.14 -0.35 l
0.15 -0.20 l
0.14 0.55 l
0.15 -0.71 l
0.15 0.87 l
0.14 -0.16 l
0.15 -0.71 l
0.14 1.57 l
0.15 -1.57 l
0.14 -0.19 l
0.15 1.06 l
0.14 -1.06 l
0.15 0 l
0.15 1.41 l
0.14 -1.06 l
0.15 0.20 l
0.14 0.15 l
0.15 0.20 l
0.14 -0.35 l
0.15 0.15 l
0.14 0 l
0.15 0.20 l
0.15 0.35 l
0.14 -0.70 l
0.15 -0.20 l
0.14 0.20 l
0.15 0.15 l
0.14 -0.15 l
0.15 0 l
0.14 0.51 l
0.15 -0.71 l
0.15 0.71 l
0.14 -1.22 l
0.15 0.35 l
0.14 0.51 l
0.15 0.36 l
0.14 0.35 l
0.15 -0.86 l
0.15 1.05 l
324.31 510.24 lineto
0.15 0 l
0.14 0.70 l
0.15 0.36 l
0.14 0 l
0.15 0.19 l
0.14 -0.35 l
0.15 -0.71 l
0.15 0 l
0.14 0.71 l
0.15 0.35 l
0.14 0 l
0.15 -0.55 l
0.14 -0.51 l
0.15 -0.19 l
0.14 0.55 l
0.15 0.51 l
0.15 -0.87 l
0.14 0.87 l
0.15 -0.36 l
0.14 0.20 l
0.15 0 l
0.14 -0.20 l
0.15 -0.15 l
0.14 0.86 l
0.15 -0.35 l
0.15 -0.36 l
0.14 -0.35 l
0.15 0.35 l
0.14 -0.15 l
0.15 1.21 l
0.14 -1.06 l
0.15 0.36 l
0.15 -0.87 l
0.14 0.87 l
0.15 -1.41 l
0.14 1.25 l
0.15 -0.20 l
0.14 0.90 l
0.15 -0.54 l
0.14 0 l
0.15 -0.87 l
0.15 0.36 l
0.14 0.15 l
0.15 -0.51 l
0.14 0.36 l
0.15 0.15 l
0.14 0 l
0.15 0.71 l
0.14 -1.06 l
0.15 0.35 l
0.15 -0.35 l
0.14 0.35 l
0.15 -0.35 l
0.14 0 l
0.15 0.35 l
0.14 0 l
0.15 -0.86 l
0.14 0.71 l
0.15 1.05 l
0.15 -0.19 l
0.14 -1.06 l
0.15 0.90 l
0.14 -0.70 l
0.15 -0.55 l
0.14 0.35 l
0.15 0.35 l
0.15 -1.21 l
0.14 0.35 l
0.15 0.51 l
0.14 0.35 l
0.15 -0.35 l
0.14 0.90 l
0.15 -0.35 l
0.14 -0.20 l
0.15 0.20 l
0.15 -0.90 l
0.14 -0.16 l
0.15 0.86 l
0.14 0.55 l
0.15 -1.06 l
0.14 -0.35 l
0.15 0.86 l
0.14 -0.35 l
0.15 0.35 l
0.15 -0.86 l
0.14 0.51 l
0.15 -0.35 l
0.14 0.90 l
0.15 -0.55 l
0.14 0.55 l
0.15 0.16 l
0.14 -1.41 l
0.15 0.90 l
0.15 0.15 l
0.14 -0.15 l
0.15 1.05 l
0.14 -1.95 l
0.15 0.54 l
0.14 -0.70 l
338.87 510.59 lineto
0.15 0.55 l
0.14 0.51 l
0.15 0.19 l
0.14 -1.25 l
0.15 0 l
0.14 0.35 l
0.15 -0.15 l
0.14 0.15 l
0.15 -0.15 l
0.15 0.51 l
0.14 -1.22 l
0.15 1.06 l
0.14 -1.25 l
0.15 0.70 l
0.14 -0.70 l
0.15 0.90 l
0.14 -0.55 l
0.15 0.19 l
0.15 0.16 l
0.14 -0.70 l
0.15 0.70 l
0.14 0.20 l
0.15 -0.55 l
0.14 0.70 l
0.15 -0.51 l
0.14 -0.19 l
0.15 0.35 l
0.15 0.90 l
0.14 -0.90 l
0.15 -0.35 l
0.14 0.19 l
0.15 0.51 l
0.14 -1.05 l
0.15 -0.36 l
0.15 0.20 l
0.14 0.86 l
0.15 -0.86 l
0.14 1.57 l
0.15 -0.36 l
0.14 0 l
0.15 -0.15 l
0.14 -0.36 l
0.15 -0.35 l
0.15 0.35 l
0.14 0 l
0.15 -0.54 l
0.14 0 l
0.15 0.90 l
0.14 -0.90 l
0.15 0 l
0.14 0.90 l
0.15 -0.71 l
0.15 0 l
0.14 0.51 l
0.15 -0.35 l
0.14 0.35 l
0.15 0 l
0.14 -0.51 l
0.15 0.16 l
0.14 0 l
0.15 0.35 l
0.15 -0.51 l
0.14 0 l
0.15 0.71 l
0.14 0.15 l
0.15 -1.41 l
0.14 0.20 l
0.15 1.06 l
0.15 -0.71 l
0.14 0.35 l
0.15 -0.19 l
0.14 -0.51 l
0.15 1.21 l
0.14 -0.51 l
0.15 0 l
0.14 0.16 l
0.15 -0.86 l
0.15 -0.51 l
0.14 1.21 l
0.15 0.71 l
0.14 -1.41 l
0.15 0.35 l
0.14 0.35 l
0.15 -0.35 l
0.14 -0.19 l
0.15 0 l
0.15 0.90 l
0.14 -0.71 l
0.15 -0.35 l
0.14 1.06 l
0.15 -0.90 l
0.14 -0.67 l
0.15 0 l
0.14 1.21 l
0.15 -0.35 l
0.15 0 l
0.14 0.35 l
0.15 -0.19 l
0.14 0.19 l
353.43 509.73 lineto
0.14 0.70 l
0.15 -0.54 l
0.14 -0.16 l
0.15 1.06 l
0.15 -1.06 l
0.14 0.16 l
0.15 0.54 l
0.14 -0.35 l
0.15 0 l
0.14 -0.19 l
0.15 0 l
0.15 0.19 l
0.14 -0.70 l
0.15 1.21 l
0.14 -1.06 l
0.15 0.71 l
0.14 0 l
0.15 0.35 l
0.14 -1.21 l
0.15 1.05 l
0.15 0 l
0.14 -0.70 l
0.15 0 l
0.14 0.70 l
0.15 -0.70 l
0.14 0.35 l
0.15 0 l
0.14 0.16 l
0.15 -0.16 l
0.15 0.86 l
0.14 -0.35 l
0.15 -0.51 l
0.14 0.86 l
0.15 -1.72 l
0.14 0.31 l
0.15 0.55 l
0.14 -1.05 l
0.15 1.56 l
0.15 -1.21 l
0.14 1.05 l
0.15 -0.70 l
0.14 -0.35 l
0.15 0.51 l
0.14 0.35 l
0.15 -0.71 l
0.15 -0.15 l
0.14 0.15 l
0.15 0.20 l
0.14 0 l
0.15 0 l
0.14 -0.51 l
0.15 1.21 l
0.14 -0.54 l
0.15 0.35 l
0.15 -0.35 l
0.14 0 l
0.15 0 l
0.14 -0.51 l
0.15 0.35 l
0.14 0.86 l
0.15 -0.86 l
0.14 -0.86 l
0.15 0.35 l
0.15 0.86 l
0.14 0.16 l
0.15 -1.92 l
0.14 1.21 l
0.15 0.90 l
0.14 -0.19 l
0.15 -0.16 l
0.14 -1.21 l
0.15 1.21 l
0.15 -1.21 l
0.14 1.37 l
0.15 -1.02 l
0.14 1.21 l
0.15 -0.54 l
0.14 -0.67 l
0.15 0.86 l
0.15 -0.55 l
0.14 -0.31 l
0.15 0.86 l
0.14 -1.05 l
0.15 0.19 l
0.14 0 l
0.15 0.31 l
0.14 0 l
0.15 -0.86 l
0.15 0.55 l
0.14 -0.19 l
0.15 1.05 l
0.14 -0.55 l
0.15 0.36 l
0.14 0.54 l
0.15 -1.05 l
0.14 -0.71 l
0.15 0.36 l
0.15 1.21 l
0.14 0.19 l
currentpoint o m
367.99 510.24 lineto
0.14 -1.21 l
0.15 0.19 l
0.14 0.86 l
0.15 -0.19 l
0.14 0 l
0.15 -0.16 l
0.15 -0.86 l
0.14 0.66 l
0.15 -0.15 l
0.14 0.51 l
0.15 -0.86 l
0.14 1.05 l
0.15 -0.86 l
0.15 -0.70 l
0.14 1.01 l
0.15 0.71 l
0.14 -0.51 l
0.15 -0.86 l
0.14 0.16 l
0.15 0.70 l
0.14 -0.51 l
0.15 0 l
0.15 -0.35 l
0.14 0.66 l
0.15 -1.01 l
0.14 1.21 l
0.15 -0.70 l
0.14 1.05 l
0.15 -0.55 l
0.14 0.71 l
0.15 -1.21 l
0.15 1.21 l
0.14 -0.71 l
0.15 0 l
0.14 -1.21 l
0.15 1.41 l
0.14 0.70 l
0.15 -0.90 l
0.14 -0.15 l
0.15 -0.16 l
0.15 0 l
0.14 0.31 l
0.15 -1.01 l
0.14 1.21 l
0.15 -0.70 l
0.14 1.21 l
0.15 -1.21 l
0.15 0.19 l
0.14 -0.35 l
0.15 1.02 l
0.14 -1.02 l
0.15 1.02 l
0.14 -1.57 l
0.15 1.92 l
0.14 -1.37 l
0.15 0.16 l
0.15 -0.71 l
0.14 0.71 l
0.15 -0.16 l
0.14 0.51 l
0.15 -0.35 l
0.14 1.40 l
0.15 -1.40 l
0.14 1.21 l
0.15 -0.35 l
0.15 -1.02 l
0.14 0.51 l
0.15 0 l
0.14 0.15 l
0.15 -0.31 l
0.14 -0.55 l
0.15 1.57 l
0.14 -1.02 l
0.15 0.16 l
0.15 0.15 l
0.14 -0.15 l
0.15 -0.51 l
0.14 1.21 l
0.15 -0.35 l
0.14 0.16 l
0.15 -0.16 l
0.15 -0.20 l
0.14 -0.15 l
0.15 0.51 l
0.14 -0.67 l
0.15 0.31 l
0.14 0 l
0.15 0 l
0.14 0 l
0.15 -0.86 l
0.15 0.36 l
0.14 0.19 l
0.15 -0.19 l
0.14 1.21 l
0.15 -1.92 l
0.14 0.90 l
0.15 -0.55 l
0.14 1.57 l
0.15 -0.71 l
o
/bg { 1 1 1 srgb } def
222.40 505.35 0.43 c p3
222.55 504.80 0.43 c p3
222.69 505.15 0.43 c p3
222.84 505.50 0.43 c p3
222.98 504.80 0.43 c p3
223.13 505.70 0.43 c p3
223.27 505.70 0.43 c p3
223.42 506.56 0.43 c p3
223.56 505.35 0.43 c p3
223.71 505.35 0.43 c p3
223.86 505.15 0.43 c p3
224.00 504.45 0.43 c p3
224.15 505.35 0.43 c p3
224.29 505.70 0.43 c p3
224.44 504.64 0.43 c p3
224.58 506.21 0.43 c p3
224.73 505.00 0.43 c p3
224.87 505.15 0.43 c p3
225.02 504.64 0.43 c p3
225.17 505.15 0.43 c p3
225.31 505.00 0.43 c p3
225.46 506.05 0.43 c p3
225.60 505.35 0.43 c p3
225.75 506.05 0.43 c p3
225.89 505.50 0.43 c p3
226.04 506.05 0.43 c p3
226.19 506.21 0.43 c p3
226.33 506.40 0.43 c p3
226.48 505.00 0.43 c p3
226.62 506.56 0.43 c p3
226.77 505.00 0.43 c p3
226.91 505.70 0.43 c p3
227.06 504.64 0.43 c p3
227.20 506.76 0.43 c p3
227.35 505.50 0.43 c p3
227.50 506.05 0.43 c p3
227.64 506.05 0.43 c p3
227.79 505.50 0.43 c p3
227.93 505.35 0.43 c p3
228.08 505.50 0.43 c p3
228.22 505.50 0.43 c p3
228.37 506.40 0.43 c p3
228.51 505.15 0.43 c p3
228.66 506.21 0.43 c p3
228.81 503.94 0.43 c p3
228.95 505.70 0.43 c p3
229.10 506.05 0.43 c p3
229.24 505.70 0.43 c p3
229.39 505.50 0.43 c p3
229.53 505.86 0.43 c p3
229.68 505.50 0.43 c p3
229.82 505.86 0.43 c p3
229.97 504.80 0.43 c p3
230.12 505.35 0.43 c p3
230.26 506.05 0.43 c p3
230.41 504.80 0.43 c p3
230.55 506.21 0.43 c p3
230.70 505.50 0.43 c p3
230.84 505.70 0.43 c p3
230.99 505.50 0.43 c p3
231.14 505.35 0.43 c p3
231.28 505.15 0.43 c p3
231.43 505.50 0.43 c p3
231.57 505.70 0.43 c p3
231.72 506.40 0.43 c p3
231.86 505.70 0.43 c p3
232.01 504.80 0.43 c p3
232.15 505.50 0.43 c p3
232.30 504.10 0.43 c p3
232.45 505.70 0.43 c p3
232.59 505.00 0.43 c p3
232.74 505.50 0.43 c p3
232.88 505.15 0.43 c p3
233.03 505.86 0.43 c p3
233.17 506.40 0.43 c p3
233.32 505.86 0.43 c p3
233.46 505.35 0.43 c p3
233.61 505.35 0.43 c p3
233.76 505.86 0.43 c p3
233.90 506.21 0.43 c p3
234.05 505.70 0.43 c p3
234.19 505.86 0.43 c p3
234.34 505.15 0.43 c p3
234.48 505.50 0.43 c p3
234.63 505.35 0.43 c p3
234.77 505.00 0.43 c p3
234.92 505.50 0.43 c p3
235.07 506.05 0.43 c p3
235.21 506.21 0.43 c p3
235.36 506.56 0.43 c p3
235.50 505.00 0.43 c p3
235.65 505.70 0.43 c p3
235.79 504.64 0.43 c p3
235.94 505.15 0.43 c p3
236.09 506.05 0.43 c p3
236.23 506.40 0.43 c p3
236.38 504.64 0.43 c p3
236.52 505.35 0.43 c p3
236.67 505.70 0.43 c p3
236.81 505.15 0.43 c p3
236.96 457.57 0.43 c p3
237.10 439.28 0.43 c p3
237.25 443.33 0.43 c p3
237.40 446.15 0.43 c p3
237.54 449.47 0.43 c p3
237.69 452.48 0.43 c p3
237.83 455.30 0.43 c p3
237.98 459.33 0.43 c p3
238.12 461.95 0.43 c p3
238.27 463.91 0.43 c p3
238.41 467.24 0.43 c p3
238.56 469.15 0.43 c p3
238.71 471.27 0.43 c p3
238.85 473.03 0.43 c p3
239.00 475.49 0.43 c p3
239.14 477.41 0.43 c p3
239.29 479.01 0.43 c p3
239.43 480.23 0.43 c p3
239.58 481.79 0.43 c p3
239.72 483.55 0.43 c p3
239.87 484.10 0.43 c p3
240.02 486.37 0.43 c p3
240.16 487.23 0.43 c p3
240.31 488.48 0.43 c p3
240.45 489.19 0.43 c p3
240.60 490.75 0.43 c p3
240.74 491.46 0.43 c p3
240.89 491.65 0.43 c p3
241.04 492.51 0.43 c p3
241.18 493.22 0.43 c p3
241.33 493.57 0.43 c p3
241.47 494.63 0.43 c p3
241.62 494.12 0.43 c p3
241.76 494.98 0.43 c p3
241.91 495.49 0.43 c p3
242.05 496.19 0.43 c p3
242.20 496.19 0.43 c p3
242.35 497.44 0.43 c p3
242.49 497.25 0.43 c p3
242.64 497.60 0.43 c p3
242.78 497.44 0.43 c p3
242.93 497.09 0.43 c p3
243.07 497.25 0.43 c p3
243.22 497.60 0.43 c p3
243.36 498.30 0.43 c p3
243.51 499.01 0.43 c p3
243.66 498.50 0.43 c p3
243.80 498.30 0.43 c p3
243.95 498.66 0.43 c p3
244.09 499.01 0.43 c p3
244.24 498.30 0.43 c p3
244.38 499.20 0.43 c p3
244.53 499.20 0.43 c p3
244.67 499.71 0.43 c p3
244.82 500.07 0.43 c p3
244.97 499.91 0.43 c p3
245.11 498.66 0.43 c p3
245.26 499.71 0.43 c p3
245.40 499.91 0.43 c p3
245.55 499.71 0.43 c p3
245.69 501.12 0.43 c p3
245.84 500.97 0.43 c p3
245.99 499.01 0.43 c p3
246.13 500.61 0.43 c p3
246.28 500.07 0.43 c p3
246.42 499.71 0.43 c p3
246.57 499.91 0.43 c p3
246.71 499.91 0.43 c p3
246.86 499.91 0.43 c p3
247.00 500.07 0.43 c p3
247.15 500.07 0.43 c p3
247.30 500.61 0.43 c p3
247.44 500.61 0.43 c p3
247.59 500.97 0.43 c p3
247.73 500.42 0.43 c p3
247.88 500.42 0.43 c p3
248.02 500.07 0.43 c p3
248.17 500.07 0.43 c p3
248.31 500.77 0.43 c p3
248.46 499.71 0.43 c p3
248.61 500.42 0.43 c p3
248.75 500.97 0.43 c p3
248.90 499.91 0.43 c p3
249.04 499.91 0.43 c p3
249.19 499.20 0.43 c p3
249.33 501.32 0.43 c p3
249.48 499.91 0.43 c p3
249.62 500.61 0.43 c p3
249.77 501.67 0.43 c p3
249.92 500.61 0.43 c p3
250.06 501.12 0.43 c p3
250.21 500.07 0.43 c p3
250.35 500.77 0.43 c p3
250.50 499.56 0.43 c p3
250.64 500.26 0.43 c p3
250.79 499.56 0.43 c p3
250.94 500.61 0.43 c p3
251.08 500.26 0.43 c p3
251.23 500.61 0.43 c p3
251.37 499.91 0.43 c p3
251.52 500.07 0.43 c p3
251.66 500.42 0.43 c p3
251.81 500.97 0.43 c p3
251.95 500.97 0.43 c p3
252.10 500.61 0.43 c p3
252.25 500.42 0.43 c p3
252.39 500.97 0.43 c p3
252.54 500.42 0.43 c p3
252.68 501.12 0.43 c p3
252.83 500.77 0.43 c p3
252.97 500.97 0.43 c p3
253.12 501.47 0.43 c p3
253.26 500.26 0.43 c p3
253.41 500.61 0.43 c p3
253.56 500.61 0.43 c p3
253.70 501.32 0.43 c p3
253.85 500.61 0.43 c p3
253.99 499.91 0.43 c p3
254.14 501.67 0.43 c p3
254.28 500.26 0.43 c p3
254.43 500.61 0.43 c p3
254.57 500.42 0.43 c p3
254.72 500.97 0.43 c p3
254.87 500.97 0.43 c p3
255.01 500.77 0.43 c p3
255.16 501.12 0.43 c p3
255.30 501.12 0.43 c p3
255.45 501.47 0.43 c p3
255.59 501.32 0.43 c p3
255.74 501.32 0.43 c p3
255.88 501.47 0.43 c p3
256.03 501.67 0.43 c p3
256.18 501.67 0.43 c p3
256.32 501.47 0.43 c p3
256.47 501.83 0.43 c p3
256.61 500.97 0.43 c p3
256.76 501.12 0.43 c p3
256.90 501.12 0.43 c p3
257.05 501.47 0.43 c p3
257.20 500.42 0.43 c p3
257.34 501.47 0.43 c p3
257.49 501.12 0.43 c p3
257.63 501.67 0.43 c p3
257.78 501.47 0.43 c p3
257.92 501.98 0.43 c p3
258.07 501.47 0.43 c p3
258.21 501.47 0.43 c p3
258.36 501.12 0.43 c p3
258.51 500.97 0.43 c p3
258.65 501.32 0.43 c p3
258.80 501.83 0.43 c p3
258.94 502.34 0.43 c p3
259.09 501.98 0.43 c p3
259.23 501.47 0.43 c p3
259.38 501.47 0.43 c p3
259.52 501.47 0.43 c p3
259.67 501.83 0.43 c p3
259.82 502.18 0.43 c p3
259.96 501.83 0.43 c p3
260.11 501.98 0.43 c p3
260.25 502.18 0.43 c p3
260.40 501.83 0.43 c p3
260.54 502.34 0.43 c p3
260.69 501.83 0.43 c p3
260.83 502.18 0.43 c p3
260.98 501.98 0.43 c p3
261.13 501.47 0.43 c p3
261.27 502.88 0.43 c p3
261.42 502.69 0.43 c p3
261.56 502.53 0.43 c p3
261.71 501.83 0.43 c p3
261.85 502.69 0.43 c p3
262.00 502.69 0.43 c p3
262.15 502.69 0.43 c p3
262.29 502.53 0.43 c p3
262.44 502.34 0.43 c p3
262.58 502.34 0.43 c p3
262.73 502.53 0.43 c p3
262.87 502.18 0.43 c p3
263.02 502.88 0.43 c p3
263.16 502.69 0.43 c p3
263.31 503.24 0.43 c p3
263.46 502.18 0.43 c p3
263.60 501.83 0.43 c p3
263.75 502.53 0.43 c p3
263.89 502.69 0.43 c p3
264.04 502.88 0.43 c p3
264.18 503.59 0.43 c p3
264.33 502.18 0.43 c p3
264.47 502.88 0.43 c p3
264.62 503.39 0.43 c p3
264.77 502.34 0.43 c p3
264.91 501.98 0.43 c p3
265.06 503.74 0.43 c p3
265.20 503.24 0.43 c p3
265.35 503.04 0.43 c p3
265.49 502.34 0.43 c p3
265.64 502.69 0.43 c p3
265.78 502.53 0.43 c p3
265.93 501.67 0.43 c p3
266.08 503.24 0.43 c p3
266.22 503.24 0.43 c p3
266.37 503.24 0.43 c p3
266.51 503.04 0.43 c p3
266.66 502.18 0.43 c p3
266.80 502.88 0.43 c p3
266.95 503.04 0.43 c p3
267.10 503.39 0.43 c p3
267.24 503.59 0.43 c p3
267.39 503.04 0.43 c p3
267.53 503.24 0.43 c p3
267.68 503.74 0.43 c p3
267.82 504.10 0.43 c p3
267.97 502.53 0.43 c p3
268.11 504.10 0.43 c p3
268.26 503.94 0.43 c p3
268.41 503.24 0.43 c p3
268.55 504.10 0.43 c p3
268.70 502.69 0.43 c p3
268.84 503.59 0.43 c p3
268.99 503.59 0.43 c p3
269.13 504.29 0.43 c p3
269.28 503.74 0.43 c p3
269.42 504.10 0.43 c p3
269.57 503.74 0.43 c p3
269.72 504.45 0.43 c p3
269.86 503.74 0.43 c p3
270.01 503.74 0.43 c p3
270.15 503.74 0.43 c p3
270.30 503.94 0.43 c p3
270.44 503.74 0.43 c p3
270.59 503.24 0.43 c p3
270.73 503.94 0.43 c p3
270.88 503.59 0.43 c p3
271.03 504.80 0.43 c p3
271.17 504.10 0.43 c p3
271.32 505.35 0.43 c p3
271.46 505.00 0.43 c p3
271.61 504.45 0.43 c p3
271.75 504.45 0.43 c p3
271.90 504.80 0.43 c p3
272.05 504.45 0.43 c p3
272.19 504.64 0.43 c p3
272.34 503.94 0.43 c p3
272.48 504.10 0.43 c p3
272.63 504.45 0.43 c p3
272.77 504.64 0.43 c p3
272.92 505.15 0.43 c p3
273.06 504.64 0.43 c p3
273.21 505.15 0.43 c p3
273.36 505.50 0.43 c p3
273.50 505.35 0.43 c p3
273.65 505.00 0.43 c p3
273.79 506.05 0.43 c p3
273.94 505.70 0.43 c p3
274.08 504.80 0.43 c p3
274.23 504.29 0.43 c p3
274.37 504.29 0.43 c p3
274.52 504.29 0.43 c p3
274.67 504.64 0.43 c p3
274.81 504.64 0.43 c p3
274.96 505.86 0.43 c p3
275.10 505.15 0.43 c p3
275.25 506.21 0.43 c p3
275.39 505.50 0.43 c p3
275.54 504.64 0.43 c p3
275.68 504.80 0.43 c p3
275.83 504.64 0.43 c p3
275.98 505.15 0.43 c p3
276.12 504.45 0.43 c p3
276.27 504.80 0.43 c p3
276.41 505.86 0.43 c p3
276.56 505.35 0.43 c p3
276.70 505.70 0.43 c p3
276.85 506.05 0.43 c p3
277.00 505.70 0.43 c p3
277.14 506.91 0.43 c p3
277.29 505.35 0.43 c p3
277.43 505.35 0.43 c p3
277.58 506.21 0.43 c p3
277.72 506.21 0.43 c p3
277.87 507.27 0.43 c p3
278.01 507.81 0.43 c p3
278.16 507.27 0.43 c p3
278.31 506.56 0.43 c p3
278.45 504.45 0.43 c p3
278.60 504.10 0.43 c p3
278.74 503.94 0.43 c p3
278.89 503.94 0.43 c p3
279.03 505.50 0.43 c p3
279.18 506.56 0.43 c p3
279.32 506.91 0.43 c p3
279.47 506.76 0.43 c p3
279.62 506.91 0.43 c p3
279.76 507.46 0.43 c p3
279.91 507.46 0.43 c p3
280.05 506.91 0.43 c p3
280.20 505.15 0.43 c p3
280.34 506.91 0.43 c p3
280.49 506.91 0.43 c p3
280.63 505.86 0.43 c p3
280.78 506.21 0.43 c p3
280.93 505.70 0.43 c p3
281.07 506.05 0.43 c p3
281.22 506.05 0.43 c p3
281.36 505.70 0.43 c p3
281.51 505.86 0.43 c p3
281.65 505.15 0.43 c p3
281.80 505.15 0.43 c p3
281.95 506.76 0.43 c p3
282.09 506.91 0.43 c p3
282.24 508.17 0.43 c p3
282.38 507.11 0.43 c p3
282.53 507.97 0.43 c p3
282.67 507.97 0.43 c p3
282.82 507.81 0.43 c p3
282.96 507.46 0.43 c p3
283.11 506.76 0.43 c p3
283.26 507.46 0.43 c p3
283.40 505.86 0.43 c p3
283.55 506.21 0.43 c p3
283.69 506.21 0.43 c p3
283.84 506.21 0.43 c p3
283.98 506.05 0.43 c p3
284.13 506.40 0.43 c p3
284.27 506.21 0.43 c p3
284.42 506.91 0.43 c p3
284.57 507.46 0.43 c p3
284.71 507.46 0.43 c p3
284.86 507.27 0.43 c p3
285.00 507.81 0.43 c p3
285.15 507.62 0.43 c p3
285.29 508.32 0.43 c p3
285.44 507.11 0.43 c p3
285.58 507.27 0.43 c p3
285.73 507.81 0.43 c p3
285.88 506.21 0.43 c p3
286.02 507.46 0.43 c p3
286.17 507.27 0.43 c p3
286.31 507.27 0.43 c p3
286.46 507.11 0.43 c p3
286.60 506.76 0.43 c p3
286.75 507.97 0.43 c p3
286.89 508.32 0.43 c p3
287.04 507.62 0.43 c p3
287.19 507.97 0.43 c p3
287.33 507.62 0.43 c p3
287.48 508.17 0.43 c p3
287.62 508.87 0.43 c p3
287.77 507.97 0.43 c p3
287.91 507.81 0.43 c p3
288.06 507.46 0.43 c p3
288.21 508.32 0.43 c p3
288.35 508.17 0.43 c p3
288.50 506.76 0.43 c p3
288.64 507.97 0.43 c p3
288.79 506.56 0.43 c p3
288.93 507.62 0.43 c p3
289.08 507.46 0.43 c p3
289.22 506.76 0.43 c p3
289.37 507.81 0.43 c p3
289.52 507.46 0.43 c p3
289.66 508.87 0.43 c p3
289.81 507.81 0.43 c p3
289.95 508.32 0.43 c p3
290.10 508.52 0.43 c p3
290.24 509.03 0.43 c p3
290.39 508.17 0.43 c p3
290.53 508.17 0.43 c p3
290.68 508.67 0.43 c p3
290.83 508.67 0.43 c p3
290.97 508.87 0.43 c p3
291.12 509.22 0.43 c p3
291.26 507.46 0.43 c p3
291.41 507.97 0.43 c p3
291.55 507.46 0.43 c p3
291.70 507.97 0.43 c p3
291.84 508.17 0.43 c p3
291.99 508.67 0.43 c p3
292.14 508.17 0.43 c p3
292.28 508.87 0.43 c p3
292.43 508.67 0.43 c p3
292.57 509.22 0.43 c p3
292.72 507.97 0.43 c p3
292.86 509.53 0.43 c p3
293.01 509.73 0.43 c p3
293.16 508.17 0.43 c p3
293.30 509.22 0.43 c p3
293.45 509.03 0.43 c p3
293.59 508.67 0.43 c p3
293.74 508.67 0.43 c p3
293.88 507.97 0.43 c p3
294.03 509.22 0.43 c p3
294.17 507.97 0.43 c p3
294.32 509.03 0.43 c p3
294.47 509.03 0.43 c p3
294.61 509.53 0.43 c p3
294.76 508.87 0.43 c p3
294.90 509.89 0.43 c p3
295.05 509.22 0.43 c p3
295.19 509.38 0.43 c p3
295.34 509.38 0.43 c p3
295.48 509.38 0.43 c p3
295.63 509.03 0.43 c p3
295.78 508.87 0.43 c p3
295.92 509.38 0.43 c p3
296.07 509.73 0.43 c p3
296.21 509.73 0.43 c p3
296.36 509.38 0.43 c p3
296.50 509.38 0.43 c p3
296.65 509.38 0.43 c p3
296.79 509.73 0.43 c p3
296.94 509.38 0.43 c p3
297.09 508.67 0.43 c p3
297.23 510.08 0.43 c p3
297.38 509.89 0.43 c p3
297.52 509.89 0.43 c p3
297.67 509.03 0.43 c p3
297.81 510.43 0.43 c p3
297.96 510.08 0.43 c p3
298.11 508.67 0.43 c p3
298.25 509.89 0.43 c p3
298.40 509.38 0.43 c p3
298.54 510.08 0.43 c p3
298.69 509.89 0.43 c p3
298.83 509.03 0.43 c p3
298.98 510.08 0.43 c p3
299.12 509.53 0.43 c p3
299.27 508.87 0.43 c p3
299.42 508.67 0.43 c p3
299.56 509.89 0.43 c p3
299.71 509.53 0.43 c p3
299.85 509.53 0.43 c p3
300.00 509.73 0.43 c p3
300.14 509.89 0.43 c p3
300.29 509.53 0.43 c p3
300.43 509.22 0.43 c p3
300.58 509.89 0.43 c p3
300.73 510.43 0.43 c p3
300.87 510.59 0.43 c p3
301.02 510.59 0.43 c p3
301.16 510.43 0.43 c p3
301.31 509.73 0.43 c p3
301.45 509.03 0.43 c p3
301.60 510.79 0.43 c p3
301.74 509.89 0.43 c p3
301.89 509.89 0.43 c p3
302.04 510.94 0.43 c p3
302.18 510.24 0.43 c p3
302.33 510.08 0.43 c p3
302.47 510.79 0.43 c p3
302.62 509.22 0.43 c p3
302.76 510.24 0.43 c p3
302.91 510.08 0.43 c p3
303.06 509.53 0.43 c p3
303.20 509.73 0.43 c p3
303.35 509.89 0.43 c p3
303.49 509.89 0.43 c p3
303.64 509.89 0.43 c p3
303.78 510.08 0.43 c p3
303.93 510.43 0.43 c p3
304.07 510.08 0.43 c p3
304.22 509.73 0.43 c p3
304.37 509.89 0.43 c p3
304.51 510.59 0.43 c p3
304.66 509.38 0.43 c p3
304.80 510.08 0.43 c p3
304.95 509.38 0.43 c p3
305.09 510.43 0.43 c p3
305.24 509.89 0.43 c p3
305.38 510.08 0.43 c p3
305.53 510.94 0.43 c p3
305.68 509.73 0.43 c p3
305.82 509.73 0.43 c p3
305.97 509.89 0.43 c p3
306.11 510.08 0.43 c p3
306.26 510.94 0.43 c p3
306.40 510.59 0.43 c p3
306.55 510.24 0.43 c p3
306.69 510.24 0.43 c p3
306.84 510.59 0.43 c p3
306.99 509.89 0.43 c p3
307.13 510.08 0.43 c p3
307.28 511.14 0.43 c p3
307.42 509.73 0.43 c p3
307.57 510.43 0.43 c p3
307.71 510.24 0.43 c p3
307.86 510.08 0.43 c p3
308.01 510.59 0.43 c p3
308.15 510.43 0.43 c p3
308.30 511.14 0.43 c p3
308.44 510.43 0.43 c p3
308.59 510.08 0.43 c p3
308.73 510.24 0.43 c p3
308.88 510.59 0.43 c p3
309.02 509.89 0.43 c p3
309.17 510.43 0.43 c p3
309.32 510.94 0.43 c p3
309.46 510.43 0.43 c p3
309.61 510.59 0.43 c p3
309.75 510.24 0.43 c p3
309.90 510.94 0.43 c p3
310.04 510.24 0.43 c p3
310.19 510.43 0.43 c p3
310.33 510.94 0.43 c p3
310.48 510.08 0.43 c p3
310.63 510.59 0.43 c p3
310.77 511.14 0.43 c p3
310.92 509.53 0.43 c p3
311.06 510.79 0.43 c p3
311.21 510.94 0.43 c p3
311.35 510.59 0.43 c p3
311.50 511.14 0.43 c p3
311.64 511.84 0.43 c p3
311.79 511.30 0.43 c p3
311.94 510.43 0.43 c p3
312.08 511.65 0.43 c p3
312.23 510.94 0.43 c p3
312.37 510.43 0.43 c p3
312.52 510.79 0.43 c p3
312.66 511.65 0.43 c p3
312.81 510.59 0.43 c p3
312.96 509.73 0.43 c p3
313.10 510.94 0.43 c p3
313.25 510.43 0.43 c p3
313.39 510.24 0.43 c p3
313.54 511.14 0.43 c p3
313.68 510.79 0.43 c p3
313.83 510.79 0.43 c p3
313.97 510.94 0.43 c p3
314.12 511.14 0.43 c p3
314.27 510.08 0.43 c p3
314.41 511.30 0.43 c p3
314.56 510.59 0.43 c p3
314.70 510.79 0.43 c p3
314.85 510.59 0.43 c p3
314.99 511.30 0.43 c p3
315.14 510.43 0.43 c p3
315.28 510.24 0.43 c p3
315.43 511.14 0.43 c p3
315.58 510.59 0.43 c p3
315.72 510.59 0.43 c p3
315.87 509.53 0.43 c p3
316.01 510.43 0.43 c p3
316.16 509.38 0.43 c p3
316.30 510.08 0.43 c p3
316.45 511.14 0.43 c p3
316.59 510.79 0.43 c p3
316.74 511.30 0.43 c p3
316.89 511.14 0.43 c p3
317.03 511.14 0.43 c p3
317.18 509.89 0.43 c p3
317.32 511.30 0.43 c p3
317.47 510.79 0.43 c p3
317.61 510.94 0.43 c p3
317.76 510.59 0.43 c p3
317.91 510.79 0.43 c p3
318.05 510.43 0.43 c p3
318.20 510.43 0.43 c p3
318.34 510.59 0.43 c p3
318.49 511.14 0.43 c p3
318.63 510.79 0.43 c p3
318.78 510.59 0.43 c p3
318.92 511.14 0.43 c p3
319.07 510.43 0.43 c p3
319.22 511.30 0.43 c p3
319.36 511.14 0.43 c p3
319.51 510.43 0.43 c p3
319.65 512.00 0.43 c p3
319.80 510.43 0.43 c p3
319.94 510.24 0.43 c p3
320.09 511.30 0.43 c p3
320.23 510.24 0.43 c p3
320.38 510.24 0.43 c p3
320.53 511.65 0.43 c p3
320.67 510.59 0.43 c p3
320.82 510.79 0.43 c p3
320.96 510.94 0.43 c p3
321.11 511.14 0.43 c p3
321.25 510.79 0.43 c p3
321.40 510.94 0.43 c p3
321.54 510.94 0.43 c p3
321.69 511.14 0.43 c p3
321.84 511.49 0.43 c p3
321.98 510.79 0.43 c p3
322.13 510.59 0.43 c p3
322.27 510.79 0.43 c p3
322.42 510.94 0.43 c p3
322.56 510.79 0.43 c p3
322.71 510.79 0.43 c p3
322.85 511.30 0.43 c p3
323.00 510.59 0.43 c p3
323.15 511.30 0.43 c p3
323.29 510.08 0.43 c p3
323.44 510.43 0.43 c p3
323.58 510.94 0.43 c p3
323.73 511.30 0.43 c p3
323.87 511.65 0.43 c p3
324.02 510.79 0.43 c p3
324.17 511.84 0.43 c p3
324.31 510.24 0.43 c p3
324.46 510.24 0.43 c p3
324.60 510.94 0.43 c p3
324.75 511.30 0.43 c p3
324.89 511.30 0.43 c p3
325.04 511.49 0.43 c p3
325.18 511.14 0.43 c p3
325.33 510.43 0.43 c p3
325.48 510.43 0.43 c p3
325.62 511.14 0.43 c p3
325.77 511.49 0.43 c p3
325.91 511.49 0.43 c p3
326.06 510.94 0.43 c p3
326.20 510.43 0.43 c p3
326.35 510.24 0.43 c p3
326.49 510.79 0.43 c p3
326.64 511.30 0.43 c p3
326.79 510.43 0.43 c p3
326.93 511.30 0.43 c p3
327.08 510.94 0.43 c p3
327.22 511.14 0.43 c p3
327.37 511.14 0.43 c p3
327.51 510.94 0.43 c p3
327.66 510.79 0.43 c p3
327.80 511.65 0.43 c p3
327.95 511.30 0.43 c p3
328.10 510.94 0.43 c p3
328.24 510.59 0.43 c p3
328.39 510.94 0.43 c p3
328.53 510.79 0.43 c p3
328.68 512.00 0.43 c p3
328.82 510.94 0.43 c p3
328.97 511.30 0.43 c p3
329.12 510.43 0.43 c p3
329.26 511.30 0.43 c p3
329.41 509.89 0.43 c p3
329.55 511.14 0.43 c p3
329.70 510.94 0.43 c p3
329.84 511.84 0.43 c p3
329.99 511.30 0.43 c p3
330.13 511.30 0.43 c p3
330.28 510.43 0.43 c p3
330.43 510.79 0.43 c p3
330.57 510.94 0.43 c p3
330.72 510.43 0.43 c p3
330.86 510.79 0.43 c p3
331.01 510.94 0.43 c p3
331.15 510.94 0.43 c p3
331.30 511.65 0.43 c p3
331.44 510.59 0.43 c p3
331.59 510.94 0.43 c p3
331.74 510.59 0.43 c p3
331.88 510.94 0.43 c p3
332.03 510.59 0.43 c p3
332.17 510.59 0.43 c p3
332.32 510.94 0.43 c p3
332.46 510.94 0.43 c p3
332.61 510.08 0.43 c p3
332.75 510.79 0.43 c p3
332.90 511.84 0.43 c p3
333.05 511.65 0.43 c p3
333.19 510.59 0.43 c p3
333.34 511.49 0.43 c p3
333.48 510.79 0.43 c p3
333.63 510.24 0.43 c p3
333.77 510.59 0.43 c p3
333.92 510.94 0.43 c p3
334.07 509.73 0.43 c p3
334.21 510.08 0.43 c p3
334.36 510.59 0.43 c p3
334.50 510.94 0.43 c p3
334.65 510.59 0.43 c p3
334.79 511.49 0.43 c p3
334.94 511.14 0.43 c p3
335.08 510.94 0.43 c p3
335.23 511.14 0.43 c p3
335.38 510.24 0.43 c p3
335.52 510.08 0.43 c p3
335.67 510.94 0.43 c p3
335.81 511.49 0.43 c p3
335.96 510.43 0.43 c p3
336.10 510.08 0.43 c p3
336.25 510.94 0.43 c p3
336.39 510.59 0.43 c p3
336.54 510.94 0.43 c p3
336.69 510.08 0.43 c p3
336.83 510.59 0.43 c p3
336.98 510.24 0.43 c p3
337.12 511.14 0.43 c p3
337.27 510.59 0.43 c p3
337.41 511.14 0.43 c p3
337.56 511.30 0.43 c p3
337.70 509.89 0.43 c p3
337.85 510.79 0.43 c p3
338.00 510.94 0.43 c p3
338.14 510.79 0.43 c p3
338.29 511.84 0.43 c p3
338.43 509.89 0.43 c p3
338.58 510.43 0.43 c p3
338.72 509.73 0.43 c p3
338.87 510.59 0.43 c p3
339.02 511.14 0.43 c p3
339.16 511.65 0.43 c p3
339.31 511.84 0.43 c p3
339.45 510.59 0.43 c p3
339.60 510.59 0.43 c p3
339.74 510.94 0.43 c p3
339.89 510.79 0.43 c p3
340.03 510.94 0.43 c p3
340.18 510.79 0.43 c p3
340.33 511.30 0.43 c p3
340.47 510.08 0.43 c p3
340.62 511.14 0.43 c p3
340.76 509.89 0.43 c p3
340.91 510.59 0.43 c p3
341.05 509.89 0.43 c p3
341.20 510.79 0.43 c p3
341.34 510.24 0.43 c p3
341.49 510.43 0.43 c p3
341.64 510.59 0.43 c p3
341.78 509.89 0.43 c p3
341.93 510.59 0.43 c p3
342.07 510.79 0.43 c p3
342.22 510.24 0.43 c p3
342.36 510.94 0.43 c p3
342.51 510.43 0.43 c p3
342.65 510.24 0.43 c p3
342.80 510.59 0.43 c p3
342.95 511.49 0.43 c p3
343.09 510.59 0.43 c p3
343.24 510.24 0.43 c p3
343.38 510.43 0.43 c p3
343.53 510.94 0.43 c p3
343.67 509.89 0.43 c p3
343.82 509.53 0.43 c p3
343.97 509.73 0.43 c p3
344.11 510.59 0.43 c p3
344.26 509.73 0.43 c p3
344.40 511.30 0.43 c p3
344.55 510.94 0.43 c p3
344.69 510.94 0.43 c p3
344.84 510.79 0.43 c p3
344.98 510.43 0.43 c p3
345.13 510.08 0.43 c p3
345.28 510.43 0.43 c p3
345.42 510.43 0.43 c p3
345.57 509.89 0.43 c p3
345.71 509.89 0.43 c p3
345.86 510.79 0.43 c p3
346.00 509.89 0.43 c p3
346.15 509.89 0.43 c p3
346.29 510.79 0.43 c p3
346.44 510.08 0.43 c p3
346.59 510.08 0.43 c p3
346.73 510.59 0.43 c p3
346.88 510.24 0.43 c p3
347.02 510.59 0.43 c p3
347.17 510.59 0.43 c p3
347.31 510.08 0.43 c p3
347.46 510.24 0.43 c p3
347.60 510.24 0.43 c p3
347.75 510.59 0.43 c p3
347.90 510.08 0.43 c p3
348.04 510.08 0.43 c p3
348.19 510.79 0.43 c p3
348.33 510.94 0.43 c p3
348.48 509.53 0.43 c p3
348.62 509.73 0.43 c p3
348.77 510.79 0.43 c p3
348.92 510.08 0.43 c p3
349.06 510.43 0.43 c p3
349.21 510.24 0.43 c p3
349.35 509.73 0.43 c p3
349.50 510.94 0.43 c p3
349.64 510.43 0.43 c p3
349.79 510.43 0.43 c p3
349.93 510.59 0.43 c p3
350.08 509.73 0.43 c p3
350.23 509.22 0.43 c p3
350.37 510.43 0.43 c p3
350.52 511.14 0.43 c p3
350.66 509.73 0.43 c p3
350.81 510.08 0.43 c p3
350.95 510.43 0.43 c p3
351.10 510.08 0.43 c p3
351.24 509.89 0.43 c p3
351.39 509.89 0.43 c p3
351.54 510.79 0.43 c p3
351.68 510.08 0.43 c p3
351.83 509.73 0.43 c p3
351.97 510.79 0.43 c p3
352.12 509.89 0.43 c p3
352.26 509.22 0.43 c p3
352.41 509.22 0.43 c p3
352.55 510.43 0.43 c p3
352.70 510.08 0.43 c p3
352.85 510.08 0.43 c p3
352.99 510.43 0.43 c p3
353.14 510.24 0.43 c p3
353.28 510.43 0.43 c p3
353.43 509.73 0.43 c p3
353.57 510.43 0.43 c p3
353.72 509.89 0.43 c p3
353.86 509.73 0.43 c p3
354.01 510.79 0.43 c p3
354.16 509.73 0.43 c p3
354.30 509.89 0.43 c p3
354.45 510.43 0.43 c p3
354.59 510.08 0.43 c p3
354.74 510.08 0.43 c p3
354.88 509.89 0.43 c p3
355.03 509.89 0.43 c p3
355.18 510.08 0.43 c p3
355.32 509.38 0.43 c p3
355.47 510.59 0.43 c p3
355.61 509.53 0.43 c p3
355.76 510.24 0.43 c p3
355.90 510.24 0.43 c p3
356.05 510.59 0.43 c p3
356.19 509.38 0.43 c p3
356.34 510.43 0.43 c p3
356.49 510.43 0.43 c p3
356.63 509.73 0.43 c p3
356.78 509.73 0.43 c p3
356.92 510.43 0.43 c p3
357.07 509.73 0.43 c p3
357.21 510.08 0.43 c p3
357.36 510.08 0.43 c p3
357.50 510.24 0.43 c p3
357.65 510.08 0.43 c p3
357.80 510.94 0.43 c p3
357.94 510.59 0.43 c p3
358.09 510.08 0.43 c p3
358.23 510.94 0.43 c p3
358.38 509.22 0.43 c p3
358.52 509.53 0.43 c p3
358.67 510.08 0.43 c p3
358.81 509.03 0.43 c p3
358.96 510.59 0.43 c p3
359.11 509.38 0.43 c p3
359.25 510.43 0.43 c p3
359.40 509.73 0.43 c p3
359.54 509.38 0.43 c p3
359.69 509.89 0.43 c p3
359.83 510.24 0.43 c p3
359.98 509.53 0.43 c p3
360.13 509.38 0.43 c p3
360.27 509.53 0.43 c p3
360.42 509.73 0.43 c p3
360.56 509.73 0.43 c p3
360.71 509.73 0.43 c p3
360.85 509.22 0.43 c p3
361.00 510.43 0.43 c p3
361.14 509.89 0.43 c p3
361.29 510.24 0.43 c p3
361.44 509.89 0.43 c p3
361.58 509.89 0.43 c p3
361.73 509.89 0.43 c p3
361.87 509.38 0.43 c p3
362.02 509.73 0.43 c p3
362.16 510.59 0.43 c p3
362.31 509.73 0.43 c p3
362.45 508.87 0.43 c p3
362.60 509.22 0.43 c p3
362.75 510.08 0.43 c p3
362.89 510.24 0.43 c p3
363.04 508.32 0.43 c p3
363.18 509.53 0.43 c p3
363.33 510.43 0.43 c p3
363.47 510.24 0.43 c p3
363.62 510.08 0.43 c p3
363.76 508.87 0.43 c p3
363.91 510.08 0.43 c p3
364.06 508.87 0.43 c p3
364.20 510.24 0.43 c p3
364.35 509.22 0.43 c p3
364.49 510.43 0.43 c p3
364.64 509.89 0.43 c p3
364.78 509.22 0.43 c p3
364.93 510.08 0.43 c p3
365.08 509.53 0.43 c p3
365.22 509.22 0.43 c p3
365.37 510.08 0.43 c p3
365.51 509.03 0.43 c p3
365.66 509.22 0.43 c p3
365.80 509.22 0.43 c p3
365.95 509.53 0.43 c p3
366.09 509.53 0.43 c p3
366.24 508.67 0.43 c p3
366.39 509.22 0.43 c p3
366.53 509.03 0.43 c p3
366.68 510.08 0.43 c p3
366.82 509.53 0.43 c p3
366.97 509.89 0.43 c p3
367.11 510.43 0.43 c p3
367.26 509.38 0.43 c p3
367.40 508.67 0.43 c p3
367.55 509.03 0.43 c p3
367.70 510.24 0.43 c p3
367.84 510.43 0.43 c p3
367.99 510.24 0.43 c p3
368.13 509.03 0.43 c p3
368.28 509.22 0.43 c p3
368.42 510.08 0.43 c p3
368.57 509.89 0.43 c p3
368.71 509.89 0.43 c p3
368.86 509.73 0.43 c p3
369.01 508.87 0.43 c p3
369.15 509.53 0.43 c p3
369.30 509.38 0.43 c p3
369.44 509.89 0.43 c p3
369.59 509.03 0.43 c p3
369.73 510.08 0.43 c p3
369.88 509.22 0.43 c p3
370.03 508.52 0.43 c p3
370.17 509.53 0.43 c p3
370.32 510.24 0.43 c p3
370.46 509.73 0.43 c p3
370.61 508.87 0.43 c p3
370.75 509.03 0.43 c p3
370.90 509.73 0.43 c p3
371.04 509.22 0.43 c p3
371.19 509.22 0.43 c p3
371.34 508.87 0.43 c p3
371.48 509.53 0.43 c p3
371.63 508.52 0.43 c p3
371.77 509.73 0.43 c p3
371.92 509.03 0.43 c p3
372.06 510.08 0.43 c p3
372.21 509.53 0.43 c p3
372.35 510.24 0.43 c p3
372.50 509.03 0.43 c p3
372.65 510.24 0.43 c p3
372.79 509.53 0.43 c p3
372.94 509.53 0.43 c p3
373.08 508.32 0.43 c p3
373.23 509.73 0.43 c p3
373.37 510.43 0.43 c p3
373.52 509.53 0.43 c p3
373.66 509.38 0.43 c p3
373.81 509.22 0.43 c p3
373.96 509.22 0.43 c p3
374.10 509.53 0.43 c p3
374.25 508.52 0.43 c p3
374.39 509.73 0.43 c p3
374.54 509.03 0.43 c p3
374.68 510.24 0.43 c p3
374.83 509.03 0.43 c p3
374.98 509.22 0.43 c p3
375.12 508.87 0.43 c p3
375.27 509.89 0.43 c p3
375.41 508.87 0.43 c p3
375.56 509.89 0.43 c p3
375.70 508.32 0.43 c p3
375.85 510.24 0.43 c p3
375.99 508.87 0.43 c p3
376.14 509.03 0.43 c p3
376.29 508.32 0.43 c p3
376.43 509.03 0.43 c p3
376.58 508.87 0.43 c p3
376.72 509.38 0.43 c p3
376.87 509.03 0.43 c p3
377.01 510.43 0.43 c p3
377.16 509.03 0.43 c p3
377.30 510.24 0.43 c p3
377.45 509.89 0.43 c p3
377.60 508.87 0.43 c p3
377.74 509.38 0.43 c p3
377.89 509.38 0.43 c p3
378.03 509.53 0.43 c p3
378.18 509.22 0.43 c p3
378.32 508.67 0.43 c p3
378.47 510.24 0.43 c p3
378.61 509.22 0.43 c p3
378.76 509.38 0.43 c p3
378.91 509.53 0.43 c p3
379.05 509.38 0.43 c p3
379.20 508.87 0.43 c p3
379.34 510.08 0.43 c p3
379.49 509.73 0.43 c p3
379.63 509.89 0.43 c p3
379.78 509.73 0.43 c p3
379.93 509.53 0.43 c p3
380.07 509.38 0.43 c p3
380.22 509.89 0.43 c p3
380.36 509.22 0.43 c p3
380.51 509.53 0.43 c p3
380.65 509.53 0.43 c p3
380.80 509.53 0.43 c p3
380.94 509.53 0.43 c p3
381.09 508.67 0.43 c p3
381.24 509.03 0.43 c p3
381.38 509.22 0.43 c p3
381.53 509.03 0.43 c p3
381.67 510.24 0.43 c p3
381.82 508.32 0.43 c p3
381.96 509.22 0.43 c p3
382.11 508.67 0.43 c p3
382.25 510.24 0.43 c p3
382.40 509.53 0.43 c p3
0.00 0.00 432.00 576.00 cl
0 0 0 srgb
0.75 setlinewidth
[] 0 setdash
1 setlinecap
1 setlinejoin
10.00 setmiterlimit
np
236.96 345.60 m
145.59 0 l
o
np
236.96 345.60 m
0 -5.76 l
o
np
266.08 345.60 m
0 -5.76 l
o
np
295.19 345.60 m
0 -5.76 l
o
np
324.31 345.60 m
0 -5.76 l
o
np
353.43 345.60 m
0 -5.76 l
o
np
382.55 345.60 m
0 -5.76 l
o
/Font1 findfont 10 s
236.96 329.47 (0) .5 0 t
266.08 329.47 (2000) .5 0 t
324.31 329.47 (6000) .5 0 t
382.55 329.47 (10000) .5 0 t
np
216.00 352.00 m
0 160.27 l
o
np
216.00 352.00 m
-5.76 0 l
o
np
216.00 384.05 m
-5.76 0 l
o
np
216.00 416.11 m
-5.76 0 l
o
np
216.00 448.16 m
-5.76 0 l
o
np
216.00 480.22 m
-5.76 0 l
o
np
216.00 512.27 m
-5.76 0 l
o
209.09 348.41 (0.0) 1 0 t
209.09 380.46 (0.2) 1 0 t
209.09 412.52 (0.4) 1 0 t
209.09 444.57 (0.6) 1 0 t
209.09 476.63 (0.8) 1 0 t
209.09 508.68 (1.0) 1 0 t
np
216.00 345.60 m
172.80 0 l
0 172.80 l
-172.80 0 l
0 -172.80 l
o
0.00 0.00 432.00 576.00 cl
/Font1 findfont 10 s
0 0 0 srgb
302.40 313.34 (Zeit / ms \(total\)) .5 0 t
190.66 432.00 (U / V) .5 90 t
216.00 345.60 388.80 518.40 cl
0 0 0 srgb
0.38 setlinewidth
[ 1.12 1.88] 0 setdash
1 setlinecap
1 setlinejoin
10.00 setmiterlimit
np
223.42 345.60 m
0 172.80 l
o
np
234.34 345.60 m
0 172.80 l
o
np
237.98 345.60 m
0 172.80 l
o
np
281.65 345.60 m
0 172.80 l
o
86.40 57.60 388.80 288.00 cl
1 0 0 srgb
1.50 setlinewidth
[] 0 setdash
1 setlinecap
1 setlinejoin
10.00 setmiterlimit
np
97.60 279.47 m
1.41 -59.88 l
1.40 -42.55 l
1.41 -30.24 l
1.41 -21.49 l
1.41 -15.28 l
1.40 -10.85 l
1.41 -7.72 l
1.41 -5.48 l
1.40 -3.90 l
1.41 -2.77 l
1.41 -1.97 l
1.40 -1.39 l
1.41 -1.00 l
1.41 -0.71 l
1.41 -0.50 l
1.40 -0.35 l
1.41 -0.26 l
1.41 -0.18 l
1.40 -0.13 l
1.41 -0.09 l
1.41 -0.06 l
1.40 -0.05 l
1.41 -0.03 l
1.41 -0.02 l
1.41 -0.02 l
1.40 -0.01 l
1.41 -0.01 l
1.41 -0.01 l
1.40 0 l
1.41 0 l
1.41 -0.01 l
1.41 0 l
1.40 0 l
1.41 0 l
1.41 0 l
1.40 0 l
1.41 0 l
1.41 0 l
1.40 0 l
1.41 0 l
1.41 0 l
1.41 0 l
1.40 0 l
1.41 0 l
1.41 0 l
1.40 0 l
1.41 0 l
1.41 0 l
1.40 0 l
1.41 0 l
1.41 0 l
1.41 0 l
1.40 0 l
1.41 0 l
1.41 0 l
1.40 0 l
1.41 0 l
1.41 0 l
1.41 0 l
1.40 0 l
1.41 0 l
1.41 0 l
1.40 0 l
1.41 0 l
1.41 0 l
1.40 0 l
1.41 0 l
1.41 0 l
1.41 0 l
1.40 0 l
1.41 0 l
1.41 0 l
1.40 0 l
1.41 0 l
1.41 0 l
1.40 0 l
1.41 0 l
1.41 0 l
1.41 0 l
1.40 0 l
1.41 0 l
1.41 0 l
1.40 0 l
1.41 0 l
1.41 0 l
1.41 0 l
1.40 0 l
1.41 0 l
1.41 0 l
1.40 0 l
1.41 0 l
1.41 0 l
1.40 0 l
1.41 0 l
1.41 0 l
1.41 0 l
1.40 0 l
1.41 0 l
1.41 0 l
238.30 72.51 lineto
1.41 0 l
1.41 0 l
1.40 0 l
1.41 0 l
1.41 0 l
1.41 0 l
1.40 0 l
1.41 0 l
1.41 0 l
1.40 0 l
1.41 0 l
1.41 0 l
1.40 0 l
1.41 0 l
1.41 0 l
1.41 0 l
1.40 0 l
1.41 0 l
1.41 0 l
1.40 0 l
1.41 0 l
1.41 0 l
1.41 0 l
1.40 0 l
1.41 0 l
1.41 0 l
1.40 0 l
1.41 0 l
1.41 0 l
1.40 0 l
1.41 0 l
1.41 0 l
1.41 0 l
1.40 0 l
1.41 0 l
1.41 0 l
1.40 0 l
1.41 0 l
1.41 0 l
1.40 0 l
1.41 0 l
1.41 0 l
1.41 0 l
1.40 0 l
1.41 0 l
1.41 0 l
1.40 0 l
1.41 0 l
1.41 0 l
1.41 0 l
1.40 0 l
1.41 0 l
1.41 0 l
1.40 0 l
1.41 0 l
1.41 0 l
1.40 0 l
1.41 0 l
1.41 0 l
1.41 0 l
1.40 0 l
1.41 0 l
1.41 0 l
1.40 0 l
1.41 0 l
1.41 0 l
1.40 0 l
1.41 0 l
1.41 0 l
1.41 0 l
1.40 0 l
1.41 0 l
1.41 0 l
1.40 0 l
1.41 0 l
1.41 0 l
1.41 0 l
1.40 0 l
1.41 0 l
1.41 0 l
1.40 0 l
1.41 0 l
1.41 0 l
1.40 0 l
1.41 0 l
1.41 0 l
1.41 0 l
1.40 0 l
1.41 0 l
1.41 0 l
1.40 0 l
1.41 0 l
1.41 0 l
1.40 0 l
1.41 0 l
1.41 0 l
1.41 0 l
1.40 0 l
1.41 0 l
o
0.00 0.00 432.00 576.00 cl
0 0 0 srgb
0.75 setlinewidth
[] 0 setdash
1 setlinecap
1 setlinejoin
10.00 setmiterlimit
np
97.60 57.60 m
280.00 0 l
o
np
97.60 57.60 m
0 -5.76 l
o
np
153.60 57.60 m
0 -5.76 l
o
np
209.60 57.60 m
0 -5.76 l
o
np
265.60 57.60 m
0 -5.76 l
o
np
321.60 57.60 m
0 -5.76 l
o
np
377.60 57.60 m
0 -5.76 l
o
/Font1 findfont 10 s
97.60 41.47 (0) .5 0 t
153.60 41.47 (2000) .5 0 t
209.60 41.47 (4000) .5 0 t
265.60 41.47 (6000) .5 0 t
321.60 41.47 (8000) .5 0 t
377.60 41.47 (10000) .5 0 t
np
86.40 66.13 m
0 210.39 l
o
np
86.40 66.13 m
-5.76 0 l
o
np
86.40 108.21 m
-5.76 0 l
o
np
86.40 150.29 m
-5.76 0 l
o
np
86.40 192.36 m
-5.76 0 l
o
np
86.40 234.44 m
-5.76 0 l
o
np
86.40 276.52 m
-5.76 0 l
o
79.49 62.54 (0.00) 1 0 t
79.49 104.62 (0.05) 1 0 t
79.49 146.70 (0.10) 1 0 t
79.49 188.77 (0.15) 1 0 t
79.49 230.85 (0.20) 1 0 t
79.49 272.93 (0.25) 1 0 t
np
86.40 57.60 m
302.40 0 l
0 230.40 l
-302.40 0 l
0 -230.40 l
o
0.00 0.00 432.00 576.00 cl
/Font1 findfont 10 s
0 0 0 srgb
237.60 13.82 (Zeit / ms \(nach Puls\)) .5 0 t
49.54 172.80 (Absorbanz A) .5 90 t
86.40 57.60 388.80 288.00 cl
/bg { 1 1 1 srgb } def
0 0 0 srgb
0.75 setlinewidth
[] 0 setdash
1 setlinecap
1 setlinejoin
10.00 setmiterlimit
99.84 197.00 0.65 c p3
100.12 188.18 0.65 c p3
100.40 181.73 0.65 c p3
100.68 171.03 0.65 c p3
100.96 165.00 0.65 c p3
101.24 158.47 0.65 c p3
101.52 153.11 0.65 c p3
101.80 145.74 0.65 c p3
102.08 140.11 0.65 c p3
102.36 135.46 0.65 c p3
102.64 131.99 0.65 c p3
102.92 127.55 0.65 c p3
103.20 122.63 0.65 c p3
103.48 121.11 0.65 c p3
103.76 114.89 0.65 c p3
104.04 112.55 0.65 c p3
104.32 109.18 0.65 c p3
104.60 107.30 0.65 c p3
104.88 103.16 0.65 c p3
105.16 101.30 0.65 c p3
105.44 100.79 0.65 c p3
105.72 98.55 0.65 c p3
106.00 96.72 0.65 c p3
106.28 95.81 0.65 c p3
106.56 93.09 0.65 c p3
106.84 94.40 0.65 c p3
107.12 92.19 0.65 c p3
107.40 90.89 0.65 c p3
107.68 89.10 0.65 c p3
107.96 89.10 0.65 c p3
108.24 85.94 0.65 c p3
108.52 86.43 0.65 c p3
108.80 85.55 0.65 c p3
109.08 85.94 0.65 c p3
109.36 86.83 0.65 c p3
109.64 86.43 0.65 c p3
109.92 85.55 0.65 c p3
110.20 83.79 0.65 c p3
110.48 82.03 0.65 c p3
110.76 83.30 0.65 c p3
111.04 83.79 0.65 c p3
111.32 82.91 0.65 c p3
111.60 82.03 0.65 c p3
111.88 83.79 0.65 c p3
112.16 81.54 0.65 c p3
112.44 81.54 0.65 c p3
112.72 80.28 0.65 c p3
113.00 79.41 0.65 c p3
113.28 79.80 0.65 c p3
113.56 82.91 0.65 c p3
113.84 80.28 0.65 c p3
114.12 79.80 0.65 c p3
114.40 80.28 0.65 c p3
114.68 76.82 0.65 c p3
114.96 77.20 0.65 c p3
115.24 82.03 0.65 c p3
115.52 78.06 0.65 c p3
115.80 79.41 0.65 c p3
116.08 80.28 0.65 c p3
116.36 79.80 0.65 c p3
116.64 79.80 0.65 c p3
116.92 79.80 0.65 c p3
117.20 79.41 0.65 c p3
117.48 79.41 0.65 c p3
117.76 78.06 0.65 c p3
118.04 78.06 0.65 c p3
118.32 77.20 0.65 c p3
118.60 78.55 0.65 c p3
118.88 78.55 0.65 c p3
119.16 79.41 0.65 c p3
119.44 79.41 0.65 c p3
119.72 77.68 0.65 c p3
120.00 80.28 0.65 c p3
120.28 78.55 0.65 c p3
120.56 77.20 0.65 c p3
120.84 79.80 0.65 c p3
121.12 79.80 0.65 c p3
121.40 81.54 0.65 c p3
121.68 76.34 0.65 c p3
121.96 79.80 0.65 c p3
122.24 78.06 0.65 c p3
122.52 75.48 0.65 c p3
122.80 78.06 0.65 c p3
123.08 76.82 0.65 c p3
123.36 79.41 0.65 c p3
123.64 77.68 0.65 c p3
123.92 80.67 0.65 c p3
124.20 78.93 0.65 c p3
124.48 80.67 0.65 c p3
124.76 78.06 0.65 c p3
125.04 78.93 0.65 c p3
125.32 78.06 0.65 c p3
125.60 79.80 0.65 c p3
125.88 79.41 0.65 c p3
126.16 78.55 0.65 c p3
126.44 77.20 0.65 c p3
126.72 77.20 0.65 c p3
127.00 78.06 0.65 c p3
127.28 78.55 0.65 c p3
127.56 77.20 0.65 c p3
127.84 78.55 0.65 c p3
128.12 76.82 0.65 c p3
128.40 77.68 0.65 c p3
128.68 77.20 0.65 c p3
128.96 75.95 0.65 c p3
129.24 78.93 0.65 c p3
129.52 78.06 0.65 c p3
129.80 78.06 0.65 c p3
130.08 76.34 0.65 c p3
130.36 78.06 0.65 c p3
130.64 79.80 0.65 c p3
130.92 75.48 0.65 c p3
131.20 78.93 0.65 c p3
131.48 78.06 0.65 c p3
131.76 78.55 0.65 c p3
132.04 77.20 0.65 c p3
132.32 77.20 0.65 c p3
132.60 77.68 0.65 c p3
132.88 76.82 0.65 c p3
133.16 76.82 0.65 c p3
133.44 75.95 0.65 c p3
133.72 76.34 0.65 c p3
134.00 76.34 0.65 c p3
134.28 75.95 0.65 c p3
134.56 75.48 0.65 c p3
134.84 75.48 0.65 c p3
135.12 75.95 0.65 c p3
135.40 75.09 0.65 c p3
135.68 77.20 0.65 c p3
135.96 76.82 0.65 c p3
136.24 76.82 0.65 c p3
136.52 75.95 0.65 c p3
136.80 78.55 0.65 c p3
137.08 75.95 0.65 c p3
137.36 76.82 0.65 c p3
137.64 75.48 0.65 c p3
137.92 75.95 0.65 c p3
138.20 74.71 0.65 c p3
138.48 75.95 0.65 c p3
138.76 75.95 0.65 c p3
139.04 76.82 0.65 c p3
139.32 77.20 0.65 c p3
139.60 76.34 0.65 c p3
139.88 75.09 0.65 c p3
140.16 73.85 0.65 c p3
140.44 74.71 0.65 c p3
140.72 75.95 0.65 c p3
141.00 75.95 0.65 c p3
141.28 75.95 0.65 c p3
141.56 75.09 0.65 c p3
141.84 74.23 0.65 c p3
142.12 75.09 0.65 c p3
142.40 74.71 0.65 c p3
142.68 74.23 0.65 c p3
142.96 75.09 0.65 c p3
143.24 73.85 0.65 c p3
143.52 75.09 0.65 c p3
143.80 74.23 0.65 c p3
144.08 74.71 0.65 c p3
144.36 75.95 0.65 c p3
144.64 72.52 0.65 c p3
144.92 73.00 0.65 c p3
145.20 73.38 0.65 c p3
145.48 75.09 0.65 c p3
145.76 73.00 0.65 c p3
146.04 73.00 0.65 c p3
146.32 73.00 0.65 c p3
146.60 73.38 0.65 c p3
146.88 73.85 0.65 c p3
147.16 73.85 0.65 c p3
147.44 73.38 0.65 c p3
147.72 74.23 0.65 c p3
148.00 72.52 0.65 c p3
148.28 73.00 0.65 c p3
148.56 71.67 0.65 c p3
148.84 74.23 0.65 c p3
149.12 75.09 0.65 c p3
149.40 73.38 0.65 c p3
149.68 73.00 0.65 c p3
149.96 72.52 0.65 c p3
150.24 70.82 0.65 c p3
150.52 74.23 0.65 c p3
150.80 72.52 0.65 c p3
151.08 71.29 0.65 c p3
151.36 73.85 0.65 c p3
151.64 74.71 0.65 c p3
151.92 70.45 0.65 c p3
152.20 71.67 0.65 c p3
152.48 72.15 0.65 c p3
152.76 73.85 0.65 c p3
153.04 73.00 0.65 c p3
153.32 73.38 0.65 c p3
153.60 75.48 0.65 c p3
153.88 71.67 0.65 c p3
154.16 71.67 0.65 c p3
154.44 71.67 0.65 c p3
154.72 72.15 0.65 c p3
155.00 74.23 0.65 c p3
155.28 72.52 0.65 c p3
155.56 72.15 0.65 c p3
155.84 71.29 0.65 c p3
156.12 70.82 0.65 c p3
156.40 72.15 0.65 c p3
156.68 71.67 0.65 c p3
156.96 70.45 0.65 c p3
157.24 69.60 0.65 c p3
157.52 73.38 0.65 c p3
157.80 69.60 0.65 c p3
158.08 69.97 0.65 c p3
158.36 71.67 0.65 c p3
158.64 69.60 0.65 c p3
158.92 73.00 0.65 c p3
159.20 70.82 0.65 c p3
159.48 70.82 0.65 c p3
159.76 69.13 0.65 c p3
160.04 70.45 0.65 c p3
160.32 69.60 0.65 c p3
160.60 70.45 0.65 c p3
160.88 68.75 0.65 c p3
161.16 70.45 0.65 c p3
161.44 70.45 0.65 c p3
161.72 70.45 0.65 c p3
162.00 69.97 0.65 c p3
162.28 70.45 0.65 c p3
162.56 71.67 0.65 c p3
162.84 69.97 0.65 c p3
163.12 70.82 0.65 c p3
163.40 67.91 0.65 c p3
163.68 69.60 0.65 c p3
163.96 66.60 0.65 c p3
164.24 67.44 0.65 c p3
164.52 68.75 0.65 c p3
164.80 68.75 0.65 c p3
165.08 67.91 0.65 c p3
165.36 68.75 0.65 c p3
165.64 68.28 0.65 c p3
165.92 69.97 0.65 c p3
166.20 69.60 0.65 c p3
166.48 68.75 0.65 c p3
166.76 68.28 0.65 c p3
167.04 67.07 0.65 c p3
167.32 68.28 0.65 c p3
167.60 67.07 0.65 c p3
167.88 66.23 0.65 c p3
168.16 66.60 0.65 c p3
168.44 67.44 0.65 c p3
168.72 64.93 0.65 c p3
169.00 65.76 0.65 c p3
169.28 67.91 0.65 c p3
169.56 69.13 0.65 c p3
169.84 69.13 0.65 c p3
170.12 69.13 0.65 c p3
170.40 68.28 0.65 c p3
170.68 68.28 0.65 c p3
170.96 65.39 0.65 c p3
171.24 67.07 0.65 c p3
171.52 64.56 0.65 c p3
171.80 66.23 0.65 c p3
172.08 68.28 0.65 c p3
172.36 67.91 0.65 c p3
172.64 68.28 0.65 c p3
172.92 67.07 0.65 c p3
173.20 68.75 0.65 c p3
173.48 67.91 0.65 c p3
173.76 65.39 0.65 c p3
174.04 66.60 0.65 c p3
174.32 65.76 0.65 c p3
174.60 64.93 0.65 c p3
174.88 65.76 0.65 c p3
175.16 62.89 0.65 c p3
175.44 66.60 0.65 c p3
175.72 66.60 0.65 c p3
176.00 64.56 0.65 c p3
176.28 64.56 0.65 c p3
176.56 62.06 0.65 c p3
176.84 60.77 0.65 c p3
177.12 62.06 0.65 c p3
177.40 63.72 0.65 c p3
177.68 68.75 0.65 c p3
177.96 69.60 0.65 c p3
178.24 69.97 0.65 c p3
178.52 69.97 0.65 c p3
178.80 66.23 0.65 c p3
179.08 63.72 0.65 c p3
179.36 62.89 0.65 c p3
179.64 63.26 0.65 c p3
179.92 62.89 0.65 c p3
180.20 61.60 0.65 c p3
180.48 61.60 0.65 c p3
180.76 62.89 0.65 c p3
181.04 67.07 0.65 c p3
181.32 62.89 0.65 c p3
181.60 62.89 0.65 c p3
181.88 65.39 0.65 c p3
182.16 64.56 0.65 c p3
182.44 65.76 0.65 c p3
182.72 64.93 0.65 c p3
183.00 64.93 0.65 c p3
183.28 65.76 0.65 c p3
183.56 65.39 0.65 c p3
183.84 67.07 0.65 c p3
216.00 201.60 367.20 247.68 cl
0 0 0 srgb
0.75 setlinewidth
[] 0 setdash
1 setlinecap
1 setlinejoin
10.00 setmiterlimit
221.60 229.88 0.43 c p1
222.07 228.76 0.43 c p1
222.53 229.89 0.43 c p1
223.00 225.27 0.43 c p1
223.47 225.76 0.43 c p1
223.93 225.14 0.43 c p1
224.40 225.46 0.43 c p1
224.87 222.89 0.43 c p1
225.33 222.01 0.43 c p1
225.80 221.94 0.43 c p1
226.27 222.92 0.43 c p1
226.73 222.39 0.43 c p1
227.20 220.95 0.43 c p1
227.67 223.35 0.43 c p1
228.13 219.76 0.43 c p1
228.60 220.62 0.43 c p1
229.07 219.99 0.43 c p1
229.53 220.94 0.43 c p1
230.00 218.93 0.43 c p1
230.47 219.50 0.43 c p1
230.93 221.51 0.43 c p1
231.40 221.25 0.43 c p1
231.87 221.33 0.43 c p1
232.33 222.37 0.43 c p1
232.80 221.08 0.43 c p1
233.27 224.54 0.43 c p1
233.73 223.61 0.43 c p1
234.20 223.67 0.43 c p1
234.67 223.03 0.43 c p1
235.13 224.46 0.43 c p1
235.60 221.96 0.43 c p1
236.07 223.80 0.43 c p1
236.53 223.89 0.43 c p1
237.00 225.46 0.43 c p1
237.47 227.55 0.43 c p1
237.93 228.02 0.43 c p1
238.40 227.83 0.43 c p1
238.87 226.52 0.43 c p1
239.33 225.17 0.43 c p1
239.80 227.43 0.43 c p1
240.27 228.70 0.43 c p1
240.73 228.26 0.43 c p1
241.20 227.79 0.43 c p1
241.67 230.47 0.43 c p1
242.13 228.27 0.43 c p1
242.60 228.75 0.43 c p1
243.07 227.67 0.43 c p1
243.53 227.04 0.43 c p1
244.00 227.90 0.43 c p1
244.47 232.03 0.43 c p1
244.93 229.19 0.43 c p1
245.40 228.93 0.43 c p1
245.87 229.81 0.43 c p1
246.33 225.89 0.43 c p1
246.80 226.61 0.43 c p1
247.27 232.71 0.43 c p1
247.73 228.13 0.43 c p1
248.20 229.98 0.43 c p1
248.67 231.23 0.43 c p1
249.13 230.83 0.43 c p1
249.60 231.01 0.43 c p1
250.07 231.17 0.43 c p1
250.53 230.85 0.43 c p1
251.00 230.99 0.43 c p1
251.47 229.49 0.43 c p1
251.93 229.62 0.43 c p1
252.40 228.68 0.43 c p1
252.87 230.42 0.43 c p1
253.33 230.52 0.43 c p1
253.80 231.67 0.43 c p1
254.27 231.76 0.43 c p1
254.73 229.74 0.43 c p1
255.20 232.97 0.43 c p1
255.67 230.94 0.43 c p1
256.13 229.37 0.43 c p1
256.60 232.59 0.43 c p1
257.07 232.64 0.43 c p1
257.53 234.81 0.43 c p1
258.00 228.55 0.43 c p1
258.47 232.80 0.43 c p1
258.93 230.74 0.43 c p1
259.40 227.64 0.43 c p1
259.87 230.82 0.43 c p1
260.33 229.34 0.43 c p1
260.80 232.52 0.43 c p1
261.27 230.45 0.43 c p1
261.73 234.11 0.43 c p1
262.20 232.03 0.43 c p1
262.67 234.16 0.43 c p1
263.13 231.03 0.43 c p1
263.60 232.10 0.43 c p1
264.07 231.07 0.43 c p1
264.53 233.20 0.43 c p1
265.00 232.75 0.43 c p1
265.47 231.71 0.43 c p1
265.93 230.09 0.43 c p1
266.40 230.11 0.43 c p1
266.87 231.17 0.43 c p1
267.33 231.77 0.43 c p1
267.80 230.15 0.43 c p1
268.27 231.79 0.43 c p1
268.73 229.71 0.43 c p1
269.20 230.76 0.43 c p1
269.67 230.19 0.43 c p1
270.13 228.69 0.43 c p1
270.60 232.31 0.43 c p1
271.07 231.26 0.43 c p1
271.53 231.27 0.43 c p1
272.00 229.18 0.43 c p1
272.47 231.28 0.43 c p1
272.93 233.39 0.43 c p1
273.40 228.16 0.43 c p1
273.87 232.35 0.43 c p1
274.33 231.31 0.43 c p1
274.80 231.89 0.43 c p1
275.27 230.26 0.43 c p1
275.73 230.27 0.43 c p1
276.20 230.85 0.43 c p1
276.67 229.81 0.43 c p1
277.13 229.81 0.43 c p1
277.60 228.77 0.43 c p1
278.07 229.24 0.43 c p1
278.53 229.24 0.43 c p1
279.00 228.78 0.43 c p1
279.47 228.20 0.43 c p1
279.93 228.21 0.43 c p1
280.40 228.79 0.43 c p1
280.87 227.75 0.43 c p1
281.33 230.30 0.43 c p1
281.80 229.84 0.43 c p1
282.27 229.84 0.43 c p1
282.73 228.79 0.43 c p1
283.20 231.94 0.43 c p1
283.67 228.80 0.43 c p1
284.13 229.84 0.43 c p1
284.60 228.22 0.43 c p1
285.07 228.80 0.43 c p1
285.53 227.30 0.43 c p1
286.00 228.80 0.43 c p1
286.47 228.80 0.43 c p1
286.93 229.85 0.43 c p1
287.40 230.31 0.43 c p1
287.87 229.27 0.43 c p1
288.33 227.76 0.43 c p1
288.80 226.26 0.43 c p1
289.27 227.30 0.43 c p1
289.73 228.81 0.43 c p1
290.20 228.81 0.43 c p1
290.67 228.81 0.43 c p1
291.13 227.77 0.43 c p1
291.60 226.73 0.43 c p1
292.07 227.77 0.43 c p1
292.53 227.30 0.43 c p1
293.00 226.73 0.43 c p1
293.47 227.77 0.43 c p1
293.93 226.27 0.43 c p1
294.40 227.77 0.43 c p1
294.87 226.73 0.43 c p1
295.33 227.31 0.43 c p1
295.80 228.81 0.43 c p1
296.27 224.66 0.43 c p1
296.73 225.23 0.43 c p1
297.20 225.69 0.43 c p1
297.67 227.77 0.43 c p1
298.13 225.23 0.43 c p1
298.60 225.23 0.43 c p1
299.07 225.23 0.43 c p1
299.53 225.69 0.43 c p1
300.00 226.27 0.43 c p1
300.47 226.27 0.43 c p1
300.93 225.69 0.43 c p1
301.40 226.73 0.43 c p1
301.87 224.66 0.43 c p1
302.33 225.23 0.43 c p1
302.80 223.63 0.43 c p1
303.27 226.73 0.43 c p1
303.73 227.77 0.43 c p1
304.20 225.69 0.43 c p1
304.67 225.23 0.43 c p1
305.13 224.66 0.43 c p1
305.60 222.60 0.43 c p1
306.07 226.73 0.43 c p1
306.53 224.66 0.43 c p1
307.00 223.17 0.43 c p1
307.47 226.27 0.43 c p1
307.93 227.31 0.43 c p1
308.40 222.14 0.43 c p1
308.87 223.63 0.43 c p1
309.33 224.20 0.43 c p1
309.80 226.27 0.43 c p1
310.27 225.23 0.43 c p1
310.73 225.69 0.43 c p1
311.20 228.23 0.43 c p1
311.67 223.63 0.43 c p1
312.13 223.63 0.43 c p1
312.60 223.63 0.43 c p1
313.07 224.20 0.43 c p1
313.53 226.73 0.43 c p1
314.00 224.66 0.43 c p1
314.47 224.20 0.43 c p1
314.93 223.17 0.43 c p1
315.40 222.60 0.43 c p1
315.87 224.20 0.43 c p1
316.33 223.63 0.43 c p1
316.80 222.14 0.43 c p1
317.27 221.11 0.43 c p1
317.73 225.69 0.43 c p1
318.20 221.11 0.43 c p1
318.67 221.57 0.43 c p1
319.13 223.63 0.43 c p1
319.60 221.11 0.43 c p1
320.07 225.23 0.43 c p1
320.53 222.60 0.43 c p1
321.00 222.60 0.43 c p1
321.47 220.54 0.43 c p1
321.93 222.14 0.43 c p1
322.40 221.11 0.43 c p1
322.87 222.14 0.43 c p1
323.33 220.09 0.43 c p1
323.80 222.14 0.43 c p1
324.27 222.14 0.43 c p1
324.73 222.14 0.43 c p1
325.20 221.57 0.43 c p1
325.67 222.14 0.43 c p1
326.13 223.63 0.43 c p1
326.60 221.57 0.43 c p1
327.07 222.60 0.43 c p1
327.53 219.07 0.43 c p1
328.00 221.11 0.43 c p1
328.47 217.48 0.43 c p1
328.93 218.50 0.43 c p1
329.40 220.09 0.43 c p1
329.87 220.09 0.43 c p1
330.33 219.07 0.43 c p1
330.80 220.09 0.43 c p1
331.27 219.52 0.43 c p1
331.73 221.57 0.43 c p1
332.20 221.11 0.43 c p1
332.67 220.09 0.43 c p1
333.13 219.52 0.43 c p1
333.60 218.05 0.43 c p1
334.07 219.52 0.43 c p1
334.53 218.05 0.43 c p1
335.00 217.03 0.43 c p1
335.47 217.48 0.43 c p1
335.93 218.50 0.43 c p1
336.40 215.45 0.43 c p1
336.87 216.47 0.43 c p1
337.33 219.07 0.43 c p1
337.80 220.54 0.43 c p1
338.27 220.54 0.43 c p1
338.73 220.54 0.43 c p1
339.20 219.52 0.43 c p1
339.67 219.52 0.43 c p1
340.13 216.01 0.43 c p1
340.60 218.05 0.43 c p1
341.07 215.00 0.43 c p1
341.53 217.03 0.43 c p1
342.00 219.52 0.43 c p1
342.47 219.07 0.43 c p1
342.93 219.52 0.43 c p1
343.40 218.05 0.43 c p1
343.87 220.09 0.43 c p1
344.33 219.07 0.43 c p1
344.80 216.01 0.43 c p1
345.27 217.48 0.43 c p1
345.73 216.47 0.43 c p1
346.20 215.45 0.43 c p1
346.67 216.47 0.43 c p1
347.13 212.98 0.43 c p1
347.60 217.48 0.43 c p1
348.07 217.48 0.43 c p1
348.53 215.00 0.43 c p1
349.00 215.00 0.43 c p1
349.47 211.98 0.43 c p1
349.93 210.42 0.43 c p1
350.40 211.98 0.43 c p1
350.87 213.99 0.43 c p1
351.33 220.09 0.43 c p1
351.80 221.11 0.43 c p1
352.27 221.57 0.43 c p1
352.73 221.57 0.43 c p1
353.20 217.03 0.43 c p1
353.67 213.99 0.43 c p1
354.13 212.98 0.43 c p1
354.60 213.43 0.43 c p1
355.07 212.98 0.43 c p1
355.53 211.42 0.43 c p1
356.00 211.42 0.43 c p1
356.47 212.98 0.43 c p1
356.93 218.05 0.43 c p1
357.40 212.98 0.43 c p1
357.87 212.98 0.43 c p1
358.33 216.01 0.43 c p1
358.80 215.00 0.43 c p1
359.27 216.47 0.43 c p1
359.73 215.45 0.43 c p1
360.20 215.45 0.43 c p1
360.67 216.47 0.43 c p1
361.13 216.01 0.43 c p1
361.60 218.05 0.43 c p1
0.00 0.00 432.00 576.00 cl
0 0 0 srgb
0.75 setlinewidth
[] 0 setdash
1 setlinecap
1 setlinejoin
10.00 setmiterlimit
np
217.87 201.60 m
140.00 0 l
o
np
217.87 201.60 m
0 -5.76 l
o
np
241.20 201.60 m
0 -5.76 l
o
np
264.53 201.60 m
0 -5.76 l
o
np
287.87 201.60 m
0 -5.76 l
o
np
311.20 201.60 m
0 -5.76 l
o
np
334.53 201.60 m
0 -5.76 l
o
np
357.87 201.60 m
0 -5.76 l
o
/Font1 findfont 6 s
217.87 185.47 (0) .5 0 t
241.20 185.47 (500) .5 0 t
264.53 185.47 (1000) .5 0 t
287.87 185.47 (1500) .5 0 t
311.20 185.47 (2000) .5 0 t
334.53 185.47 (2500) .5 0 t
357.87 185.47 (3000) .5 0 t
np
216.00 204.24 m
0 40.80 l
o
np
216.00 204.24 m
-5.76 0 l
o
np
216.00 214.44 m
-5.76 0 l
o
np
216.00 224.64 m
-5.76 0 l
o
np
216.00 234.84 m
-5.76 0 l
o
np
216.00 245.04 m
-5.76 0 l
o
209.09 202.09 (-0.02) 1 0 t
209.09 212.29 (-0.01) 1 0 t
209.09 222.49 (0.00) 1 0 t
209.09 232.68 (0.01) 1 0 t
209.09 242.88 (0.02) 1 0 t
np
216.00 201.60 m
151.20 0 l
0 46.08 l
-151.20 0 l
0 -46.08 l
o
0.00 0.00 432.00 576.00 cl
/Font1 findfont 9 s
0 0 0 srgb
291.60 262.88 (Residuen) .5 0 t
59.04 73.44 401.76 516.96 cl
ep
%%Trailer
%%Pages: 1
%%EOF
