%!PS-Adobe-3.0 EPSF-3.0
%%DocumentNeededResources: font Helvetica
%%+ font Helvetica-Bold
%%+ font Helvetica-Oblique
%%+ font Helvetica-BoldOblique
%%+ font Symbol
%%Title: R Graphics Output
%%Creator: R Software
%%Pages: (atend)
%%BoundingBox: 0 0 432 576
%%EndComments
%%BeginProlog
/bp  { gs sRGB gs } def
% begin .ps.prolog
/gs  { gsave } bind def
/gr  { grestore } bind def
/ep  { showpage gr gr } bind def
/m   { moveto } bind def
/l  { rlineto } bind def
/np  { newpath } bind def
/cp  { closepath } bind def
/f   { fill } bind def
/o   { stroke } bind def
/c   { newpath 0 360 arc } bind def
/r   { 4 2 roll moveto 1 copy 3 -1 roll exch 0 exch rlineto 0 rlineto -1 mul 0 exch rlineto closepath } bind def
/p1  { stroke } bind def
/p2  { gsave bg fill grestore newpath } bind def
/p3  { gsave bg fill grestore stroke } bind def
/p6  { gsave bg eofill grestore newpath } bind def
/p7  { gsave bg eofill grestore stroke } bind def
/t   { 5 -2 roll moveto gsave rotate
       1 index stringwidth pop
       mul neg 0 rmoveto show grestore } bind def
/ta  { 4 -2 roll moveto gsave rotate show } bind def
/tb  { 2 -1 roll 0 rmoveto show } bind def
/cl  { grestore gsave newpath 3 index 3 index moveto 1 index
       4 -1 roll lineto  exch 1 index lineto lineto
       closepath clip newpath } bind def
/rgb { setrgbcolor } bind def
/s   { scalefont setfont } bind def
% end   .ps.prolog
/sRGB { [ /CIEBasedABC
          << /DecodeLMN
               [ { dup 0.03928 le
                        {12.92321 div}
                        {0.055 add 1.055 div 2.4 exp }
                     ifelse
                 } bind dup dup
               ]
             /MatrixLMN [0.412457 0.212673 0.019334
                         0.357576 0.715152 0.119192
                         0.180437 0.072175 0.950301]
             /WhitePoint [0.9505 1.0 1.0890]
           >>
         ] setcolorspace } bind def
/srgb { setcolor } bind def
%%IncludeResource: font Helvetica
/Helvetica findfont
dup length dict begin
  {1 index /FID ne {def} {pop pop} ifelse} forall
  /Encoding ISOLatin1Encoding def
  currentdict
  end
/Font1 exch definefont pop
%%IncludeResource: font Helvetica-Bold
/Helvetica-Bold findfont
dup length dict begin
  {1 index /FID ne {def} {pop pop} ifelse} forall
  /Encoding ISOLatin1Encoding def
  currentdict
  end
/Font2 exch definefont pop
%%IncludeResource: font Helvetica-Oblique
/Helvetica-Oblique findfont
dup length dict begin
  {1 index /FID ne {def} {pop pop} ifelse} forall
  /Encoding ISOLatin1Encoding def
  currentdict
  end
/Font3 exch definefont pop
%%IncludeResource: font Helvetica-BoldOblique
/Helvetica-BoldOblique findfont
dup length dict begin
  {1 index /FID ne {def} {pop pop} ifelse} forall
  /Encoding ISOLatin1Encoding def
  currentdict
  end
/Font4 exch definefont pop
%%IncludeResource: font Symbol
/Symbol findfont
dup length dict begin
  {1 index /FID ne {def} {pop pop} ifelse} forall
  currentdict
  end
/Font5 exch definefont pop
%%EndProlog
%%Page: 1 1
bp
0.00 0.00 432.00 576.00 cl
0.00 0.00 432.00 576.00 cl
0.00 0.00 432.00 576.00 cl
/Font1 findfont 12 s
0 0 0 srgb
48.00 508.72 (PCP-ETH) 0 0 t
48.00 494.89 (Blitzlicht-Photolyse) 0 0 t
/Font1 findfont 9 s
48.00 457.54 (File: Dy) 0 ta
-0.180 (e_0_1_V2_900V_20.dat) tb gr
48.00 334.87 (T) 0 ta
-1.080 (ue Apr  9 22:04:22 2019) tb gr
48.00 430.87 (Fitfunktion:  a + b * e) 0 ta
-0.270 (xp\(-c * t\)) tb gr
48.00 420.50 (t-Inter) 0 ta
0.270 (v) tb
-0.225 (all: 12.000 ... 514.000 ms) tb gr
48.00 410.14 (P) 0 ta
-0.360 (ar) tb
-0.090 (ameter \(Standardabw) tb
-0.090 (eichung\):) tb gr
48.00 399.77 (  a = 0.01264 \(0.00022\)) 0 0 t
48.00 389.40 (  b = 0.20024 \(0.00028\)) 0 0 t
48.00 379.03 (  c = 6.357e+00 \(2.634e-02\) s^-1) 0 0 t
48.00 368.66 (  tau = 1.573e-01 \(6.519e-04\) s) 0 0 t
216.00 345.60 388.80 518.40 cl
0 0 0 srgb
0.75 setlinewidth
[] 0 setdash
1 setlinecap
1 setlinejoin
10.00 setmiterlimit
np
222.40 510.38 m
0.15 0.46 l
0.14 -0.75 l
0.15 1.33 l
0.14 -0.58 l
0.15 0.12 l
0.14 0.30 l
0.15 -0.30 l
0.14 0 l
0.15 0.46 l
0.15 -0.29 l
0.14 0.29 l
0.15 0.13 l
0.14 0.29 l
0.15 -0.13 l
0.14 -0.29 l
0.15 -0.46 l
0.14 0.75 l
0.15 0.13 l
0.15 -0.71 l
0.14 -0.17 l
0.15 0.17 l
0.14 0.29 l
0.15 0 l
0.14 -0.75 l
0.15 -0.13 l
0.15 0.30 l
0.14 0.29 l
0.15 0.42 l
0.14 0.29 l
0.15 -0.58 l
0.14 0.16 l
0.15 0.29 l
0.14 -0.58 l
0.15 0.71 l
0.15 -1.00 l
0.14 0.71 l
0.15 -0.59 l
0.14 0 l
0.15 0.88 l
0.14 -1.17 l
0.15 0.17 l
0.14 0.42 l
0.15 0.16 l
0.15 -1.04 l
0.14 1.17 l
0.15 -0.59 l
0.14 0.75 l
0.15 -0.45 l
0.14 -0.13 l
0.15 0.58 l
0.14 -0.45 l
0.15 0 l
0.15 0 l
0.14 0.45 l
0.15 -1.17 l
0.14 0.59 l
0.15 -0.29 l
0.14 -0.17 l
0.15 -0.42 l
0.15 0.71 l
0.14 0.46 l
0.15 -0.46 l
0.14 -0.87 l
0.15 0.75 l
0.14 0.12 l
0.15 -0.58 l
0.14 0.46 l
0.15 0.12 l
0.15 -0.12 l
0.14 0.12 l
0.15 0 l
0.14 -0.29 l
0.15 0.75 l
0.14 0.13 l
0.15 -0.59 l
0.14 0.17 l
0.15 -0.17 l
0.15 -0.29 l
0.14 0.17 l
0.15 0.12 l
0.14 -0.12 l
0.15 0 l
0.14 0 l
0.15 -0.30 l
0.14 0.72 l
0.15 -0.88 l
0.15 0.88 l
0.14 0.74 l
0.15 -0.16 l
0.14 -0.58 l
0.15 0.29 l
0.14 -0.59 l
0.15 0.46 l
0.15 0 l
0.14 -0.16 l
0.15 0.29 l
0.14 0.29 l
0.15 -0.42 l
0.14 0 l
236.96 446.09 lineto
0.14 -0.02 l
0.15 1.76 l
0.15 1.30 l
0.14 1.03 l
0.15 0.42 l
0.14 0.29 l
0.15 0.42 l
0.14 0.75 l
0.15 -0.17 l
0.14 0.17 l
0.15 -0.46 l
0.15 1.46 l
0.14 0.87 l
0.15 1.04 l
0.14 -0.46 l
0.15 0.30 l
0.14 -0.88 l
0.15 0.16 l
0.14 0.88 l
0.15 0.29 l
0.15 0.13 l
0.14 0.29 l
0.15 0.16 l
0.14 0 l
0.15 1.16 l
0.14 0.30 l
0.15 0.13 l
0.15 0.58 l
0.14 0.13 l
0.15 0 l
0.14 0.87 l
0.15 -0.13 l
0.14 -0.29 l
0.15 0 l
0.14 -0.45 l
0.15 0.87 l
0.15 -0.13 l
0.14 1.75 l
0.15 0.71 l
0.14 -0.87 l
0.15 -0.30 l
0.14 0.46 l
0.15 0.13 l
0.14 -0.13 l
0.15 1.00 l
0.15 0.29 l
0.14 -0.58 l
0.15 0.45 l
0.14 0 l
0.15 0.58 l
0.14 0.88 l
0.15 0.13 l
0.14 0.42 l
0.15 -0.13 l
0.15 0.29 l
0.14 0.42 l
0.15 0.45 l
0.14 -0.58 l
0.15 -0.29 l
0.14 1.45 l
0.15 -0.58 l
0.15 0.71 l
0.14 0.88 l
0.15 -0.42 l
0.14 0.71 l
0.15 0 l
0.14 -0.13 l
0.15 0.13 l
0.14 0.58 l
0.15 -0.29 l
0.15 0.29 l
0.14 0 l
0.15 0.16 l
0.14 0 l
0.15 1.17 l
0.14 0.29 l
0.15 -0.16 l
0.14 0.58 l
0.15 0 l
0.15 -0.29 l
0.14 0.29 l
0.15 -0.42 l
0.14 1.00 l
0.15 0.29 l
0.14 0 l
0.15 -0.16 l
0.14 0.16 l
0.15 0.42 l
0.15 1.04 l
0.14 -0.75 l
0.15 1.04 l
0.14 0 l
0.15 0.29 l
0.14 0.42 l
0.15 -0.58 l
0.15 0.45 l
0.14 -1.17 l
0.15 1.59 l
0.14 -0.58 l
251.52 472.80 lineto
0.14 -0.29 l
0.15 1.16 l
0.14 0 l
0.15 0.13 l
0.15 0.75 l
0.14 0 l
0.15 0.29 l
0.14 0 l
0.15 0.42 l
0.14 -0.29 l
0.15 -0.13 l
0.14 0 l
0.15 0.87 l
0.15 0 l
0.14 0 l
0.15 0.26 l
0.14 0.16 l
0.15 0.58 l
0.14 0.13 l
0.15 0.16 l
0.14 0 l
0.15 0.30 l
0.15 0 l
0.14 0.29 l
0.15 0.29 l
0.14 -0.16 l
0.15 0.87 l
0.14 -1.29 l
0.15 0.42 l
0.14 0.16 l
0.15 1.74 l
0.15 -0.74 l
0.14 0.45 l
0.15 0 l
0.14 0.42 l
0.15 -0.42 l
0.14 -0.29 l
0.15 0.58 l
0.15 -0.29 l
0.14 0 l
0.15 0 l
0.14 0.88 l
0.15 -0.29 l
0.14 1.00 l
0.15 -1.00 l
0.14 1.58 l
0.15 -0.13 l
0.15 0.29 l
0.14 -0.16 l
0.15 0.45 l
0.14 -0.29 l
0.15 0.29 l
0.14 0.13 l
0.15 0 l
0.14 0 l
0.15 0.29 l
0.15 0 l
0.14 -0.16 l
0.15 0.88 l
0.14 0.16 l
0.15 0.87 l
0.14 0 l
0.15 -0.87 l
0.14 0.42 l
0.15 0.29 l
0.15 -0.13 l
0.14 0.42 l
0.15 -0.29 l
0.14 0.29 l
0.15 0 l
0.14 -0.13 l
0.15 0.58 l
0.15 0 l
0.14 0.29 l
0.15 0.59 l
0.14 -0.46 l
0.15 0.16 l
0.14 -0.16 l
0.15 -0.13 l
0.14 0.13 l
0.15 0.16 l
0.15 0.43 l
0.14 0.16 l
0.15 -0.16 l
0.14 0 l
0.15 0.45 l
0.14 -0.75 l
0.15 0.75 l
0.14 0.71 l
0.15 0 l
0.15 0 l
0.14 0.29 l
0.15 0.58 l
0.14 -0.13 l
0.15 -0.16 l
0.14 -1.00 l
0.15 0.58 l
0.14 0 l
0.15 0.29 l
266.08 488.20 lineto
0.14 -0.46 l
0.15 0.58 l
0.14 0.59 l
0.15 0 l
0.14 0.13 l
0.15 -0.29 l
0.15 0.29 l
0.14 -0.13 l
0.15 0.42 l
0.14 0.74 l
0.15 -1.16 l
0.14 0.29 l
0.15 -0.45 l
0.14 0.74 l
0.15 0.13 l
0.15 0 l
0.14 0.87 l
0.15 -0.42 l
0.14 -0.16 l
0.15 -0.13 l
0.14 0 l
0.15 0.29 l
0.14 -0.16 l
0.15 -0.42 l
0.15 0.42 l
0.14 0.29 l
0.15 0.16 l
0.14 -0.29 l
0.15 1.00 l
0.14 -0.42 l
0.15 0.72 l
0.14 0.29 l
0.15 0 l
0.15 0.87 l
0.14 -0.71 l
0.15 -0.16 l
0.14 0.58 l
0.15 -0.13 l
0.14 -0.45 l
0.15 -0.29 l
0.15 1.45 l
0.14 -0.42 l
0.15 -0.58 l
0.14 -0.16 l
0.15 1.16 l
0.14 0.45 l
0.15 -0.29 l
0.14 -0.29 l
0.15 0.58 l
0.15 -0.29 l
0.14 0.13 l
0.15 -0.42 l
0.14 0 l
0.15 1.17 l
0.14 -0.88 l
0.15 -0.45 l
0.14 0.45 l
0.15 0.13 l
0.15 0.75 l
0.14 -0.30 l
0.15 -0.58 l
0.14 0.58 l
0.15 0.30 l
0.14 0 l
0.15 0 l
0.14 0 l
0.15 0.58 l
0.15 -0.29 l
0.14 0 l
0.15 0.13 l
0.14 0.87 l
0.15 -0.29 l
0.14 -0.29 l
0.15 0.29 l
0.15 0.13 l
0.14 0.16 l
0.15 0.29 l
0.14 0 l
0.15 -0.74 l
0.14 0.16 l
0.15 0 l
0.14 -0.16 l
0.15 0.45 l
0.15 0.58 l
0.14 0.13 l
0.15 0 l
0.14 0.45 l
0.15 0.29 l
0.14 -1.16 l
0.15 0.42 l
0.14 0 l
0.15 -0.42 l
0.15 0.42 l
0.14 0.74 l
0.15 -0.29 l
0.14 0 l
0.15 -0.45 l
0.14 0.87 l
0.15 -0.71 l
280.63 496.02 lineto
0.15 0.71 l
0.15 -0.13 l
0.14 0.30 l
0.15 -0.46 l
0.14 0.29 l
0.15 -0.42 l
0.14 0.42 l
0.15 0.59 l
0.15 -0.29 l
0.14 0.45 l
0.15 -0.16 l
0.14 1.32 l
0.15 -0.74 l
0.14 -0.58 l
0.15 -0.42 l
0.14 1.00 l
0.15 -0.58 l
0.15 0.16 l
0.14 0 l
0.15 -0.29 l
0.14 0.13 l
0.15 -0.13 l
0.14 0.29 l
0.15 -0.16 l
0.14 0.58 l
0.15 0 l
0.15 0.29 l
0.14 -0.29 l
0.15 0.58 l
0.14 0.16 l
0.15 -0.87 l
0.14 0 l
0.15 -0.45 l
0.14 1.45 l
0.15 0.16 l
0.15 -0.87 l
0.14 0.87 l
0.15 -0.58 l
0.14 0 l
0.15 0.42 l
0.14 -0.58 l
0.15 1.03 l
0.14 -0.29 l
0.15 0 l
0.15 -0.45 l
0.14 0.74 l
0.15 0 l
0.14 -0.45 l
0.15 0.29 l
0.14 0.46 l
0.15 0.12 l
0.15 1.46 l
0.14 -1.29 l
0.15 -0.29 l
0.14 -0.59 l
0.15 0.59 l
0.14 0.12 l
0.15 -0.58 l
0.14 0.46 l
0.15 -0.17 l
0.15 0.17 l
0.14 0 l
0.15 -0.30 l
0.14 0.42 l
0.15 0.75 l
0.14 -0.75 l
0.15 0.59 l
0.14 -0.13 l
0.15 0.13 l
0.15 0.29 l
0.14 -1.00 l
0.15 1.00 l
0.14 0.42 l
0.15 -1.13 l
0.14 1.00 l
0.15 -0.29 l
0.14 0.13 l
0.15 0 l
0.15 -0.55 l
0.14 0.55 l
0.15 0 l
0.14 0 l
0.15 -0.13 l
0.14 -0.29 l
0.15 0.29 l
0.15 -0.13 l
0.14 -0.87 l
0.15 0.71 l
0.14 0.42 l
0.15 0.87 l
0.14 -0.42 l
0.15 0.87 l
0.14 -0.74 l
0.15 0.29 l
0.15 -0.87 l
0.14 0 l
0.15 0.45 l
0.14 -0.45 l
0.15 0.29 l
295.19 500.94 lineto
0.15 -0.13 l
0.14 -0.29 l
0.15 0.42 l
0.15 -0.29 l
0.14 1.03 l
0.15 0.29 l
0.14 -0.58 l
0.15 0.13 l
0.14 0 l
0.15 -0.29 l
0.14 0 l
0.15 0.16 l
0.15 -0.45 l
0.14 0.87 l
0.15 -0.29 l
0.14 0 l
0.15 0.16 l
0.14 -0.29 l
0.15 0.71 l
0.15 0.16 l
0.14 -1.03 l
0.15 0.87 l
0.14 0.29 l
0.15 -0.87 l
0.14 0 l
0.15 1.04 l
0.14 -1.33 l
0.15 0.29 l
0.15 0 l
0.14 0.74 l
0.15 0 l
0.14 0.13 l
0.15 -0.42 l
0.14 0.88 l
0.15 -0.59 l
0.14 -0.16 l
0.15 0.46 l
0.15 -0.46 l
0.14 -0.42 l
0.15 0.29 l
0.14 -0.29 l
0.15 -0.16 l
0.14 0.58 l
0.15 -0.71 l
0.14 0.58 l
0.15 0.72 l
0.15 0.29 l
0.14 -0.13 l
0.15 -0.29 l
0.14 -0.17 l
0.15 -0.29 l
0.14 0.75 l
0.15 -0.29 l
0.15 0.71 l
0.14 -0.71 l
0.15 0.13 l
0.14 -0.13 l
0.15 0.29 l
0.14 -1.04 l
0.15 0.88 l
0.14 0.29 l
0.15 0.58 l
0.15 -0.87 l
0.14 0.58 l
0.15 -0.29 l
0.14 0 l
0.15 -0.88 l
0.14 0.29 l
0.15 0.30 l
0.14 -0.30 l
0.15 0.17 l
0.15 0.42 l
0.14 -0.29 l
0.15 1.03 l
0.14 -0.29 l
0.15 -0.45 l
0.14 -0.59 l
0.15 1.46 l
0.14 -0.29 l
0.15 -0.87 l
0.15 0.29 l
0.14 0.16 l
0.15 0 l
0.14 -1.04 l
0.15 0.59 l
0.14 1.16 l
0.15 0.29 l
0.15 -0.87 l
0.14 0.45 l
0.15 0.29 l
0.14 -0.29 l
0.15 -0.29 l
0.14 -0.29 l
0.15 0 l
0.14 -0.58 l
0.15 0.58 l
0.15 0.13 l
0.14 -0.13 l
0.15 0.29 l
309.75 504.30 lineto
0.15 -0.87 l
0.14 0.42 l
0.15 -0.58 l
0.14 0.87 l
0.15 -0.58 l
0.15 -0.29 l
0.14 0.16 l
0.15 0.29 l
0.14 -0.58 l
0.15 0.29 l
0.14 0.29 l
0.15 0.42 l
0.14 -0.13 l
0.15 0.58 l
0.15 0.13 l
0.14 -1.45 l
0.15 1.03 l
0.14 -1.16 l
0.15 1.00 l
0.14 0 l
0.15 -0.13 l
0.15 -0.29 l
0.14 0.13 l
0.15 -0.42 l
0.14 0.13 l
0.15 0.29 l
0.14 0.45 l
0.15 -0.16 l
0.14 0.16 l
0.15 0 l
0.15 0.29 l
0.14 -1.32 l
0.15 1.03 l
0.14 0 l
0.15 -1.03 l
0.14 0.45 l
0.15 0.58 l
0.14 0.42 l
0.15 -1.29 l
0.15 0.29 l
0.14 0.13 l
0.15 0 l
0.14 0.16 l
0.15 0.29 l
0.14 -0.58 l
0.15 0.42 l
0.14 -0.13 l
0.15 0.58 l
0.15 -0.45 l
0.14 -0.29 l
0.15 0.58 l
0.14 0.45 l
0.15 0.59 l
0.14 -0.88 l
0.15 1.01 l
0.15 -0.72 l
0.14 -0.58 l
0.15 -0.45 l
0.14 0.29 l
0.15 0.29 l
0.14 0.45 l
0.15 -1.03 l
0.14 0.45 l
0.15 0.13 l
0.15 -0.13 l
0.14 0.58 l
0.15 -0.29 l
0.14 0.29 l
0.15 -0.16 l
0.14 0 l
0.15 -0.13 l
0.14 -0.16 l
0.15 0.29 l
0.15 0.16 l
0.14 -0.16 l
0.15 -0.42 l
0.14 0 l
0.15 0.42 l
0.14 0.58 l
0.15 0.30 l
0.14 -0.42 l
0.15 -0.30 l
0.15 -0.29 l
0.14 -0.58 l
0.15 0.29 l
0.14 0.42 l
0.15 -0.29 l
0.14 0 l
0.15 0 l
0.14 0.45 l
0.15 0.59 l
0.15 -0.29 l
0.14 0 l
0.15 0.42 l
0.14 0 l
0.15 -0.13 l
0.14 -0.29 l
0.15 -0.46 l
0.15 -0.42 l
324.31 504.59 lineto
0.15 -0.45 l
0.14 0.45 l
0.15 -0.29 l
0.14 1.30 l
0.15 0.16 l
0.14 -0.58 l
0.15 -0.30 l
0.15 0.59 l
0.14 -0.59 l
0.15 0 l
0.14 0.72 l
0.15 -0.88 l
0.14 0.46 l
0.15 -0.75 l
0.14 -0.13 l
0.15 0.42 l
0.15 0.29 l
0.14 0.59 l
0.15 -0.42 l
0.14 0.29 l
0.15 -0.17 l
0.14 -0.12 l
0.15 -0.59 l
0.14 0.29 l
0.15 -0.45 l
0.15 0.29 l
0.14 0 l
0.15 0 l
0.14 0.46 l
0.15 -0.59 l
0.14 1.17 l
0.15 -0.29 l
0.15 0.13 l
0.14 0.29 l
0.15 -0.71 l
0.14 0.42 l
0.15 -0.30 l
0.14 0.59 l
0.15 0.29 l
0.14 -1.17 l
0.15 -0.29 l
0.15 0 l
0.14 0.16 l
0.15 0.72 l
0.14 0.29 l
0.15 -0.29 l
0.14 -1.01 l
0.15 1.17 l
0.14 0.87 l
0.15 -0.45 l
0.15 -1.00 l
0.14 -0.17 l
0.15 0.29 l
0.14 -0.12 l
0.15 -0.59 l
0.14 0.59 l
0.15 0 l
0.14 0.29 l
0.15 0.29 l
0.15 0 l
0.14 -0.29 l
0.15 0.58 l
0.14 -0.87 l
0.15 0.12 l
0.14 0 l
0.15 -0.58 l
0.15 0.58 l
0.14 -0.58 l
0.15 0.88 l
0.14 0.45 l
0.15 0.29 l
0.14 -0.58 l
0.15 0.58 l
0.14 -0.87 l
0.15 -0.75 l
0.15 0.88 l
0.14 0.16 l
0.15 -0.46 l
0.14 0.30 l
0.15 -0.72 l
0.14 0.59 l
0.15 -0.29 l
0.14 0.58 l
0.15 0.13 l
0.15 0 l
0.14 -0.29 l
0.15 -0.30 l
0.14 0.46 l
0.15 -0.46 l
0.14 0.46 l
0.15 0 l
0.14 0.29 l
0.15 -0.58 l
0.15 -0.17 l
0.14 0.17 l
0.15 0.42 l
0.14 0.29 l
0.15 0.16 l
0.14 -0.29 l
338.87 506.34 lineto
0.15 -0.45 l
0.14 -0.42 l
0.15 -0.17 l
0.14 0 l
0.15 0 l
0.14 0.75 l
0.15 -0.29 l
0.14 -0.16 l
0.15 0.58 l
0.15 0.16 l
0.14 0.71 l
0.15 -0.42 l
0.14 -0.16 l
0.15 0.29 l
0.14 -0.29 l
0.15 -0.13 l
0.14 -0.74 l
0.15 -0.13 l
0.15 -0.88 l
0.14 0.71 l
0.15 0 l
0.14 0.75 l
0.15 0.13 l
0.14 0.29 l
0.15 -0.58 l
0.14 0.16 l
0.15 -0.16 l
0.15 0.29 l
0.14 -0.29 l
0.15 -1.01 l
0.14 1.30 l
0.15 -0.13 l
0.14 -0.58 l
0.15 0.42 l
0.15 0 l
0.14 0.45 l
0.15 0 l
0.14 0.29 l
0.15 -1.33 l
0.14 0 l
0.15 0.30 l
0.14 -0.13 l
0.15 0.29 l
0.15 0.42 l
0.14 -1.30 l
0.15 1.17 l
0.14 -0.29 l
0.15 0.42 l
0.14 0.29 l
0.15 0.29 l
0.14 -0.29 l
0.15 0.16 l
0.15 -0.74 l
0.14 0.45 l
0.15 -0.45 l
0.14 0.58 l
0.15 -1.00 l
0.14 -0.17 l
0.15 0.30 l
0.14 1.16 l
0.15 -1.16 l
0.15 0.29 l
0.14 0.58 l
0.15 0 l
0.14 0.29 l
0.15 -1.16 l
0.14 0.74 l
0.15 -0.74 l
0.15 0 l
0.14 0.74 l
0.15 -0.74 l
0.14 0.16 l
0.15 0.58 l
0.14 -0.16 l
0.15 0 l
0.14 0.58 l
0.15 -0.58 l
0.15 0.16 l
0.14 0 l
0.15 -0.87 l
0.14 0.29 l
0.15 -0.46 l
0.14 0.46 l
0.15 0.42 l
0.14 0.29 l
0.15 0.87 l
0.15 -1.29 l
0.14 0.42 l
0.15 0.42 l
0.14 -1.13 l
0.15 0.87 l
0.14 -0.45 l
0.15 -0.29 l
0.14 0.16 l
0.15 0.29 l
0.15 -0.29 l
0.14 0 l
0.15 0 l
0.14 0.58 l
353.43 506.63 lineto
0.14 -0.74 l
0.15 0.29 l
0.14 0.58 l
0.15 -0.71 l
0.15 0.13 l
0.14 -0.29 l
0.15 -0.29 l
0.14 0.45 l
0.15 0.29 l
0.14 1.13 l
0.15 -0.58 l
0.15 -0.26 l
0.14 -0.16 l
0.15 0 l
0.14 0.16 l
0.15 -0.29 l
0.14 -0.45 l
0.15 0.29 l
0.14 -0.42 l
0.15 0.58 l
0.15 -0.16 l
0.14 0.58 l
0.15 -0.29 l
0.14 0 l
0.15 0.42 l
0.14 -0.84 l
0.15 1.00 l
0.14 -0.71 l
0.15 0.42 l
0.15 0 l
0.14 -1.16 l
0.15 0.87 l
0.14 0.42 l
0.15 0.29 l
0.14 -0.29 l
0.15 -0.42 l
0.14 -0.29 l
0.15 -0.13 l
0.15 0 l
0.14 0.13 l
0.15 0 l
0.14 0 l
0.15 -0.88 l
0.14 0.75 l
0.15 0 l
0.15 0.84 l
0.14 -0.71 l
0.15 0.87 l
0.14 0 l
0.15 -0.58 l
0.14 0.58 l
0.15 0.13 l
0.14 -1.13 l
0.15 0.29 l
0.15 -0.29 l
0.14 0.13 l
0.15 0.29 l
0.14 -0.13 l
0.15 0.42 l
0.14 0.42 l
0.15 -0.42 l
0.14 0.13 l
0.15 -0.42 l
0.15 -0.42 l
0.14 0.58 l
0.15 0 l
0.14 -0.16 l
0.15 -0.29 l
0.14 -0.13 l
0.15 0.29 l
0.14 0 l
0.15 0.84 l
0.15 0.45 l
0.14 -0.16 l
0.15 -1.00 l
0.14 -0.29 l
0.15 0 l
0.14 0 l
0.15 -0.13 l
0.15 0 l
0.14 0.13 l
0.15 0.16 l
0.14 0.13 l
0.15 -0.29 l
0.14 0.45 l
0.15 0.13 l
0.14 0.87 l
0.15 -0.74 l
0.15 0.45 l
0.14 -0.58 l
0.15 0.42 l
0.14 0.16 l
0.15 -0.87 l
0.14 -0.13 l
0.15 -0.16 l
0.14 0.29 l
0.15 -0.13 l
0.15 0.29 l
0.14 0 l
currentpoint o m
367.99 506.89 lineto
0.14 -0.13 l
0.15 0.13 l
0.14 0.58 l
0.15 -1.29 l
0.14 0.16 l
0.15 0.55 l
0.15 -0.55 l
0.14 0 l
0.15 0.71 l
0.14 -0.42 l
0.15 0.26 l
0.14 -0.13 l
0.15 0 l
0.15 0.58 l
0.14 0.42 l
0.15 -1.29 l
0.14 0.16 l
0.15 -0.16 l
0.14 0.42 l
0.15 -0.84 l
0.14 0.58 l
0.15 -0.45 l
0.15 0.29 l
0.14 -0.13 l
0.15 0.42 l
0.14 0 l
0.15 0.29 l
0.14 0.42 l
0.15 -0.13 l
0.14 -0.29 l
0.15 0 l
0.15 -0.16 l
0.14 0.16 l
0.15 -0.16 l
0.14 -0.55 l
0.15 -0.45 l
0.14 0.74 l
0.15 -0.45 l
0.14 0.29 l
0.15 0.29 l
0.15 -0.29 l
0.14 0.87 l
0.15 -0.29 l
0.14 -0.16 l
0.15 -0.26 l
0.14 0 l
0.15 0.13 l
0.15 0 l
0.14 0 l
0.15 -0.13 l
0.14 -0.29 l
0.15 0.71 l
0.14 -0.71 l
0.15 0.29 l
0.14 0.84 l
0.15 -0.13 l
0.15 0 l
0.14 -1.16 l
0.15 0.87 l
0.14 0 l
0.15 -0.87 l
0.14 0.87 l
0.15 -0.58 l
0.14 -0.71 l
0.15 0.87 l
0.15 0.55 l
0.14 -0.29 l
0.15 0.74 l
0.14 -0.58 l
0.15 0.29 l
0.14 0.42 l
0.15 -0.87 l
0.14 0.29 l
0.15 -0.55 l
0.15 0.42 l
0.14 0.29 l
0.15 -0.29 l
0.14 -0.71 l
0.15 0.29 l
0.14 0.42 l
0.15 0 l
0.15 -0.42 l
0.14 0.42 l
0.15 -0.16 l
0.14 0.45 l
0.15 -1.29 l
0.14 0.84 l
0.15 0.16 l
0.14 0.58 l
0.15 -0.87 l
0.15 0.42 l
0.14 -0.55 l
0.15 -0.29 l
0.14 0.55 l
0.15 0.45 l
0.14 0 l
0.15 0.13 l
0.14 -0.58 l
0.15 0.16 l
o
/bg { 1 1 1 srgb } def
222.40 510.38 0.43 c p3
222.55 510.84 0.43 c p3
222.69 510.09 0.43 c p3
222.84 511.42 0.43 c p3
222.98 510.84 0.43 c p3
223.13 510.96 0.43 c p3
223.27 511.26 0.43 c p3
223.42 510.96 0.43 c p3
223.56 510.96 0.43 c p3
223.71 511.42 0.43 c p3
223.86 511.13 0.43 c p3
224.00 511.42 0.43 c p3
224.15 511.55 0.43 c p3
224.29 511.84 0.43 c p3
224.44 511.71 0.43 c p3
224.58 511.42 0.43 c p3
224.73 510.96 0.43 c p3
224.87 511.71 0.43 c p3
225.02 511.84 0.43 c p3
225.17 511.13 0.43 c p3
225.31 510.96 0.43 c p3
225.46 511.13 0.43 c p3
225.60 511.42 0.43 c p3
225.75 511.42 0.43 c p3
225.89 510.67 0.43 c p3
226.04 510.54 0.43 c p3
226.19 510.84 0.43 c p3
226.33 511.13 0.43 c p3
226.48 511.55 0.43 c p3
226.62 511.84 0.43 c p3
226.77 511.26 0.43 c p3
226.91 511.42 0.43 c p3
227.06 511.71 0.43 c p3
227.20 511.13 0.43 c p3
227.35 511.84 0.43 c p3
227.50 510.84 0.43 c p3
227.64 511.55 0.43 c p3
227.79 510.96 0.43 c p3
227.93 510.96 0.43 c p3
228.08 511.84 0.43 c p3
228.22 510.67 0.43 c p3
228.37 510.84 0.43 c p3
228.51 511.26 0.43 c p3
228.66 511.42 0.43 c p3
228.81 510.38 0.43 c p3
228.95 511.55 0.43 c p3
229.10 510.96 0.43 c p3
229.24 511.71 0.43 c p3
229.39 511.26 0.43 c p3
229.53 511.13 0.43 c p3
229.68 511.71 0.43 c p3
229.82 511.26 0.43 c p3
229.97 511.26 0.43 c p3
230.12 511.26 0.43 c p3
230.26 511.71 0.43 c p3
230.41 510.54 0.43 c p3
230.55 511.13 0.43 c p3
230.70 510.84 0.43 c p3
230.84 510.67 0.43 c p3
230.99 510.25 0.43 c p3
231.14 510.96 0.43 c p3
231.28 511.42 0.43 c p3
231.43 510.96 0.43 c p3
231.57 510.09 0.43 c p3
231.72 510.84 0.43 c p3
231.86 510.96 0.43 c p3
232.01 510.38 0.43 c p3
232.15 510.84 0.43 c p3
232.30 510.96 0.43 c p3
232.45 510.84 0.43 c p3
232.59 510.96 0.43 c p3
232.74 510.96 0.43 c p3
232.88 510.67 0.43 c p3
233.03 511.42 0.43 c p3
233.17 511.55 0.43 c p3
233.32 510.96 0.43 c p3
233.46 511.13 0.43 c p3
233.61 510.96 0.43 c p3
233.76 510.67 0.43 c p3
233.90 510.84 0.43 c p3
234.05 510.96 0.43 c p3
234.19 510.84 0.43 c p3
234.34 510.84 0.43 c p3
234.48 510.84 0.43 c p3
234.63 510.54 0.43 c p3
234.77 511.26 0.43 c p3
234.92 510.38 0.43 c p3
235.07 511.26 0.43 c p3
235.21 512.00 0.43 c p3
235.36 511.84 0.43 c p3
235.50 511.26 0.43 c p3
235.65 511.55 0.43 c p3
235.79 510.96 0.43 c p3
235.94 511.42 0.43 c p3
236.09 511.42 0.43 c p3
236.23 511.26 0.43 c p3
236.38 511.55 0.43 c p3
236.52 511.84 0.43 c p3
236.67 511.42 0.43 c p3
236.81 511.42 0.43 c p3
236.96 446.09 0.43 c p3
237.10 446.07 0.43 c p3
237.25 447.83 0.43 c p3
237.40 449.13 0.43 c p3
237.54 450.16 0.43 c p3
237.69 450.58 0.43 c p3
237.83 450.87 0.43 c p3
237.98 451.29 0.43 c p3
238.12 452.04 0.43 c p3
238.27 451.87 0.43 c p3
238.41 452.04 0.43 c p3
238.56 451.58 0.43 c p3
238.71 453.04 0.43 c p3
238.85 453.91 0.43 c p3
239.00 454.95 0.43 c p3
239.14 454.49 0.43 c p3
239.29 454.79 0.43 c p3
239.43 453.91 0.43 c p3
239.58 454.07 0.43 c p3
239.72 454.95 0.43 c p3
239.87 455.24 0.43 c p3
240.02 455.37 0.43 c p3
240.16 455.66 0.43 c p3
240.31 455.82 0.43 c p3
240.45 455.82 0.43 c p3
240.60 456.98 0.43 c p3
240.74 457.28 0.43 c p3
240.89 457.41 0.43 c p3
241.04 457.99 0.43 c p3
241.18 458.12 0.43 c p3
241.33 458.12 0.43 c p3
241.47 458.99 0.43 c p3
241.62 458.86 0.43 c p3
241.76 458.57 0.43 c p3
241.91 458.57 0.43 c p3
242.05 458.12 0.43 c p3
242.20 458.99 0.43 c p3
242.35 458.86 0.43 c p3
242.49 460.61 0.43 c p3
242.64 461.32 0.43 c p3
242.78 460.45 0.43 c p3
242.93 460.15 0.43 c p3
243.07 460.61 0.43 c p3
243.22 460.74 0.43 c p3
243.36 460.61 0.43 c p3
243.51 461.61 0.43 c p3
243.66 461.90 0.43 c p3
243.80 461.32 0.43 c p3
243.95 461.77 0.43 c p3
244.09 461.77 0.43 c p3
244.24 462.35 0.43 c p3
244.38 463.23 0.43 c p3
244.53 463.36 0.43 c p3
244.67 463.78 0.43 c p3
244.82 463.65 0.43 c p3
244.97 463.94 0.43 c p3
245.11 464.36 0.43 c p3
245.26 464.81 0.43 c p3
245.40 464.23 0.43 c p3
245.55 463.94 0.43 c p3
245.69 465.39 0.43 c p3
245.84 464.81 0.43 c p3
245.99 465.52 0.43 c p3
246.13 466.40 0.43 c p3
246.28 465.98 0.43 c p3
246.42 466.69 0.43 c p3
246.57 466.69 0.43 c p3
246.71 466.56 0.43 c p3
246.86 466.69 0.43 c p3
247.00 467.27 0.43 c p3
247.15 466.98 0.43 c p3
247.30 467.27 0.43 c p3
247.44 467.27 0.43 c p3
247.59 467.43 0.43 c p3
247.73 467.43 0.43 c p3
247.88 468.60 0.43 c p3
248.02 468.89 0.43 c p3
248.17 468.73 0.43 c p3
248.31 469.31 0.43 c p3
248.46 469.31 0.43 c p3
248.61 469.02 0.43 c p3
248.75 469.31 0.43 c p3
248.90 468.89 0.43 c p3
249.04 469.89 0.43 c p3
249.19 470.18 0.43 c p3
249.33 470.18 0.43 c p3
249.48 470.02 0.43 c p3
249.62 470.18 0.43 c p3
249.77 470.60 0.43 c p3
249.92 471.64 0.43 c p3
250.06 470.89 0.43 c p3
250.21 471.93 0.43 c p3
250.35 471.93 0.43 c p3
250.50 472.22 0.43 c p3
250.64 472.64 0.43 c p3
250.79 472.06 0.43 c p3
250.94 472.51 0.43 c p3
251.08 471.34 0.43 c p3
251.23 472.93 0.43 c p3
251.37 472.35 0.43 c p3
251.52 472.80 0.43 c p3
251.66 472.51 0.43 c p3
251.81 473.67 0.43 c p3
251.95 473.67 0.43 c p3
252.10 473.80 0.43 c p3
252.25 474.55 0.43 c p3
252.39 474.55 0.43 c p3
252.54 474.84 0.43 c p3
252.68 474.84 0.43 c p3
252.83 475.26 0.43 c p3
252.97 474.97 0.43 c p3
253.12 474.84 0.43 c p3
253.26 474.84 0.43 c p3
253.41 475.71 0.43 c p3
253.56 475.71 0.43 c p3
253.70 475.71 0.43 c p3
253.85 475.97 0.43 c p3
253.99 476.13 0.43 c p3
254.14 476.71 0.43 c p3
254.28 476.84 0.43 c p3
254.43 477.00 0.43 c p3
254.57 477.00 0.43 c p3
254.72 477.30 0.43 c p3
254.87 477.30 0.43 c p3
255.01 477.59 0.43 c p3
255.16 477.88 0.43 c p3
255.30 477.72 0.43 c p3
255.45 478.59 0.43 c p3
255.59 477.30 0.43 c p3
255.74 477.72 0.43 c p3
255.88 477.88 0.43 c p3
256.03 479.62 0.43 c p3
256.18 478.88 0.43 c p3
256.32 479.33 0.43 c p3
256.47 479.33 0.43 c p3
256.61 479.75 0.43 c p3
256.76 479.33 0.43 c p3
256.90 479.04 0.43 c p3
257.05 479.62 0.43 c p3
257.20 479.33 0.43 c p3
257.34 479.33 0.43 c p3
257.49 479.33 0.43 c p3
257.63 480.21 0.43 c p3
257.78 479.92 0.43 c p3
257.92 480.92 0.43 c p3
258.07 479.92 0.43 c p3
258.21 481.50 0.43 c p3
258.36 481.37 0.43 c p3
258.51 481.66 0.43 c p3
258.65 481.50 0.43 c p3
258.80 481.95 0.43 c p3
258.94 481.66 0.43 c p3
259.09 481.95 0.43 c p3
259.23 482.08 0.43 c p3
259.38 482.08 0.43 c p3
259.52 482.08 0.43 c p3
259.67 482.37 0.43 c p3
259.82 482.37 0.43 c p3
259.96 482.21 0.43 c p3
260.11 483.09 0.43 c p3
260.25 483.25 0.43 c p3
260.40 484.12 0.43 c p3
260.54 484.12 0.43 c p3
260.69 483.25 0.43 c p3
260.83 483.67 0.43 c p3
260.98 483.96 0.43 c p3
261.13 483.83 0.43 c p3
261.27 484.25 0.43 c p3
261.42 483.96 0.43 c p3
261.56 484.25 0.43 c p3
261.71 484.25 0.43 c p3
261.85 484.12 0.43 c p3
262.00 484.70 0.43 c p3
262.15 484.70 0.43 c p3
262.29 484.99 0.43 c p3
262.44 485.58 0.43 c p3
262.58 485.12 0.43 c p3
262.73 485.28 0.43 c p3
262.87 485.12 0.43 c p3
263.02 484.99 0.43 c p3
263.16 485.12 0.43 c p3
263.31 485.28 0.43 c p3
263.46 485.71 0.43 c p3
263.60 485.87 0.43 c p3
263.75 485.71 0.43 c p3
263.89 485.71 0.43 c p3
264.04 486.16 0.43 c p3
264.18 485.41 0.43 c p3
264.33 486.16 0.43 c p3
264.47 486.87 0.43 c p3
264.62 486.87 0.43 c p3
264.77 486.87 0.43 c p3
264.91 487.16 0.43 c p3
265.06 487.74 0.43 c p3
265.20 487.61 0.43 c p3
265.35 487.45 0.43 c p3
265.49 486.45 0.43 c p3
265.64 487.03 0.43 c p3
265.78 487.03 0.43 c p3
265.93 487.32 0.43 c p3
266.08 488.20 0.43 c p3
266.22 487.74 0.43 c p3
266.37 488.32 0.43 c p3
266.51 488.91 0.43 c p3
266.66 488.91 0.43 c p3
266.80 489.04 0.43 c p3
266.95 488.75 0.43 c p3
267.10 489.04 0.43 c p3
267.24 488.91 0.43 c p3
267.39 489.33 0.43 c p3
267.53 490.07 0.43 c p3
267.68 488.91 0.43 c p3
267.82 489.20 0.43 c p3
267.97 488.75 0.43 c p3
268.11 489.49 0.43 c p3
268.26 489.62 0.43 c p3
268.41 489.62 0.43 c p3
268.55 490.49 0.43 c p3
268.70 490.07 0.43 c p3
268.84 489.91 0.43 c p3
268.99 489.78 0.43 c p3
269.13 489.78 0.43 c p3
269.28 490.07 0.43 c p3
269.42 489.91 0.43 c p3
269.57 489.49 0.43 c p3
269.72 489.91 0.43 c p3
269.86 490.20 0.43 c p3
270.01 490.36 0.43 c p3
270.15 490.07 0.43 c p3
270.30 491.07 0.43 c p3
270.44 490.65 0.43 c p3
270.59 491.37 0.43 c p3
270.73 491.66 0.43 c p3
270.88 491.66 0.43 c p3
271.03 492.53 0.43 c p3
271.17 491.82 0.43 c p3
271.32 491.66 0.43 c p3
271.46 492.24 0.43 c p3
271.61 492.11 0.43 c p3
271.75 491.66 0.43 c p3
271.90 491.37 0.43 c p3
272.05 492.82 0.43 c p3
272.19 492.40 0.43 c p3
272.34 491.82 0.43 c p3
272.48 491.66 0.43 c p3
272.63 492.82 0.43 c p3
272.77 493.27 0.43 c p3
272.92 492.98 0.43 c p3
273.06 492.69 0.43 c p3
273.21 493.27 0.43 c p3
273.36 492.98 0.43 c p3
273.50 493.11 0.43 c p3
273.65 492.69 0.43 c p3
273.79 492.69 0.43 c p3
273.94 493.86 0.43 c p3
274.08 492.98 0.43 c p3
274.23 492.53 0.43 c p3
274.37 492.98 0.43 c p3
274.52 493.11 0.43 c p3
274.67 493.86 0.43 c p3
274.81 493.56 0.43 c p3
274.96 492.98 0.43 c p3
275.10 493.56 0.43 c p3
275.25 493.86 0.43 c p3
275.39 493.86 0.43 c p3
275.54 493.86 0.43 c p3
275.68 493.86 0.43 c p3
275.83 494.44 0.43 c p3
275.98 494.15 0.43 c p3
276.12 494.15 0.43 c p3
276.27 494.28 0.43 c p3
276.41 495.15 0.43 c p3
276.56 494.86 0.43 c p3
276.70 494.57 0.43 c p3
276.85 494.86 0.43 c p3
277.00 494.99 0.43 c p3
277.14 495.15 0.43 c p3
277.29 495.44 0.43 c p3
277.43 495.44 0.43 c p3
277.58 494.70 0.43 c p3
277.72 494.86 0.43 c p3
277.87 494.86 0.43 c p3
278.01 494.70 0.43 c p3
278.16 495.15 0.43 c p3
278.31 495.73 0.43 c p3
278.45 495.86 0.43 c p3
278.60 495.86 0.43 c p3
278.74 496.31 0.43 c p3
278.89 496.60 0.43 c p3
279.03 495.44 0.43 c p3
279.18 495.86 0.43 c p3
279.32 495.86 0.43 c p3
279.47 495.44 0.43 c p3
279.62 495.86 0.43 c p3
279.76 496.60 0.43 c p3
279.91 496.31 0.43 c p3
280.05 496.31 0.43 c p3
280.20 495.86 0.43 c p3
280.34 496.73 0.43 c p3
280.49 496.02 0.43 c p3
280.63 496.02 0.43 c p3
280.78 496.73 0.43 c p3
280.93 496.60 0.43 c p3
281.07 496.90 0.43 c p3
281.22 496.44 0.43 c p3
281.36 496.73 0.43 c p3
281.51 496.31 0.43 c p3
281.65 496.73 0.43 c p3
281.80 497.32 0.43 c p3
281.95 497.03 0.43 c p3
282.09 497.48 0.43 c p3
282.24 497.32 0.43 c p3
282.38 498.64 0.43 c p3
282.53 497.90 0.43 c p3
282.67 497.32 0.43 c p3
282.82 496.90 0.43 c p3
282.96 497.90 0.43 c p3
283.11 497.32 0.43 c p3
283.26 497.48 0.43 c p3
283.40 497.48 0.43 c p3
283.55 497.19 0.43 c p3
283.69 497.32 0.43 c p3
283.84 497.19 0.43 c p3
283.98 497.48 0.43 c p3
284.13 497.32 0.43 c p3
284.27 497.90 0.43 c p3
284.42 497.90 0.43 c p3
284.57 498.19 0.43 c p3
284.71 497.90 0.43 c p3
284.86 498.48 0.43 c p3
285.00 498.64 0.43 c p3
285.15 497.77 0.43 c p3
285.29 497.77 0.43 c p3
285.44 497.32 0.43 c p3
285.58 498.77 0.43 c p3
285.73 498.93 0.43 c p3
285.88 498.06 0.43 c p3
286.02 498.93 0.43 c p3
286.17 498.35 0.43 c p3
286.31 498.35 0.43 c p3
286.46 498.77 0.43 c p3
286.60 498.19 0.43 c p3
286.75 499.22 0.43 c p3
286.89 498.93 0.43 c p3
287.04 498.93 0.43 c p3
287.19 498.48 0.43 c p3
287.33 499.22 0.43 c p3
287.48 499.22 0.43 c p3
287.62 498.77 0.43 c p3
287.77 499.06 0.43 c p3
287.91 499.52 0.43 c p3
288.06 499.64 0.43 c p3
288.21 501.10 0.43 c p3
288.35 499.81 0.43 c p3
288.50 499.52 0.43 c p3
288.64 498.93 0.43 c p3
288.79 499.52 0.43 c p3
288.93 499.64 0.43 c p3
289.08 499.06 0.43 c p3
289.22 499.52 0.43 c p3
289.37 499.35 0.43 c p3
289.52 499.52 0.43 c p3
289.66 499.52 0.43 c p3
289.81 499.22 0.43 c p3
289.95 499.64 0.43 c p3
290.10 500.39 0.43 c p3
290.24 499.64 0.43 c p3
290.39 500.23 0.43 c p3
290.53 500.10 0.43 c p3
290.68 500.23 0.43 c p3
290.83 500.52 0.43 c p3
290.97 499.52 0.43 c p3
291.12 500.52 0.43 c p3
291.26 500.94 0.43 c p3
291.41 499.81 0.43 c p3
291.55 500.81 0.43 c p3
291.70 500.52 0.43 c p3
291.84 500.65 0.43 c p3
291.99 500.65 0.43 c p3
292.14 500.10 0.43 c p3
292.28 500.65 0.43 c p3
292.43 500.65 0.43 c p3
292.57 500.65 0.43 c p3
292.72 500.52 0.43 c p3
292.86 500.23 0.43 c p3
293.01 500.52 0.43 c p3
293.16 500.39 0.43 c p3
293.30 499.52 0.43 c p3
293.45 500.23 0.43 c p3
293.59 500.65 0.43 c p3
293.74 501.52 0.43 c p3
293.88 501.10 0.43 c p3
294.03 501.97 0.43 c p3
294.17 501.23 0.43 c p3
294.32 501.52 0.43 c p3
294.47 500.65 0.43 c p3
294.61 500.65 0.43 c p3
294.76 501.10 0.43 c p3
294.90 500.65 0.43 c p3
295.05 500.94 0.43 c p3
295.19 500.94 0.43 c p3
295.34 500.81 0.43 c p3
295.48 500.52 0.43 c p3
295.63 500.94 0.43 c p3
295.78 500.65 0.43 c p3
295.92 501.68 0.43 c p3
296.07 501.97 0.43 c p3
296.21 501.39 0.43 c p3
296.36 501.52 0.43 c p3
296.50 501.52 0.43 c p3
296.65 501.23 0.43 c p3
296.79 501.23 0.43 c p3
296.94 501.39 0.43 c p3
297.09 500.94 0.43 c p3
297.23 501.81 0.43 c p3
297.38 501.52 0.43 c p3
297.52 501.52 0.43 c p3
297.67 501.68 0.43 c p3
297.81 501.39 0.43 c p3
297.96 502.10 0.43 c p3
298.11 502.26 0.43 c p3
298.25 501.23 0.43 c p3
298.40 502.10 0.43 c p3
298.54 502.39 0.43 c p3
298.69 501.52 0.43 c p3
298.83 501.52 0.43 c p3
298.98 502.56 0.43 c p3
299.12 501.23 0.43 c p3
299.27 501.52 0.43 c p3
299.42 501.52 0.43 c p3
299.56 502.26 0.43 c p3
299.71 502.26 0.43 c p3
299.85 502.39 0.43 c p3
300.00 501.97 0.43 c p3
300.14 502.85 0.43 c p3
300.29 502.26 0.43 c p3
300.43 502.10 0.43 c p3
300.58 502.56 0.43 c p3
300.73 502.10 0.43 c p3
300.87 501.68 0.43 c p3
301.02 501.97 0.43 c p3
301.16 501.68 0.43 c p3
301.31 501.52 0.43 c p3
301.45 502.10 0.43 c p3
301.60 501.39 0.43 c p3
301.74 501.97 0.43 c p3
301.89 502.69 0.43 c p3
302.04 502.98 0.43 c p3
302.18 502.85 0.43 c p3
302.33 502.56 0.43 c p3
302.47 502.39 0.43 c p3
302.62 502.10 0.43 c p3
302.76 502.85 0.43 c p3
302.91 502.56 0.43 c p3
303.06 503.27 0.43 c p3
303.20 502.56 0.43 c p3
303.35 502.69 0.43 c p3
303.49 502.56 0.43 c p3
303.64 502.85 0.43 c p3
303.78 501.81 0.43 c p3
303.93 502.69 0.43 c p3
304.07 502.98 0.43 c p3
304.22 503.56 0.43 c p3
304.37 502.69 0.43 c p3
304.51 503.27 0.43 c p3
304.66 502.98 0.43 c p3
304.80 502.98 0.43 c p3
304.95 502.10 0.43 c p3
305.09 502.39 0.43 c p3
305.24 502.69 0.43 c p3
305.38 502.39 0.43 c p3
305.53 502.56 0.43 c p3
305.68 502.98 0.43 c p3
305.82 502.69 0.43 c p3
305.97 503.72 0.43 c p3
306.11 503.43 0.43 c p3
306.26 502.98 0.43 c p3
306.40 502.39 0.43 c p3
306.55 503.85 0.43 c p3
306.69 503.56 0.43 c p3
306.84 502.69 0.43 c p3
306.99 502.98 0.43 c p3
307.13 503.14 0.43 c p3
307.28 503.14 0.43 c p3
307.42 502.10 0.43 c p3
307.57 502.69 0.43 c p3
307.71 503.85 0.43 c p3
307.86 504.14 0.43 c p3
308.01 503.27 0.43 c p3
308.15 503.72 0.43 c p3
308.30 504.01 0.43 c p3
308.44 503.72 0.43 c p3
308.59 503.43 0.43 c p3
308.73 503.14 0.43 c p3
308.88 503.14 0.43 c p3
309.02 502.56 0.43 c p3
309.17 503.14 0.43 c p3
309.32 503.27 0.43 c p3
309.46 503.14 0.43 c p3
309.61 503.43 0.43 c p3
309.75 504.30 0.43 c p3
309.90 503.43 0.43 c p3
310.04 503.85 0.43 c p3
310.19 503.27 0.43 c p3
310.33 504.14 0.43 c p3
310.48 503.56 0.43 c p3
310.63 503.27 0.43 c p3
310.77 503.43 0.43 c p3
310.92 503.72 0.43 c p3
311.06 503.14 0.43 c p3
311.21 503.43 0.43 c p3
311.35 503.72 0.43 c p3
311.50 504.14 0.43 c p3
311.64 504.01 0.43 c p3
311.79 504.59 0.43 c p3
311.94 504.72 0.43 c p3
312.08 503.27 0.43 c p3
312.23 504.30 0.43 c p3
312.37 503.14 0.43 c p3
312.52 504.14 0.43 c p3
312.66 504.14 0.43 c p3
312.81 504.01 0.43 c p3
312.96 503.72 0.43 c p3
313.10 503.85 0.43 c p3
313.25 503.43 0.43 c p3
313.39 503.56 0.43 c p3
313.54 503.85 0.43 c p3
313.68 504.30 0.43 c p3
313.83 504.14 0.43 c p3
313.97 504.30 0.43 c p3
314.12 504.30 0.43 c p3
314.27 504.59 0.43 c p3
314.41 503.27 0.43 c p3
314.56 504.30 0.43 c p3
314.70 504.30 0.43 c p3
314.85 503.27 0.43 c p3
314.99 503.72 0.43 c p3
315.14 504.30 0.43 c p3
315.28 504.72 0.43 c p3
315.43 503.43 0.43 c p3
315.58 503.72 0.43 c p3
315.72 503.85 0.43 c p3
315.87 503.85 0.43 c p3
316.01 504.01 0.43 c p3
316.16 504.30 0.43 c p3
316.30 503.72 0.43 c p3
316.45 504.14 0.43 c p3
316.59 504.01 0.43 c p3
316.74 504.59 0.43 c p3
316.89 504.14 0.43 c p3
317.03 503.85 0.43 c p3
317.18 504.43 0.43 c p3
317.32 504.88 0.43 c p3
317.47 505.47 0.43 c p3
317.61 504.59 0.43 c p3
317.76 505.60 0.43 c p3
317.91 504.88 0.43 c p3
318.05 504.30 0.43 c p3
318.20 503.85 0.43 c p3
318.34 504.14 0.43 c p3
318.49 504.43 0.43 c p3
318.63 504.88 0.43 c p3
318.78 503.85 0.43 c p3
318.92 504.30 0.43 c p3
319.07 504.43 0.43 c p3
319.22 504.30 0.43 c p3
319.36 504.88 0.43 c p3
319.51 504.59 0.43 c p3
319.65 504.88 0.43 c p3
319.80 504.72 0.43 c p3
319.94 504.72 0.43 c p3
320.09 504.59 0.43 c p3
320.23 504.43 0.43 c p3
320.38 504.72 0.43 c p3
320.53 504.88 0.43 c p3
320.67 504.72 0.43 c p3
320.82 504.30 0.43 c p3
320.96 504.30 0.43 c p3
321.11 504.72 0.43 c p3
321.25 505.30 0.43 c p3
321.40 505.60 0.43 c p3
321.54 505.18 0.43 c p3
321.69 504.88 0.43 c p3
321.84 504.59 0.43 c p3
321.98 504.01 0.43 c p3
322.13 504.30 0.43 c p3
322.27 504.72 0.43 c p3
322.42 504.43 0.43 c p3
322.56 504.43 0.43 c p3
322.71 504.43 0.43 c p3
322.85 504.88 0.43 c p3
323.00 505.47 0.43 c p3
323.15 505.18 0.43 c p3
323.29 505.18 0.43 c p3
323.44 505.60 0.43 c p3
323.58 505.60 0.43 c p3
323.73 505.47 0.43 c p3
323.87 505.18 0.43 c p3
324.02 504.72 0.43 c p3
324.17 504.30 0.43 c p3
324.31 504.59 0.43 c p3
324.46 504.14 0.43 c p3
324.60 504.59 0.43 c p3
324.75 504.30 0.43 c p3
324.89 505.60 0.43 c p3
325.04 505.76 0.43 c p3
325.18 505.18 0.43 c p3
325.33 504.88 0.43 c p3
325.48 505.47 0.43 c p3
325.62 504.88 0.43 c p3
325.77 504.88 0.43 c p3
325.91 505.60 0.43 c p3
326.06 504.72 0.43 c p3
326.20 505.18 0.43 c p3
326.35 504.43 0.43 c p3
326.49 504.30 0.43 c p3
326.64 504.72 0.43 c p3
326.79 505.01 0.43 c p3
326.93 505.60 0.43 c p3
327.08 505.18 0.43 c p3
327.22 505.47 0.43 c p3
327.37 505.30 0.43 c p3
327.51 505.18 0.43 c p3
327.66 504.59 0.43 c p3
327.80 504.88 0.43 c p3
327.95 504.43 0.43 c p3
328.10 504.72 0.43 c p3
328.24 504.72 0.43 c p3
328.39 504.72 0.43 c p3
328.53 505.18 0.43 c p3
328.68 504.59 0.43 c p3
328.82 505.76 0.43 c p3
328.97 505.47 0.43 c p3
329.12 505.60 0.43 c p3
329.26 505.89 0.43 c p3
329.41 505.18 0.43 c p3
329.55 505.60 0.43 c p3
329.70 505.30 0.43 c p3
329.84 505.89 0.43 c p3
329.99 506.18 0.43 c p3
330.13 505.01 0.43 c p3
330.28 504.72 0.43 c p3
330.43 504.72 0.43 c p3
330.57 504.88 0.43 c p3
330.72 505.60 0.43 c p3
330.86 505.89 0.43 c p3
331.01 505.60 0.43 c p3
331.15 504.59 0.43 c p3
331.30 505.76 0.43 c p3
331.44 506.63 0.43 c p3
331.59 506.18 0.43 c p3
331.74 505.18 0.43 c p3
331.88 505.01 0.43 c p3
332.03 505.30 0.43 c p3
332.17 505.18 0.43 c p3
332.32 504.59 0.43 c p3
332.46 505.18 0.43 c p3
332.61 505.18 0.43 c p3
332.75 505.47 0.43 c p3
332.90 505.76 0.43 c p3
333.05 505.76 0.43 c p3
333.19 505.47 0.43 c p3
333.34 506.05 0.43 c p3
333.48 505.18 0.43 c p3
333.63 505.30 0.43 c p3
333.77 505.30 0.43 c p3
333.92 504.72 0.43 c p3
334.07 505.30 0.43 c p3
334.21 504.72 0.43 c p3
334.36 505.60 0.43 c p3
334.50 506.05 0.43 c p3
334.65 506.34 0.43 c p3
334.79 505.76 0.43 c p3
334.94 506.34 0.43 c p3
335.08 505.47 0.43 c p3
335.23 504.72 0.43 c p3
335.38 505.60 0.43 c p3
335.52 505.76 0.43 c p3
335.67 505.30 0.43 c p3
335.81 505.60 0.43 c p3
335.96 504.88 0.43 c p3
336.10 505.47 0.43 c p3
336.25 505.18 0.43 c p3
336.39 505.76 0.43 c p3
336.54 505.89 0.43 c p3
336.69 505.89 0.43 c p3
336.83 505.60 0.43 c p3
336.98 505.30 0.43 c p3
337.12 505.76 0.43 c p3
337.27 505.30 0.43 c p3
337.41 505.76 0.43 c p3
337.56 505.76 0.43 c p3
337.70 506.05 0.43 c p3
337.85 505.47 0.43 c p3
338.00 505.30 0.43 c p3
338.14 505.47 0.43 c p3
338.29 505.89 0.43 c p3
338.43 506.18 0.43 c p3
338.58 506.34 0.43 c p3
338.72 506.05 0.43 c p3
338.87 506.34 0.43 c p3
339.02 505.89 0.43 c p3
339.16 505.47 0.43 c p3
339.31 505.30 0.43 c p3
339.45 505.30 0.43 c p3
339.60 505.30 0.43 c p3
339.74 506.05 0.43 c p3
339.89 505.76 0.43 c p3
340.03 505.60 0.43 c p3
340.18 506.18 0.43 c p3
340.33 506.34 0.43 c p3
340.47 507.05 0.43 c p3
340.62 506.63 0.43 c p3
340.76 506.47 0.43 c p3
340.91 506.76 0.43 c p3
341.05 506.47 0.43 c p3
341.20 506.34 0.43 c p3
341.34 505.60 0.43 c p3
341.49 505.47 0.43 c p3
341.64 504.59 0.43 c p3
341.78 505.30 0.43 c p3
341.93 505.30 0.43 c p3
342.07 506.05 0.43 c p3
342.22 506.18 0.43 c p3
342.36 506.47 0.43 c p3
342.51 505.89 0.43 c p3
342.65 506.05 0.43 c p3
342.80 505.89 0.43 c p3
342.95 506.18 0.43 c p3
343.09 505.89 0.43 c p3
343.24 504.88 0.43 c p3
343.38 506.18 0.43 c p3
343.53 506.05 0.43 c p3
343.67 505.47 0.43 c p3
343.82 505.89 0.43 c p3
343.97 505.89 0.43 c p3
344.11 506.34 0.43 c p3
344.26 506.34 0.43 c p3
344.40 506.63 0.43 c p3
344.55 505.30 0.43 c p3
344.69 505.30 0.43 c p3
344.84 505.60 0.43 c p3
344.98 505.47 0.43 c p3
345.13 505.76 0.43 c p3
345.28 506.18 0.43 c p3
345.42 504.88 0.43 c p3
345.57 506.05 0.43 c p3
345.71 505.76 0.43 c p3
345.86 506.18 0.43 c p3
346.00 506.47 0.43 c p3
346.15 506.76 0.43 c p3
346.29 506.47 0.43 c p3
346.44 506.63 0.43 c p3
346.59 505.89 0.43 c p3
346.73 506.34 0.43 c p3
346.88 505.89 0.43 c p3
347.02 506.47 0.43 c p3
347.17 505.47 0.43 c p3
347.31 505.30 0.43 c p3
347.46 505.60 0.43 c p3
347.60 506.76 0.43 c p3
347.75 505.60 0.43 c p3
347.90 505.89 0.43 c p3
348.04 506.47 0.43 c p3
348.19 506.47 0.43 c p3
348.33 506.76 0.43 c p3
348.48 505.60 0.43 c p3
348.62 506.34 0.43 c p3
348.77 505.60 0.43 c p3
348.92 505.60 0.43 c p3
349.06 506.34 0.43 c p3
349.21 505.60 0.43 c p3
349.35 505.76 0.43 c p3
349.50 506.34 0.43 c p3
349.64 506.18 0.43 c p3
349.79 506.18 0.43 c p3
349.93 506.76 0.43 c p3
350.08 506.18 0.43 c p3
350.23 506.34 0.43 c p3
350.37 506.34 0.43 c p3
350.52 505.47 0.43 c p3
350.66 505.76 0.43 c p3
350.81 505.30 0.43 c p3
350.95 505.76 0.43 c p3
351.10 506.18 0.43 c p3
351.24 506.47 0.43 c p3
351.39 507.34 0.43 c p3
351.54 506.05 0.43 c p3
351.68 506.47 0.43 c p3
351.83 506.89 0.43 c p3
351.97 505.76 0.43 c p3
352.12 506.63 0.43 c p3
352.26 506.18 0.43 c p3
352.41 505.89 0.43 c p3
352.55 506.05 0.43 c p3
352.70 506.34 0.43 c p3
352.85 506.05 0.43 c p3
352.99 506.05 0.43 c p3
353.14 506.05 0.43 c p3
353.28 506.63 0.43 c p3
353.43 506.63 0.43 c p3
353.57 505.89 0.43 c p3
353.72 506.18 0.43 c p3
353.86 506.76 0.43 c p3
354.01 506.05 0.43 c p3
354.16 506.18 0.43 c p3
354.30 505.89 0.43 c p3
354.45 505.60 0.43 c p3
354.59 506.05 0.43 c p3
354.74 506.34 0.43 c p3
354.88 507.47 0.43 c p3
355.03 506.89 0.43 c p3
355.18 506.63 0.43 c p3
355.32 506.47 0.43 c p3
355.47 506.47 0.43 c p3
355.61 506.63 0.43 c p3
355.76 506.34 0.43 c p3
355.90 505.89 0.43 c p3
356.05 506.18 0.43 c p3
356.19 505.76 0.43 c p3
356.34 506.34 0.43 c p3
356.49 506.18 0.43 c p3
356.63 506.76 0.43 c p3
356.78 506.47 0.43 c p3
356.92 506.47 0.43 c p3
357.07 506.89 0.43 c p3
357.21 506.05 0.43 c p3
357.36 507.05 0.43 c p3
357.50 506.34 0.43 c p3
357.65 506.76 0.43 c p3
357.80 506.76 0.43 c p3
357.94 505.60 0.43 c p3
358.09 506.47 0.43 c p3
358.23 506.89 0.43 c p3
358.38 507.18 0.43 c p3
358.52 506.89 0.43 c p3
358.67 506.47 0.43 c p3
358.81 506.18 0.43 c p3
358.96 506.05 0.43 c p3
359.11 506.05 0.43 c p3
359.25 506.18 0.43 c p3
359.40 506.18 0.43 c p3
359.54 506.18 0.43 c p3
359.69 505.30 0.43 c p3
359.83 506.05 0.43 c p3
359.98 506.05 0.43 c p3
360.13 506.89 0.43 c p3
360.27 506.18 0.43 c p3
360.42 507.05 0.43 c p3
360.56 507.05 0.43 c p3
360.71 506.47 0.43 c p3
360.85 507.05 0.43 c p3
361.00 507.18 0.43 c p3
361.14 506.05 0.43 c p3
361.29 506.34 0.43 c p3
361.44 506.05 0.43 c p3
361.58 506.18 0.43 c p3
361.73 506.47 0.43 c p3
361.87 506.34 0.43 c p3
362.02 506.76 0.43 c p3
362.16 507.18 0.43 c p3
362.31 506.76 0.43 c p3
362.45 506.89 0.43 c p3
362.60 506.47 0.43 c p3
362.75 506.05 0.43 c p3
362.89 506.63 0.43 c p3
363.04 506.63 0.43 c p3
363.18 506.47 0.43 c p3
363.33 506.18 0.43 c p3
363.47 506.05 0.43 c p3
363.62 506.34 0.43 c p3
363.76 506.34 0.43 c p3
363.91 507.18 0.43 c p3
364.06 507.63 0.43 c p3
364.20 507.47 0.43 c p3
364.35 506.47 0.43 c p3
364.49 506.18 0.43 c p3
364.64 506.18 0.43 c p3
364.78 506.18 0.43 c p3
364.93 506.05 0.43 c p3
365.08 506.05 0.43 c p3
365.22 506.18 0.43 c p3
365.37 506.34 0.43 c p3
365.51 506.47 0.43 c p3
365.66 506.18 0.43 c p3
365.80 506.63 0.43 c p3
365.95 506.76 0.43 c p3
366.09 507.63 0.43 c p3
366.24 506.89 0.43 c p3
366.39 507.34 0.43 c p3
366.53 506.76 0.43 c p3
366.68 507.18 0.43 c p3
366.82 507.34 0.43 c p3
366.97 506.47 0.43 c p3
367.11 506.34 0.43 c p3
367.26 506.18 0.43 c p3
367.40 506.47 0.43 c p3
367.55 506.34 0.43 c p3
367.70 506.63 0.43 c p3
367.84 506.63 0.43 c p3
367.99 506.89 0.43 c p3
368.13 506.76 0.43 c p3
368.28 506.89 0.43 c p3
368.42 507.47 0.43 c p3
368.57 506.18 0.43 c p3
368.71 506.34 0.43 c p3
368.86 506.89 0.43 c p3
369.01 506.34 0.43 c p3
369.15 506.34 0.43 c p3
369.30 507.05 0.43 c p3
369.44 506.63 0.43 c p3
369.59 506.89 0.43 c p3
369.73 506.76 0.43 c p3
369.88 506.76 0.43 c p3
370.03 507.34 0.43 c p3
370.17 507.76 0.43 c p3
370.32 506.47 0.43 c p3
370.46 506.63 0.43 c p3
370.61 506.47 0.43 c p3
370.75 506.89 0.43 c p3
370.90 506.05 0.43 c p3
371.04 506.63 0.43 c p3
371.19 506.18 0.43 c p3
371.34 506.47 0.43 c p3
371.48 506.34 0.43 c p3
371.63 506.76 0.43 c p3
371.77 506.76 0.43 c p3
371.92 507.05 0.43 c p3
372.06 507.47 0.43 c p3
372.21 507.34 0.43 c p3
372.35 507.05 0.43 c p3
372.50 507.05 0.43 c p3
372.65 506.89 0.43 c p3
372.79 507.05 0.43 c p3
372.94 506.89 0.43 c p3
373.08 506.34 0.43 c p3
373.23 505.89 0.43 c p3
373.37 506.63 0.43 c p3
373.52 506.18 0.43 c p3
373.66 506.47 0.43 c p3
373.81 506.76 0.43 c p3
373.96 506.47 0.43 c p3
374.10 507.34 0.43 c p3
374.25 507.05 0.43 c p3
374.39 506.89 0.43 c p3
374.54 506.63 0.43 c p3
374.68 506.63 0.43 c p3
374.83 506.76 0.43 c p3
374.98 506.76 0.43 c p3
375.12 506.76 0.43 c p3
375.27 506.63 0.43 c p3
375.41 506.34 0.43 c p3
375.56 507.05 0.43 c p3
375.70 506.34 0.43 c p3
375.85 506.63 0.43 c p3
375.99 507.47 0.43 c p3
376.14 507.34 0.43 c p3
376.29 507.34 0.43 c p3
376.43 506.18 0.43 c p3
376.58 507.05 0.43 c p3
376.72 507.05 0.43 c p3
376.87 506.18 0.43 c p3
377.01 507.05 0.43 c p3
377.16 506.47 0.43 c p3
377.30 505.76 0.43 c p3
377.45 506.63 0.43 c p3
377.60 507.18 0.43 c p3
377.74 506.89 0.43 c p3
377.89 507.63 0.43 c p3
378.03 507.05 0.43 c p3
378.18 507.34 0.43 c p3
378.32 507.76 0.43 c p3
378.47 506.89 0.43 c p3
378.61 507.18 0.43 c p3
378.76 506.63 0.43 c p3
378.91 507.05 0.43 c p3
379.05 507.34 0.43 c p3
379.20 507.05 0.43 c p3
379.34 506.34 0.43 c p3
379.49 506.63 0.43 c p3
379.63 507.05 0.43 c p3
379.78 507.05 0.43 c p3
379.93 506.63 0.43 c p3
380.07 507.05 0.43 c p3
380.22 506.89 0.43 c p3
380.36 507.34 0.43 c p3
380.51 506.05 0.43 c p3
380.65 506.89 0.43 c p3
380.80 507.05 0.43 c p3
380.94 507.63 0.43 c p3
381.09 506.76 0.43 c p3
381.24 507.18 0.43 c p3
381.38 506.63 0.43 c p3
381.53 506.34 0.43 c p3
381.67 506.89 0.43 c p3
381.82 507.34 0.43 c p3
381.96 507.34 0.43 c p3
382.11 507.47 0.43 c p3
382.25 506.89 0.43 c p3
382.40 507.05 0.43 c p3
0.00 0.00 432.00 576.00 cl
0 0 0 srgb
0.75 setlinewidth
[] 0 setdash
1 setlinecap
1 setlinejoin
10.00 setmiterlimit
np
236.96 345.60 m
145.59 0 l
o
np
236.96 345.60 m
0 -5.76 l
o
np
266.08 345.60 m
0 -5.76 l
o
np
295.19 345.60 m
0 -5.76 l
o
np
324.31 345.60 m
0 -5.76 l
o
np
353.43 345.60 m
0 -5.76 l
o
np
382.55 345.60 m
0 -5.76 l
o
/Font1 findfont 10 s
236.96 329.47 (0) .5 0 t
266.08 329.47 (200) .5 0 t
295.19 329.47 (400) .5 0 t
324.31 329.47 (600) .5 0 t
353.43 329.47 (800) .5 0 t
382.55 329.47 (1000) .5 0 t
np
216.00 352.00 m
0 158.97 l
o
np
216.00 352.00 m
-5.76 0 l
o
np
216.00 378.49 m
-5.76 0 l
o
np
216.00 404.99 m
-5.76 0 l
o
np
216.00 431.48 m
-5.76 0 l
o
np
216.00 457.98 m
-5.76 0 l
o
np
216.00 484.47 m
-5.76 0 l
o
np
216.00 510.97 m
-5.76 0 l
o
209.09 348.41 (0.0) 1 0 t
209.09 374.90 (0.2) 1 0 t
209.09 401.40 (0.4) 1 0 t
209.09 427.89 (0.6) 1 0 t
209.09 454.39 (0.8) 1 0 t
209.09 480.88 (1.0) 1 0 t
209.09 507.38 (1.2) 1 0 t
np
216.00 345.60 m
172.80 0 l
0 172.80 l
-172.80 0 l
0 -172.80 l
o
0.00 0.00 432.00 576.00 cl
/Font1 findfont 10 s
0 0 0 srgb
302.40 313.34 (Zeit / ms \(total\)) .5 0 t
190.66 432.00 (U / V) .5 90 t
216.00 345.60 388.80 518.40 cl
0 0 0 srgb
0.38 setlinewidth
[ 1.12 1.88] 0 setdash
1 setlinecap
1 setlinejoin
10.00 setmiterlimit
np
222.84 345.60 m
0 172.80 l
o
np
235.21 345.60 m
0 172.80 l
o
np
238.71 345.60 m
0 172.80 l
o
np
311.79 345.60 m
0 172.80 l
o
86.40 57.60 388.80 288.00 cl
1 0 0 srgb
1.50 setlinewidth
[] 0 setdash
1 setlinecap
1 setlinejoin
10.00 setmiterlimit
np
97.60 279.47 m
1.41 -6.31 l
1.40 -6.11 l
1.41 -5.92 l
1.41 -5.73 l
1.41 -5.56 l
1.40 -5.37 l
1.41 -5.21 l
1.41 -5.05 l
1.40 -4.88 l
1.41 -4.74 l
1.41 -4.58 l
1.40 -4.44 l
1.41 -4.30 l
1.41 -4.16 l
1.41 -4.04 l
1.40 -3.91 l
1.41 -3.78 l
1.41 -3.67 l
1.40 -3.55 l
1.41 -3.43 l
1.41 -3.33 l
1.40 -3.23 l
1.41 -3.12 l
1.41 -3.03 l
1.41 -2.93 l
1.40 -2.84 l
1.41 -2.75 l
1.41 -2.66 l
1.40 -2.58 l
1.41 -2.50 l
1.41 -2.42 l
1.41 -2.34 l
1.40 -2.27 l
1.41 -2.20 l
1.41 -2.13 l
1.40 -2.06 l
1.41 -2.00 l
1.41 -1.94 l
1.40 -1.87 l
1.41 -1.82 l
1.41 -1.75 l
1.41 -1.71 l
1.40 -1.65 l
1.41 -1.59 l
1.41 -1.55 l
1.40 -1.50 l
1.41 -1.45 l
1.41 -1.41 l
1.40 -1.36 l
1.41 -1.32 l
1.41 -1.27 l
1.41 -1.24 l
1.40 -1.20 l
1.41 -1.16 l
1.41 -1.12 l
1.40 -1.09 l
1.41 -1.06 l
1.41 -1.02 l
1.41 -0.99 l
1.40 -0.95 l
1.41 -0.93 l
1.41 -0.90 l
1.40 -0.87 l
1.41 -0.85 l
1.41 -0.81 l
1.40 -0.79 l
1.41 -0.77 l
1.41 -0.74 l
1.41 -0.72 l
1.40 -0.70 l
1.41 -0.67 l
1.41 -0.65 l
1.40 -0.64 l
1.41 -0.61 l
1.41 -0.59 l
1.40 -0.58 l
1.41 -0.55 l
1.41 -0.54 l
1.41 -0.52 l
1.40 -0.51 l
1.41 -0.49 l
1.41 -0.47 l
1.40 -0.46 l
1.41 -0.45 l
1.41 -0.43 l
1.41 -0.42 l
1.40 -0.40 l
1.41 -0.39 l
1.41 -0.38 l
1.40 -0.37 l
1.41 -0.36 l
1.41 -0.34 l
1.40 -0.33 l
1.41 -0.33 l
1.41 -0.31 l
1.41 -0.30 l
1.40 -0.30 l
1.41 -0.28 l
1.41 -0.28 l
238.30 87.02 lineto
1.41 -0.25 l
1.41 -0.26 l
1.40 -0.24 l
1.41 -0.23 l
1.41 -0.23 l
1.41 -0.22 l
1.40 -0.21 l
1.41 -0.21 l
1.41 -0.20 l
1.40 -0.20 l
1.41 -0.18 l
1.41 -0.18 l
1.40 -0.18 l
1.41 -0.17 l
1.41 -0.17 l
1.41 -0.16 l
1.40 -0.15 l
1.41 -0.15 l
1.41 -0.15 l
1.40 -0.14 l
1.41 -0.14 l
1.41 -0.13 l
1.41 -0.13 l
1.40 -0.12 l
1.41 -0.12 l
1.41 -0.12 l
1.40 -0.11 l
1.41 -0.11 l
1.41 -0.10 l
1.40 -0.11 l
1.41 -0.10 l
1.41 -0.09 l
1.41 -0.09 l
1.40 -0.09 l
1.41 -0.09 l
1.41 -0.09 l
1.40 -0.08 l
1.41 -0.08 l
1.41 -0.07 l
1.40 -0.08 l
1.41 -0.07 l
1.41 -0.07 l
1.41 -0.07 l
1.40 -0.06 l
1.41 -0.07 l
1.41 -0.06 l
1.40 -0.06 l
1.41 -0.06 l
1.41 -0.05 l
1.41 -0.06 l
1.40 -0.05 l
1.41 -0.05 l
1.41 -0.05 l
1.40 -0.05 l
1.41 -0.04 l
1.41 -0.05 l
1.40 -0.04 l
1.41 -0.04 l
1.41 -0.04 l
1.41 -0.04 l
1.40 -0.04 l
1.41 -0.04 l
1.41 -0.03 l
1.40 -0.04 l
1.41 -0.03 l
1.41 -0.03 l
1.40 -0.03 l
1.41 -0.03 l
1.41 -0.03 l
1.41 -0.03 l
1.40 -0.03 l
1.41 -0.03 l
1.41 -0.02 l
1.40 -0.03 l
1.41 -0.02 l
1.41 -0.02 l
1.41 -0.03 l
1.40 -0.02 l
1.41 -0.02 l
1.41 -0.02 l
1.40 -0.02 l
1.41 -0.02 l
1.41 -0.02 l
1.40 -0.02 l
1.41 -0.02 l
1.41 -0.01 l
1.41 -0.02 l
1.40 -0.02 l
1.41 -0.01 l
1.41 -0.02 l
1.40 -0.01 l
1.41 -0.02 l
1.41 -0.01 l
1.40 -0.01 l
1.41 -0.02 l
1.41 -0.01 l
1.41 -0.01 l
1.40 -0.01 l
1.41 -0.01 l
o
0.00 0.00 432.00 576.00 cl
0 0 0 srgb
0.75 setlinewidth
[] 0 setdash
1 setlinecap
1 setlinejoin
10.00 setmiterlimit
np
97.60 57.60 m
280.00 0 l
o
np
97.60 57.60 m
0 -5.76 l
o
np
153.60 57.60 m
0 -5.76 l
o
np
209.60 57.60 m
0 -5.76 l
o
np
265.60 57.60 m
0 -5.76 l
o
np
321.60 57.60 m
0 -5.76 l
o
np
377.60 57.60 m
0 -5.76 l
o
/Font1 findfont 10 s
97.60 41.47 (0) .5 0 t
153.60 41.47 (200) .5 0 t
209.60 41.47 (400) .5 0 t
265.60 41.47 (600) .5 0 t
321.60 41.47 (800) .5 0 t
377.60 41.47 (1000) .5 0 t
np
86.40 66.13 m
0 200.43 l
o
np
86.40 66.13 m
-5.76 0 l
o
np
86.40 116.24 m
-5.76 0 l
o
np
86.40 166.34 m
-5.76 0 l
o
np
86.40 216.45 m
-5.76 0 l
o
np
86.40 266.56 m
-5.76 0 l
o
79.49 62.54 (0.00) 1 0 t
79.49 112.65 (0.05) 1 0 t
79.49 162.75 (0.10) 1 0 t
79.49 212.86 (0.15) 1 0 t
79.49 262.97 (0.20) 1 0 t
np
86.40 57.60 m
302.40 0 l
0 230.40 l
-302.40 0 l
0 -230.40 l
o
0.00 0.00 432.00 576.00 cl
/Font1 findfont 10 s
0 0 0 srgb
237.60 13.82 (Zeit / ms \(nach Puls\)) .5 0 t
49.54 172.80 (Absorbanz A) .5 90 t
86.40 57.60 388.80 288.00 cl
/bg { 1 1 1 srgb } def
0 0 0 srgb
0.75 setlinewidth
[] 0 setdash
1 setlinecap
1 setlinejoin
10.00 setmiterlimit
101.24 263.79 0.65 c p3
101.52 260.05 0.65 c p3
101.80 255.65 0.65 c p3
102.08 257.57 0.65 c p3
102.36 256.34 0.65 c p3
102.64 260.05 0.65 c p3
102.92 259.36 0.65 c p3
103.20 255.65 0.65 c p3
103.48 254.42 0.65 c p3
103.76 253.88 0.65 c p3
104.04 252.65 0.65 c p3
104.32 251.98 0.65 c p3
104.60 251.98 0.65 c p3
104.88 247.12 0.65 c p3
105.16 245.92 0.65 c p3
105.44 245.38 0.65 c p3
105.72 242.99 0.65 c p3
106.00 242.45 0.65 c p3
106.28 242.45 0.65 c p3
106.56 238.89 0.65 c p3
106.84 239.41 0.65 c p3
107.12 240.60 0.65 c p3
107.40 240.60 0.65 c p3
107.68 242.45 0.65 c p3
107.96 238.89 0.65 c p3
108.24 239.41 0.65 c p3
108.52 232.36 0.65 c p3
108.80 229.52 0.65 c p3
109.08 233.01 0.65 c p3
109.36 234.18 0.65 c p3
109.64 232.36 0.65 c p3
109.92 231.84 0.65 c p3
110.20 232.36 0.65 c p3
110.48 228.36 0.65 c p3
110.76 227.21 0.65 c p3
111.04 229.52 0.65 c p3
111.32 227.72 0.65 c p3
111.60 227.72 0.65 c p3
111.88 225.42 0.65 c p3
112.16 221.99 0.65 c p3
112.44 221.48 0.65 c p3
112.72 219.84 0.65 c p3
113.00 220.34 0.65 c p3
113.28 219.21 0.65 c p3
113.56 217.58 0.65 c p3
113.84 215.83 0.65 c p3
114.12 218.08 0.65 c p3
114.40 219.21 0.65 c p3
114.68 213.59 0.65 c p3
114.96 215.83 0.65 c p3
115.24 213.09 0.65 c p3
115.52 209.76 0.65 c p3
115.80 211.36 0.65 c p3
116.08 208.65 0.65 c p3
116.36 208.65 0.65 c p3
116.64 209.14 0.65 c p3
116.92 208.65 0.65 c p3
117.20 206.45 0.65 c p3
117.48 207.55 0.65 c p3
117.76 206.45 0.65 c p3
118.04 206.45 0.65 c p3
118.32 205.84 0.65 c p3
118.60 205.84 0.65 c p3
118.88 201.47 0.65 c p3
119.16 200.38 0.65 c p3
119.44 200.99 0.65 c p3
119.72 198.82 0.65 c p3
120.00 198.82 0.65 c p3
120.28 199.90 0.65 c p3
120.56 198.82 0.65 c p3
120.84 200.38 0.65 c p3
121.12 196.67 0.65 c p3
121.40 195.59 0.65 c p3
121.68 195.59 0.65 c p3
121.96 196.19 0.65 c p3
122.24 195.59 0.65 c p3
122.52 194.05 0.65 c p3
122.80 190.27 0.65 c p3
123.08 192.98 0.65 c p3
123.36 189.21 0.65 c p3
123.64 189.21 0.65 c p3
123.92 188.15 0.65 c p3
124.20 186.63 0.65 c p3
124.48 188.74 0.65 c p3
124.76 187.10 0.65 c p3
125.04 191.33 0.65 c p3
125.32 185.59 0.65 c p3
125.60 187.69 0.65 c p3
125.88 186.05 0.65 c p3
126.16 187.10 0.65 c p3
126.44 182.92 0.65 c p3
126.72 182.92 0.65 c p3
127.00 182.45 0.65 c p3
127.28 179.80 0.65 c p3
127.56 179.80 0.65 c p3
127.84 178.77 0.65 c p3
128.12 178.77 0.65 c p3
128.40 177.28 0.65 c p3
128.68 178.31 0.65 c p3
128.96 178.77 0.65 c p3
129.24 178.77 0.65 c p3
129.52 175.69 0.65 c p3
129.80 175.69 0.65 c p3
130.08 175.69 0.65 c p3
130.36 174.78 0.65 c p3
130.64 174.21 0.65 c p3
130.92 172.18 0.65 c p3
131.20 171.72 0.65 c p3
131.48 171.16 0.65 c p3
131.76 171.16 0.65 c p3
132.04 170.15 0.65 c p3
132.32 170.15 0.65 c p3
132.60 169.14 0.65 c p3
132.88 168.13 0.65 c p3
133.16 168.69 0.65 c p3
133.44 165.68 0.65 c p3
133.72 170.15 0.65 c p3
134.00 168.69 0.65 c p3
134.28 168.13 0.65 c p3
134.56 162.13 0.65 c p3
134.84 164.68 0.65 c p3
135.12 163.13 0.65 c p3
135.40 163.13 0.65 c p3
135.68 161.69 0.65 c p3
135.96 163.13 0.65 c p3
136.24 164.12 0.65 c p3
136.52 162.13 0.65 c p3
136.80 163.13 0.65 c p3
137.08 163.13 0.65 c p3
137.36 163.13 0.65 c p3
137.64 160.15 0.65 c p3
137.92 161.14 0.65 c p3
138.20 157.74 0.65 c p3
138.48 161.14 0.65 c p3
138.76 155.78 0.65 c p3
139.04 156.22 0.65 c p3
139.32 155.24 0.65 c p3
139.60 155.78 0.65 c p3
139.88 154.26 0.65 c p3
140.16 155.24 0.65 c p3
140.44 154.26 0.65 c p3
140.72 153.83 0.65 c p3
141.00 153.83 0.65 c p3
141.28 153.83 0.65 c p3
141.56 152.86 0.65 c p3
141.84 152.86 0.65 c p3
142.12 153.40 0.65 c p3
142.40 150.49 0.65 c p3
142.68 149.95 0.65 c p3
142.96 147.07 0.65 c p3
143.24 147.07 0.65 c p3
143.52 149.95 0.65 c p3
143.80 148.56 0.65 c p3
144.08 147.60 0.65 c p3
144.36 148.03 0.65 c p3
144.64 146.64 0.65 c p3
144.92 147.60 0.65 c p3
145.20 146.64 0.65 c p3
145.48 146.64 0.65 c p3
145.76 147.07 0.65 c p3
146.04 145.15 0.65 c p3
146.32 145.15 0.65 c p3
146.60 144.20 0.65 c p3
146.88 142.30 0.65 c p3
147.16 143.78 0.65 c p3
147.44 143.25 0.65 c p3
147.72 143.78 0.65 c p3
148.00 144.20 0.65 c p3
148.28 143.78 0.65 c p3
148.56 143.25 0.65 c p3
148.84 141.88 0.65 c p3
149.12 141.35 0.65 c p3
149.40 141.88 0.65 c p3
149.68 141.88 0.65 c p3
149.96 140.41 0.65 c p3
150.24 142.83 0.65 c p3
150.52 140.41 0.65 c p3
150.80 138.10 0.65 c p3
151.08 138.10 0.65 c p3
151.36 138.10 0.65 c p3
151.64 137.17 0.65 c p3
151.92 135.30 0.65 c p3
152.20 135.71 0.65 c p3
152.48 136.23 0.65 c p3
152.76 139.46 0.65 c p3
153.04 137.58 0.65 c p3
153.32 137.58 0.65 c p3
153.60 136.65 0.65 c p3
153.88 133.85 0.65 c p3
154.16 135.30 0.65 c p3
154.44 133.43 0.65 c p3
154.72 131.58 0.65 c p3
155.00 131.58 0.65 c p3
155.28 131.17 0.65 c p3
155.56 132.09 0.65 c p3
155.84 131.17 0.65 c p3
156.12 131.58 0.65 c p3
156.40 130.24 0.65 c p3
156.68 127.89 0.65 c p3
156.96 131.58 0.65 c p3
157.24 130.65 0.65 c p3
157.52 132.09 0.65 c p3
157.80 129.73 0.65 c p3
158.08 129.32 0.65 c p3
158.36 129.32 0.65 c p3
158.64 126.57 0.65 c p3
158.92 127.89 0.65 c p3
159.20 128.40 0.65 c p3
159.48 128.81 0.65 c p3
159.76 128.81 0.65 c p3
160.04 127.89 0.65 c p3
160.32 128.40 0.65 c p3
160.60 129.73 0.65 c p3
160.88 128.40 0.65 c p3
161.16 127.49 0.65 c p3
161.44 126.98 0.65 c p3
161.72 127.89 0.65 c p3
162.00 124.74 0.65 c p3
162.28 126.06 0.65 c p3
162.56 123.83 0.65 c p3
162.84 122.93 0.65 c p3
163.12 122.93 0.65 c p3
163.40 120.21 0.65 c p3
163.68 122.42 0.65 c p3
163.96 122.93 0.65 c p3
164.24 121.12 0.65 c p3
164.52 121.52 0.65 c p3
164.80 122.93 0.65 c p3
165.08 123.83 0.65 c p3
165.36 119.31 0.65 c p3
165.64 120.61 0.65 c p3
165.92 122.42 0.65 c p3
166.20 122.93 0.65 c p3
166.48 119.31 0.65 c p3
166.76 117.92 0.65 c p3
167.04 118.81 0.65 c p3
167.32 119.71 0.65 c p3
167.60 117.92 0.65 c p3
167.88 118.81 0.65 c p3
168.16 118.41 0.65 c p3
168.44 119.71 0.65 c p3
168.72 119.71 0.65 c p3
169.00 116.13 0.65 c p3
169.28 118.81 0.65 c p3
169.56 120.21 0.65 c p3
169.84 118.81 0.65 c p3
170.12 118.41 0.65 c p3
170.40 116.13 0.65 c p3
170.68 117.02 0.65 c p3
170.96 118.81 0.65 c p3
171.24 117.02 0.65 c p3
171.52 116.13 0.65 c p3
171.80 116.13 0.65 c p3
172.08 116.13 0.65 c p3
172.36 116.13 0.65 c p3
172.64 114.34 0.65 c p3
172.92 115.23 0.65 c p3
173.20 115.23 0.65 c p3
173.48 114.84 0.65 c p3
173.76 112.17 0.65 c p3
174.04 113.06 0.65 c p3
174.32 113.95 0.65 c p3
174.60 113.06 0.65 c p3
174.88 112.67 0.65 c p3
175.16 112.17 0.65 c p3
175.44 111.29 0.65 c p3
175.72 111.29 0.65 c p3
176.00 113.55 0.65 c p3
176.28 113.06 0.65 c p3
176.56 113.06 0.65 c p3
176.84 113.55 0.65 c p3
177.12 112.17 0.65 c p3
177.40 110.41 0.65 c p3
177.68 110.02 0.65 c p3
177.96 110.02 0.65 c p3
178.24 108.65 0.65 c p3
178.52 107.77 0.65 c p3
178.80 111.29 0.65 c p3
179.08 110.02 0.65 c p3
179.36 110.02 0.65 c p3
179.64 111.29 0.65 c p3
179.92 110.02 0.65 c p3
180.20 107.77 0.65 c p3
180.48 108.65 0.65 c p3
180.76 108.65 0.65 c p3
181.04 110.02 0.65 c p3
181.32 107.38 0.65 c p3
181.60 109.53 0.65 c p3
181.88 109.53 0.65 c p3
182.16 107.38 0.65 c p3
182.44 107.77 0.65 c p3
182.72 106.90 0.65 c p3
183.00 108.26 0.65 c p3
183.28 107.38 0.65 c p3
183.56 108.65 0.65 c p3
183.84 107.38 0.65 c p3
184.12 105.64 0.65 c p3
184.40 106.51 0.65 c p3
184.68 105.15 0.65 c p3
184.96 105.64 0.65 c p3
185.24 101.68 0.65 c p3
185.52 103.90 0.65 c p3
185.80 105.64 0.65 c p3
186.08 106.90 0.65 c p3
186.36 103.90 0.65 c p3
186.64 105.64 0.65 c p3
186.92 105.15 0.65 c p3
187.20 105.15 0.65 c p3
187.48 106.02 0.65 c p3
187.76 105.64 0.65 c p3
188.04 106.02 0.65 c p3
188.32 105.15 0.65 c p3
188.60 105.64 0.65 c p3
188.88 103.90 0.65 c p3
189.16 103.90 0.65 c p3
189.44 103.03 0.65 c p3
189.72 103.90 0.65 c p3
190.00 102.16 0.65 c p3
190.28 101.68 0.65 c p3
190.56 104.28 0.65 c p3
190.84 104.28 0.65 c p3
191.12 105.64 0.65 c p3
191.40 101.30 0.65 c p3
191.68 100.82 0.65 c p3
191.96 103.41 0.65 c p3
192.24 100.82 0.65 c p3
192.52 102.55 0.65 c p3
192.80 102.55 0.65 c p3
193.08 101.30 0.65 c p3
193.36 103.03 0.65 c p3
193.64 99.96 0.65 c p3
193.92 100.82 0.65 c p3
194.20 100.82 0.65 c p3
194.48 102.16 0.65 c p3
194.76 99.96 0.65 c p3
195.04 99.96 0.65 c p3
195.32 101.30 0.65 c p3
195.60 100.44 0.65 c p3
195.88 99.10 0.65 c p3
196.16 98.72 0.65 c p3
196.44 94.45 0.65 c p3
196.72 98.24 0.65 c p3
197.00 99.10 0.65 c p3
197.28 100.82 0.65 c p3
197.56 99.10 0.65 c p3
197.84 98.72 0.65 c p3
198.12 100.44 0.65 c p3
198.40 99.10 0.65 c p3
198.68 99.58 0.65 c p3
198.96 99.10 0.65 c p3
199.24 99.10 0.65 c p3
199.52 99.96 0.65 c p3
199.80 98.72 0.65 c p3
200.08 96.53 0.65 c p3
200.36 98.72 0.65 c p3
200.64 97.00 0.65 c p3
200.92 97.38 0.65 c p3
201.20 97.00 0.65 c p3
201.48 96.15 0.65 c p3
201.76 99.10 0.65 c p3
202.04 96.15 0.65 c p3
202.32 94.92 0.65 c p3
202.60 98.24 0.65 c p3
202.88 95.30 0.65 c p3
203.16 96.15 0.65 c p3
203.44 95.77 0.65 c p3
203.72 95.77 0.65 c p3
204.00 97.38 0.65 c p3
204.28 95.77 0.65 c p3
204.56 95.77 0.65 c p3
204.84 95.77 0.65 c p3
205.12 96.15 0.65 c p3
205.40 97.00 0.65 c p3
205.68 96.15 0.65 c p3
205.96 96.53 0.65 c p3
206.24 99.10 0.65 c p3
206.52 97.00 0.65 c p3
206.80 95.77 0.65 c p3
207.08 93.22 0.65 c p3
207.36 94.45 0.65 c p3
207.64 91.91 0.65 c p3
207.92 94.07 0.65 c p3
208.20 93.22 0.65 c p3
208.48 95.77 0.65 c p3
208.76 95.77 0.65 c p3
209.04 94.45 0.65 c p3
209.32 95.77 0.65 c p3
209.60 94.92 0.65 c p3
209.88 94.92 0.65 c p3
210.16 95.30 0.65 c p3
210.44 96.15 0.65 c p3
210.72 94.92 0.65 c p3
211.00 95.77 0.65 c p3
211.28 92.75 0.65 c p3
211.56 91.91 0.65 c p3
211.84 93.60 0.65 c p3
212.12 93.22 0.65 c p3
212.40 93.22 0.65 c p3
212.68 94.07 0.65 c p3
212.96 94.07 0.65 c p3
213.24 93.60 0.65 c p3
213.52 94.92 0.65 c p3
213.80 92.38 0.65 c p3
214.08 93.22 0.65 c p3
214.36 93.22 0.65 c p3
214.64 92.75 0.65 c p3
214.92 93.60 0.65 c p3
215.20 91.53 0.65 c p3
215.48 91.06 0.65 c p3
215.76 94.07 0.65 c p3
216.04 91.53 0.65 c p3
216.32 90.69 0.65 c p3
216.60 93.22 0.65 c p3
216.88 93.22 0.65 c p3
217.16 90.22 0.65 c p3
217.44 94.07 0.65 c p3
217.72 93.22 0.65 c p3
218.00 93.22 0.65 c p3
218.28 91.06 0.65 c p3
218.56 91.06 0.65 c p3
218.84 90.69 0.65 c p3
219.12 91.91 0.65 c p3
219.40 89.38 0.65 c p3
219.68 91.06 0.65 c p3
219.96 91.53 0.65 c p3
220.24 90.22 0.65 c p3
220.52 91.53 0.65 c p3
220.80 92.75 0.65 c p3
221.08 91.91 0.65 c p3
221.36 92.75 0.65 c p3
221.64 93.22 0.65 c p3
221.92 91.53 0.65 c p3
222.20 93.60 0.65 c p3
222.48 91.91 0.65 c p3
222.76 89.85 0.65 c p3
223.04 89.01 0.65 c p3
223.32 89.38 0.65 c p3
223.60 90.22 0.65 c p3
223.88 90.69 0.65 c p3
224.16 91.53 0.65 c p3
224.44 89.38 0.65 c p3
224.72 90.22 0.65 c p3
225.00 88.17 0.65 c p3
225.28 90.22 0.65 c p3
225.56 89.85 0.65 c p3
225.84 90.22 0.65 c p3
226.12 89.38 0.65 c p3
226.40 92.38 0.65 c p3
226.68 89.85 0.65 c p3
226.96 89.01 0.65 c p3
227.24 87.33 0.65 c p3
227.52 89.85 0.65 c p3
227.80 88.17 0.65 c p3
228.08 89.01 0.65 c p3
228.36 89.01 0.65 c p3
228.64 91.53 0.65 c p3
228.92 90.69 0.65 c p3
229.20 89.85 0.65 c p3
229.48 90.69 0.65 c p3
229.76 90.22 0.65 c p3
230.04 89.01 0.65 c p3
230.32 89.85 0.65 c p3
230.60 86.87 0.65 c p3
230.88 87.70 0.65 c p3
231.16 89.01 0.65 c p3
231.44 90.69 0.65 c p3
231.72 86.50 0.65 c p3
232.00 87.33 0.65 c p3
232.28 89.85 0.65 c p3
232.56 89.01 0.65 c p3
232.84 88.54 0.65 c p3
233.12 88.54 0.65 c p3
233.40 91.53 0.65 c p3
233.68 89.85 0.65 c p3
233.96 86.50 0.65 c p3
234.24 85.66 0.65 c p3
234.52 88.17 0.65 c p3
234.80 86.87 0.65 c p3
235.08 86.03 0.65 c p3
235.36 86.87 0.65 c p3
235.64 87.70 0.65 c p3
235.92 88.54 0.65 c p3
236.20 88.54 0.65 c p3
236.48 90.22 0.65 c p3
236.76 88.54 0.65 c p3
237.04 88.17 0.65 c p3
237.32 88.54 0.65 c p3
237.60 87.70 0.65 c p3
237.88 85.20 0.65 c p3
238.16 87.70 0.65 c p3
238.44 86.50 0.65 c p3
238.72 88.17 0.65 c p3
239.00 85.66 0.65 c p3
239.28 87.33 0.65 c p3
239.56 88.17 0.65 c p3
239.84 87.70 0.65 c p3
240.12 86.87 0.65 c p3
240.40 88.54 0.65 c p3
240.68 87.70 0.65 c p3
240.96 86.87 0.65 c p3
241.24 85.66 0.65 c p3
241.52 86.03 0.65 c p3
241.80 84.37 0.65 c p3
216.00 201.60 367.20 247.68 cl
0 0 0 srgb
0.75 setlinewidth
[] 0 setdash
1 setlinecap
1 setlinejoin
10.00 setmiterlimit
221.60 225.26 0.43 c p1
221.88 218.75 0.43 c p1
222.16 210.58 0.43 c p1
222.44 218.35 0.43 c p1
222.72 218.13 0.43 c p1
222.99 230.40 0.43 c p1
223.27 231.52 0.43 c p1
223.55 225.00 0.43 c p1
223.83 224.73 0.43 c p1
224.11 226.16 0.43 c p1
224.39 225.86 0.43 c p1
224.67 226.92 0.43 c p1
224.95 229.68 0.43 c p1
225.23 220.16 0.43 c p1
225.50 219.84 0.43 c p1
225.78 221.19 0.43 c p1
226.06 217.82 0.43 c p1
226.34 219.15 0.43 c p1
226.62 221.81 0.43 c p1
226.90 215.44 0.43 c p1
227.18 219.39 0.43 c p1
227.46 224.99 0.43 c p1
227.74 227.58 0.43 c p1
228.01 234.84 0.43 c p1
228.29 228.38 0.43 c p1
228.57 232.25 0.43 c p1
228.85 216.95 0.43 c p1
229.13 212.27 0.43 c p1
229.41 223.58 0.43 c p1
229.69 229.02 0.43 c p1
229.97 226.88 0.43 c p1
230.25 228.02 0.43 c p1
230.52 231.76 0.43 c p1
230.80 224.06 0.43 c p1
231.08 223.55 0.43 c p1
231.36 231.77 0.43 c p1
231.64 229.59 0.43 c p1
231.92 231.95 0.43 c p1
232.20 228.47 0.43 c p1
232.48 222.12 0.43 c p1
232.76 223.15 0.43 c p1
233.03 221.30 0.43 c p1
233.31 224.86 0.43 c p1
233.59 224.26 0.43 c p1
233.87 222.38 0.43 c p1
234.15 220.20 0.43 c p1
234.43 228.11 0.43 c p1
234.71 233.18 0.43 c p1
234.99 221.16 0.43 c p1
235.27 229.00 0.43 c p1
235.54 224.25 0.43 c p1
235.82 217.98 0.43 c p1
236.10 224.17 0.43 c p1
236.38 219.45 0.43 c p1
236.66 221.56 0.43 c p1
236.94 224.90 0.43 c p1
237.22 225.75 0.43 c p1
237.50 222.25 0.43 c p1
237.78 227.09 0.43 c p1
238.05 226.36 0.43 c p1
238.33 228.39 0.43 c p1
238.61 228.87 0.43 c p1
238.89 230.88 0.43 c p1
239.17 221.83 0.43 c p1
239.45 221.07 0.43 c p1
239.73 224.57 0.43 c p1
240.01 221.05 0.43 c p1
240.29 223.00 0.43 c p1
240.56 227.66 0.43 c p1
240.84 226.85 0.43 c p1
241.12 232.70 0.43 c p1
241.40 225.21 0.43 c p1
241.68 224.38 0.43 c p1
241.96 226.25 0.43 c p1
242.24 229.62 0.43 c p1
242.52 229.96 0.43 c p1
242.80 227.89 0.43 c p1
243.07 220.16 0.43 c p1
243.35 228.83 0.43 c p1
243.63 221.10 0.43 c p1
243.91 222.89 0.43 c p1
244.19 222.01 0.43 c p1
244.47 219.93 0.43 c p1
244.75 227.01 0.43 c p1
245.03 224.62 0.43 c p1
245.31 237.03 0.43 c p1
245.58 224.24 0.43 c p1
245.86 231.26 0.43 c p1
246.14 228.83 0.43 c p1
246.42 233.18 0.43 c p1
246.70 224.28 0.43 c p1
246.98 225.95 0.43 c p1
247.26 226.44 0.43 c p1
247.54 221.40 0.43 c p1
247.82 223.03 0.43 c p1
248.09 222.05 0.43 c p1
248.37 223.67 0.43 c p1
248.65 221.52 0.43 c p1
248.93 225.72 0.43 c p1
249.21 228.46 0.43 c p1
249.49 230.04 0.43 c p1
249.77 223.81 0.43 c p1
250.05 225.37 0.43 c p1
250.33 226.92 0.43 c p1
250.60 226.16 0.43 c p1
250.88 226.25 0.43 c p1
251.16 222.62 0.43 c p1
251.44 222.99 0.43 c p1
251.72 223.06 0.43 c p1
252.00 224.55 0.43 c p1
252.28 223.47 0.43 c p1
252.56 224.94 0.43 c p1
252.84 223.85 0.43 c p1
253.11 222.76 0.43 c p1
253.39 225.61 0.43 c p1
253.67 219.44 0.43 c p1
253.95 232.16 0.43 c p1
254.23 229.89 0.43 c p1
254.51 229.88 0.43 c p1
254.79 216.12 0.43 c p1
255.07 223.94 0.43 c p1
255.35 221.40 0.43 c p1
255.62 222.77 0.43 c p1
255.90 220.51 0.43 c p1
256.18 225.49 0.43 c p1
256.46 229.35 0.43 c p1
256.74 225.66 0.43 c p1
257.02 229.50 0.43 c p1
257.30 230.82 0.43 c p1
257.58 232.13 0.43 c p1
257.85 225.92 0.43 c p1
258.13 229.71 0.43 c p1
258.41 222.41 0.43 c p1
258.69 232.28 0.43 c p1
258.97 220.00 0.43 c p1
259.25 222.37 0.43 c p1
259.53 221.15 0.43 c p1
259.81 223.77 0.43 c p1
260.09 221.17 0.43 c p1
260.36 224.86 0.43 c p1
260.64 223.62 0.43 c p1
260.92 223.74 0.43 c p1
261.20 224.95 0.43 c p1
261.48 226.15 0.43 c p1
261.76 224.88 0.43 c p1
262.04 226.06 0.43 c p1
262.32 228.61 0.43 c p1
262.60 222.43 0.43 c p1
262.87 222.23 0.43 c p1
263.15 216.09 0.43 c p1
263.43 217.24 0.43 c p1
263.71 225.67 0.43 c p1
263.99 223.29 0.43 c p1
264.27 221.99 0.43 c p1
264.55 224.18 0.43 c p1
264.83 221.79 0.43 c p1
265.11 225.32 0.43 c p1
265.38 224.00 0.43 c p1
265.66 225.09 0.43 c p1
265.94 227.24 0.43 c p1
266.22 223.49 0.43 c p1
266.50 224.56 0.43 c p1
266.78 223.21 0.43 c p1
267.06 219.46 0.43 c p1
267.34 224.25 0.43 c p1
267.62 223.95 0.43 c p1
267.89 226.33 0.43 c p1
268.17 228.42 0.43 c p1
268.45 228.38 0.43 c p1
268.73 228.06 0.43 c p1
269.01 225.61 0.43 c p1
269.29 225.28 0.43 c p1
269.57 227.61 0.43 c p1
269.85 228.60 0.43 c p1
270.13 225.87 0.43 c p1
270.40 232.96 0.43 c p1
270.68 227.82 0.43 c p1
270.96 222.97 0.43 c p1
271.24 223.93 0.43 c p1
271.52 224.88 0.43 c p1
271.80 223.46 0.43 c p1
272.08 219.67 0.43 c p1
272.36 221.66 0.43 c p1
272.64 223.90 0.43 c p1
272.91 233.00 0.43 c p1
273.19 229.16 0.43 c p1
273.47 230.08 0.43 c p1
273.75 228.61 0.43 c p1
274.03 222.44 0.43 c p1
274.31 227.00 0.43 c p1
274.59 223.18 0.43 c p1
274.87 219.38 0.43 c p1
275.15 220.26 0.43 c p1
275.42 220.09 0.43 c p1
275.70 223.30 0.43 c p1
275.98 221.82 0.43 c p1
276.26 223.72 0.43 c p1
276.54 221.20 0.43 c p1
276.82 216.10 0.43 c p1
277.10 226.25 0.43 c p1
277.38 224.75 0.43 c p1
277.66 229.22 0.43 c p1
277.93 224.08 0.43 c p1
278.21 223.86 0.43 c p1
278.49 224.68 0.43 c p1
278.77 218.53 0.43 c p1
279.05 222.68 0.43 c p1
279.33 224.76 0.43 c p1
279.61 226.59 0.43 c p1
279.89 227.38 0.43 c p1
280.17 225.84 0.43 c p1
280.44 227.91 0.43 c p1
280.72 232.04 0.43 c p1
281.00 229.45 0.43 c p1
281.28 227.89 0.43 c p1
281.56 227.37 0.43 c p1
281.84 230.44 0.43 c p1
282.12 223.23 0.43 c p1
282.40 227.30 0.43 c p1
282.68 222.41 0.43 c p1
282.95 220.86 0.43 c p1
283.23 221.59 0.43 c p1
283.51 215.46 0.43 c p1
283.79 221.76 0.43 c p1
284.07 223.75 0.43 c p1
284.35 219.89 0.43 c p1
284.63 221.61 0.43 c p1
284.91 225.87 0.43 c p1
285.19 228.87 0.43 c p1
285.46 218.13 0.43 c p1
285.74 222.11 0.43 c p1
286.02 227.37 0.43 c p1
286.30 229.32 0.43 c p1
286.58 220.87 0.43 c p1
286.86 218.01 0.43 c p1
287.14 220.95 0.43 c p1
287.42 223.89 0.43 c p1
287.70 220.00 0.43 c p1
287.97 222.93 0.43 c p1
288.25 222.57 0.43 c p1
288.53 226.50 0.43 c p1
288.81 227.14 0.43 c p1
289.09 218.72 0.43 c p1
289.37 226.15 0.43 c p1
289.65 230.31 0.43 c p1
289.93 227.40 0.43 c p1
290.21 227.02 0.43 c p1
290.48 221.86 0.43 c p1
290.76 224.73 0.43 c p1
291.04 229.87 0.43 c p1
291.32 225.95 0.43 c p1
291.60 224.29 0.43 c p1
291.88 224.89 0.43 c p1
292.16 225.49 0.43 c p1
292.44 226.08 0.43 c p1
292.72 222.17 0.43 c p1
292.99 225.00 0.43 c p1
293.27 225.58 0.43 c p1
293.55 225.16 0.43 c p1
293.83 219.00 0.43 c p1
294.11 221.81 0.43 c p1
294.39 224.62 0.43 c p1
294.67 222.94 0.43 c p1
294.95 222.50 0.43 c p1
295.23 221.82 0.43 c p1
295.50 220.14 0.43 c p1
295.78 220.68 0.43 c p1
296.06 226.95 0.43 c p1
296.34 226.24 0.43 c p1
296.62 226.78 0.43 c p1
296.90 228.56 0.43 c p1
297.18 225.61 0.43 c p1
297.46 221.68 0.43 c p1
297.74 221.21 0.43 c p1
298.01 221.73 0.43 c p1
298.29 218.79 0.43 c p1
298.57 217.09 0.43 c p1
298.85 226.50 0.43 c p1
299.13 223.79 0.43 c p1
299.41 224.29 0.43 c p1
299.69 228.01 0.43 c p1
299.97 225.29 0.43 c p1
300.25 220.12 0.43 c p1
300.52 222.83 0.43 c p1
300.80 223.31 0.43 c p1
301.08 227.26 0.43 c p1
301.36 221.08 0.43 c p1
301.64 226.99 0.43 c p1
301.92 227.46 0.43 c p1
302.20 222.52 0.43 c p1
302.48 223.97 0.43 c p1
302.76 222.23 0.43 c p1
303.03 226.14 0.43 c p1
303.31 224.38 0.43 c p1
303.59 228.04 0.43 c p1
303.87 225.30 0.43 c p1
304.15 221.34 0.43 c p1
304.43 223.99 0.43 c p1
304.71 221.01 0.43 c p1
304.99 222.68 0.43 c p1
305.27 213.13 0.43 c p1
305.54 219.17 0.43 c p1
305.82 224.00 0.43 c p1
306.10 227.62 0.43 c p1
306.38 220.47 0.43 c p1
306.66 225.29 0.43 c p1
306.94 224.50 0.43 c p1
307.22 224.92 0.43 c p1
307.50 227.54 0.43 c p1
307.78 226.98 0.43 c p1
308.05 228.37 0.43 c p1
308.33 226.58 0.43 c p1
308.61 228.22 0.43 c p1
308.89 224.23 0.43 c p1
309.17 224.63 0.43 c p1
309.45 222.84 0.43 c p1
309.73 225.43 0.43 c p1
310.01 221.45 0.43 c p1
310.29 220.63 0.43 c p1
310.56 227.59 0.43 c p1
310.84 227.98 0.43 c p1
311.12 231.79 0.43 c p1
311.40 221.21 0.43 c p1
311.68 220.38 0.43 c p1
311.96 227.32 0.43 c p1
312.24 221.14 0.43 c p1
312.52 225.88 0.43 c p1
312.80 226.25 0.43 c p1
313.07 223.47 0.43 c p1
313.35 228.21 0.43 c p1
313.63 220.81 0.43 c p1
313.91 223.35 0.43 c p1
314.19 223.71 0.43 c p1
314.47 227.47 0.43 c p1
314.75 222.25 0.43 c p1
315.03 222.61 0.43 c p1
315.31 226.35 0.43 c p1
315.58 224.52 0.43 c p1
315.86 221.48 0.43 c p1
316.14 220.86 0.43 c p1
316.42 210.42 0.43 c p1
316.70 220.34 0.43 c p1
316.98 222.85 0.43 c p1
317.26 227.53 0.43 c p1
317.54 223.52 0.43 c p1
317.82 222.89 0.43 c p1
318.09 227.56 0.43 c p1
318.37 224.51 0.43 c p1
318.65 226.04 0.43 c p1
318.93 225.16 0.43 c p1
319.21 225.48 0.43 c p1
319.49 227.97 0.43 c p1
319.77 225.16 0.43 c p1
320.05 219.94 0.43 c p1
320.33 225.78 0.43 c p1
320.60 221.77 0.43 c p1
320.88 223.04 0.43 c p1
321.16 222.39 0.43 c p1
321.44 220.53 0.43 c p1
321.72 228.29 0.43 c p1
322.00 221.14 0.43 c p1
322.28 218.33 0.43 c p1
322.56 227.02 0.43 c p1
322.84 219.88 0.43 c p1
323.11 222.33 0.43 c p1
323.39 221.66 0.43 c p1
323.67 221.95 0.43 c p1
323.95 226.32 0.43 c p1
324.23 222.53 0.43 c p1
324.51 222.81 0.43 c p1
324.79 223.10 0.43 c p1
325.07 224.34 0.43 c p1
325.35 226.77 0.43 c p1
325.62 224.90 0.43 c p1
325.90 226.13 0.43 c p1
326.18 232.90 0.43 c p1
326.46 227.88 0.43 c p1
326.74 225.03 0.43 c p1
327.02 218.86 0.43 c p1
327.30 222.22 0.43 c p1
327.58 216.07 0.43 c p1
327.85 221.80 0.43 c p1
328.13 219.92 0.43 c p1
328.41 226.62 0.43 c p1
328.69 226.88 0.43 c p1
328.97 223.79 0.43 c p1
329.25 227.40 0.43 c p1
329.53 225.50 0.43 c p1
329.81 225.75 0.43 c p1
330.09 226.96 0.43 c p1
330.36 229.36 0.43 c p1
330.64 226.50 0.43 c p1
330.92 228.90 0.43 c p1
331.20 221.51 0.43 c p1
331.48 219.62 0.43 c p1
331.76 224.14 0.43 c p1
332.04 223.43 0.43 c p1
332.32 223.66 0.43 c p1
332.60 226.04 0.43 c p1
332.87 226.28 0.43 c p1
333.15 225.32 0.43 c p1
333.43 228.89 0.43 c p1
333.71 222.70 0.43 c p1
333.99 225.06 0.43 c p1
334.27 225.29 0.43 c p1
334.55 224.33 0.43 c p1
334.83 226.70 0.43 c p1
335.11 221.70 0.43 c p1
335.38 220.73 0.43 c p1
335.66 228.56 0.43 c p1
335.94 222.36 0.43 c p1
336.22 220.45 0.43 c p1
336.50 227.07 0.43 c p1
336.78 227.28 0.43 c p1
337.06 219.91 0.43 c p1
337.34 229.85 0.43 c p1
337.62 227.92 0.43 c p1
337.89 228.13 0.43 c p1
338.17 222.88 0.43 c p1
338.45 223.09 0.43 c p1
338.73 222.35 0.43 c p1
339.01 225.63 0.43 c p1
339.29 219.45 0.43 c p1
339.57 223.91 0.43 c p1
339.85 225.29 0.43 c p1
340.13 222.18 0.43 c p1
340.40 225.69 0.43 c p1
340.68 228.97 0.43 c p1
340.96 227.03 0.43 c p1
341.24 229.36 0.43 c p1
341.52 230.75 0.43 c p1
341.80 226.66 0.43 c p1
342.08 232.08 0.43 c p1
342.36 227.99 0.43 c p1
342.64 222.98 0.43 c p1
342.91 221.04 0.43 c p1
343.19 222.17 0.43 c p1
343.47 224.48 0.43 c p1
343.75 225.85 0.43 c p1
344.03 228.16 0.43 c p1
344.31 222.90 0.43 c p1
344.59 225.21 0.43 c p1
344.87 220.20 0.43 c p1
345.15 225.57 0.43 c p1
345.42 224.80 0.43 c p1
345.70 225.92 0.43 c p1
345.98 223.97 0.43 c p1
346.26 231.72 0.43 c p1
346.54 225.50 0.43 c p1
346.82 223.54 0.43 c p1
347.10 219.48 0.43 c p1
347.38 226.01 0.43 c p1
347.66 221.93 0.43 c p1
347.93 224.22 0.43 c p1
348.21 224.39 0.43 c p1
348.49 230.93 0.43 c p1
348.77 228.96 0.43 c p1
349.05 227.00 0.43 c p1
349.33 229.29 0.43 c p1
349.61 228.27 0.43 c p1
349.89 225.36 0.43 c p1
350.17 227.64 0.43 c p1
350.44 220.27 0.43 c p1
350.72 222.54 0.43 c p1
351.00 225.99 0.43 c p1
351.28 230.39 0.43 c p1
351.56 219.96 0.43 c p1
351.84 222.22 0.43 c p1
352.12 228.73 0.43 c p1
352.40 226.76 0.43 c p1
352.68 225.73 0.43 c p1
352.95 225.88 0.43 c p1
353.23 233.58 0.43 c p1
353.51 229.47 0.43 c p1
353.79 221.15 0.43 c p1
354.07 219.19 0.43 c p1
354.35 225.67 0.43 c p1
354.63 222.52 0.43 c p1
354.91 220.56 0.43 c p1
355.19 222.81 0.43 c p1
355.46 225.06 0.43 c p1
355.74 227.32 0.43 c p1
356.02 227.46 0.43 c p1
356.30 231.84 0.43 c p1
356.58 227.73 0.43 c p1
356.86 226.93 0.43 c p1
357.14 228.00 0.43 c p1
357.42 226.02 0.43 c p1
357.70 219.83 0.43 c p1
357.97 226.29 0.43 c p1
358.25 223.37 0.43 c p1
358.53 227.73 0.43 c p1
358.81 221.53 0.43 c p1
359.09 225.87 0.43 c p1
359.37 228.12 0.43 c p1
359.65 227.07 0.43 c p1
359.93 225.08 0.43 c p1
360.21 229.44 0.43 c p1
360.48 227.45 0.43 c p1
360.76 225.46 0.43 c p1
361.04 222.54 0.43 c p1
361.32 223.60 0.43 c p1
361.60 219.52 0.43 c p1
0.00 0.00 432.00 576.00 cl
0 0 0 srgb
0.75 setlinewidth
[] 0 setdash
1 setlinecap
1 setlinejoin
10.00 setmiterlimit
np
217.97 201.60 m
139.45 0 l
o
np
217.97 201.60 m
0 -5.76 l
o
np
245.86 201.60 m
0 -5.76 l
o
np
273.75 201.60 m
0 -5.76 l
o
np
301.64 201.60 m
0 -5.76 l
o
np
329.53 201.60 m
0 -5.76 l
o
np
357.42 201.60 m
0 -5.76 l
o
/Font1 findfont 6 s
217.97 185.47 (0) .5 0 t
245.86 185.47 (100) .5 0 t
273.75 185.47 (200) .5 0 t
301.64 185.47 (300) .5 0 t
329.53 185.47 (400) .5 0 t
357.42 185.47 (500) .5 0 t
np
216.00 211.98 m
0 25.32 l
o
np
216.00 211.98 m
-5.76 0 l
o
np
216.00 224.64 m
-5.76 0 l
o
np
216.00 237.30 m
-5.76 0 l
o
209.09 209.82 (-0.005) 1 0 t
209.09 222.49 (0.000) 1 0 t
209.09 235.15 (0.005) 1 0 t
np
216.00 201.60 m
151.20 0 l
0 46.08 l
-151.20 0 l
0 -46.08 l
o
0.00 0.00 432.00 576.00 cl
/Font1 findfont 9 s
0 0 0 srgb
291.60 262.88 (Residuen) .5 0 t
59.04 73.44 401.76 516.96 cl
ep
%%Trailer
%%Pages: 1
%%EOF
