%!PS-Adobe-3.0 EPSF-3.0
%%DocumentNeededResources: font Helvetica
%%+ font Helvetica-Bold
%%+ font Helvetica-Oblique
%%+ font Helvetica-BoldOblique
%%+ font Symbol
%%Title: R Graphics Output
%%Creator: R Software
%%Pages: (atend)
%%BoundingBox: 0 0 432 576
%%EndComments
%%BeginProlog
/bp  { gs sRGB gs } def
% begin .ps.prolog
/gs  { gsave } bind def
/gr  { grestore } bind def
/ep  { showpage gr gr } bind def
/m   { moveto } bind def
/l  { rlineto } bind def
/np  { newpath } bind def
/cp  { closepath } bind def
/f   { fill } bind def
/o   { stroke } bind def
/c   { newpath 0 360 arc } bind def
/r   { 4 2 roll moveto 1 copy 3 -1 roll exch 0 exch rlineto 0 rlineto -1 mul 0 exch rlineto closepath } bind def
/p1  { stroke } bind def
/p2  { gsave bg fill grestore newpath } bind def
/p3  { gsave bg fill grestore stroke } bind def
/p6  { gsave bg eofill grestore newpath } bind def
/p7  { gsave bg eofill grestore stroke } bind def
/t   { 5 -2 roll moveto gsave rotate
       1 index stringwidth pop
       mul neg 0 rmoveto show grestore } bind def
/ta  { 4 -2 roll moveto gsave rotate show } bind def
/tb  { 2 -1 roll 0 rmoveto show } bind def
/cl  { grestore gsave newpath 3 index 3 index moveto 1 index
       4 -1 roll lineto  exch 1 index lineto lineto
       closepath clip newpath } bind def
/rgb { setrgbcolor } bind def
/s   { scalefont setfont } bind def
% end   .ps.prolog
/sRGB { [ /CIEBasedABC
          << /DecodeLMN
               [ { dup 0.03928 le
                        {12.92321 div}
                        {0.055 add 1.055 div 2.4 exp }
                     ifelse
                 } bind dup dup
               ]
             /MatrixLMN [0.412457 0.212673 0.019334
                         0.357576 0.715152 0.119192
                         0.180437 0.072175 0.950301]
             /WhitePoint [0.9505 1.0 1.0890]
           >>
         ] setcolorspace } bind def
/srgb { setcolor } bind def
%%IncludeResource: font Helvetica
/Helvetica findfont
dup length dict begin
  {1 index /FID ne {def} {pop pop} ifelse} forall
  /Encoding ISOLatin1Encoding def
  currentdict
  end
/Font1 exch definefont pop
%%IncludeResource: font Helvetica-Bold
/Helvetica-Bold findfont
dup length dict begin
  {1 index /FID ne {def} {pop pop} ifelse} forall
  /Encoding ISOLatin1Encoding def
  currentdict
  end
/Font2 exch definefont pop
%%IncludeResource: font Helvetica-Oblique
/Helvetica-Oblique findfont
dup length dict begin
  {1 index /FID ne {def} {pop pop} ifelse} forall
  /Encoding ISOLatin1Encoding def
  currentdict
  end
/Font3 exch definefont pop
%%IncludeResource: font Helvetica-BoldOblique
/Helvetica-BoldOblique findfont
dup length dict begin
  {1 index /FID ne {def} {pop pop} ifelse} forall
  /Encoding ISOLatin1Encoding def
  currentdict
  end
/Font4 exch definefont pop
%%IncludeResource: font Symbol
/Symbol findfont
dup length dict begin
  {1 index /FID ne {def} {pop pop} ifelse} forall
  currentdict
  end
/Font5 exch definefont pop
%%EndProlog
%%Page: 1 1
bp
0.00 0.00 432.00 576.00 cl
0.00 0.00 432.00 576.00 cl
0.00 0.00 432.00 576.00 cl
/Font1 findfont 12 s
0 0 0 srgb
48.00 508.72 (PCP-ETH) 0 0 t
48.00 494.89 (Blitzlicht-Photolyse) 0 0 t
/Font1 findfont 9 s
48.00 457.54 (File: Dy) 0 ta
-0.180 (e_1_2_V2_900V) tb
-1.125 (.dat) tb gr
48.00 334.87 (T) 0 ta
-1.080 (ue Apr  9 22:08:12 2019) tb gr
48.00 430.87 (Fitfunktion:  a + b * e) 0 ta
-0.270 (xp\(-c * t\)) tb gr
48.00 420.50 (t-Inter) 0 ta
0.270 (v) tb
-0.225 (all: 180.000 ... 5290.000 ms) tb gr
48.00 410.14 (P) 0 ta
-0.360 (ar) tb
-0.090 (ameter \(Standardabw) tb
-0.090 (eichung\):) tb gr
48.00 399.77 (  a = 0.00210 \(0.00021\)) 0 0 t
48.00 389.40 (  b = 0.47055 \(0.00059\)) 0 0 t
48.00 379.03 (  c = 8.855e-01 \(2.146e-03\) s^-1) 0 0 t
48.00 368.66 (  tau = 1.129e+00 \(2.737e-03\) s) 0 0 t
216.00 345.60 388.80 518.40 cl
0 0 0 srgb
0.75 setlinewidth
[] 0 setdash
1 setlinecap
1 setlinejoin
10.00 setmiterlimit
np
222.40 505.17 m
0.15 0.57 l
0.14 0.28 l
0.15 -0.57 l
0.14 0.73 l
0.15 -0.16 l
0.14 0.16 l
0.15 -0.57 l
0.14 -0.16 l
0.15 1.14 l
0.15 -1.55 l
0.14 0.98 l
0.15 0 l
0.14 -0.41 l
0.15 0 l
0.14 -0.57 l
0.15 0.41 l
0.14 -0.57 l
0.15 1.14 l
0.15 0.29 l
0.14 -0.13 l
0.15 -1.01 l
0.14 1.14 l
0.15 -0.57 l
0.14 0 l
0.15 0.57 l
0.15 -0.29 l
0.14 -0.85 l
0.15 0.73 l
0.14 -0.45 l
0.15 0.57 l
0.14 -0.41 l
0.15 0 l
0.14 -0.16 l
0.15 0.57 l
0.15 -0.28 l
0.14 0.28 l
0.15 -0.28 l
0.14 0.57 l
0.15 -0.86 l
0.14 0.57 l
0.15 -0.98 l
0.14 0.29 l
0.15 0.12 l
0.15 0.57 l
0.14 -0.85 l
0.15 0.57 l
0.14 0.16 l
0.15 0 l
0.14 -0.29 l
0.15 0.29 l
0.14 0.12 l
0.15 -0.57 l
0.15 0.16 l
0.14 0.13 l
0.15 -0.29 l
0.14 0.73 l
0.15 0 l
0.14 -0.57 l
0.15 0.41 l
0.15 -0.12 l
0.14 -1.02 l
0.15 1.59 l
0.14 -0.57 l
0.15 -0.16 l
0.14 0 l
0.15 0 l
0.14 0 l
0.15 0.73 l
0.15 -0.86 l
0.14 -0.28 l
0.15 0.69 l
0.14 -0.98 l
0.15 -0.57 l
0.14 1.71 l
0.15 0 l
0.14 -0.57 l
0.15 0.13 l
0.15 0.16 l
0.14 0.28 l
0.15 -0.28 l
0.14 0 l
0.15 0.12 l
0.14 -0.41 l
0.15 0 l
0.14 -0.16 l
0.15 1.14 l
0.15 -0.85 l
0.14 0.28 l
0.15 0 l
0.14 -0.28 l
0.15 0.16 l
0.14 0.69 l
0.15 -1.14 l
0.15 -0.12 l
0.14 0 l
0.15 0.28 l
0.14 0.29 l
0.15 -0.29 l
0.14 -0.57 l
236.96 398.43 lineto
0.14 1.12 l
0.15 0.30 l
0.15 1.27 l
0.14 0.72 l
0.15 -0.15 l
0.14 1.70 l
0.15 1.14 l
0.14 0.73 l
0.15 0.70 l
0.14 -0.42 l
0.15 1.55 l
0.15 0.42 l
0.14 0.85 l
0.15 1.14 l
0.14 0.44 l
0.15 1.55 l
0.14 -0.41 l
0.15 0 l
0.14 1.14 l
0.15 1.10 l
0.15 0.73 l
0.14 0.13 l
0.15 0.44 l
0.14 1.42 l
0.15 -0.28 l
0.14 1.55 l
0.15 -0.41 l
0.15 1.14 l
0.14 0.57 l
0.15 0 l
0.14 0.69 l
0.15 1.27 l
0.14 -0.86 l
0.15 1.71 l
0.14 -0.13 l
0.15 1.14 l
0.15 0.29 l
0.14 -0.16 l
0.15 1.01 l
0.14 0.41 l
0.15 0.57 l
0.14 1.43 l
0.15 -0.45 l
0.14 0.29 l
0.15 1.42 l
0.15 -0.28 l
0.14 1.13 l
0.15 0.16 l
0.14 0 l
0.15 1.43 l
0.14 0.56 l
0.15 -0.28 l
0.14 -0.16 l
0.15 1.43 l
0.15 -0.86 l
0.14 0.98 l
0.15 1.58 l
0.14 -0.16 l
0.15 0.16 l
0.14 1.27 l
0.15 -0.41 l
0.15 0.98 l
0.14 -0.29 l
0.15 1.01 l
0.14 0.70 l
0.15 -0.28 l
0.14 1.13 l
0.15 0.70 l
0.14 0.16 l
0.15 1.26 l
0.15 -0.41 l
0.14 0.70 l
0.15 0.28 l
0.14 -0.28 l
0.15 1.14 l
0.14 0.28 l
0.15 0.16 l
0.14 0.98 l
0.15 0.73 l
0.15 0 l
0.14 0.82 l
0.15 0 l
0.14 0.57 l
0.15 1.01 l
0.14 -1.14 l
0.15 1.27 l
0.14 -0.29 l
0.15 1.43 l
0.15 0.44 l
0.14 -0.57 l
0.15 1.71 l
0.14 -0.16 l
0.15 0.28 l
0.14 -0.12 l
0.15 0.41 l
0.15 0.85 l
0.14 0 l
0.15 0.70 l
0.14 0.44 l
251.52 451.24 lineto
0.14 -0.44 l
0.15 0.57 l
0.14 0.16 l
0.15 0.70 l
0.15 0.28 l
0.14 0.73 l
0.15 0.41 l
0.14 -0.29 l
0.15 0.29 l
0.14 0.85 l
0.15 0.45 l
0.14 0.25 l
0.15 0 l
0.15 0.57 l
0.14 0.57 l
0.15 0.57 l
0.14 0.15 l
0.15 0.86 l
0.14 0 l
0.15 0 l
0.14 -0.44 l
0.15 1.42 l
0.15 -0.29 l
0.14 1.02 l
0.15 0.12 l
0.14 0.45 l
0.15 -0.86 l
0.14 1.14 l
0.15 -0.16 l
0.14 1.71 l
0.15 -0.28 l
0.15 0 l
0.14 0.56 l
0.15 0.57 l
0.14 0.13 l
0.15 0.44 l
0.14 0.29 l
0.15 -0.29 l
0.15 -0.16 l
0.14 1.30 l
0.15 -0.44 l
0.14 0 l
0.15 0.44 l
0.14 0.86 l
0.15 0.28 l
0.14 1.14 l
0.15 -0.44 l
0.15 0.15 l
0.14 -0.72 l
0.15 0.85 l
0.14 -0.13 l
0.15 0.83 l
0.14 1.01 l
0.15 -0.29 l
0.14 0.29 l
0.15 0.12 l
0.15 0.16 l
0.14 1.27 l
0.15 -0.86 l
0.14 0 l
0.15 0.57 l
0.14 0 l
0.15 0.73 l
0.14 0 l
0.15 0.57 l
0.15 0.41 l
0.14 0.44 l
0.15 0.13 l
0.14 0.16 l
0.15 0.85 l
0.14 0 l
0.15 -0.16 l
0.15 0.16 l
0.14 0.41 l
0.15 -0.41 l
0.14 0.70 l
0.15 0.12 l
0.14 0.45 l
0.15 0.28 l
0.14 0.29 l
0.15 -0.29 l
0.15 0.13 l
0.14 0.28 l
0.15 0.73 l
0.14 0 l
0.15 0.13 l
0.14 0 l
0.15 -0.13 l
0.14 1.27 l
0.15 0.44 l
0.15 -0.16 l
0.14 0.16 l
0.15 0.41 l
0.14 0.73 l
0.15 -0.57 l
0.14 1.14 l
0.15 -0.73 l
0.14 0.57 l
0.15 -0.13 l
266.08 479.61 lineto
0.14 -0.82 l
0.15 0.29 l
0.14 0.41 l
0.15 0.41 l
0.14 0.16 l
0.15 -0.29 l
0.15 0.13 l
0.14 0.57 l
0.15 0.28 l
0.14 1.14 l
0.15 -0.85 l
0.14 0.44 l
0.15 0.57 l
0.14 -0.57 l
0.15 0.13 l
0.15 0.28 l
0.14 -0.28 l
0.15 0.57 l
0.14 0.15 l
0.15 0.29 l
0.14 0.57 l
0.15 -0.16 l
0.14 -0.28 l
0.15 0.44 l
0.15 0.69 l
0.14 0.29 l
0.15 -0.29 l
0.14 0.45 l
0.15 -0.29 l
0.14 0.70 l
0.15 0.69 l
0.14 -0.53 l
0.15 -0.29 l
0.15 0.29 l
0.14 -0.45 l
0.15 0.98 l
0.14 -0.12 l
0.15 1.14 l
0.14 -0.86 l
0.15 1.14 l
0.15 -0.57 l
0.14 -0.16 l
0.15 0.45 l
0.14 0.69 l
0.15 -0.13 l
0.14 0 l
0.15 -0.15 l
0.14 0.44 l
0.15 0.28 l
0.15 0.29 l
0.14 -0.16 l
0.15 0.57 l
0.14 -0.57 l
0.15 0.73 l
0.14 -0.16 l
0.15 0.16 l
0.14 -0.16 l
0.15 0.85 l
0.15 -0.41 l
0.14 0.57 l
0.15 -0.57 l
0.14 1.55 l
0.15 -1.83 l
0.14 0.98 l
0.15 0.16 l
0.14 -0.45 l
0.15 0.29 l
0.15 1.30 l
0.14 -0.57 l
0.15 0 l
0.14 -0.73 l
0.15 1.58 l
0.14 -0.85 l
0.15 1.39 l
0.15 -0.41 l
0.14 -0.29 l
0.15 -0.12 l
0.14 0.12 l
0.15 0.29 l
0.14 -0.13 l
0.15 0.41 l
0.14 0.29 l
0.15 0.41 l
0.15 0.44 l
0.14 -0.16 l
0.15 0.29 l
0.14 -0.70 l
0.15 0.70 l
0.14 0 l
0.15 0.15 l
0.14 -0.44 l
0.15 0.16 l
0.15 -0.16 l
0.14 1.01 l
0.15 -0.57 l
0.14 1.14 l
0.15 -0.44 l
0.14 0.16 l
0.15 -0.57 l
280.63 493.81 lineto
0.15 -0.28 l
0.15 0.85 l
0.14 -0.28 l
0.15 -0.13 l
0.14 -0.28 l
0.15 0.69 l
0.14 0 l
0.15 0.16 l
0.15 -0.85 l
0.14 1.55 l
0.15 0.28 l
0.14 -0.69 l
0.15 0.28 l
0.14 -0.28 l
0.15 0.28 l
0.14 0.29 l
0.15 -0.45 l
0.15 1.14 l
0.14 -0.69 l
0.15 0.41 l
0.14 -0.13 l
0.15 -0.28 l
0.14 0.69 l
0.15 -0.12 l
0.14 -0.16 l
0.15 0.16 l
0.15 -0.57 l
0.14 0.69 l
0.15 0.73 l
0.14 -0.16 l
0.15 -0.28 l
0.14 0.57 l
0.15 -0.86 l
0.14 0.29 l
0.15 0.57 l
0.15 0.28 l
0.14 -0.85 l
0.15 0.72 l
0.14 -1.01 l
0.15 1.84 l
0.14 -0.70 l
0.15 -0.85 l
0.14 0.72 l
0.15 0.26 l
0.15 -0.41 l
0.14 0.41 l
0.15 0.28 l
0.14 -0.28 l
0.15 0.57 l
0.14 -0.13 l
0.15 0 l
0.15 -0.29 l
0.14 0.29 l
0.15 0.28 l
0.14 0 l
0.15 -0.15 l
0.14 0.72 l
0.15 -0.57 l
0.14 0.70 l
0.15 -0.13 l
0.15 0 l
0.14 -0.28 l
0.15 0.13 l
0.14 0.28 l
0.15 -0.13 l
0.14 0.41 l
0.15 -0.85 l
0.14 0.73 l
0.15 0.69 l
0.15 0 l
0.14 -0.85 l
0.15 0 l
0.14 0.44 l
0.15 -1.42 l
0.14 1.42 l
0.15 0.29 l
0.14 -0.73 l
0.15 0.73 l
0.15 -0.57 l
0.14 0.85 l
0.15 -0.28 l
0.14 0.41 l
0.15 -0.13 l
0.14 0.57 l
0.15 -1.14 l
0.15 0.70 l
0.14 -0.13 l
0.15 -0.57 l
0.14 0.86 l
0.15 -0.16 l
0.14 -0.57 l
0.15 0.73 l
0.14 -0.16 l
0.15 0.28 l
0.15 -0.85 l
0.14 1.42 l
0.15 -0.41 l
0.14 0 l
0.15 -0.28 l
295.19 500.65 lineto
0.15 -0.45 l
0.14 0.29 l
0.15 -0.29 l
0.15 0.29 l
0.14 0.57 l
0.15 -0.13 l
0.14 0.13 l
0.15 -0.29 l
0.14 -0.57 l
0.15 0.45 l
0.14 0.57 l
0.15 0.28 l
0.15 -0.73 l
0.14 0 l
0.15 -0.12 l
0.14 -0.16 l
0.15 0.57 l
0.14 0 l
0.15 -0.13 l
0.15 0.41 l
0.14 -0.12 l
0.15 -0.29 l
0.14 -0.16 l
0.15 0.45 l
0.14 0.41 l
0.15 0.85 l
0.14 -1.55 l
0.15 0.41 l
0.15 -0.28 l
0.14 0.28 l
0.15 0.29 l
0.14 0.44 l
0.15 -0.85 l
0.14 0 l
0.15 0.28 l
0.14 0 l
0.15 0.57 l
0.15 -1.01 l
0.14 0.57 l
0.15 0.57 l
0.14 0.15 l
0.15 -0.15 l
0.14 -0.42 l
0.15 0.42 l
0.14 -0.57 l
0.15 0.57 l
0.15 -0.57 l
0.14 1.01 l
0.15 -0.29 l
0.14 -0.72 l
0.15 0.28 l
0.14 -0.13 l
0.15 0.86 l
0.15 -0.57 l
0.14 0.70 l
0.15 -0.70 l
0.14 -0.16 l
0.15 0.16 l
0.14 -0.16 l
0.15 1.14 l
0.14 -0.70 l
0.15 0.86 l
0.15 -0.73 l
0.14 -0.28 l
0.15 0.72 l
0.14 -0.57 l
0.15 0.42 l
0.14 0.15 l
0.15 -0.57 l
0.14 1.11 l
0.15 -0.69 l
0.15 0.44 l
0.14 -0.73 l
0.15 0.85 l
0.14 -0.98 l
0.15 0.57 l
0.14 -0.44 l
0.15 -0.28 l
0.14 0 l
0.15 1.55 l
0.15 -1.27 l
0.14 0.85 l
0.15 -0.85 l
0.14 0.57 l
0.15 0.70 l
0.14 0.15 l
0.15 -0.28 l
0.15 0.28 l
0.14 -1.42 l
0.15 1.27 l
0.14 -0.42 l
0.15 0 l
0.14 -0.56 l
0.15 0.69 l
0.14 0.16 l
0.15 -0.16 l
0.15 -0.25 l
0.14 0.82 l
0.15 -0.28 l
309.75 503.75 lineto
0.15 -0.54 l
0.14 0.69 l
0.15 -0.57 l
0.14 0.29 l
0.15 -0.29 l
0.15 0.57 l
0.14 0.13 l
0.15 0 l
0.14 -0.28 l
0.15 0 l
0.14 -0.29 l
0.15 0 l
0.14 0 l
0.15 0.85 l
0.15 -0.41 l
0.14 0.13 l
0.15 0 l
0.14 -0.28 l
0.15 1.01 l
0.14 -0.29 l
0.15 -1.14 l
0.15 1.27 l
0.14 -0.57 l
0.15 -0.28 l
0.14 0.56 l
0.15 -0.28 l
0.14 -0.41 l
0.15 0.13 l
0.14 0.44 l
0.15 0.69 l
0.15 -0.69 l
0.14 0.28 l
0.15 -0.72 l
0.14 1.01 l
0.15 -0.86 l
0.14 0.41 l
0.15 0.16 l
0.14 0.70 l
0.15 -1.42 l
0.15 0.15 l
0.14 0.86 l
0.15 0.28 l
0.14 -0.28 l
0.15 -0.57 l
0.14 -0.16 l
0.15 0.57 l
0.14 -0.13 l
0.15 0.13 l
0.15 -0.29 l
0.14 0.16 l
0.15 -0.57 l
0.14 1.27 l
0.15 -0.86 l
0.14 1.14 l
0.15 -0.98 l
0.15 0.13 l
0.14 0.16 l
0.15 -0.86 l
0.14 0.13 l
0.15 1.42 l
0.14 -0.41 l
0.15 -1.01 l
0.14 0.44 l
0.15 0.41 l
0.15 0 l
0.14 1.14 l
0.15 -0.98 l
0.14 0.41 l
0.15 -0.57 l
0.14 0.16 l
0.15 0.29 l
0.14 -1.02 l
0.15 0.57 l
0.15 0.16 l
0.14 0.41 l
0.15 -0.41 l
0.14 -0.16 l
0.15 0.16 l
0.14 0.13 l
0.15 0.16 l
0.14 0.41 l
0.15 0 l
0.15 -0.41 l
0.14 -0.16 l
0.15 -0.13 l
0.14 -0.16 l
0.15 -0.28 l
0.14 0.85 l
0.15 -0.28 l
0.14 -0.29 l
0.15 0.57 l
0.15 0.16 l
0.14 -0.85 l
0.15 0.69 l
0.14 -0.57 l
0.15 0.73 l
0.14 -0.73 l
0.15 0 l
0.15 0.73 l
324.31 505.33 lineto
0.15 0.12 l
0.14 0.45 l
0.15 -0.57 l
0.14 0.41 l
0.15 -0.86 l
0.14 1.43 l
0.15 -1.27 l
0.15 0.70 l
0.14 -0.41 l
0.15 0.57 l
0.14 -0.29 l
0.15 0.41 l
0.14 -0.69 l
0.15 0.41 l
0.14 0 l
0.15 0.44 l
0.15 -0.85 l
0.14 0.41 l
0.15 -0.41 l
0.14 0.41 l
0.15 -0.29 l
0.14 1.02 l
0.15 -0.29 l
0.14 0.13 l
0.15 -0.41 l
0.15 -0.29 l
0.14 0.57 l
0.15 -0.16 l
0.14 0 l
0.15 -0.12 l
0.14 0.12 l
0.15 0.73 l
0.15 -0.57 l
0.14 -0.16 l
0.15 0.16 l
0.14 -0.28 l
0.15 -0.29 l
0.14 0.13 l
0.15 0.73 l
0.14 -0.29 l
0.15 0.29 l
0.15 0.41 l
0.14 -0.29 l
0.15 -0.28 l
0.14 -0.29 l
0.15 -0.41 l
0.14 0.57 l
0.15 0.29 l
0.14 -0.57 l
0.15 -0.16 l
0.15 0.16 l
0.14 0.98 l
0.15 -1.43 l
0.14 0.29 l
0.15 0.44 l
0.14 0.57 l
0.15 -0.16 l
0.14 -0.41 l
0.15 0.13 l
0.15 -0.57 l
0.14 0.16 l
0.15 0.98 l
0.14 -1.14 l
0.15 1.01 l
0.14 0 l
0.15 -0.28 l
0.15 0.56 l
0.14 -0.72 l
0.15 0.28 l
0.14 0.73 l
0.15 -0.73 l
0.14 0.16 l
0.15 -0.73 l
0.14 0.16 l
0.15 0.29 l
0.15 0.69 l
0.14 -0.69 l
0.15 0.28 l
0.14 -0.16 l
0.15 -0.41 l
0.14 0.85 l
0.15 -0.28 l
0.14 0.41 l
0.15 0.16 l
0.15 0 l
0.14 -0.85 l
0.15 -0.29 l
0.14 0.29 l
0.15 -0.29 l
0.14 0.85 l
0.15 -0.28 l
0.14 0.13 l
0.15 -0.29 l
0.15 0.57 l
0.14 -0.57 l
0.15 1.14 l
0.14 -1.14 l
0.15 0.73 l
0.14 -0.57 l
338.87 507.32 lineto
0.15 -0.57 l
0.14 -1.01 l
0.15 1.01 l
0.14 0.41 l
0.15 -0.57 l
0.14 0.44 l
0.15 -0.28 l
0.14 0.13 l
0.15 0 l
0.15 0.44 l
0.14 -0.16 l
0.15 0 l
0.14 0 l
0.15 0.16 l
0.14 0.13 l
0.15 0.15 l
0.14 0 l
0.15 -0.72 l
0.15 -0.13 l
0.14 0.70 l
0.15 -0.29 l
0.14 0.29 l
0.15 0.28 l
0.14 -0.41 l
0.15 0 l
0.14 0 l
0.15 -0.29 l
0.15 0.57 l
0.14 0.41 l
0.15 -0.69 l
0.14 0.41 l
0.15 0 l
0.14 -0.57 l
0.15 0.44 l
0.15 -0.44 l
0.14 0.73 l
0.15 0.28 l
0.14 -0.57 l
0.15 0 l
0.14 0 l
0.15 -0.15 l
0.14 0.72 l
0.15 -0.16 l
0.15 0 l
0.14 -0.69 l
0.15 0.85 l
0.14 -0.72 l
0.15 0.44 l
0.14 0.12 l
0.15 0.45 l
0.14 -1.01 l
0.15 0.28 l
0.15 0.16 l
0.14 0.28 l
0.15 -0.85 l
0.14 0.69 l
0.15 -0.12 l
0.14 0.12 l
0.15 -0.41 l
0.14 0.13 l
0.15 0.44 l
0.15 0.13 l
0.14 -0.29 l
0.15 0.29 l
0.14 -0.29 l
0.15 -0.28 l
0.14 -0.28 l
0.15 0.85 l
0.15 0.16 l
0.14 0 l
0.15 -0.29 l
0.14 0.29 l
0.15 -0.45 l
0.14 -0.28 l
0.15 1.14 l
0.14 0 l
0.15 -0.29 l
0.15 -0.57 l
0.14 0.16 l
0.15 -0.16 l
0.14 0.57 l
0.15 -0.28 l
0.14 0.16 l
0.15 0.57 l
0.14 -0.73 l
0.15 0.28 l
0.15 -0.57 l
0.14 1.43 l
0.15 -0.98 l
0.14 0.12 l
0.15 -0.57 l
0.14 1.02 l
0.15 -0.57 l
0.14 0 l
0.15 0.85 l
0.15 -0.16 l
0.14 -0.98 l
0.15 0.70 l
0.14 -0.57 l
353.43 509.03 lineto
0.14 0.28 l
0.15 -0.28 l
0.14 0 l
0.15 -0.45 l
0.15 0 l
0.14 0 l
0.15 -0.28 l
0.14 0.44 l
0.15 0.41 l
0.14 -0.41 l
0.15 0 l
0.15 0.41 l
0.14 -0.41 l
0.15 0.41 l
0.14 -0.12 l
0.15 -0.16 l
0.14 0 l
0.15 -0.13 l
0.14 -0.16 l
0.15 0.45 l
0.15 0.12 l
0.14 -0.12 l
0.15 0.28 l
0.14 0 l
0.15 0.13 l
0.14 0.28 l
0.15 -0.41 l
0.14 0.25 l
0.15 -0.25 l
0.15 -0.28 l
0.14 -0.57 l
0.15 0.57 l
0.14 0.28 l
0.15 0.54 l
0.14 -0.29 l
0.15 -0.41 l
0.14 -0.12 l
0.15 0.82 l
0.15 -0.54 l
0.14 0.70 l
0.15 -1.43 l
0.14 1.43 l
0.15 -1.27 l
0.14 0.70 l
0.15 0 l
0.15 0 l
0.14 -0.29 l
0.15 -0.12 l
0.14 0.41 l
0.15 0 l
0.14 0.12 l
0.15 -0.12 l
0.14 -0.70 l
0.15 0.70 l
0.15 -0.57 l
0.14 0.69 l
0.15 -0.12 l
0.14 0.12 l
0.15 -0.69 l
0.14 0.57 l
0.15 -0.13 l
0.14 0 l
0.15 0.41 l
0.15 -0.28 l
0.14 0.57 l
0.15 -0.29 l
0.14 -0.41 l
0.15 0.13 l
0.14 0.12 l
0.15 0.45 l
0.14 -0.57 l
0.15 0.85 l
0.15 -0.57 l
0.14 -0.16 l
0.15 0.29 l
0.14 0.16 l
0.15 -0.57 l
0.14 0.85 l
0.15 -0.73 l
0.15 0.57 l
0.14 -0.41 l
0.15 -0.16 l
0.14 -0.41 l
0.15 0.98 l
0.14 0.45 l
0.15 -0.73 l
0.14 0.28 l
0.15 -0.28 l
0.15 -0.29 l
0.14 1.02 l
0.15 -0.57 l
0.14 0.57 l
0.15 -0.57 l
0.14 0.28 l
0.15 -0.28 l
0.14 -0.29 l
0.15 0.70 l
0.15 0.28 l
0.14 -1.14 l
currentpoint o m
367.99 510.13 lineto
0.14 -0.28 l
0.15 0.85 l
0.14 0 l
0.15 0 l
0.14 -0.28 l
0.15 0 l
0.15 -0.86 l
0.14 0.73 l
0.15 0 l
0.14 0.41 l
0.15 -0.12 l
0.14 0 l
0.15 -0.57 l
0.15 0.12 l
0.14 0.45 l
0.15 -0.16 l
0.14 -0.13 l
0.15 -0.16 l
0.14 0.45 l
0.15 0.57 l
0.14 -0.57 l
0.15 -0.29 l
0.15 0.86 l
0.14 0.57 l
0.15 -1.14 l
0.14 0.28 l
0.15 -0.44 l
0.14 0.28 l
0.15 -0.28 l
0.14 1.30 l
0.15 -1.14 l
0.15 0.12 l
0.14 -0.12 l
0.15 0.69 l
0.14 -0.41 l
0.15 0.29 l
0.14 -0.57 l
0.15 0.41 l
0.14 -0.13 l
0.15 0.29 l
0.15 -1.02 l
0.14 1.14 l
0.15 -0.57 l
0.14 0.29 l
0.15 -0.41 l
0.14 0.41 l
0.15 -0.41 l
0.15 -0.16 l
0.14 0 l
0.15 0.57 l
0.14 -0.13 l
0.15 -0.28 l
0.14 -0.29 l
0.15 0.98 l
0.14 0.73 l
0.15 -1.01 l
0.15 -0.57 l
0.14 0.28 l
0.15 0.29 l
0.14 0.28 l
0.15 -0.57 l
0.14 0.16 l
0.15 -0.16 l
0.14 0.16 l
0.15 0.57 l
0.15 -0.28 l
0.14 0.41 l
0.15 -0.98 l
0.14 0.41 l
0.15 0 l
0.14 -0.41 l
0.15 0.85 l
0.14 -0.73 l
0.15 0 l
0.15 0.73 l
0.14 0 l
0.15 0 l
0.14 -0.57 l
0.15 0.29 l
0.14 0.57 l
0.15 -1.02 l
0.15 0.73 l
0.14 -0.28 l
0.15 -0.16 l
0.14 -0.13 l
0.15 0.13 l
0.14 0.28 l
0.15 -0.28 l
0.14 0 l
0.15 0.16 l
0.15 0.41 l
0.14 -0.29 l
0.15 0.29 l
0.14 -0.13 l
0.15 -0.28 l
0.14 0.12 l
0.15 0 l
0.14 -0.12 l
0.15 0.12 l
o
/bg { 1 1 1 srgb } def
222.40 505.17 0.43 c p3
222.55 505.74 0.43 c p3
222.69 506.02 0.43 c p3
222.84 505.45 0.43 c p3
222.98 506.18 0.43 c p3
223.13 506.02 0.43 c p3
223.27 506.18 0.43 c p3
223.42 505.61 0.43 c p3
223.56 505.45 0.43 c p3
223.71 506.59 0.43 c p3
223.86 505.04 0.43 c p3
224.00 506.02 0.43 c p3
224.15 506.02 0.43 c p3
224.29 505.61 0.43 c p3
224.44 505.61 0.43 c p3
224.58 505.04 0.43 c p3
224.73 505.45 0.43 c p3
224.87 504.88 0.43 c p3
225.02 506.02 0.43 c p3
225.17 506.31 0.43 c p3
225.31 506.18 0.43 c p3
225.46 505.17 0.43 c p3
225.60 506.31 0.43 c p3
225.75 505.74 0.43 c p3
225.89 505.74 0.43 c p3
226.04 506.31 0.43 c p3
226.19 506.02 0.43 c p3
226.33 505.17 0.43 c p3
226.48 505.90 0.43 c p3
226.62 505.45 0.43 c p3
226.77 506.02 0.43 c p3
226.91 505.61 0.43 c p3
227.06 505.61 0.43 c p3
227.20 505.45 0.43 c p3
227.35 506.02 0.43 c p3
227.50 505.74 0.43 c p3
227.64 506.02 0.43 c p3
227.79 505.74 0.43 c p3
227.93 506.31 0.43 c p3
228.08 505.45 0.43 c p3
228.22 506.02 0.43 c p3
228.37 505.04 0.43 c p3
228.51 505.33 0.43 c p3
228.66 505.45 0.43 c p3
228.81 506.02 0.43 c p3
228.95 505.17 0.43 c p3
229.10 505.74 0.43 c p3
229.24 505.90 0.43 c p3
229.39 505.90 0.43 c p3
229.53 505.61 0.43 c p3
229.68 505.90 0.43 c p3
229.82 506.02 0.43 c p3
229.97 505.45 0.43 c p3
230.12 505.61 0.43 c p3
230.26 505.74 0.43 c p3
230.41 505.45 0.43 c p3
230.55 506.18 0.43 c p3
230.70 506.18 0.43 c p3
230.84 505.61 0.43 c p3
230.99 506.02 0.43 c p3
231.14 505.90 0.43 c p3
231.28 504.88 0.43 c p3
231.43 506.47 0.43 c p3
231.57 505.90 0.43 c p3
231.72 505.74 0.43 c p3
231.86 505.74 0.43 c p3
232.01 505.74 0.43 c p3
232.15 505.74 0.43 c p3
232.30 506.47 0.43 c p3
232.45 505.61 0.43 c p3
232.59 505.33 0.43 c p3
232.74 506.02 0.43 c p3
232.88 505.04 0.43 c p3
233.03 504.47 0.43 c p3
233.17 506.18 0.43 c p3
233.32 506.18 0.43 c p3
233.46 505.61 0.43 c p3
233.61 505.74 0.43 c p3
233.76 505.90 0.43 c p3
233.90 506.18 0.43 c p3
234.05 505.90 0.43 c p3
234.19 505.90 0.43 c p3
234.34 506.02 0.43 c p3
234.48 505.61 0.43 c p3
234.63 505.61 0.43 c p3
234.77 505.45 0.43 c p3
234.92 506.59 0.43 c p3
235.07 505.74 0.43 c p3
235.21 506.02 0.43 c p3
235.36 506.02 0.43 c p3
235.50 505.74 0.43 c p3
235.65 505.90 0.43 c p3
235.79 506.59 0.43 c p3
235.94 505.45 0.43 c p3
236.09 505.33 0.43 c p3
236.23 505.33 0.43 c p3
236.38 505.61 0.43 c p3
236.52 505.90 0.43 c p3
236.67 505.61 0.43 c p3
236.81 505.04 0.43 c p3
236.96 398.43 0.43 c p3
237.10 399.55 0.43 c p3
237.25 399.85 0.43 c p3
237.40 401.12 0.43 c p3
237.54 401.84 0.43 c p3
237.69 401.69 0.43 c p3
237.83 403.39 0.43 c p3
237.98 404.53 0.43 c p3
238.12 405.26 0.43 c p3
238.27 405.96 0.43 c p3
238.41 405.54 0.43 c p3
238.56 407.09 0.43 c p3
238.71 407.51 0.43 c p3
238.85 408.36 0.43 c p3
239.00 409.50 0.43 c p3
239.14 409.94 0.43 c p3
239.29 411.49 0.43 c p3
239.43 411.08 0.43 c p3
239.58 411.08 0.43 c p3
239.72 412.22 0.43 c p3
239.87 413.32 0.43 c p3
240.02 414.05 0.43 c p3
240.16 414.18 0.43 c p3
240.31 414.62 0.43 c p3
240.45 416.04 0.43 c p3
240.60 415.76 0.43 c p3
240.74 417.31 0.43 c p3
240.89 416.90 0.43 c p3
241.04 418.04 0.43 c p3
241.18 418.61 0.43 c p3
241.33 418.61 0.43 c p3
241.47 419.30 0.43 c p3
241.62 420.57 0.43 c p3
241.76 419.71 0.43 c p3
241.91 421.42 0.43 c p3
242.05 421.29 0.43 c p3
242.20 422.43 0.43 c p3
242.35 422.72 0.43 c p3
242.49 422.56 0.43 c p3
242.64 423.57 0.43 c p3
242.78 423.98 0.43 c p3
242.93 424.55 0.43 c p3
243.07 425.98 0.43 c p3
243.22 425.53 0.43 c p3
243.36 425.82 0.43 c p3
243.51 427.24 0.43 c p3
243.66 426.96 0.43 c p3
243.80 428.09 0.43 c p3
243.95 428.25 0.43 c p3
244.09 428.25 0.43 c p3
244.24 429.68 0.43 c p3
244.38 430.24 0.43 c p3
244.53 429.96 0.43 c p3
244.67 429.80 0.43 c p3
244.82 431.23 0.43 c p3
244.97 430.37 0.43 c p3
245.11 431.35 0.43 c p3
245.26 432.93 0.43 c p3
245.40 432.77 0.43 c p3
245.55 432.93 0.43 c p3
245.69 434.20 0.43 c p3
245.84 433.79 0.43 c p3
245.99 434.77 0.43 c p3
246.13 434.48 0.43 c p3
246.28 435.49 0.43 c p3
246.42 436.19 0.43 c p3
246.57 435.91 0.43 c p3
246.71 437.04 0.43 c p3
246.86 437.74 0.43 c p3
247.00 437.90 0.43 c p3
247.15 439.16 0.43 c p3
247.30 438.75 0.43 c p3
247.44 439.45 0.43 c p3
247.59 439.73 0.43 c p3
247.73 439.45 0.43 c p3
247.88 440.59 0.43 c p3
248.02 440.87 0.43 c p3
248.17 441.03 0.43 c p3
248.31 442.01 0.43 c p3
248.46 442.74 0.43 c p3
248.61 442.74 0.43 c p3
248.75 443.56 0.43 c p3
248.90 443.56 0.43 c p3
249.04 444.13 0.43 c p3
249.19 445.14 0.43 c p3
249.33 444.00 0.43 c p3
249.48 445.27 0.43 c p3
249.62 444.98 0.43 c p3
249.77 446.41 0.43 c p3
249.92 446.85 0.43 c p3
250.06 446.28 0.43 c p3
250.21 447.99 0.43 c p3
250.35 447.83 0.43 c p3
250.50 448.11 0.43 c p3
250.64 447.99 0.43 c p3
250.79 448.40 0.43 c p3
250.94 449.25 0.43 c p3
251.08 449.25 0.43 c p3
251.23 449.95 0.43 c p3
251.37 450.39 0.43 c p3
251.52 451.24 0.43 c p3
251.66 450.80 0.43 c p3
251.81 451.37 0.43 c p3
251.95 451.53 0.43 c p3
252.10 452.23 0.43 c p3
252.25 452.51 0.43 c p3
252.39 453.24 0.43 c p3
252.54 453.65 0.43 c p3
252.68 453.36 0.43 c p3
252.83 453.65 0.43 c p3
252.97 454.50 0.43 c p3
253.12 454.95 0.43 c p3
253.26 455.20 0.43 c p3
253.41 455.20 0.43 c p3
253.56 455.77 0.43 c p3
253.70 456.34 0.43 c p3
253.85 456.91 0.43 c p3
253.99 457.06 0.43 c p3
254.14 457.92 0.43 c p3
254.28 457.92 0.43 c p3
254.43 457.92 0.43 c p3
254.57 457.48 0.43 c p3
254.72 458.90 0.43 c p3
254.87 458.61 0.43 c p3
255.01 459.63 0.43 c p3
255.16 459.75 0.43 c p3
255.30 460.20 0.43 c p3
255.45 459.34 0.43 c p3
255.59 460.48 0.43 c p3
255.74 460.32 0.43 c p3
255.88 462.03 0.43 c p3
256.03 461.75 0.43 c p3
256.18 461.75 0.43 c p3
256.32 462.31 0.43 c p3
256.47 462.88 0.43 c p3
256.61 463.01 0.43 c p3
256.76 463.45 0.43 c p3
256.90 463.74 0.43 c p3
257.05 463.45 0.43 c p3
257.20 463.29 0.43 c p3
257.34 464.59 0.43 c p3
257.49 464.15 0.43 c p3
257.63 464.15 0.43 c p3
257.78 464.59 0.43 c p3
257.92 465.45 0.43 c p3
258.07 465.73 0.43 c p3
258.21 466.87 0.43 c p3
258.36 466.43 0.43 c p3
258.51 466.58 0.43 c p3
258.65 465.86 0.43 c p3
258.80 466.71 0.43 c p3
258.94 466.58 0.43 c p3
259.09 467.41 0.43 c p3
259.23 468.42 0.43 c p3
259.38 468.13 0.43 c p3
259.52 468.42 0.43 c p3
259.67 468.54 0.43 c p3
259.82 468.70 0.43 c p3
259.96 469.97 0.43 c p3
260.11 469.11 0.43 c p3
260.25 469.11 0.43 c p3
260.40 469.68 0.43 c p3
260.54 469.68 0.43 c p3
260.69 470.41 0.43 c p3
260.83 470.41 0.43 c p3
260.98 470.98 0.43 c p3
261.13 471.39 0.43 c p3
261.27 471.83 0.43 c p3
261.42 471.96 0.43 c p3
261.56 472.12 0.43 c p3
261.71 472.97 0.43 c p3
261.85 472.97 0.43 c p3
262.00 472.81 0.43 c p3
262.15 472.97 0.43 c p3
262.29 473.38 0.43 c p3
262.44 472.97 0.43 c p3
262.58 473.67 0.43 c p3
262.73 473.79 0.43 c p3
262.87 474.24 0.43 c p3
263.02 474.52 0.43 c p3
263.16 474.81 0.43 c p3
263.31 474.52 0.43 c p3
263.46 474.65 0.43 c p3
263.60 474.93 0.43 c p3
263.75 475.66 0.43 c p3
263.89 475.66 0.43 c p3
264.04 475.79 0.43 c p3
264.18 475.79 0.43 c p3
264.33 475.66 0.43 c p3
264.47 476.93 0.43 c p3
264.62 477.37 0.43 c p3
264.77 477.21 0.43 c p3
264.91 477.37 0.43 c p3
265.06 477.78 0.43 c p3
265.20 478.51 0.43 c p3
265.35 477.94 0.43 c p3
265.49 479.08 0.43 c p3
265.64 478.35 0.43 c p3
265.78 478.92 0.43 c p3
265.93 478.79 0.43 c p3
266.08 479.61 0.43 c p3
266.22 478.79 0.43 c p3
266.37 479.08 0.43 c p3
266.51 479.49 0.43 c p3
266.66 479.90 0.43 c p3
266.80 480.06 0.43 c p3
266.95 479.77 0.43 c p3
267.10 479.90 0.43 c p3
267.24 480.47 0.43 c p3
267.39 480.75 0.43 c p3
267.53 481.89 0.43 c p3
267.68 481.04 0.43 c p3
267.82 481.48 0.43 c p3
267.97 482.05 0.43 c p3
268.11 481.48 0.43 c p3
268.26 481.61 0.43 c p3
268.41 481.89 0.43 c p3
268.55 481.61 0.43 c p3
268.70 482.18 0.43 c p3
268.84 482.33 0.43 c p3
268.99 482.62 0.43 c p3
269.13 483.19 0.43 c p3
269.28 483.03 0.43 c p3
269.42 482.75 0.43 c p3
269.57 483.19 0.43 c p3
269.72 483.88 0.43 c p3
269.86 484.17 0.43 c p3
270.01 483.88 0.43 c p3
270.15 484.33 0.43 c p3
270.30 484.04 0.43 c p3
270.44 484.74 0.43 c p3
270.59 485.43 0.43 c p3
270.73 484.90 0.43 c p3
270.88 484.61 0.43 c p3
271.03 484.90 0.43 c p3
271.17 484.45 0.43 c p3
271.32 485.43 0.43 c p3
271.46 485.31 0.43 c p3
271.61 486.45 0.43 c p3
271.75 485.59 0.43 c p3
271.90 486.73 0.43 c p3
272.05 486.16 0.43 c p3
272.19 486.00 0.43 c p3
272.34 486.45 0.43 c p3
272.48 487.14 0.43 c p3
272.63 487.01 0.43 c p3
272.77 487.01 0.43 c p3
272.92 486.86 0.43 c p3
273.06 487.30 0.43 c p3
273.21 487.58 0.43 c p3
273.36 487.87 0.43 c p3
273.50 487.71 0.43 c p3
273.65 488.28 0.43 c p3
273.79 487.71 0.43 c p3
273.94 488.44 0.43 c p3
274.08 488.28 0.43 c p3
274.23 488.44 0.43 c p3
274.37 488.28 0.43 c p3
274.52 489.13 0.43 c p3
274.67 488.72 0.43 c p3
274.81 489.29 0.43 c p3
274.96 488.72 0.43 c p3
275.10 490.27 0.43 c p3
275.25 488.44 0.43 c p3
275.39 489.42 0.43 c p3
275.54 489.58 0.43 c p3
275.68 489.13 0.43 c p3
275.83 489.42 0.43 c p3
275.98 490.72 0.43 c p3
276.12 490.15 0.43 c p3
276.27 490.15 0.43 c p3
276.41 489.42 0.43 c p3
276.56 491.00 0.43 c p3
276.70 490.15 0.43 c p3
276.85 491.54 0.43 c p3
277.00 491.13 0.43 c p3
277.14 490.84 0.43 c p3
277.29 490.72 0.43 c p3
277.43 490.84 0.43 c p3
277.58 491.13 0.43 c p3
277.72 491.00 0.43 c p3
277.87 491.41 0.43 c p3
278.01 491.70 0.43 c p3
278.16 492.11 0.43 c p3
278.31 492.55 0.43 c p3
278.45 492.39 0.43 c p3
278.60 492.68 0.43 c p3
278.74 491.98 0.43 c p3
278.89 492.68 0.43 c p3
279.03 492.68 0.43 c p3
279.18 492.83 0.43 c p3
279.32 492.39 0.43 c p3
279.47 492.55 0.43 c p3
279.62 492.39 0.43 c p3
279.76 493.40 0.43 c p3
279.91 492.83 0.43 c p3
280.05 493.97 0.43 c p3
280.20 493.53 0.43 c p3
280.34 493.69 0.43 c p3
280.49 493.12 0.43 c p3
280.63 493.81 0.43 c p3
280.78 493.53 0.43 c p3
280.93 494.38 0.43 c p3
281.07 494.10 0.43 c p3
281.22 493.97 0.43 c p3
281.36 493.69 0.43 c p3
281.51 494.38 0.43 c p3
281.65 494.38 0.43 c p3
281.80 494.54 0.43 c p3
281.95 493.69 0.43 c p3
282.09 495.24 0.43 c p3
282.24 495.52 0.43 c p3
282.38 494.83 0.43 c p3
282.53 495.11 0.43 c p3
282.67 494.83 0.43 c p3
282.82 495.11 0.43 c p3
282.96 495.40 0.43 c p3
283.11 494.95 0.43 c p3
283.26 496.09 0.43 c p3
283.40 495.40 0.43 c p3
283.55 495.81 0.43 c p3
283.69 495.68 0.43 c p3
283.84 495.40 0.43 c p3
283.98 496.09 0.43 c p3
284.13 495.97 0.43 c p3
284.27 495.81 0.43 c p3
284.42 495.97 0.43 c p3
284.57 495.40 0.43 c p3
284.71 496.09 0.43 c p3
284.86 496.82 0.43 c p3
285.00 496.66 0.43 c p3
285.15 496.38 0.43 c p3
285.29 496.95 0.43 c p3
285.44 496.09 0.43 c p3
285.58 496.38 0.43 c p3
285.73 496.95 0.43 c p3
285.88 497.23 0.43 c p3
286.02 496.38 0.43 c p3
286.17 497.10 0.43 c p3
286.31 496.09 0.43 c p3
286.46 497.93 0.43 c p3
286.60 497.23 0.43 c p3
286.75 496.38 0.43 c p3
286.89 497.10 0.43 c p3
287.04 497.36 0.43 c p3
287.19 496.95 0.43 c p3
287.33 497.36 0.43 c p3
287.48 497.64 0.43 c p3
287.62 497.36 0.43 c p3
287.77 497.93 0.43 c p3
287.91 497.80 0.43 c p3
288.06 497.80 0.43 c p3
288.21 497.51 0.43 c p3
288.35 497.80 0.43 c p3
288.50 498.08 0.43 c p3
288.64 498.08 0.43 c p3
288.79 497.93 0.43 c p3
288.93 498.65 0.43 c p3
289.08 498.08 0.43 c p3
289.22 498.78 0.43 c p3
289.37 498.65 0.43 c p3
289.52 498.65 0.43 c p3
289.66 498.37 0.43 c p3
289.81 498.50 0.43 c p3
289.95 498.78 0.43 c p3
290.10 498.65 0.43 c p3
290.24 499.06 0.43 c p3
290.39 498.21 0.43 c p3
290.53 498.94 0.43 c p3
290.68 499.63 0.43 c p3
290.83 499.63 0.43 c p3
290.97 498.78 0.43 c p3
291.12 498.78 0.43 c p3
291.26 499.22 0.43 c p3
291.41 497.80 0.43 c p3
291.55 499.22 0.43 c p3
291.70 499.51 0.43 c p3
291.84 498.78 0.43 c p3
291.99 499.51 0.43 c p3
292.14 498.94 0.43 c p3
292.28 499.79 0.43 c p3
292.43 499.51 0.43 c p3
292.57 499.92 0.43 c p3
292.72 499.79 0.43 c p3
292.86 500.36 0.43 c p3
293.01 499.22 0.43 c p3
293.16 499.92 0.43 c p3
293.30 499.79 0.43 c p3
293.45 499.22 0.43 c p3
293.59 500.08 0.43 c p3
293.74 499.92 0.43 c p3
293.88 499.35 0.43 c p3
294.03 500.08 0.43 c p3
294.17 499.92 0.43 c p3
294.32 500.20 0.43 c p3
294.47 499.35 0.43 c p3
294.61 500.77 0.43 c p3
294.76 500.36 0.43 c p3
294.90 500.36 0.43 c p3
295.05 500.08 0.43 c p3
295.19 500.65 0.43 c p3
295.34 500.20 0.43 c p3
295.48 500.49 0.43 c p3
295.63 500.20 0.43 c p3
295.78 500.49 0.43 c p3
295.92 501.06 0.43 c p3
296.07 500.93 0.43 c p3
296.21 501.06 0.43 c p3
296.36 500.77 0.43 c p3
296.50 500.20 0.43 c p3
296.65 500.65 0.43 c p3
296.79 501.22 0.43 c p3
296.94 501.50 0.43 c p3
297.09 500.77 0.43 c p3
297.23 500.77 0.43 c p3
297.38 500.65 0.43 c p3
297.52 500.49 0.43 c p3
297.67 501.06 0.43 c p3
297.81 501.06 0.43 c p3
297.96 500.93 0.43 c p3
298.11 501.34 0.43 c p3
298.25 501.22 0.43 c p3
298.40 500.93 0.43 c p3
298.54 500.77 0.43 c p3
298.69 501.22 0.43 c p3
298.83 501.63 0.43 c p3
298.98 502.48 0.43 c p3
299.12 500.93 0.43 c p3
299.27 501.34 0.43 c p3
299.42 501.06 0.43 c p3
299.56 501.34 0.43 c p3
299.71 501.63 0.43 c p3
299.85 502.07 0.43 c p3
300.00 501.22 0.43 c p3
300.14 501.22 0.43 c p3
300.29 501.50 0.43 c p3
300.43 501.50 0.43 c p3
300.58 502.07 0.43 c p3
300.73 501.06 0.43 c p3
300.87 501.63 0.43 c p3
301.02 502.20 0.43 c p3
301.16 502.35 0.43 c p3
301.31 502.20 0.43 c p3
301.45 501.78 0.43 c p3
301.60 502.20 0.43 c p3
301.74 501.63 0.43 c p3
301.89 502.20 0.43 c p3
302.04 501.63 0.43 c p3
302.18 502.64 0.43 c p3
302.33 502.35 0.43 c p3
302.47 501.63 0.43 c p3
302.62 501.91 0.43 c p3
302.76 501.78 0.43 c p3
302.91 502.64 0.43 c p3
303.06 502.07 0.43 c p3
303.20 502.77 0.43 c p3
303.35 502.07 0.43 c p3
303.49 501.91 0.43 c p3
303.64 502.07 0.43 c p3
303.78 501.91 0.43 c p3
303.93 503.05 0.43 c p3
304.07 502.35 0.43 c p3
304.22 503.21 0.43 c p3
304.37 502.48 0.43 c p3
304.51 502.20 0.43 c p3
304.66 502.92 0.43 c p3
304.80 502.35 0.43 c p3
304.95 502.77 0.43 c p3
305.09 502.92 0.43 c p3
305.24 502.35 0.43 c p3
305.38 503.46 0.43 c p3
305.53 502.77 0.43 c p3
305.68 503.21 0.43 c p3
305.82 502.48 0.43 c p3
305.97 503.33 0.43 c p3
306.11 502.35 0.43 c p3
306.26 502.92 0.43 c p3
306.40 502.48 0.43 c p3
306.55 502.20 0.43 c p3
306.69 502.20 0.43 c p3
306.84 503.75 0.43 c p3
306.99 502.48 0.43 c p3
307.13 503.33 0.43 c p3
307.28 502.48 0.43 c p3
307.42 503.05 0.43 c p3
307.57 503.75 0.43 c p3
307.71 503.90 0.43 c p3
307.86 503.62 0.43 c p3
308.01 503.90 0.43 c p3
308.15 502.48 0.43 c p3
308.30 503.75 0.43 c p3
308.44 503.33 0.43 c p3
308.59 503.33 0.43 c p3
308.73 502.77 0.43 c p3
308.88 503.46 0.43 c p3
309.02 503.62 0.43 c p3
309.17 503.46 0.43 c p3
309.32 503.21 0.43 c p3
309.46 504.03 0.43 c p3
309.61 503.75 0.43 c p3
309.75 503.75 0.43 c p3
309.90 503.21 0.43 c p3
310.04 503.90 0.43 c p3
310.19 503.33 0.43 c p3
310.33 503.62 0.43 c p3
310.48 503.33 0.43 c p3
310.63 503.90 0.43 c p3
310.77 504.03 0.43 c p3
310.92 504.03 0.43 c p3
311.06 503.75 0.43 c p3
311.21 503.75 0.43 c p3
311.35 503.46 0.43 c p3
311.50 503.46 0.43 c p3
311.64 503.46 0.43 c p3
311.79 504.31 0.43 c p3
311.94 503.90 0.43 c p3
312.08 504.03 0.43 c p3
312.23 504.03 0.43 c p3
312.37 503.75 0.43 c p3
312.52 504.76 0.43 c p3
312.66 504.47 0.43 c p3
312.81 503.33 0.43 c p3
312.96 504.60 0.43 c p3
313.10 504.03 0.43 c p3
313.25 503.75 0.43 c p3
313.39 504.31 0.43 c p3
313.54 504.03 0.43 c p3
313.68 503.62 0.43 c p3
313.83 503.75 0.43 c p3
313.97 504.19 0.43 c p3
314.12 504.88 0.43 c p3
314.27 504.19 0.43 c p3
314.41 504.47 0.43 c p3
314.56 503.75 0.43 c p3
314.70 504.76 0.43 c p3
314.85 503.90 0.43 c p3
314.99 504.31 0.43 c p3
315.14 504.47 0.43 c p3
315.28 505.17 0.43 c p3
315.43 503.75 0.43 c p3
315.58 503.90 0.43 c p3
315.72 504.76 0.43 c p3
315.87 505.04 0.43 c p3
316.01 504.76 0.43 c p3
316.16 504.19 0.43 c p3
316.30 504.03 0.43 c p3
316.45 504.60 0.43 c p3
316.59 504.47 0.43 c p3
316.74 504.60 0.43 c p3
316.89 504.31 0.43 c p3
317.03 504.47 0.43 c p3
317.18 503.90 0.43 c p3
317.32 505.17 0.43 c p3
317.47 504.31 0.43 c p3
317.61 505.45 0.43 c p3
317.76 504.47 0.43 c p3
317.91 504.60 0.43 c p3
318.05 504.76 0.43 c p3
318.20 503.90 0.43 c p3
318.34 504.03 0.43 c p3
318.49 505.45 0.43 c p3
318.63 505.04 0.43 c p3
318.78 504.03 0.43 c p3
318.92 504.47 0.43 c p3
319.07 504.88 0.43 c p3
319.22 504.88 0.43 c p3
319.36 506.02 0.43 c p3
319.51 505.04 0.43 c p3
319.65 505.45 0.43 c p3
319.80 504.88 0.43 c p3
319.94 505.04 0.43 c p3
320.09 505.33 0.43 c p3
320.23 504.31 0.43 c p3
320.38 504.88 0.43 c p3
320.53 505.04 0.43 c p3
320.67 505.45 0.43 c p3
320.82 505.04 0.43 c p3
320.96 504.88 0.43 c p3
321.11 505.04 0.43 c p3
321.25 505.17 0.43 c p3
321.40 505.33 0.43 c p3
321.54 505.74 0.43 c p3
321.69 505.74 0.43 c p3
321.84 505.33 0.43 c p3
321.98 505.17 0.43 c p3
322.13 505.04 0.43 c p3
322.27 504.88 0.43 c p3
322.42 504.60 0.43 c p3
322.56 505.45 0.43 c p3
322.71 505.17 0.43 c p3
322.85 504.88 0.43 c p3
323.00 505.45 0.43 c p3
323.15 505.61 0.43 c p3
323.29 504.76 0.43 c p3
323.44 505.45 0.43 c p3
323.58 504.88 0.43 c p3
323.73 505.61 0.43 c p3
323.87 504.88 0.43 c p3
324.02 504.88 0.43 c p3
324.17 505.61 0.43 c p3
324.31 505.33 0.43 c p3
324.46 505.45 0.43 c p3
324.60 505.90 0.43 c p3
324.75 505.33 0.43 c p3
324.89 505.74 0.43 c p3
325.04 504.88 0.43 c p3
325.18 506.31 0.43 c p3
325.33 505.04 0.43 c p3
325.48 505.74 0.43 c p3
325.62 505.33 0.43 c p3
325.77 505.90 0.43 c p3
325.91 505.61 0.43 c p3
326.06 506.02 0.43 c p3
326.20 505.33 0.43 c p3
326.35 505.74 0.43 c p3
326.49 505.74 0.43 c p3
326.64 506.18 0.43 c p3
326.79 505.33 0.43 c p3
326.93 505.74 0.43 c p3
327.08 505.33 0.43 c p3
327.22 505.74 0.43 c p3
327.37 505.45 0.43 c p3
327.51 506.47 0.43 c p3
327.66 506.18 0.43 c p3
327.80 506.31 0.43 c p3
327.95 505.90 0.43 c p3
328.10 505.61 0.43 c p3
328.24 506.18 0.43 c p3
328.39 506.02 0.43 c p3
328.53 506.02 0.43 c p3
328.68 505.90 0.43 c p3
328.82 506.02 0.43 c p3
328.97 506.75 0.43 c p3
329.12 506.18 0.43 c p3
329.26 506.02 0.43 c p3
329.41 506.18 0.43 c p3
329.55 505.90 0.43 c p3
329.70 505.61 0.43 c p3
329.84 505.74 0.43 c p3
329.99 506.47 0.43 c p3
330.13 506.18 0.43 c p3
330.28 506.47 0.43 c p3
330.43 506.88 0.43 c p3
330.57 506.59 0.43 c p3
330.72 506.31 0.43 c p3
330.86 506.02 0.43 c p3
331.01 505.61 0.43 c p3
331.15 506.18 0.43 c p3
331.30 506.47 0.43 c p3
331.44 505.90 0.43 c p3
331.59 505.74 0.43 c p3
331.74 505.90 0.43 c p3
331.88 506.88 0.43 c p3
332.03 505.45 0.43 c p3
332.17 505.74 0.43 c p3
332.32 506.18 0.43 c p3
332.46 506.75 0.43 c p3
332.61 506.59 0.43 c p3
332.75 506.18 0.43 c p3
332.90 506.31 0.43 c p3
333.05 505.74 0.43 c p3
333.19 505.90 0.43 c p3
333.34 506.88 0.43 c p3
333.48 505.74 0.43 c p3
333.63 506.75 0.43 c p3
333.77 506.75 0.43 c p3
333.92 506.47 0.43 c p3
334.07 507.03 0.43 c p3
334.21 506.31 0.43 c p3
334.36 506.59 0.43 c p3
334.50 507.32 0.43 c p3
334.65 506.59 0.43 c p3
334.79 506.75 0.43 c p3
334.94 506.02 0.43 c p3
335.08 506.18 0.43 c p3
335.23 506.47 0.43 c p3
335.38 507.16 0.43 c p3
335.52 506.47 0.43 c p3
335.67 506.75 0.43 c p3
335.81 506.59 0.43 c p3
335.96 506.18 0.43 c p3
336.10 507.03 0.43 c p3
336.25 506.75 0.43 c p3
336.39 507.16 0.43 c p3
336.54 507.32 0.43 c p3
336.69 507.32 0.43 c p3
336.83 506.47 0.43 c p3
336.98 506.18 0.43 c p3
337.12 506.47 0.43 c p3
337.27 506.18 0.43 c p3
337.41 507.03 0.43 c p3
337.56 506.75 0.43 c p3
337.70 506.88 0.43 c p3
337.85 506.59 0.43 c p3
338.00 507.16 0.43 c p3
338.14 506.59 0.43 c p3
338.29 507.73 0.43 c p3
338.43 506.59 0.43 c p3
338.58 507.32 0.43 c p3
338.72 506.75 0.43 c p3
338.87 507.32 0.43 c p3
339.02 506.75 0.43 c p3
339.16 505.74 0.43 c p3
339.31 506.75 0.43 c p3
339.45 507.16 0.43 c p3
339.60 506.59 0.43 c p3
339.74 507.03 0.43 c p3
339.89 506.75 0.43 c p3
340.03 506.88 0.43 c p3
340.18 506.88 0.43 c p3
340.33 507.32 0.43 c p3
340.47 507.16 0.43 c p3
340.62 507.16 0.43 c p3
340.76 507.16 0.43 c p3
340.91 507.32 0.43 c p3
341.05 507.45 0.43 c p3
341.20 507.60 0.43 c p3
341.34 507.60 0.43 c p3
341.49 506.88 0.43 c p3
341.64 506.75 0.43 c p3
341.78 507.45 0.43 c p3
341.93 507.16 0.43 c p3
342.07 507.45 0.43 c p3
342.22 507.73 0.43 c p3
342.36 507.32 0.43 c p3
342.51 507.32 0.43 c p3
342.65 507.32 0.43 c p3
342.80 507.03 0.43 c p3
342.95 507.60 0.43 c p3
343.09 508.01 0.43 c p3
343.24 507.32 0.43 c p3
343.38 507.73 0.43 c p3
343.53 507.73 0.43 c p3
343.67 507.16 0.43 c p3
343.82 507.60 0.43 c p3
343.97 507.16 0.43 c p3
344.11 507.89 0.43 c p3
344.26 508.17 0.43 c p3
344.40 507.60 0.43 c p3
344.55 507.60 0.43 c p3
344.69 507.60 0.43 c p3
344.84 507.45 0.43 c p3
344.98 508.17 0.43 c p3
345.13 508.01 0.43 c p3
345.28 508.01 0.43 c p3
345.42 507.32 0.43 c p3
345.57 508.17 0.43 c p3
345.71 507.45 0.43 c p3
345.86 507.89 0.43 c p3
346.00 508.01 0.43 c p3
346.15 508.46 0.43 c p3
346.29 507.45 0.43 c p3
346.44 507.73 0.43 c p3
346.59 507.89 0.43 c p3
346.73 508.17 0.43 c p3
346.88 507.32 0.43 c p3
347.02 508.01 0.43 c p3
347.17 507.89 0.43 c p3
347.31 508.01 0.43 c p3
347.46 507.60 0.43 c p3
347.60 507.73 0.43 c p3
347.75 508.17 0.43 c p3
347.90 508.30 0.43 c p3
348.04 508.01 0.43 c p3
348.19 508.30 0.43 c p3
348.33 508.01 0.43 c p3
348.48 507.73 0.43 c p3
348.62 507.45 0.43 c p3
348.77 508.30 0.43 c p3
348.92 508.46 0.43 c p3
349.06 508.46 0.43 c p3
349.21 508.17 0.43 c p3
349.35 508.46 0.43 c p3
349.50 508.01 0.43 c p3
349.64 507.73 0.43 c p3
349.79 508.87 0.43 c p3
349.93 508.87 0.43 c p3
350.08 508.58 0.43 c p3
350.23 508.01 0.43 c p3
350.37 508.17 0.43 c p3
350.52 508.01 0.43 c p3
350.66 508.58 0.43 c p3
350.81 508.30 0.43 c p3
350.95 508.46 0.43 c p3
351.10 509.03 0.43 c p3
351.24 508.30 0.43 c p3
351.39 508.58 0.43 c p3
351.54 508.01 0.43 c p3
351.68 509.44 0.43 c p3
351.83 508.46 0.43 c p3
351.97 508.58 0.43 c p3
352.12 508.01 0.43 c p3
352.26 509.03 0.43 c p3
352.41 508.46 0.43 c p3
352.55 508.46 0.43 c p3
352.70 509.31 0.43 c p3
352.85 509.15 0.43 c p3
352.99 508.17 0.43 c p3
353.14 508.87 0.43 c p3
353.28 508.30 0.43 c p3
353.43 509.03 0.43 c p3
353.57 509.31 0.43 c p3
353.72 509.03 0.43 c p3
353.86 509.03 0.43 c p3
354.01 508.58 0.43 c p3
354.16 508.58 0.43 c p3
354.30 508.58 0.43 c p3
354.45 508.30 0.43 c p3
354.59 508.74 0.43 c p3
354.74 509.15 0.43 c p3
354.88 508.74 0.43 c p3
355.03 508.74 0.43 c p3
355.18 509.15 0.43 c p3
355.32 508.74 0.43 c p3
355.47 509.15 0.43 c p3
355.61 509.03 0.43 c p3
355.76 508.87 0.43 c p3
355.90 508.87 0.43 c p3
356.05 508.74 0.43 c p3
356.19 508.58 0.43 c p3
356.34 509.03 0.43 c p3
356.49 509.15 0.43 c p3
356.63 509.03 0.43 c p3
356.78 509.31 0.43 c p3
356.92 509.31 0.43 c p3
357.07 509.44 0.43 c p3
357.21 509.72 0.43 c p3
357.36 509.31 0.43 c p3
357.50 509.56 0.43 c p3
357.65 509.31 0.43 c p3
357.80 509.03 0.43 c p3
357.94 508.46 0.43 c p3
358.09 509.03 0.43 c p3
358.23 509.31 0.43 c p3
358.38 509.85 0.43 c p3
358.52 509.56 0.43 c p3
358.67 509.15 0.43 c p3
358.81 509.03 0.43 c p3
358.96 509.85 0.43 c p3
359.11 509.31 0.43 c p3
359.25 510.01 0.43 c p3
359.40 508.58 0.43 c p3
359.54 510.01 0.43 c p3
359.69 508.74 0.43 c p3
359.83 509.44 0.43 c p3
359.98 509.44 0.43 c p3
360.13 509.44 0.43 c p3
360.27 509.15 0.43 c p3
360.42 509.03 0.43 c p3
360.56 509.44 0.43 c p3
360.71 509.44 0.43 c p3
360.85 509.56 0.43 c p3
361.00 509.44 0.43 c p3
361.14 508.74 0.43 c p3
361.29 509.44 0.43 c p3
361.44 508.87 0.43 c p3
361.58 509.56 0.43 c p3
361.73 509.44 0.43 c p3
361.87 509.56 0.43 c p3
362.02 508.87 0.43 c p3
362.16 509.44 0.43 c p3
362.31 509.31 0.43 c p3
362.45 509.31 0.43 c p3
362.60 509.72 0.43 c p3
362.75 509.44 0.43 c p3
362.89 510.01 0.43 c p3
363.04 509.72 0.43 c p3
363.18 509.31 0.43 c p3
363.33 509.44 0.43 c p3
363.47 509.56 0.43 c p3
363.62 510.01 0.43 c p3
363.76 509.44 0.43 c p3
363.91 510.29 0.43 c p3
364.06 509.72 0.43 c p3
364.20 509.56 0.43 c p3
364.35 509.85 0.43 c p3
364.49 510.01 0.43 c p3
364.64 509.44 0.43 c p3
364.78 510.29 0.43 c p3
364.93 509.56 0.43 c p3
365.08 510.13 0.43 c p3
365.22 509.72 0.43 c p3
365.37 509.56 0.43 c p3
365.51 509.15 0.43 c p3
365.66 510.13 0.43 c p3
365.80 510.58 0.43 c p3
365.95 509.85 0.43 c p3
366.09 510.13 0.43 c p3
366.24 509.85 0.43 c p3
366.39 509.56 0.43 c p3
366.53 510.58 0.43 c p3
366.68 510.01 0.43 c p3
366.82 510.58 0.43 c p3
366.97 510.01 0.43 c p3
367.11 510.29 0.43 c p3
367.26 510.01 0.43 c p3
367.40 509.72 0.43 c p3
367.55 510.42 0.43 c p3
367.70 510.70 0.43 c p3
367.84 509.56 0.43 c p3
367.99 510.13 0.43 c p3
368.13 509.85 0.43 c p3
368.28 510.70 0.43 c p3
368.42 510.70 0.43 c p3
368.57 510.70 0.43 c p3
368.71 510.42 0.43 c p3
368.86 510.42 0.43 c p3
369.01 509.56 0.43 c p3
369.15 510.29 0.43 c p3
369.30 510.29 0.43 c p3
369.44 510.70 0.43 c p3
369.59 510.58 0.43 c p3
369.73 510.58 0.43 c p3
369.88 510.01 0.43 c p3
370.03 510.13 0.43 c p3
370.17 510.58 0.43 c p3
370.32 510.42 0.43 c p3
370.46 510.29 0.43 c p3
370.61 510.13 0.43 c p3
370.75 510.58 0.43 c p3
370.90 511.15 0.43 c p3
371.04 510.58 0.43 c p3
371.19 510.29 0.43 c p3
371.34 511.15 0.43 c p3
371.48 511.72 0.43 c p3
371.63 510.58 0.43 c p3
371.77 510.86 0.43 c p3
371.92 510.42 0.43 c p3
372.06 510.70 0.43 c p3
372.21 510.42 0.43 c p3
372.35 511.72 0.43 c p3
372.50 510.58 0.43 c p3
372.65 510.70 0.43 c p3
372.79 510.58 0.43 c p3
372.94 511.27 0.43 c p3
373.08 510.86 0.43 c p3
373.23 511.15 0.43 c p3
373.37 510.58 0.43 c p3
373.52 510.99 0.43 c p3
373.66 510.86 0.43 c p3
373.81 511.15 0.43 c p3
373.96 510.13 0.43 c p3
374.10 511.27 0.43 c p3
374.25 510.70 0.43 c p3
374.39 510.99 0.43 c p3
374.54 510.58 0.43 c p3
374.68 510.99 0.43 c p3
374.83 510.58 0.43 c p3
374.98 510.42 0.43 c p3
375.12 510.42 0.43 c p3
375.27 510.99 0.43 c p3
375.41 510.86 0.43 c p3
375.56 510.58 0.43 c p3
375.70 510.29 0.43 c p3
375.85 511.27 0.43 c p3
375.99 512.00 0.43 c p3
376.14 510.99 0.43 c p3
376.29 510.42 0.43 c p3
376.43 510.70 0.43 c p3
376.58 510.99 0.43 c p3
376.72 511.27 0.43 c p3
376.87 510.70 0.43 c p3
377.01 510.86 0.43 c p3
377.16 510.70 0.43 c p3
377.30 510.86 0.43 c p3
377.45 511.43 0.43 c p3
377.60 511.15 0.43 c p3
377.74 511.56 0.43 c p3
377.89 510.58 0.43 c p3
378.03 510.99 0.43 c p3
378.18 510.99 0.43 c p3
378.32 510.58 0.43 c p3
378.47 511.43 0.43 c p3
378.61 510.70 0.43 c p3
378.76 510.70 0.43 c p3
378.91 511.43 0.43 c p3
379.05 511.43 0.43 c p3
379.20 511.43 0.43 c p3
379.34 510.86 0.43 c p3
379.49 511.15 0.43 c p3
379.63 511.72 0.43 c p3
379.78 510.70 0.43 c p3
379.93 511.43 0.43 c p3
380.07 511.15 0.43 c p3
380.22 510.99 0.43 c p3
380.36 510.86 0.43 c p3
380.51 510.99 0.43 c p3
380.65 511.27 0.43 c p3
380.80 510.99 0.43 c p3
380.94 510.99 0.43 c p3
381.09 511.15 0.43 c p3
381.24 511.56 0.43 c p3
381.38 511.27 0.43 c p3
381.53 511.56 0.43 c p3
381.67 511.43 0.43 c p3
381.82 511.15 0.43 c p3
381.96 511.27 0.43 c p3
382.11 511.27 0.43 c p3
382.25 511.15 0.43 c p3
382.40 511.27 0.43 c p3
0.00 0.00 432.00 576.00 cl
0 0 0 srgb
0.75 setlinewidth
[] 0 setdash
1 setlinecap
1 setlinejoin
10.00 setmiterlimit
np
236.96 345.60 m
145.59 0 l
o
np
236.96 345.60 m
0 -5.76 l
o
np
266.08 345.60 m
0 -5.76 l
o
np
295.19 345.60 m
0 -5.76 l
o
np
324.31 345.60 m
0 -5.76 l
o
np
353.43 345.60 m
0 -5.76 l
o
np
382.55 345.60 m
0 -5.76 l
o
/Font1 findfont 10 s
236.96 329.47 (0) .5 0 t
266.08 329.47 (2000) .5 0 t
324.31 329.47 (6000) .5 0 t
382.55 329.47 (10000) .5 0 t
np
216.00 352.00 m
0 155.45 l
o
np
216.00 352.00 m
-5.76 0 l
o
np
216.00 377.91 m
-5.76 0 l
o
np
216.00 403.82 m
-5.76 0 l
o
np
216.00 429.72 m
-5.76 0 l
o
np
216.00 455.63 m
-5.76 0 l
o
np
216.00 481.54 m
-5.76 0 l
o
np
216.00 507.45 m
-5.76 0 l
o
209.09 348.41 (0.0) 1 0 t
209.09 374.32 (0.2) 1 0 t
209.09 400.23 (0.4) 1 0 t
209.09 426.13 (0.6) 1 0 t
209.09 452.04 (0.8) 1 0 t
209.09 477.95 (1.0) 1 0 t
209.09 503.86 (1.2) 1 0 t
np
216.00 345.60 m
172.80 0 l
0 172.80 l
-172.80 0 l
0 -172.80 l
o
0.00 0.00 432.00 576.00 cl
/Font1 findfont 10 s
0 0 0 srgb
302.40 313.34 (Zeit / ms \(total\)) .5 0 t
190.66 432.00 (U / V) .5 90 t
216.00 345.60 388.80 518.40 cl
0 0 0 srgb
0.38 setlinewidth
[ 1.12 1.88] 0 setdash
1 setlinecap
1 setlinejoin
10.00 setmiterlimit
np
223.42 345.60 m
0 172.80 l
o
np
235.07 345.60 m
0 172.80 l
o
np
239.58 345.60 m
0 172.80 l
o
np
313.97 345.60 m
0 172.80 l
o
86.40 57.60 388.80 288.00 cl
1 0 0 srgb
1.50 setlinewidth
[] 0 setdash
1 setlinecap
1 setlinejoin
10.00 setmiterlimit
np
97.60 279.47 m
1.41 -9.25 l
1.40 -8.84 l
1.41 -8.45 l
1.41 -8.09 l
1.41 -7.74 l
1.40 -7.40 l
1.41 -7.08 l
1.41 -6.76 l
1.40 -6.48 l
1.41 -6.19 l
1.41 -5.93 l
1.40 -5.66 l
1.41 -5.42 l
1.41 -5.18 l
1.41 -4.96 l
1.40 -4.74 l
1.41 -4.54 l
1.41 -4.34 l
1.40 -4.15 l
1.41 -3.97 l
1.41 -3.79 l
1.40 -3.63 l
1.41 -3.48 l
1.41 -3.32 l
1.41 -3.17 l
1.40 -3.04 l
1.41 -2.91 l
1.41 -2.78 l
1.40 -2.66 l
1.41 -2.54 l
1.41 -2.44 l
1.41 -2.32 l
1.40 -2.23 l
1.41 -2.13 l
1.41 -2.03 l
1.40 -1.95 l
1.41 -1.86 l
1.41 -1.78 l
1.40 -1.71 l
1.41 -1.63 l
1.41 -1.56 l
1.41 -1.49 l
1.40 -1.43 l
1.41 -1.36 l
1.41 -1.30 l
1.40 -1.25 l
1.41 -1.20 l
1.41 -1.14 l
1.40 -1.09 l
1.41 -1.04 l
1.41 -1.00 l
1.41 -0.96 l
1.40 -0.91 l
1.41 -0.88 l
1.41 -0.83 l
1.40 -0.80 l
1.41 -0.77 l
1.41 -0.73 l
1.41 -0.70 l
1.40 -0.67 l
1.41 -0.64 l
1.41 -0.61 l
1.40 -0.59 l
1.41 -0.56 l
1.41 -0.53 l
1.40 -0.52 l
1.41 -0.49 l
1.41 -0.47 l
1.41 -0.44 l
1.40 -0.43 l
1.41 -0.41 l
1.41 -0.40 l
1.40 -0.37 l
1.41 -0.36 l
1.41 -0.34 l
1.40 -0.33 l
1.41 -0.32 l
1.41 -0.30 l
1.41 -0.28 l
1.40 -0.28 l
1.41 -0.26 l
1.41 -0.25 l
1.40 -0.24 l
1.41 -0.23 l
1.41 -0.22 l
1.41 -0.21 l
1.40 -0.21 l
1.41 -0.19 l
1.41 -0.18 l
1.40 -0.18 l
1.41 -0.17 l
1.41 -0.16 l
1.40 -0.15 l
1.41 -0.15 l
1.41 -0.14 l
1.41 -0.14 l
1.40 -0.12 l
1.41 -0.13 l
1.41 -0.12 l
238.30 69.56 lineto
1.41 -0.11 l
1.41 -0.10 l
1.40 -0.10 l
1.41 -0.09 l
1.41 -0.09 l
1.41 -0.09 l
1.40 -0.08 l
1.41 -0.08 l
1.41 -0.08 l
1.40 -0.07 l
1.41 -0.07 l
1.41 -0.07 l
1.40 -0.06 l
1.41 -0.06 l
1.41 -0.06 l
1.41 -0.05 l
1.40 -0.06 l
1.41 -0.05 l
1.41 -0.05 l
1.40 -0.04 l
1.41 -0.05 l
1.41 -0.04 l
1.41 -0.04 l
1.40 -0.04 l
1.41 -0.03 l
1.41 -0.04 l
1.40 -0.03 l
1.41 -0.04 l
1.41 -0.03 l
1.40 -0.03 l
1.41 -0.03 l
1.41 -0.02 l
1.41 -0.03 l
1.40 -0.02 l
1.41 -0.03 l
1.41 -0.02 l
1.40 -0.02 l
1.41 -0.02 l
1.41 -0.02 l
1.40 -0.02 l
1.41 -0.02 l
1.41 -0.02 l
1.41 -0.01 l
1.40 -0.02 l
1.41 -0.02 l
1.41 -0.01 l
1.40 -0.01 l
1.41 -0.02 l
1.41 -0.01 l
1.41 -0.01 l
1.40 -0.01 l
1.41 -0.02 l
1.41 -0.01 l
1.40 -0.01 l
1.41 -0.01 l
1.41 -0.01 l
1.40 0 l
1.41 -0.01 l
1.41 -0.01 l
1.41 -0.01 l
1.40 -0.01 l
1.41 0 l
1.41 -0.01 l
1.40 -0.01 l
1.41 0 l
1.41 -0.01 l
1.40 0 l
1.41 -0.01 l
1.41 -0.01 l
1.41 0 l
1.40 -0.01 l
1.41 0 l
1.41 0 l
1.40 -0.01 l
1.41 0 l
1.41 -0.01 l
1.41 0 l
1.40 0 l
1.41 -0.01 l
1.41 0 l
1.40 0 l
1.41 -0.01 l
1.41 0 l
1.40 0 l
1.41 0 l
1.41 -0.01 l
1.41 0 l
1.40 0 l
1.41 0 l
1.41 -0.01 l
1.40 0 l
1.41 0 l
1.41 0 l
1.40 0 l
1.41 0 l
1.41 -0.01 l
1.41 0 l
1.40 0 l
1.41 0 l
o
0.00 0.00 432.00 576.00 cl
0 0 0 srgb
0.75 setlinewidth
[] 0 setdash
1 setlinecap
1 setlinejoin
10.00 setmiterlimit
np
97.60 57.60 m
280.00 0 l
o
np
97.60 57.60 m
0 -5.76 l
o
np
153.60 57.60 m
0 -5.76 l
o
np
209.60 57.60 m
0 -5.76 l
o
np
265.60 57.60 m
0 -5.76 l
o
np
321.60 57.60 m
0 -5.76 l
o
np
377.60 57.60 m
0 -5.76 l
o
/Font1 findfont 10 s
97.60 41.47 (0) .5 0 t
153.60 41.47 (2000) .5 0 t
209.60 41.47 (4000) .5 0 t
265.60 41.47 (6000) .5 0 t
321.60 41.47 (8000) .5 0 t
377.60 41.47 (10000) .5 0 t
np
86.40 66.13 m
0 180.55 l
o
np
86.40 66.13 m
-5.76 0 l
o
np
86.40 111.27 m
-5.76 0 l
o
np
86.40 156.41 m
-5.76 0 l
o
np
86.40 201.54 m
-5.76 0 l
o
np
86.40 246.68 m
-5.76 0 l
o
79.49 62.54 (0.0) 1 0 t
79.49 107.68 (0.1) 1 0 t
79.49 152.82 (0.2) 1 0 t
79.49 197.95 (0.3) 1 0 t
79.49 243.09 (0.4) 1 0 t
np
86.40 57.60 m
302.40 0 l
0 230.40 l
-302.40 0 l
0 -230.40 l
o
0.00 0.00 432.00 576.00 cl
/Font1 findfont 10 s
0 0 0 srgb
237.60 13.82 (Zeit / ms \(nach Puls\)) .5 0 t
49.54 172.80 (Absorbanz A) .5 90 t
86.40 57.60 388.80 288.00 cl
/bg { 1 1 1 srgb } def
0 0 0 srgb
0.75 setlinewidth
[] 0 setdash
1 setlinecap
1 setlinejoin
10.00 setmiterlimit
102.92 253.62 0.65 c p3
103.20 249.88 0.65 c p3
103.48 246.31 0.65 c p3
103.76 243.99 0.65 c p3
104.04 243.60 0.65 c p3
104.32 242.20 0.65 c p3
104.60 237.80 0.65 c p3
104.88 238.67 0.65 c p3
105.16 233.96 0.65 c p3
105.44 235.20 0.65 c p3
105.72 231.79 0.65 c p3
106.00 230.11 0.65 c p3
106.28 230.11 0.65 c p3
106.56 228.07 0.65 c p3
106.84 224.42 0.65 c p3
107.12 226.88 0.65 c p3
107.40 222.00 0.65 c p3
107.68 222.35 0.65 c p3
107.96 219.16 0.65 c p3
108.24 218.37 0.65 c p3
108.52 218.81 0.65 c p3
108.80 216.02 0.65 c p3
109.08 214.89 0.65 c p3
109.36 213.35 0.65 c p3
109.64 209.54 0.65 c p3
109.92 210.72 0.65 c p3
110.20 209.96 0.65 c p3
110.48 206.22 0.65 c p3
110.76 206.96 0.65 c p3
111.04 204.01 0.65 c p3
111.32 203.60 0.65 c p3
111.60 203.60 0.65 c p3
111.88 199.97 0.65 c p3
112.16 198.54 0.65 c p3
112.44 199.26 0.65 c p3
112.72 199.65 0.65 c p3
113.00 196.10 0.65 c p3
113.28 198.23 0.65 c p3
113.56 195.79 0.65 c p3
113.84 191.92 0.65 c p3
114.12 192.30 0.65 c p3
114.40 191.92 0.65 c p3
114.68 188.88 0.65 c p3
114.96 189.86 0.65 c p3
115.24 187.53 0.65 c p3
115.52 188.20 0.65 c p3
115.80 185.81 0.65 c p3
116.08 184.19 0.65 c p3
116.36 184.85 0.65 c p3
116.64 182.21 0.65 c p3
116.92 180.61 0.65 c p3
117.20 180.25 0.65 c p3
117.48 177.38 0.65 c p3
117.76 178.31 0.65 c p3
118.04 176.74 0.65 c p3
118.32 176.11 0.65 c p3
118.60 176.74 0.65 c p3
118.88 174.21 0.65 c p3
119.16 173.58 0.65 c p3
119.44 173.23 0.65 c p3
119.72 171.08 0.65 c p3
120.00 169.51 0.65 c p3
120.28 169.51 0.65 c p3
120.56 167.74 0.65 c p3
120.84 167.74 0.65 c p3
121.12 166.52 0.65 c p3
121.40 164.38 0.65 c p3
121.68 166.79 0.65 c p3
121.96 164.11 0.65 c p3
122.24 164.71 0.65 c p3
122.52 161.74 0.65 c p3
122.80 160.82 0.65 c p3
123.08 162.00 0.65 c p3
123.36 158.48 0.65 c p3
123.64 158.80 0.65 c p3
123.92 158.22 0.65 c p3
124.20 158.48 0.65 c p3
124.48 157.64 0.65 c p3
124.76 155.91 0.65 c p3
125.04 155.91 0.65 c p3
125.32 154.52 0.65 c p3
125.60 153.63 0.65 c p3
125.88 151.94 0.65 c p3
126.16 152.81 0.65 c p3
126.44 151.69 0.65 c p3
126.72 151.38 0.65 c p3
127.00 150.01 0.65 c p3
127.28 149.45 0.65 c p3
127.56 148.04 0.65 c p3
127.84 147.25 0.65 c p3
128.12 147.80 0.65 c p3
128.40 147.25 0.65 c p3
128.68 145.61 0.65 c p3
128.96 144.76 0.65 c p3
129.24 144.28 0.65 c p3
129.52 144.28 0.65 c p3
129.80 143.20 0.65 c p3
130.08 142.13 0.65 c p3
130.36 141.06 0.65 c p3
130.64 140.77 0.65 c p3
130.92 139.18 0.65 c p3
131.20 139.18 0.65 c p3
131.48 139.18 0.65 c p3
131.76 140.00 0.65 c p3
132.04 137.38 0.65 c p3
132.32 137.90 0.65 c p3
132.60 136.05 0.65 c p3
132.88 135.82 0.65 c p3
133.16 135.01 0.65 c p3
133.44 136.57 0.65 c p3
133.72 134.50 0.65 c p3
134.00 134.78 0.65 c p3
134.28 131.72 0.65 c p3
134.56 132.22 0.65 c p3
134.84 132.22 0.65 c p3
135.12 131.21 0.65 c p3
135.40 130.20 0.65 c p3
135.68 129.98 0.65 c p3
135.96 129.20 0.65 c p3
136.24 128.70 0.65 c p3
136.52 129.20 0.65 c p3
136.80 129.48 0.65 c p3
137.08 127.20 0.65 c p3
137.36 127.98 0.65 c p3
137.64 127.98 0.65 c p3
137.92 127.20 0.65 c p3
138.20 125.72 0.65 c p3
138.48 125.23 0.65 c p3
138.76 123.28 0.65 c p3
139.04 124.04 0.65 c p3
139.32 123.77 0.65 c p3
139.60 125.01 0.65 c p3
139.88 123.55 0.65 c p3
140.16 123.77 0.65 c p3
140.44 122.36 0.65 c p3
140.72 120.65 0.65 c p3
141.00 121.13 0.65 c p3
141.28 120.65 0.65 c p3
141.56 120.44 0.65 c p3
141.84 120.17 0.65 c p3
142.12 118.06 0.65 c p3
142.40 119.48 0.65 c p3
142.68 119.48 0.65 c p3
142.96 118.53 0.65 c p3
143.24 118.53 0.65 c p3
143.52 117.33 0.65 c p3
143.80 117.33 0.65 c p3
144.08 116.39 0.65 c p3
144.36 115.71 0.65 c p3
144.64 114.98 0.65 c p3
144.92 114.78 0.65 c p3
145.20 114.52 0.65 c p3
145.48 113.13 0.65 c p3
145.76 113.13 0.65 c p3
146.04 113.39 0.65 c p3
146.32 113.13 0.65 c p3
146.60 112.47 0.65 c p3
146.88 113.13 0.65 c p3
147.16 112.01 0.65 c p3
147.44 111.80 0.65 c p3
147.72 111.09 0.65 c p3
148.00 110.64 0.65 c p3
148.28 110.18 0.65 c p3
148.56 110.64 0.65 c p3
148.84 110.43 0.65 c p3
149.12 109.98 0.65 c p3
149.40 108.82 0.65 c p3
149.68 108.82 0.65 c p3
149.96 108.62 0.65 c p3
150.24 108.62 0.65 c p3
150.52 108.82 0.65 c p3
150.80 106.83 0.65 c p3
151.08 106.13 0.65 c p3
151.36 106.38 0.65 c p3
151.64 106.13 0.65 c p3
151.92 105.49 0.65 c p3
152.20 104.36 0.65 c p3
152.48 105.25 0.65 c p3
152.76 103.48 0.65 c p3
153.04 104.61 0.65 c p3
153.32 103.73 0.65 c p3
153.60 103.92 0.65 c p3
153.88 102.65 0.65 c p3
154.16 103.92 0.65 c p3
154.44 103.48 0.65 c p3
154.72 102.85 0.65 c p3
155.00 102.22 0.65 c p3
155.28 101.97 0.65 c p3
155.56 102.41 0.65 c p3
155.84 102.22 0.65 c p3
156.12 101.35 0.65 c p3
156.40 100.91 0.65 c p3
156.68 99.19 0.65 c p3
156.96 100.48 0.65 c p3
157.24 99.81 0.65 c p3
157.52 98.95 0.65 c p3
157.80 99.81 0.65 c p3
158.08 99.62 0.65 c p3
158.36 99.19 0.65 c p3
158.64 99.62 0.65 c p3
158.92 98.76 0.65 c p3
159.20 98.52 0.65 c p3
159.48 98.09 0.65 c p3
159.76 97.24 0.65 c p3
160.04 97.48 0.65 c p3
160.32 97.90 0.65 c p3
160.60 97.24 0.65 c p3
160.88 96.20 0.65 c p3
161.16 95.78 0.65 c p3
161.44 96.20 0.65 c p3
161.72 95.55 0.65 c p3
162.00 95.97 0.65 c p3
162.28 94.94 0.65 c p3
162.56 93.91 0.65 c p3
162.84 94.70 0.65 c p3
163.12 95.12 0.65 c p3
163.40 94.70 0.65 c p3
163.68 95.36 0.65 c p3
163.96 93.91 0.65 c p3
164.24 94.10 0.65 c p3
164.52 92.43 0.65 c p3
164.80 93.68 0.65 c p3
165.08 92.02 0.65 c p3
165.36 92.85 0.65 c p3
165.64 93.08 0.65 c p3
165.92 92.43 0.65 c p3
166.20 91.42 0.65 c p3
166.48 91.60 0.65 c p3
166.76 91.60 0.65 c p3
167.04 91.83 0.65 c p3
167.32 91.19 0.65 c p3
167.60 90.78 0.65 c p3
167.88 90.37 0.65 c p3
168.16 90.60 0.65 c p3
168.44 89.78 0.65 c p3
168.72 90.60 0.65 c p3
169.00 89.55 0.65 c p3
169.28 89.78 0.65 c p3
169.56 89.55 0.65 c p3
169.84 89.78 0.65 c p3
170.12 88.55 0.65 c p3
170.40 89.14 0.65 c p3
170.68 88.32 0.65 c p3
170.96 89.14 0.65 c p3
171.24 86.93 0.65 c p3
171.52 89.55 0.65 c p3
171.80 88.14 0.65 c p3
172.08 87.92 0.65 c p3
172.36 88.55 0.65 c p3
172.64 88.14 0.65 c p3
172.92 86.30 0.65 c p3
173.20 87.11 0.65 c p3
173.48 87.11 0.65 c p3
173.76 88.14 0.65 c p3
174.04 85.90 0.65 c p3
174.32 87.11 0.65 c p3
174.60 85.14 0.65 c p3
174.88 85.72 0.65 c p3
175.16 86.12 0.65 c p3
175.44 86.30 0.65 c p3
175.72 86.12 0.65 c p3
176.00 85.72 0.65 c p3
176.28 85.90 0.65 c p3
176.56 85.32 0.65 c p3
176.84 84.92 0.65 c p3
177.12 84.35 0.65 c p3
177.40 83.73 0.65 c p3
177.68 83.95 0.65 c p3
177.96 83.55 0.65 c p3
178.24 84.52 0.65 c p3
178.52 83.55 0.65 c p3
178.80 83.55 0.65 c p3
179.08 83.33 0.65 c p3
179.36 83.95 0.65 c p3
179.64 83.73 0.65 c p3
179.92 83.95 0.65 c p3
180.20 82.54 0.65 c p3
180.48 83.33 0.65 c p3
180.76 81.75 0.65 c p3
181.04 82.37 0.65 c p3
181.32 82.15 0.65 c p3
181.60 82.94 0.65 c p3
181.88 81.97 0.65 c p3
182.16 82.37 0.65 c p3
182.44 81.19 0.65 c p3
182.72 81.58 0.65 c p3
183.00 81.75 0.65 c p3
183.28 82.15 0.65 c p3
183.56 81.19 0.65 c p3
183.84 81.19 0.65 c p3
184.12 80.97 0.65 c p3
184.40 82.15 0.65 c p3
184.68 80.01 0.65 c p3
184.96 79.62 0.65 c p3
185.24 80.58 0.65 c p3
185.52 80.19 0.65 c p3
185.80 80.58 0.65 c p3
186.08 80.19 0.65 c p3
186.36 79.80 0.65 c p3
186.64 80.40 0.65 c p3
186.92 78.85 0.65 c p3
187.20 79.80 0.65 c p3
187.48 79.24 0.65 c p3
187.76 79.41 0.65 c p3
188.04 79.80 0.65 c p3
188.32 78.85 0.65 c p3
188.60 79.02 0.65 c p3
188.88 79.24 0.65 c p3
189.16 79.02 0.65 c p3
189.44 79.80 0.65 c p3
189.72 78.85 0.65 c p3
190.00 77.86 0.65 c p3
190.28 78.08 0.65 c p3
190.56 78.46 0.65 c p3
190.84 77.69 0.65 c p3
191.12 78.85 0.65 c p3
191.40 78.46 0.65 c p3
191.68 77.69 0.65 c p3
191.96 77.31 0.65 c p3
192.24 78.46 0.65 c p3
192.52 77.48 0.65 c p3
192.80 78.85 0.65 c p3
193.08 76.37 0.65 c p3
193.36 77.31 0.65 c p3
193.64 78.46 0.65 c p3
193.92 77.48 0.65 c p3
194.20 77.14 0.65 c p3
194.48 77.69 0.65 c p3
194.76 77.14 0.65 c p3
195.04 76.75 0.65 c p3
195.32 77.14 0.65 c p3
195.60 76.37 0.65 c p3
195.88 76.54 0.65 c p3
196.16 76.54 0.65 c p3
196.44 76.92 0.65 c p3
196.72 76.54 0.65 c p3
197.00 76.16 0.65 c p3
197.28 76.16 0.65 c p3
197.56 76.37 0.65 c p3
197.84 75.39 0.65 c p3
198.12 76.16 0.65 c p3
198.40 75.23 0.65 c p3
198.68 75.39 0.65 c p3
198.96 75.39 0.65 c p3
199.24 75.78 0.65 c p3
199.52 75.61 0.65 c p3
199.80 75.23 0.65 c p3
200.08 75.39 0.65 c p3
200.36 74.85 0.65 c p3
200.64 75.99 0.65 c p3
200.92 75.01 0.65 c p3
201.20 74.09 0.65 c p3
201.48 74.09 0.65 c p3
201.76 75.23 0.65 c p3
202.04 75.23 0.65 c p3
202.32 74.64 0.65 c p3
202.60 76.54 0.65 c p3
202.88 74.64 0.65 c p3
203.16 74.26 0.65 c p3
203.44 75.23 0.65 c p3
203.72 74.26 0.65 c p3
204.00 75.01 0.65 c p3
204.28 73.88 0.65 c p3
204.56 74.26 0.65 c p3
204.84 73.71 0.65 c p3
205.12 73.88 0.65 c p3
205.40 73.12 0.65 c p3
205.68 74.64 0.65 c p3
205.96 73.71 0.65 c p3
206.24 73.88 0.65 c p3
206.52 74.64 0.65 c p3
206.80 73.50 0.65 c p3
207.08 73.71 0.65 c p3
207.36 74.47 0.65 c p3
207.64 73.50 0.65 c p3
207.92 73.71 0.65 c p3
208.20 73.33 0.65 c p3
208.48 74.47 0.65 c p3
208.76 72.58 0.65 c p3
209.04 73.12 0.65 c p3
209.32 73.12 0.65 c p3
209.60 73.50 0.65 c p3
209.88 72.75 0.65 c p3
210.16 73.33 0.65 c p3
210.44 72.96 0.65 c p3
210.72 73.33 0.65 c p3
211.00 72.96 0.65 c p3
211.28 72.21 0.65 c p3
211.56 72.37 0.65 c p3
211.84 72.21 0.65 c p3
212.12 72.58 0.65 c p3
212.40 73.33 0.65 c p3
212.68 72.75 0.65 c p3
212.96 72.00 0.65 c p3
213.24 71.63 0.65 c p3
213.52 72.58 0.65 c p3
213.80 72.58 0.65 c p3
214.08 72.75 0.65 c p3
214.36 72.96 0.65 c p3
214.64 72.21 0.65 c p3
214.92 72.21 0.65 c p3
215.20 72.37 0.65 c p3
215.48 71.83 0.65 c p3
215.76 72.00 0.65 c p3
216.04 72.37 0.65 c p3
216.32 72.58 0.65 c p3
216.60 72.00 0.65 c p3
216.88 71.46 0.65 c p3
217.16 70.34 0.65 c p3
217.44 72.37 0.65 c p3
217.72 71.83 0.65 c p3
218.00 72.21 0.65 c p3
218.28 71.83 0.65 c p3
218.56 71.46 0.65 c p3
218.84 70.88 0.65 c p3
219.12 72.00 0.65 c p3
219.40 72.00 0.65 c p3
219.68 71.63 0.65 c p3
219.96 71.63 0.65 c p3
220.24 70.88 0.65 c p3
220.52 72.21 0.65 c p3
220.80 71.46 0.65 c p3
221.08 70.72 0.65 c p3
221.36 70.51 0.65 c p3
221.64 70.72 0.65 c p3
221.92 71.25 0.65 c p3
222.20 70.72 0.65 c p3
222.48 71.46 0.65 c p3
222.76 70.72 0.65 c p3
223.04 71.46 0.65 c p3
223.32 70.14 0.65 c p3
223.60 70.51 0.65 c p3
223.88 71.46 0.65 c p3
224.16 71.09 0.65 c p3
224.44 71.25 0.65 c p3
224.72 70.14 0.65 c p3
225.00 70.88 0.65 c p3
225.28 69.97 0.65 c p3
225.56 70.88 0.65 c p3
225.84 71.09 0.65 c p3
226.12 70.88 0.65 c p3
226.40 71.09 0.65 c p3
226.68 69.60 0.65 c p3
226.96 70.51 0.65 c p3
227.24 69.40 0.65 c p3
227.52 70.34 0.65 c p3
227.80 70.72 0.65 c p3
228.08 69.77 0.65 c p3
228.36 70.51 0.65 c p3
228.64 69.97 0.65 c p3
228.92 69.77 0.65 c p3
229.20 70.51 0.65 c p3
229.48 69.07 0.65 c p3
229.76 69.97 0.65 c p3
230.04 69.40 0.65 c p3
230.32 70.34 0.65 c p3
230.60 69.24 0.65 c p3
230.88 70.51 0.65 c p3
231.16 69.77 0.65 c p3
231.44 70.34 0.65 c p3
231.72 70.72 0.65 c p3
232.00 70.72 0.65 c p3
232.28 68.70 0.65 c p3
232.56 70.34 0.65 c p3
232.84 69.24 0.65 c p3
233.12 70.34 0.65 c p3
233.40 69.60 0.65 c p3
233.68 68.70 0.65 c p3
233.96 68.50 0.65 c p3
234.24 68.87 0.65 c p3
234.52 68.50 0.65 c p3
234.80 70.34 0.65 c p3
235.08 68.70 0.65 c p3
235.36 69.24 0.65 c p3
235.64 69.24 0.65 c p3
235.92 69.97 0.65 c p3
236.20 69.07 0.65 c p3
236.48 68.87 0.65 c p3
236.76 69.07 0.65 c p3
237.04 69.40 0.65 c p3
237.32 68.34 0.65 c p3
237.60 68.70 0.65 c p3
237.88 68.70 0.65 c p3
238.16 69.40 0.65 c p3
238.44 68.50 0.65 c p3
238.72 69.24 0.65 c p3
239.00 68.87 0.65 c p3
239.28 69.24 0.65 c p3
239.56 68.50 0.65 c p3
239.84 68.34 0.65 c p3
240.12 68.34 0.65 c p3
240.40 68.70 0.65 c p3
240.68 68.70 0.65 c p3
240.96 69.07 0.65 c p3
241.24 69.07 0.65 c p3
241.52 69.07 0.65 c p3
241.80 67.97 0.65 c p3
242.08 68.50 0.65 c p3
242.36 68.34 0.65 c p3
242.64 68.34 0.65 c p3
242.92 68.70 0.65 c p3
243.20 67.40 0.65 c p3
243.48 67.77 0.65 c p3
243.76 69.24 0.65 c p3
244.04 67.60 0.65 c p3
244.32 68.34 0.65 c p3
244.60 68.70 0.65 c p3
244.88 67.97 0.65 c p3
245.16 68.34 0.65 c p3
245.44 68.87 0.65 c p3
245.72 68.70 0.65 c p3
246.00 68.13 0.65 c p3
216.00 201.60 367.20 247.68 cl
0 0 0 srgb
0.75 setlinewidth
[] 0 setdash
1 setlinecap
1 setlinejoin
10.00 setmiterlimit
221.60 238.86 0.43 c p1
221.87 234.50 0.43 c p1
222.15 230.46 0.43 c p1
222.42 228.93 0.43 c p1
222.70 231.23 0.43 c p1
222.97 231.51 0.43 c p1
223.24 225.67 0.43 c p1
223.52 230.46 0.43 c p1
223.79 223.96 0.43 c p1
224.07 229.44 0.43 c p1
224.34 225.50 0.43 c p1
224.61 225.03 0.43 c p1
224.89 227.93 0.43 c p1
225.16 226.69 0.43 c p1
225.44 222.16 0.43 c p1
225.71 229.95 0.43 c p1
225.98 222.88 0.43 c p1
226.26 226.38 0.43 c p1
226.53 222.68 0.43 c p1
226.81 223.80 0.43 c p1
227.08 227.39 0.43 c p1
227.35 224.43 0.43 c p1
227.63 224.82 0.43 c p1
227.90 224.33 0.43 c p1
228.18 219.24 0.43 c p1
228.45 224.21 0.43 c p1
228.72 225.24 0.43 c p1
229.00 220.21 0.43 c p1
229.27 224.23 0.43 c p1
229.55 220.76 0.43 c p1
229.82 222.41 0.43 c p1
230.09 224.86 0.43 c p1
230.37 219.96 0.43 c p1
230.64 219.48 0.43 c p1
230.92 223.31 0.43 c p1
231.19 226.48 0.43 c p1
231.46 221.65 0.43 c p1
231.74 228.26 0.43 c p1
232.01 225.64 0.43 c p1
232.28 220.11 0.43 c p1
232.56 223.15 0.43 c p1
232.83 224.62 0.43 c p1
233.11 220.70 0.43 c p1
233.38 224.89 0.43 c p1
233.65 222.36 0.43 c p1
233.93 225.89 0.43 c p1
234.20 223.20 0.43 c p1
234.48 222.04 0.43 c p1
234.75 225.49 0.43 c p1
235.02 222.25 0.43 c p1
235.30 221.09 0.43 c p1
235.57 222.41 0.43 c p1
235.85 218.66 0.43 c p1
236.12 222.55 0.43 c p1
236.39 221.38 0.43 c p1
236.67 222.08 0.43 c p1
236.94 225.33 0.43 c p1
237.22 222.15 0.43 c p1
237.49 222.81 0.43 c p1
237.76 224.02 0.43 c p1
238.04 221.58 0.43 c p1
238.31 220.27 0.43 c p1
238.59 222.14 0.43 c p1
238.86 220.41 0.43 c p1
239.13 222.24 0.43 c p1
239.41 221.60 0.43 c p1
239.68 219.07 0.43 c p1
239.96 225.72 0.43 c p1
240.23 222.08 0.43 c p1
240.50 225.04 0.43 c p1
240.78 220.76 0.43 c p1
241.05 220.63 0.43 c p1
241.33 224.72 0.43 c p1
241.60 219.30 0.43 c p1
241.87 221.63 0.43 c p1
242.15 222.11 0.43 c p1
242.42 224.28 0.43 c p1
242.70 224.22 0.43 c p1
242.97 222.34 0.43 c p1
243.24 223.94 0.43 c p1
243.52 222.71 0.43 c p1
243.79 222.50 0.43 c p1
244.07 220.63 0.43 c p1
244.34 223.95 0.43 c p1
244.61 223.21 0.43 c p1
244.89 224.10 0.43 c p1
245.16 222.85 0.43 c p1
245.44 223.22 0.43 c p1
245.71 221.84 0.43 c p1
245.98 221.70 0.43 c p1
246.26 224.27 0.43 c p1
246.53 224.60 0.43 c p1
246.81 222.71 0.43 c p1
247.08 222.42 0.43 c p1
247.35 222.85 0.43 c p1
247.63 224.24 0.43 c p1
247.90 223.44 0.43 c p1
248.18 222.64 0.43 c p1
248.45 221.84 0.43 c p1
248.72 222.59 0.43 c p1
249.00 220.71 0.43 c p1
249.27 222.03 0.43 c p1
249.55 223.34 0.43 c p1
249.82 226.29 0.43 c p1
250.09 222.27 0.43 c p1
250.37 224.60 0.43 c p1
250.64 222.12 0.43 c p1
250.92 222.90 0.43 c p1
251.19 222.52 0.43 c p1
251.46 226.88 0.43 c p1
251.74 223.92 0.43 c p1
252.01 225.71 0.43 c p1
252.28 220.71 0.43 c p1
252.56 222.92 0.43 c p1
252.83 224.10 0.43 c p1
253.11 223.21 0.43 c p1
253.38 222.33 0.43 c p1
253.65 223.02 0.43 c p1
253.93 222.58 0.43 c p1
254.20 222.70 0.43 c p1
254.48 224.82 0.43 c p1
254.75 226.49 0.43 c p1
255.02 222.99 0.43 c p1
255.30 225.64 0.43 c p1
255.57 226.72 0.43 c p1
255.85 226.22 0.43 c p1
256.12 224.29 0.43 c p1
256.39 224.34 0.43 c p1
256.67 221.44 0.43 c p1
256.94 223.99 0.43 c p1
257.22 224.47 0.43 c p1
257.49 228.00 0.43 c p1
257.76 226.04 0.43 c p1
258.04 227.47 0.43 c p1
258.31 225.63 0.43 c p1
258.59 223.14 0.43 c p1
258.86 225.08 0.43 c p1
259.13 225.07 0.43 c p1
259.41 225.59 0.43 c p1
259.68 226.00 0.43 c p1
259.96 222.66 0.43 c p1
260.23 226.46 0.43 c p1
260.50 227.38 0.43 c p1
260.78 226.37 0.43 c p1
261.05 227.27 0.43 c p1
261.33 225.72 0.43 c p1
261.60 226.61 0.43 c p1
261.87 225.59 0.43 c p1
262.15 225.09 0.43 c p1
262.42 224.49 0.43 c p1
262.70 224.92 0.43 c p1
262.97 225.25 0.43 c p1
263.24 223.28 0.43 c p1
263.52 224.11 0.43 c p1
263.79 225.46 0.43 c p1
264.07 225.76 0.43 c p1
264.34 225.22 0.43 c p1
264.61 227.37 0.43 c p1
264.89 225.90 0.43 c p1
265.16 226.27 0.43 c p1
265.44 225.62 0.43 c p1
265.71 225.47 0.43 c p1
265.98 225.32 0.43 c p1
266.26 227.00 0.43 c p1
266.53 227.35 0.43 c p1
266.81 227.18 0.43 c p1
267.08 225.58 0.43 c p1
267.35 226.32 0.43 c p1
267.63 226.64 0.43 c p1
267.90 227.36 0.43 c p1
268.18 228.49 0.43 c p1
268.45 225.16 0.43 c p1
268.72 224.47 0.43 c p1
269.00 225.66 0.43 c p1
269.27 225.85 0.43 c p1
269.55 225.24 0.43 c p1
269.82 223.64 0.43 c p1
270.09 226.10 0.43 c p1
270.37 223.20 0.43 c p1
270.64 226.13 0.43 c p1
270.92 225.01 0.43 c p1
271.19 226.05 0.43 c p1
271.46 224.14 0.43 c p1
271.74 227.33 0.43 c p1
272.01 227.08 0.43 c p1
272.28 226.43 0.43 c p1
272.56 225.77 0.43 c p1
272.83 225.90 0.43 c p1
273.11 227.39 0.43 c p1
273.38 227.60 0.43 c p1
273.65 226.45 0.43 c p1
273.93 226.16 0.43 c p1
274.20 223.27 0.43 c p1
274.48 226.46 0.43 c p1
274.75 225.68 0.43 c p1
275.02 224.52 0.43 c p1
275.30 226.83 0.43 c p1
275.57 227.00 0.43 c p1
275.85 226.69 0.43 c p1
276.12 228.12 0.43 c p1
276.39 226.93 0.43 c p1
276.67 226.99 0.43 c p1
276.94 226.67 0.43 c p1
277.22 225.48 0.43 c p1
277.49 226.49 0.43 c p1
277.76 227.87 0.43 c p1
278.04 227.05 0.43 c p1
278.31 225.48 0.43 c p1
278.59 225.13 0.43 c p1
278.86 226.49 0.43 c p1
279.13 225.67 0.43 c p1
279.41 227.02 0.43 c p1
279.68 225.43 0.43 c p1
279.96 223.85 0.43 c p1
280.23 225.93 0.43 c p1
280.50 227.26 0.43 c p1
280.78 226.89 0.43 c p1
281.05 228.68 0.43 c p1
281.33 226.23 0.43 c p1
281.60 227.07 0.43 c p1
281.87 224.16 0.43 c p1
282.15 227.14 0.43 c p1
282.42 224.23 0.43 c p1
282.70 226.36 0.43 c p1
282.97 227.27 0.43 c p1
283.24 226.40 0.43 c p1
283.52 224.79 0.43 c p1
283.79 225.60 0.43 c p1
284.07 226.03 0.43 c p1
284.34 226.91 0.43 c p1
284.61 226.04 0.43 c p1
284.89 225.62 0.43 c p1
285.16 225.20 0.43 c p1
285.44 226.08 0.43 c p1
285.71 224.82 0.43 c p1
285.98 226.88 0.43 c p1
286.26 225.17 0.43 c p1
286.53 226.02 0.43 c p1
286.81 225.95 0.43 c p1
287.08 226.80 0.43 c p1
287.35 224.71 0.43 c p1
287.63 226.28 0.43 c p1
287.90 225.02 0.43 c p1
288.18 227.04 0.43 c p1
288.45 222.95 0.43 c p1
288.72 228.60 0.43 c p1
289.00 226.13 0.43 c p1
289.27 226.04 0.43 c p1
289.55 227.67 0.43 c p1
289.82 227.21 0.43 c p1
290.09 223.84 0.43 c p1
290.37 225.82 0.43 c p1
290.64 226.17 0.43 c p1
290.92 228.60 0.43 c p1
291.19 224.41 0.43 c p1
291.46 227.19 0.43 c p1
291.74 223.55 0.43 c p1
292.01 225.05 0.43 c p1
292.28 226.19 0.43 c p1
292.56 226.88 0.43 c p1
292.83 226.84 0.43 c p1
293.11 226.35 0.43 c p1
293.38 227.03 0.43 c p1
293.65 226.17 0.43 c p1
293.93 225.67 0.43 c p1
294.20 224.82 0.43 c p1
294.48 223.88 0.43 c p1
294.75 224.62 0.43 c p1
295.02 224.12 0.43 c p1
295.30 226.38 0.43 c p1
295.57 224.72 0.43 c p1
295.85 225.01 0.43 c p1
296.12 224.85 0.43 c p1
296.39 226.39 0.43 c p1
296.67 226.23 0.43 c p1
296.94 226.96 0.43 c p1
297.22 224.39 0.43 c p1
297.49 226.27 0.43 c p1
297.76 223.35 0.43 c p1
298.04 224.86 0.43 c p1
298.31 224.69 0.43 c p1
298.59 226.55 0.43 c p1
298.86 224.87 0.43 c p1
299.13 225.93 0.43 c p1
299.41 223.81 0.43 c p1
299.68 224.86 0.43 c p1
299.96 225.47 0.43 c p1
300.23 226.52 0.43 c p1
300.50 224.83 0.43 c p1
300.78 225.08 0.43 c p1
301.05 224.89 0.43 c p1
301.33 227.51 0.43 c p1
301.60 223.45 0.43 c p1
301.87 222.90 0.43 c p1
302.15 225.06 0.43 c p1
302.42 224.51 0.43 c p1
302.70 225.54 0.43 c p1
302.97 224.98 0.43 c p1
303.24 224.42 0.43 c p1
303.52 225.88 0.43 c p1
303.79 222.96 0.43 c p1
304.07 225.10 0.43 c p1
304.34 224.19 0.43 c p1
304.61 224.76 0.43 c p1
304.89 225.76 0.43 c p1
305.16 224.06 0.43 c p1
305.44 224.63 0.43 c p1
305.71 225.27 0.43 c p1
305.98 225.05 0.43 c p1
306.26 226.83 0.43 c p1
306.53 225.12 0.43 c p1
306.81 223.33 0.43 c p1
307.08 223.97 0.43 c p1
307.35 224.95 0.43 c p1
307.63 223.59 0.43 c p1
307.90 226.13 0.43 c p1
308.18 225.54 0.43 c p1
308.45 224.18 0.43 c p1
308.72 223.59 0.43 c p1
309.00 226.12 0.43 c p1
309.27 224.32 0.43 c p1
309.55 227.28 0.43 c p1
309.82 222.46 0.43 c p1
310.09 224.53 0.43 c p1
310.37 227.05 0.43 c p1
310.64 225.24 0.43 c p1
310.92 224.73 0.43 c p1
311.19 226.03 0.43 c p1
311.46 225.09 0.43 c p1
311.74 224.49 0.43 c p1
312.01 225.44 0.43 c p1
312.28 224.06 0.43 c p1
312.56 224.58 0.43 c p1
312.83 224.74 0.43 c p1
313.11 225.69 0.43 c p1
313.38 225.08 0.43 c p1
313.65 224.47 0.43 c p1
313.93 224.63 0.43 c p1
314.20 225.22 0.43 c p1
314.48 223.42 0.43 c p1
314.75 225.11 0.43 c p1
315.02 223.39 0.43 c p1
315.30 223.89 0.43 c p1
315.57 224.04 0.43 c p1
315.85 224.97 0.43 c p1
316.12 224.78 0.43 c p1
316.39 224.16 0.43 c p1
316.67 224.65 0.43 c p1
316.94 223.69 0.43 c p1
317.22 226.14 0.43 c p1
317.49 224.32 0.43 c p1
317.76 222.59 0.43 c p1
318.04 222.74 0.43 c p1
318.31 225.18 0.43 c p1
318.59 225.32 0.43 c p1
318.86 224.26 0.43 c p1
319.13 228.25 0.43 c p1
319.41 224.54 0.43 c p1
319.68 223.91 0.43 c p1
319.96 226.00 0.43 c p1
320.23 224.17 0.43 c p1
320.50 225.84 0.43 c p1
320.78 223.67 0.43 c p1
321.05 224.57 0.43 c p1
321.33 223.59 0.43 c p1
321.60 224.06 0.43 c p1
321.87 222.66 0.43 c p1
322.15 225.84 0.43 c p1
322.42 224.10 0.43 c p1
322.70 224.56 0.43 c p1
322.97 226.21 0.43 c p1
323.24 224.04 0.43 c p1
323.52 224.58 0.43 c p1
323.79 226.23 0.43 c p1
324.07 224.39 0.43 c p1
324.34 224.93 0.43 c p1
324.61 224.29 0.43 c p1
324.89 226.69 0.43 c p1
325.16 223.00 0.43 c p1
325.44 224.21 0.43 c p1
325.71 224.32 0.43 c p1
325.98 225.19 0.43 c p1
326.26 223.78 0.43 c p1
326.53 225.07 0.43 c p1
326.81 224.42 0.43 c p1
327.08 225.28 0.43 c p1
327.35 224.63 0.43 c p1
327.63 223.22 0.43 c p1
327.90 223.66 0.43 c p1
328.18 223.42 0.43 c p1
328.45 224.28 0.43 c p1
328.72 225.90 0.43 c p1
329.00 224.82 0.43 c p1
329.27 223.41 0.43 c p1
329.55 222.75 0.43 c p1
329.82 224.78 0.43 c p1
330.09 224.88 0.43 c p1
330.37 225.31 0.43 c p1
330.64 225.83 0.43 c p1
330.92 224.41 0.43 c p1
331.19 224.50 0.43 c p1
331.46 224.93 0.43 c p1
331.74 223.93 0.43 c p1
332.01 224.35 0.43 c p1
332.28 225.20 0.43 c p1
332.56 225.71 0.43 c p1
332.83 224.62 0.43 c p1
333.11 223.62 0.43 c p1
333.38 221.45 0.43 c p1
333.65 225.64 0.43 c p1
333.93 224.63 0.43 c p1
334.20 225.47 0.43 c p1
334.48 224.80 0.43 c p1
334.75 224.13 0.43 c p1
335.02 223.04 0.43 c p1
335.30 225.39 0.43 c p1
335.57 225.47 0.43 c p1
335.85 224.79 0.43 c p1
336.12 224.87 0.43 c p1
336.39 223.45 0.43 c p1
336.67 226.20 0.43 c p1
336.94 224.77 0.43 c p1
337.22 223.34 0.43 c p1
337.49 223.00 0.43 c p1
337.76 223.50 0.43 c p1
338.04 224.66 0.43 c p1
338.31 223.65 0.43 c p1
338.59 225.22 0.43 c p1
338.86 223.79 0.43 c p1
339.13 225.37 0.43 c p1
339.41 222.77 0.43 c p1
339.68 223.59 0.43 c p1
339.96 225.58 0.43 c p1
340.23 224.90 0.43 c p1
340.50 225.30 0.43 c p1
340.78 223.12 0.43 c p1
341.05 224.69 0.43 c p1
341.33 222.92 0.43 c p1
341.60 224.82 0.43 c p1
341.87 225.30 0.43 c p1
342.15 224.95 0.43 c p1
342.42 225.43 0.43 c p1
342.70 222.50 0.43 c p1
342.97 224.39 0.43 c p1
343.24 222.21 0.43 c p1
343.52 224.19 0.43 c p1
343.79 225.00 0.43 c p1
344.07 223.15 0.43 c p1
344.34 224.70 0.43 c p1
344.61 223.68 0.43 c p1
344.89 223.33 0.43 c p1
345.16 224.88 0.43 c p1
345.44 222.04 0.43 c p1
345.71 223.92 0.43 c p1
345.98 222.82 0.43 c p1
346.26 224.78 0.43 c p1
346.53 222.60 0.43 c p1
346.81 225.23 0.43 c p1
347.08 223.79 0.43 c p1
347.35 225.01 0.43 c p1
347.63 225.81 0.43 c p1
347.90 225.87 0.43 c p1
348.18 221.86 0.43 c p1
348.45 225.23 0.43 c p1
348.72 223.04 0.43 c p1
349.00 225.33 0.43 c p1
349.27 223.89 0.43 c p1
349.55 222.12 0.43 c p1
349.82 221.76 0.43 c p1
350.09 222.55 0.43 c p1
350.37 221.86 0.43 c p1
350.64 225.64 0.43 c p1
350.92 222.37 0.43 c p1
351.19 223.49 0.43 c p1
351.46 223.54 0.43 c p1
351.74 225.08 0.43 c p1
352.01 223.31 0.43 c p1
352.28 222.94 0.43 c p1
352.56 223.40 0.43 c p1
352.83 224.11 0.43 c p1
353.11 222.01 0.43 c p1
353.38 222.80 0.43 c p1
353.65 222.84 0.43 c p1
353.93 224.29 0.43 c p1
354.20 222.52 0.43 c p1
354.48 224.05 0.43 c p1
354.75 223.35 0.43 c p1
355.02 224.14 0.43 c p1
355.30 222.69 0.43 c p1
355.57 222.40 0.43 c p1
355.85 222.45 0.43 c p1
356.12 223.23 0.43 c p1
356.39 223.27 0.43 c p1
356.67 224.06 0.43 c p1
356.94 224.10 0.43 c p1
357.22 224.14 0.43 c p1
357.49 221.95 0.43 c p1
357.76 223.06 0.43 c p1
358.04 222.77 0.43 c p1
358.31 222.81 0.43 c p1
358.59 223.59 0.43 c p1
358.86 221.00 0.43 c p1
359.13 221.77 0.43 c p1
359.41 224.78 0.43 c p1
359.68 221.52 0.43 c p1
359.96 223.04 0.43 c p1
360.23 223.81 0.43 c p1
360.50 222.37 0.43 c p1
360.78 223.14 0.43 c p1
361.05 224.25 0.43 c p1
361.33 223.96 0.43 c p1
361.60 222.84 0.43 c p1
0.00 0.00 432.00 576.00 cl
0 0 0 srgb
0.75 setlinewidth
[] 0 setdash
1 setlinecap
1 setlinejoin
10.00 setmiterlimit
np
216.39 201.60 m
136.99 0 l
o
np
216.39 201.60 m
0 -5.76 l
o
np
243.79 201.60 m
0 -5.76 l
o
np
271.19 201.60 m
0 -5.76 l
o
np
298.59 201.60 m
0 -5.76 l
o
np
325.98 201.60 m
0 -5.76 l
o
np
353.38 201.60 m
0 -5.76 l
o
/Font1 findfont 6 s
216.39 185.47 (0) .5 0 t
243.79 185.47 (1000) .5 0 t
271.19 185.47 (2000) .5 0 t
298.59 185.47 (3000) .5 0 t
325.98 185.47 (4000) .5 0 t
353.38 185.47 (5000) .5 0 t
np
216.00 206.40 m
0 36.48 l
o
np
216.00 206.40 m
-5.76 0 l
o
np
216.00 215.52 m
-5.76 0 l
o
np
216.00 224.64 m
-5.76 0 l
o
np
216.00 233.76 m
-5.76 0 l
o
np
216.00 242.88 m
-5.76 0 l
o
209.09 204.25 (-0.02) 1 0 t
209.09 213.37 (-0.01) 1 0 t
209.09 222.49 (0.00) 1 0 t
209.09 231.60 (0.01) 1 0 t
209.09 240.72 (0.02) 1 0 t
np
216.00 201.60 m
151.20 0 l
0 46.08 l
-151.20 0 l
0 -46.08 l
o
0.00 0.00 432.00 576.00 cl
/Font1 findfont 9 s
0 0 0 srgb
291.60 262.88 (Residuen) .5 0 t
59.04 73.44 401.76 516.96 cl
ep
%%Trailer
%%Pages: 1
%%EOF
