%!PS-Adobe-3.0 EPSF-3.0
%%DocumentNeededResources: font Helvetica
%%+ font Helvetica-Bold
%%+ font Helvetica-Oblique
%%+ font Helvetica-BoldOblique
%%+ font Symbol
%%Title: R Graphics Output
%%Creator: R Software
%%Pages: (atend)
%%BoundingBox: 0 0 432 576
%%EndComments
%%BeginProlog
/bp  { gs sRGB gs } def
% begin .ps.prolog
/gs  { gsave } bind def
/gr  { grestore } bind def
/ep  { showpage gr gr } bind def
/m   { moveto } bind def
/l  { rlineto } bind def
/np  { newpath } bind def
/cp  { closepath } bind def
/f   { fill } bind def
/o   { stroke } bind def
/c   { newpath 0 360 arc } bind def
/r   { 4 2 roll moveto 1 copy 3 -1 roll exch 0 exch rlineto 0 rlineto -1 mul 0 exch rlineto closepath } bind def
/p1  { stroke } bind def
/p2  { gsave bg fill grestore newpath } bind def
/p3  { gsave bg fill grestore stroke } bind def
/p6  { gsave bg eofill grestore newpath } bind def
/p7  { gsave bg eofill grestore stroke } bind def
/t   { 5 -2 roll moveto gsave rotate
       1 index stringwidth pop
       mul neg 0 rmoveto show grestore } bind def
/ta  { 4 -2 roll moveto gsave rotate show } bind def
/tb  { 2 -1 roll 0 rmoveto show } bind def
/cl  { grestore gsave newpath 3 index 3 index moveto 1 index
       4 -1 roll lineto  exch 1 index lineto lineto
       closepath clip newpath } bind def
/rgb { setrgbcolor } bind def
/s   { scalefont setfont } bind def
% end   .ps.prolog
/sRGB { [ /CIEBasedABC
          << /DecodeLMN
               [ { dup 0.03928 le
                        {12.92321 div}
                        {0.055 add 1.055 div 2.4 exp }
                     ifelse
                 } bind dup dup
               ]
             /MatrixLMN [0.412457 0.212673 0.019334
                         0.357576 0.715152 0.119192
                         0.180437 0.072175 0.950301]
             /WhitePoint [0.9505 1.0 1.0890]
           >>
         ] setcolorspace } bind def
/srgb { setcolor } bind def
%%IncludeResource: font Helvetica
/Helvetica findfont
dup length dict begin
  {1 index /FID ne {def} {pop pop} ifelse} forall
  /Encoding ISOLatin1Encoding def
  currentdict
  end
/Font1 exch definefont pop
%%IncludeResource: font Helvetica-Bold
/Helvetica-Bold findfont
dup length dict begin
  {1 index /FID ne {def} {pop pop} ifelse} forall
  /Encoding ISOLatin1Encoding def
  currentdict
  end
/Font2 exch definefont pop
%%IncludeResource: font Helvetica-Oblique
/Helvetica-Oblique findfont
dup length dict begin
  {1 index /FID ne {def} {pop pop} ifelse} forall
  /Encoding ISOLatin1Encoding def
  currentdict
  end
/Font3 exch definefont pop
%%IncludeResource: font Helvetica-BoldOblique
/Helvetica-BoldOblique findfont
dup length dict begin
  {1 index /FID ne {def} {pop pop} ifelse} forall
  /Encoding ISOLatin1Encoding def
  currentdict
  end
/Font4 exch definefont pop
%%IncludeResource: font Symbol
/Symbol findfont
dup length dict begin
  {1 index /FID ne {def} {pop pop} ifelse} forall
  currentdict
  end
/Font5 exch definefont pop
%%EndProlog
%%Page: 1 1
bp
0.00 0.00 432.00 576.00 cl
0.00 0.00 432.00 576.00 cl
0.00 0.00 432.00 576.00 cl
/Font1 findfont 12 s
0 0 0 srgb
48.00 508.72 (PCP-ETH) 0 0 t
48.00 494.89 (Blitzlicht-Photolyse) 0 0 t
/Font1 findfont 9 s
48.00 457.54 (File: Dy) 0 ta
-0.180 (e_1_1_V1_900V) tb
-1.125 (.dat) tb gr
48.00 334.87 (T) 0 ta
-1.080 (ue Apr  9 22:07:31 2019) tb gr
48.00 430.87 (Fitfunktion:  a + b * e) 0 ta
-0.270 (xp\(-c * t\)) tb gr
48.00 420.50 (t-Inter) 0 ta
0.270 (v) tb
-0.225 (all: 140.000 ... 9470.000 ms) tb gr
48.00 410.14 (P) 0 ta
-0.360 (ar) tb
-0.090 (ameter \(Standardabw) tb
-0.090 (eichung\):) tb gr
48.00 399.77 (  a = -0.00663 \(0.00019\)) 0 0 t
48.00 389.40 (  b = 0.37226 \(0.00077\)) 0 0 t
48.00 379.03 (  c = 7.139e-01 \(2.454e-03\) s^-1) 0 0 t
48.00 368.66 (  tau = 1.401e+00 \(4.815e-03\) s) 0 0 t
216.00 345.60 388.80 518.40 cl
0 0 0 srgb
0.75 setlinewidth
[] 0 setdash
1 setlinecap
1 setlinejoin
10.00 setmiterlimit
np
222.40 507.07 m
0.15 -0.69 l
0.14 0.85 l
0.15 -0.85 l
0.14 0 l
0.15 0.57 l
0.14 -0.44 l
0.15 0.72 l
0.14 0 l
0.15 -0.56 l
0.15 -0.29 l
0.14 -0.15 l
0.15 1.41 l
0.14 -0.97 l
0.15 -0.29 l
0.14 0.57 l
0.15 0 l
0.14 -0.28 l
0.15 1.25 l
0.15 -1.54 l
0.14 0.69 l
0.15 -0.69 l
0.14 1.26 l
0.15 -0.97 l
0.14 0.12 l
0.15 -1.13 l
0.15 0.72 l
0.14 0.41 l
0.15 0.85 l
0.14 -1.98 l
0.15 1.57 l
0.14 -0.56 l
0.15 1.25 l
0.14 -0.69 l
0.15 -0.28 l
0.15 -0.57 l
0.14 0.13 l
0.15 0.56 l
0.14 0.29 l
0.15 -0.85 l
0.14 0.16 l
0.15 -0.44 l
0.14 0.84 l
0.15 -0.28 l
0.15 0 l
0.14 -0.12 l
0.15 0.12 l
0.14 -0.28 l
0.15 0.44 l
0.14 -0.72 l
0.15 0.56 l
0.14 -0.41 l
0.15 0.98 l
0.15 -0.69 l
0.14 0 l
0.15 0.28 l
0.14 -0.16 l
0.15 0 l
0.14 0.44 l
0.15 -1.29 l
0.15 0.85 l
0.14 0 l
0.15 0.16 l
0.14 0.28 l
0.15 0.13 l
0.14 -0.98 l
0.15 0.41 l
0.14 -0.56 l
0.15 0.44 l
0.15 -0.29 l
0.14 0.29 l
0.15 -0.44 l
0.14 1.28 l
0.15 -1.00 l
0.14 0 l
0.15 0 l
0.14 0.44 l
0.15 -0.44 l
0.15 0.72 l
0.14 -1.00 l
0.15 0 l
0.14 0.15 l
0.15 0.85 l
0.14 -0.44 l
0.15 0.28 l
0.14 -0.69 l
0.15 -0.15 l
0.15 0.44 l
0.14 0 l
0.15 -0.44 l
0.14 1.00 l
0.15 -1.41 l
0.14 0.85 l
0.15 -0.44 l
0.15 0.44 l
0.14 -0.44 l
0.15 0.84 l
0.14 -0.56 l
0.15 0.28 l
0.14 -0.41 l
236.96 409.77 lineto
0.14 1.11 l
0.15 1.40 l
0.15 0.16 l
0.14 0.84 l
0.15 0.98 l
0.14 1.00 l
0.15 1.41 l
0.14 0.69 l
0.15 0 l
0.14 0.44 l
0.15 1.26 l
0.15 0.40 l
0.14 0.85 l
0.15 1.13 l
0.14 1.41 l
0.15 0 l
0.14 0 l
0.15 0.29 l
0.14 0.43 l
0.15 1.82 l
0.15 0.41 l
0.14 0.57 l
0.15 -0.85 l
0.14 1.69 l
0.15 -0.12 l
0.14 1.82 l
0.15 -0.13 l
0.15 0.41 l
0.14 0.57 l
0.15 1.13 l
0.14 -0.16 l
0.15 0.85 l
0.14 -0.41 l
0.15 0.69 l
0.14 1.29 l
0.15 0.84 l
0.15 -0.72 l
0.14 0.57 l
0.15 -0.13 l
0.14 0.56 l
0.15 0.85 l
0.14 1.10 l
0.15 -0.25 l
0.14 0 l
0.15 0.69 l
0.15 1.25 l
0.14 0.29 l
0.15 0.44 l
0.14 -0.73 l
0.15 1.01 l
0.14 0.28 l
0.15 0.97 l
0.14 -0.28 l
0.15 0.57 l
0.15 1.13 l
0.14 -0.41 l
0.15 0.69 l
0.14 0.56 l
0.15 0.29 l
0.14 0.84 l
0.15 -0.15 l
0.15 0.28 l
0.14 0.16 l
0.15 0.56 l
0.14 0.85 l
0.15 0.12 l
0.14 -0.84 l
0.15 0.84 l
0.14 1.13 l
0.15 0.44 l
0.15 0 l
0.14 0.13 l
0.15 -0.57 l
0.14 1.57 l
0.15 0.54 l
0.14 0.72 l
0.15 -0.44 l
0.14 0.28 l
0.15 0.72 l
0.15 0.97 l
0.14 -0.69 l
0.15 0.98 l
0.14 0.84 l
0.15 0 l
0.14 -0.97 l
0.15 1.41 l
0.14 -0.15 l
0.15 0.44 l
0.15 0.56 l
0.14 -0.56 l
0.15 0.69 l
0.14 0.72 l
0.15 0.25 l
0.14 1.98 l
0.15 -1.13 l
0.15 -0.41 l
0.14 0.97 l
0.15 1.29 l
0.14 -0.44 l
251.52 456.65 lineto
0.14 -0.13 l
0.15 0.85 l
0.14 0.56 l
0.15 -0.28 l
0.15 0.28 l
0.14 1.54 l
0.15 -0.41 l
0.14 0.41 l
0.15 0.28 l
0.14 -0.12 l
0.15 0.28 l
0.14 0.82 l
0.15 -0.13 l
0.15 0.57 l
0.14 -0.16 l
0.15 -0.13 l
0.14 0.69 l
0.15 0.57 l
0.14 0.16 l
0.15 0.12 l
0.14 0.44 l
0.15 0.57 l
0.15 -0.57 l
0.14 1.13 l
0.15 0 l
0.14 0.41 l
0.15 0 l
0.14 0.28 l
0.15 0.28 l
0.14 0.44 l
0.15 0.28 l
0.15 0.41 l
0.14 0 l
0.15 -0.12 l
0.14 0.53 l
0.15 0.44 l
0.14 -0.16 l
0.15 1.42 l
0.15 -0.57 l
0.14 0.16 l
0.15 0.12 l
0.14 0 l
0.15 0.72 l
0.14 0.70 l
0.15 -0.57 l
0.14 0.85 l
0.15 -0.13 l
0.15 0.28 l
0.14 0.57 l
0.15 -0.44 l
0.14 0.16 l
0.15 1.25 l
0.14 0.16 l
0.15 -0.16 l
0.14 0.28 l
0.15 0.29 l
0.15 0.28 l
0.14 -0.13 l
0.15 0.98 l
0.14 0.28 l
0.15 -0.57 l
0.14 0.69 l
0.15 -0.28 l
0.14 -0.28 l
0.15 0.85 l
0.15 0.44 l
0.14 0 l
0.15 -0.29 l
0.14 0.41 l
0.15 0.57 l
0.14 -0.29 l
0.15 0.57 l
0.15 -0.41 l
0.14 1.26 l
0.15 -0.85 l
0.14 0.72 l
0.15 0 l
0.14 1.13 l
0.15 -0.56 l
0.14 0.28 l
0.15 0.28 l
0.15 0.85 l
0.14 0 l
0.15 -0.72 l
0.14 0.43 l
0.15 0.70 l
0.14 0 l
0.15 0 l
0.14 0.56 l
0.15 0.41 l
0.15 -0.69 l
0.14 0.69 l
0.15 0 l
0.14 -0.28 l
0.15 0.28 l
0.14 0.15 l
0.15 0.57 l
0.14 0.41 l
0.15 0 l
266.08 480.31 lineto
0.14 0.28 l
0.15 0.56 l
0.14 -0.28 l
0.15 -0.56 l
0.14 0.72 l
0.15 0.56 l
0.15 -0.84 l
0.14 0.97 l
0.15 0.28 l
0.14 -0.12 l
0.15 0 l
0.14 0.56 l
0.15 0 l
0.14 -0.16 l
0.15 0.44 l
0.15 0.41 l
0.14 -0.12 l
0.15 0.56 l
0.14 -0.72 l
0.15 0.44 l
0.14 0 l
0.15 1.66 l
0.14 -0.56 l
0.15 0.28 l
0.15 0.28 l
0.14 -0.56 l
0.15 0.28 l
0.14 0 l
0.15 0 l
0.14 0.56 l
0.15 -0.40 l
0.14 1.25 l
0.15 -0.56 l
0.15 -0.85 l
0.14 1.29 l
0.15 0.12 l
0.14 0 l
0.15 0.16 l
0.14 -0.72 l
0.15 1.97 l
0.15 -1.53 l
0.14 0.84 l
0.15 0.41 l
0.14 0.28 l
0.15 -0.84 l
0.14 1.00 l
0.15 -0.56 l
0.14 0.97 l
0.15 -0.28 l
0.15 -1.26 l
0.14 1.69 l
0.15 0.29 l
0.14 -0.44 l
0.15 0.44 l
0.14 0.28 l
0.15 0.28 l
0.14 -0.44 l
0.15 0.16 l
0.15 0 l
0.14 0.28 l
0.15 0.57 l
0.14 0.28 l
0.15 -0.16 l
0.14 0 l
0.15 -0.56 l
0.14 0.84 l
0.15 -0.12 l
0.15 0.69 l
0.14 -0.85 l
0.15 0.57 l
0.14 0.28 l
0.15 -0.57 l
0.14 0.70 l
0.15 -0.29 l
0.15 0.72 l
0.14 -0.43 l
0.15 -0.29 l
0.14 1.13 l
0.15 -0.41 l
0.14 0.69 l
0.15 -0.56 l
0.14 0.44 l
0.15 0.12 l
0.15 -0.56 l
0.14 0.44 l
0.15 0 l
0.14 -0.16 l
0.15 1.01 l
0.14 0.12 l
0.15 -1.25 l
0.14 0.84 l
0.15 0.29 l
0.15 -0.57 l
0.14 0.85 l
0.15 -0.57 l
0.14 1.13 l
0.15 -0.28 l
0.14 0.28 l
0.15 -0.44 l
280.63 493.14 lineto
0.15 0 l
0.15 0.85 l
0.14 0.97 l
0.15 -1.13 l
0.14 -0.28 l
0.15 0.28 l
0.14 0.44 l
0.15 0 l
0.15 -0.85 l
0.14 1.13 l
0.15 -0.28 l
0.14 0.41 l
0.15 0 l
0.14 -0.13 l
0.15 0.29 l
0.14 -0.16 l
0.15 -0.41 l
0.15 1.54 l
0.14 -0.97 l
0.15 -0.44 l
0.14 1.13 l
0.15 -1.13 l
0.14 0.44 l
0.15 0.69 l
0.14 -0.69 l
0.15 1.13 l
0.15 -0.85 l
0.14 1.10 l
0.15 -0.54 l
0.14 -0.28 l
0.15 0.57 l
0.14 0.12 l
0.15 -0.56 l
0.14 0.97 l
0.15 -0.13 l
0.15 -0.40 l
0.14 0.25 l
0.15 0.28 l
0.14 -0.53 l
0.15 0.53 l
0.14 -0.41 l
0.15 1.54 l
0.14 -0.41 l
0.15 -0.56 l
0.15 0.69 l
0.14 0.15 l
0.15 -1.13 l
0.14 0.85 l
0.15 -0.28 l
0.14 0.85 l
0.15 -0.44 l
0.15 -0.13 l
0.14 0.97 l
0.15 -0.40 l
0.14 -1.01 l
0.15 1.41 l
0.14 0.29 l
0.15 -0.29 l
0.14 -0.40 l
0.15 -0.29 l
0.15 0.69 l
0.14 0.57 l
0.15 -1.13 l
0.14 0.72 l
0.15 -0.28 l
0.14 0.41 l
0.15 -0.29 l
0.14 0.44 l
0.15 0 l
0.15 0.57 l
0.14 -0.28 l
0.15 -0.16 l
0.14 0.44 l
0.15 0 l
0.14 -0.44 l
0.15 0.72 l
0.14 -0.16 l
0.15 0 l
0.15 0.16 l
0.14 -0.28 l
0.15 0.41 l
0.14 0.15 l
0.15 0 l
0.14 0 l
0.15 -0.56 l
0.15 0.69 l
0.14 -0.41 l
0.15 -0.16 l
0.14 0.29 l
0.15 0.15 l
0.14 -0.15 l
0.15 0.56 l
0.14 -0.28 l
0.15 0.56 l
0.15 -0.56 l
0.14 0.28 l
0.15 0.16 l
0.14 0.56 l
0.15 -0.56 l
295.19 501.17 lineto
0.15 -0.28 l
0.14 -0.28 l
0.15 0 l
0.15 0 l
0.14 0.28 l
0.15 -0.28 l
0.14 -0.28 l
0.15 0.12 l
0.14 1.01 l
0.15 -0.16 l
0.14 -0.69 l
0.15 0.85 l
0.15 -0.16 l
0.14 0 l
0.15 -0.69 l
0.14 0 l
0.15 0.69 l
0.14 0.72 l
0.15 -1.13 l
0.15 0.28 l
0.14 0.29 l
0.15 0.69 l
0.14 -0.69 l
0.15 -0.57 l
0.14 0.41 l
0.15 0 l
0.14 1.13 l
0.15 -0.16 l
0.15 -0.81 l
0.14 0.40 l
0.15 0 l
0.14 0.29 l
0.15 0.12 l
0.14 -0.53 l
0.15 0.28 l
0.14 0.13 l
0.15 -0.69 l
0.15 0.12 l
0.14 0.69 l
0.15 -0.12 l
0.14 0.40 l
0.15 0.29 l
0.14 -0.13 l
0.15 0.28 l
0.14 -0.15 l
0.15 -0.41 l
0.15 0.12 l
0.14 1.01 l
0.15 -1.29 l
0.14 0 l
0.15 0 l
0.14 0.72 l
0.15 -0.72 l
0.15 0.57 l
0.14 0.15 l
0.15 0 l
0.14 0.29 l
0.15 0.12 l
0.14 -0.41 l
0.15 -0.28 l
0.14 -0.28 l
0.15 0.56 l
0.15 0.13 l
0.14 -0.41 l
0.15 0.85 l
0.14 -0.16 l
0.15 0.16 l
0.14 0.12 l
0.15 0.16 l
0.14 -0.28 l
0.15 0.28 l
0.15 -0.16 l
0.14 -0.28 l
0.15 0.16 l
0.14 -0.16 l
0.15 0.28 l
0.14 -0.40 l
0.15 0.28 l
0.14 0.41 l
0.15 0.15 l
0.15 -0.56 l
0.14 0.12 l
0.15 -0.12 l
0.14 0.56 l
0.15 0 l
0.14 -0.56 l
0.15 -0.44 l
0.15 1.41 l
0.14 -0.28 l
0.15 0.16 l
0.14 -0.85 l
0.15 0.85 l
0.14 -0.73 l
0.15 0.57 l
0.14 -0.13 l
0.15 0.29 l
0.15 -0.73 l
0.14 0.73 l
0.15 0.12 l
309.75 504.25 lineto
0.15 -0.57 l
0.14 1.29 l
0.15 -1.13 l
0.14 0.28 l
0.15 0.57 l
0.15 0 l
0.14 -0.28 l
0.15 0.97 l
0.14 -0.69 l
0.15 -0.16 l
0.14 0 l
0.15 0.44 l
0.14 0.13 l
0.15 -0.13 l
0.15 -0.16 l
0.14 0 l
0.15 -0.40 l
0.14 0.69 l
0.15 -0.41 l
0.14 0.28 l
0.15 -0.28 l
0.15 0.85 l
0.14 -0.73 l
0.15 0.29 l
0.14 0 l
0.15 -0.41 l
0.14 0 l
0.15 0.69 l
0.14 -0.57 l
0.15 0.44 l
0.15 -0.44 l
0.14 0.29 l
0.15 0 l
0.14 0.15 l
0.15 0.41 l
0.14 -0.28 l
0.15 -0.85 l
0.14 1.13 l
0.15 -0.85 l
0.15 0.44 l
0.14 0 l
0.15 0.69 l
0.14 -0.69 l
0.15 0.85 l
0.14 -0.56 l
0.15 0.40 l
0.14 -0.69 l
0.15 0.98 l
0.15 -0.85 l
0.14 0.72 l
0.15 -0.28 l
0.14 0.41 l
0.15 -0.29 l
0.14 -0.12 l
0.15 -1.01 l
0.15 0.57 l
0.14 0.16 l
0.15 0.28 l
0.14 0.12 l
0.15 -0.40 l
0.14 0.40 l
0.15 0.57 l
0.14 -0.28 l
0.15 0 l
0.15 -0.57 l
0.14 0.44 l
0.15 0.28 l
0.14 -0.44 l
0.15 -0.28 l
0.14 0 l
0.15 0.57 l
0.14 0.15 l
0.15 -0.15 l
0.15 0.56 l
0.14 -0.56 l
0.15 0 l
0.14 0.28 l
0.15 -0.28 l
0.14 -0.13 l
0.15 0.69 l
0.14 -0.85 l
0.15 0.44 l
0.15 -0.28 l
0.14 0.69 l
0.15 -0.12 l
0.14 -0.29 l
0.15 0 l
0.14 0.41 l
0.15 -0.97 l
0.14 0.69 l
0.15 -0.41 l
0.15 0.28 l
0.14 0.41 l
0.15 -0.41 l
0.14 -0.15 l
0.15 0.44 l
0.14 -0.29 l
0.15 0 l
0.15 -0.28 l
324.31 507.07 lineto
0.15 -0.97 l
0.14 0.69 l
0.15 0 l
0.14 0.16 l
0.15 -0.44 l
0.14 0.44 l
0.15 -0.44 l
0.15 1.29 l
0.14 -1.29 l
0.15 0.44 l
0.14 -0.16 l
0.15 0.85 l
0.14 -1.26 l
0.15 0.69 l
0.14 -0.12 l
0.15 -0.16 l
0.15 0.44 l
0.14 -0.16 l
0.15 -0.40 l
0.14 0.12 l
0.15 0.28 l
0.14 0.57 l
0.15 -0.69 l
0.14 0 l
0.15 0.41 l
0.15 0 l
0.14 0 l
0.15 -0.69 l
0.14 0 l
0.15 0.69 l
0.14 -0.13 l
0.15 0.13 l
0.15 -0.29 l
0.14 0.44 l
0.15 -0.44 l
0.14 0 l
0.15 -0.56 l
0.14 0.85 l
0.15 -0.57 l
0.14 0.44 l
0.15 0.28 l
0.15 0.29 l
0.14 -0.29 l
0.15 0.13 l
0.14 -0.69 l
0.15 0.28 l
0.14 0.41 l
0.15 -0.28 l
0.14 0.15 l
0.15 0.57 l
0.15 -0.44 l
0.14 0.56 l
0.15 -0.97 l
0.14 0.13 l
0.15 0.72 l
0.14 -0.72 l
0.15 -0.41 l
0.14 0.85 l
0.15 0.28 l
0.15 -0.44 l
0.14 0.16 l
0.15 0.40 l
0.14 -0.69 l
0.15 0.69 l
0.14 -0.56 l
0.15 0.56 l
0.15 -0.69 l
0.14 0.29 l
0.15 0.28 l
0.14 0 l
0.15 0.12 l
0.14 -0.56 l
0.15 0.28 l
0.14 -0.41 l
0.15 0.13 l
0.15 0.28 l
0.14 0.16 l
0.15 0.12 l
0.14 -0.28 l
0.15 0 l
0.14 -0.28 l
0.15 0.44 l
0.14 0.12 l
0.15 -0.40 l
0.15 -0.57 l
0.14 1.95 l
0.15 -0.98 l
0.14 0 l
0.15 -0.69 l
0.14 -0.44 l
0.15 0.85 l
0.14 0.41 l
0.15 -0.82 l
0.15 0.69 l
0.14 -0.40 l
0.15 0.28 l
0.14 0 l
0.15 -0.44 l
0.14 0.44 l
338.87 508.08 lineto
0.15 0.25 l
0.14 -0.13 l
0.15 0 l
0.14 0.13 l
0.15 -0.13 l
0.14 -0.28 l
0.15 0.41 l
0.14 0.72 l
0.15 -1.13 l
0.15 0.85 l
0.14 -0.16 l
0.15 -0.53 l
0.14 0.69 l
0.15 -0.28 l
0.14 0.69 l
0.15 -0.85 l
0.14 0.16 l
0.15 0.28 l
0.15 0 l
0.14 -0.57 l
0.15 0.13 l
0.14 0.56 l
0.15 -0.69 l
0.14 0.57 l
0.15 -0.44 l
0.14 0.16 l
0.15 0.40 l
0.15 -0.28 l
0.14 -0.12 l
0.15 0.12 l
0.14 0.44 l
0.15 -0.44 l
0.14 -0.12 l
0.15 -0.16 l
0.15 0.28 l
0.14 -0.69 l
0.15 0.69 l
0.14 0.44 l
0.15 -0.44 l
0.14 -0.12 l
0.15 0.69 l
0.14 -0.69 l
0.15 0.28 l
0.15 0.56 l
0.14 -0.44 l
0.15 0.16 l
0.14 0.69 l
0.15 -0.56 l
0.14 -0.13 l
0.15 0.69 l
0.14 -0.97 l
0.15 0.41 l
0.15 0.15 l
0.14 -0.15 l
0.15 -0.57 l
0.14 0.72 l
0.15 -0.84 l
0.14 0.12 l
0.15 0.72 l
0.14 -0.72 l
0.15 1.01 l
0.15 -0.16 l
0.14 0 l
0.15 -0.41 l
0.14 0.28 l
0.15 0.41 l
0.14 -0.69 l
0.15 -0.16 l
0.15 0.29 l
0.14 0.28 l
0.15 -0.13 l
0.14 0.13 l
0.15 0.28 l
0.14 0 l
0.15 -0.56 l
0.14 0.44 l
0.15 -1.01 l
0.15 0.72 l
0.14 -0.44 l
0.15 1.01 l
0.14 -1.01 l
0.15 0.73 l
0.14 -0.73 l
0.15 0.73 l
0.14 0.12 l
0.15 -0.12 l
0.15 -0.29 l
0.14 0.69 l
0.15 -0.97 l
0.14 0.97 l
0.15 -0.69 l
0.14 0.13 l
0.15 0.16 l
0.14 0.28 l
0.15 0 l
0.15 -0.16 l
0.14 -0.41 l
0.15 0 l
0.14 0.13 l
353.43 509.62 lineto
0.14 0 l
0.15 0.28 l
0.14 -0.72 l
0.15 0.72 l
0.15 0 l
0.14 -0.16 l
0.15 0.28 l
0.14 -0.12 l
0.15 0 l
0.14 0.56 l
0.15 -0.84 l
0.15 0.28 l
0.14 -0.44 l
0.15 0.44 l
0.14 -0.16 l
0.15 0 l
0.14 0.16 l
0.15 0 l
0.14 0 l
0.15 0 l
0.15 0.12 l
0.14 0.44 l
0.15 -0.56 l
0.14 0.12 l
0.15 0.16 l
0.14 -0.44 l
0.15 -0.12 l
0.14 0.84 l
0.15 -0.44 l
0.15 0.16 l
0.14 0.28 l
0.15 -0.44 l
0.14 0 l
0.15 0.16 l
0.14 0.41 l
0.15 -0.57 l
0.14 -0.56 l
0.15 1.13 l
0.15 -0.85 l
0.14 0.16 l
0.15 -0.44 l
0.14 0.44 l
0.15 0.97 l
0.14 -0.28 l
0.15 -0.57 l
0.15 0.57 l
0.14 0 l
0.15 -0.41 l
0.14 0.13 l
0.15 -0.98 l
0.14 1.41 l
0.15 0.57 l
0.14 -1.69 l
0.15 1.12 l
0.15 -0.84 l
0.14 0.97 l
0.15 0.16 l
0.14 -0.85 l
0.15 -0.16 l
0.14 0.85 l
0.15 -0.85 l
0.14 0.29 l
0.15 0.15 l
0.15 -0.28 l
0.14 0.28 l
0.15 -0.72 l
0.14 1.13 l
0.15 -0.56 l
0.14 0.72 l
0.15 -0.44 l
0.14 -0.41 l
0.15 0.85 l
0.15 -1.01 l
0.14 0.72 l
0.15 -0.72 l
0.14 0.57 l
0.15 0.15 l
0.14 -0.43 l
0.15 0.28 l
0.15 0.56 l
0.14 -0.28 l
0.15 -0.13 l
0.14 -0.56 l
0.15 0.41 l
0.14 -0.28 l
0.15 0.43 l
0.14 -0.15 l
0.15 -0.28 l
0.15 0.43 l
0.14 0.13 l
0.15 -0.41 l
0.14 0.13 l
0.15 -0.13 l
0.14 -0.15 l
0.15 0.84 l
0.14 -0.28 l
0.15 0 l
0.15 0.28 l
0.14 -0.84 l
currentpoint o m
367.99 510.74 lineto
0.14 -0.84 l
0.15 1.13 l
0.14 0.12 l
0.15 -0.28 l
0.14 -0.41 l
0.15 0 l
0.15 0.28 l
0.14 0.41 l
0.15 0 l
0.14 -0.84 l
0.15 0.43 l
0.14 0.13 l
0.15 0.57 l
0.15 -0.57 l
0.14 -0.13 l
0.15 0 l
0.14 0.85 l
0.15 -0.72 l
0.14 -0.28 l
0.15 0.56 l
0.14 0 l
0.15 0.16 l
0.15 -0.16 l
0.14 0.44 l
0.15 -1.00 l
0.14 0.28 l
0.15 0 l
0.14 0.28 l
0.15 -0.69 l
0.14 0.28 l
0.15 0 l
0.15 0.13 l
0.14 -0.41 l
0.15 1.54 l
0.14 -0.85 l
0.15 -0.28 l
0.14 0.44 l
0.15 0.28 l
0.14 -1.13 l
0.15 0.57 l
0.15 0 l
0.14 -0.29 l
0.15 0.70 l
0.14 -0.13 l
0.15 0 l
0.14 -0.57 l
0.15 0 l
0.15 0.13 l
0.14 0 l
0.15 0.57 l
0.14 -0.41 l
0.15 0 l
0.14 0 l
0.15 0.28 l
0.14 -0.44 l
0.15 0.16 l
0.15 0.56 l
0.14 -0.44 l
0.15 -0.12 l
0.14 0.41 l
0.15 -1.54 l
0.14 1.13 l
0.15 -0.16 l
0.14 -0.56 l
0.15 1.13 l
0.15 -0.70 l
0.14 0 l
0.15 0.70 l
0.14 0.43 l
0.15 0 l
0.14 -0.28 l
0.15 -0.28 l
0.14 -0.28 l
0.15 0.41 l
0.15 -0.41 l
0.14 0 l
0.15 0.28 l
0.14 0.28 l
0.15 -0.44 l
0.14 0.57 l
0.15 -0.57 l
0.15 0.29 l
0.14 -0.13 l
0.15 -0.57 l
0.14 0.98 l
0.15 -0.41 l
0.14 -0.28 l
0.15 0.69 l
0.14 -1.13 l
0.15 1.28 l
0.15 -0.72 l
0.14 0.16 l
0.15 0 l
0.14 -0.57 l
0.15 0.29 l
0.14 0.12 l
0.15 0.44 l
0.14 -0.15 l
0.15 -0.29 l
o
/bg { 1 1 1 srgb } def
222.40 507.07 0.43 c p3
222.55 506.38 0.43 c p3
222.69 507.23 0.43 c p3
222.84 506.38 0.43 c p3
222.98 506.38 0.43 c p3
223.13 506.95 0.43 c p3
223.27 506.51 0.43 c p3
223.42 507.23 0.43 c p3
223.56 507.23 0.43 c p3
223.71 506.67 0.43 c p3
223.86 506.38 0.43 c p3
224.00 506.23 0.43 c p3
224.15 507.64 0.43 c p3
224.29 506.67 0.43 c p3
224.44 506.38 0.43 c p3
224.58 506.95 0.43 c p3
224.73 506.95 0.43 c p3
224.87 506.67 0.43 c p3
225.02 507.92 0.43 c p3
225.17 506.38 0.43 c p3
225.31 507.07 0.43 c p3
225.46 506.38 0.43 c p3
225.60 507.64 0.43 c p3
225.75 506.67 0.43 c p3
225.89 506.79 0.43 c p3
226.04 505.66 0.43 c p3
226.19 506.38 0.43 c p3
226.33 506.79 0.43 c p3
226.48 507.64 0.43 c p3
226.62 505.66 0.43 c p3
226.77 507.23 0.43 c p3
226.91 506.67 0.43 c p3
227.06 507.92 0.43 c p3
227.20 507.23 0.43 c p3
227.35 506.95 0.43 c p3
227.50 506.38 0.43 c p3
227.64 506.51 0.43 c p3
227.79 507.07 0.43 c p3
227.93 507.36 0.43 c p3
228.08 506.51 0.43 c p3
228.22 506.67 0.43 c p3
228.37 506.23 0.43 c p3
228.51 507.07 0.43 c p3
228.66 506.79 0.43 c p3
228.81 506.79 0.43 c p3
228.95 506.67 0.43 c p3
229.10 506.79 0.43 c p3
229.24 506.51 0.43 c p3
229.39 506.95 0.43 c p3
229.53 506.23 0.43 c p3
229.68 506.79 0.43 c p3
229.82 506.38 0.43 c p3
229.97 507.36 0.43 c p3
230.12 506.67 0.43 c p3
230.26 506.67 0.43 c p3
230.41 506.95 0.43 c p3
230.55 506.79 0.43 c p3
230.70 506.79 0.43 c p3
230.84 507.23 0.43 c p3
230.99 505.94 0.43 c p3
231.14 506.79 0.43 c p3
231.28 506.79 0.43 c p3
231.43 506.95 0.43 c p3
231.57 507.23 0.43 c p3
231.72 507.36 0.43 c p3
231.86 506.38 0.43 c p3
232.01 506.79 0.43 c p3
232.15 506.23 0.43 c p3
232.30 506.67 0.43 c p3
232.45 506.38 0.43 c p3
232.59 506.67 0.43 c p3
232.74 506.23 0.43 c p3
232.88 507.51 0.43 c p3
233.03 506.51 0.43 c p3
233.17 506.51 0.43 c p3
233.32 506.51 0.43 c p3
233.46 506.95 0.43 c p3
233.61 506.51 0.43 c p3
233.76 507.23 0.43 c p3
233.90 506.23 0.43 c p3
234.05 506.23 0.43 c p3
234.19 506.38 0.43 c p3
234.34 507.23 0.43 c p3
234.48 506.79 0.43 c p3
234.63 507.07 0.43 c p3
234.77 506.38 0.43 c p3
234.92 506.23 0.43 c p3
235.07 506.67 0.43 c p3
235.21 506.67 0.43 c p3
235.36 506.23 0.43 c p3
235.50 507.23 0.43 c p3
235.65 505.82 0.43 c p3
235.79 506.67 0.43 c p3
235.94 506.23 0.43 c p3
236.09 506.67 0.43 c p3
236.23 506.23 0.43 c p3
236.38 507.07 0.43 c p3
236.52 506.51 0.43 c p3
236.67 506.79 0.43 c p3
236.81 506.38 0.43 c p3
236.96 409.77 0.43 c p3
237.10 410.88 0.43 c p3
237.25 412.28 0.43 c p3
237.40 412.44 0.43 c p3
237.54 413.28 0.43 c p3
237.69 414.26 0.43 c p3
237.83 415.26 0.43 c p3
237.98 416.67 0.43 c p3
238.12 417.36 0.43 c p3
238.27 417.36 0.43 c p3
238.41 417.80 0.43 c p3
238.56 419.06 0.43 c p3
238.71 419.46 0.43 c p3
238.85 420.31 0.43 c p3
239.00 421.44 0.43 c p3
239.14 422.85 0.43 c p3
239.29 422.85 0.43 c p3
239.43 422.85 0.43 c p3
239.58 423.14 0.43 c p3
239.72 423.57 0.43 c p3
239.87 425.39 0.43 c p3
240.02 425.80 0.43 c p3
240.16 426.37 0.43 c p3
240.31 425.52 0.43 c p3
240.45 427.21 0.43 c p3
240.60 427.09 0.43 c p3
240.74 428.91 0.43 c p3
240.89 428.78 0.43 c p3
241.04 429.19 0.43 c p3
241.18 429.76 0.43 c p3
241.33 430.89 0.43 c p3
241.47 430.73 0.43 c p3
241.62 431.58 0.43 c p3
241.76 431.17 0.43 c p3
241.91 431.86 0.43 c p3
242.05 433.15 0.43 c p3
242.20 433.99 0.43 c p3
242.35 433.27 0.43 c p3
242.49 433.84 0.43 c p3
242.64 433.71 0.43 c p3
242.78 434.27 0.43 c p3
242.93 435.12 0.43 c p3
243.07 436.22 0.43 c p3
243.22 435.97 0.43 c p3
243.36 435.97 0.43 c p3
243.51 436.66 0.43 c p3
243.66 437.91 0.43 c p3
243.80 438.20 0.43 c p3
243.95 438.64 0.43 c p3
244.09 437.91 0.43 c p3
244.24 438.92 0.43 c p3
244.38 439.20 0.43 c p3
244.53 440.17 0.43 c p3
244.67 439.89 0.43 c p3
244.82 440.46 0.43 c p3
244.97 441.59 0.43 c p3
245.11 441.18 0.43 c p3
245.26 441.87 0.43 c p3
245.40 442.43 0.43 c p3
245.55 442.72 0.43 c p3
245.69 443.56 0.43 c p3
245.84 443.41 0.43 c p3
245.99 443.69 0.43 c p3
246.13 443.85 0.43 c p3
246.28 444.41 0.43 c p3
246.42 445.26 0.43 c p3
246.57 445.38 0.43 c p3
246.71 444.54 0.43 c p3
246.86 445.38 0.43 c p3
247.00 446.51 0.43 c p3
247.15 446.95 0.43 c p3
247.30 446.95 0.43 c p3
247.44 447.08 0.43 c p3
247.59 446.51 0.43 c p3
247.73 448.08 0.43 c p3
247.88 448.62 0.43 c p3
248.02 449.34 0.43 c p3
248.17 448.90 0.43 c p3
248.31 449.18 0.43 c p3
248.46 449.90 0.43 c p3
248.61 450.87 0.43 c p3
248.75 450.18 0.43 c p3
248.90 451.16 0.43 c p3
249.04 452.00 0.43 c p3
249.19 452.00 0.43 c p3
249.33 451.03 0.43 c p3
249.48 452.44 0.43 c p3
249.62 452.29 0.43 c p3
249.77 452.73 0.43 c p3
249.92 453.29 0.43 c p3
250.06 452.73 0.43 c p3
250.21 453.42 0.43 c p3
250.35 454.14 0.43 c p3
250.50 454.39 0.43 c p3
250.64 456.37 0.43 c p3
250.79 455.24 0.43 c p3
250.94 454.83 0.43 c p3
251.08 455.80 0.43 c p3
251.23 457.09 0.43 c p3
251.37 456.65 0.43 c p3
251.52 456.65 0.43 c p3
251.66 456.52 0.43 c p3
251.81 457.37 0.43 c p3
251.95 457.93 0.43 c p3
252.10 457.65 0.43 c p3
252.25 457.93 0.43 c p3
252.39 459.47 0.43 c p3
252.54 459.06 0.43 c p3
252.68 459.47 0.43 c p3
252.83 459.75 0.43 c p3
252.97 459.63 0.43 c p3
253.12 459.91 0.43 c p3
253.26 460.73 0.43 c p3
253.41 460.60 0.43 c p3
253.56 461.17 0.43 c p3
253.70 461.01 0.43 c p3
253.85 460.88 0.43 c p3
253.99 461.57 0.43 c p3
254.14 462.14 0.43 c p3
254.28 462.30 0.43 c p3
254.43 462.42 0.43 c p3
254.57 462.86 0.43 c p3
254.72 463.43 0.43 c p3
254.87 462.86 0.43 c p3
255.01 463.99 0.43 c p3
255.16 463.99 0.43 c p3
255.30 464.40 0.43 c p3
255.45 464.40 0.43 c p3
255.59 464.68 0.43 c p3
255.74 464.96 0.43 c p3
255.88 465.40 0.43 c p3
256.03 465.68 0.43 c p3
256.18 466.09 0.43 c p3
256.32 466.09 0.43 c p3
256.47 465.97 0.43 c p3
256.61 466.50 0.43 c p3
256.76 466.94 0.43 c p3
256.90 466.78 0.43 c p3
257.05 468.20 0.43 c p3
257.20 467.63 0.43 c p3
257.34 467.79 0.43 c p3
257.49 467.91 0.43 c p3
257.63 467.91 0.43 c p3
257.78 468.63 0.43 c p3
257.92 469.33 0.43 c p3
258.07 468.76 0.43 c p3
258.21 469.61 0.43 c p3
258.36 469.48 0.43 c p3
258.51 469.76 0.43 c p3
258.65 470.33 0.43 c p3
258.80 469.89 0.43 c p3
258.94 470.05 0.43 c p3
259.09 471.30 0.43 c p3
259.23 471.46 0.43 c p3
259.38 471.30 0.43 c p3
259.52 471.58 0.43 c p3
259.67 471.87 0.43 c p3
259.82 472.15 0.43 c p3
259.96 472.02 0.43 c p3
260.11 473.00 0.43 c p3
260.25 473.28 0.43 c p3
260.40 472.71 0.43 c p3
260.54 473.40 0.43 c p3
260.69 473.12 0.43 c p3
260.83 472.84 0.43 c p3
260.98 473.69 0.43 c p3
261.13 474.13 0.43 c p3
261.27 474.13 0.43 c p3
261.42 473.84 0.43 c p3
261.56 474.25 0.43 c p3
261.71 474.82 0.43 c p3
261.85 474.53 0.43 c p3
262.00 475.10 0.43 c p3
262.15 474.69 0.43 c p3
262.29 475.95 0.43 c p3
262.44 475.10 0.43 c p3
262.58 475.82 0.43 c p3
262.73 475.82 0.43 c p3
262.87 476.95 0.43 c p3
263.02 476.39 0.43 c p3
263.16 476.67 0.43 c p3
263.31 476.95 0.43 c p3
263.46 477.80 0.43 c p3
263.60 477.80 0.43 c p3
263.75 477.08 0.43 c p3
263.89 477.51 0.43 c p3
264.04 478.21 0.43 c p3
264.18 478.21 0.43 c p3
264.33 478.21 0.43 c p3
264.47 478.77 0.43 c p3
264.62 479.18 0.43 c p3
264.77 478.49 0.43 c p3
264.91 479.18 0.43 c p3
265.06 479.18 0.43 c p3
265.20 478.90 0.43 c p3
265.35 479.18 0.43 c p3
265.49 479.33 0.43 c p3
265.64 479.90 0.43 c p3
265.78 480.31 0.43 c p3
265.93 480.31 0.43 c p3
266.08 480.31 0.43 c p3
266.22 480.59 0.43 c p3
266.37 481.15 0.43 c p3
266.51 480.87 0.43 c p3
266.66 480.31 0.43 c p3
266.80 481.03 0.43 c p3
266.95 481.59 0.43 c p3
267.10 480.75 0.43 c p3
267.24 481.72 0.43 c p3
267.39 482.00 0.43 c p3
267.53 481.88 0.43 c p3
267.68 481.88 0.43 c p3
267.82 482.44 0.43 c p3
267.97 482.44 0.43 c p3
268.11 482.28 0.43 c p3
268.26 482.72 0.43 c p3
268.41 483.13 0.43 c p3
268.55 483.01 0.43 c p3
268.70 483.57 0.43 c p3
268.84 482.85 0.43 c p3
268.99 483.29 0.43 c p3
269.13 483.29 0.43 c p3
269.28 484.95 0.43 c p3
269.42 484.39 0.43 c p3
269.57 484.67 0.43 c p3
269.72 484.95 0.43 c p3
269.86 484.39 0.43 c p3
270.01 484.67 0.43 c p3
270.15 484.67 0.43 c p3
270.30 484.67 0.43 c p3
270.44 485.23 0.43 c p3
270.59 484.83 0.43 c p3
270.73 486.08 0.43 c p3
270.88 485.52 0.43 c p3
271.03 484.67 0.43 c p3
271.17 485.96 0.43 c p3
271.32 486.08 0.43 c p3
271.46 486.08 0.43 c p3
271.61 486.24 0.43 c p3
271.75 485.52 0.43 c p3
271.90 487.49 0.43 c p3
272.05 485.96 0.43 c p3
272.19 486.80 0.43 c p3
272.34 487.21 0.43 c p3
272.48 487.49 0.43 c p3
272.63 486.65 0.43 c p3
272.77 487.65 0.43 c p3
272.92 487.09 0.43 c p3
273.06 488.06 0.43 c p3
273.21 487.78 0.43 c p3
273.36 486.52 0.43 c p3
273.50 488.21 0.43 c p3
273.65 488.50 0.43 c p3
273.79 488.06 0.43 c p3
273.94 488.50 0.43 c p3
274.08 488.78 0.43 c p3
274.23 489.06 0.43 c p3
274.37 488.62 0.43 c p3
274.52 488.78 0.43 c p3
274.67 488.78 0.43 c p3
274.81 489.06 0.43 c p3
274.96 489.63 0.43 c p3
275.10 489.91 0.43 c p3
275.25 489.75 0.43 c p3
275.39 489.75 0.43 c p3
275.54 489.19 0.43 c p3
275.68 490.03 0.43 c p3
275.83 489.91 0.43 c p3
275.98 490.60 0.43 c p3
276.12 489.75 0.43 c p3
276.27 490.32 0.43 c p3
276.41 490.60 0.43 c p3
276.56 490.03 0.43 c p3
276.70 490.73 0.43 c p3
276.85 490.44 0.43 c p3
277.00 491.16 0.43 c p3
277.14 490.73 0.43 c p3
277.29 490.44 0.43 c p3
277.43 491.57 0.43 c p3
277.58 491.16 0.43 c p3
277.72 491.85 0.43 c p3
277.87 491.29 0.43 c p3
278.01 491.73 0.43 c p3
278.16 491.85 0.43 c p3
278.31 491.29 0.43 c p3
278.45 491.73 0.43 c p3
278.60 491.73 0.43 c p3
278.74 491.57 0.43 c p3
278.89 492.58 0.43 c p3
279.03 492.70 0.43 c p3
279.18 491.45 0.43 c p3
279.32 492.29 0.43 c p3
279.47 492.58 0.43 c p3
279.62 492.01 0.43 c p3
279.76 492.86 0.43 c p3
279.91 492.29 0.43 c p3
280.05 493.42 0.43 c p3
280.20 493.14 0.43 c p3
280.34 493.42 0.43 c p3
280.49 492.98 0.43 c p3
280.63 493.14 0.43 c p3
280.78 493.14 0.43 c p3
280.93 493.99 0.43 c p3
281.07 494.96 0.43 c p3
281.22 493.83 0.43 c p3
281.36 493.55 0.43 c p3
281.51 493.83 0.43 c p3
281.65 494.27 0.43 c p3
281.80 494.27 0.43 c p3
281.95 493.42 0.43 c p3
282.09 494.55 0.43 c p3
282.24 494.27 0.43 c p3
282.38 494.68 0.43 c p3
282.53 494.68 0.43 c p3
282.67 494.55 0.43 c p3
282.82 494.84 0.43 c p3
282.96 494.68 0.43 c p3
283.11 494.27 0.43 c p3
283.26 495.81 0.43 c p3
283.40 494.84 0.43 c p3
283.55 494.40 0.43 c p3
283.69 495.53 0.43 c p3
283.84 494.40 0.43 c p3
283.98 494.84 0.43 c p3
284.13 495.53 0.43 c p3
284.27 494.84 0.43 c p3
284.42 495.97 0.43 c p3
284.57 495.12 0.43 c p3
284.71 496.22 0.43 c p3
284.86 495.68 0.43 c p3
285.00 495.40 0.43 c p3
285.15 495.97 0.43 c p3
285.29 496.09 0.43 c p3
285.44 495.53 0.43 c p3
285.58 496.50 0.43 c p3
285.73 496.37 0.43 c p3
285.88 495.97 0.43 c p3
286.02 496.22 0.43 c p3
286.17 496.50 0.43 c p3
286.31 495.97 0.43 c p3
286.46 496.50 0.43 c p3
286.60 496.09 0.43 c p3
286.75 497.63 0.43 c p3
286.89 497.22 0.43 c p3
287.04 496.66 0.43 c p3
287.19 497.35 0.43 c p3
287.33 497.50 0.43 c p3
287.48 496.37 0.43 c p3
287.62 497.22 0.43 c p3
287.77 496.94 0.43 c p3
287.91 497.79 0.43 c p3
288.06 497.35 0.43 c p3
288.21 497.22 0.43 c p3
288.35 498.19 0.43 c p3
288.50 497.79 0.43 c p3
288.64 496.78 0.43 c p3
288.79 498.19 0.43 c p3
288.93 498.48 0.43 c p3
289.08 498.19 0.43 c p3
289.22 497.79 0.43 c p3
289.37 497.50 0.43 c p3
289.52 498.19 0.43 c p3
289.66 498.76 0.43 c p3
289.81 497.63 0.43 c p3
289.95 498.35 0.43 c p3
290.10 498.07 0.43 c p3
290.24 498.48 0.43 c p3
290.39 498.19 0.43 c p3
290.53 498.63 0.43 c p3
290.68 498.63 0.43 c p3
290.83 499.20 0.43 c p3
290.97 498.92 0.43 c p3
291.12 498.76 0.43 c p3
291.26 499.20 0.43 c p3
291.41 499.20 0.43 c p3
291.55 498.76 0.43 c p3
291.70 499.48 0.43 c p3
291.84 499.32 0.43 c p3
291.99 499.32 0.43 c p3
292.14 499.48 0.43 c p3
292.28 499.20 0.43 c p3
292.43 499.61 0.43 c p3
292.57 499.76 0.43 c p3
292.72 499.76 0.43 c p3
292.86 499.76 0.43 c p3
293.01 499.20 0.43 c p3
293.16 499.89 0.43 c p3
293.30 499.48 0.43 c p3
293.45 499.32 0.43 c p3
293.59 499.61 0.43 c p3
293.74 499.76 0.43 c p3
293.88 499.61 0.43 c p3
294.03 500.17 0.43 c p3
294.17 499.89 0.43 c p3
294.32 500.45 0.43 c p3
294.47 499.89 0.43 c p3
294.61 500.17 0.43 c p3
294.76 500.33 0.43 c p3
294.90 500.89 0.43 c p3
295.05 500.33 0.43 c p3
295.19 501.17 0.43 c p3
295.34 500.89 0.43 c p3
295.48 500.61 0.43 c p3
295.63 500.61 0.43 c p3
295.78 500.61 0.43 c p3
295.92 500.89 0.43 c p3
296.07 500.61 0.43 c p3
296.21 500.33 0.43 c p3
296.36 500.45 0.43 c p3
296.50 501.46 0.43 c p3
296.65 501.30 0.43 c p3
296.79 500.61 0.43 c p3
296.94 501.46 0.43 c p3
297.09 501.30 0.43 c p3
297.23 501.30 0.43 c p3
297.38 500.61 0.43 c p3
297.52 500.61 0.43 c p3
297.67 501.30 0.43 c p3
297.81 502.02 0.43 c p3
297.96 500.89 0.43 c p3
298.11 501.17 0.43 c p3
298.25 501.46 0.43 c p3
298.40 502.15 0.43 c p3
298.54 501.46 0.43 c p3
298.69 500.89 0.43 c p3
298.83 501.30 0.43 c p3
298.98 501.30 0.43 c p3
299.12 502.43 0.43 c p3
299.27 502.27 0.43 c p3
299.42 501.46 0.43 c p3
299.56 501.86 0.43 c p3
299.71 501.86 0.43 c p3
299.85 502.15 0.43 c p3
300.00 502.27 0.43 c p3
300.14 501.74 0.43 c p3
300.29 502.02 0.43 c p3
300.43 502.15 0.43 c p3
300.58 501.46 0.43 c p3
300.73 501.58 0.43 c p3
300.87 502.27 0.43 c p3
301.02 502.15 0.43 c p3
301.16 502.55 0.43 c p3
301.31 502.84 0.43 c p3
301.45 502.71 0.43 c p3
301.60 502.99 0.43 c p3
301.74 502.84 0.43 c p3
301.89 502.43 0.43 c p3
302.04 502.55 0.43 c p3
302.18 503.56 0.43 c p3
302.33 502.27 0.43 c p3
302.47 502.27 0.43 c p3
302.62 502.27 0.43 c p3
302.76 502.99 0.43 c p3
302.91 502.27 0.43 c p3
303.06 502.84 0.43 c p3
303.20 502.99 0.43 c p3
303.35 502.99 0.43 c p3
303.49 503.28 0.43 c p3
303.64 503.40 0.43 c p3
303.78 502.99 0.43 c p3
303.93 502.71 0.43 c p3
304.07 502.43 0.43 c p3
304.22 502.99 0.43 c p3
304.37 503.12 0.43 c p3
304.51 502.71 0.43 c p3
304.66 503.56 0.43 c p3
304.80 503.40 0.43 c p3
304.95 503.56 0.43 c p3
305.09 503.68 0.43 c p3
305.24 503.84 0.43 c p3
305.38 503.56 0.43 c p3
305.53 503.84 0.43 c p3
305.68 503.68 0.43 c p3
305.82 503.40 0.43 c p3
305.97 503.56 0.43 c p3
306.11 503.40 0.43 c p3
306.26 503.68 0.43 c p3
306.40 503.28 0.43 c p3
306.55 503.56 0.43 c p3
306.69 503.97 0.43 c p3
306.84 504.12 0.43 c p3
306.99 503.56 0.43 c p3
307.13 503.68 0.43 c p3
307.28 503.56 0.43 c p3
307.42 504.12 0.43 c p3
307.57 504.12 0.43 c p3
307.71 503.56 0.43 c p3
307.86 503.12 0.43 c p3
308.01 504.53 0.43 c p3
308.15 504.25 0.43 c p3
308.30 504.41 0.43 c p3
308.44 503.56 0.43 c p3
308.59 504.41 0.43 c p3
308.73 503.68 0.43 c p3
308.88 504.25 0.43 c p3
309.02 504.12 0.43 c p3
309.17 504.41 0.43 c p3
309.32 503.68 0.43 c p3
309.46 504.41 0.43 c p3
309.61 504.53 0.43 c p3
309.75 504.25 0.43 c p3
309.90 503.68 0.43 c p3
310.04 504.97 0.43 c p3
310.19 503.84 0.43 c p3
310.33 504.12 0.43 c p3
310.48 504.69 0.43 c p3
310.63 504.69 0.43 c p3
310.77 504.41 0.43 c p3
310.92 505.38 0.43 c p3
311.06 504.69 0.43 c p3
311.21 504.53 0.43 c p3
311.35 504.53 0.43 c p3
311.50 504.97 0.43 c p3
311.64 505.10 0.43 c p3
311.79 504.97 0.43 c p3
311.94 504.81 0.43 c p3
312.08 504.81 0.43 c p3
312.23 504.41 0.43 c p3
312.37 505.10 0.43 c p3
312.52 504.69 0.43 c p3
312.66 504.97 0.43 c p3
312.81 504.69 0.43 c p3
312.96 505.54 0.43 c p3
313.10 504.81 0.43 c p3
313.25 505.10 0.43 c p3
313.39 505.10 0.43 c p3
313.54 504.69 0.43 c p3
313.68 504.69 0.43 c p3
313.83 505.38 0.43 c p3
313.97 504.81 0.43 c p3
314.12 505.25 0.43 c p3
314.27 504.81 0.43 c p3
314.41 505.10 0.43 c p3
314.56 505.10 0.43 c p3
314.70 505.25 0.43 c p3
314.85 505.66 0.43 c p3
314.99 505.38 0.43 c p3
315.14 504.53 0.43 c p3
315.28 505.66 0.43 c p3
315.43 504.81 0.43 c p3
315.58 505.25 0.43 c p3
315.72 505.25 0.43 c p3
315.87 505.94 0.43 c p3
316.01 505.25 0.43 c p3
316.16 506.10 0.43 c p3
316.30 505.54 0.43 c p3
316.45 505.94 0.43 c p3
316.59 505.25 0.43 c p3
316.74 506.23 0.43 c p3
316.89 505.38 0.43 c p3
317.03 506.10 0.43 c p3
317.18 505.82 0.43 c p3
317.32 506.23 0.43 c p3
317.47 505.94 0.43 c p3
317.61 505.82 0.43 c p3
317.76 504.81 0.43 c p3
317.91 505.38 0.43 c p3
318.05 505.54 0.43 c p3
318.20 505.82 0.43 c p3
318.34 505.94 0.43 c p3
318.49 505.54 0.43 c p3
318.63 505.94 0.43 c p3
318.78 506.51 0.43 c p3
318.92 506.23 0.43 c p3
319.07 506.23 0.43 c p3
319.22 505.66 0.43 c p3
319.36 506.10 0.43 c p3
319.51 506.38 0.43 c p3
319.65 505.94 0.43 c p3
319.80 505.66 0.43 c p3
319.94 505.66 0.43 c p3
320.09 506.23 0.43 c p3
320.23 506.38 0.43 c p3
320.38 506.23 0.43 c p3
320.53 506.79 0.43 c p3
320.67 506.23 0.43 c p3
320.82 506.23 0.43 c p3
320.96 506.51 0.43 c p3
321.11 506.23 0.43 c p3
321.25 506.10 0.43 c p3
321.40 506.79 0.43 c p3
321.54 505.94 0.43 c p3
321.69 506.38 0.43 c p3
321.84 506.10 0.43 c p3
321.98 506.79 0.43 c p3
322.13 506.67 0.43 c p3
322.27 506.38 0.43 c p3
322.42 506.38 0.43 c p3
322.56 506.79 0.43 c p3
322.71 505.82 0.43 c p3
322.85 506.51 0.43 c p3
323.00 506.10 0.43 c p3
323.15 506.38 0.43 c p3
323.29 506.79 0.43 c p3
323.44 506.38 0.43 c p3
323.58 506.23 0.43 c p3
323.73 506.67 0.43 c p3
323.87 506.38 0.43 c p3
324.02 506.38 0.43 c p3
324.17 506.10 0.43 c p3
324.31 507.07 0.43 c p3
324.46 506.10 0.43 c p3
324.60 506.79 0.43 c p3
324.75 506.79 0.43 c p3
324.89 506.95 0.43 c p3
325.04 506.51 0.43 c p3
325.18 506.95 0.43 c p3
325.33 506.51 0.43 c p3
325.48 507.80 0.43 c p3
325.62 506.51 0.43 c p3
325.77 506.95 0.43 c p3
325.91 506.79 0.43 c p3
326.06 507.64 0.43 c p3
326.20 506.38 0.43 c p3
326.35 507.07 0.43 c p3
326.49 506.95 0.43 c p3
326.64 506.79 0.43 c p3
326.79 507.23 0.43 c p3
326.93 507.07 0.43 c p3
327.08 506.67 0.43 c p3
327.22 506.79 0.43 c p3
327.37 507.07 0.43 c p3
327.51 507.64 0.43 c p3
327.66 506.95 0.43 c p3
327.80 506.95 0.43 c p3
327.95 507.36 0.43 c p3
328.10 507.36 0.43 c p3
328.24 507.36 0.43 c p3
328.39 506.67 0.43 c p3
328.53 506.67 0.43 c p3
328.68 507.36 0.43 c p3
328.82 507.23 0.43 c p3
328.97 507.36 0.43 c p3
329.12 507.07 0.43 c p3
329.26 507.51 0.43 c p3
329.41 507.07 0.43 c p3
329.55 507.07 0.43 c p3
329.70 506.51 0.43 c p3
329.84 507.36 0.43 c p3
329.99 506.79 0.43 c p3
330.13 507.23 0.43 c p3
330.28 507.51 0.43 c p3
330.43 507.80 0.43 c p3
330.57 507.51 0.43 c p3
330.72 507.64 0.43 c p3
330.86 506.95 0.43 c p3
331.01 507.23 0.43 c p3
331.15 507.64 0.43 c p3
331.30 507.36 0.43 c p3
331.44 507.51 0.43 c p3
331.59 508.08 0.43 c p3
331.74 507.64 0.43 c p3
331.88 508.20 0.43 c p3
332.03 507.23 0.43 c p3
332.17 507.36 0.43 c p3
332.32 508.08 0.43 c p3
332.46 507.36 0.43 c p3
332.61 506.95 0.43 c p3
332.75 507.80 0.43 c p3
332.90 508.08 0.43 c p3
333.05 507.64 0.43 c p3
333.19 507.80 0.43 c p3
333.34 508.20 0.43 c p3
333.48 507.51 0.43 c p3
333.63 508.20 0.43 c p3
333.77 507.64 0.43 c p3
333.92 508.20 0.43 c p3
334.07 507.51 0.43 c p3
334.21 507.80 0.43 c p3
334.36 508.08 0.43 c p3
334.50 508.08 0.43 c p3
334.65 508.20 0.43 c p3
334.79 507.64 0.43 c p3
334.94 507.92 0.43 c p3
335.08 507.51 0.43 c p3
335.23 507.64 0.43 c p3
335.38 507.92 0.43 c p3
335.52 508.08 0.43 c p3
335.67 508.20 0.43 c p3
335.81 507.92 0.43 c p3
335.96 507.92 0.43 c p3
336.10 507.64 0.43 c p3
336.25 508.08 0.43 c p3
336.39 508.20 0.43 c p3
336.54 507.80 0.43 c p3
336.69 507.23 0.43 c p3
336.83 509.18 0.43 c p3
336.98 508.20 0.43 c p3
337.12 508.20 0.43 c p3
337.27 507.51 0.43 c p3
337.41 507.07 0.43 c p3
337.56 507.92 0.43 c p3
337.70 508.33 0.43 c p3
337.85 507.51 0.43 c p3
338.00 508.20 0.43 c p3
338.14 507.80 0.43 c p3
338.29 508.08 0.43 c p3
338.43 508.08 0.43 c p3
338.58 507.64 0.43 c p3
338.72 508.08 0.43 c p3
338.87 508.08 0.43 c p3
339.02 508.33 0.43 c p3
339.16 508.20 0.43 c p3
339.31 508.20 0.43 c p3
339.45 508.33 0.43 c p3
339.60 508.20 0.43 c p3
339.74 507.92 0.43 c p3
339.89 508.33 0.43 c p3
340.03 509.05 0.43 c p3
340.18 507.92 0.43 c p3
340.33 508.77 0.43 c p3
340.47 508.61 0.43 c p3
340.62 508.08 0.43 c p3
340.76 508.77 0.43 c p3
340.91 508.49 0.43 c p3
341.05 509.18 0.43 c p3
341.20 508.33 0.43 c p3
341.34 508.49 0.43 c p3
341.49 508.77 0.43 c p3
341.64 508.77 0.43 c p3
341.78 508.20 0.43 c p3
341.93 508.33 0.43 c p3
342.07 508.89 0.43 c p3
342.22 508.20 0.43 c p3
342.36 508.77 0.43 c p3
342.51 508.33 0.43 c p3
342.65 508.49 0.43 c p3
342.80 508.89 0.43 c p3
342.95 508.61 0.43 c p3
343.09 508.49 0.43 c p3
343.24 508.61 0.43 c p3
343.38 509.05 0.43 c p3
343.53 508.61 0.43 c p3
343.67 508.49 0.43 c p3
343.82 508.33 0.43 c p3
343.97 508.61 0.43 c p3
344.11 507.92 0.43 c p3
344.26 508.61 0.43 c p3
344.40 509.05 0.43 c p3
344.55 508.61 0.43 c p3
344.69 508.49 0.43 c p3
344.84 509.18 0.43 c p3
344.98 508.49 0.43 c p3
345.13 508.77 0.43 c p3
345.28 509.33 0.43 c p3
345.42 508.89 0.43 c p3
345.57 509.05 0.43 c p3
345.71 509.74 0.43 c p3
345.86 509.18 0.43 c p3
346.00 509.05 0.43 c p3
346.15 509.74 0.43 c p3
346.29 508.77 0.43 c p3
346.44 509.18 0.43 c p3
346.59 509.33 0.43 c p3
346.73 509.18 0.43 c p3
346.88 508.61 0.43 c p3
347.02 509.33 0.43 c p3
347.17 508.49 0.43 c p3
347.31 508.61 0.43 c p3
347.46 509.33 0.43 c p3
347.60 508.61 0.43 c p3
347.75 509.62 0.43 c p3
347.90 509.46 0.43 c p3
348.04 509.46 0.43 c p3
348.19 509.05 0.43 c p3
348.33 509.33 0.43 c p3
348.48 509.74 0.43 c p3
348.62 509.05 0.43 c p3
348.77 508.89 0.43 c p3
348.92 509.18 0.43 c p3
349.06 509.46 0.43 c p3
349.21 509.33 0.43 c p3
349.35 509.46 0.43 c p3
349.50 509.74 0.43 c p3
349.64 509.74 0.43 c p3
349.79 509.18 0.43 c p3
349.93 509.62 0.43 c p3
350.08 508.61 0.43 c p3
350.23 509.33 0.43 c p3
350.37 508.89 0.43 c p3
350.52 509.90 0.43 c p3
350.66 508.89 0.43 c p3
350.81 509.62 0.43 c p3
350.95 508.89 0.43 c p3
351.10 509.62 0.43 c p3
351.24 509.74 0.43 c p3
351.39 509.62 0.43 c p3
351.54 509.33 0.43 c p3
351.68 510.02 0.43 c p3
351.83 509.05 0.43 c p3
351.97 510.02 0.43 c p3
352.12 509.33 0.43 c p3
352.26 509.46 0.43 c p3
352.41 509.62 0.43 c p3
352.55 509.90 0.43 c p3
352.70 509.90 0.43 c p3
352.85 509.74 0.43 c p3
352.99 509.33 0.43 c p3
353.14 509.33 0.43 c p3
353.28 509.46 0.43 c p3
353.43 509.62 0.43 c p3
353.57 509.62 0.43 c p3
353.72 509.90 0.43 c p3
353.86 509.18 0.43 c p3
354.01 509.90 0.43 c p3
354.16 509.90 0.43 c p3
354.30 509.74 0.43 c p3
354.45 510.02 0.43 c p3
354.59 509.90 0.43 c p3
354.74 509.90 0.43 c p3
354.88 510.46 0.43 c p3
355.03 509.62 0.43 c p3
355.18 509.90 0.43 c p3
355.32 509.46 0.43 c p3
355.47 509.90 0.43 c p3
355.61 509.74 0.43 c p3
355.76 509.74 0.43 c p3
355.90 509.90 0.43 c p3
356.05 509.90 0.43 c p3
356.19 509.90 0.43 c p3
356.34 509.90 0.43 c p3
356.49 510.02 0.43 c p3
356.63 510.46 0.43 c p3
356.78 509.90 0.43 c p3
356.92 510.02 0.43 c p3
357.07 510.18 0.43 c p3
357.21 509.74 0.43 c p3
357.36 509.62 0.43 c p3
357.50 510.46 0.43 c p3
357.65 510.02 0.43 c p3
357.80 510.18 0.43 c p3
357.94 510.46 0.43 c p3
358.09 510.02 0.43 c p3
358.23 510.02 0.43 c p3
358.38 510.18 0.43 c p3
358.52 510.59 0.43 c p3
358.67 510.02 0.43 c p3
358.81 509.46 0.43 c p3
358.96 510.59 0.43 c p3
359.11 509.74 0.43 c p3
359.25 509.90 0.43 c p3
359.40 509.46 0.43 c p3
359.54 509.90 0.43 c p3
359.69 510.87 0.43 c p3
359.83 510.59 0.43 c p3
359.98 510.02 0.43 c p3
360.13 510.59 0.43 c p3
360.27 510.59 0.43 c p3
360.42 510.18 0.43 c p3
360.56 510.31 0.43 c p3
360.71 509.33 0.43 c p3
360.85 510.74 0.43 c p3
361.00 511.31 0.43 c p3
361.14 509.62 0.43 c p3
361.29 510.74 0.43 c p3
361.44 509.90 0.43 c p3
361.58 510.87 0.43 c p3
361.73 511.03 0.43 c p3
361.87 510.18 0.43 c p3
362.02 510.02 0.43 c p3
362.16 510.87 0.43 c p3
362.31 510.02 0.43 c p3
362.45 510.31 0.43 c p3
362.60 510.46 0.43 c p3
362.75 510.18 0.43 c p3
362.89 510.46 0.43 c p3
363.04 509.74 0.43 c p3
363.18 510.87 0.43 c p3
363.33 510.31 0.43 c p3
363.47 511.03 0.43 c p3
363.62 510.59 0.43 c p3
363.76 510.18 0.43 c p3
363.91 511.03 0.43 c p3
364.06 510.02 0.43 c p3
364.20 510.74 0.43 c p3
364.35 510.02 0.43 c p3
364.49 510.59 0.43 c p3
364.64 510.74 0.43 c p3
364.78 510.31 0.43 c p3
364.93 510.59 0.43 c p3
365.08 511.15 0.43 c p3
365.22 510.87 0.43 c p3
365.37 510.74 0.43 c p3
365.51 510.18 0.43 c p3
365.66 510.59 0.43 c p3
365.80 510.31 0.43 c p3
365.95 510.74 0.43 c p3
366.09 510.59 0.43 c p3
366.24 510.31 0.43 c p3
366.39 510.74 0.43 c p3
366.53 510.87 0.43 c p3
366.68 510.46 0.43 c p3
366.82 510.59 0.43 c p3
366.97 510.46 0.43 c p3
367.11 510.31 0.43 c p3
367.26 511.15 0.43 c p3
367.40 510.87 0.43 c p3
367.55 510.87 0.43 c p3
367.70 511.15 0.43 c p3
367.84 510.31 0.43 c p3
367.99 510.74 0.43 c p3
368.13 509.90 0.43 c p3
368.28 511.03 0.43 c p3
368.42 511.15 0.43 c p3
368.57 510.87 0.43 c p3
368.71 510.46 0.43 c p3
368.86 510.46 0.43 c p3
369.01 510.74 0.43 c p3
369.15 511.15 0.43 c p3
369.30 511.15 0.43 c p3
369.44 510.31 0.43 c p3
369.59 510.74 0.43 c p3
369.73 510.87 0.43 c p3
369.88 511.44 0.43 c p3
370.03 510.87 0.43 c p3
370.17 510.74 0.43 c p3
370.32 510.74 0.43 c p3
370.46 511.59 0.43 c p3
370.61 510.87 0.43 c p3
370.75 510.59 0.43 c p3
370.90 511.15 0.43 c p3
371.04 511.15 0.43 c p3
371.19 511.31 0.43 c p3
371.34 511.15 0.43 c p3
371.48 511.59 0.43 c p3
371.63 510.59 0.43 c p3
371.77 510.87 0.43 c p3
371.92 510.87 0.43 c p3
372.06 511.15 0.43 c p3
372.21 510.46 0.43 c p3
372.35 510.74 0.43 c p3
372.50 510.74 0.43 c p3
372.65 510.87 0.43 c p3
372.79 510.46 0.43 c p3
372.94 512.00 0.43 c p3
373.08 511.15 0.43 c p3
373.23 510.87 0.43 c p3
373.37 511.31 0.43 c p3
373.52 511.59 0.43 c p3
373.66 510.46 0.43 c p3
373.81 511.03 0.43 c p3
373.96 511.03 0.43 c p3
374.10 510.74 0.43 c p3
374.25 511.44 0.43 c p3
374.39 511.31 0.43 c p3
374.54 511.31 0.43 c p3
374.68 510.74 0.43 c p3
374.83 510.74 0.43 c p3
374.98 510.87 0.43 c p3
375.12 510.87 0.43 c p3
375.27 511.44 0.43 c p3
375.41 511.03 0.43 c p3
375.56 511.03 0.43 c p3
375.70 511.03 0.43 c p3
375.85 511.31 0.43 c p3
375.99 510.87 0.43 c p3
376.14 511.03 0.43 c p3
376.29 511.59 0.43 c p3
376.43 511.15 0.43 c p3
376.58 511.03 0.43 c p3
376.72 511.44 0.43 c p3
376.87 509.90 0.43 c p3
377.01 511.03 0.43 c p3
377.16 510.87 0.43 c p3
377.30 510.31 0.43 c p3
377.45 511.44 0.43 c p3
377.60 510.74 0.43 c p3
377.74 510.74 0.43 c p3
377.89 511.44 0.43 c p3
378.03 511.87 0.43 c p3
378.18 511.87 0.43 c p3
378.32 511.59 0.43 c p3
378.47 511.31 0.43 c p3
378.61 511.03 0.43 c p3
378.76 511.44 0.43 c p3
378.91 511.03 0.43 c p3
379.05 511.03 0.43 c p3
379.20 511.31 0.43 c p3
379.34 511.59 0.43 c p3
379.49 511.15 0.43 c p3
379.63 511.72 0.43 c p3
379.78 511.15 0.43 c p3
379.93 511.44 0.43 c p3
380.07 511.31 0.43 c p3
380.22 510.74 0.43 c p3
380.36 511.72 0.43 c p3
380.51 511.31 0.43 c p3
380.65 511.03 0.43 c p3
380.80 511.72 0.43 c p3
380.94 510.59 0.43 c p3
381.09 511.87 0.43 c p3
381.24 511.15 0.43 c p3
381.38 511.31 0.43 c p3
381.53 511.31 0.43 c p3
381.67 510.74 0.43 c p3
381.82 511.03 0.43 c p3
381.96 511.15 0.43 c p3
382.11 511.59 0.43 c p3
382.25 511.44 0.43 c p3
382.40 511.15 0.43 c p3
0.00 0.00 432.00 576.00 cl
0 0 0 srgb
0.75 setlinewidth
[] 0 setdash
1 setlinecap
1 setlinejoin
10.00 setmiterlimit
np
236.96 345.60 m
145.59 0 l
o
np
236.96 345.60 m
0 -5.76 l
o
np
266.08 345.60 m
0 -5.76 l
o
np
295.19 345.60 m
0 -5.76 l
o
np
324.31 345.60 m
0 -5.76 l
o
np
353.43 345.60 m
0 -5.76 l
o
np
382.55 345.60 m
0 -5.76 l
o
/Font1 findfont 10 s
236.96 329.47 (0) .5 0 t
266.08 329.47 (2000) .5 0 t
324.31 329.47 (6000) .5 0 t
382.55 329.47 (10000) .5 0 t
np
216.00 352.00 m
0 154.23 l
o
np
216.00 352.00 m
-5.76 0 l
o
np
216.00 377.70 m
-5.76 0 l
o
np
216.00 403.41 m
-5.76 0 l
o
np
216.00 429.11 m
-5.76 0 l
o
np
216.00 454.82 m
-5.76 0 l
o
np
216.00 480.52 m
-5.76 0 l
o
np
216.00 506.23 m
-5.76 0 l
o
209.09 348.41 (0.0) 1 0 t
209.09 374.11 (0.2) 1 0 t
209.09 399.82 (0.4) 1 0 t
209.09 425.52 (0.6) 1 0 t
209.09 451.23 (0.8) 1 0 t
209.09 476.93 (1.0) 1 0 t
209.09 502.64 (1.2) 1 0 t
np
216.00 345.60 m
172.80 0 l
0 172.80 l
-172.80 0 l
0 -172.80 l
o
0.00 0.00 432.00 576.00 cl
/Font1 findfont 10 s
0 0 0 srgb
302.40 313.34 (Zeit / ms \(total\)) .5 0 t
190.66 432.00 (U / V) .5 90 t
216.00 345.60 388.80 518.40 cl
0 0 0 srgb
0.38 setlinewidth
[ 1.12 1.88] 0 setdash
1 setlinecap
1 setlinejoin
10.00 setmiterlimit
np
223.71 345.60 m
0 172.80 l
o
np
234.34 345.60 m
0 172.80 l
o
np
239.00 345.60 m
0 172.80 l
o
np
374.83 345.60 m
0 172.80 l
o
86.40 57.60 388.80 288.00 cl
1 0 0 srgb
1.50 setlinewidth
[] 0 setdash
1 setlinecap
1 setlinejoin
10.00 setmiterlimit
np
97.60 279.47 m
1.41 -7.53 l
1.40 -7.25 l
1.41 -7.01 l
1.41 -6.75 l
1.41 -6.52 l
1.40 -6.29 l
1.41 -6.06 l
1.41 -5.86 l
1.40 -5.64 l
1.41 -5.45 l
1.41 -5.26 l
1.40 -5.07 l
1.41 -4.89 l
1.41 -4.72 l
1.41 -4.55 l
1.40 -4.39 l
1.41 -4.24 l
1.41 -4.09 l
1.40 -3.94 l
1.41 -3.81 l
1.41 -3.67 l
1.40 -3.54 l
1.41 -3.42 l
1.41 -3.29 l
1.41 -3.19 l
1.40 -3.06 l
1.41 -2.96 l
1.41 -2.86 l
1.40 -2.76 l
1.41 -2.65 l
1.41 -2.57 l
1.41 -2.47 l
1.40 -2.39 l
1.41 -2.30 l
1.41 -2.22 l
1.40 -2.15 l
1.41 -2.07 l
1.41 -1.99 l
1.40 -1.93 l
1.41 -1.85 l
1.41 -1.79 l
1.41 -1.73 l
1.40 -1.67 l
1.41 -1.61 l
1.41 -1.55 l
1.40 -1.50 l
1.41 -1.44 l
1.41 -1.40 l
1.40 -1.34 l
1.41 -1.30 l
1.41 -1.25 l
1.41 -1.21 l
1.40 -1.16 l
1.41 -1.13 l
1.41 -1.08 l
1.40 -1.05 l
1.41 -1.01 l
1.41 -0.97 l
1.41 -0.94 l
1.40 -0.90 l
1.41 -0.88 l
1.41 -0.84 l
1.40 -0.82 l
1.41 -0.78 l
1.41 -0.76 l
1.40 -0.73 l
1.41 -0.70 l
1.41 -0.68 l
1.41 -0.66 l
1.40 -0.63 l
1.41 -0.61 l
1.41 -0.59 l
1.40 -0.57 l
1.41 -0.55 l
1.41 -0.53 l
1.40 -0.51 l
1.41 -0.49 l
1.41 -0.48 l
1.41 -0.46 l
1.40 -0.44 l
1.41 -0.42 l
1.41 -0.42 l
1.40 -0.39 l
1.41 -0.39 l
1.41 -0.37 l
1.41 -0.35 l
1.40 -0.35 l
1.41 -0.33 l
1.41 -0.32 l
1.40 -0.31 l
1.41 -0.30 l
1.41 -0.28 l
1.40 -0.28 l
1.41 -0.27 l
1.41 -0.26 l
1.41 -0.25 l
1.40 -0.24 l
1.41 -0.23 l
1.41 -0.22 l
238.30 71.87 lineto
1.41 -0.21 l
1.41 -0.20 l
1.40 -0.19 l
1.41 -0.19 l
1.41 -0.18 l
1.41 -0.17 l
1.40 -0.17 l
1.41 -0.16 l
1.41 -0.16 l
1.40 -0.15 l
1.41 -0.14 l
1.41 -0.14 l
1.40 -0.14 l
1.41 -0.13 l
1.41 -0.13 l
1.41 -0.12 l
1.40 -0.12 l
1.41 -0.11 l
1.41 -0.11 l
1.40 -0.10 l
1.41 -0.10 l
1.41 -0.10 l
1.41 -0.10 l
1.40 -0.09 l
1.41 -0.09 l
1.41 -0.08 l
1.40 -0.08 l
1.41 -0.08 l
1.41 -0.08 l
1.40 -0.07 l
1.41 -0.07 l
1.41 -0.07 l
1.41 -0.07 l
1.40 -0.06 l
1.41 -0.06 l
1.41 -0.06 l
1.40 -0.06 l
1.41 -0.05 l
1.41 -0.06 l
1.40 -0.05 l
1.41 -0.05 l
1.41 -0.05 l
1.41 -0.04 l
1.40 -0.05 l
1.41 -0.04 l
1.41 -0.04 l
1.40 -0.04 l
1.41 -0.04 l
1.41 -0.04 l
1.41 -0.03 l
1.40 -0.04 l
1.41 -0.03 l
1.41 -0.03 l
1.40 -0.03 l
1.41 -0.03 l
1.41 -0.03 l
1.40 -0.03 l
1.41 -0.03 l
1.41 -0.02 l
1.41 -0.03 l
1.40 -0.02 l
1.41 -0.03 l
1.41 -0.02 l
1.40 -0.02 l
1.41 -0.02 l
1.41 -0.02 l
1.40 -0.02 l
1.41 -0.02 l
1.41 -0.02 l
1.41 -0.02 l
1.40 -0.01 l
1.41 -0.02 l
1.41 -0.02 l
1.40 -0.01 l
1.41 -0.02 l
1.41 -0.01 l
1.41 -0.01 l
1.40 -0.02 l
1.41 -0.01 l
1.41 -0.01 l
1.40 -0.01 l
1.41 -0.01 l
1.41 -0.02 l
1.40 -0.01 l
1.41 -0.01 l
1.41 -0.01 l
1.41 -0.01 l
1.40 0 l
1.41 -0.01 l
1.41 -0.01 l
1.40 -0.01 l
1.41 -0.01 l
1.41 -0.01 l
1.40 0 l
1.41 -0.01 l
1.41 -0.01 l
1.41 0 l
1.40 -0.01 l
1.41 -0.01 l
o
0.00 0.00 432.00 576.00 cl
0 0 0 srgb
0.75 setlinewidth
[] 0 setdash
1 setlinecap
1 setlinejoin
10.00 setmiterlimit
np
97.60 57.60 m
280.00 0 l
o
np
97.60 57.60 m
0 -5.76 l
o
np
153.60 57.60 m
0 -5.76 l
o
np
209.60 57.60 m
0 -5.76 l
o
np
265.60 57.60 m
0 -5.76 l
o
np
321.60 57.60 m
0 -5.76 l
o
np
377.60 57.60 m
0 -5.76 l
o
/Font1 findfont 10 s
97.60 41.47 (0) .5 0 t
153.60 41.47 (2000) .5 0 t
209.60 41.47 (4000) .5 0 t
265.60 41.47 (6000) .5 0 t
321.60 41.47 (8000) .5 0 t
377.60 41.47 (10000) .5 0 t
np
86.40 69.77 m
0 172.06 l
o
np
86.40 69.77 m
-5.76 0 l
o
np
86.40 127.12 m
-5.76 0 l
o
np
86.40 184.47 m
-5.76 0 l
o
np
86.40 241.83 m
-5.76 0 l
o
79.49 66.18 (0.0) 1 0 t
79.49 123.53 (0.1) 1 0 t
79.49 180.88 (0.2) 1 0 t
79.49 238.24 (0.3) 1 0 t
np
86.40 57.60 m
302.40 0 l
0 230.40 l
-302.40 0 l
0 -230.40 l
o
0.00 0.00 432.00 576.00 cl
/Font1 findfont 10 s
0 0 0 srgb
237.60 13.82 (Zeit / ms \(nach Puls\)) .5 0 t
49.54 172.80 (Absorbanz A) .5 90 t
86.40 57.60 388.80 288.00 cl
/bg { 1 1 1 srgb } def
0 0 0 srgb
0.75 setlinewidth
[] 0 setdash
1 setlinecap
1 setlinejoin
10.00 setmiterlimit
101.80 269.37 0.65 c p3
102.08 264.36 0.65 c p3
102.36 264.36 0.65 c p3
102.64 264.36 0.65 c p3
102.92 263.37 0.65 c p3
103.20 261.83 0.65 c p3
103.48 255.58 0.65 c p3
103.76 254.20 0.65 c p3
104.04 252.30 0.65 c p3
104.32 255.15 0.65 c p3
104.60 249.48 0.65 c p3
104.88 249.89 0.65 c p3
105.16 243.93 0.65 c p3
105.44 244.34 0.65 c p3
105.72 243.02 0.65 c p3
106.00 241.20 0.65 c p3
106.28 237.61 0.65 c p3
106.56 238.10 0.65 c p3
106.84 235.44 0.65 c p3
107.12 236.72 0.65 c p3
107.40 234.55 0.65 c p3
107.68 230.57 0.65 c p3
107.96 227.99 0.65 c p3
108.24 230.19 0.65 c p3
108.52 228.46 0.65 c p3
108.80 228.85 0.65 c p3
109.08 227.13 0.65 c p3
109.36 224.58 0.65 c p3
109.64 221.31 0.65 c p3
109.92 222.05 0.65 c p3
110.20 222.05 0.65 c p3
110.48 220.01 0.65 c p3
110.76 216.35 0.65 c p3
111.04 215.53 0.65 c p3
111.32 214.26 0.65 c p3
111.60 216.35 0.65 c p3
111.88 213.45 0.65 c p3
112.16 212.64 0.65 c p3
112.44 209.88 0.65 c p3
112.72 210.68 0.65 c p3
113.00 209.09 0.65 c p3
113.28 205.92 0.65 c p3
113.56 207.06 0.65 c p3
113.84 205.14 0.65 c p3
114.12 203.58 0.65 c p3
114.40 202.80 0.65 c p3
114.68 200.49 0.65 c p3
114.96 200.92 0.65 c p3
115.24 200.15 0.65 c p3
115.52 199.72 0.65 c p3
115.80 198.19 0.65 c p3
116.08 195.92 0.65 c p3
116.36 195.59 0.65 c p3
116.64 197.86 0.65 c p3
116.92 195.59 0.65 c p3
117.20 192.59 0.65 c p3
117.48 191.44 0.65 c p3
117.76 191.44 0.65 c p3
118.04 191.11 0.65 c p3
118.32 192.59 0.65 c p3
118.60 188.49 0.65 c p3
118.88 187.11 0.65 c p3
119.16 185.26 0.65 c p3
119.44 186.38 0.65 c p3
119.72 185.66 0.65 c p3
120.00 183.82 0.65 c p3
120.28 181.35 0.65 c p3
120.56 183.10 0.65 c p3
120.84 180.64 0.65 c p3
121.12 178.52 0.65 c p3
121.40 178.52 0.65 c p3
121.68 180.96 0.65 c p3
121.96 177.43 0.65 c p3
122.24 177.82 0.65 c p3
122.52 176.73 0.65 c p3
122.80 175.34 0.65 c p3
123.08 176.73 0.65 c p3
123.36 175.03 0.65 c p3
123.64 173.27 0.65 c p3
123.92 172.65 0.65 c p3
124.20 167.89 0.65 c p3
124.48 170.60 0.65 c p3
124.76 171.59 0.65 c p3
125.04 169.24 0.65 c p3
125.32 166.17 0.65 c p3
125.60 167.22 0.65 c p3
125.88 167.22 0.65 c p3
126.16 167.52 0.65 c p3
126.44 165.51 0.65 c p3
126.72 164.17 0.65 c p3
127.00 164.84 0.65 c p3
127.28 164.17 0.65 c p3
127.56 160.58 0.65 c p3
127.84 161.53 0.65 c p3
128.12 160.58 0.65 c p3
128.40 159.93 0.65 c p3
128.68 160.22 0.65 c p3
128.96 159.57 0.65 c p3
129.24 157.69 0.65 c p3
129.52 157.98 0.65 c p3
129.80 156.69 0.65 c p3
130.08 157.05 0.65 c p3
130.36 157.33 0.65 c p3
130.64 155.76 0.65 c p3
130.92 154.48 0.65 c p3
131.20 154.12 0.65 c p3
131.48 153.84 0.65 c p3
131.76 152.85 0.65 c p3
132.04 151.59 0.65 c p3
132.32 152.85 0.65 c p3
132.60 150.33 0.65 c p3
132.88 150.33 0.65 c p3
133.16 149.42 0.65 c p3
133.44 149.42 0.65 c p3
133.72 148.80 0.65 c p3
134.00 148.17 0.65 c p3
134.28 147.21 0.65 c p3
134.56 146.59 0.65 c p3
134.84 145.69 0.65 c p3
135.12 145.69 0.65 c p3
135.40 145.97 0.65 c p3
135.68 144.81 0.65 c p3
135.96 143.85 0.65 c p3
136.24 144.19 0.65 c p3
136.52 141.15 0.65 c p3
136.80 142.36 0.65 c p3
137.08 142.02 0.65 c p3
137.36 141.75 0.65 c p3
137.64 141.75 0.65 c p3
137.92 140.21 0.65 c p3
138.20 138.74 0.65 c p3
138.48 139.94 0.65 c p3
138.76 138.14 0.65 c p3
139.04 138.40 0.65 c p3
139.32 137.81 0.65 c p3
139.60 136.61 0.65 c p3
139.88 137.54 0.65 c p3
140.16 137.21 0.65 c p3
140.44 134.57 0.65 c p3
140.72 134.25 0.65 c p3
141.00 134.57 0.65 c p3
141.28 133.99 0.65 c p3
141.56 133.40 0.65 c p3
141.84 132.81 0.65 c p3
142.12 133.07 0.65 c p3
142.40 131.06 0.65 c p3
142.68 130.48 0.65 c p3
142.96 131.64 0.65 c p3
143.24 130.22 0.65 c p3
143.52 130.80 0.65 c p3
143.80 131.38 0.65 c p3
144.08 129.64 0.65 c p3
144.36 128.75 0.65 c p3
144.64 128.75 0.65 c p3
144.92 129.32 0.65 c p3
145.20 128.49 0.65 c p3
145.48 127.34 0.65 c p3
145.76 127.92 0.65 c p3
146.04 126.77 0.65 c p3
146.32 127.60 0.65 c p3
146.60 125.06 0.65 c p3
146.88 126.77 0.65 c p3
147.16 125.31 0.65 c p3
147.44 125.31 0.65 c p3
147.72 123.05 0.65 c p3
148.00 124.18 0.65 c p3
148.28 123.62 0.65 c p3
148.56 123.05 0.65 c p3
148.84 121.37 0.65 c p3
149.12 121.37 0.65 c p3
149.40 122.80 0.65 c p3
149.68 121.93 0.65 c p3
149.96 120.56 0.65 c p3
150.24 120.56 0.65 c p3
150.52 120.56 0.65 c p3
150.80 119.45 0.65 c p3
151.08 118.65 0.65 c p3
151.36 120.01 0.65 c p3
151.64 118.65 0.65 c p3
151.92 118.65 0.65 c p3
152.20 119.20 0.65 c p3
152.48 118.65 0.65 c p3
152.76 118.34 0.65 c p3
153.04 117.24 0.65 c p3
153.32 116.45 0.65 c p3
153.60 116.45 0.65 c p3
153.88 116.45 0.65 c p3
154.16 115.90 0.65 c p3
154.44 114.81 0.65 c p3
154.72 115.35 0.65 c p3
155.00 116.45 0.65 c p3
155.28 115.05 0.65 c p3
155.56 113.96 0.65 c p3
155.84 115.60 0.65 c p3
156.12 113.72 0.65 c p3
156.40 113.18 0.65 c p3
156.68 113.42 0.65 c p3
156.96 113.42 0.65 c p3
157.24 112.34 0.65 c p3
157.52 112.34 0.65 c p3
157.80 112.64 0.65 c p3
158.08 111.80 0.65 c p3
158.36 111.02 0.65 c p3
158.64 111.26 0.65 c p3
158.92 110.19 0.65 c p3
159.20 111.56 0.65 c p3
159.48 110.73 0.65 c p3
159.76 110.73 0.65 c p3
160.04 107.59 0.65 c p3
160.32 108.65 0.65 c p3
160.60 108.12 0.65 c p3
160.88 107.59 0.65 c p3
161.16 108.65 0.65 c p3
161.44 108.12 0.65 c p3
161.72 108.12 0.65 c p3
162.00 108.12 0.65 c p3
162.28 107.06 0.65 c p3
162.56 107.83 0.65 c p3
162.84 105.48 0.65 c p3
163.12 106.54 0.65 c p3
163.40 108.12 0.65 c p3
163.68 105.72 0.65 c p3
163.96 105.48 0.65 c p3
164.24 105.48 0.65 c p3
164.52 105.19 0.65 c p3
164.80 106.54 0.65 c p3
165.08 102.88 0.65 c p3
165.36 105.72 0.65 c p3
165.64 104.15 0.65 c p3
165.92 103.39 0.65 c p3
166.20 102.88 0.65 c p3
166.48 104.44 0.65 c p3
166.76 102.59 0.65 c p3
167.04 103.63 0.65 c p3
167.32 101.84 0.65 c p3
167.60 102.36 0.65 c p3
167.88 104.67 0.65 c p3
168.16 101.55 0.65 c p3
168.44 101.04 0.65 c p3
168.72 101.84 0.65 c p3
169.00 101.04 0.65 c p3
169.28 100.52 0.65 c p3
169.56 100.01 0.65 c p3
169.84 100.81 0.65 c p3
170.12 100.52 0.65 c p3
170.40 100.52 0.65 c p3
170.68 100.01 0.65 c p3
170.96 98.98 0.65 c p3
171.24 98.47 0.65 c p3
171.52 98.76 0.65 c p3
171.80 98.76 0.65 c p3
172.08 99.78 0.65 c p3
172.36 98.25 0.65 c p3
172.64 98.47 0.65 c p3
172.92 97.23 0.65 c p3
173.20 98.76 0.65 c p3
173.48 97.74 0.65 c p3
173.76 97.23 0.65 c p3
174.04 98.25 0.65 c p3
174.32 97.00 0.65 c p3
174.60 97.51 0.65 c p3
174.88 96.22 0.65 c p3
175.16 97.00 0.65 c p3
175.44 97.51 0.65 c p3
175.72 95.49 0.65 c p3
176.00 96.22 0.65 c p3
176.28 94.98 0.65 c p3
176.56 95.99 0.65 c p3
176.84 95.21 0.65 c p3
177.12 94.98 0.65 c p3
177.40 95.99 0.65 c p3
177.68 95.21 0.65 c p3
177.96 95.21 0.65 c p3
178.24 95.49 0.65 c p3
178.52 93.70 0.65 c p3
178.80 93.48 0.65 c p3
179.08 95.71 0.65 c p3
179.36 94.20 0.65 c p3
179.64 93.70 0.65 c p3
179.92 94.70 0.65 c p3
180.20 93.20 0.65 c p3
180.48 94.20 0.65 c p3
180.76 92.20 0.65 c p3
181.04 92.70 0.65 c p3
181.32 92.20 0.65 c p3
181.60 92.98 0.65 c p3
181.88 92.70 0.65 c p3
182.16 92.70 0.65 c p3
182.44 91.21 0.65 c p3
182.72 89.51 0.65 c p3
183.00 91.49 0.65 c p3
183.28 91.98 0.65 c p3
183.56 91.49 0.65 c p3
183.84 90.72 0.65 c p3
184.12 90.72 0.65 c p3
184.40 92.20 0.65 c p3
184.68 90.22 0.65 c p3
184.96 90.72 0.65 c p3
185.24 90.00 0.65 c p3
185.52 90.00 0.65 c p3
185.80 90.22 0.65 c p3
186.08 89.73 0.65 c p3
186.36 90.00 0.65 c p3
186.64 90.72 0.65 c p3
186.92 88.04 0.65 c p3
187.20 89.73 0.65 c p3
187.48 90.50 0.65 c p3
187.76 88.53 0.65 c p3
188.04 90.50 0.65 c p3
188.32 89.73 0.65 c p3
188.60 88.53 0.65 c p3
188.88 89.73 0.65 c p3
189.16 87.77 0.65 c p3
189.44 89.24 0.65 c p3
189.72 87.33 0.65 c p3
190.00 88.26 0.65 c p3
190.28 88.75 0.65 c p3
190.56 87.77 0.65 c p3
190.84 87.55 0.65 c p3
191.12 88.53 0.65 c p3
191.40 86.85 0.65 c p3
191.68 87.06 0.65 c p3
191.96 87.77 0.65 c p3
192.24 87.33 0.65 c p3
192.52 86.85 0.65 c p3
192.80 87.77 0.65 c p3
193.08 86.85 0.65 c p3
193.36 87.55 0.65 c p3
193.64 84.91 0.65 c p3
193.92 85.61 0.65 c p3
194.20 86.58 0.65 c p3
194.48 85.39 0.65 c p3
194.76 85.12 0.65 c p3
195.04 87.06 0.65 c p3
195.32 85.61 0.65 c p3
195.60 86.09 0.65 c p3
195.88 84.64 0.65 c p3
196.16 85.39 0.65 c p3
196.44 85.61 0.65 c p3
196.72 83.94 0.65 c p3
197.00 84.64 0.65 c p3
197.28 86.36 0.65 c p3
197.56 83.94 0.65 c p3
197.84 83.46 0.65 c p3
198.12 83.94 0.65 c p3
198.40 84.64 0.65 c p3
198.68 85.12 0.65 c p3
198.96 83.94 0.65 c p3
199.24 82.98 0.65 c p3
199.52 84.91 0.65 c p3
199.80 83.68 0.65 c p3
200.08 84.16 0.65 c p3
200.36 83.46 0.65 c p3
200.64 83.94 0.65 c p3
200.92 83.20 0.65 c p3
201.20 83.20 0.65 c p3
201.48 82.24 0.65 c p3
201.76 82.72 0.65 c p3
202.04 82.98 0.65 c p3
202.32 82.24 0.65 c p3
202.60 82.24 0.65 c p3
202.88 82.98 0.65 c p3
203.16 81.76 0.65 c p3
203.44 82.03 0.65 c p3
203.72 82.03 0.65 c p3
204.00 81.76 0.65 c p3
204.28 82.24 0.65 c p3
204.56 81.55 0.65 c p3
204.84 81.28 0.65 c p3
205.12 81.28 0.65 c p3
205.40 81.28 0.65 c p3
205.68 82.24 0.65 c p3
205.96 81.07 0.65 c p3
206.24 81.76 0.65 c p3
206.52 82.03 0.65 c p3
206.80 81.55 0.65 c p3
207.08 81.28 0.65 c p3
207.36 81.55 0.65 c p3
207.64 80.60 0.65 c p3
207.92 81.07 0.65 c p3
208.20 80.12 0.65 c p3
208.48 81.07 0.65 c p3
208.76 80.60 0.65 c p3
209.04 80.33 0.65 c p3
209.32 79.39 0.65 c p3
209.60 80.33 0.65 c p3
209.88 78.91 0.65 c p3
210.16 79.39 0.65 c p3
210.44 79.86 0.65 c p3
210.72 79.86 0.65 c p3
211.00 79.86 0.65 c p3
211.28 79.39 0.65 c p3
211.56 79.86 0.65 c p3
211.84 80.33 0.65 c p3
212.12 80.12 0.65 c p3
212.40 78.44 0.65 c p3
212.68 78.71 0.65 c p3
212.96 79.86 0.65 c p3
213.24 78.44 0.65 c p3
213.52 78.71 0.65 c p3
213.80 78.71 0.65 c p3
214.08 79.86 0.65 c p3
214.36 79.86 0.65 c p3
214.64 78.71 0.65 c p3
214.92 77.50 0.65 c p3
215.20 79.39 0.65 c p3
215.48 78.91 0.65 c p3
215.76 78.44 0.65 c p3
216.04 77.30 0.65 c p3
216.32 78.44 0.65 c p3
216.60 79.39 0.65 c p3
216.88 78.71 0.65 c p3
217.16 78.71 0.65 c p3
217.44 76.83 0.65 c p3
217.72 77.09 0.65 c p3
218.00 78.44 0.65 c p3
218.28 77.76 0.65 c p3
218.56 77.76 0.65 c p3
218.84 77.30 0.65 c p3
219.12 77.09 0.65 c p3
219.40 77.97 0.65 c p3
219.68 77.50 0.65 c p3
219.96 77.30 0.65 c p3
220.24 78.44 0.65 c p3
220.52 78.23 0.65 c p3
220.80 77.09 0.65 c p3
221.08 77.30 0.65 c p3
221.36 76.62 0.65 c p3
221.64 76.15 0.65 c p3
221.92 76.36 0.65 c p3
222.20 75.89 0.65 c p3
222.48 76.15 0.65 c p3
222.76 76.83 0.65 c p3
223.04 76.62 0.65 c p3
223.32 74.96 0.65 c p3
223.60 77.09 0.65 c p3
223.88 77.09 0.65 c p3
224.16 77.09 0.65 c p3
224.44 75.89 0.65 c p3
224.72 77.09 0.65 c p3
225.00 76.15 0.65 c p3
225.28 75.89 0.65 c p3
225.56 75.89 0.65 c p3
225.84 75.43 0.65 c p3
226.12 75.22 0.65 c p3
226.40 75.89 0.65 c p3
226.68 76.36 0.65 c p3
226.96 76.83 0.65 c p3
227.24 75.89 0.65 c p3
227.52 75.69 0.65 c p3
227.80 76.36 0.65 c p3
228.08 74.96 0.65 c p3
228.36 75.22 0.65 c p3
228.64 74.96 0.65 c p3
228.92 74.76 0.65 c p3
229.20 74.50 0.65 c p3
229.48 74.96 0.65 c p3
229.76 74.50 0.65 c p3
230.04 74.76 0.65 c p3
230.32 75.22 0.65 c p3
230.60 74.96 0.65 c p3
230.88 75.22 0.65 c p3
231.16 74.76 0.65 c p3
231.44 75.43 0.65 c p3
231.72 74.96 0.65 c p3
232.00 74.29 0.65 c p3
232.28 74.04 0.65 c p3
232.56 74.96 0.65 c p3
232.84 74.76 0.65 c p3
233.12 74.96 0.65 c p3
233.40 74.04 0.65 c p3
233.68 74.04 0.65 c p3
233.96 74.96 0.65 c p3
234.24 75.69 0.65 c p3
234.52 73.37 0.65 c p3
234.80 73.83 0.65 c p3
235.08 73.58 0.65 c p3
235.36 74.96 0.65 c p3
235.64 73.58 0.65 c p3
235.92 74.76 0.65 c p3
236.20 73.83 0.65 c p3
236.48 74.04 0.65 c p3
236.76 73.58 0.65 c p3
237.04 74.76 0.65 c p3
237.32 73.58 0.65 c p3
237.60 73.37 0.65 c p3
237.88 73.83 0.65 c p3
238.16 74.76 0.65 c p3
238.44 72.65 0.65 c p3
238.72 74.50 0.65 c p3
239.00 74.04 0.65 c p3
239.28 73.11 0.65 c p3
239.56 73.11 0.65 c p3
239.84 73.58 0.65 c p3
240.12 71.99 0.65 c p3
240.40 73.11 0.65 c p3
240.68 73.37 0.65 c p3
240.96 73.37 0.65 c p3
241.24 72.65 0.65 c p3
241.52 72.45 0.65 c p3
241.80 72.65 0.65 c p3
242.08 72.91 0.65 c p3
242.36 72.91 0.65 c p3
242.64 73.58 0.65 c p3
242.92 72.45 0.65 c p3
243.20 73.11 0.65 c p3
243.48 72.65 0.65 c p3
243.76 73.11 0.65 c p3
244.04 71.74 0.65 c p3
244.32 72.91 0.65 c p3
244.60 72.45 0.65 c p3
244.88 72.45 0.65 c p3
245.16 73.11 0.65 c p3
245.44 73.11 0.65 c p3
245.72 71.99 0.65 c p3
246.00 72.91 0.65 c p3
246.28 72.20 0.65 c p3
246.56 72.91 0.65 c p3
246.84 72.45 0.65 c p3
247.12 72.45 0.65 c p3
247.40 72.20 0.65 c p3
247.68 71.53 0.65 c p3
247.96 71.99 0.65 c p3
248.24 73.37 0.65 c p3
248.52 71.53 0.65 c p3
248.80 72.91 0.65 c p3
249.08 72.20 0.65 c p3
249.36 72.20 0.65 c p3
249.64 71.08 0.65 c p3
249.92 72.20 0.65 c p3
250.20 70.82 0.65 c p3
250.48 71.74 0.65 c p3
250.76 71.08 0.65 c p3
251.04 72.20 0.65 c p3
251.32 70.62 0.65 c p3
251.60 71.99 0.65 c p3
251.88 70.82 0.65 c p3
252.16 71.28 0.65 c p3
252.44 70.62 0.65 c p3
252.72 71.08 0.65 c p3
253.00 71.28 0.65 c p3
253.28 72.91 0.65 c p3
253.56 71.99 0.65 c p3
253.84 71.74 0.65 c p3
254.12 71.28 0.65 c p3
254.40 71.08 0.65 c p3
254.68 71.74 0.65 c p3
254.96 71.08 0.65 c p3
255.24 70.16 0.65 c p3
255.52 70.62 0.65 c p3
255.80 70.62 0.65 c p3
256.08 71.53 0.65 c p3
256.36 70.82 0.65 c p3
256.64 70.37 0.65 c p3
256.92 71.08 0.65 c p3
257.20 71.53 0.65 c p3
257.48 71.53 0.65 c p3
257.76 70.62 0.65 c p3
258.04 70.37 0.65 c p3
258.32 70.62 0.65 c p3
258.60 69.71 0.65 c p3
258.88 70.62 0.65 c p3
259.16 70.62 0.65 c p3
259.44 70.16 0.65 c p3
259.72 70.62 0.65 c p3
260.00 70.82 0.65 c p3
260.28 69.71 0.65 c p3
260.56 71.08 0.65 c p3
260.84 70.37 0.65 c p3
261.12 70.82 0.65 c p3
261.40 69.71 0.65 c p3
261.68 69.91 0.65 c p3
261.96 70.37 0.65 c p3
262.24 70.37 0.65 c p3
262.52 69.71 0.65 c p3
262.80 71.28 0.65 c p3
263.08 70.16 0.65 c p3
263.36 70.82 0.65 c p3
263.64 70.37 0.65 c p3
263.92 69.71 0.65 c p3
264.20 70.37 0.65 c p3
264.48 70.62 0.65 c p3
264.76 69.91 0.65 c p3
265.04 70.37 0.65 c p3
265.32 70.37 0.65 c p3
265.60 70.82 0.65 c p3
265.88 69.25 0.65 c p3
266.16 70.82 0.65 c p3
266.44 69.71 0.65 c p3
266.72 69.71 0.65 c p3
267.00 69.46 0.65 c p3
267.28 70.16 0.65 c p3
267.56 69.46 0.65 c p3
267.84 70.16 0.65 c p3
268.12 68.10 0.65 c p3
268.40 70.16 0.65 c p3
268.68 69.46 0.65 c p3
268.96 69.71 0.65 c p3
269.24 68.35 0.65 c p3
269.52 70.37 0.65 c p3
269.80 69.25 0.65 c p3
270.08 69.46 0.65 c p3
270.36 69.71 0.65 c p3
270.64 69.00 0.65 c p3
270.92 69.25 0.65 c p3
271.20 69.91 0.65 c p3
271.48 69.71 0.65 c p3
271.76 69.25 0.65 c p3
272.04 68.35 0.65 c p3
272.32 69.46 0.65 c p3
272.60 69.46 0.65 c p3
272.88 68.80 0.65 c p3
273.16 68.80 0.65 c p3
273.44 68.80 0.65 c p3
273.72 69.91 0.65 c p3
274.00 69.91 0.65 c p3
274.28 68.80 0.65 c p3
274.56 69.00 0.65 c p3
274.84 68.80 0.65 c p3
275.12 69.25 0.65 c p3
275.40 68.55 0.65 c p3
275.68 69.25 0.65 c p3
275.96 69.25 0.65 c p3
276.24 70.16 0.65 c p3
276.52 68.80 0.65 c p3
276.80 69.71 0.65 c p3
277.08 69.00 0.65 c p3
277.36 68.55 0.65 c p3
277.64 68.10 0.65 c p3
277.92 68.55 0.65 c p3
278.20 68.35 0.65 c p3
278.48 69.46 0.65 c p3
278.76 69.00 0.65 c p3
279.04 68.35 0.65 c p3
279.32 68.80 0.65 c p3
279.60 68.55 0.65 c p3
279.88 67.65 0.65 c p3
280.16 68.35 0.65 c p3
280.44 67.45 0.65 c p3
280.72 69.00 0.65 c p3
281.00 68.80 0.65 c p3
281.28 67.65 0.65 c p3
281.56 68.80 0.65 c p3
281.84 69.46 0.65 c p3
282.12 68.10 0.65 c p3
282.40 67.65 0.65 c p3
282.68 68.35 0.65 c p3
282.96 68.10 0.65 c p3
283.24 67.45 0.65 c p3
283.52 68.55 0.65 c p3
283.80 67.45 0.65 c p3
284.08 68.35 0.65 c p3
284.36 67.45 0.65 c p3
284.64 68.55 0.65 c p3
284.92 68.10 0.65 c p3
285.20 67.65 0.65 c p3
285.48 67.65 0.65 c p3
285.76 67.45 0.65 c p3
286.04 68.35 0.65 c p3
286.32 67.90 0.65 c p3
286.60 68.55 0.65 c p3
286.88 68.35 0.65 c p3
287.16 67.90 0.65 c p3
287.44 67.65 0.65 c p3
287.72 67.45 0.65 c p3
288.00 67.90 0.65 c p3
288.28 67.90 0.65 c p3
288.56 68.35 0.65 c p3
288.84 67.65 0.65 c p3
289.12 67.45 0.65 c p3
289.40 68.10 0.65 c p3
289.68 69.00 0.65 c p3
289.96 65.90 0.65 c p3
290.24 67.45 0.65 c p3
290.52 67.45 0.65 c p3
290.80 68.55 0.65 c p3
291.08 69.25 0.65 c p3
291.36 67.90 0.65 c p3
291.64 67.25 0.65 c p3
291.92 68.55 0.65 c p3
292.20 67.45 0.65 c p3
292.48 68.10 0.65 c p3
292.76 67.65 0.65 c p3
293.04 67.65 0.65 c p3
293.32 68.35 0.65 c p3
293.60 67.65 0.65 c p3
293.88 67.65 0.65 c p3
294.16 67.25 0.65 c p3
294.44 67.45 0.65 c p3
294.72 67.45 0.65 c p3
295.00 67.25 0.65 c p3
295.28 67.45 0.65 c p3
295.56 67.90 0.65 c p3
295.84 67.25 0.65 c p3
296.12 66.10 0.65 c p3
296.40 67.90 0.65 c p3
296.68 66.55 0.65 c p3
296.96 66.80 0.65 c p3
297.24 67.65 0.65 c p3
297.52 66.55 0.65 c p3
297.80 67.00 0.65 c p3
298.08 65.90 0.65 c p3
298.36 67.25 0.65 c p3
298.64 67.00 0.65 c p3
298.92 66.55 0.65 c p3
299.20 66.55 0.65 c p3
299.48 67.45 0.65 c p3
299.76 67.25 0.65 c p3
300.04 66.35 0.65 c p3
300.32 67.45 0.65 c p3
300.60 66.55 0.65 c p3
300.88 67.25 0.65 c p3
301.16 67.00 0.65 c p3
301.44 66.35 0.65 c p3
301.72 66.80 0.65 c p3
302.00 67.00 0.65 c p3
302.28 66.80 0.65 c p3
302.56 66.10 0.65 c p3
302.84 66.80 0.65 c p3
303.12 67.00 0.65 c p3
303.40 67.25 0.65 c p3
303.68 66.80 0.65 c p3
303.96 67.90 0.65 c p3
304.24 66.80 0.65 c p3
304.52 66.10 0.65 c p3
304.80 66.80 0.65 c p3
305.08 67.00 0.65 c p3
305.36 65.90 0.65 c p3
305.64 67.00 0.65 c p3
305.92 66.55 0.65 c p3
306.20 65.65 0.65 c p3
306.48 66.35 0.65 c p3
306.76 66.10 0.65 c p3
307.04 65.01 0.65 c p3
307.32 65.90 0.65 c p3
307.60 66.10 0.65 c p3
307.88 65.01 0.65 c p3
308.16 66.55 0.65 c p3
308.44 65.90 0.65 c p3
308.72 65.65 0.65 c p3
309.00 65.90 0.65 c p3
309.28 66.80 0.65 c p3
309.56 65.65 0.65 c p3
309.84 67.00 0.65 c p3
310.12 66.80 0.65 c p3
310.40 65.65 0.65 c p3
310.68 66.80 0.65 c p3
310.96 65.21 0.65 c p3
311.24 65.45 0.65 c p3
311.52 65.45 0.65 c p3
311.80 66.10 0.65 c p3
312.08 65.65 0.65 c p3
312.36 65.01 0.65 c p3
312.64 66.10 0.65 c p3
312.92 66.35 0.65 c p3
313.20 65.90 0.65 c p3
313.48 65.45 0.65 c p3
313.76 65.65 0.65 c p3
314.04 65.45 0.65 c p3
314.32 65.01 0.65 c p3
314.60 65.01 0.65 c p3
314.88 65.90 0.65 c p3
315.16 65.21 0.65 c p3
315.44 66.80 0.65 c p3
315.72 65.65 0.65 c p3
316.00 66.35 0.65 c p3
316.28 64.76 0.65 c p3
316.56 66.35 0.65 c p3
316.84 65.21 0.65 c p3
317.12 66.35 0.65 c p3
317.40 65.21 0.65 c p3
317.68 65.01 0.65 c p3
317.96 65.21 0.65 c p3
318.24 65.65 0.65 c p3
318.52 64.56 0.65 c p3
318.80 66.10 0.65 c p3
319.08 64.56 0.65 c p3
319.36 65.65 0.65 c p3
319.64 65.45 0.65 c p3
319.92 65.21 0.65 c p3
320.20 64.76 0.65 c p3
320.48 64.76 0.65 c p3
320.76 65.01 0.65 c p3
321.04 65.65 0.65 c p3
321.32 65.65 0.65 c p3
321.60 65.45 0.65 c p3
321.88 65.21 0.65 c p3
322.16 65.21 0.65 c p3
322.44 64.76 0.65 c p3
322.72 65.90 0.65 c p3
323.00 64.76 0.65 c p3
323.28 64.76 0.65 c p3
323.56 65.01 0.65 c p3
323.84 64.56 0.65 c p3
324.12 64.76 0.65 c p3
324.40 64.76 0.65 c p3
324.68 63.87 0.65 c p3
324.96 65.21 0.65 c p3
325.24 64.76 0.65 c p3
325.52 65.45 0.65 c p3
325.80 64.76 0.65 c p3
326.08 65.01 0.65 c p3
326.36 65.01 0.65 c p3
326.64 64.76 0.65 c p3
326.92 64.76 0.65 c p3
327.20 64.76 0.65 c p3
327.48 64.76 0.65 c p3
327.76 64.56 0.65 c p3
328.04 63.87 0.65 c p3
328.32 64.76 0.65 c p3
328.60 64.56 0.65 c p3
328.88 64.31 0.65 c p3
329.16 65.01 0.65 c p3
329.44 65.21 0.65 c p3
329.72 63.87 0.65 c p3
330.00 64.56 0.65 c p3
330.28 64.31 0.65 c p3
330.56 63.87 0.65 c p3
330.84 64.56 0.65 c p3
331.12 64.56 0.65 c p3
331.40 64.31 0.65 c p3
331.68 63.67 0.65 c p3
331.96 64.56 0.65 c p3
332.24 65.45 0.65 c p3
332.52 63.67 0.65 c p3
332.80 65.01 0.65 c p3
333.08 64.76 0.65 c p3
333.36 65.45 0.65 c p3
333.64 64.76 0.65 c p3
333.92 63.23 0.65 c p3
334.20 63.67 0.65 c p3
334.48 64.56 0.65 c p3
334.76 63.67 0.65 c p3
335.04 63.67 0.65 c p3
335.32 64.31 0.65 c p3
335.60 64.12 0.65 c p3
335.88 65.65 0.65 c p3
336.16 63.43 0.65 c p3
336.44 62.54 0.65 c p3
336.72 65.21 0.65 c p3
337.00 63.43 0.65 c p3
337.28 64.76 0.65 c p3
337.56 63.23 0.65 c p3
337.84 62.98 0.65 c p3
338.12 64.31 0.65 c p3
338.40 64.56 0.65 c p3
338.68 63.23 0.65 c p3
338.96 64.56 0.65 c p3
339.24 64.12 0.65 c p3
339.52 63.87 0.65 c p3
339.80 64.31 0.65 c p3
340.08 63.87 0.65 c p3
340.36 65.01 0.65 c p3
340.64 63.23 0.65 c p3
340.92 64.12 0.65 c p3
341.20 62.98 0.65 c p3
341.48 63.67 0.65 c p3
341.76 64.31 0.65 c p3
342.04 62.98 0.65 c p3
342.32 64.56 0.65 c p3
342.60 63.43 0.65 c p3
342.88 64.56 0.65 c p3
343.16 63.67 0.65 c p3
343.44 63.43 0.65 c p3
343.72 64.12 0.65 c p3
344.00 63.67 0.65 c p3
344.28 62.79 0.65 c p3
344.56 63.23 0.65 c p3
344.84 63.43 0.65 c p3
345.12 64.31 0.65 c p3
345.40 63.67 0.65 c p3
345.68 64.12 0.65 c p3
345.96 63.43 0.65 c p3
346.24 63.67 0.65 c p3
346.52 64.12 0.65 c p3
346.80 63.43 0.65 c p3
347.08 63.23 0.65 c p3
347.36 63.87 0.65 c p3
347.64 63.67 0.65 c p3
347.92 63.87 0.65 c p3
348.20 64.12 0.65 c p3
348.48 62.79 0.65 c p3
348.76 63.23 0.65 c p3
349.04 63.23 0.65 c p3
349.32 62.79 0.65 c p3
349.60 64.12 0.65 c p3
349.88 63.43 0.65 c p3
350.16 64.76 0.65 c p3
350.44 62.98 0.65 c p3
350.72 62.79 0.65 c p3
351.00 63.23 0.65 c p3
351.28 63.87 0.65 c p3
351.56 63.87 0.65 c p3
351.84 63.43 0.65 c p3
352.12 62.79 0.65 c p3
352.40 62.79 0.65 c p3
352.68 64.12 0.65 c p3
352.96 63.43 0.65 c p3
353.24 63.23 0.65 c p3
353.52 62.35 0.65 c p3
353.80 63.23 0.65 c p3
354.08 63.43 0.65 c p3
354.36 63.43 0.65 c p3
354.64 62.10 0.65 c p3
354.92 63.23 0.65 c p3
355.20 63.67 0.65 c p3
355.48 62.79 0.65 c p3
355.76 62.79 0.65 c p3
356.04 62.54 0.65 c p3
356.32 62.79 0.65 c p3
356.60 62.10 0.65 c p3
356.88 63.67 0.65 c p3
357.16 63.23 0.65 c p3
357.44 63.23 0.65 c p3
357.72 62.79 0.65 c p3
358.00 63.87 0.65 c p3
358.28 63.43 0.65 c p3
358.56 63.43 0.65 c p3
358.84 63.23 0.65 c p3
359.12 63.87 0.65 c p3
359.40 61.46 0.65 c p3
359.68 62.79 0.65 c p3
359.96 63.23 0.65 c p3
360.24 62.54 0.65 c p3
360.52 62.10 0.65 c p3
360.80 63.87 0.65 c p3
361.08 62.98 0.65 c p3
361.36 62.98 0.65 c p3
361.64 63.43 0.65 c p3
361.92 62.35 0.65 c p3
362.20 62.54 0.65 c p3
362.48 62.54 0.65 c p3
362.76 63.43 0.65 c p3
363.04 63.43 0.65 c p3
216.00 201.60 367.20 247.68 cl
0 0 0 srgb
0.75 setlinewidth
[] 0 setdash
1 setlinecap
1 setlinejoin
10.00 setmiterlimit
221.60 238.86 0.43 c p1
221.75 234.38 0.43 c p1
221.90 236.05 0.43 c p1
222.05 237.70 0.43 c p1
222.20 238.12 0.43 c p1
222.35 237.86 0.43 c p1
222.50 231.80 0.43 c p1
222.65 231.71 0.43 c p1
222.80 230.98 0.43 c p1
222.95 236.06 0.43 c p1
223.10 230.66 0.43 c p1
223.25 232.74 0.43 c p1
223.40 226.96 0.43 c p1
223.55 229.00 0.43 c p1
223.70 228.90 0.43 c p1
223.85 228.19 0.43 c p1
224.00 225.29 0.43 c p1
224.15 227.39 0.43 c p1
224.30 225.60 0.43 c p1
224.45 228.64 0.43 c p1
224.60 227.45 0.43 c p1
224.75 224.02 0.43 c p1
224.90 222.28 0.43 c p1
225.05 226.42 0.43 c p1
225.20 225.72 0.43 c p1
225.35 227.60 0.43 c p1
225.50 226.90 0.43 c p1
225.65 225.16 0.43 c p1
225.80 222.52 0.43 c p1
225.95 224.81 0.43 c p1
226.10 226.17 0.43 c p1
226.25 225.02 0.43 c p1
226.40 221.86 0.43 c p1
226.55 222.19 0.43 c p1
226.70 221.96 0.43 c p1
226.85 225.83 0.43 c p1
227.00 223.58 0.43 c p1
227.15 223.89 0.43 c p1
227.30 221.78 0.43 c p1
227.45 224.04 0.43 c p1
227.60 223.35 0.43 c p1
227.75 220.73 0.43 c p1
227.90 223.37 0.43 c p1
228.05 222.25 0.43 c p1
228.20 221.57 0.43 c p1
228.35 221.84 0.43 c p1
228.50 220.21 0.43 c p1
228.65 221.94 0.43 c p1
228.80 222.20 0.43 c p1
228.95 222.87 0.43 c p1
229.10 222.17 0.43 c p1
229.25 220.55 0.43 c p1
229.40 221.31 0.43 c p1
229.55 225.25 0.43 c p1
229.70 223.61 0.43 c p1
229.85 221.07 0.43 c p1
230.00 220.78 0.43 c p1
230.15 221.91 0.43 c p1
230.30 222.62 0.43 c p1
230.45 225.55 0.43 c p1
230.60 221.61 0.43 c p1
230.75 221.01 0.43 c p1
230.90 219.82 0.43 c p1
231.05 222.28 0.43 c p1
231.20 222.46 0.43 c p1
231.35 221.25 0.43 c p1
231.50 219.28 0.43 c p1
231.65 222.47 0.43 c p1
231.80 220.50 0.43 c p1
231.95 218.93 0.43 c p1
232.10 219.95 0.43 c p1
232.25 223.95 0.43 c p1
232.40 220.63 0.43 c p1
232.55 222.11 0.43 c p1
232.70 221.77 0.43 c p1
232.85 221.05 0.43 c p1
233.00 223.74 0.43 c p1
233.15 222.63 0.43 c p1
233.30 221.42 0.43 c p1
233.45 221.63 0.43 c p1
233.60 216.74 0.43 c p1
233.75 221.01 0.43 c p1
233.90 223.16 0.43 c p1
234.05 221.22 0.43 c p1
234.20 218.38 0.43 c p1
234.35 220.58 0.43 c p1
234.50 221.49 0.43 c p1
234.65 222.76 0.43 c p1
234.80 221.20 0.43 c p1
234.95 220.45 0.43 c p1
235.10 222.16 0.43 c p1
235.25 222.22 0.43 c p1
235.40 218.69 0.43 c p1
235.55 220.72 0.43 c p1
235.71 220.42 0.43 c p1
235.86 220.48 0.43 c p1
236.01 221.68 0.43 c p1
236.16 221.73 0.43 c p1
236.31 220.26 0.43 c p1
236.46 221.45 0.43 c p1
236.61 220.69 0.43 c p1
236.76 221.95 0.43 c p1
236.91 223.11 0.43 c p1
237.06 221.99 0.43 c p1
237.21 221.22 0.43 c p1
237.36 221.58 0.43 c p1
237.51 222.03 0.43 c p1
237.66 221.60 0.43 c p1
237.81 220.82 0.43 c p1
237.96 223.15 0.43 c p1
238.11 220.82 0.43 c p1
238.26 221.59 0.43 c p1
238.41 221.23 0.43 c p1
238.56 221.99 0.43 c p1
238.71 221.97 0.43 c p1
238.86 221.94 0.43 c p1
239.01 221.49 0.43 c p1
239.16 221.46 0.43 c p1
239.31 221.10 0.43 c p1
239.46 221.82 0.43 c p1
239.61 222.87 0.43 c p1
239.76 222.15 0.43 c p1
239.91 221.69 0.43 c p1
240.06 222.81 0.43 c p1
240.21 219.77 0.43 c p1
240.36 221.95 0.43 c p1
240.51 222.22 0.43 c p1
240.66 222.57 0.43 c p1
240.81 223.24 0.43 c p1
240.96 222.02 0.43 c p1
241.11 220.88 0.43 c p1
241.26 223.02 0.43 c p1
241.41 221.47 0.43 c p1
241.56 222.45 0.43 c p1
241.71 222.36 0.43 c p1
241.86 221.54 0.43 c p1
242.01 223.32 0.43 c p1
242.16 223.54 0.43 c p1
242.31 220.94 0.43 c p1
242.46 221.16 0.43 c p1
242.61 222.19 0.43 c p1
242.76 222.08 0.43 c p1
242.91 221.97 0.43 c p1
243.06 221.86 0.43 c p1
243.21 222.78 0.43 c p1
243.36 220.91 0.43 c p1
243.51 220.79 0.43 c p1
243.66 222.81 0.43 c p1
243.81 221.66 0.43 c p1
243.96 222.95 0.43 c p1
244.11 224.24 0.43 c p1
244.26 222.68 0.43 c p1
244.41 222.15 0.43 c p1
244.56 222.71 0.43 c p1
244.71 223.98 0.43 c p1
244.86 223.52 0.43 c p1
245.01 222.66 0.43 c p1
245.16 223.92 0.43 c p1
245.31 223.06 0.43 c p1
245.46 224.62 0.43 c p1
245.61 222.04 0.43 c p1
245.76 224.67 0.43 c p1
245.91 223.42 0.43 c p1
246.06 223.94 0.43 c p1
246.21 221.69 0.43 c p1
246.36 223.59 0.43 c p1
246.51 223.42 0.43 c p1
246.66 223.24 0.43 c p1
246.81 221.68 0.43 c p1
246.96 222.18 0.43 c p1
247.11 224.45 0.43 c p1
247.26 223.87 0.43 c p1
247.41 222.69 0.43 c p1
247.56 223.18 0.43 c p1
247.71 223.67 0.43 c p1
247.86 222.78 0.43 c p1
248.01 222.28 0.43 c p1
248.16 224.42 0.43 c p1
248.31 223.23 0.43 c p1
248.46 223.70 0.43 c p1
248.61 224.85 0.43 c p1
248.76 224.63 0.43 c p1
248.91 224.72 0.43 c p1
249.06 223.82 0.43 c p1
249.21 223.30 0.43 c p1
249.36 223.75 0.43 c p1
249.51 224.20 0.43 c p1
249.66 223.97 0.43 c p1
249.81 223.07 0.43 c p1
249.96 224.18 0.43 c p1
250.11 225.95 0.43 c p1
250.26 224.67 0.43 c p1
250.41 223.76 0.43 c p1
250.56 226.19 0.43 c p1
250.71 224.31 0.43 c p1
250.86 224.07 0.43 c p1
251.01 224.78 0.43 c p1
251.16 225.19 0.43 c p1
251.31 224.28 0.43 c p1
251.46 224.68 0.43 c p1
251.61 225.46 0.43 c p1
251.76 224.83 0.43 c p1
251.91 224.28 0.43 c p1
252.06 224.97 0.43 c p1
252.21 224.04 0.43 c p1
252.36 226.12 0.43 c p1
252.51 225.48 0.43 c p1
252.66 225.86 0.43 c p1
252.81 222.40 0.43 c p1
252.96 224.08 0.43 c p1
253.11 223.80 0.43 c p1
253.26 223.53 0.43 c p1
253.41 225.20 0.43 c p1
253.56 224.92 0.43 c p1
253.71 225.28 0.43 c p1
253.86 225.65 0.43 c p1
254.01 224.71 0.43 c p1
254.16 226.00 0.43 c p1
254.31 223.48 0.43 c p1
254.46 225.13 0.43 c p1
254.61 227.43 0.43 c p1
254.76 224.82 0.43 c p1
254.91 224.88 0.43 c p1
255.06 225.23 0.43 c p1
255.21 225.21 0.43 c p1
255.36 227.20 0.43 c p1
255.51 223.04 0.43 c p1
255.66 226.86 0.43 c p1
255.81 225.27 0.43 c p1
255.96 224.67 0.43 c p1
256.11 224.36 0.43 c p1
256.26 226.60 0.43 c p1
256.41 224.65 0.43 c p1
256.56 226.25 0.43 c p1
256.71 224.37 0.43 c p1
256.86 225.32 0.43 c p1
257.01 228.47 0.43 c p1
257.16 224.96 0.43 c p1
257.31 224.63 0.43 c p1
257.46 225.92 0.43 c p1
257.61 225.24 0.43 c p1
257.76 224.91 0.43 c p1
257.91 224.58 0.43 c p1
258.06 225.86 0.43 c p1
258.21 225.81 0.43 c p1
258.36 226.10 0.43 c p1
258.51 225.76 0.43 c p1
258.66 224.79 0.43 c p1
258.81 224.45 0.43 c p1
258.96 225.09 0.43 c p1
259.11 225.37 0.43 c p1
259.26 226.91 0.43 c p1
259.41 225.30 0.43 c p1
259.56 225.86 0.43 c p1
259.71 224.61 0.43 c p1
259.86 226.75 0.43 c p1
260.01 225.77 0.43 c p1
260.16 225.42 0.43 c p1
260.31 226.94 0.43 c p1
260.46 225.68 0.43 c p1
260.61 226.56 0.43 c p1
260.76 225.24 0.43 c p1
260.91 226.46 0.43 c p1
261.06 227.34 0.43 c p1
261.21 225.11 0.43 c p1
261.36 226.26 0.43 c p1
261.51 225.00 0.43 c p1
261.66 226.49 0.43 c p1
261.81 225.78 0.43 c p1
261.96 225.75 0.43 c p1
262.11 227.23 0.43 c p1
262.26 226.51 0.43 c p1
262.41 226.76 0.43 c p1
262.56 227.34 0.43 c p1
262.71 225.39 0.43 c p1
262.86 225.35 0.43 c p1
263.01 228.33 0.43 c p1
263.16 226.71 0.43 c p1
263.31 226.32 0.43 c p1
263.46 227.79 0.43 c p1
263.62 226.17 0.43 c p1
263.77 227.63 0.43 c p1
263.92 225.40 0.43 c p1
264.07 226.23 0.43 c p1
264.22 225.84 0.43 c p1
264.37 227.02 0.43 c p1
264.52 226.90 0.43 c p1
264.67 227.11 0.43 c p1
264.82 225.50 0.43 c p1
264.97 223.63 0.43 c p1
265.12 226.26 0.43 c p1
265.27 227.08 0.43 c p1
265.42 226.69 0.43 c p1
265.57 225.95 0.43 c p1
265.72 226.15 0.43 c p1
265.87 228.19 0.43 c p1
266.02 225.96 0.43 c p1
266.17 226.77 0.43 c p1
266.32 226.09 0.43 c p1
266.47 226.29 0.43 c p1
266.62 226.76 0.43 c p1
266.77 226.35 0.43 c p1
266.92 226.88 0.43 c p1
267.07 227.95 0.43 c p1
267.22 224.86 0.43 c p1
267.37 227.12 0.43 c p1
267.52 228.26 0.43 c p1
267.67 226.03 0.43 c p1
267.82 228.63 0.43 c p1
267.97 227.88 0.43 c p1
268.12 226.59 0.43 c p1
268.27 228.24 0.43 c p1
268.42 226.02 0.43 c p1
268.57 228.00 0.43 c p1
268.72 225.84 0.43 c p1
268.87 227.15 0.43 c p1
269.02 227.93 0.43 c p1
269.17 226.91 0.43 c p1
269.32 226.81 0.43 c p1
269.47 228.19 0.43 c p1
269.62 226.29 0.43 c p1
269.77 226.73 0.43 c p1
269.92 227.77 0.43 c p1
270.07 227.40 0.43 c p1
270.22 226.97 0.43 c p1
270.37 228.27 0.43 c p1
270.52 227.30 0.43 c p1
270.67 228.33 0.43 c p1
270.82 225.24 0.43 c p1
270.97 226.26 0.43 c p1
271.12 227.61 0.43 c p1
271.27 226.32 0.43 c p1
271.42 226.15 0.43 c p1
271.57 228.69 0.43 c p1
271.72 227.05 0.43 c p1
271.87 227.80 0.43 c p1
272.02 226.17 0.43 c p1
272.17 227.25 0.43 c p1
272.32 227.66 0.43 c p1
272.47 225.77 0.43 c p1
272.62 226.77 0.43 c p1
272.77 229.04 0.43 c p1
272.92 226.21 0.43 c p1
273.07 225.77 0.43 c p1
273.22 226.51 0.43 c p1
273.37 227.50 0.43 c p1
273.52 228.24 0.43 c p1
273.67 226.93 0.43 c p1
273.82 225.90 0.43 c p1
273.97 228.40 0.43 c p1
274.12 227.02 0.43 c p1
274.27 227.75 0.43 c p1
274.42 227.04 0.43 c p1
274.57 227.76 0.43 c p1
274.72 226.98 0.43 c p1
274.87 227.11 0.43 c p1
275.02 226.07 0.43 c p1
275.17 226.79 0.43 c p1
275.32 227.25 0.43 c p1
275.47 226.46 0.43 c p1
275.62 226.59 0.43 c p1
275.77 227.64 0.43 c p1
275.92 226.26 0.43 c p1
276.07 226.71 0.43 c p1
276.22 226.84 0.43 c p1
276.37 226.64 0.43 c p1
276.52 227.35 0.43 c p1
276.67 226.63 0.43 c p1
276.82 226.42 0.43 c p1
276.97 226.54 0.43 c p1
277.12 226.66 0.43 c p1
277.27 227.95 0.43 c p1
277.42 226.64 0.43 c p1
277.57 227.60 0.43 c p1
277.72 228.05 0.43 c p1
277.87 227.58 0.43 c p1
278.02 227.37 0.43 c p1
278.17 227.81 0.43 c p1
278.32 226.75 0.43 c p1
278.47 227.45 0.43 c p1
278.62 226.40 0.43 c p1
278.77 227.67 0.43 c p1
278.92 227.20 0.43 c p1
279.07 226.99 0.43 c p1
279.22 225.93 0.43 c p1
279.37 227.20 0.43 c p1
279.52 225.57 0.43 c p1
279.67 226.25 0.43 c p1
279.82 226.94 0.43 c p1
279.97 227.04 0.43 c p1
280.12 227.15 0.43 c p1
280.27 226.67 0.43 c p1
280.42 227.36 0.43 c p1
280.57 228.04 0.43 c p1
280.72 227.88 0.43 c p1
280.87 225.92 0.43 c p1
281.02 226.34 0.43 c p1
281.17 227.86 0.43 c p1
281.32 226.22 0.43 c p1
281.47 226.64 0.43 c p1
281.62 226.73 0.43 c p1
281.77 228.25 0.43 c p1
281.92 228.34 0.43 c p1
282.07 227.02 0.43 c p1
282.22 225.64 0.43 c p1
282.37 228.05 0.43 c p1
282.52 227.56 0.43 c p1
282.67 227.07 0.43 c p1
282.82 225.76 0.43 c p1
282.97 227.26 0.43 c p1
283.12 228.50 0.43 c p1
283.27 227.76 0.43 c p1
283.42 227.85 0.43 c p1
283.57 225.63 0.43 c p1
283.72 226.04 0.43 c p1
283.87 227.79 0.43 c p1
284.02 227.04 0.43 c p1
284.17 227.13 0.43 c p1
284.32 226.64 0.43 c p1
284.47 226.47 0.43 c p1
284.62 227.64 0.43 c p1
284.77 227.15 0.43 c p1
284.92 226.97 0.43 c p1
285.07 228.46 0.43 c p1
285.22 228.29 0.43 c p1
285.37 226.96 0.43 c p1
285.52 227.30 0.43 c p1
285.67 226.55 0.43 c p1
285.82 226.06 0.43 c p1
285.97 226.39 0.43 c p1
286.12 225.90 0.43 c p1
286.27 226.29 0.43 c p1
286.42 227.20 0.43 c p1
286.57 227.02 0.43 c p1
286.72 225.06 0.43 c p1
286.87 227.74 0.43 c p1
287.02 227.82 0.43 c p1
287.17 227.89 0.43 c p1
287.32 226.50 0.43 c p1
287.47 228.04 0.43 c p1
287.62 226.97 0.43 c p1
287.77 226.72 0.43 c p1
287.92 226.79 0.43 c p1
288.07 226.29 0.43 c p1
288.22 226.11 0.43 c p1
288.37 227.01 0.43 c p1
288.52 227.65 0.43 c p1
288.67 228.29 0.43 c p1
288.82 227.21 0.43 c p1
288.97 227.03 0.43 c p1
289.12 227.92 0.43 c p1
289.27 226.28 0.43 c p1
289.42 226.66 0.43 c p1
289.57 226.41 0.43 c p1
289.72 226.22 0.43 c p1
289.87 225.97 0.43 c p1
290.02 226.61 0.43 c p1
290.17 226.10 0.43 c p1
290.32 226.48 0.43 c p1
290.47 227.12 0.43 c p1
290.62 226.86 0.43 c p1
290.77 227.24 0.43 c p1
290.92 226.73 0.43 c p1
291.07 227.62 0.43 c p1
291.22 227.11 0.43 c p1
291.37 226.35 0.43 c p1
291.52 226.09 0.43 c p1
291.68 227.29 0.43 c p1
291.83 227.10 0.43 c p1
291.98 227.41 0.43 c p1
292.13 226.33 0.43 c p1
292.28 226.39 0.43 c p1
292.43 227.59 0.43 c p1
292.58 228.53 0.43 c p1
292.73 225.74 0.43 c p1
292.88 226.37 0.43 c p1
293.03 226.11 0.43 c p1
293.18 227.87 0.43 c p1
293.33 226.22 0.43 c p1
293.48 227.73 0.43 c p1
293.63 226.65 0.43 c p1
293.78 226.95 0.43 c p1
293.93 226.44 0.43 c p1
294.08 227.95 0.43 c p1
294.23 226.55 0.43 c p1
294.38 226.35 0.43 c p1
294.53 226.97 0.43 c p1
294.68 228.16 0.43 c p1
294.83 225.63 0.43 c p1
294.98 227.94 0.43 c p1
295.13 227.43 0.43 c p1
295.28 226.34 0.43 c p1
295.43 226.39 0.43 c p1
295.58 227.01 0.43 c p1
295.73 225.11 0.43 c p1
295.88 226.54 0.43 c p1
296.03 226.91 0.43 c p1
296.18 226.95 0.43 c p1
296.33 226.12 0.43 c p1
296.48 225.92 0.43 c p1
296.63 226.22 0.43 c p1
296.78 226.58 0.43 c p1
296.93 226.63 0.43 c p1
297.08 227.49 0.43 c p1
297.23 226.15 0.43 c p1
297.38 227.02 0.43 c p1
297.53 226.50 0.43 c p1
297.68 227.11 0.43 c p1
297.83 225.46 0.43 c p1
297.98 226.95 0.43 c p1
298.13 226.43 0.43 c p1
298.28 226.47 0.43 c p1
298.43 227.33 0.43 c p1
298.58 227.37 0.43 c p1
298.73 226.04 0.43 c p1
298.88 227.21 0.43 c p1
299.03 226.37 0.43 c p1
299.18 227.29 0.43 c p1
299.33 226.77 0.43 c p1
299.48 226.81 0.43 c p1
299.63 226.54 0.43 c p1
299.78 225.77 0.43 c p1
299.93 226.37 0.43 c p1
300.08 228.10 0.43 c p1
300.23 225.89 0.43 c p1
300.38 227.62 0.43 c p1
300.53 226.78 0.43 c p1
300.68 226.82 0.43 c p1
300.83 225.48 0.43 c p1
300.98 226.90 0.43 c p1
301.13 225.25 0.43 c p1
301.28 226.41 0.43 c p1
301.43 225.64 0.43 c p1
301.58 227.05 0.43 c p1
301.73 225.15 0.43 c p1
301.88 226.87 0.43 c p1
302.03 225.47 0.43 c p1
302.18 226.07 0.43 c p1
302.33 225.30 0.43 c p1
302.48 225.89 0.43 c p1
302.63 226.18 0.43 c p1
302.78 228.22 0.43 c p1
302.93 227.12 0.43 c p1
303.08 226.85 0.43 c p1
303.23 226.32 0.43 c p1
303.38 226.10 0.43 c p1
303.53 226.95 0.43 c p1
303.68 226.17 0.43 c p1
303.83 225.09 0.43 c p1
303.98 225.68 0.43 c p1
304.13 225.71 0.43 c p1
304.28 226.87 0.43 c p1
304.43 226.03 0.43 c p1
304.58 225.50 0.43 c p1
304.73 226.40 0.43 c p1
304.88 227.00 0.43 c p1
305.03 227.03 0.43 c p1
305.18 225.94 0.43 c p1
305.33 225.66 0.43 c p1
305.48 226.00 0.43 c p1
305.63 224.91 0.43 c p1
305.78 226.06 0.43 c p1
305.93 226.09 0.43 c p1
306.08 225.56 0.43 c p1
306.23 226.15 0.43 c p1
306.38 226.43 0.43 c p1
306.53 225.10 0.43 c p1
306.68 226.80 0.43 c p1
306.83 225.96 0.43 c p1
306.98 226.55 0.43 c p1
307.13 225.21 0.43 c p1
307.28 225.49 0.43 c p1
307.43 226.08 0.43 c p1
307.58 226.10 0.43 c p1
307.73 225.33 0.43 c p1
307.88 227.28 0.43 c p1
308.03 225.94 0.43 c p1
308.18 226.77 0.43 c p1
308.33 226.24 0.43 c p1
308.48 225.46 0.43 c p1
308.63 226.30 0.43 c p1
308.78 226.63 0.43 c p1
308.93 225.79 0.43 c p1
309.08 226.38 0.43 c p1
309.23 226.40 0.43 c p1
309.38 226.99 0.43 c p1
309.53 225.09 0.43 c p1
309.68 227.04 0.43 c p1
309.83 225.70 0.43 c p1
309.98 225.72 0.43 c p1
310.13 225.44 0.43 c p1
310.28 226.33 0.43 c p1
310.43 225.49 0.43 c p1
310.58 226.38 0.43 c p1
310.73 223.87 0.43 c p1
310.88 226.43 0.43 c p1
311.03 225.58 0.43 c p1
311.18 225.92 0.43 c p1
311.33 224.27 0.43 c p1
311.48 226.77 0.43 c p1
311.63 225.43 0.43 c p1
311.78 225.70 0.43 c p1
311.93 226.03 0.43 c p1
312.08 225.19 0.43 c p1
312.23 225.52 0.43 c p1
312.38 226.35 0.43 c p1
312.53 226.12 0.43 c p1
312.68 225.59 0.43 c p1
312.83 224.50 0.43 c p1
312.98 225.88 0.43 c p1
313.13 225.90 0.43 c p1
313.28 225.12 0.43 c p1
313.43 225.14 0.43 c p1
313.58 225.16 0.43 c p1
313.73 226.54 0.43 c p1
313.88 226.57 0.43 c p1
314.03 225.22 0.43 c p1
314.18 225.49 0.43 c p1
314.33 225.27 0.43 c p1
314.48 225.84 0.43 c p1
314.63 225.00 0.43 c p1
314.78 225.88 0.43 c p1
314.93 225.90 0.43 c p1
315.08 227.04 0.43 c p1
315.23 225.39 0.43 c p1
315.38 226.52 0.43 c p1
315.53 225.67 0.43 c p1
315.68 225.13 0.43 c p1
315.83 224.60 0.43 c p1
315.98 225.17 0.43 c p1
316.13 224.95 0.43 c p1
316.28 226.32 0.43 c p1
316.43 225.78 0.43 c p1
316.58 225.00 0.43 c p1
316.73 225.57 0.43 c p1
316.88 225.28 0.43 c p1
317.03 224.19 0.43 c p1
317.18 225.07 0.43 c p1
317.33 223.98 0.43 c p1
317.48 225.91 0.43 c p1
317.63 225.68 0.43 c p1
317.78 224.28 0.43 c p1
317.93 225.72 0.43 c p1
318.08 226.54 0.43 c p1
318.23 224.89 0.43 c p1
318.38 224.35 0.43 c p1
318.53 225.23 0.43 c p1
318.68 224.94 0.43 c p1
318.83 224.15 0.43 c p1
318.98 225.52 0.43 c p1
319.13 224.19 0.43 c p1
319.28 225.31 0.43 c p1
319.43 224.22 0.43 c p1
319.58 225.59 0.43 c p1
319.74 225.05 0.43 c p1
319.89 224.51 0.43 c p1
320.04 224.53 0.43 c p1
320.19 224.30 0.43 c p1
320.34 225.42 0.43 c p1
320.49 224.88 0.43 c p1
320.64 225.70 0.43 c p1
320.79 225.47 0.43 c p1
320.94 224.93 0.43 c p1
321.09 224.63 0.43 c p1
321.24 224.40 0.43 c p1
321.39 224.97 0.43 c p1
321.54 224.99 0.43 c p1
321.69 225.55 0.43 c p1
321.84 224.71 0.43 c p1
321.99 224.47 0.43 c p1
322.14 225.29 0.43 c p1
322.29 226.41 0.43 c p1
322.44 222.62 0.43 c p1
322.59 224.53 0.43 c p1
322.74 224.54 0.43 c p1
322.89 225.91 0.43 c p1
323.04 226.79 0.43 c p1
323.19 225.14 0.43 c p1
323.34 224.35 0.43 c p1
323.49 225.97 0.43 c p1
323.64 224.62 0.43 c p1
323.79 225.44 0.43 c p1
323.94 224.90 0.43 c p1
324.09 224.91 0.43 c p1
324.24 225.78 0.43 c p1
324.39 224.93 0.43 c p1
324.54 224.95 0.43 c p1
324.69 224.47 0.43 c p1
324.84 224.73 0.43 c p1
324.99 224.74 0.43 c p1
325.14 224.51 0.43 c p1
325.29 224.76 0.43 c p1
325.44 225.33 0.43 c p1
325.59 224.54 0.43 c p1
325.74 223.15 0.43 c p1
325.89 225.36 0.43 c p1
326.04 223.72 0.43 c p1
326.19 224.04 0.43 c p1
326.34 225.09 0.43 c p1
326.49 223.75 0.43 c p1
326.64 224.32 0.43 c p1
326.79 222.98 0.43 c p1
326.94 224.65 0.43 c p1
327.09 224.35 0.43 c p1
327.24 223.81 0.43 c p1
327.39 223.82 0.43 c p1
327.54 224.94 0.43 c p1
327.69 224.70 0.43 c p1
327.84 223.61 0.43 c p1
327.99 224.97 0.43 c p1
328.14 223.87 0.43 c p1
328.29 224.74 0.43 c p1
328.44 224.45 0.43 c p1
328.59 223.66 0.43 c p1
328.74 224.22 0.43 c p1
328.89 224.48 0.43 c p1
329.04 224.24 0.43 c p1
329.19 223.40 0.43 c p1
329.34 224.26 0.43 c p1
329.49 224.52 0.43 c p1
329.64 224.84 0.43 c p1
329.79 224.29 0.43 c p1
329.94 225.65 0.43 c p1
330.09 224.31 0.43 c p1
330.24 223.47 0.43 c p1
330.39 224.33 0.43 c p1
330.54 224.59 0.43 c p1
330.69 223.25 0.43 c p1
330.84 224.61 0.43 c p1
330.99 224.06 0.43 c p1
331.14 222.97 0.43 c p1
331.29 223.84 0.43 c p1
331.44 223.54 0.43 c p1
331.59 222.21 0.43 c p1
331.74 223.31 0.43 c p1
331.89 223.57 0.43 c p1
332.04 222.23 0.43 c p1
332.19 224.13 0.43 c p1
332.34 223.35 0.43 c p1
332.49 223.05 0.43 c p1
332.64 223.37 0.43 c p1
332.79 224.48 0.43 c p1
332.94 223.08 0.43 c p1
333.09 224.74 0.43 c p1
333.24 224.50 0.43 c p1
333.39 223.10 0.43 c p1
333.54 224.52 0.43 c p1
333.69 222.57 0.43 c p1
333.84 222.88 0.43 c p1
333.99 222.89 0.43 c p1
334.14 223.69 0.43 c p1
334.29 223.15 0.43 c p1
334.44 222.37 0.43 c p1
334.59 223.72 0.43 c p1
334.74 224.03 0.43 c p1
334.89 223.49 0.43 c p1
335.04 222.95 0.43 c p1
335.19 223.20 0.43 c p1
335.34 222.96 0.43 c p1
335.49 222.42 0.43 c p1
335.64 222.43 0.43 c p1
335.79 223.53 0.43 c p1
335.94 222.69 0.43 c p1
336.09 224.65 0.43 c p1
336.24 223.25 0.43 c p1
336.39 224.11 0.43 c p1
336.54 222.17 0.43 c p1
336.69 224.13 0.43 c p1
336.84 222.73 0.43 c p1
336.99 224.14 0.43 c p1
337.14 222.74 0.43 c p1
337.29 222.51 0.43 c p1
337.44 222.76 0.43 c p1
337.59 223.31 0.43 c p1
337.74 221.98 0.43 c p1
337.89 223.87 0.43 c p1
338.04 221.99 0.43 c p1
338.19 223.34 0.43 c p1
338.34 223.10 0.43 c p1
338.49 222.80 0.43 c p1
338.64 222.26 0.43 c p1
338.79 222.27 0.43 c p1
338.94 222.58 0.43 c p1
339.09 223.38 0.43 c p1
339.24 223.38 0.43 c p1
339.39 223.15 0.43 c p1
339.54 222.85 0.43 c p1
339.69 222.85 0.43 c p1
339.84 222.31 0.43 c p1
339.99 223.72 0.43 c p1
340.14 222.32 0.43 c p1
340.29 222.33 0.43 c p1
340.44 222.64 0.43 c p1
340.59 222.10 0.43 c p1
340.74 222.35 0.43 c p1
340.89 222.35 0.43 c p1
341.04 221.27 0.43 c p1
341.19 222.91 0.43 c p1
341.34 222.37 0.43 c p1
341.49 223.23 0.43 c p1
341.64 222.38 0.43 c p1
341.79 222.69 0.43 c p1
341.94 222.70 0.43 c p1
342.09 222.40 0.43 c p1
342.24 222.40 0.43 c p1
342.39 222.41 0.43 c p1
342.54 222.41 0.43 c p1
342.69 222.18 0.43 c p1
342.84 221.33 0.43 c p1
342.99 222.43 0.43 c p1
343.14 222.19 0.43 c p1
343.29 221.89 0.43 c p1
343.44 222.75 0.43 c p1
343.59 223.00 0.43 c p1
343.74 221.36 0.43 c p1
343.89 222.22 0.43 c p1
344.04 221.92 0.43 c p1
344.19 221.38 0.43 c p1
344.34 222.23 0.43 c p1
344.49 222.24 0.43 c p1
344.64 221.94 0.43 c p1
344.79 221.16 0.43 c p1
344.94 222.25 0.43 c p1
345.09 223.35 0.43 c p1
345.24 221.17 0.43 c p1
345.39 222.81 0.43 c p1
345.54 222.51 0.43 c p1
345.69 223.37 0.43 c p1
345.84 222.52 0.43 c p1
345.99 220.65 0.43 c p1
346.14 221.20 0.43 c p1
346.29 222.29 0.43 c p1
346.44 221.21 0.43 c p1
346.59 221.21 0.43 c p1
346.74 222.00 0.43 c p1
346.89 221.77 0.43 c p1
347.04 223.65 0.43 c p1
347.19 220.93 0.43 c p1
347.34 219.84 0.43 c p1
347.49 223.12 0.43 c p1
347.65 220.94 0.43 c p1
347.80 222.58 0.43 c p1
347.95 220.71 0.43 c p1
348.10 220.41 0.43 c p1
348.25 222.05 0.43 c p1
348.40 222.35 0.43 c p1
348.55 220.72 0.43 c p1
348.70 222.36 0.43 c p1
348.85 221.82 0.43 c p1
349.00 221.52 0.43 c p1
349.15 222.07 0.43 c p1
349.30 221.53 0.43 c p1
349.45 222.93 0.43 c p1
349.60 220.75 0.43 c p1
349.75 221.84 0.43 c p1
349.90 220.46 0.43 c p1
350.05 221.30 0.43 c p1
350.20 222.10 0.43 c p1
350.35 220.47 0.43 c p1
350.50 222.41 0.43 c p1
350.65 221.02 0.43 c p1
350.80 222.41 0.43 c p1
350.95 221.33 0.43 c p1
351.10 221.03 0.43 c p1
351.25 221.88 0.43 c p1
351.40 221.34 0.43 c p1
351.55 220.25 0.43 c p1
351.70 220.80 0.43 c p1
351.85 221.05 0.43 c p1
352.00 222.14 0.43 c p1
352.15 221.35 0.43 c p1
352.30 221.90 0.43 c p1
352.45 221.06 0.43 c p1
352.60 221.36 0.43 c p1
352.75 221.91 0.43 c p1
352.90 221.07 0.43 c p1
353.05 220.83 0.43 c p1
353.20 221.62 0.43 c p1
353.35 221.38 0.43 c p1
353.50 221.63 0.43 c p1
353.65 221.93 0.43 c p1
353.80 220.30 0.43 c p1
353.95 220.85 0.43 c p1
354.10 220.85 0.43 c p1
354.25 220.31 0.43 c p1
354.40 221.95 0.43 c p1
354.55 221.10 0.43 c p1
354.70 222.74 0.43 c p1
354.85 220.57 0.43 c p1
355.00 220.33 0.43 c p1
355.15 220.87 0.43 c p1
355.30 221.66 0.43 c p1
355.45 221.67 0.43 c p1
355.60 221.12 0.43 c p1
355.75 220.34 0.43 c p1
355.90 220.34 0.43 c p1
356.05 221.98 0.43 c p1
356.20 221.13 0.43 c p1
356.35 220.90 0.43 c p1
356.50 219.81 0.43 c p1
356.65 220.90 0.43 c p1
356.80 221.15 0.43 c p1
356.95 221.15 0.43 c p1
357.10 219.52 0.43 c p1
357.25 220.91 0.43 c p1
357.40 221.46 0.43 c p1
357.55 220.37 0.43 c p1
357.70 220.38 0.43 c p1
357.85 220.08 0.43 c p1
358.00 220.38 0.43 c p1
358.15 219.54 0.43 c p1
358.30 221.47 0.43 c p1
358.45 220.93 0.43 c p1
358.60 220.94 0.43 c p1
358.75 220.39 0.43 c p1
358.90 221.73 0.43 c p1
359.05 221.18 0.43 c p1
359.20 221.19 0.43 c p1
359.35 220.95 0.43 c p1
359.50 221.74 0.43 c p1
359.65 218.79 0.43 c p1
359.80 220.41 0.43 c p1
359.95 220.96 0.43 c p1
360.10 220.11 0.43 c p1
360.25 219.58 0.43 c p1
360.40 221.75 0.43 c p1
360.55 220.66 0.43 c p1
360.70 220.67 0.43 c p1
360.85 221.21 0.43 c p1
361.00 219.89 0.43 c p1
361.15 220.13 0.43 c p1
361.30 220.13 0.43 c p1
361.45 221.22 0.43 c p1
361.60 221.22 0.43 c p1
0.00 0.00 432.00 576.00 cl
0 0 0 srgb
0.75 setlinewidth
[] 0 setdash
1 setlinecap
1 setlinejoin
10.00 setmiterlimit
np
219.35 201.60 m
120.04 0 l
o
np
219.35 201.60 m
0 -5.76 l
o
np
249.36 201.60 m
0 -5.76 l
o
np
279.37 201.60 m
0 -5.76 l
o
np
309.38 201.60 m
0 -5.76 l
o
np
339.39 201.60 m
0 -5.76 l
o
/Font1 findfont 6 s
219.35 185.47 (0) .5 0 t
249.36 185.47 (2000) .5 0 t
279.37 185.47 (4000) .5 0 t
309.38 185.47 (6000) .5 0 t
339.39 185.47 (8000) .5 0 t
np
216.00 203.52 m
0 42.24 l
o
np
216.00 203.52 m
-5.76 0 l
o
np
216.00 210.56 m
-5.76 0 l
o
np
216.00 217.60 m
-5.76 0 l
o
np
216.00 224.64 m
-5.76 0 l
o
np
216.00 231.68 m
-5.76 0 l
o
np
216.00 238.72 m
-5.76 0 l
o
np
216.00 245.76 m
-5.76 0 l
o
209.09 201.36 (-0.03) 1 0 t
209.09 208.40 (-0.02) 1 0 t
209.09 215.44 (-0.01) 1 0 t
209.09 222.49 (0.00) 1 0 t
209.09 229.53 (0.01) 1 0 t
209.09 236.57 (0.02) 1 0 t
209.09 243.61 (0.03) 1 0 t
np
216.00 201.60 m
151.20 0 l
0 46.08 l
-151.20 0 l
0 -46.08 l
o
0.00 0.00 432.00 576.00 cl
/Font1 findfont 9 s
0 0 0 srgb
291.60 262.88 (Residuen) .5 0 t
59.04 73.44 401.76 516.96 cl
ep
%%Trailer
%%Pages: 1
%%EOF
