%!PS-Adobe-3.0 EPSF-3.0
%%DocumentNeededResources: font Helvetica
%%+ font Helvetica-Bold
%%+ font Helvetica-Oblique
%%+ font Helvetica-BoldOblique
%%+ font Symbol
%%Title: R Graphics Output
%%Creator: R Software
%%Pages: (atend)
%%BoundingBox: 0 0 432 576
%%EndComments
%%BeginProlog
/bp  { gs sRGB gs } def
% begin .ps.prolog
/gs  { gsave } bind def
/gr  { grestore } bind def
/ep  { showpage gr gr } bind def
/m   { moveto } bind def
/l  { rlineto } bind def
/np  { newpath } bind def
/cp  { closepath } bind def
/f   { fill } bind def
/o   { stroke } bind def
/c   { newpath 0 360 arc } bind def
/r   { 4 2 roll moveto 1 copy 3 -1 roll exch 0 exch rlineto 0 rlineto -1 mul 0 exch rlineto closepath } bind def
/p1  { stroke } bind def
/p2  { gsave bg fill grestore newpath } bind def
/p3  { gsave bg fill grestore stroke } bind def
/p6  { gsave bg eofill grestore newpath } bind def
/p7  { gsave bg eofill grestore stroke } bind def
/t   { 5 -2 roll moveto gsave rotate
       1 index stringwidth pop
       mul neg 0 rmoveto show grestore } bind def
/ta  { 4 -2 roll moveto gsave rotate show } bind def
/tb  { 2 -1 roll 0 rmoveto show } bind def
/cl  { grestore gsave newpath 3 index 3 index moveto 1 index
       4 -1 roll lineto  exch 1 index lineto lineto
       closepath clip newpath } bind def
/rgb { setrgbcolor } bind def
/s   { scalefont setfont } bind def
% end   .ps.prolog
/sRGB { [ /CIEBasedABC
          << /DecodeLMN
               [ { dup 0.03928 le
                        {12.92321 div}
                        {0.055 add 1.055 div 2.4 exp }
                     ifelse
                 } bind dup dup
               ]
             /MatrixLMN [0.412457 0.212673 0.019334
                         0.357576 0.715152 0.119192
                         0.180437 0.072175 0.950301]
             /WhitePoint [0.9505 1.0 1.0890]
           >>
         ] setcolorspace } bind def
/srgb { setcolor } bind def
%%IncludeResource: font Helvetica
/Helvetica findfont
dup length dict begin
  {1 index /FID ne {def} {pop pop} ifelse} forall
  /Encoding ISOLatin1Encoding def
  currentdict
  end
/Font1 exch definefont pop
%%IncludeResource: font Helvetica-Bold
/Helvetica-Bold findfont
dup length dict begin
  {1 index /FID ne {def} {pop pop} ifelse} forall
  /Encoding ISOLatin1Encoding def
  currentdict
  end
/Font2 exch definefont pop
%%IncludeResource: font Helvetica-Oblique
/Helvetica-Oblique findfont
dup length dict begin
  {1 index /FID ne {def} {pop pop} ifelse} forall
  /Encoding ISOLatin1Encoding def
  currentdict
  end
/Font3 exch definefont pop
%%IncludeResource: font Helvetica-BoldOblique
/Helvetica-BoldOblique findfont
dup length dict begin
  {1 index /FID ne {def} {pop pop} ifelse} forall
  /Encoding ISOLatin1Encoding def
  currentdict
  end
/Font4 exch definefont pop
%%IncludeResource: font Symbol
/Symbol findfont
dup length dict begin
  {1 index /FID ne {def} {pop pop} ifelse} forall
  currentdict
  end
/Font5 exch definefont pop
%%EndProlog
%%Page: 1 1
bp
0.00 0.00 432.00 576.00 cl
0.00 0.00 432.00 576.00 cl
0.00 0.00 432.00 576.00 cl
/Font1 findfont 12 s
0 0 0 srgb
48.00 508.72 (PCP-ETH) 0 0 t
48.00 494.89 (Blitzlicht-Photolyse) 0 0 t
/Font1 findfont 9 s
48.00 457.54 (File: V) 0 ta
-0.720 (er) tb
0.135 (ification_500V_charged.dat) tb gr
48.00 334.87 (T) 0 ta
-1.080 (ue Apr  9 22:09:58 2019) tb gr
48.00 430.87 (Fitfunktion:  a + b * e) 0 ta
-0.270 (xp\(-c * t\)) tb gr
48.00 420.50 (t-Inter) 0 ta
0.270 (v) tb
-0.225 (all: 63.000 ... 663.000 ms) tb gr
48.00 410.14 (P) 0 ta
-0.360 (ar) tb
-0.090 (ameter \(Standardabw) tb
-0.090 (eichung\):) tb gr
48.00 399.77 (  a = 0.00413 \(0.00013\)) 0 0 t
48.00 389.40 (  b = 0.06929 \(0.00101\)) 0 0 t
48.00 379.03 (  c = 8.516e+00 \(1.436e-01\) s^-1) 0 0 t
48.00 368.66 (  tau = 1.174e-01 \(1.980e-03\) s) 0 0 t
216.00 345.60 388.80 518.40 cl
0 0 0 srgb
0.75 setlinewidth
[] 0 setdash
1 setlinecap
1 setlinejoin
10.00 setmiterlimit
np
222.40 511.38 m
0.15 -0.25 l
0.14 -0.24 l
0.15 0.49 l
0.14 -0.25 l
0.15 0.63 l
0.14 -0.73 l
0.15 -0.49 l
0.14 0.59 l
0.15 0.14 l
0.15 0.24 l
0.14 -0.73 l
0.15 0.98 l
0.14 -0.49 l
0.15 -0.49 l
0.14 0.35 l
0.15 0.25 l
0.14 -0.11 l
0.15 -0.87 l
0.15 1.11 l
0.14 -0.24 l
0.15 -0.24 l
0.14 0.35 l
0.15 -0.25 l
0.14 0.73 l
0.15 -0.97 l
0.15 0.24 l
0.14 -0.35 l
0.15 0.49 l
0.14 0.11 l
0.15 -0.35 l
0.14 0.10 l
0.15 -0.24 l
0.14 0.49 l
0.15 -0.25 l
0.15 -0.10 l
0.14 0.59 l
0.15 0.38 l
0.14 -0.87 l
0.15 -0.24 l
0.14 0.24 l
0.15 -0.10 l
0.14 0.24 l
0.15 -0.14 l
0.15 0 l
0.14 0.25 l
0.15 0 l
0.14 0.13 l
0.15 -0.97 l
0.14 0.24 l
0.15 0.60 l
0.14 0 l
0.15 -0.25 l
0.15 0.25 l
0.14 0 l
0.15 -0.25 l
0.14 -0.10 l
0.15 -0.49 l
0.14 0.73 l
0.15 -0.14 l
0.15 0.14 l
0.14 0 l
0.15 0 l
0.14 -0.14 l
0.15 -0.10 l
0.14 0.35 l
0.15 -0.60 l
0.14 -0.13 l
0.15 0.38 l
0.15 0 l
0.14 0 l
0.15 0 l
0.14 0.10 l
0.15 -0.24 l
0.14 0.49 l
0.15 0 l
0.14 -0.25 l
0.15 0.73 l
0.15 -0.35 l
0.14 0.25 l
0.15 -0.87 l
0.14 0.24 l
0.15 0.14 l
0.14 -0.49 l
0.15 0.49 l
0.14 0.35 l
0.15 -0.49 l
0.15 0.14 l
0.14 0.35 l
0.15 -0.49 l
0.14 0.14 l
0.15 0.11 l
0.14 0 l
0.15 -0.25 l
0.15 -0.24 l
0.14 0.62 l
0.15 0 l
0.14 -0.24 l
0.15 -0.24 l
0.14 0.10 l
236.96 485.40 lineto
0.14 1.07 l
0.15 2.31 l
0.15 -0.35 l
0.14 1.46 l
0.15 -1.11 l
0.14 1.60 l
0.15 0.35 l
0.14 -0.60 l
0.15 1.46 l
0.14 0.46 l
0.15 0.25 l
0.15 0 l
0.14 0 l
0.15 1.84 l
0.14 0.49 l
0.15 0 l
0.14 -0.14 l
0.15 0.24 l
0.14 0.63 l
0.15 0.24 l
0.15 -0.38 l
0.14 0.87 l
0.15 0.97 l
0.14 0.22 l
0.15 0.13 l
0.14 -0.13 l
0.15 0.13 l
0.15 0.73 l
0.14 0.36 l
0.15 0.37 l
0.14 -0.24 l
0.15 0.24 l
0.14 0.60 l
0.15 0 l
0.14 0.87 l
0.15 0 l
0.15 0.59 l
0.14 -0.11 l
0.15 0.25 l
0.14 -0.49 l
0.15 0.73 l
0.14 0.24 l
0.15 0.25 l
0.14 0.11 l
0.15 -0.25 l
0.15 1.33 l
0.14 -0.25 l
0.15 0 l
0.14 0.38 l
0.15 -0.62 l
0.14 0.98 l
0.15 -0.49 l
0.14 0.24 l
0.15 0 l
0.15 1.11 l
0.14 0.24 l
0.15 -0.24 l
0.14 0.11 l
0.15 0 l
0.14 0.13 l
0.15 0.36 l
0.15 -0.73 l
0.14 0.24 l
0.15 0.49 l
0.14 0.24 l
0.15 -0.11 l
0.14 0 l
0.15 -0.24 l
0.14 0.73 l
0.15 0.59 l
0.15 -0.24 l
0.14 -0.24 l
0.15 -0.35 l
0.14 0.83 l
0.15 0.63 l
0.14 -0.73 l
0.15 0 l
0.14 0.10 l
0.15 0.38 l
0.15 0.25 l
0.14 -0.25 l
0.15 0.25 l
0.14 0 l
0.15 0.24 l
0.14 0 l
0.15 -0.49 l
0.14 0.49 l
0.15 0.60 l
0.15 -0.74 l
0.14 0.14 l
0.15 0.24 l
0.14 0.36 l
0.15 -0.36 l
0.14 -0.24 l
0.15 0.60 l
0.15 -0.25 l
0.14 0.73 l
0.15 -0.38 l
0.14 -0.24 l
251.52 507.37 lineto
0.14 0.60 l
0.15 0.38 l
0.14 -0.49 l
0.15 -0.24 l
0.15 -0.49 l
0.14 0.84 l
0.15 0.48 l
0.14 -0.48 l
0.15 -0.11 l
0.14 -0.38 l
0.15 1.60 l
0.14 -0.63 l
0.15 0 l
0.15 -0.59 l
0.14 0.49 l
0.15 0.35 l
0.14 -0.35 l
0.15 0 l
0.14 -0.25 l
0.15 0.49 l
0.14 0.24 l
0.15 -0.38 l
0.15 -0.35 l
0.14 0.49 l
0.15 0.35 l
0.14 -0.73 l
0.15 0.38 l
0.14 -0.73 l
0.15 1.08 l
0.14 0 l
0.15 -0.11 l
0.15 0 l
0.14 0.36 l
0.15 0.24 l
0.14 -0.11 l
0.15 -0.38 l
0.14 -0.35 l
0.15 0.60 l
0.15 0.13 l
0.14 -0.49 l
0.15 -0.38 l
0.14 0.74 l
0.15 0.37 l
0.14 -0.37 l
0.15 -0.49 l
0.14 0 l
0.15 0.13 l
0.15 0.25 l
0.14 0.35 l
0.15 -0.84 l
0.14 0.84 l
0.15 0.38 l
0.14 -1.36 l
0.15 0.98 l
0.14 -0.73 l
0.15 0.62 l
0.15 0.24 l
0.14 -0.62 l
0.15 -0.24 l
0.14 0.13 l
0.15 0.60 l
0.14 0.13 l
0.15 -0.73 l
0.14 0.60 l
0.15 0.49 l
0.15 -0.60 l
0.14 -0.73 l
0.15 0.11 l
0.14 0.97 l
0.15 0.38 l
0.14 -0.97 l
0.15 0 l
0.15 -0.25 l
0.14 0.60 l
0.15 -0.11 l
0.14 0.11 l
0.15 -0.24 l
0.14 0.37 l
0.15 0.25 l
0.14 -0.25 l
0.15 -0.48 l
0.15 0.11 l
0.14 0.86 l
0.15 -0.13 l
0.14 -0.60 l
0.15 0.11 l
0.14 0 l
0.15 0.38 l
0.14 -0.25 l
0.15 -0.24 l
0.15 -0.24 l
0.14 0.48 l
0.15 -0.13 l
0.14 -0.24 l
0.15 0.13 l
0.14 0.24 l
0.15 0.36 l
0.14 0 l
0.15 -0.84 l
266.08 509.56 lineto
0.14 -0.37 l
0.15 0.86 l
0.14 -0.49 l
0.15 -0.24 l
0.14 -0.38 l
0.15 0.98 l
0.15 -0.60 l
0.14 0.49 l
0.15 -0.62 l
0.14 0.86 l
0.15 0.11 l
0.14 -0.35 l
0.15 -0.38 l
0.14 0.13 l
0.15 0.49 l
0.15 0.11 l
0.14 -0.24 l
0.15 -0.49 l
0.14 0.24 l
0.15 0.14 l
0.14 -0.14 l
0.15 -0.24 l
0.14 0.24 l
0.15 0.25 l
0.15 -0.36 l
0.14 0.25 l
0.15 -0.62 l
0.14 0.73 l
0.15 0.24 l
0.14 -0.60 l
0.15 0.49 l
0.14 -0.73 l
0.15 0.73 l
0.15 -0.73 l
0.14 0.49 l
0.15 -0.62 l
0.14 1.11 l
0.15 -0.63 l
0.14 -0.24 l
0.15 0.62 l
0.15 0 l
0.14 0.25 l
0.15 -0.38 l
0.14 -0.11 l
0.15 -0.73 l
0.14 0.59 l
0.15 0.38 l
0.14 -0.24 l
0.15 -0.25 l
0.15 0.11 l
0.14 0.25 l
0.15 -0.36 l
0.14 -0.37 l
0.15 0.13 l
0.14 0.11 l
0.15 0.73 l
0.14 0 l
0.15 -0.60 l
0.15 -0.13 l
0.14 0 l
0.15 0.62 l
0.14 -0.86 l
0.15 0.62 l
0.14 -0.14 l
0.15 0.25 l
0.14 -0.11 l
0.15 0.11 l
0.15 -0.11 l
0.14 0.11 l
0.15 0.38 l
0.14 -0.25 l
0.15 -0.38 l
0.14 -0.48 l
0.15 0.86 l
0.15 0.25 l
0.14 -0.14 l
0.15 -0.60 l
0.14 0.25 l
0.15 0.11 l
0.14 -0.25 l
0.15 -0.11 l
0.14 -0.24 l
0.15 1.46 l
0.15 -0.24 l
0.14 -0.62 l
0.15 -0.60 l
0.14 0.84 l
0.15 0 l
0.14 -0.73 l
0.15 0.38 l
0.14 0 l
0.15 0.24 l
0.15 0.35 l
0.14 -0.48 l
0.15 -0.60 l
0.14 1.22 l
0.15 -0.38 l
0.14 -0.35 l
0.15 -0.49 l
280.63 510.05 lineto
0.15 -0.24 l
0.15 -0.14 l
0.14 -0.11 l
0.15 0.49 l
0.14 0.11 l
0.15 -0.35 l
0.14 -0.73 l
0.15 0.84 l
0.15 0.38 l
0.14 0.24 l
0.15 -1.11 l
0.14 0.38 l
0.15 0.11 l
0.14 0 l
0.15 -0.36 l
0.14 -0.13 l
0.15 1.22 l
0.15 -0.60 l
0.14 -0.13 l
0.15 -0.49 l
0.14 0.62 l
0.15 0 l
0.14 -0.24 l
0.15 0.11 l
0.14 -0.60 l
0.15 0.24 l
0.15 0.25 l
0.14 0.24 l
0.15 -0.13 l
0.14 0.13 l
0.15 -0.13 l
0.14 0.24 l
0.15 -0.35 l
0.14 0 l
0.15 0.35 l
0.15 -0.35 l
0.14 0.49 l
0.15 -0.63 l
0.14 0.25 l
0.15 0.62 l
0.14 -0.62 l
0.15 0.62 l
0.14 -0.24 l
0.15 -0.25 l
0.15 0 l
0.14 0.25 l
0.15 -0.25 l
0.14 -0.24 l
0.15 0.24 l
0.14 0 l
0.15 -0.24 l
0.15 0.73 l
0.14 0 l
0.15 -0.62 l
0.14 0 l
0.15 0.38 l
0.14 0 l
0.15 -0.38 l
0.14 -0.11 l
0.15 0.35 l
0.15 -0.49 l
0.14 0.87 l
0.15 -0.73 l
0.14 -0.38 l
0.15 0.49 l
0.14 -0.36 l
0.15 0.25 l
0.14 0 l
0.15 0.49 l
0.15 0.10 l
0.14 -0.24 l
0.15 -0.24 l
0.14 0.73 l
0.15 -0.98 l
0.14 0.38 l
0.15 0.25 l
0.14 -0.25 l
0.15 0.11 l
0.15 0.14 l
0.14 -0.14 l
0.15 -0.73 l
0.14 0.24 l
0.15 0.73 l
0.14 -0.73 l
0.15 0 l
0.15 0.63 l
0.14 -0.25 l
0.15 -0.13 l
0.14 0.62 l
0.15 -0.38 l
0.14 0.38 l
0.15 -0.62 l
0.14 0.38 l
0.15 -0.38 l
0.15 0.38 l
0.14 0.10 l
0.15 -0.24 l
0.14 0.14 l
0.15 -0.63 l
295.19 509.81 lineto
0.15 0.73 l
0.14 -0.38 l
0.15 0.73 l
0.15 -0.35 l
0.14 -0.24 l
0.15 0.10 l
0.14 -0.35 l
0.15 0 l
0.14 0.11 l
0.15 0.24 l
0.14 0.14 l
0.15 0 l
0.15 -0.62 l
0.14 0.24 l
0.15 -0.35 l
0.14 0.24 l
0.15 0.25 l
0.14 0 l
0.15 -0.25 l
0.15 -0.86 l
0.14 0.97 l
0.15 0.24 l
0.14 -0.35 l
0.15 0.49 l
0.14 0.24 l
0.15 -0.97 l
0.14 0.35 l
0.15 0 l
0.15 -0.24 l
0.14 0.38 l
0.15 -0.38 l
0.14 0.48 l
0.15 -0.73 l
0.14 0.25 l
0.15 0.62 l
0.14 0 l
0.15 -0.38 l
0.15 0 l
0.14 -0.11 l
0.15 0 l
0.14 0.25 l
0.15 0 l
0.14 -0.14 l
0.15 0.49 l
0.14 -0.73 l
0.15 -0.11 l
0.15 0.11 l
0.14 0.13 l
0.15 0.49 l
0.14 -0.24 l
0.15 0 l
0.14 -0.14 l
0.15 -0.49 l
0.15 0.73 l
0.14 -0.35 l
0.15 0.25 l
0.14 0 l
0.15 0.24 l
0.14 -0.38 l
0.15 -0.11 l
0.14 0.11 l
0.15 -0.11 l
0.15 0.60 l
0.14 -0.25 l
0.15 0.25 l
0.14 -1.09 l
0.15 0.60 l
0.14 0.38 l
0.15 -0.38 l
0.14 -0.11 l
0.15 0.73 l
0.15 -0.62 l
0.14 -0.11 l
0.15 -0.24 l
0.14 0.49 l
0.15 0.24 l
0.14 -0.14 l
0.15 0.14 l
0.14 -0.49 l
0.15 0.11 l
0.15 0.24 l
0.14 -0.73 l
0.15 0.87 l
0.14 -0.24 l
0.15 -0.38 l
0.14 0.13 l
0.15 0.11 l
0.15 -0.11 l
0.14 -0.13 l
0.15 0.86 l
0.14 -0.48 l
0.15 -0.49 l
0.14 0.35 l
0.15 -0.35 l
0.14 0.24 l
0.15 0.49 l
0.15 -0.24 l
0.14 -0.25 l
0.15 0.25 l
309.75 510.30 lineto
0.15 0.24 l
0.14 -0.24 l
0.15 0.35 l
0.14 0.13 l
0.15 -1.11 l
0.15 0.98 l
0.14 -1.22 l
0.15 0.73 l
0.14 -0.11 l
0.15 0.35 l
0.14 0 l
0.15 -0.48 l
0.14 -0.11 l
0.15 0.11 l
0.15 -0.49 l
0.14 0.97 l
0.15 0.14 l
0.14 -0.38 l
0.15 -0.49 l
0.14 0 l
0.15 0.25 l
0.15 0 l
0.14 0.13 l
0.15 0.11 l
0.14 0.38 l
0.15 -0.14 l
0.14 -0.24 l
0.15 0.14 l
0.14 0 l
0.15 0 l
0.15 0.59 l
0.14 -0.84 l
0.15 0 l
0.14 0.49 l
0.15 -0.62 l
0.14 0.48 l
0.15 0.63 l
0.14 -0.87 l
0.15 -0.24 l
0.15 0 l
0.14 0 l
0.15 0.86 l
0.14 -0.24 l
0.15 -0.73 l
0.14 0.49 l
0.15 0.10 l
0.14 0.25 l
0.15 -0.60 l
0.15 0.49 l
0.14 0.24 l
0.15 0.35 l
0.14 -0.73 l
0.15 -0.48 l
0.14 0.48 l
0.15 -0.84 l
0.15 1.22 l
0.14 -0.97 l
0.15 0.35 l
0.14 0.24 l
0.15 -0.24 l
0.14 -0.35 l
0.15 0.35 l
0.14 0.73 l
0.15 -0.24 l
0.15 -0.35 l
0.14 0.83 l
0.15 -0.73 l
0.14 -0.48 l
0.15 0.73 l
0.14 -0.49 l
0.15 -0.11 l
0.14 -0.24 l
0.15 0.11 l
0.15 0.38 l
0.14 -0.63 l
0.15 0.73 l
0.14 0.25 l
0.15 -0.60 l
0.14 0.35 l
0.15 0 l
0.14 -0.10 l
0.15 0 l
0.15 -0.14 l
0.14 0.38 l
0.15 -0.49 l
0.14 0.49 l
0.15 -0.14 l
0.14 0.14 l
0.15 -0.24 l
0.14 0.35 l
0.15 -0.60 l
0.15 0.25 l
0.14 0.48 l
0.15 -0.13 l
0.14 -0.49 l
0.15 0 l
0.14 0.38 l
0.15 -0.24 l
0.15 0 l
324.31 510.54 lineto
0.15 -0.49 l
0.14 0.11 l
0.15 0.14 l
0.14 0.48 l
0.15 -0.13 l
0.14 -0.11 l
0.15 -0.24 l
0.15 -0.25 l
0.14 0.25 l
0.15 0.24 l
0.14 0.24 l
0.15 -0.97 l
0.14 0.59 l
0.15 0.14 l
0.14 -0.24 l
0.15 0.24 l
0.15 -0.14 l
0.14 -0.35 l
0.15 0.49 l
0.14 -0.49 l
0.15 0 l
0.14 0.49 l
0.15 -0.14 l
0.14 0.49 l
0.15 -0.84 l
0.15 0.35 l
0.14 -0.24 l
0.15 -0.11 l
0.14 0.11 l
0.15 -0.35 l
0.14 0.49 l
0.15 0 l
0.15 -0.14 l
0.14 0.73 l
0.15 -0.59 l
0.14 0.24 l
0.15 -0.14 l
0.14 -0.24 l
0.15 0 l
0.14 -0.11 l
0.15 0.35 l
0.15 -0.24 l
0.14 0.62 l
0.15 -0.38 l
0.14 -0.24 l
0.15 -0.11 l
0.14 0.60 l
0.15 -0.11 l
0.14 -0.38 l
0.15 0.38 l
0.15 0.11 l
0.14 -0.35 l
0.15 -0.38 l
0.14 0.73 l
0.15 -0.35 l
0.14 -0.14 l
0.15 0.38 l
0.14 -0.38 l
0.15 0 l
0.15 0.14 l
0.14 -0.25 l
0.15 0 l
0.14 0.25 l
0.15 0 l
0.14 0.10 l
0.15 -0.35 l
0.15 0.25 l
0.14 -0.14 l
0.15 -0.24 l
0.14 0.38 l
0.15 0.35 l
0.14 -0.60 l
0.15 0.35 l
0.14 0.14 l
0.15 -0.38 l
0.15 0.49 l
0.14 0.24 l
0.15 -0.24 l
0.14 -0.60 l
0.15 0.35 l
0.14 -0.35 l
0.15 0.35 l
0.14 0.25 l
0.15 -0.11 l
0.15 -0.62 l
0.14 0.73 l
0.15 -0.11 l
0.14 -0.38 l
0.15 0.49 l
0.14 0.38 l
0.15 0.10 l
0.14 -0.97 l
0.15 0.24 l
0.15 0 l
0.14 -0.10 l
0.15 0.10 l
0.14 0 l
0.15 -0.35 l
0.14 0.35 l
338.87 509.81 lineto
0.15 0.35 l
0.14 -0.11 l
0.15 0.60 l
0.14 0 l
0.15 -0.73 l
0.14 0 l
0.15 0.62 l
0.14 -0.38 l
0.15 0.73 l
0.15 -0.35 l
0.14 0.11 l
0.15 -0.49 l
0.14 0.24 l
0.15 -0.35 l
0.14 0.49 l
0.15 -0.14 l
0.14 0.25 l
0.15 0 l
0.15 -0.60 l
0.14 0.25 l
0.15 0.10 l
0.14 -0.10 l
0.15 0.24 l
0.14 -0.14 l
0.15 -0.35 l
0.14 0.11 l
0.15 -0.35 l
0.15 0.84 l
0.14 -0.11 l
0.15 -0.38 l
0.14 0.97 l
0.15 -0.59 l
0.14 -0.14 l
0.15 0.25 l
0.15 -0.60 l
0.14 0 l
0.15 0.49 l
0.14 0.35 l
0.15 -0.35 l
0.14 -0.24 l
0.15 0.24 l
0.14 0.11 l
0.15 0.24 l
0.15 0.38 l
0.14 -1.46 l
0.15 0.97 l
0.14 -0.73 l
0.15 0.35 l
0.14 0.38 l
0.15 -0.24 l
0.14 -0.14 l
0.15 -0.10 l
0.15 0 l
0.14 0.48 l
0.15 -0.62 l
0.14 0.87 l
0.15 -0.38 l
0.14 -0.35 l
0.15 -0.38 l
0.14 0 l
0.15 0.13 l
0.15 0.25 l
0.14 0.24 l
0.15 0 l
0.14 0 l
0.15 -0.24 l
0.14 0 l
0.15 0.10 l
0.15 -0.24 l
0.14 0.24 l
0.15 0.49 l
0.14 -0.59 l
0.15 0.35 l
0.14 -0.60 l
0.15 0.11 l
0.14 -0.11 l
0.15 0.60 l
0.15 -0.11 l
0.14 0 l
0.15 0.35 l
0.14 -0.73 l
0.15 0.49 l
0.14 -0.11 l
0.15 -0.24 l
0.14 -0.14 l
0.15 0.49 l
0.15 -0.11 l
0.14 0.11 l
0.15 -0.49 l
0.14 0.14 l
0.15 0.10 l
0.14 0.25 l
0.15 -0.35 l
0.14 -0.25 l
0.15 0.49 l
0.15 0 l
0.14 0 l
0.15 -0.62 l
0.14 0.62 l
353.43 510.54 lineto
0.14 -0.14 l
0.15 -0.10 l
0.14 0.35 l
0.15 0.13 l
0.15 -0.62 l
0.14 0.38 l
0.15 -0.62 l
0.14 0.48 l
0.15 0 l
0.14 0.14 l
0.15 0.35 l
0.15 -0.59 l
0.14 0.10 l
0.15 -0.10 l
0.14 0.24 l
0.15 0.24 l
0.14 -0.13 l
0.15 -0.11 l
0.14 -0.49 l
0.15 0.49 l
0.15 -0.49 l
0.14 0.11 l
0.15 0.62 l
0.14 -0.24 l
0.15 0.11 l
0.14 -0.25 l
0.15 -0.10 l
0.14 0.24 l
0.15 -0.73 l
0.15 0.59 l
0.14 0.25 l
0.15 -0.73 l
0.14 0.24 l
0.15 0.62 l
0.14 -0.13 l
0.15 0.13 l
0.14 -0.13 l
0.15 -0.11 l
0.15 -0.14 l
0.14 0.38 l
0.15 -0.13 l
0.14 0.24 l
0.15 -0.73 l
0.14 0.14 l
0.15 0.59 l
0.15 -0.24 l
0.14 -0.60 l
0.15 0.35 l
0.14 -0.24 l
0.15 0.49 l
0.14 0.13 l
0.15 -0.48 l
0.14 0.24 l
0.15 -0.24 l
0.15 0.59 l
0.14 -0.24 l
0.15 0 l
0.14 0.13 l
0.15 -0.62 l
0.14 0.14 l
0.15 0.24 l
0.14 -0.14 l
0.15 0.14 l
0.15 0 l
0.14 0.11 l
0.15 -0.11 l
0.14 0.11 l
0.15 -0.25 l
0.14 -0.24 l
0.15 0.62 l
0.14 -0.13 l
0.15 -0.11 l
0.15 -0.38 l
0.14 0.62 l
0.15 -0.62 l
0.14 -0.11 l
0.15 0.60 l
0.14 0.24 l
0.15 -0.73 l
0.15 0.38 l
0.14 -0.24 l
0.15 0.59 l
0.14 0.24 l
0.15 -0.35 l
0.14 0.11 l
0.15 -0.97 l
0.14 0.86 l
0.15 -0.13 l
0.15 -0.60 l
0.14 0.25 l
0.15 0.59 l
0.14 -0.35 l
0.15 -0.24 l
0.14 -0.14 l
0.15 0.38 l
0.14 0.11 l
0.15 0.24 l
0.15 -0.49 l
0.14 0 l
currentpoint o m
367.99 509.92 lineto
0.14 0 l
0.15 0.86 l
0.14 0 l
0.15 0.35 l
0.14 -0.73 l
0.15 -0.10 l
0.15 0.10 l
0.14 -0.10 l
0.15 0.35 l
0.14 -0.11 l
0.15 0 l
0.14 0 l
0.15 -0.24 l
0.15 0.24 l
0.14 0.24 l
0.15 -0.13 l
0.14 0.48 l
0.15 -0.97 l
0.14 0.87 l
0.15 -0.63 l
0.14 -0.10 l
0.15 0 l
0.15 0.24 l
0.14 -0.14 l
0.15 0.38 l
0.14 -0.48 l
0.15 0 l
0.14 0.35 l
0.15 0.48 l
0.14 -1.08 l
0.15 0.49 l
0.15 0.49 l
0.14 -1.22 l
0.15 0.97 l
0.14 -0.24 l
0.15 0.11 l
0.14 0.13 l
0.15 -0.38 l
0.14 0.14 l
0.15 -0.14 l
0.15 0.14 l
0.14 0.11 l
0.15 -0.60 l
0.14 0.60 l
0.15 0.24 l
0.14 0 l
0.15 -0.59 l
0.15 0.35 l
0.14 0 l
0.15 0 l
0.14 0.24 l
0.15 -0.35 l
0.14 -0.38 l
0.15 0.24 l
0.14 0.25 l
0.15 -0.84 l
0.15 0.84 l
0.14 -0.25 l
0.15 -0.24 l
0.14 0.73 l
0.15 -0.59 l
0.14 0.48 l
0.15 -0.48 l
0.14 0.59 l
0.15 0.14 l
0.15 -0.49 l
0.14 -0.38 l
0.15 0.73 l
0.14 -0.24 l
0.15 0 l
0.14 0.13 l
0.15 0.49 l
0.14 -0.62 l
0.15 0.13 l
0.15 -0.48 l
0.14 0.48 l
0.15 0.11 l
0.14 -0.11 l
0.15 -0.48 l
0.14 0.24 l
0.15 0 l
0.15 0.73 l
0.14 -0.62 l
0.15 -0.25 l
0.14 0.38 l
0.15 -0.38 l
0.14 0.73 l
0.15 -0.83 l
0.14 0.10 l
0.15 0.14 l
0.15 -0.14 l
0.14 0.38 l
0.15 -0.38 l
0.14 0.14 l
0.15 -0.38 l
0.14 0.38 l
0.15 0.49 l
0.14 -0.38 l
0.15 0 l
o
/bg { 1 1 1 srgb } def
222.40 511.38 0.43 c p3
222.55 511.13 0.43 c p3
222.69 510.89 0.43 c p3
222.84 511.38 0.43 c p3
222.98 511.13 0.43 c p3
223.13 511.76 0.43 c p3
223.27 511.03 0.43 c p3
223.42 510.54 0.43 c p3
223.56 511.13 0.43 c p3
223.71 511.27 0.43 c p3
223.86 511.51 0.43 c p3
224.00 510.78 0.43 c p3
224.15 511.76 0.43 c p3
224.29 511.27 0.43 c p3
224.44 510.78 0.43 c p3
224.58 511.13 0.43 c p3
224.73 511.38 0.43 c p3
224.87 511.27 0.43 c p3
225.02 510.40 0.43 c p3
225.17 511.51 0.43 c p3
225.31 511.27 0.43 c p3
225.46 511.03 0.43 c p3
225.60 511.38 0.43 c p3
225.75 511.13 0.43 c p3
225.89 511.86 0.43 c p3
226.04 510.89 0.43 c p3
226.19 511.13 0.43 c p3
226.33 510.78 0.43 c p3
226.48 511.27 0.43 c p3
226.62 511.38 0.43 c p3
226.77 511.03 0.43 c p3
226.91 511.13 0.43 c p3
227.06 510.89 0.43 c p3
227.20 511.38 0.43 c p3
227.35 511.13 0.43 c p3
227.50 511.03 0.43 c p3
227.64 511.62 0.43 c p3
227.79 512.00 0.43 c p3
227.93 511.13 0.43 c p3
228.08 510.89 0.43 c p3
228.22 511.13 0.43 c p3
228.37 511.03 0.43 c p3
228.51 511.27 0.43 c p3
228.66 511.13 0.43 c p3
228.81 511.13 0.43 c p3
228.95 511.38 0.43 c p3
229.10 511.38 0.43 c p3
229.24 511.51 0.43 c p3
229.39 510.54 0.43 c p3
229.53 510.78 0.43 c p3
229.68 511.38 0.43 c p3
229.82 511.38 0.43 c p3
229.97 511.13 0.43 c p3
230.12 511.38 0.43 c p3
230.26 511.38 0.43 c p3
230.41 511.13 0.43 c p3
230.55 511.03 0.43 c p3
230.70 510.54 0.43 c p3
230.84 511.27 0.43 c p3
230.99 511.13 0.43 c p3
231.14 511.27 0.43 c p3
231.28 511.27 0.43 c p3
231.43 511.27 0.43 c p3
231.57 511.13 0.43 c p3
231.72 511.03 0.43 c p3
231.86 511.38 0.43 c p3
232.01 510.78 0.43 c p3
232.15 510.65 0.43 c p3
232.30 511.03 0.43 c p3
232.45 511.03 0.43 c p3
232.59 511.03 0.43 c p3
232.74 511.03 0.43 c p3
232.88 511.13 0.43 c p3
233.03 510.89 0.43 c p3
233.17 511.38 0.43 c p3
233.32 511.38 0.43 c p3
233.46 511.13 0.43 c p3
233.61 511.86 0.43 c p3
233.76 511.51 0.43 c p3
233.90 511.76 0.43 c p3
234.05 510.89 0.43 c p3
234.19 511.13 0.43 c p3
234.34 511.27 0.43 c p3
234.48 510.78 0.43 c p3
234.63 511.27 0.43 c p3
234.77 511.62 0.43 c p3
234.92 511.13 0.43 c p3
235.07 511.27 0.43 c p3
235.21 511.62 0.43 c p3
235.36 511.13 0.43 c p3
235.50 511.27 0.43 c p3
235.65 511.38 0.43 c p3
235.79 511.38 0.43 c p3
235.94 511.13 0.43 c p3
236.09 510.89 0.43 c p3
236.23 511.51 0.43 c p3
236.38 511.51 0.43 c p3
236.52 511.27 0.43 c p3
236.67 511.03 0.43 c p3
236.81 511.13 0.43 c p3
236.96 485.40 0.43 c p3
237.10 486.47 0.43 c p3
237.25 488.78 0.43 c p3
237.40 488.43 0.43 c p3
237.54 489.89 0.43 c p3
237.69 488.78 0.43 c p3
237.83 490.38 0.43 c p3
237.98 490.73 0.43 c p3
238.12 490.13 0.43 c p3
238.27 491.59 0.43 c p3
238.41 492.05 0.43 c p3
238.56 492.30 0.43 c p3
238.71 492.30 0.43 c p3
238.85 492.30 0.43 c p3
239.00 494.14 0.43 c p3
239.14 494.63 0.43 c p3
239.29 494.63 0.43 c p3
239.43 494.49 0.43 c p3
239.58 494.73 0.43 c p3
239.72 495.36 0.43 c p3
239.87 495.60 0.43 c p3
240.02 495.22 0.43 c p3
240.16 496.09 0.43 c p3
240.31 497.06 0.43 c p3
240.45 497.28 0.43 c p3
240.60 497.41 0.43 c p3
240.74 497.28 0.43 c p3
240.89 497.41 0.43 c p3
241.04 498.14 0.43 c p3
241.18 498.50 0.43 c p3
241.33 498.87 0.43 c p3
241.47 498.63 0.43 c p3
241.62 498.87 0.43 c p3
241.76 499.47 0.43 c p3
241.91 499.47 0.43 c p3
242.05 500.34 0.43 c p3
242.20 500.34 0.43 c p3
242.35 500.93 0.43 c p3
242.49 500.82 0.43 c p3
242.64 501.07 0.43 c p3
242.78 500.58 0.43 c p3
242.93 501.31 0.43 c p3
243.07 501.55 0.43 c p3
243.22 501.80 0.43 c p3
243.36 501.91 0.43 c p3
243.51 501.66 0.43 c p3
243.66 502.99 0.43 c p3
243.80 502.74 0.43 c p3
243.95 502.74 0.43 c p3
244.09 503.12 0.43 c p3
244.24 502.50 0.43 c p3
244.38 503.48 0.43 c p3
244.53 502.99 0.43 c p3
244.67 503.23 0.43 c p3
244.82 503.23 0.43 c p3
244.97 504.34 0.43 c p3
245.11 504.58 0.43 c p3
245.26 504.34 0.43 c p3
245.40 504.45 0.43 c p3
245.55 504.45 0.43 c p3
245.69 504.58 0.43 c p3
245.84 504.94 0.43 c p3
245.99 504.21 0.43 c p3
246.13 504.45 0.43 c p3
246.28 504.94 0.43 c p3
246.42 505.18 0.43 c p3
246.57 505.07 0.43 c p3
246.71 505.07 0.43 c p3
246.86 504.83 0.43 c p3
247.00 505.56 0.43 c p3
247.15 506.15 0.43 c p3
247.30 505.91 0.43 c p3
247.44 505.67 0.43 c p3
247.59 505.32 0.43 c p3
247.73 506.15 0.43 c p3
247.88 506.78 0.43 c p3
248.02 506.05 0.43 c p3
248.17 506.05 0.43 c p3
248.31 506.15 0.43 c p3
248.46 506.53 0.43 c p3
248.61 506.78 0.43 c p3
248.75 506.53 0.43 c p3
248.90 506.78 0.43 c p3
249.04 506.78 0.43 c p3
249.19 507.02 0.43 c p3
249.33 507.02 0.43 c p3
249.48 506.53 0.43 c p3
249.62 507.02 0.43 c p3
249.77 507.62 0.43 c p3
249.92 506.88 0.43 c p3
250.06 507.02 0.43 c p3
250.21 507.26 0.43 c p3
250.35 507.62 0.43 c p3
250.50 507.26 0.43 c p3
250.64 507.02 0.43 c p3
250.79 507.62 0.43 c p3
250.94 507.37 0.43 c p3
251.08 508.10 0.43 c p3
251.23 507.72 0.43 c p3
251.37 507.48 0.43 c p3
251.52 507.37 0.43 c p3
251.66 507.97 0.43 c p3
251.81 508.35 0.43 c p3
251.95 507.86 0.43 c p3
252.10 507.62 0.43 c p3
252.25 507.13 0.43 c p3
252.39 507.97 0.43 c p3
252.54 508.45 0.43 c p3
252.68 507.97 0.43 c p3
252.83 507.86 0.43 c p3
252.97 507.48 0.43 c p3
253.12 509.08 0.43 c p3
253.26 508.45 0.43 c p3
253.41 508.45 0.43 c p3
253.56 507.86 0.43 c p3
253.70 508.35 0.43 c p3
253.85 508.70 0.43 c p3
253.99 508.35 0.43 c p3
254.14 508.35 0.43 c p3
254.28 508.10 0.43 c p3
254.43 508.59 0.43 c p3
254.57 508.83 0.43 c p3
254.72 508.45 0.43 c p3
254.87 508.10 0.43 c p3
255.01 508.59 0.43 c p3
255.16 508.94 0.43 c p3
255.30 508.21 0.43 c p3
255.45 508.59 0.43 c p3
255.59 507.86 0.43 c p3
255.74 508.94 0.43 c p3
255.88 508.94 0.43 c p3
256.03 508.83 0.43 c p3
256.18 508.83 0.43 c p3
256.32 509.19 0.43 c p3
256.47 509.43 0.43 c p3
256.61 509.32 0.43 c p3
256.76 508.94 0.43 c p3
256.90 508.59 0.43 c p3
257.05 509.19 0.43 c p3
257.20 509.32 0.43 c p3
257.34 508.83 0.43 c p3
257.49 508.45 0.43 c p3
257.63 509.19 0.43 c p3
257.78 509.56 0.43 c p3
257.92 509.19 0.43 c p3
258.07 508.70 0.43 c p3
258.21 508.70 0.43 c p3
258.36 508.83 0.43 c p3
258.51 509.08 0.43 c p3
258.65 509.43 0.43 c p3
258.80 508.59 0.43 c p3
258.94 509.43 0.43 c p3
259.09 509.81 0.43 c p3
259.23 508.45 0.43 c p3
259.38 509.43 0.43 c p3
259.52 508.70 0.43 c p3
259.67 509.32 0.43 c p3
259.82 509.56 0.43 c p3
259.96 508.94 0.43 c p3
260.11 508.70 0.43 c p3
260.25 508.83 0.43 c p3
260.40 509.43 0.43 c p3
260.54 509.56 0.43 c p3
260.69 508.83 0.43 c p3
260.83 509.43 0.43 c p3
260.98 509.92 0.43 c p3
261.13 509.32 0.43 c p3
261.27 508.59 0.43 c p3
261.42 508.70 0.43 c p3
261.56 509.67 0.43 c p3
261.71 510.05 0.43 c p3
261.85 509.08 0.43 c p3
262.00 509.08 0.43 c p3
262.15 508.83 0.43 c p3
262.29 509.43 0.43 c p3
262.44 509.32 0.43 c p3
262.58 509.43 0.43 c p3
262.73 509.19 0.43 c p3
262.87 509.56 0.43 c p3
263.02 509.81 0.43 c p3
263.16 509.56 0.43 c p3
263.31 509.08 0.43 c p3
263.46 509.19 0.43 c p3
263.60 510.05 0.43 c p3
263.75 509.92 0.43 c p3
263.89 509.32 0.43 c p3
264.04 509.43 0.43 c p3
264.18 509.43 0.43 c p3
264.33 509.81 0.43 c p3
264.47 509.56 0.43 c p3
264.62 509.32 0.43 c p3
264.77 509.08 0.43 c p3
264.91 509.56 0.43 c p3
265.06 509.43 0.43 c p3
265.20 509.19 0.43 c p3
265.35 509.32 0.43 c p3
265.49 509.56 0.43 c p3
265.64 509.92 0.43 c p3
265.78 509.92 0.43 c p3
265.93 509.08 0.43 c p3
266.08 509.56 0.43 c p3
266.22 509.19 0.43 c p3
266.37 510.05 0.43 c p3
266.51 509.56 0.43 c p3
266.66 509.32 0.43 c p3
266.80 508.94 0.43 c p3
266.95 509.92 0.43 c p3
267.10 509.32 0.43 c p3
267.24 509.81 0.43 c p3
267.39 509.19 0.43 c p3
267.53 510.05 0.43 c p3
267.68 510.16 0.43 c p3
267.82 509.81 0.43 c p3
267.97 509.43 0.43 c p3
268.11 509.56 0.43 c p3
268.26 510.05 0.43 c p3
268.41 510.16 0.43 c p3
268.55 509.92 0.43 c p3
268.70 509.43 0.43 c p3
268.84 509.67 0.43 c p3
268.99 509.81 0.43 c p3
269.13 509.67 0.43 c p3
269.28 509.43 0.43 c p3
269.42 509.67 0.43 c p3
269.57 509.92 0.43 c p3
269.72 509.56 0.43 c p3
269.86 509.81 0.43 c p3
270.01 509.19 0.43 c p3
270.15 509.92 0.43 c p3
270.30 510.16 0.43 c p3
270.44 509.56 0.43 c p3
270.59 510.05 0.43 c p3
270.73 509.32 0.43 c p3
270.88 510.05 0.43 c p3
271.03 509.32 0.43 c p3
271.17 509.81 0.43 c p3
271.32 509.19 0.43 c p3
271.46 510.30 0.43 c p3
271.61 509.67 0.43 c p3
271.75 509.43 0.43 c p3
271.90 510.05 0.43 c p3
272.05 510.05 0.43 c p3
272.19 510.30 0.43 c p3
272.34 509.92 0.43 c p3
272.48 509.81 0.43 c p3
272.63 509.08 0.43 c p3
272.77 509.67 0.43 c p3
272.92 510.05 0.43 c p3
273.06 509.81 0.43 c p3
273.21 509.56 0.43 c p3
273.36 509.67 0.43 c p3
273.50 509.92 0.43 c p3
273.65 509.56 0.43 c p3
273.79 509.19 0.43 c p3
273.94 509.32 0.43 c p3
274.08 509.43 0.43 c p3
274.23 510.16 0.43 c p3
274.37 510.16 0.43 c p3
274.52 509.56 0.43 c p3
274.67 509.43 0.43 c p3
274.81 509.43 0.43 c p3
274.96 510.05 0.43 c p3
275.10 509.19 0.43 c p3
275.25 509.81 0.43 c p3
275.39 509.67 0.43 c p3
275.54 509.92 0.43 c p3
275.68 509.81 0.43 c p3
275.83 509.92 0.43 c p3
275.98 509.81 0.43 c p3
276.12 509.92 0.43 c p3
276.27 510.30 0.43 c p3
276.41 510.05 0.43 c p3
276.56 509.67 0.43 c p3
276.70 509.19 0.43 c p3
276.85 510.05 0.43 c p3
277.00 510.30 0.43 c p3
277.14 510.16 0.43 c p3
277.29 509.56 0.43 c p3
277.43 509.81 0.43 c p3
277.58 509.92 0.43 c p3
277.72 509.67 0.43 c p3
277.87 509.56 0.43 c p3
278.01 509.32 0.43 c p3
278.16 510.78 0.43 c p3
278.31 510.54 0.43 c p3
278.45 509.92 0.43 c p3
278.60 509.32 0.43 c p3
278.74 510.16 0.43 c p3
278.89 510.16 0.43 c p3
279.03 509.43 0.43 c p3
279.18 509.81 0.43 c p3
279.32 509.81 0.43 c p3
279.47 510.05 0.43 c p3
279.62 510.40 0.43 c p3
279.76 509.92 0.43 c p3
279.91 509.32 0.43 c p3
280.05 510.54 0.43 c p3
280.20 510.16 0.43 c p3
280.34 509.81 0.43 c p3
280.49 509.32 0.43 c p3
280.63 510.05 0.43 c p3
280.78 509.81 0.43 c p3
280.93 509.67 0.43 c p3
281.07 509.56 0.43 c p3
281.22 510.05 0.43 c p3
281.36 510.16 0.43 c p3
281.51 509.81 0.43 c p3
281.65 509.08 0.43 c p3
281.80 509.92 0.43 c p3
281.95 510.30 0.43 c p3
282.09 510.54 0.43 c p3
282.24 509.43 0.43 c p3
282.38 509.81 0.43 c p3
282.53 509.92 0.43 c p3
282.67 509.92 0.43 c p3
282.82 509.56 0.43 c p3
282.96 509.43 0.43 c p3
283.11 510.65 0.43 c p3
283.26 510.05 0.43 c p3
283.40 509.92 0.43 c p3
283.55 509.43 0.43 c p3
283.69 510.05 0.43 c p3
283.84 510.05 0.43 c p3
283.98 509.81 0.43 c p3
284.13 509.92 0.43 c p3
284.27 509.32 0.43 c p3
284.42 509.56 0.43 c p3
284.57 509.81 0.43 c p3
284.71 510.05 0.43 c p3
284.86 509.92 0.43 c p3
285.00 510.05 0.43 c p3
285.15 509.92 0.43 c p3
285.29 510.16 0.43 c p3
285.44 509.81 0.43 c p3
285.58 509.81 0.43 c p3
285.73 510.16 0.43 c p3
285.88 509.81 0.43 c p3
286.02 510.30 0.43 c p3
286.17 509.67 0.43 c p3
286.31 509.92 0.43 c p3
286.46 510.54 0.43 c p3
286.60 509.92 0.43 c p3
286.75 510.54 0.43 c p3
286.89 510.30 0.43 c p3
287.04 510.05 0.43 c p3
287.19 510.05 0.43 c p3
287.33 510.30 0.43 c p3
287.48 510.05 0.43 c p3
287.62 509.81 0.43 c p3
287.77 510.05 0.43 c p3
287.91 510.05 0.43 c p3
288.06 509.81 0.43 c p3
288.21 510.54 0.43 c p3
288.35 510.54 0.43 c p3
288.50 509.92 0.43 c p3
288.64 509.92 0.43 c p3
288.79 510.30 0.43 c p3
288.93 510.30 0.43 c p3
289.08 509.92 0.43 c p3
289.22 509.81 0.43 c p3
289.37 510.16 0.43 c p3
289.52 509.67 0.43 c p3
289.66 510.54 0.43 c p3
289.81 509.81 0.43 c p3
289.95 509.43 0.43 c p3
290.10 509.92 0.43 c p3
290.24 509.56 0.43 c p3
290.39 509.81 0.43 c p3
290.53 509.81 0.43 c p3
290.68 510.30 0.43 c p3
290.83 510.40 0.43 c p3
290.97 510.16 0.43 c p3
291.12 509.92 0.43 c p3
291.26 510.65 0.43 c p3
291.41 509.67 0.43 c p3
291.55 510.05 0.43 c p3
291.70 510.30 0.43 c p3
291.84 510.05 0.43 c p3
291.99 510.16 0.43 c p3
292.14 510.30 0.43 c p3
292.28 510.16 0.43 c p3
292.43 509.43 0.43 c p3
292.57 509.67 0.43 c p3
292.72 510.40 0.43 c p3
292.86 509.67 0.43 c p3
293.01 509.67 0.43 c p3
293.16 510.30 0.43 c p3
293.30 510.05 0.43 c p3
293.45 509.92 0.43 c p3
293.59 510.54 0.43 c p3
293.74 510.16 0.43 c p3
293.88 510.54 0.43 c p3
294.03 509.92 0.43 c p3
294.17 510.30 0.43 c p3
294.32 509.92 0.43 c p3
294.47 510.30 0.43 c p3
294.61 510.40 0.43 c p3
294.76 510.16 0.43 c p3
294.90 510.30 0.43 c p3
295.05 509.67 0.43 c p3
295.19 509.81 0.43 c p3
295.34 510.54 0.43 c p3
295.48 510.16 0.43 c p3
295.63 510.89 0.43 c p3
295.78 510.54 0.43 c p3
295.92 510.30 0.43 c p3
296.07 510.40 0.43 c p3
296.21 510.05 0.43 c p3
296.36 510.05 0.43 c p3
296.50 510.16 0.43 c p3
296.65 510.40 0.43 c p3
296.79 510.54 0.43 c p3
296.94 510.54 0.43 c p3
297.09 509.92 0.43 c p3
297.23 510.16 0.43 c p3
297.38 509.81 0.43 c p3
297.52 510.05 0.43 c p3
297.67 510.30 0.43 c p3
297.81 510.30 0.43 c p3
297.96 510.05 0.43 c p3
298.11 509.19 0.43 c p3
298.25 510.16 0.43 c p3
298.40 510.40 0.43 c p3
298.54 510.05 0.43 c p3
298.69 510.54 0.43 c p3
298.83 510.78 0.43 c p3
298.98 509.81 0.43 c p3
299.12 510.16 0.43 c p3
299.27 510.16 0.43 c p3
299.42 509.92 0.43 c p3
299.56 510.30 0.43 c p3
299.71 509.92 0.43 c p3
299.85 510.40 0.43 c p3
300.00 509.67 0.43 c p3
300.14 509.92 0.43 c p3
300.29 510.54 0.43 c p3
300.43 510.54 0.43 c p3
300.58 510.16 0.43 c p3
300.73 510.16 0.43 c p3
300.87 510.05 0.43 c p3
301.02 510.05 0.43 c p3
301.16 510.30 0.43 c p3
301.31 510.30 0.43 c p3
301.45 510.16 0.43 c p3
301.60 510.65 0.43 c p3
301.74 509.92 0.43 c p3
301.89 509.81 0.43 c p3
302.04 509.92 0.43 c p3
302.18 510.05 0.43 c p3
302.33 510.54 0.43 c p3
302.47 510.30 0.43 c p3
302.62 510.30 0.43 c p3
302.76 510.16 0.43 c p3
302.91 509.67 0.43 c p3
303.06 510.40 0.43 c p3
303.20 510.05 0.43 c p3
303.35 510.30 0.43 c p3
303.49 510.30 0.43 c p3
303.64 510.54 0.43 c p3
303.78 510.16 0.43 c p3
303.93 510.05 0.43 c p3
304.07 510.16 0.43 c p3
304.22 510.05 0.43 c p3
304.37 510.65 0.43 c p3
304.51 510.40 0.43 c p3
304.66 510.65 0.43 c p3
304.80 509.56 0.43 c p3
304.95 510.16 0.43 c p3
305.09 510.54 0.43 c p3
305.24 510.16 0.43 c p3
305.38 510.05 0.43 c p3
305.53 510.78 0.43 c p3
305.68 510.16 0.43 c p3
305.82 510.05 0.43 c p3
305.97 509.81 0.43 c p3
306.11 510.30 0.43 c p3
306.26 510.54 0.43 c p3
306.40 510.40 0.43 c p3
306.55 510.54 0.43 c p3
306.69 510.05 0.43 c p3
306.84 510.16 0.43 c p3
306.99 510.40 0.43 c p3
307.13 509.67 0.43 c p3
307.28 510.54 0.43 c p3
307.42 510.30 0.43 c p3
307.57 509.92 0.43 c p3
307.71 510.05 0.43 c p3
307.86 510.16 0.43 c p3
308.01 510.05 0.43 c p3
308.15 509.92 0.43 c p3
308.30 510.78 0.43 c p3
308.44 510.30 0.43 c p3
308.59 509.81 0.43 c p3
308.73 510.16 0.43 c p3
308.88 509.81 0.43 c p3
309.02 510.05 0.43 c p3
309.17 510.54 0.43 c p3
309.32 510.30 0.43 c p3
309.46 510.05 0.43 c p3
309.61 510.30 0.43 c p3
309.75 510.30 0.43 c p3
309.90 510.54 0.43 c p3
310.04 510.30 0.43 c p3
310.19 510.65 0.43 c p3
310.33 510.78 0.43 c p3
310.48 509.67 0.43 c p3
310.63 510.65 0.43 c p3
310.77 509.43 0.43 c p3
310.92 510.16 0.43 c p3
311.06 510.05 0.43 c p3
311.21 510.40 0.43 c p3
311.35 510.40 0.43 c p3
311.50 509.92 0.43 c p3
311.64 509.81 0.43 c p3
311.79 509.92 0.43 c p3
311.94 509.43 0.43 c p3
312.08 510.40 0.43 c p3
312.23 510.54 0.43 c p3
312.37 510.16 0.43 c p3
312.52 509.67 0.43 c p3
312.66 509.67 0.43 c p3
312.81 509.92 0.43 c p3
312.96 509.92 0.43 c p3
313.10 510.05 0.43 c p3
313.25 510.16 0.43 c p3
313.39 510.54 0.43 c p3
313.54 510.40 0.43 c p3
313.68 510.16 0.43 c p3
313.83 510.30 0.43 c p3
313.97 510.30 0.43 c p3
314.12 510.30 0.43 c p3
314.27 510.89 0.43 c p3
314.41 510.05 0.43 c p3
314.56 510.05 0.43 c p3
314.70 510.54 0.43 c p3
314.85 509.92 0.43 c p3
314.99 510.40 0.43 c p3
315.14 511.03 0.43 c p3
315.28 510.16 0.43 c p3
315.43 509.92 0.43 c p3
315.58 509.92 0.43 c p3
315.72 509.92 0.43 c p3
315.87 510.78 0.43 c p3
316.01 510.54 0.43 c p3
316.16 509.81 0.43 c p3
316.30 510.30 0.43 c p3
316.45 510.40 0.43 c p3
316.59 510.65 0.43 c p3
316.74 510.05 0.43 c p3
316.89 510.54 0.43 c p3
317.03 510.78 0.43 c p3
317.18 511.13 0.43 c p3
317.32 510.40 0.43 c p3
317.47 509.92 0.43 c p3
317.61 510.40 0.43 c p3
317.76 509.56 0.43 c p3
317.91 510.78 0.43 c p3
318.05 509.81 0.43 c p3
318.20 510.16 0.43 c p3
318.34 510.40 0.43 c p3
318.49 510.16 0.43 c p3
318.63 509.81 0.43 c p3
318.78 510.16 0.43 c p3
318.92 510.89 0.43 c p3
319.07 510.65 0.43 c p3
319.22 510.30 0.43 c p3
319.36 511.13 0.43 c p3
319.51 510.40 0.43 c p3
319.65 509.92 0.43 c p3
319.80 510.65 0.43 c p3
319.94 510.16 0.43 c p3
320.09 510.05 0.43 c p3
320.23 509.81 0.43 c p3
320.38 509.92 0.43 c p3
320.53 510.30 0.43 c p3
320.67 509.67 0.43 c p3
320.82 510.40 0.43 c p3
320.96 510.65 0.43 c p3
321.11 510.05 0.43 c p3
321.25 510.40 0.43 c p3
321.40 510.40 0.43 c p3
321.54 510.30 0.43 c p3
321.69 510.30 0.43 c p3
321.84 510.16 0.43 c p3
321.98 510.54 0.43 c p3
322.13 510.05 0.43 c p3
322.27 510.54 0.43 c p3
322.42 510.40 0.43 c p3
322.56 510.54 0.43 c p3
322.71 510.30 0.43 c p3
322.85 510.65 0.43 c p3
323.00 510.05 0.43 c p3
323.15 510.30 0.43 c p3
323.29 510.78 0.43 c p3
323.44 510.65 0.43 c p3
323.58 510.16 0.43 c p3
323.73 510.16 0.43 c p3
323.87 510.54 0.43 c p3
324.02 510.30 0.43 c p3
324.17 510.30 0.43 c p3
324.31 510.54 0.43 c p3
324.46 510.05 0.43 c p3
324.60 510.16 0.43 c p3
324.75 510.30 0.43 c p3
324.89 510.78 0.43 c p3
325.04 510.65 0.43 c p3
325.18 510.54 0.43 c p3
325.33 510.30 0.43 c p3
325.48 510.05 0.43 c p3
325.62 510.30 0.43 c p3
325.77 510.54 0.43 c p3
325.91 510.78 0.43 c p3
326.06 509.81 0.43 c p3
326.20 510.40 0.43 c p3
326.35 510.54 0.43 c p3
326.49 510.30 0.43 c p3
326.64 510.54 0.43 c p3
326.79 510.40 0.43 c p3
326.93 510.05 0.43 c p3
327.08 510.54 0.43 c p3
327.22 510.05 0.43 c p3
327.37 510.05 0.43 c p3
327.51 510.54 0.43 c p3
327.66 510.40 0.43 c p3
327.80 510.89 0.43 c p3
327.95 510.05 0.43 c p3
328.10 510.40 0.43 c p3
328.24 510.16 0.43 c p3
328.39 510.05 0.43 c p3
328.53 510.16 0.43 c p3
328.68 509.81 0.43 c p3
328.82 510.30 0.43 c p3
328.97 510.30 0.43 c p3
329.12 510.16 0.43 c p3
329.26 510.89 0.43 c p3
329.41 510.30 0.43 c p3
329.55 510.54 0.43 c p3
329.70 510.40 0.43 c p3
329.84 510.16 0.43 c p3
329.99 510.16 0.43 c p3
330.13 510.05 0.43 c p3
330.28 510.40 0.43 c p3
330.43 510.16 0.43 c p3
330.57 510.78 0.43 c p3
330.72 510.40 0.43 c p3
330.86 510.16 0.43 c p3
331.01 510.05 0.43 c p3
331.15 510.65 0.43 c p3
331.30 510.54 0.43 c p3
331.44 510.16 0.43 c p3
331.59 510.54 0.43 c p3
331.74 510.65 0.43 c p3
331.88 510.30 0.43 c p3
332.03 509.92 0.43 c p3
332.17 510.65 0.43 c p3
332.32 510.30 0.43 c p3
332.46 510.16 0.43 c p3
332.61 510.54 0.43 c p3
332.75 510.16 0.43 c p3
332.90 510.16 0.43 c p3
333.05 510.30 0.43 c p3
333.19 510.05 0.43 c p3
333.34 510.05 0.43 c p3
333.48 510.30 0.43 c p3
333.63 510.30 0.43 c p3
333.77 510.40 0.43 c p3
333.92 510.05 0.43 c p3
334.07 510.30 0.43 c p3
334.21 510.16 0.43 c p3
334.36 509.92 0.43 c p3
334.50 510.30 0.43 c p3
334.65 510.65 0.43 c p3
334.79 510.05 0.43 c p3
334.94 510.40 0.43 c p3
335.08 510.54 0.43 c p3
335.23 510.16 0.43 c p3
335.38 510.65 0.43 c p3
335.52 510.89 0.43 c p3
335.67 510.65 0.43 c p3
335.81 510.05 0.43 c p3
335.96 510.40 0.43 c p3
336.10 510.05 0.43 c p3
336.25 510.40 0.43 c p3
336.39 510.65 0.43 c p3
336.54 510.54 0.43 c p3
336.69 509.92 0.43 c p3
336.83 510.65 0.43 c p3
336.98 510.54 0.43 c p3
337.12 510.16 0.43 c p3
337.27 510.65 0.43 c p3
337.41 511.03 0.43 c p3
337.56 511.13 0.43 c p3
337.70 510.16 0.43 c p3
337.85 510.40 0.43 c p3
338.00 510.40 0.43 c p3
338.14 510.30 0.43 c p3
338.29 510.40 0.43 c p3
338.43 510.40 0.43 c p3
338.58 510.05 0.43 c p3
338.72 510.40 0.43 c p3
338.87 509.81 0.43 c p3
339.02 510.16 0.43 c p3
339.16 510.05 0.43 c p3
339.31 510.65 0.43 c p3
339.45 510.65 0.43 c p3
339.60 509.92 0.43 c p3
339.74 509.92 0.43 c p3
339.89 510.54 0.43 c p3
340.03 510.16 0.43 c p3
340.18 510.89 0.43 c p3
340.33 510.54 0.43 c p3
340.47 510.65 0.43 c p3
340.62 510.16 0.43 c p3
340.76 510.40 0.43 c p3
340.91 510.05 0.43 c p3
341.05 510.54 0.43 c p3
341.20 510.40 0.43 c p3
341.34 510.65 0.43 c p3
341.49 510.65 0.43 c p3
341.64 510.05 0.43 c p3
341.78 510.30 0.43 c p3
341.93 510.40 0.43 c p3
342.07 510.30 0.43 c p3
342.22 510.54 0.43 c p3
342.36 510.40 0.43 c p3
342.51 510.05 0.43 c p3
342.65 510.16 0.43 c p3
342.80 509.81 0.43 c p3
342.95 510.65 0.43 c p3
343.09 510.54 0.43 c p3
343.24 510.16 0.43 c p3
343.38 511.13 0.43 c p3
343.53 510.54 0.43 c p3
343.67 510.40 0.43 c p3
343.82 510.65 0.43 c p3
343.97 510.05 0.43 c p3
344.11 510.05 0.43 c p3
344.26 510.54 0.43 c p3
344.40 510.89 0.43 c p3
344.55 510.54 0.43 c p3
344.69 510.30 0.43 c p3
344.84 510.54 0.43 c p3
344.98 510.65 0.43 c p3
345.13 510.89 0.43 c p3
345.28 511.27 0.43 c p3
345.42 509.81 0.43 c p3
345.57 510.78 0.43 c p3
345.71 510.05 0.43 c p3
345.86 510.40 0.43 c p3
346.00 510.78 0.43 c p3
346.15 510.54 0.43 c p3
346.29 510.40 0.43 c p3
346.44 510.30 0.43 c p3
346.59 510.30 0.43 c p3
346.73 510.78 0.43 c p3
346.88 510.16 0.43 c p3
347.02 511.03 0.43 c p3
347.17 510.65 0.43 c p3
347.31 510.30 0.43 c p3
347.46 509.92 0.43 c p3
347.60 509.92 0.43 c p3
347.75 510.05 0.43 c p3
347.90 510.30 0.43 c p3
348.04 510.54 0.43 c p3
348.19 510.54 0.43 c p3
348.33 510.54 0.43 c p3
348.48 510.30 0.43 c p3
348.62 510.30 0.43 c p3
348.77 510.40 0.43 c p3
348.92 510.16 0.43 c p3
349.06 510.40 0.43 c p3
349.21 510.89 0.43 c p3
349.35 510.30 0.43 c p3
349.50 510.65 0.43 c p3
349.64 510.05 0.43 c p3
349.79 510.16 0.43 c p3
349.93 510.05 0.43 c p3
350.08 510.65 0.43 c p3
350.23 510.54 0.43 c p3
350.37 510.54 0.43 c p3
350.52 510.89 0.43 c p3
350.66 510.16 0.43 c p3
350.81 510.65 0.43 c p3
350.95 510.54 0.43 c p3
351.10 510.30 0.43 c p3
351.24 510.16 0.43 c p3
351.39 510.65 0.43 c p3
351.54 510.54 0.43 c p3
351.68 510.65 0.43 c p3
351.83 510.16 0.43 c p3
351.97 510.30 0.43 c p3
352.12 510.40 0.43 c p3
352.26 510.65 0.43 c p3
352.41 510.30 0.43 c p3
352.55 510.05 0.43 c p3
352.70 510.54 0.43 c p3
352.85 510.54 0.43 c p3
352.99 510.54 0.43 c p3
353.14 509.92 0.43 c p3
353.28 510.54 0.43 c p3
353.43 510.54 0.43 c p3
353.57 510.40 0.43 c p3
353.72 510.30 0.43 c p3
353.86 510.65 0.43 c p3
354.01 510.78 0.43 c p3
354.16 510.16 0.43 c p3
354.30 510.54 0.43 c p3
354.45 509.92 0.43 c p3
354.59 510.40 0.43 c p3
354.74 510.40 0.43 c p3
354.88 510.54 0.43 c p3
355.03 510.89 0.43 c p3
355.18 510.30 0.43 c p3
355.32 510.40 0.43 c p3
355.47 510.30 0.43 c p3
355.61 510.54 0.43 c p3
355.76 510.78 0.43 c p3
355.90 510.65 0.43 c p3
356.05 510.54 0.43 c p3
356.19 510.05 0.43 c p3
356.34 510.54 0.43 c p3
356.49 510.05 0.43 c p3
356.63 510.16 0.43 c p3
356.78 510.78 0.43 c p3
356.92 510.54 0.43 c p3
357.07 510.65 0.43 c p3
357.21 510.40 0.43 c p3
357.36 510.30 0.43 c p3
357.50 510.54 0.43 c p3
357.65 509.81 0.43 c p3
357.80 510.40 0.43 c p3
357.94 510.65 0.43 c p3
358.09 509.92 0.43 c p3
358.23 510.16 0.43 c p3
358.38 510.78 0.43 c p3
358.52 510.65 0.43 c p3
358.67 510.78 0.43 c p3
358.81 510.65 0.43 c p3
358.96 510.54 0.43 c p3
359.11 510.40 0.43 c p3
359.25 510.78 0.43 c p3
359.40 510.65 0.43 c p3
359.54 510.89 0.43 c p3
359.69 510.16 0.43 c p3
359.83 510.30 0.43 c p3
359.98 510.89 0.43 c p3
360.13 510.65 0.43 c p3
360.27 510.05 0.43 c p3
360.42 510.40 0.43 c p3
360.56 510.16 0.43 c p3
360.71 510.65 0.43 c p3
360.85 510.78 0.43 c p3
361.00 510.30 0.43 c p3
361.14 510.54 0.43 c p3
361.29 510.30 0.43 c p3
361.44 510.89 0.43 c p3
361.58 510.65 0.43 c p3
361.73 510.65 0.43 c p3
361.87 510.78 0.43 c p3
362.02 510.16 0.43 c p3
362.16 510.30 0.43 c p3
362.31 510.54 0.43 c p3
362.45 510.40 0.43 c p3
362.60 510.54 0.43 c p3
362.75 510.54 0.43 c p3
362.89 510.65 0.43 c p3
363.04 510.54 0.43 c p3
363.18 510.65 0.43 c p3
363.33 510.40 0.43 c p3
363.47 510.16 0.43 c p3
363.62 510.78 0.43 c p3
363.76 510.65 0.43 c p3
363.91 510.54 0.43 c p3
364.06 510.16 0.43 c p3
364.20 510.78 0.43 c p3
364.35 510.16 0.43 c p3
364.49 510.05 0.43 c p3
364.64 510.65 0.43 c p3
364.78 510.89 0.43 c p3
364.93 510.16 0.43 c p3
365.08 510.54 0.43 c p3
365.22 510.30 0.43 c p3
365.37 510.89 0.43 c p3
365.51 511.13 0.43 c p3
365.66 510.78 0.43 c p3
365.80 510.89 0.43 c p3
365.95 509.92 0.43 c p3
366.09 510.78 0.43 c p3
366.24 510.65 0.43 c p3
366.39 510.05 0.43 c p3
366.53 510.30 0.43 c p3
366.68 510.89 0.43 c p3
366.82 510.54 0.43 c p3
366.97 510.30 0.43 c p3
367.11 510.16 0.43 c p3
367.26 510.54 0.43 c p3
367.40 510.65 0.43 c p3
367.55 510.89 0.43 c p3
367.70 510.40 0.43 c p3
367.84 510.40 0.43 c p3
367.99 509.92 0.43 c p3
368.13 509.92 0.43 c p3
368.28 510.78 0.43 c p3
368.42 510.78 0.43 c p3
368.57 511.13 0.43 c p3
368.71 510.40 0.43 c p3
368.86 510.30 0.43 c p3
369.01 510.40 0.43 c p3
369.15 510.30 0.43 c p3
369.30 510.65 0.43 c p3
369.44 510.54 0.43 c p3
369.59 510.54 0.43 c p3
369.73 510.54 0.43 c p3
369.88 510.30 0.43 c p3
370.03 510.54 0.43 c p3
370.17 510.78 0.43 c p3
370.32 510.65 0.43 c p3
370.46 511.13 0.43 c p3
370.61 510.16 0.43 c p3
370.75 511.03 0.43 c p3
370.90 510.40 0.43 c p3
371.04 510.30 0.43 c p3
371.19 510.30 0.43 c p3
371.34 510.54 0.43 c p3
371.48 510.40 0.43 c p3
371.63 510.78 0.43 c p3
371.77 510.30 0.43 c p3
371.92 510.30 0.43 c p3
372.06 510.65 0.43 c p3
372.21 511.13 0.43 c p3
372.35 510.05 0.43 c p3
372.50 510.54 0.43 c p3
372.65 511.03 0.43 c p3
372.79 509.81 0.43 c p3
372.94 510.78 0.43 c p3
373.08 510.54 0.43 c p3
373.23 510.65 0.43 c p3
373.37 510.78 0.43 c p3
373.52 510.40 0.43 c p3
373.66 510.54 0.43 c p3
373.81 510.40 0.43 c p3
373.96 510.54 0.43 c p3
374.10 510.65 0.43 c p3
374.25 510.05 0.43 c p3
374.39 510.65 0.43 c p3
374.54 510.89 0.43 c p3
374.68 510.89 0.43 c p3
374.83 510.30 0.43 c p3
374.98 510.65 0.43 c p3
375.12 510.65 0.43 c p3
375.27 510.65 0.43 c p3
375.41 510.89 0.43 c p3
375.56 510.54 0.43 c p3
375.70 510.16 0.43 c p3
375.85 510.40 0.43 c p3
375.99 510.65 0.43 c p3
376.14 509.81 0.43 c p3
376.29 510.65 0.43 c p3
376.43 510.40 0.43 c p3
376.58 510.16 0.43 c p3
376.72 510.89 0.43 c p3
376.87 510.30 0.43 c p3
377.01 510.78 0.43 c p3
377.16 510.30 0.43 c p3
377.30 510.89 0.43 c p3
377.45 511.03 0.43 c p3
377.60 510.54 0.43 c p3
377.74 510.16 0.43 c p3
377.89 510.89 0.43 c p3
378.03 510.65 0.43 c p3
378.18 510.65 0.43 c p3
378.32 510.78 0.43 c p3
378.47 511.27 0.43 c p3
378.61 510.65 0.43 c p3
378.76 510.78 0.43 c p3
378.91 510.30 0.43 c p3
379.05 510.78 0.43 c p3
379.20 510.89 0.43 c p3
379.34 510.78 0.43 c p3
379.49 510.30 0.43 c p3
379.63 510.54 0.43 c p3
379.78 510.54 0.43 c p3
379.93 511.27 0.43 c p3
380.07 510.65 0.43 c p3
380.22 510.40 0.43 c p3
380.36 510.78 0.43 c p3
380.51 510.40 0.43 c p3
380.65 511.13 0.43 c p3
380.80 510.30 0.43 c p3
380.94 510.40 0.43 c p3
381.09 510.54 0.43 c p3
381.24 510.40 0.43 c p3
381.38 510.78 0.43 c p3
381.53 510.40 0.43 c p3
381.67 510.54 0.43 c p3
381.82 510.16 0.43 c p3
381.96 510.54 0.43 c p3
382.11 511.03 0.43 c p3
382.25 510.65 0.43 c p3
382.40 510.65 0.43 c p3
0.00 0.00 432.00 576.00 cl
0 0 0 srgb
0.75 setlinewidth
[] 0 setdash
1 setlinecap
1 setlinejoin
10.00 setmiterlimit
np
236.96 345.60 m
145.59 0 l
o
np
236.96 345.60 m
0 -5.76 l
o
np
261.22 345.60 m
0 -5.76 l
o
np
285.49 345.60 m
0 -5.76 l
o
np
309.75 345.60 m
0 -5.76 l
o
np
334.02 345.60 m
0 -5.76 l
o
np
358.28 345.60 m
0 -5.76 l
o
np
382.55 345.60 m
0 -5.76 l
o
/Font1 findfont 10 s
236.96 329.47 (0) .5 0 t
261.22 329.47 (500) .5 0 t
309.75 329.47 (1500) .5 0 t
358.28 329.47 (2500) .5 0 t
np
216.00 352.00 m
0 166.27 l
o
np
216.00 352.00 m
-5.76 0 l
o
np
216.00 407.42 m
-5.76 0 l
o
np
216.00 462.85 m
-5.76 0 l
o
np
216.00 518.27 m
-5.76 0 l
o
209.09 348.41 (0.0) 1 0 t
209.09 403.83 (0.5) 1 0 t
209.09 459.26 (1.0) 1 0 t
209.09 514.68 (1.5) 1 0 t
np
216.00 345.60 m
172.80 0 l
0 172.80 l
-172.80 0 l
0 -172.80 l
o
0.00 0.00 432.00 576.00 cl
/Font1 findfont 10 s
0 0 0 srgb
302.40 313.34 (Zeit / ms \(total\)) .5 0 t
190.66 432.00 (U / V) .5 90 t
216.00 345.60 388.80 518.40 cl
0 0 0 srgb
0.38 setlinewidth
[ 1.12 1.88] 0 setdash
1 setlinecap
1 setlinejoin
10.00 setmiterlimit
np
223.42 345.60 m
0 172.80 l
o
np
234.63 345.60 m
0 172.80 l
o
np
240.02 345.60 m
0 172.80 l
o
np
269.13 345.60 m
0 172.80 l
o
86.40 57.60 388.80 288.00 cl
1 0 0 srgb
1.50 setlinewidth
[] 0 setdash
1 setlinecap
1 setlinejoin
10.00 setmiterlimit
np
97.60 279.47 m
1.41 -24.26 l
1.40 -21.34 l
1.41 -18.76 l
1.41 -16.51 l
1.41 -14.51 l
1.40 -12.77 l
1.41 -11.23 l
1.41 -9.88 l
1.40 -8.68 l
1.41 -7.64 l
1.41 -6.72 l
1.40 -5.91 l
1.41 -5.20 l
1.41 -4.57 l
1.41 -4.02 l
1.40 -3.54 l
1.41 -3.11 l
1.41 -2.73 l
1.40 -2.41 l
1.41 -2.11 l
1.41 -1.86 l
1.40 -1.64 l
1.41 -1.44 l
1.41 -1.27 l
1.41 -1.11 l
1.40 -0.98 l
1.41 -0.86 l
1.41 -0.76 l
1.40 -0.67 l
1.41 -0.58 l
1.41 -0.52 l
1.41 -0.45 l
1.40 -0.40 l
1.41 -0.35 l
1.41 -0.31 l
1.40 -0.27 l
1.41 -0.24 l
1.41 -0.21 l
1.40 -0.18 l
1.41 -0.16 l
1.41 -0.15 l
1.41 -0.12 l
1.40 -0.11 l
1.41 -0.10 l
1.41 -0.09 l
1.40 -0.07 l
1.41 -0.07 l
1.41 -0.06 l
1.40 -0.05 l
1.41 -0.04 l
1.41 -0.04 l
1.41 -0.04 l
1.40 -0.03 l
1.41 -0.02 l
1.41 -0.03 l
1.40 -0.02 l
1.41 -0.02 l
1.41 -0.01 l
1.41 -0.02 l
1.40 -0.01 l
1.41 -0.01 l
1.41 -0.01 l
1.40 -0.01 l
1.41 -0.01 l
1.41 0 l
1.40 -0.01 l
1.41 0 l
1.41 -0.01 l
1.41 0 l
1.40 0 l
1.41 -0.01 l
1.41 0 l
1.40 0 l
1.41 0 l
1.41 -0.01 l
1.40 0 l
1.41 0 l
1.41 0 l
1.41 0 l
1.40 0 l
1.41 0 l
1.41 0 l
1.40 0 l
1.41 -0.01 l
1.41 0 l
1.41 0 l
1.40 0 l
1.41 0 l
1.41 0 l
1.40 0 l
1.41 0 l
1.41 0 l
1.40 0 l
1.41 0 l
1.41 0 l
1.41 0 l
1.40 0 l
1.41 0 l
1.41 0 l
238.30 78.12 lineto
1.41 0 l
1.41 0 l
1.40 0 l
1.41 0 l
1.41 0 l
1.41 0 l
1.40 0 l
1.41 0 l
1.41 0 l
1.40 0 l
1.41 0 l
1.41 0 l
1.40 0 l
1.41 0 l
1.41 0 l
1.41 0 l
1.40 0 l
1.41 0 l
1.41 0 l
1.40 0 l
1.41 0 l
1.41 0 l
1.41 0 l
1.40 0 l
1.41 0 l
1.41 0 l
1.40 0 l
1.41 0 l
1.41 0 l
1.40 0 l
1.41 0 l
1.41 0 l
1.41 0 l
1.40 0 l
1.41 0 l
1.41 0 l
1.40 0 l
1.41 0 l
1.41 0 l
1.40 0 l
1.41 0 l
1.41 0 l
1.41 0 l
1.40 0 l
1.41 0 l
1.41 0 l
1.40 0 l
1.41 0 l
1.41 0 l
1.41 0 l
1.40 0 l
1.41 0 l
1.41 0 l
1.40 0 l
1.41 0 l
1.41 0 l
1.40 0 l
1.41 0 l
1.41 0 l
1.41 0 l
1.40 0 l
1.41 0 l
1.41 0 l
1.40 0 l
1.41 0 l
1.41 0 l
1.40 0 l
1.41 0 l
1.41 0 l
1.41 0 l
1.40 0 l
1.41 0 l
1.41 0 l
1.40 0 l
1.41 0 l
1.41 0 l
1.41 0 l
1.40 0 l
1.41 0 l
1.41 0 l
1.40 0 l
1.41 0 l
1.41 0 l
1.40 0 l
1.41 0 l
1.41 0 l
1.41 0 l
1.40 0 l
1.41 0 l
1.41 0 l
1.40 0 l
1.41 0 l
1.41 0 l
1.40 0 l
1.41 0 l
1.41 0 l
1.41 0 l
1.40 0 l
1.41 0 l
o
0.00 0.00 432.00 576.00 cl
0 0 0 srgb
0.75 setlinewidth
[] 0 setdash
1 setlinecap
1 setlinejoin
10.00 setmiterlimit
np
97.60 57.60 m
280.00 0 l
o
np
97.60 57.60 m
0 -5.76 l
o
np
144.27 57.60 m
0 -5.76 l
o
np
190.93 57.60 m
0 -5.76 l
o
np
237.60 57.60 m
0 -5.76 l
o
np
284.27 57.60 m
0 -5.76 l
o
np
330.93 57.60 m
0 -5.76 l
o
np
377.60 57.60 m
0 -5.76 l
o
/Font1 findfont 10 s
97.60 41.47 (0) .5 0 t
144.27 41.47 (500) .5 0 t
190.93 41.47 (1000) .5 0 t
237.60 41.47 (1500) .5 0 t
284.27 41.47 (2000) .5 0 t
330.93 41.47 (2500) .5 0 t
377.60 41.47 (3000) .5 0 t
np
86.40 66.13 m
0 174.36 l
o
np
86.40 66.13 m
-5.76 0 l
o
np
86.40 124.25 m
-5.76 0 l
o
np
86.40 182.37 m
-5.76 0 l
o
np
86.40 240.49 m
-5.76 0 l
o
79.49 62.54 (0.00) 1 0 t
79.49 120.66 (0.02) 1 0 t
79.49 178.78 (0.04) 1 0 t
79.49 236.90 (0.06) 1 0 t
np
86.40 57.60 m
302.40 0 l
0 230.40 l
-302.40 0 l
0 -230.40 l
o
0.00 0.00 432.00 576.00 cl
/Font1 findfont 10 s
0 0 0 srgb
237.60 13.82 (Zeit / ms \(nach Puls\)) .5 0 t
49.54 172.80 (Absorbanz A) .5 90 t
86.40 57.60 388.80 288.00 cl
/bg { 1 1 1 srgb } def
0 0 0 srgb
0.75 setlinewidth
[] 0 setdash
1 setlinecap
1 setlinejoin
10.00 setmiterlimit
103.76 199.40 0.65 c p3
104.04 191.79 0.65 c p3
104.32 183.29 0.65 c p3
104.60 181.40 0.65 c p3
104.88 180.23 0.65 c p3
105.16 181.40 0.65 c p3
105.44 180.23 0.65 c p3
105.72 173.90 0.65 c p3
106.00 170.87 0.65 c p3
106.28 167.61 0.65 c p3
106.56 169.70 0.65 c p3
106.84 167.61 0.65 c p3
107.12 162.50 0.65 c p3
107.40 162.50 0.65 c p3
107.68 155.11 0.65 c p3
107.96 155.11 0.65 c p3
108.24 150.06 0.65 c p3
108.52 150.98 0.65 c p3
108.80 148.91 0.65 c p3
109.08 153.04 0.65 c p3
109.36 146.85 0.65 c p3
109.64 144.79 0.65 c p3
109.92 142.74 0.65 c p3
110.20 141.83 0.65 c p3
110.48 143.88 0.65 c p3
110.76 132.75 0.65 c p3
111.04 134.79 0.65 c p3
111.32 134.79 0.65 c p3
111.60 131.62 0.65 c p3
111.88 136.83 0.65 c p3
112.16 128.68 0.65 c p3
112.44 132.75 0.65 c p3
112.72 130.71 0.65 c p3
113.00 130.71 0.65 c p3
113.28 121.49 0.65 c p3
113.56 119.47 0.65 c p3
113.84 121.49 0.65 c p3
114.12 120.59 0.65 c p3
114.40 120.59 0.65 c p3
114.68 119.47 0.65 c p3
114.96 116.57 0.65 c p3
115.24 122.61 0.65 c p3
115.52 120.59 0.65 c p3
115.80 116.57 0.65 c p3
116.08 114.56 0.65 c p3
116.36 115.45 0.65 c p3
116.64 115.45 0.65 c p3
116.92 117.46 0.65 c p3
117.20 111.44 0.65 c p3
117.48 106.56 0.65 c p3
117.76 108.55 0.65 c p3
118.04 110.55 0.65 c p3
118.32 113.44 0.65 c p3
118.60 106.56 0.65 c p3
118.88 101.47 0.65 c p3
119.16 107.44 0.65 c p3
119.44 107.44 0.65 c p3
119.72 106.56 0.65 c p3
120.00 103.46 0.65 c p3
120.28 101.47 0.65 c p3
120.56 103.46 0.65 c p3
120.84 101.47 0.65 c p3
121.12 101.47 0.65 c p3
121.40 99.49 0.65 c p3
121.68 99.49 0.65 c p3
121.96 103.46 0.65 c p3
122.24 99.49 0.65 c p3
122.52 94.65 0.65 c p3
122.80 100.59 0.65 c p3
123.08 99.49 0.65 c p3
123.36 97.50 0.65 c p3
123.64 94.65 0.65 c p3
123.92 97.50 0.65 c p3
124.20 99.49 0.65 c p3
124.48 94.65 0.65 c p3
124.76 96.62 0.65 c p3
125.04 90.70 0.65 c p3
125.32 93.77 0.65 c p3
125.60 95.75 0.65 c p3
125.88 96.62 0.65 c p3
126.16 91.80 0.65 c p3
126.44 88.74 0.65 c p3
126.72 92.67 0.65 c p3
127.00 94.65 0.65 c p3
127.28 98.60 0.65 c p3
127.56 91.80 0.65 c p3
127.84 87.86 0.65 c p3
128.12 91.80 0.65 c p3
128.40 92.67 0.65 c p3
128.68 95.75 0.65 c p3
128.96 82.85 0.65 c p3
129.24 87.86 0.65 c p3
129.52 87.86 0.65 c p3
129.80 92.67 0.65 c p3
130.08 88.74 0.65 c p3
130.36 85.90 0.65 c p3
130.64 88.74 0.65 c p3
130.92 88.74 0.65 c p3
131.20 90.70 0.65 c p3
131.48 86.77 0.65 c p3
131.76 84.81 0.65 c p3
132.04 87.86 0.65 c p3
132.32 90.70 0.65 c p3
132.60 86.77 0.65 c p3
132.88 83.94 0.65 c p3
133.16 89.83 0.65 c p3
133.44 86.77 0.65 c p3
133.72 92.67 0.65 c p3
134.00 83.94 0.65 c p3
134.28 83.94 0.65 c p3
134.56 84.81 0.65 c p3
134.84 84.81 0.65 c p3
135.12 81.98 0.65 c p3
135.40 80.03 0.65 c p3
135.68 80.90 0.65 c p3
135.96 83.94 0.65 c p3
136.24 86.77 0.65 c p3
136.52 81.98 0.65 c p3
136.80 80.90 0.65 c p3
137.08 84.81 0.65 c p3
137.36 87.86 0.65 c p3
137.64 81.98 0.65 c p3
137.92 78.94 0.65 c p3
138.20 81.98 0.65 c p3
138.48 85.90 0.65 c p3
138.76 85.90 0.65 c p3
139.04 84.81 0.65 c p3
139.32 82.85 0.65 c p3
139.60 80.03 0.65 c p3
139.88 86.77 0.65 c p3
140.16 80.03 0.65 c p3
140.44 76.99 0.65 c p3
140.72 87.86 0.65 c p3
141.00 80.03 0.65 c p3
141.28 85.90 0.65 c p3
141.56 80.90 0.65 c p3
141.84 78.94 0.65 c p3
142.12 83.94 0.65 c p3
142.40 85.90 0.65 c p3
142.68 84.81 0.65 c p3
142.96 80.03 0.65 c p3
143.24 78.94 0.65 c p3
143.52 84.81 0.65 c p3
143.80 80.03 0.65 c p3
144.08 76.13 0.65 c p3
144.36 80.90 0.65 c p3
144.64 86.77 0.65 c p3
144.92 85.90 0.65 c p3
145.20 78.08 0.65 c p3
145.48 75.05 0.65 c p3
145.76 82.85 0.65 c p3
146.04 82.85 0.65 c p3
146.32 84.81 0.65 c p3
146.60 80.03 0.65 c p3
146.88 80.90 0.65 c p3
147.16 80.03 0.65 c p3
147.44 81.98 0.65 c p3
147.72 78.94 0.65 c p3
148.00 76.99 0.65 c p3
148.28 78.94 0.65 c p3
148.56 82.85 0.65 c p3
148.84 81.98 0.65 c p3
149.12 75.05 0.65 c p3
149.40 76.13 0.65 c p3
149.68 80.90 0.65 c p3
149.96 80.03 0.65 c p3
150.24 80.03 0.65 c p3
150.52 76.99 0.65 c p3
150.80 78.94 0.65 c p3
151.08 80.90 0.65 c p3
151.36 82.85 0.65 c p3
151.64 78.94 0.65 c p3
151.92 80.03 0.65 c p3
152.20 81.98 0.65 c p3
152.48 80.90 0.65 c p3
152.76 78.94 0.65 c p3
153.04 76.13 0.65 c p3
153.32 76.13 0.65 c p3
153.60 82.85 0.65 c p3
153.88 78.94 0.65 c p3
154.16 81.98 0.65 c p3
154.44 75.05 0.65 c p3
154.72 78.94 0.65 c p3
155.00 80.90 0.65 c p3
155.28 83.94 0.65 c p3
155.56 76.13 0.65 c p3
155.84 80.90 0.65 c p3
156.12 76.99 0.65 c p3
156.40 81.98 0.65 c p3
156.68 75.05 0.65 c p3
156.96 74.18 0.65 c p3
157.24 76.99 0.65 c p3
157.52 80.03 0.65 c p3
157.80 78.94 0.65 c p3
158.08 75.05 0.65 c p3
158.36 74.18 0.65 c p3
158.64 76.13 0.65 c p3
158.92 80.03 0.65 c p3
159.20 78.08 0.65 c p3
159.48 76.99 0.65 c p3
159.76 78.08 0.65 c p3
216.00 201.60 367.20 247.68 cl
0 0 0 srgb
0.75 setlinewidth
[] 0 setdash
1 setlinecap
1 setlinejoin
10.00 setmiterlimit
221.60 237.68 0.43 c p1
222.30 228.23 0.43 c p1
223.00 216.84 0.43 c p1
223.70 218.58 0.43 c p1
224.40 221.60 0.43 c p1
225.10 229.19 0.43 c p1
225.80 231.95 0.43 c p1
226.50 224.24 0.43 c p1
227.20 223.01 0.43 c p1
227.90 221.21 0.43 c p1
228.60 230.02 0.43 c p1
229.30 230.32 0.43 c p1
230.00 224.46 0.43 c p1
230.70 228.74 0.43 c p1
231.40 218.09 0.43 c p1
232.10 222.14 0.43 c p1
232.80 215.97 0.43 c p1
233.50 221.66 0.43 c p1
234.20 221.28 0.43 c p1
234.90 233.23 0.43 c p1
235.60 224.39 0.43 c p1
236.30 223.75 0.43 c p1
237.00 223.02 0.43 c p1
237.70 224.51 0.43 c p1
238.40 231.84 0.43 c p1
239.10 212.67 0.43 c p1
239.80 219.82 0.43 c p1
240.50 222.81 0.43 c p1
241.20 219.37 0.43 c p1
241.90 232.65 0.43 c p1
242.60 219.09 0.43 c p1
243.30 229.93 0.43 c p1
244.00 228.49 0.43 c p1
244.70 231.05 0.43 c p1
245.40 215.05 0.43 c p1
246.10 213.44 0.43 c p1
246.80 219.86 0.43 c p1
247.50 220.38 0.43 c p1
248.20 222.63 0.43 c p1
248.90 222.58 0.43 c p1
249.60 218.90 0.43 c p1
250.30 233.11 0.43 c p1
251.00 231.10 0.43 c p1
251.70 225.01 0.43 c p1
252.40 222.92 0.43 c p1
253.10 226.59 0.43 c p1
253.80 228.43 0.43 c p1
254.50 234.25 0.43 c p1
255.20 223.93 0.43 c p1
255.90 215.85 0.43 c p1
256.60 221.51 0.43 c p1
257.30 227.13 0.43 c p1
258.00 234.50 0.43 c p1
258.70 222.24 0.43 c p1
259.40 213.54 0.43 c p1
260.10 226.97 0.43 c p1
260.80 228.40 0.43 c p1
261.50 228.01 0.43 c p1
262.20 223.15 0.43 c p1
262.90 220.48 0.43 c p1
263.60 225.75 0.43 c p1
264.30 223.02 0.43 c p1
265.00 224.24 0.43 c p1
265.70 221.46 0.43 c p1
266.40 222.62 0.43 c p1
267.10 231.71 0.43 c p1
267.80 224.85 0.43 c p1
268.50 216.23 0.43 c p1
269.20 229.18 0.43 c p1
269.90 228.00 0.43 c p1
270.60 225.02 0.43 c p1
271.30 220.27 0.43 c p1
272.00 226.94 0.43 c p1
272.70 231.83 0.43 c p1
273.40 223.03 0.43 c p1
274.10 227.87 0.43 c p1
274.80 216.86 0.43 c p1
275.50 223.84 0.43 c p1
276.20 228.61 0.43 c p1
276.90 231.16 0.43 c p1
277.60 222.26 0.43 c p1
278.30 216.87 0.43 c p1
279.00 225.50 0.43 c p1
279.70 230.17 0.43 c p1
280.40 238.79 0.43 c p1
281.10 225.83 0.43 c p1
281.80 218.60 0.43 c p1
282.50 227.14 0.43 c p1
283.20 229.52 0.43 c p1
283.90 236.29 0.43 c p1
284.60 211.04 0.43 c p1
285.30 221.67 0.43 c p1
286.00 222.24 0.43 c p1
286.70 232.43 0.43 c p1
287.40 225.08 0.43 c p1
288.10 219.92 0.43 c p1
288.80 226.12 0.43 c p1
289.50 226.62 0.43 c p1
290.20 231.05 0.43 c p1
290.90 223.64 0.43 c p1
291.60 220.17 0.43 c p1
292.30 226.74 0.43 c p1
293.00 232.88 0.43 c p1
293.70 225.42 0.43 c p1
294.40 220.16 0.43 c p1
295.10 232.37 0.43 c p1
295.80 226.64 0.43 c p1
296.50 238.86 0.43 c p1
297.20 221.73 0.43 c p1
297.90 222.10 0.43 c p1
298.60 224.20 0.43 c p1
299.30 224.55 0.43 c p1
300.00 219.22 0.43 c p1
300.70 215.64 0.43 c p1
301.40 217.70 0.43 c p1
302.10 224.12 0.43 c p1
302.80 230.10 0.43 c p1
303.50 220.80 0.43 c p1
304.20 218.92 0.43 c p1
304.90 227.05 0.43 c p1
305.60 233.44 0.43 c p1
306.30 221.93 0.43 c p1
307.00 216.10 0.43 c p1
307.70 222.45 0.43 c p1
308.40 230.55 0.43 c p1
309.10 230.79 0.43 c p1
309.80 228.85 0.43 c p1
310.50 225.15 0.43 c p1
311.20 219.72 0.43 c p1
311.90 233.46 0.43 c p1
312.60 220.16 0.43 c p1
313.30 214.29 0.43 c p1
314.00 236.27 0.43 c p1
314.70 220.77 0.43 c p1
315.40 232.73 0.43 c p1
316.10 222.89 0.43 c p1
316.80 219.16 0.43 c p1
317.50 229.36 0.43 c p1
318.20 233.46 0.43 c p1
318.90 231.45 0.43 c p1
319.60 222.03 0.43 c p1
320.30 220.02 0.43 c p1
321.00 231.94 0.43 c p1
321.70 222.50 0.43 c p1
322.40 214.84 0.43 c p1
323.10 224.54 0.43 c p1
323.80 236.46 0.43 c p1
324.50 234.85 0.43 c p1
325.20 219.31 0.43 c p1
325.90 213.37 0.43 c p1
326.60 229.14 0.43 c p1
327.30 229.27 0.43 c p1
328.00 233.31 0.43 c p1
328.70 223.85 0.43 c p1
329.40 225.70 0.43 c p1
330.10 224.08 0.43 c p1
330.80 228.10 0.43 c p1
331.50 222.12 0.43 c p1
332.20 218.32 0.43 c p1
332.90 222.33 0.43 c p1
333.60 230.26 0.43 c p1
334.30 228.62 0.43 c p1
335.00 214.81 0.43 c p1
335.70 217.07 0.43 c p1
336.40 226.72 0.43 c p1
337.10 225.07 0.43 c p1
337.80 225.15 0.43 c p1
338.50 219.15 0.43 c p1
339.20 223.14 0.43 c p1
339.90 227.14 0.43 c p1
340.60 231.13 0.43 c p1
341.30 223.38 0.43 c p1
342.00 225.62 0.43 c p1
342.70 229.61 0.43 c p1
343.40 227.50 0.43 c p1
344.10 223.66 0.43 c p1
344.80 218.08 0.43 c p1
345.50 218.15 0.43 c p1
346.20 231.69 0.43 c p1
346.90 223.91 0.43 c p1
347.60 230.06 0.43 c p1
348.30 216.22 0.43 c p1
349.00 224.09 0.43 c p1
349.70 228.06 0.43 c p1
350.40 234.21 0.43 c p1
351.10 218.61 0.43 c p1
351.80 228.22 0.43 c p1
352.50 220.45 0.43 c p1
353.20 230.49 0.43 c p1
353.90 216.64 0.43 c p1
354.60 214.96 0.43 c p1
355.30 220.63 0.43 c p1
356.00 226.76 0.43 c p1
356.70 224.63 0.43 c p1
357.40 216.86 0.43 c p1
358.10 215.17 0.43 c p1
358.80 219.11 0.43 c p1
359.50 226.96 0.43 c p1
360.20 223.09 0.43 c p1
360.90 220.96 0.43 c p1
361.60 223.16 0.43 c p1
0.00 0.00 432.00 576.00 cl
0 0 0 srgb
0.75 setlinewidth
[] 0 setdash
1 setlinecap
1 setlinejoin
10.00 setmiterlimit
np
229.53 201.60 m
116.67 0 l
o
np
229.53 201.60 m
0 -5.76 l
o
np
252.87 201.60 m
0 -5.76 l
o
np
276.20 201.60 m
0 -5.76 l
o
np
299.53 201.60 m
0 -5.76 l
o
np
322.87 201.60 m
0 -5.76 l
o
np
346.20 201.60 m
0 -5.76 l
o
/Font1 findfont 6 s
229.53 185.47 (100) .5 0 t
252.87 185.47 (200) .5 0 t
276.20 185.47 (300) .5 0 t
299.53 185.47 (400) .5 0 t
322.87 185.47 (500) .5 0 t
346.20 185.47 (600) .5 0 t
np
216.00 212.99 m
0 23.30 l
o
np
216.00 212.99 m
-5.76 0 l
o
np
216.00 224.64 m
-5.76 0 l
o
np
216.00 236.29 m
-5.76 0 l
o
209.09 210.84 (-0.002) 1 0 t
209.09 222.49 (0.000) 1 0 t
209.09 234.14 (0.002) 1 0 t
np
216.00 201.60 m
151.20 0 l
0 46.08 l
-151.20 0 l
0 -46.08 l
o
0.00 0.00 432.00 576.00 cl
/Font1 findfont 9 s
0 0 0 srgb
291.60 262.88 (Residuen) .5 0 t
59.04 73.44 401.76 516.96 cl
ep
%%Trailer
%%Pages: 1
%%EOF
