%!PS-Adobe-3.0 EPSF-3.0
%%DocumentNeededResources: font Helvetica
%%+ font Helvetica-Bold
%%+ font Helvetica-Oblique
%%+ font Helvetica-BoldOblique
%%+ font Symbol
%%Title: R Graphics Output
%%Creator: R Software
%%Pages: (atend)
%%BoundingBox: 0 0 432 576
%%EndComments
%%BeginProlog
/bp  { gs sRGB gs } def
% begin .ps.prolog
/gs  { gsave } bind def
/gr  { grestore } bind def
/ep  { showpage gr gr } bind def
/m   { moveto } bind def
/l  { rlineto } bind def
/np  { newpath } bind def
/cp  { closepath } bind def
/f   { fill } bind def
/o   { stroke } bind def
/c   { newpath 0 360 arc } bind def
/r   { 4 2 roll moveto 1 copy 3 -1 roll exch 0 exch rlineto 0 rlineto -1 mul 0 exch rlineto closepath } bind def
/p1  { stroke } bind def
/p2  { gsave bg fill grestore newpath } bind def
/p3  { gsave bg fill grestore stroke } bind def
/p6  { gsave bg eofill grestore newpath } bind def
/p7  { gsave bg eofill grestore stroke } bind def
/t   { 5 -2 roll moveto gsave rotate
       1 index stringwidth pop
       mul neg 0 rmoveto show grestore } bind def
/ta  { 4 -2 roll moveto gsave rotate show } bind def
/tb  { 2 -1 roll 0 rmoveto show } bind def
/cl  { grestore gsave newpath 3 index 3 index moveto 1 index
       4 -1 roll lineto  exch 1 index lineto lineto
       closepath clip newpath } bind def
/rgb { setrgbcolor } bind def
/s   { scalefont setfont } bind def
% end   .ps.prolog
/sRGB { [ /CIEBasedABC
          << /DecodeLMN
               [ { dup 0.03928 le
                        {12.92321 div}
                        {0.055 add 1.055 div 2.4 exp }
                     ifelse
                 } bind dup dup
               ]
             /MatrixLMN [0.412457 0.212673 0.019334
                         0.357576 0.715152 0.119192
                         0.180437 0.072175 0.950301]
             /WhitePoint [0.9505 1.0 1.0890]
           >>
         ] setcolorspace } bind def
/srgb { setcolor } bind def
%%IncludeResource: font Helvetica
/Helvetica findfont
dup length dict begin
  {1 index /FID ne {def} {pop pop} ifelse} forall
  /Encoding ISOLatin1Encoding def
  currentdict
  end
/Font1 exch definefont pop
%%IncludeResource: font Helvetica-Bold
/Helvetica-Bold findfont
dup length dict begin
  {1 index /FID ne {def} {pop pop} ifelse} forall
  /Encoding ISOLatin1Encoding def
  currentdict
  end
/Font2 exch definefont pop
%%IncludeResource: font Helvetica-Oblique
/Helvetica-Oblique findfont
dup length dict begin
  {1 index /FID ne {def} {pop pop} ifelse} forall
  /Encoding ISOLatin1Encoding def
  currentdict
  end
/Font3 exch definefont pop
%%IncludeResource: font Helvetica-BoldOblique
/Helvetica-BoldOblique findfont
dup length dict begin
  {1 index /FID ne {def} {pop pop} ifelse} forall
  /Encoding ISOLatin1Encoding def
  currentdict
  end
/Font4 exch definefont pop
%%IncludeResource: font Symbol
/Symbol findfont
dup length dict begin
  {1 index /FID ne {def} {pop pop} ifelse} forall
  currentdict
  end
/Font5 exch definefont pop
%%EndProlog
%%Page: 1 1
bp
0.00 0.00 432.00 576.00 cl
0.00 0.00 432.00 576.00 cl
0.00 0.00 432.00 576.00 cl
/Font1 findfont 12 s
0 0 0 srgb
48.00 508.72 (PCP-ETH) 0 0 t
48.00 494.89 (Blitzlicht-Photolyse) 0 0 t
/Font1 findfont 9 s
48.00 457.54 (File: V) 0 ta
-0.720 (er) tb
0.135 (ification_900V_toluene_2.dat) tb gr
48.00 334.87 (T) 0 ta
-1.080 (ue Apr  9 22:10:14 2019) tb gr
48.00 430.87 (Fitfunktion:  a + b * e) 0 ta
-0.270 (xp\(-c * t\)) tb gr
48.00 420.50 (t-Inter) 0 ta
0.270 (v) tb
-0.225 (all: 54.000 ... 570.000 ms) tb gr
48.00 410.14 (P) 0 ta
-0.360 (ar) tb
-0.090 (ameter \(Standardabw) tb
-0.090 (eichung\):) tb gr
48.00 399.77 (  a = 0.01348 \(0.00026\)) 0 0 t
48.00 389.40 (  b = 0.27146 \(0.00094\)) 0 0 t
48.00 379.03 (  c = 7.369e+00 \(4.162e-02\) s^-1) 0 0 t
48.00 368.66 (  tau = 1.357e-01 \(7.665e-04\) s) 0 0 t
216.00 345.60 388.80 518.40 cl
0 0 0 srgb
0.75 setlinewidth
[] 0 setdash
1 setlinecap
1 setlinejoin
10.00 setmiterlimit
np
222.40 511.41 m
0.15 -0.25 l
0.14 0.35 l
0.15 -0.10 l
0.14 0.24 l
0.15 -0.49 l
0.14 0.49 l
0.15 -1.11 l
0.14 0.87 l
0.15 -0.14 l
0.15 0.14 l
0.14 -0.25 l
0.15 0.25 l
0.14 -0.25 l
0.15 0.11 l
0.14 -0.11 l
0.15 0.49 l
0.14 -0.24 l
0.15 0.35 l
0.15 -1.09 l
0.14 0.60 l
0.15 0.14 l
0.14 0.10 l
0.15 -0.10 l
0.14 -0.25 l
0.15 0.35 l
0.15 -0.48 l
0.14 -0.36 l
0.15 0.74 l
0.14 0.48 l
0.15 -0.62 l
0.14 0.49 l
0.15 -0.60 l
0.14 -0.24 l
0.15 0.59 l
0.15 0.14 l
0.14 -0.62 l
0.15 0.13 l
0.14 -0.24 l
0.15 0.24 l
0.14 0.49 l
0.15 0 l
0.14 -0.14 l
0.15 -0.35 l
0.15 0.35 l
0.14 -0.10 l
0.15 0.24 l
0.14 -0.62 l
0.15 0.24 l
0.14 0.24 l
0.15 0.25 l
0.14 -0.49 l
0.15 0.14 l
0.15 -0.25 l
0.14 0.11 l
0.15 0.24 l
0.14 0.38 l
0.15 -0.86 l
0.14 0.24 l
0.15 -0.35 l
0.15 0.11 l
0.14 0.62 l
0.15 0.24 l
0.14 -0.86 l
0.15 0.38 l
0.14 0.48 l
0.15 -0.48 l
0.14 -0.25 l
0.15 0.11 l
0.15 0.49 l
0.14 0 l
0.15 -0.35 l
0.14 -0.49 l
0.15 0.11 l
0.14 0.24 l
0.15 0.14 l
0.14 0 l
0.15 0 l
0.15 -0.14 l
0.14 0 l
0.15 -0.60 l
0.14 0.60 l
0.15 0.24 l
0.14 -0.10 l
0.15 0.35 l
0.14 -0.98 l
0.15 0.87 l
0.15 -0.87 l
0.14 0.73 l
0.15 0.25 l
0.14 0.24 l
0.15 -0.97 l
0.14 0 l
0.15 0.13 l
0.15 -0.13 l
0.14 0.48 l
0.15 0.14 l
0.14 -0.73 l
0.15 0.11 l
0.14 -0.36 l
236.96 432.97 lineto
0.14 3.75 l
0.15 2.10 l
0.15 1.21 l
0.14 2.06 l
0.15 0.84 l
0.14 0.24 l
0.15 1.95 l
0.14 0.35 l
0.15 0.86 l
0.14 0.60 l
0.15 0.86 l
0.15 1.46 l
0.14 1.68 l
0.15 0.14 l
0.14 0.73 l
0.15 1.21 l
0.14 0.60 l
0.15 0.97 l
0.14 0.62 l
0.15 1.44 l
0.15 1.35 l
0.14 0.60 l
0.15 0.73 l
0.14 0.37 l
0.15 0.73 l
0.14 1.33 l
0.15 -0.38 l
0.15 1.60 l
0.14 1.57 l
0.15 0.24 l
0.14 1.22 l
0.15 -0.11 l
0.14 0.94 l
0.15 0.63 l
0.14 0.83 l
0.15 0.25 l
0.15 1.11 l
0.14 1.46 l
0.15 -0.14 l
0.14 0.14 l
0.15 1.57 l
0.14 0.97 l
0.15 0.35 l
0.14 0.14 l
0.15 0.83 l
0.15 0.98 l
0.14 -0.11 l
0.15 1.43 l
0.14 0.87 l
0.15 0 l
0.14 0.35 l
0.15 0.14 l
0.14 0.83 l
0.15 0.63 l
0.15 1.21 l
0.14 0.71 l
0.15 0.13 l
0.14 -0.13 l
0.15 0.62 l
0.14 0.24 l
0.15 1.08 l
0.15 -0.48 l
0.14 1.11 l
0.15 1.08 l
0.14 -0.11 l
0.15 0.24 l
0.14 -0.13 l
0.15 1.32 l
0.14 0.49 l
0.15 0.49 l
0.15 0.38 l
0.14 0.35 l
0.15 0.13 l
0.14 0.98 l
0.15 -0.38 l
0.14 -0.11 l
0.15 0.97 l
0.14 0 l
0.15 0.84 l
0.15 0.38 l
0.14 0.11 l
0.15 0 l
0.14 0.48 l
0.15 0.49 l
0.14 -0.38 l
0.15 0.38 l
0.14 0.84 l
0.15 0.73 l
0.15 0.38 l
0.14 -0.24 l
0.15 -0.38 l
0.14 0.48 l
0.15 0.38 l
0.14 0.25 l
0.15 0.97 l
0.15 0 l
0.14 0.11 l
0.15 0 l
0.14 0.13 l
251.52 496.72 lineto
0.14 -0.38 l
0.15 0.38 l
0.14 0.84 l
0.15 0.24 l
0.15 -0.62 l
0.14 1.11 l
0.15 -0.62 l
0.14 0.37 l
0.15 0.25 l
0.14 0.35 l
0.15 0.38 l
0.14 0.35 l
0.15 -0.97 l
0.15 0.13 l
0.14 1.46 l
0.15 -0.62 l
0.14 0.38 l
0.15 0.11 l
0.14 0.24 l
0.15 0.38 l
0.14 0.11 l
0.15 -0.11 l
0.15 -0.38 l
0.14 0 l
0.15 0.24 l
0.14 1.11 l
0.15 0.25 l
0.14 -0.73 l
0.15 0.10 l
0.14 0 l
0.15 0.25 l
0.15 -0.25 l
0.14 -0.24 l
0.15 1.11 l
0.14 -0.24 l
0.15 0.35 l
0.14 -0.11 l
0.15 0.11 l
0.15 0 l
0.14 0.48 l
0.15 -0.48 l
0.14 0.59 l
0.15 0.25 l
0.14 0.48 l
0.15 -0.73 l
0.14 -0.35 l
0.15 0.35 l
0.15 0.49 l
0.14 0.13 l
0.15 -0.73 l
0.14 0.36 l
0.15 0.97 l
0.14 -0.24 l
0.15 -0.60 l
0.14 0.24 l
0.15 0.25 l
0.15 -0.49 l
0.14 0.24 l
0.15 0 l
0.14 0.60 l
0.15 0.13 l
0.14 0.60 l
0.15 -0.49 l
0.14 -0.11 l
0.15 -0.48 l
0.15 0 l
0.14 0 l
0.15 -0.25 l
0.14 1.22 l
0.15 0.49 l
0.14 -0.49 l
0.15 0.11 l
0.15 -0.24 l
0.14 -0.11 l
0.15 -0.25 l
0.14 0 l
0.15 0.49 l
0.14 0.24 l
0.15 0.11 l
0.14 -0.11 l
0.15 -0.73 l
0.15 0.49 l
0.14 0 l
0.15 0.35 l
0.14 -0.11 l
0.15 0 l
0.14 0.49 l
0.15 0.11 l
0.14 0 l
0.15 -0.24 l
0.15 -0.36 l
0.14 -0.62 l
0.15 0.87 l
0.14 0.84 l
0.15 0.24 l
0.14 -0.49 l
0.15 -0.35 l
0.14 -0.24 l
0.15 0 l
266.08 504.35 lineto
0.14 1.11 l
0.15 0.35 l
0.14 -0.25 l
0.15 -0.35 l
0.14 0.25 l
0.15 -0.49 l
0.15 0 l
0.14 0.24 l
0.15 0.35 l
0.14 0 l
0.15 -0.10 l
0.14 0.59 l
0.15 -0.73 l
0.14 0.14 l
0.15 0.24 l
0.15 -0.98 l
0.14 0.60 l
0.15 0.73 l
0.14 -0.24 l
0.15 -0.25 l
0.14 0.38 l
0.15 -0.62 l
0.14 0.49 l
0.15 -0.25 l
0.15 -0.35 l
0.14 0.60 l
0.15 -0.11 l
0.14 0.35 l
0.15 0.62 l
0.14 -0.38 l
0.15 -0.48 l
0.14 -0.11 l
0.15 0.59 l
0.15 -0.59 l
0.14 0.35 l
0.15 -0.59 l
0.14 0.48 l
0.15 0.11 l
0.14 -0.24 l
0.15 0.24 l
0.15 -0.24 l
0.14 0.13 l
0.15 0.25 l
0.14 -0.25 l
0.15 -0.38 l
0.14 0 l
0.15 0.73 l
0.14 0.63 l
0.15 -0.25 l
0.15 -0.48 l
0.14 0.35 l
0.15 -0.35 l
0.14 0.48 l
0.15 -0.86 l
0.14 0.13 l
0.15 0.35 l
0.14 0.14 l
0.15 0.49 l
0.15 -0.63 l
0.14 0.49 l
0.15 -0.73 l
0.14 0.24 l
0.15 -0.24 l
0.14 -0.49 l
0.15 0.49 l
0.14 0 l
0.15 0.73 l
0.15 -0.49 l
0.14 0.25 l
0.15 0 l
0.14 -0.11 l
0.15 -0.62 l
0.14 0.62 l
0.15 0.73 l
0.15 -0.24 l
0.14 0.35 l
0.15 -0.49 l
0.14 -0.49 l
0.15 0.25 l
0.14 0 l
0.15 -0.11 l
0.14 0 l
0.15 0 l
0.15 0.95 l
0.14 -0.71 l
0.15 -0.24 l
0.14 -0.38 l
0.15 0.14 l
0.14 0.48 l
0.15 -0.13 l
0.14 -0.49 l
0.15 0.97 l
0.15 -0.10 l
0.14 -0.38 l
0.15 0.62 l
0.14 -0.87 l
0.15 0 l
0.14 -0.24 l
0.15 0.49 l
280.63 506.67 lineto
0.15 0.25 l
0.15 0.35 l
0.14 -0.11 l
0.15 -0.62 l
0.14 0.24 l
0.15 -0.11 l
0.14 0.11 l
0.15 -0.35 l
0.15 0.84 l
0.14 -0.11 l
0.15 0 l
0.14 -0.62 l
0.15 0.13 l
0.14 0.49 l
0.15 -0.49 l
0.14 0.11 l
0.15 0.14 l
0.15 0 l
0.14 -0.25 l
0.15 0 l
0.14 0.95 l
0.15 -0.35 l
0.14 -0.60 l
0.15 0.49 l
0.14 -0.73 l
0.15 -0.14 l
0.15 0.25 l
0.14 0.84 l
0.15 0.13 l
0.14 -0.13 l
0.15 -0.22 l
0.14 -0.14 l
0.15 -0.10 l
0.14 -0.25 l
0.15 0.49 l
0.15 0 l
0.14 0 l
0.15 0.11 l
0.14 -0.35 l
0.15 0.10 l
0.14 -0.10 l
0.15 0.70 l
0.14 -0.46 l
0.15 -0.38 l
0.15 0.14 l
0.14 0.10 l
0.15 0.14 l
0.14 0.35 l
0.15 -0.59 l
0.14 0.46 l
0.15 -0.60 l
0.15 0.60 l
0.14 -0.22 l
0.15 -0.24 l
0.14 0 l
0.15 -0.25 l
0.14 0.60 l
0.15 0 l
0.14 -0.11 l
0.15 0 l
0.15 0 l
0.14 0 l
0.15 0.35 l
0.14 -0.35 l
0.15 0.35 l
0.14 -0.73 l
0.15 0.73 l
0.14 -0.24 l
0.15 0 l
0.15 0.59 l
0.14 -1.08 l
0.15 0.60 l
0.14 -0.36 l
0.15 0.60 l
0.14 -0.24 l
0.15 0.13 l
0.14 -0.13 l
0.15 -0.46 l
0.15 0.59 l
0.14 -0.84 l
0.15 1.33 l
0.14 -0.25 l
0.15 -0.48 l
0.14 0.48 l
0.15 -0.48 l
0.15 0.24 l
0.14 -0.13 l
0.15 -0.11 l
0.14 -0.11 l
0.15 0.59 l
0.14 -0.48 l
0.15 -0.35 l
0.14 0.10 l
0.15 0.49 l
0.15 -0.24 l
0.14 -0.11 l
0.15 0.35 l
0.14 0.24 l
0.15 -0.48 l
295.19 507.16 lineto
0.15 0.11 l
0.14 0.24 l
0.15 0.11 l
0.15 -0.11 l
0.14 -0.24 l
0.15 -0.49 l
0.14 0.38 l
0.15 0.22 l
0.14 0.13 l
0.15 -0.24 l
0.14 -0.11 l
0.15 0 l
0.15 0 l
0.14 0.22 l
0.15 0.37 l
0.14 0 l
0.15 0.11 l
0.14 -0.59 l
0.15 0.35 l
0.15 -0.24 l
0.14 0.13 l
0.15 -0.49 l
0.14 0.49 l
0.15 -0.49 l
0.14 0.98 l
0.15 -0.49 l
0.14 0 l
0.15 0.84 l
0.15 -0.84 l
0.14 0.73 l
0.15 -1.32 l
0.14 0.35 l
0.15 -0.11 l
0.14 0 l
0.15 0.84 l
0.14 -0.14 l
0.15 -0.24 l
0.15 -0.35 l
0.14 0.35 l
0.15 0.24 l
0.14 -0.70 l
0.15 0.59 l
0.14 -0.13 l
0.15 -0.11 l
0.14 0.11 l
0.15 -0.11 l
0.15 -0.35 l
0.14 1.08 l
0.15 -0.62 l
0.14 0.38 l
0.15 -0.25 l
0.14 -0.48 l
0.15 0.24 l
0.15 0.24 l
0.14 0.49 l
0.15 -1.08 l
0.14 0.59 l
0.15 -0.59 l
0.14 0 l
0.15 0.70 l
0.14 -0.11 l
0.15 0.11 l
0.15 -0.59 l
0.14 0.97 l
0.15 -0.38 l
0.14 0.25 l
0.15 0 l
0.14 -0.60 l
0.15 0.49 l
0.14 -0.14 l
0.15 0.49 l
0.15 -0.49 l
0.14 -0.24 l
0.15 0.24 l
0.14 0.38 l
0.15 0 l
0.14 -0.62 l
0.15 -1.08 l
0.14 1.08 l
0.15 0 l
0.15 0.38 l
0.14 -0.14 l
0.15 0.25 l
0.14 -0.73 l
0.15 -0.22 l
0.14 0.11 l
0.15 0.73 l
0.15 0.11 l
0.14 -0.60 l
0.15 0.73 l
0.14 0 l
0.15 -0.24 l
0.14 -0.38 l
0.15 0 l
0.14 0.24 l
0.15 0.25 l
0.15 -0.36 l
0.14 0 l
0.15 0.11 l
309.75 507.51 lineto
0.15 0.49 l
0.14 0.35 l
0.15 -0.24 l
0.14 -0.11 l
0.15 -0.25 l
0.15 -0.59 l
0.14 0.35 l
0.15 0.49 l
0.14 0.84 l
0.15 -0.98 l
0.14 0 l
0.15 0.14 l
0.14 -0.38 l
0.15 0.24 l
0.15 0 l
0.14 0.49 l
0.15 -0.73 l
0.14 -0.11 l
0.15 0.24 l
0.14 -0.13 l
0.15 0.24 l
0.15 0.62 l
0.14 -0.13 l
0.15 -0.60 l
0.14 0.36 l
0.15 -0.11 l
0.14 0.24 l
0.15 0 l
0.14 -0.13 l
0.15 -0.25 l
0.15 0.38 l
0.14 -0.24 l
0.15 -0.25 l
0.14 -0.13 l
0.15 0.62 l
0.14 -0.38 l
0.15 0.49 l
0.14 -0.11 l
0.15 -0.86 l
0.15 0.86 l
0.14 -0.62 l
0.15 0.49 l
0.14 0.24 l
0.15 -0.11 l
0.14 0.11 l
0.15 -0.11 l
0.14 -0.24 l
0.15 0.35 l
0.15 -0.11 l
0.14 0.35 l
0.15 0.14 l
0.14 -0.73 l
0.15 0.11 l
0.14 0.24 l
0.15 0 l
0.15 -0.24 l
0.14 0.62 l
0.15 -0.87 l
0.14 -0.11 l
0.15 0.25 l
0.14 0.48 l
0.15 -0.24 l
0.14 -0.13 l
0.15 -0.25 l
0.15 0.14 l
0.14 0.11 l
0.15 0.73 l
0.14 -0.98 l
0.15 0.14 l
0.14 0 l
0.15 0 l
0.14 0.73 l
0.15 -0.49 l
0.15 -0.13 l
0.14 -0.11 l
0.15 0.35 l
0.14 1.11 l
0.15 -1.35 l
0.14 0.13 l
0.15 -0.38 l
0.14 0.14 l
0.15 -0.14 l
0.15 0.25 l
0.14 0.24 l
0.15 -0.49 l
0.14 0 l
0.15 0.49 l
0.14 -0.24 l
0.15 0.13 l
0.14 0 l
0.15 0.24 l
0.15 -0.48 l
0.14 0.11 l
0.15 0.37 l
0.14 -0.13 l
0.15 0.24 l
0.14 -0.24 l
0.15 0 l
0.15 -0.24 l
324.31 508.59 lineto
0.15 -0.35 l
0.14 0 l
0.15 0.35 l
0.14 -0.59 l
0.15 0.24 l
0.14 0.24 l
0.15 -0.13 l
0.15 0.13 l
0.14 0.36 l
0.15 -0.11 l
0.14 -0.25 l
0.15 0 l
0.14 0.36 l
0.15 -0.73 l
0.14 0.86 l
0.15 -0.13 l
0.15 -0.84 l
0.14 0.35 l
0.15 -0.11 l
0.14 0.35 l
0.15 -0.97 l
0.14 0.38 l
0.15 0.48 l
0.14 0.36 l
0.15 -0.36 l
0.15 0 l
0.14 -0.13 l
0.15 0.24 l
0.14 0.38 l
0.15 0.24 l
0.14 -0.97 l
0.15 0 l
0.15 -0.24 l
0.14 0.48 l
0.15 0 l
0.14 0 l
0.15 0 l
0.14 0.11 l
0.15 -0.35 l
0.14 0.24 l
0.15 0 l
0.15 0.36 l
0.14 -0.73 l
0.15 0.62 l
0.14 -0.38 l
0.15 0.49 l
0.14 0 l
0.15 -0.11 l
0.14 0 l
0.15 0 l
0.15 0.24 l
0.14 0 l
0.15 -0.62 l
0.14 0.13 l
0.15 0.11 l
0.14 0.73 l
0.15 -0.48 l
0.14 -0.84 l
0.15 0.35 l
0.15 0.49 l
0.14 -0.36 l
0.15 -0.13 l
0.14 0.49 l
0.15 -0.49 l
0.14 -0.11 l
0.15 -0.13 l
0.15 0.24 l
0.14 0.62 l
0.15 0 l
0.14 -0.49 l
0.15 0 l
0.14 -0.37 l
0.15 0.37 l
0.14 0 l
0.15 0.49 l
0.15 -0.24 l
0.14 0.84 l
0.15 -1.09 l
0.14 0.36 l
0.15 -0.60 l
0.14 0.60 l
0.15 0 l
0.14 -0.11 l
0.15 0.11 l
0.15 -0.11 l
0.14 -0.62 l
0.15 0.48 l
0.14 0.14 l
0.15 -0.14 l
0.14 0.49 l
0.15 -0.49 l
0.14 0.38 l
0.15 -0.13 l
0.15 -0.25 l
0.14 0.38 l
0.15 0 l
0.14 0.49 l
0.15 -0.62 l
0.14 0 l
338.87 508.59 lineto
0.15 0.62 l
0.14 -0.13 l
0.15 -0.49 l
0.14 0.49 l
0.15 -0.60 l
0.14 -0.13 l
0.15 0.73 l
0.14 0 l
0.15 -0.24 l
0.15 -0.25 l
0.14 0.62 l
0.15 -0.24 l
0.14 -0.38 l
0.15 0.38 l
0.14 0 l
0.15 0.35 l
0.14 -1.32 l
0.15 1.21 l
0.15 -0.73 l
0.14 0 l
0.15 0.60 l
0.14 -0.35 l
0.15 0.59 l
0.14 -0.59 l
0.15 0 l
0.14 0.24 l
0.15 0.11 l
0.15 -0.24 l
0.14 0 l
0.15 0.13 l
0.14 0.24 l
0.15 -0.13 l
0.14 -0.11 l
0.15 0 l
0.15 -0.73 l
0.14 0.60 l
0.15 0.73 l
0.14 -0.49 l
0.15 -0.24 l
0.14 -0.25 l
0.15 0.25 l
0.14 0.62 l
0.15 0.48 l
0.15 -0.86 l
0.14 -0.11 l
0.15 0.24 l
0.14 -0.24 l
0.15 0.11 l
0.14 -0.35 l
0.15 0.35 l
0.14 -0.60 l
0.15 0.60 l
0.15 -0.11 l
0.14 -0.13 l
0.15 0.13 l
0.14 0.35 l
0.15 0.14 l
0.14 -0.25 l
0.15 -0.37 l
0.14 0.13 l
0.15 0.11 l
0.15 0.62 l
0.14 -0.86 l
0.15 0.24 l
0.14 -0.60 l
0.15 0.60 l
0.14 0.13 l
0.15 -0.37 l
0.15 0.62 l
0.14 -0.25 l
0.15 -0.24 l
0.14 0.24 l
0.15 -0.37 l
0.14 0.13 l
0.15 0 l
0.14 0.11 l
0.15 0 l
0.15 0.49 l
0.14 -0.49 l
0.15 -0.60 l
0.14 0.49 l
0.15 0.24 l
0.14 0.25 l
0.15 -0.14 l
0.14 -0.48 l
0.15 0.48 l
0.15 -0.48 l
0.14 0.73 l
0.15 0.13 l
0.14 -0.49 l
0.15 0 l
0.14 0.11 l
0.15 -0.24 l
0.14 0.24 l
0.15 -0.24 l
0.15 0.38 l
0.14 -0.73 l
0.15 0.35 l
0.14 0.13 l
353.43 509.21 lineto
0.14 0.25 l
0.15 0.11 l
0.14 -0.36 l
0.15 0.36 l
0.15 -0.73 l
0.14 0.37 l
0.15 -0.37 l
0.14 0.86 l
0.15 -0.73 l
0.14 0.60 l
0.15 -0.25 l
0.15 -0.48 l
0.14 0.62 l
0.15 0 l
0.14 -0.62 l
0.15 0.73 l
0.14 0 l
0.15 -0.25 l
0.14 -0.48 l
0.15 0.97 l
0.15 -0.97 l
0.14 0.97 l
0.15 -0.24 l
0.14 0 l
0.15 -0.49 l
0.14 0 l
0.15 0.13 l
0.14 0.49 l
0.15 -0.38 l
0.15 0 l
0.14 -0.24 l
0.15 0.49 l
0.14 -0.36 l
0.15 0.11 l
0.14 0.73 l
0.15 -0.84 l
0.14 0 l
0.15 0 l
0.15 -0.13 l
0.14 0.49 l
0.15 -0.11 l
0.14 0.24 l
0.15 -0.24 l
0.14 -0.49 l
0.15 0.24 l
0.15 0.60 l
0.14 -0.49 l
0.15 -0.11 l
0.14 0.60 l
0.15 -0.73 l
0.14 -0.11 l
0.15 0.97 l
0.14 -0.48 l
0.15 0 l
0.15 -0.25 l
0.14 0.60 l
0.15 -0.35 l
0.14 -0.25 l
0.15 0.11 l
0.14 -0.35 l
0.15 0.60 l
0.14 -0.11 l
0.15 0.48 l
0.15 -0.13 l
0.14 -0.49 l
0.15 0.38 l
0.14 -0.73 l
0.15 0.35 l
0.14 0.25 l
0.15 0.24 l
0.14 -0.73 l
0.15 0.13 l
0.15 0.25 l
0.14 0 l
0.15 0.11 l
0.14 0 l
0.15 -0.73 l
0.14 0.62 l
0.15 -0.25 l
0.15 0.73 l
0.14 -0.24 l
0.15 0.24 l
0.14 -0.62 l
0.15 0.49 l
0.14 -0.35 l
0.15 0 l
0.14 -0.25 l
0.15 0.73 l
0.15 -0.37 l
0.14 0.37 l
0.15 -0.97 l
0.14 0.24 l
0.15 0.36 l
0.14 -0.49 l
0.15 0.49 l
0.14 0 l
0.15 0 l
0.15 -0.11 l
0.14 0 l
currentpoint o m
367.99 509.57 lineto
0.14 0.13 l
0.15 0 l
0.14 -0.24 l
0.15 -0.25 l
0.14 0.60 l
0.15 -0.60 l
0.15 0.25 l
0.14 0.11 l
0.15 0.37 l
0.14 0.25 l
0.15 -0.73 l
0.14 0.11 l
0.15 -0.36 l
0.15 0.36 l
0.14 -0.11 l
0.15 0.59 l
0.14 0.14 l
0.15 -0.49 l
0.14 -0.62 l
0.15 0.62 l
0.14 0.11 l
0.15 0 l
0.15 0 l
0.14 0 l
0.15 -0.49 l
0.14 0.49 l
0.15 -0.35 l
0.14 0.84 l
0.15 -0.49 l
0.14 -0.11 l
0.15 0 l
0.15 -0.49 l
0.14 0.36 l
0.15 0.48 l
0.14 -0.48 l
0.15 0.62 l
0.14 -0.25 l
0.15 0.36 l
0.14 -0.98 l
0.15 0.25 l
0.15 0.13 l
0.14 0.35 l
0.15 -0.11 l
0.14 -0.13 l
0.15 -0.24 l
0.14 0.13 l
0.15 -0.38 l
0.15 0.49 l
0.14 0.49 l
0.15 -0.36 l
0.14 -0.13 l
0.15 0 l
0.14 -0.24 l
0.15 0 l
0.14 0.37 l
0.15 0 l
0.15 0.11 l
0.14 -0.24 l
0.15 -0.84 l
0.14 1.08 l
0.15 -0.11 l
0.14 -0.24 l
0.15 0 l
0.14 -0.49 l
0.15 0.73 l
0.15 -0.24 l
0.14 0 l
0.15 0.35 l
0.14 -0.35 l
0.15 0 l
0.14 0.11 l
0.15 0.24 l
0.14 0.25 l
0.15 -1.09 l
0.15 0.36 l
0.14 0.37 l
0.15 0.49 l
0.14 -0.73 l
0.15 0.73 l
0.14 -0.49 l
0.15 -0.13 l
0.15 0 l
0.14 0.13 l
0.15 -0.37 l
0.14 0.13 l
0.15 -0.24 l
0.14 0.48 l
0.15 0.36 l
0.14 0 l
0.15 -0.25 l
0.15 -0.35 l
0.14 -0.49 l
0.15 0.36 l
0.14 0.48 l
0.15 -0.48 l
0.14 0.37 l
0.15 -0.37 l
0.14 0.62 l
0.15 -0.25 l
o
/bg { 1 1 1 srgb } def
222.40 511.41 0.43 c p3
222.55 511.16 0.43 c p3
222.69 511.51 0.43 c p3
222.84 511.41 0.43 c p3
222.98 511.65 0.43 c p3
223.13 511.16 0.43 c p3
223.27 511.65 0.43 c p3
223.42 510.54 0.43 c p3
223.56 511.41 0.43 c p3
223.71 511.27 0.43 c p3
223.86 511.41 0.43 c p3
224.00 511.16 0.43 c p3
224.15 511.41 0.43 c p3
224.29 511.16 0.43 c p3
224.44 511.27 0.43 c p3
224.58 511.16 0.43 c p3
224.73 511.65 0.43 c p3
224.87 511.41 0.43 c p3
225.02 511.76 0.43 c p3
225.17 510.67 0.43 c p3
225.31 511.27 0.43 c p3
225.46 511.41 0.43 c p3
225.60 511.51 0.43 c p3
225.75 511.41 0.43 c p3
225.89 511.16 0.43 c p3
226.04 511.51 0.43 c p3
226.19 511.03 0.43 c p3
226.33 510.67 0.43 c p3
226.48 511.41 0.43 c p3
226.62 511.89 0.43 c p3
226.77 511.27 0.43 c p3
226.91 511.76 0.43 c p3
227.06 511.16 0.43 c p3
227.20 510.92 0.43 c p3
227.35 511.51 0.43 c p3
227.50 511.65 0.43 c p3
227.64 511.03 0.43 c p3
227.79 511.16 0.43 c p3
227.93 510.92 0.43 c p3
228.08 511.16 0.43 c p3
228.22 511.65 0.43 c p3
228.37 511.65 0.43 c p3
228.51 511.51 0.43 c p3
228.66 511.16 0.43 c p3
228.81 511.51 0.43 c p3
228.95 511.41 0.43 c p3
229.10 511.65 0.43 c p3
229.24 511.03 0.43 c p3
229.39 511.27 0.43 c p3
229.53 511.51 0.43 c p3
229.68 511.76 0.43 c p3
229.82 511.27 0.43 c p3
229.97 511.41 0.43 c p3
230.12 511.16 0.43 c p3
230.26 511.27 0.43 c p3
230.41 511.51 0.43 c p3
230.55 511.89 0.43 c p3
230.70 511.03 0.43 c p3
230.84 511.27 0.43 c p3
230.99 510.92 0.43 c p3
231.14 511.03 0.43 c p3
231.28 511.65 0.43 c p3
231.43 511.89 0.43 c p3
231.57 511.03 0.43 c p3
231.72 511.41 0.43 c p3
231.86 511.89 0.43 c p3
232.01 511.41 0.43 c p3
232.15 511.16 0.43 c p3
232.30 511.27 0.43 c p3
232.45 511.76 0.43 c p3
232.59 511.76 0.43 c p3
232.74 511.41 0.43 c p3
232.88 510.92 0.43 c p3
233.03 511.03 0.43 c p3
233.17 511.27 0.43 c p3
233.32 511.41 0.43 c p3
233.46 511.41 0.43 c p3
233.61 511.41 0.43 c p3
233.76 511.27 0.43 c p3
233.90 511.27 0.43 c p3
234.05 510.67 0.43 c p3
234.19 511.27 0.43 c p3
234.34 511.51 0.43 c p3
234.48 511.41 0.43 c p3
234.63 511.76 0.43 c p3
234.77 510.78 0.43 c p3
234.92 511.65 0.43 c p3
235.07 510.78 0.43 c p3
235.21 511.51 0.43 c p3
235.36 511.76 0.43 c p3
235.50 512.00 0.43 c p3
235.65 511.03 0.43 c p3
235.79 511.03 0.43 c p3
235.94 511.16 0.43 c p3
236.09 511.03 0.43 c p3
236.23 511.51 0.43 c p3
236.38 511.65 0.43 c p3
236.52 510.92 0.43 c p3
236.67 511.03 0.43 c p3
236.81 510.67 0.43 c p3
236.96 432.97 0.43 c p3
237.10 436.72 0.43 c p3
237.25 438.82 0.43 c p3
237.40 440.03 0.43 c p3
237.54 442.09 0.43 c p3
237.69 442.93 0.43 c p3
237.83 443.17 0.43 c p3
237.98 445.12 0.43 c p3
238.12 445.47 0.43 c p3
238.27 446.33 0.43 c p3
238.41 446.93 0.43 c p3
238.56 447.79 0.43 c p3
238.71 449.25 0.43 c p3
238.85 450.93 0.43 c p3
239.00 451.07 0.43 c p3
239.14 451.80 0.43 c p3
239.29 453.01 0.43 c p3
239.43 453.61 0.43 c p3
239.58 454.58 0.43 c p3
239.72 455.20 0.43 c p3
239.87 456.64 0.43 c p3
240.02 457.99 0.43 c p3
240.16 458.59 0.43 c p3
240.31 459.32 0.43 c p3
240.45 459.69 0.43 c p3
240.60 460.42 0.43 c p3
240.74 461.75 0.43 c p3
240.89 461.37 0.43 c p3
241.04 462.97 0.43 c p3
241.18 464.54 0.43 c p3
241.33 464.78 0.43 c p3
241.47 466.00 0.43 c p3
241.62 465.89 0.43 c p3
241.76 466.83 0.43 c p3
241.91 467.46 0.43 c p3
242.05 468.29 0.43 c p3
242.20 468.54 0.43 c p3
242.35 469.65 0.43 c p3
242.49 471.11 0.43 c p3
242.64 470.97 0.43 c p3
242.78 471.11 0.43 c p3
242.93 472.68 0.43 c p3
243.07 473.65 0.43 c p3
243.22 474.00 0.43 c p3
243.36 474.14 0.43 c p3
243.51 474.97 0.43 c p3
243.66 475.95 0.43 c p3
243.80 475.84 0.43 c p3
243.95 477.27 0.43 c p3
244.09 478.14 0.43 c p3
244.24 478.14 0.43 c p3
244.38 478.49 0.43 c p3
244.53 478.63 0.43 c p3
244.67 479.46 0.43 c p3
244.82 480.09 0.43 c p3
244.97 481.30 0.43 c p3
245.11 482.01 0.43 c p3
245.26 482.14 0.43 c p3
245.40 482.01 0.43 c p3
245.55 482.63 0.43 c p3
245.69 482.87 0.43 c p3
245.84 483.95 0.43 c p3
245.99 483.47 0.43 c p3
246.13 484.58 0.43 c p3
246.28 485.66 0.43 c p3
246.42 485.55 0.43 c p3
246.57 485.79 0.43 c p3
246.71 485.66 0.43 c p3
246.86 486.98 0.43 c p3
247.00 487.47 0.43 c p3
247.15 487.96 0.43 c p3
247.30 488.34 0.43 c p3
247.44 488.69 0.43 c p3
247.59 488.82 0.43 c p3
247.73 489.80 0.43 c p3
247.88 489.42 0.43 c p3
248.02 489.31 0.43 c p3
248.17 490.28 0.43 c p3
248.31 490.28 0.43 c p3
248.46 491.12 0.43 c p3
248.61 491.50 0.43 c p3
248.75 491.61 0.43 c p3
248.90 491.61 0.43 c p3
249.04 492.09 0.43 c p3
249.19 492.58 0.43 c p3
249.33 492.20 0.43 c p3
249.48 492.58 0.43 c p3
249.62 493.42 0.43 c p3
249.77 494.15 0.43 c p3
249.92 494.53 0.43 c p3
250.06 494.29 0.43 c p3
250.21 493.91 0.43 c p3
250.35 494.39 0.43 c p3
250.50 494.77 0.43 c p3
250.64 495.02 0.43 c p3
250.79 495.99 0.43 c p3
250.94 495.99 0.43 c p3
251.08 496.10 0.43 c p3
251.23 496.10 0.43 c p3
251.37 496.23 0.43 c p3
251.52 496.72 0.43 c p3
251.66 496.34 0.43 c p3
251.81 496.72 0.43 c p3
251.95 497.56 0.43 c p3
252.10 497.80 0.43 c p3
252.25 497.18 0.43 c p3
252.39 498.29 0.43 c p3
252.54 497.67 0.43 c p3
252.68 498.04 0.43 c p3
252.83 498.29 0.43 c p3
252.97 498.64 0.43 c p3
253.12 499.02 0.43 c p3
253.26 499.37 0.43 c p3
253.41 498.40 0.43 c p3
253.56 498.53 0.43 c p3
253.70 499.99 0.43 c p3
253.85 499.37 0.43 c p3
253.99 499.75 0.43 c p3
254.14 499.86 0.43 c p3
254.28 500.10 0.43 c p3
254.43 500.48 0.43 c p3
254.57 500.59 0.43 c p3
254.72 500.48 0.43 c p3
254.87 500.10 0.43 c p3
255.01 500.10 0.43 c p3
255.16 500.34 0.43 c p3
255.30 501.45 0.43 c p3
255.45 501.70 0.43 c p3
255.59 500.97 0.43 c p3
255.74 501.07 0.43 c p3
255.88 501.07 0.43 c p3
256.03 501.32 0.43 c p3
256.18 501.07 0.43 c p3
256.32 500.83 0.43 c p3
256.47 501.94 0.43 c p3
256.61 501.70 0.43 c p3
256.76 502.05 0.43 c p3
256.90 501.94 0.43 c p3
257.05 502.05 0.43 c p3
257.20 502.05 0.43 c p3
257.34 502.53 0.43 c p3
257.49 502.05 0.43 c p3
257.63 502.64 0.43 c p3
257.78 502.89 0.43 c p3
257.92 503.37 0.43 c p3
258.07 502.64 0.43 c p3
258.21 502.29 0.43 c p3
258.36 502.64 0.43 c p3
258.51 503.13 0.43 c p3
258.65 503.26 0.43 c p3
258.80 502.53 0.43 c p3
258.94 502.89 0.43 c p3
259.09 503.86 0.43 c p3
259.23 503.62 0.43 c p3
259.38 503.02 0.43 c p3
259.52 503.26 0.43 c p3
259.67 503.51 0.43 c p3
259.82 503.02 0.43 c p3
259.96 503.26 0.43 c p3
260.11 503.26 0.43 c p3
260.25 503.86 0.43 c p3
260.40 503.99 0.43 c p3
260.54 504.59 0.43 c p3
260.69 504.10 0.43 c p3
260.83 503.99 0.43 c p3
260.98 503.51 0.43 c p3
261.13 503.51 0.43 c p3
261.27 503.51 0.43 c p3
261.42 503.26 0.43 c p3
261.56 504.48 0.43 c p3
261.71 504.97 0.43 c p3
261.85 504.48 0.43 c p3
262.00 504.59 0.43 c p3
262.15 504.35 0.43 c p3
262.29 504.24 0.43 c p3
262.44 503.99 0.43 c p3
262.58 503.99 0.43 c p3
262.73 504.48 0.43 c p3
262.87 504.72 0.43 c p3
263.02 504.83 0.43 c p3
263.16 504.72 0.43 c p3
263.31 503.99 0.43 c p3
263.46 504.48 0.43 c p3
263.60 504.48 0.43 c p3
263.75 504.83 0.43 c p3
263.89 504.72 0.43 c p3
264.04 504.72 0.43 c p3
264.18 505.21 0.43 c p3
264.33 505.32 0.43 c p3
264.47 505.32 0.43 c p3
264.62 505.08 0.43 c p3
264.77 504.72 0.43 c p3
264.91 504.10 0.43 c p3
265.06 504.97 0.43 c p3
265.20 505.81 0.43 c p3
265.35 506.05 0.43 c p3
265.49 505.56 0.43 c p3
265.64 505.21 0.43 c p3
265.78 504.97 0.43 c p3
265.93 504.97 0.43 c p3
266.08 504.35 0.43 c p3
266.22 505.46 0.43 c p3
266.37 505.81 0.43 c p3
266.51 505.56 0.43 c p3
266.66 505.21 0.43 c p3
266.80 505.46 0.43 c p3
266.95 504.97 0.43 c p3
267.10 504.97 0.43 c p3
267.24 505.21 0.43 c p3
267.39 505.56 0.43 c p3
267.53 505.56 0.43 c p3
267.68 505.46 0.43 c p3
267.82 506.05 0.43 c p3
267.97 505.32 0.43 c p3
268.11 505.46 0.43 c p3
268.26 505.70 0.43 c p3
268.41 504.72 0.43 c p3
268.55 505.32 0.43 c p3
268.70 506.05 0.43 c p3
268.84 505.81 0.43 c p3
268.99 505.56 0.43 c p3
269.13 505.94 0.43 c p3
269.28 505.32 0.43 c p3
269.42 505.81 0.43 c p3
269.57 505.56 0.43 c p3
269.72 505.21 0.43 c p3
269.86 505.81 0.43 c p3
270.01 505.70 0.43 c p3
270.15 506.05 0.43 c p3
270.30 506.67 0.43 c p3
270.44 506.29 0.43 c p3
270.59 505.81 0.43 c p3
270.73 505.70 0.43 c p3
270.88 506.29 0.43 c p3
271.03 505.70 0.43 c p3
271.17 506.05 0.43 c p3
271.32 505.46 0.43 c p3
271.46 505.94 0.43 c p3
271.61 506.05 0.43 c p3
271.75 505.81 0.43 c p3
271.90 506.05 0.43 c p3
272.05 505.81 0.43 c p3
272.19 505.94 0.43 c p3
272.34 506.19 0.43 c p3
272.48 505.94 0.43 c p3
272.63 505.56 0.43 c p3
272.77 505.56 0.43 c p3
272.92 506.29 0.43 c p3
273.06 506.92 0.43 c p3
273.21 506.67 0.43 c p3
273.36 506.19 0.43 c p3
273.50 506.54 0.43 c p3
273.65 506.19 0.43 c p3
273.79 506.67 0.43 c p3
273.94 505.81 0.43 c p3
274.08 505.94 0.43 c p3
274.23 506.29 0.43 c p3
274.37 506.43 0.43 c p3
274.52 506.92 0.43 c p3
274.67 506.29 0.43 c p3
274.81 506.78 0.43 c p3
274.96 506.05 0.43 c p3
275.10 506.29 0.43 c p3
275.25 506.05 0.43 c p3
275.39 505.56 0.43 c p3
275.54 506.05 0.43 c p3
275.68 506.05 0.43 c p3
275.83 506.78 0.43 c p3
275.98 506.29 0.43 c p3
276.12 506.54 0.43 c p3
276.27 506.54 0.43 c p3
276.41 506.43 0.43 c p3
276.56 505.81 0.43 c p3
276.70 506.43 0.43 c p3
276.85 507.16 0.43 c p3
277.00 506.92 0.43 c p3
277.14 507.27 0.43 c p3
277.29 506.78 0.43 c p3
277.43 506.29 0.43 c p3
277.58 506.54 0.43 c p3
277.72 506.54 0.43 c p3
277.87 506.43 0.43 c p3
278.01 506.43 0.43 c p3
278.16 506.43 0.43 c p3
278.31 507.38 0.43 c p3
278.45 506.67 0.43 c p3
278.60 506.43 0.43 c p3
278.74 506.05 0.43 c p3
278.89 506.19 0.43 c p3
279.03 506.67 0.43 c p3
279.18 506.54 0.43 c p3
279.32 506.05 0.43 c p3
279.47 507.02 0.43 c p3
279.62 506.92 0.43 c p3
279.76 506.54 0.43 c p3
279.91 507.16 0.43 c p3
280.05 506.29 0.43 c p3
280.20 506.29 0.43 c p3
280.34 506.05 0.43 c p3
280.49 506.54 0.43 c p3
280.63 506.67 0.43 c p3
280.78 506.92 0.43 c p3
280.93 507.27 0.43 c p3
281.07 507.16 0.43 c p3
281.22 506.54 0.43 c p3
281.36 506.78 0.43 c p3
281.51 506.67 0.43 c p3
281.65 506.78 0.43 c p3
281.80 506.43 0.43 c p3
281.95 507.27 0.43 c p3
282.09 507.16 0.43 c p3
282.24 507.16 0.43 c p3
282.38 506.54 0.43 c p3
282.53 506.67 0.43 c p3
282.67 507.16 0.43 c p3
282.82 506.67 0.43 c p3
282.96 506.78 0.43 c p3
283.11 506.92 0.43 c p3
283.26 506.92 0.43 c p3
283.40 506.67 0.43 c p3
283.55 506.67 0.43 c p3
283.69 507.62 0.43 c p3
283.84 507.27 0.43 c p3
283.98 506.67 0.43 c p3
284.13 507.16 0.43 c p3
284.27 506.43 0.43 c p3
284.42 506.29 0.43 c p3
284.57 506.54 0.43 c p3
284.71 507.38 0.43 c p3
284.86 507.51 0.43 c p3
285.00 507.38 0.43 c p3
285.15 507.16 0.43 c p3
285.29 507.02 0.43 c p3
285.44 506.92 0.43 c p3
285.58 506.67 0.43 c p3
285.73 507.16 0.43 c p3
285.88 507.16 0.43 c p3
286.02 507.16 0.43 c p3
286.17 507.27 0.43 c p3
286.31 506.92 0.43 c p3
286.46 507.02 0.43 c p3
286.60 506.92 0.43 c p3
286.75 507.62 0.43 c p3
286.89 507.16 0.43 c p3
287.04 506.78 0.43 c p3
287.19 506.92 0.43 c p3
287.33 507.02 0.43 c p3
287.48 507.16 0.43 c p3
287.62 507.51 0.43 c p3
287.77 506.92 0.43 c p3
287.91 507.38 0.43 c p3
288.06 506.78 0.43 c p3
288.21 507.38 0.43 c p3
288.35 507.16 0.43 c p3
288.50 506.92 0.43 c p3
288.64 506.92 0.43 c p3
288.79 506.67 0.43 c p3
288.93 507.27 0.43 c p3
289.08 507.27 0.43 c p3
289.22 507.16 0.43 c p3
289.37 507.16 0.43 c p3
289.52 507.16 0.43 c p3
289.66 507.16 0.43 c p3
289.81 507.51 0.43 c p3
289.95 507.16 0.43 c p3
290.10 507.51 0.43 c p3
290.24 506.78 0.43 c p3
290.39 507.51 0.43 c p3
290.53 507.27 0.43 c p3
290.68 507.27 0.43 c p3
290.83 507.86 0.43 c p3
290.97 506.78 0.43 c p3
291.12 507.38 0.43 c p3
291.26 507.02 0.43 c p3
291.41 507.62 0.43 c p3
291.55 507.38 0.43 c p3
291.70 507.51 0.43 c p3
291.84 507.38 0.43 c p3
291.99 506.92 0.43 c p3
292.14 507.51 0.43 c p3
292.28 506.67 0.43 c p3
292.43 508.00 0.43 c p3
292.57 507.75 0.43 c p3
292.72 507.27 0.43 c p3
292.86 507.75 0.43 c p3
293.01 507.27 0.43 c p3
293.16 507.51 0.43 c p3
293.30 507.38 0.43 c p3
293.45 507.27 0.43 c p3
293.59 507.16 0.43 c p3
293.74 507.75 0.43 c p3
293.88 507.27 0.43 c p3
294.03 506.92 0.43 c p3
294.17 507.02 0.43 c p3
294.32 507.51 0.43 c p3
294.47 507.27 0.43 c p3
294.61 507.16 0.43 c p3
294.76 507.51 0.43 c p3
294.90 507.75 0.43 c p3
295.05 507.27 0.43 c p3
295.19 507.16 0.43 c p3
295.34 507.27 0.43 c p3
295.48 507.51 0.43 c p3
295.63 507.62 0.43 c p3
295.78 507.51 0.43 c p3
295.92 507.27 0.43 c p3
296.07 506.78 0.43 c p3
296.21 507.16 0.43 c p3
296.36 507.38 0.43 c p3
296.50 507.51 0.43 c p3
296.65 507.27 0.43 c p3
296.79 507.16 0.43 c p3
296.94 507.16 0.43 c p3
297.09 507.16 0.43 c p3
297.23 507.38 0.43 c p3
297.38 507.75 0.43 c p3
297.52 507.75 0.43 c p3
297.67 507.86 0.43 c p3
297.81 507.27 0.43 c p3
297.96 507.62 0.43 c p3
298.11 507.38 0.43 c p3
298.25 507.51 0.43 c p3
298.40 507.02 0.43 c p3
298.54 507.51 0.43 c p3
298.69 507.02 0.43 c p3
298.83 508.00 0.43 c p3
298.98 507.51 0.43 c p3
299.12 507.51 0.43 c p3
299.27 508.35 0.43 c p3
299.42 507.51 0.43 c p3
299.56 508.24 0.43 c p3
299.71 506.92 0.43 c p3
299.85 507.27 0.43 c p3
300.00 507.16 0.43 c p3
300.14 507.16 0.43 c p3
300.29 508.00 0.43 c p3
300.43 507.86 0.43 c p3
300.58 507.62 0.43 c p3
300.73 507.27 0.43 c p3
300.87 507.62 0.43 c p3
301.02 507.86 0.43 c p3
301.16 507.16 0.43 c p3
301.31 507.75 0.43 c p3
301.45 507.62 0.43 c p3
301.60 507.51 0.43 c p3
301.74 507.62 0.43 c p3
301.89 507.51 0.43 c p3
302.04 507.16 0.43 c p3
302.18 508.24 0.43 c p3
302.33 507.62 0.43 c p3
302.47 508.00 0.43 c p3
302.62 507.75 0.43 c p3
302.76 507.27 0.43 c p3
302.91 507.51 0.43 c p3
303.06 507.75 0.43 c p3
303.20 508.24 0.43 c p3
303.35 507.16 0.43 c p3
303.49 507.75 0.43 c p3
303.64 507.16 0.43 c p3
303.78 507.16 0.43 c p3
303.93 507.86 0.43 c p3
304.07 507.75 0.43 c p3
304.22 507.86 0.43 c p3
304.37 507.27 0.43 c p3
304.51 508.24 0.43 c p3
304.66 507.86 0.43 c p3
304.80 508.11 0.43 c p3
304.95 508.11 0.43 c p3
305.09 507.51 0.43 c p3
305.24 508.00 0.43 c p3
305.38 507.86 0.43 c p3
305.53 508.35 0.43 c p3
305.68 507.86 0.43 c p3
305.82 507.62 0.43 c p3
305.97 507.86 0.43 c p3
306.11 508.24 0.43 c p3
306.26 508.24 0.43 c p3
306.40 507.62 0.43 c p3
306.55 506.54 0.43 c p3
306.69 507.62 0.43 c p3
306.84 507.62 0.43 c p3
306.99 508.00 0.43 c p3
307.13 507.86 0.43 c p3
307.28 508.11 0.43 c p3
307.42 507.38 0.43 c p3
307.57 507.16 0.43 c p3
307.71 507.27 0.43 c p3
307.86 508.00 0.43 c p3
308.01 508.11 0.43 c p3
308.15 507.51 0.43 c p3
308.30 508.24 0.43 c p3
308.44 508.24 0.43 c p3
308.59 508.00 0.43 c p3
308.73 507.62 0.43 c p3
308.88 507.62 0.43 c p3
309.02 507.86 0.43 c p3
309.17 508.11 0.43 c p3
309.32 507.75 0.43 c p3
309.46 507.75 0.43 c p3
309.61 507.86 0.43 c p3
309.75 507.51 0.43 c p3
309.90 508.00 0.43 c p3
310.04 508.35 0.43 c p3
310.19 508.11 0.43 c p3
310.33 508.00 0.43 c p3
310.48 507.75 0.43 c p3
310.63 507.16 0.43 c p3
310.77 507.51 0.43 c p3
310.92 508.00 0.43 c p3
311.06 508.84 0.43 c p3
311.21 507.86 0.43 c p3
311.35 507.86 0.43 c p3
311.50 508.00 0.43 c p3
311.64 507.62 0.43 c p3
311.79 507.86 0.43 c p3
311.94 507.86 0.43 c p3
312.08 508.35 0.43 c p3
312.23 507.62 0.43 c p3
312.37 507.51 0.43 c p3
312.52 507.75 0.43 c p3
312.66 507.62 0.43 c p3
312.81 507.86 0.43 c p3
312.96 508.48 0.43 c p3
313.10 508.35 0.43 c p3
313.25 507.75 0.43 c p3
313.39 508.11 0.43 c p3
313.54 508.00 0.43 c p3
313.68 508.24 0.43 c p3
313.83 508.24 0.43 c p3
313.97 508.11 0.43 c p3
314.12 507.86 0.43 c p3
314.27 508.24 0.43 c p3
314.41 508.00 0.43 c p3
314.56 507.75 0.43 c p3
314.70 507.62 0.43 c p3
314.85 508.24 0.43 c p3
314.99 507.86 0.43 c p3
315.14 508.35 0.43 c p3
315.28 508.24 0.43 c p3
315.43 507.38 0.43 c p3
315.58 508.24 0.43 c p3
315.72 507.62 0.43 c p3
315.87 508.11 0.43 c p3
316.01 508.35 0.43 c p3
316.16 508.24 0.43 c p3
316.30 508.35 0.43 c p3
316.45 508.24 0.43 c p3
316.59 508.00 0.43 c p3
316.74 508.35 0.43 c p3
316.89 508.24 0.43 c p3
317.03 508.59 0.43 c p3
317.18 508.73 0.43 c p3
317.32 508.00 0.43 c p3
317.47 508.11 0.43 c p3
317.61 508.35 0.43 c p3
317.76 508.35 0.43 c p3
317.91 508.11 0.43 c p3
318.05 508.73 0.43 c p3
318.20 507.86 0.43 c p3
318.34 507.75 0.43 c p3
318.49 508.00 0.43 c p3
318.63 508.48 0.43 c p3
318.78 508.24 0.43 c p3
318.92 508.11 0.43 c p3
319.07 507.86 0.43 c p3
319.22 508.00 0.43 c p3
319.36 508.11 0.43 c p3
319.51 508.84 0.43 c p3
319.65 507.86 0.43 c p3
319.80 508.00 0.43 c p3
319.94 508.00 0.43 c p3
320.09 508.00 0.43 c p3
320.23 508.73 0.43 c p3
320.38 508.24 0.43 c p3
320.53 508.11 0.43 c p3
320.67 508.00 0.43 c p3
320.82 508.35 0.43 c p3
320.96 509.46 0.43 c p3
321.11 508.11 0.43 c p3
321.25 508.24 0.43 c p3
321.40 507.86 0.43 c p3
321.54 508.00 0.43 c p3
321.69 507.86 0.43 c p3
321.84 508.11 0.43 c p3
321.98 508.35 0.43 c p3
322.13 507.86 0.43 c p3
322.27 507.86 0.43 c p3
322.42 508.35 0.43 c p3
322.56 508.11 0.43 c p3
322.71 508.24 0.43 c p3
322.85 508.24 0.43 c p3
323.00 508.48 0.43 c p3
323.15 508.00 0.43 c p3
323.29 508.11 0.43 c p3
323.44 508.48 0.43 c p3
323.58 508.35 0.43 c p3
323.73 508.59 0.43 c p3
323.87 508.35 0.43 c p3
324.02 508.35 0.43 c p3
324.17 508.11 0.43 c p3
324.31 508.59 0.43 c p3
324.46 508.24 0.43 c p3
324.60 508.24 0.43 c p3
324.75 508.59 0.43 c p3
324.89 508.00 0.43 c p3
325.04 508.24 0.43 c p3
325.18 508.48 0.43 c p3
325.33 508.35 0.43 c p3
325.48 508.48 0.43 c p3
325.62 508.84 0.43 c p3
325.77 508.73 0.43 c p3
325.91 508.48 0.43 c p3
326.06 508.48 0.43 c p3
326.20 508.84 0.43 c p3
326.35 508.11 0.43 c p3
326.49 508.97 0.43 c p3
326.64 508.84 0.43 c p3
326.79 508.00 0.43 c p3
326.93 508.35 0.43 c p3
327.08 508.24 0.43 c p3
327.22 508.59 0.43 c p3
327.37 507.62 0.43 c p3
327.51 508.00 0.43 c p3
327.66 508.48 0.43 c p3
327.80 508.84 0.43 c p3
327.95 508.48 0.43 c p3
328.10 508.48 0.43 c p3
328.24 508.35 0.43 c p3
328.39 508.59 0.43 c p3
328.53 508.97 0.43 c p3
328.68 509.21 0.43 c p3
328.82 508.24 0.43 c p3
328.97 508.24 0.43 c p3
329.12 508.00 0.43 c p3
329.26 508.48 0.43 c p3
329.41 508.48 0.43 c p3
329.55 508.48 0.43 c p3
329.70 508.48 0.43 c p3
329.84 508.59 0.43 c p3
329.99 508.24 0.43 c p3
330.13 508.48 0.43 c p3
330.28 508.48 0.43 c p3
330.43 508.84 0.43 c p3
330.57 508.11 0.43 c p3
330.72 508.73 0.43 c p3
330.86 508.35 0.43 c p3
331.01 508.84 0.43 c p3
331.15 508.84 0.43 c p3
331.30 508.73 0.43 c p3
331.44 508.73 0.43 c p3
331.59 508.73 0.43 c p3
331.74 508.97 0.43 c p3
331.88 508.97 0.43 c p3
332.03 508.35 0.43 c p3
332.17 508.48 0.43 c p3
332.32 508.59 0.43 c p3
332.46 509.32 0.43 c p3
332.61 508.84 0.43 c p3
332.75 508.00 0.43 c p3
332.90 508.35 0.43 c p3
333.05 508.84 0.43 c p3
333.19 508.48 0.43 c p3
333.34 508.35 0.43 c p3
333.48 508.84 0.43 c p3
333.63 508.35 0.43 c p3
333.77 508.24 0.43 c p3
333.92 508.11 0.43 c p3
334.07 508.35 0.43 c p3
334.21 508.97 0.43 c p3
334.36 508.97 0.43 c p3
334.50 508.48 0.43 c p3
334.65 508.48 0.43 c p3
334.79 508.11 0.43 c p3
334.94 508.48 0.43 c p3
335.08 508.48 0.43 c p3
335.23 508.97 0.43 c p3
335.38 508.73 0.43 c p3
335.52 509.57 0.43 c p3
335.67 508.48 0.43 c p3
335.81 508.84 0.43 c p3
335.96 508.24 0.43 c p3
336.10 508.84 0.43 c p3
336.25 508.84 0.43 c p3
336.39 508.73 0.43 c p3
336.54 508.84 0.43 c p3
336.69 508.73 0.43 c p3
336.83 508.11 0.43 c p3
336.98 508.59 0.43 c p3
337.12 508.73 0.43 c p3
337.27 508.59 0.43 c p3
337.41 509.08 0.43 c p3
337.56 508.59 0.43 c p3
337.70 508.97 0.43 c p3
337.85 508.84 0.43 c p3
338.00 508.59 0.43 c p3
338.14 508.97 0.43 c p3
338.29 508.97 0.43 c p3
338.43 509.46 0.43 c p3
338.58 508.84 0.43 c p3
338.72 508.84 0.43 c p3
338.87 508.59 0.43 c p3
339.02 509.21 0.43 c p3
339.16 509.08 0.43 c p3
339.31 508.59 0.43 c p3
339.45 509.08 0.43 c p3
339.60 508.48 0.43 c p3
339.74 508.35 0.43 c p3
339.89 509.08 0.43 c p3
340.03 509.08 0.43 c p3
340.18 508.84 0.43 c p3
340.33 508.59 0.43 c p3
340.47 509.21 0.43 c p3
340.62 508.97 0.43 c p3
340.76 508.59 0.43 c p3
340.91 508.97 0.43 c p3
341.05 508.97 0.43 c p3
341.20 509.32 0.43 c p3
341.34 508.00 0.43 c p3
341.49 509.21 0.43 c p3
341.64 508.48 0.43 c p3
341.78 508.48 0.43 c p3
341.93 509.08 0.43 c p3
342.07 508.73 0.43 c p3
342.22 509.32 0.43 c p3
342.36 508.73 0.43 c p3
342.51 508.73 0.43 c p3
342.65 508.97 0.43 c p3
342.80 509.08 0.43 c p3
342.95 508.84 0.43 c p3
343.09 508.84 0.43 c p3
343.24 508.97 0.43 c p3
343.38 509.21 0.43 c p3
343.53 509.08 0.43 c p3
343.67 508.97 0.43 c p3
343.82 508.97 0.43 c p3
343.97 508.24 0.43 c p3
344.11 508.84 0.43 c p3
344.26 509.57 0.43 c p3
344.40 509.08 0.43 c p3
344.55 508.84 0.43 c p3
344.69 508.59 0.43 c p3
344.84 508.84 0.43 c p3
344.98 509.46 0.43 c p3
345.13 509.94 0.43 c p3
345.28 509.08 0.43 c p3
345.42 508.97 0.43 c p3
345.57 509.21 0.43 c p3
345.71 508.97 0.43 c p3
345.86 509.08 0.43 c p3
346.00 508.73 0.43 c p3
346.15 509.08 0.43 c p3
346.29 508.48 0.43 c p3
346.44 509.08 0.43 c p3
346.59 508.97 0.43 c p3
346.73 508.84 0.43 c p3
346.88 508.97 0.43 c p3
347.02 509.32 0.43 c p3
347.17 509.46 0.43 c p3
347.31 509.21 0.43 c p3
347.46 508.84 0.43 c p3
347.60 508.97 0.43 c p3
347.75 509.08 0.43 c p3
347.90 509.70 0.43 c p3
348.04 508.84 0.43 c p3
348.19 509.08 0.43 c p3
348.33 508.48 0.43 c p3
348.48 509.08 0.43 c p3
348.62 509.21 0.43 c p3
348.77 508.84 0.43 c p3
348.92 509.46 0.43 c p3
349.06 509.21 0.43 c p3
349.21 508.97 0.43 c p3
349.35 509.21 0.43 c p3
349.50 508.84 0.43 c p3
349.64 508.97 0.43 c p3
349.79 508.97 0.43 c p3
349.93 509.08 0.43 c p3
350.08 509.08 0.43 c p3
350.23 509.57 0.43 c p3
350.37 509.08 0.43 c p3
350.52 508.48 0.43 c p3
350.66 508.97 0.43 c p3
350.81 509.21 0.43 c p3
350.95 509.46 0.43 c p3
351.10 509.32 0.43 c p3
351.24 508.84 0.43 c p3
351.39 509.32 0.43 c p3
351.54 508.84 0.43 c p3
351.68 509.57 0.43 c p3
351.83 509.70 0.43 c p3
351.97 509.21 0.43 c p3
352.12 509.21 0.43 c p3
352.26 509.32 0.43 c p3
352.41 509.08 0.43 c p3
352.55 509.32 0.43 c p3
352.70 509.08 0.43 c p3
352.85 509.46 0.43 c p3
352.99 508.73 0.43 c p3
353.14 509.08 0.43 c p3
353.28 509.21 0.43 c p3
353.43 509.21 0.43 c p3
353.57 509.46 0.43 c p3
353.72 509.57 0.43 c p3
353.86 509.21 0.43 c p3
354.01 509.57 0.43 c p3
354.16 508.84 0.43 c p3
354.30 509.21 0.43 c p3
354.45 508.84 0.43 c p3
354.59 509.70 0.43 c p3
354.74 508.97 0.43 c p3
354.88 509.57 0.43 c p3
355.03 509.32 0.43 c p3
355.18 508.84 0.43 c p3
355.32 509.46 0.43 c p3
355.47 509.46 0.43 c p3
355.61 508.84 0.43 c p3
355.76 509.57 0.43 c p3
355.90 509.57 0.43 c p3
356.05 509.32 0.43 c p3
356.19 508.84 0.43 c p3
356.34 509.81 0.43 c p3
356.49 508.84 0.43 c p3
356.63 509.81 0.43 c p3
356.78 509.57 0.43 c p3
356.92 509.57 0.43 c p3
357.07 509.08 0.43 c p3
357.21 509.08 0.43 c p3
357.36 509.21 0.43 c p3
357.50 509.70 0.43 c p3
357.65 509.32 0.43 c p3
357.80 509.32 0.43 c p3
357.94 509.08 0.43 c p3
358.09 509.57 0.43 c p3
358.23 509.21 0.43 c p3
358.38 509.32 0.43 c p3
358.52 510.05 0.43 c p3
358.67 509.21 0.43 c p3
358.81 509.21 0.43 c p3
358.96 509.21 0.43 c p3
359.11 509.08 0.43 c p3
359.25 509.57 0.43 c p3
359.40 509.46 0.43 c p3
359.54 509.70 0.43 c p3
359.69 509.46 0.43 c p3
359.83 508.97 0.43 c p3
359.98 509.21 0.43 c p3
360.13 509.81 0.43 c p3
360.27 509.32 0.43 c p3
360.42 509.21 0.43 c p3
360.56 509.81 0.43 c p3
360.71 509.08 0.43 c p3
360.85 508.97 0.43 c p3
361.00 509.94 0.43 c p3
361.14 509.46 0.43 c p3
361.29 509.46 0.43 c p3
361.44 509.21 0.43 c p3
361.58 509.81 0.43 c p3
361.73 509.46 0.43 c p3
361.87 509.21 0.43 c p3
362.02 509.32 0.43 c p3
362.16 508.97 0.43 c p3
362.31 509.57 0.43 c p3
362.45 509.46 0.43 c p3
362.60 509.94 0.43 c p3
362.75 509.81 0.43 c p3
362.89 509.32 0.43 c p3
363.04 509.70 0.43 c p3
363.18 508.97 0.43 c p3
363.33 509.32 0.43 c p3
363.47 509.57 0.43 c p3
363.62 509.81 0.43 c p3
363.76 509.08 0.43 c p3
363.91 509.21 0.43 c p3
364.06 509.46 0.43 c p3
364.20 509.46 0.43 c p3
364.35 509.57 0.43 c p3
364.49 509.57 0.43 c p3
364.64 508.84 0.43 c p3
364.78 509.46 0.43 c p3
364.93 509.21 0.43 c p3
365.08 509.94 0.43 c p3
365.22 509.70 0.43 c p3
365.37 509.94 0.43 c p3
365.51 509.32 0.43 c p3
365.66 509.81 0.43 c p3
365.80 509.46 0.43 c p3
365.95 509.46 0.43 c p3
366.09 509.21 0.43 c p3
366.24 509.94 0.43 c p3
366.39 509.57 0.43 c p3
366.53 509.94 0.43 c p3
366.68 508.97 0.43 c p3
366.82 509.21 0.43 c p3
366.97 509.57 0.43 c p3
367.11 509.08 0.43 c p3
367.26 509.57 0.43 c p3
367.40 509.57 0.43 c p3
367.55 509.57 0.43 c p3
367.70 509.46 0.43 c p3
367.84 509.46 0.43 c p3
367.99 509.57 0.43 c p3
368.13 509.70 0.43 c p3
368.28 509.70 0.43 c p3
368.42 509.46 0.43 c p3
368.57 509.21 0.43 c p3
368.71 509.81 0.43 c p3
368.86 509.21 0.43 c p3
369.01 509.46 0.43 c p3
369.15 509.57 0.43 c p3
369.30 509.94 0.43 c p3
369.44 510.19 0.43 c p3
369.59 509.46 0.43 c p3
369.73 509.57 0.43 c p3
369.88 509.21 0.43 c p3
370.03 509.57 0.43 c p3
370.17 509.46 0.43 c p3
370.32 510.05 0.43 c p3
370.46 510.19 0.43 c p3
370.61 509.70 0.43 c p3
370.75 509.08 0.43 c p3
370.90 509.70 0.43 c p3
371.04 509.81 0.43 c p3
371.19 509.81 0.43 c p3
371.34 509.81 0.43 c p3
371.48 509.81 0.43 c p3
371.63 509.32 0.43 c p3
371.77 509.81 0.43 c p3
371.92 509.46 0.43 c p3
372.06 510.30 0.43 c p3
372.21 509.81 0.43 c p3
372.35 509.70 0.43 c p3
372.50 509.70 0.43 c p3
372.65 509.21 0.43 c p3
372.79 509.57 0.43 c p3
372.94 510.05 0.43 c p3
373.08 509.57 0.43 c p3
373.23 510.19 0.43 c p3
373.37 509.94 0.43 c p3
373.52 510.30 0.43 c p3
373.66 509.32 0.43 c p3
373.81 509.57 0.43 c p3
373.96 509.70 0.43 c p3
374.10 510.05 0.43 c p3
374.25 509.94 0.43 c p3
374.39 509.81 0.43 c p3
374.54 509.57 0.43 c p3
374.68 509.70 0.43 c p3
374.83 509.32 0.43 c p3
374.98 509.81 0.43 c p3
375.12 510.30 0.43 c p3
375.27 509.94 0.43 c p3
375.41 509.81 0.43 c p3
375.56 509.81 0.43 c p3
375.70 509.57 0.43 c p3
375.85 509.57 0.43 c p3
375.99 509.94 0.43 c p3
376.14 509.94 0.43 c p3
376.29 510.05 0.43 c p3
376.43 509.81 0.43 c p3
376.58 508.97 0.43 c p3
376.72 510.05 0.43 c p3
376.87 509.94 0.43 c p3
377.01 509.70 0.43 c p3
377.16 509.70 0.43 c p3
377.30 509.21 0.43 c p3
377.45 509.94 0.43 c p3
377.60 509.70 0.43 c p3
377.74 509.70 0.43 c p3
377.89 510.05 0.43 c p3
378.03 509.70 0.43 c p3
378.18 509.70 0.43 c p3
378.32 509.81 0.43 c p3
378.47 510.05 0.43 c p3
378.61 510.30 0.43 c p3
378.76 509.21 0.43 c p3
378.91 509.57 0.43 c p3
379.05 509.94 0.43 c p3
379.20 510.43 0.43 c p3
379.34 509.70 0.43 c p3
379.49 510.43 0.43 c p3
379.63 509.94 0.43 c p3
379.78 509.81 0.43 c p3
379.93 509.81 0.43 c p3
380.07 509.94 0.43 c p3
380.22 509.57 0.43 c p3
380.36 509.70 0.43 c p3
380.51 509.46 0.43 c p3
380.65 509.94 0.43 c p3
380.80 510.30 0.43 c p3
380.94 510.30 0.43 c p3
381.09 510.05 0.43 c p3
381.24 509.70 0.43 c p3
381.38 509.21 0.43 c p3
381.53 509.57 0.43 c p3
381.67 510.05 0.43 c p3
381.82 509.57 0.43 c p3
381.96 509.94 0.43 c p3
382.11 509.57 0.43 c p3
382.25 510.19 0.43 c p3
382.40 509.94 0.43 c p3
0.00 0.00 432.00 576.00 cl
0 0 0 srgb
0.75 setlinewidth
[] 0 setdash
1 setlinecap
1 setlinejoin
10.00 setmiterlimit
np
236.96 345.60 m
145.59 0 l
o
np
236.96 345.60 m
0 -5.76 l
o
np
261.22 345.60 m
0 -5.76 l
o
np
285.49 345.60 m
0 -5.76 l
o
np
309.75 345.60 m
0 -5.76 l
o
np
334.02 345.60 m
0 -5.76 l
o
np
358.28 345.60 m
0 -5.76 l
o
np
382.55 345.60 m
0 -5.76 l
o
/Font1 findfont 10 s
236.96 329.47 (0) .5 0 t
261.22 329.47 (500) .5 0 t
309.75 329.47 (1500) .5 0 t
358.28 329.47 (2500) .5 0 t
np
216.00 352.00 m
0 166.16 l
o
np
216.00 352.00 m
-5.76 0 l
o
np
216.00 407.39 m
-5.76 0 l
o
np
216.00 462.77 m
-5.76 0 l
o
np
216.00 518.16 m
-5.76 0 l
o
209.09 348.41 (0.0) 1 0 t
209.09 403.80 (0.5) 1 0 t
209.09 459.18 (1.0) 1 0 t
209.09 514.57 (1.5) 1 0 t
np
216.00 345.60 m
172.80 0 l
0 172.80 l
-172.80 0 l
0 -172.80 l
o
0.00 0.00 432.00 576.00 cl
/Font1 findfont 10 s
0 0 0 srgb
302.40 313.34 (Zeit / ms \(total\)) .5 0 t
190.66 432.00 (U / V) .5 90 t
216.00 345.60 388.80 518.40 cl
0 0 0 srgb
0.38 setlinewidth
[ 1.12 1.88] 0 setdash
1 setlinecap
1 setlinejoin
10.00 setmiterlimit
np
223.86 345.60 m
0 172.80 l
o
np
234.63 345.60 m
0 172.80 l
o
np
239.58 345.60 m
0 172.80 l
o
np
264.62 345.60 m
0 172.80 l
o
86.40 57.60 388.80 288.00 cl
1 0 0 srgb
1.50 setlinewidth
[] 0 setdash
1 setlinecap
1 setlinejoin
10.00 setmiterlimit
np
97.60 279.47 m
1.41 -21.37 l
1.40 -19.12 l
1.41 -17.11 l
1.41 -15.32 l
1.41 -13.70 l
1.40 -12.26 l
1.41 -10.97 l
1.41 -9.82 l
1.40 -8.79 l
1.41 -7.86 l
1.41 -7.04 l
1.40 -6.29 l
1.41 -5.64 l
1.41 -5.04 l
1.41 -4.51 l
1.40 -4.04 l
1.41 -3.61 l
1.41 -3.23 l
1.40 -2.90 l
1.41 -2.59 l
1.41 -2.31 l
1.40 -2.08 l
1.41 -1.85 l
1.41 -1.66 l
1.41 -1.49 l
1.40 -1.33 l
1.41 -1.19 l
1.41 -1.06 l
1.40 -0.95 l
1.41 -0.86 l
1.41 -0.76 l
1.41 -0.68 l
1.40 -0.61 l
1.41 -0.55 l
1.41 -0.49 l
1.40 -0.44 l
1.41 -0.39 l
1.41 -0.35 l
1.40 -0.31 l
1.41 -0.28 l
1.41 -0.25 l
1.41 -0.23 l
1.40 -0.20 l
1.41 -0.18 l
1.41 -0.16 l
1.40 -0.15 l
1.41 -0.12 l
1.41 -0.12 l
1.40 -0.10 l
1.41 -0.10 l
1.41 -0.08 l
1.41 -0.07 l
1.40 -0.07 l
1.41 -0.06 l
1.41 -0.05 l
1.40 -0.05 l
1.41 -0.04 l
1.41 -0.04 l
1.41 -0.03 l
1.40 -0.03 l
1.41 -0.03 l
1.41 -0.02 l
1.40 -0.03 l
1.41 -0.02 l
1.41 -0.01 l
1.40 -0.02 l
1.41 -0.01 l
1.41 -0.02 l
1.41 -0.01 l
1.40 -0.01 l
1.41 -0.01 l
1.41 0 l
1.40 -0.01 l
1.41 -0.01 l
1.41 0 l
1.40 -0.01 l
1.41 0 l
1.41 -0.01 l
1.41 0 l
1.40 0 l
1.41 -0.01 l
1.41 0 l
1.40 0 l
1.41 0 l
1.41 -0.01 l
1.41 0 l
1.40 0 l
1.41 0 l
1.41 0 l
1.40 0 l
1.41 0 l
1.41 0 l
1.40 -0.01 l
1.41 0 l
1.41 0 l
1.41 0 l
1.40 0 l
1.41 0 l
1.41 0 l
238.30 76.23 lineto
1.41 0 l
1.41 0 l
1.40 0 l
1.41 0 l
1.41 0 l
1.41 0 l
1.40 0 l
1.41 0 l
1.41 0 l
1.40 0 l
1.41 0 l
1.41 0 l
1.40 0 l
1.41 0 l
1.41 0 l
1.41 0 l
1.40 0 l
1.41 0 l
1.41 0 l
1.40 0 l
1.41 0 l
1.41 0 l
1.41 0 l
1.40 0 l
1.41 0 l
1.41 0 l
1.40 0 l
1.41 0 l
1.41 0 l
1.40 0 l
1.41 0 l
1.41 0 l
1.41 0 l
1.40 0 l
1.41 0 l
1.41 0 l
1.40 0 l
1.41 0 l
1.41 0 l
1.40 0 l
1.41 0 l
1.41 0 l
1.41 0 l
1.40 0 l
1.41 0 l
1.41 0 l
1.40 0 l
1.41 0 l
1.41 0 l
1.41 0 l
1.40 0 l
1.41 0 l
1.41 0 l
1.40 0 l
1.41 0 l
1.41 0 l
1.40 0 l
1.41 0 l
1.41 0 l
1.41 0 l
1.40 0 l
1.41 0 l
1.41 0 l
1.40 0 l
1.41 0 l
1.41 0 l
1.40 0 l
1.41 0 l
1.41 0 l
1.41 0 l
1.40 0 l
1.41 0 l
1.41 0 l
1.40 0 l
1.41 0 l
1.41 0 l
1.41 0 l
1.40 0 l
1.41 0 l
1.41 0 l
1.40 0 l
1.41 0 l
1.41 0 l
1.40 0 l
1.41 0 l
1.41 0 l
1.41 0 l
1.40 0 l
1.41 0 l
1.41 0 l
1.40 0 l
1.41 0 l
1.41 0 l
1.40 0 l
1.41 0 l
1.41 0 l
1.41 0 l
1.40 0 l
1.41 0 l
o
0.00 0.00 432.00 576.00 cl
0 0 0 srgb
0.75 setlinewidth
[] 0 setdash
1 setlinecap
1 setlinejoin
10.00 setmiterlimit
np
97.60 57.60 m
280.00 0 l
o
np
97.60 57.60 m
0 -5.76 l
o
np
144.27 57.60 m
0 -5.76 l
o
np
190.93 57.60 m
0 -5.76 l
o
np
237.60 57.60 m
0 -5.76 l
o
np
284.27 57.60 m
0 -5.76 l
o
np
330.93 57.60 m
0 -5.76 l
o
np
377.60 57.60 m
0 -5.76 l
o
/Font1 findfont 10 s
97.60 41.47 (0) .5 0 t
144.27 41.47 (500) .5 0 t
190.93 41.47 (1000) .5 0 t
237.60 41.47 (1500) .5 0 t
284.27 41.47 (2000) .5 0 t
330.93 41.47 (2500) .5 0 t
377.60 41.47 (3000) .5 0 t
np
86.40 66.13 m
0 187.18 l
o
np
86.40 66.13 m
-5.76 0 l
o
np
86.40 103.57 m
-5.76 0 l
o
np
86.40 141.00 m
-5.76 0 l
o
np
86.40 178.44 m
-5.76 0 l
o
np
86.40 215.87 m
-5.76 0 l
o
np
86.40 253.31 m
-5.76 0 l
o
79.49 62.54 (0.00) 1 0 t
79.49 99.98 (0.05) 1 0 t
79.49 137.41 (0.10) 1 0 t
79.49 174.85 (0.15) 1 0 t
79.49 212.28 (0.20) 1 0 t
79.49 249.72 (0.25) 1 0 t
np
86.40 57.60 m
302.40 0 l
0 230.40 l
-302.40 0 l
0 -230.40 l
o
0.00 0.00 432.00 576.00 cl
/Font1 findfont 10 s
0 0 0 srgb
237.60 13.82 (Zeit / ms \(nach Puls\)) .5 0 t
49.54 172.80 (Absorbanz A) .5 90 t
86.40 57.60 388.80 288.00 cl
/bg { 1 1 1 srgb } def
0 0 0 srgb
0.75 setlinewidth
[] 0 setdash
1 setlinecap
1 setlinejoin
10.00 setmiterlimit
102.92 209.33 0.65 c p3
103.20 207.37 0.65 c p3
103.48 202.88 0.65 c p3
103.76 198.71 0.65 c p3
104.04 196.89 0.65 c p3
104.32 194.67 0.65 c p3
104.60 193.52 0.65 c p3
104.88 191.32 0.65 c p3
105.16 187.37 0.65 c p3
105.44 188.50 0.65 c p3
105.72 183.79 0.65 c p3
106.00 179.22 0.65 c p3
106.28 178.52 0.65 c p3
106.56 175.03 0.65 c p3
106.84 175.34 0.65 c p3
107.12 172.65 0.65 c p3
107.40 170.89 0.65 c p3
107.68 168.54 0.65 c p3
107.96 167.86 0.65 c p3
108.24 164.78 0.65 c p3
108.52 160.77 0.65 c p3
108.80 161.14 0.65 c p3
109.08 160.77 0.65 c p3
109.36 156.51 0.65 c p3
109.64 153.90 0.65 c p3
109.92 152.96 0.65 c p3
110.20 152.60 0.65 c p3
110.48 150.38 0.65 c p3
110.76 147.81 0.65 c p3
111.04 148.10 0.65 c p3
111.32 144.36 0.65 c p3
111.60 142.12 0.65 c p3
111.88 142.12 0.65 c p3
112.16 141.21 0.65 c p3
112.44 140.87 0.65 c p3
112.72 138.72 0.65 c p3
113.00 137.14 0.65 c p3
113.28 134.06 0.65 c p3
113.56 132.30 0.65 c p3
113.84 131.96 0.65 c p3
114.12 132.30 0.65 c p3
114.40 130.75 0.65 c p3
114.68 130.14 0.65 c p3
114.96 127.46 0.65 c p3
115.24 128.67 0.65 c p3
115.52 125.93 0.65 c p3
115.80 123.29 0.65 c p3
116.08 123.56 0.65 c p3
116.36 122.96 0.65 c p3
116.64 123.29 0.65 c p3
116.92 120.08 0.65 c p3
117.20 118.91 0.65 c p3
117.48 117.75 0.65 c p3
117.76 116.84 0.65 c p3
118.04 116.01 0.65 c p3
118.32 115.68 0.65 c p3
118.60 113.38 0.65 c p3
118.88 114.27 0.65 c p3
119.16 114.53 0.65 c p3
119.44 112.23 0.65 c p3
119.72 112.23 0.65 c p3
120.00 110.27 0.65 c p3
120.28 109.38 0.65 c p3
120.56 109.13 0.65 c p3
120.84 109.13 0.65 c p3
121.12 108.00 0.65 c p3
121.40 106.87 0.65 c p3
121.68 107.75 0.65 c p3
121.96 106.87 0.65 c p3
122.24 104.94 0.65 c p3
122.52 103.26 0.65 c p3
122.80 102.40 0.65 c p3
123.08 102.95 0.65 c p3
123.36 103.82 0.65 c p3
123.64 102.71 0.65 c p3
123.92 101.84 0.65 c p3
124.20 101.29 0.65 c p3
124.48 99.08 0.65 c p3
124.76 99.08 0.65 c p3
125.04 98.84 0.65 c p3
125.32 98.84 0.65 c p3
125.60 98.53 0.65 c p3
125.88 97.44 0.65 c p3
126.16 98.29 0.65 c p3
126.44 97.44 0.65 c p3
126.72 95.56 0.65 c p3
127.00 95.02 0.65 c p3
127.28 96.41 0.65 c p3
127.56 93.93 0.65 c p3
127.84 95.32 0.65 c p3
128.12 94.47 0.65 c p3
128.40 93.93 0.65 c p3
128.68 93.15 0.65 c p3
128.96 92.31 0.65 c p3
129.24 91.54 0.65 c p3
129.52 93.69 0.65 c p3
129.80 93.39 0.65 c p3
130.08 90.17 0.65 c p3
130.36 91.54 0.65 c p3
130.64 90.70 0.65 c p3
130.92 90.46 0.65 c p3
131.20 89.93 0.65 c p3
131.48 89.10 0.65 c p3
131.76 88.86 0.65 c p3
132.04 89.10 0.65 c p3
132.32 89.93 0.65 c p3
132.60 89.93 0.65 c p3
132.88 89.40 0.65 c p3
133.16 86.97 0.65 c p3
133.44 86.45 0.65 c p3
133.72 88.04 0.65 c p3
134.00 87.80 0.65 c p3
134.28 87.80 0.65 c p3
134.56 87.27 0.65 c p3
134.84 87.80 0.65 c p3
135.12 88.33 0.65 c p3
135.40 85.92 0.65 c p3
135.68 86.45 0.65 c p3
135.96 85.68 0.65 c p3
136.24 85.92 0.65 c p3
136.52 85.68 0.65 c p3
136.80 85.68 0.65 c p3
137.08 84.63 0.65 c p3
137.36 85.68 0.65 c p3
137.64 84.40 0.65 c p3
137.92 83.87 0.65 c p3
138.20 82.82 0.65 c p3
138.48 84.40 0.65 c p3
138.76 85.16 0.65 c p3
139.04 84.40 0.65 c p3
139.32 83.35 0.65 c p3
139.60 83.06 0.65 c p3
139.88 84.63 0.65 c p3
140.16 83.87 0.65 c p3
140.44 81.78 0.65 c p3
140.72 82.30 0.65 c p3
141.00 83.58 0.65 c p3
141.28 83.06 0.65 c p3
141.56 82.53 0.65 c p3
141.84 83.58 0.65 c p3
142.12 83.06 0.65 c p3
142.40 83.06 0.65 c p3
142.68 81.78 0.65 c p3
142.96 81.49 0.65 c p3
143.24 80.22 0.65 c p3
143.52 81.26 0.65 c p3
143.80 81.49 0.65 c p3
144.08 82.53 0.65 c p3
144.36 82.53 0.65 c p3
144.64 82.53 0.65 c p3
144.92 83.06 0.65 c p3
145.20 80.45 0.65 c p3
145.48 79.41 0.65 c p3
145.76 80.45 0.65 c p3
146.04 80.22 0.65 c p3
146.32 80.74 0.65 c p3
146.60 80.97 0.65 c p3
146.88 81.49 0.65 c p3
147.16 81.49 0.65 c p3
147.44 80.45 0.65 c p3
147.72 79.93 0.65 c p3
148.00 79.70 0.65 c p3
148.28 79.93 0.65 c p3
148.56 81.49 0.65 c p3
148.84 80.45 0.65 c p3
149.12 80.45 0.65 c p3
149.40 79.70 0.65 c p3
149.68 79.93 0.65 c p3
149.96 79.93 0.65 c p3
150.24 78.90 0.65 c p3
150.52 78.67 0.65 c p3
150.80 78.67 0.65 c p3
151.08 79.18 0.65 c p3
216.00 201.60 367.20 247.68 cl
0 0 0 srgb
0.75 setlinewidth
[] 0 setdash
1 setlinecap
1 setlinejoin
10.00 setmiterlimit
221.60 222.47 0.43 c p1
222.41 227.27 0.43 c p1
223.23 219.07 0.43 c p1
224.04 212.11 0.43 c p1
224.86 216.70 0.43 c p1
225.67 218.98 0.43 c p1
226.48 226.38 0.43 c p1
227.30 228.19 0.43 c p1
228.11 220.89 0.43 c p1
228.93 238.86 0.43 c p1
229.74 227.20 0.43 c p1
230.55 216.01 0.43 c p1
231.37 224.00 0.43 c p1
232.18 217.70 0.43 c p1
233.00 230.28 0.43 c p1
233.81 227.51 0.43 c p1
234.62 229.22 0.43 c p1
235.44 227.70 0.43 c p1
236.25 234.37 0.43 c p1
237.07 228.74 0.43 c p1
237.88 218.20 0.43 c p1
238.69 229.51 0.43 c p1
239.51 236.89 0.43 c p1
240.32 224.51 0.43 c p1
241.13 220.19 0.43 c p1
241.95 224.12 0.43 c p1
242.76 230.76 0.43 c p1
243.58 227.83 0.43 c p1
244.39 223.02 0.43 c p1
245.20 232.36 0.43 c p1
246.02 221.27 0.43 c p1
246.83 217.57 0.43 c p1
247.65 224.97 0.43 c p1
248.46 227.66 0.43 c p1
249.27 233.00 0.43 c p1
250.09 229.13 0.43 c p1
250.90 227.94 0.43 c p1
251.72 219.09 0.43 c p1
252.53 216.70 0.43 c p1
253.34 221.35 0.43 c p1
254.16 229.25 0.43 c p1
254.97 227.51 0.43 c p1
255.79 230.40 0.43 c p1
256.60 222.74 0.43 c p1
257.41 234.46 0.43 c p1
258.23 226.27 0.43 c p1
259.04 218.41 0.43 c p1
259.86 225.05 0.43 c p1
260.67 227.27 0.43 c p1
261.48 234.01 0.43 c p1
262.30 222.84 0.43 c p1
263.11 221.81 0.43 c p1
263.93 220.70 0.43 c p1
264.74 220.80 0.43 c p1
265.55 221.14 0.43 c p1
266.37 223.98 0.43 c p1
267.18 216.73 0.43 c p1
268.00 225.49 0.43 c p1
268.81 230.95 0.43 c p1
269.62 223.46 0.43 c p1
270.44 227.45 0.43 c p1
271.25 221.46 0.43 c p1
272.07 220.83 0.43 c p1
272.88 223.29 0.43 c p1
273.69 226.94 0.43 c p1
274.51 224.81 0.43 c p1
275.32 222.63 0.43 c p1
276.13 230.46 0.43 c p1
276.95 229.39 0.43 c p1
277.76 222.92 0.43 c p1
278.58 217.69 0.43 c p1
279.39 216.46 0.43 c p1
280.20 222.32 0.43 c p1
281.02 229.67 0.43 c p1
281.83 226.99 0.43 c p1
282.65 225.51 0.43 c p1
283.46 225.52 0.43 c p1
284.27 217.16 0.43 c p1
285.09 219.84 0.43 c p1
285.90 221.23 0.43 c p1
286.72 223.79 0.43 c p1
287.53 224.76 0.43 c p1
288.34 221.70 0.43 c p1
289.16 228.39 0.43 c p1
289.97 226.44 0.43 c p1
290.79 219.28 0.43 c p1
291.60 218.79 0.43 c p1
292.41 227.99 0.43 c p1
293.23 217.68 0.43 c p1
294.04 226.76 0.43 c p1
294.86 224.56 0.43 c p1
295.67 223.85 0.43 c p1
296.48 221.88 0.43 c p1
297.30 219.59 0.43 c p1
298.11 217.56 0.43 c p1
298.93 230.25 0.43 c p1
299.74 230.54 0.43 c p1
300.55 216.06 0.43 c p1
301.37 224.68 0.43 c p1
302.18 222.16 0.43 c p1
303.00 222.61 0.43 c p1
303.81 221.53 0.43 c p1
304.62 218.93 0.43 c p1
305.44 219.28 0.43 c p1
306.25 221.98 0.43 c p1
307.07 227.63 0.43 c p1
307.88 229.07 0.43 c p1
308.69 227.80 0.43 c p1
309.51 216.99 0.43 c p1
310.32 215.67 0.43 c p1
311.13 225.00 0.43 c p1
311.95 225.10 0.43 c p1
312.76 226.37 0.43 c p1
313.58 224.93 0.43 c p1
314.39 228.81 0.43 c p1
315.20 232.67 0.43 c p1
316.02 221.67 0.43 c p1
316.83 225.47 0.43 c p1
317.65 222.73 0.43 c p1
318.46 225.00 0.43 c p1
319.27 224.87 0.43 c p1
320.09 225.91 0.43 c p1
320.90 221.62 0.43 c p1
321.72 227.91 0.43 c p1
322.53 222.40 0.43 c p1
323.34 220.71 0.43 c p1
324.16 216.36 0.43 c p1
324.97 225.19 0.43 c p1
325.79 229.90 0.43 c p1
326.60 226.94 0.43 c p1
327.41 222.51 0.43 c p1
328.23 221.87 0.43 c p1
329.04 230.61 0.43 c p1
329.86 227.58 0.43 c p1
330.67 217.83 0.43 c p1
331.48 221.22 0.43 c p1
332.30 228.40 0.43 c p1
333.11 226.49 0.43 c p1
333.93 224.57 0.43 c p1
334.74 230.53 0.43 c p1
335.55 228.57 0.43 c p1
336.37 229.24 0.43 c p1
337.18 223.47 0.43 c p1
338.00 222.65 0.43 c p1
338.81 216.87 0.43 c p1
339.62 222.71 0.43 c p1
340.44 224.47 0.43 c p1
341.25 230.31 0.43 c p1
342.07 230.88 0.43 c p1
342.88 231.43 0.43 c p1
343.69 234.61 0.43 c p1
344.51 222.03 0.43 c p1
345.32 217.33 0.43 c p1
346.13 223.06 0.43 c p1
346.95 222.40 0.43 c p1
347.76 225.50 0.43 c p1
348.58 227.14 0.43 c p1
349.39 230.23 0.43 c p1
350.20 230.68 0.43 c p1
351.02 225.90 0.43 c p1
351.83 223.72 0.43 c p1
352.65 222.99 0.43 c p1
353.46 224.57 0.43 c p1
354.27 232.82 0.43 c p1
355.09 227.99 0.43 c p1
355.90 228.38 0.43 c p1
356.72 224.99 0.43 c p1
357.53 226.53 0.43 c p1
358.34 226.90 0.43 c p1
359.16 222.04 0.43 c p1
359.97 221.24 0.43 c p1
360.79 221.58 0.43 c p1
361.60 224.52 0.43 c p1
0.00 0.00 432.00 576.00 cl
0 0 0 srgb
0.75 setlinewidth
[] 0 setdash
1 setlinecap
1 setlinejoin
10.00 setmiterlimit
np
233.27 201.60 m
108.52 0 l
o
np
233.27 201.60 m
0 -5.76 l
o
np
260.40 201.60 m
0 -5.76 l
o
np
287.53 201.60 m
0 -5.76 l
o
np
314.66 201.60 m
0 -5.76 l
o
np
341.79 201.60 m
0 -5.76 l
o
/Font1 findfont 6 s
233.27 185.47 (100) .5 0 t
260.40 185.47 (200) .5 0 t
287.53 185.47 (300) .5 0 t
314.66 185.47 (400) .5 0 t
341.79 185.47 (500) .5 0 t
np
216.00 202.03 m
0 45.22 l
o
np
216.00 202.03 m
-5.76 0 l
o
np
216.00 209.57 m
-5.76 0 l
o
np
216.00 217.10 m
-5.76 0 l
o
np
216.00 224.64 m
-5.76 0 l
o
np
216.00 232.18 m
-5.76 0 l
o
np
216.00 239.71 m
-5.76 0 l
o
np
216.00 247.25 m
-5.76 0 l
o
209.09 199.87 (-0.006) 1 0 t
209.09 207.41 (-0.004) 1 0 t
209.09 214.95 (-0.002) 1 0 t
209.09 222.49 (0.000) 1 0 t
209.09 230.02 (0.002) 1 0 t
209.09 237.56 (0.004) 1 0 t
209.09 245.10 (0.006) 1 0 t
np
216.00 201.60 m
151.20 0 l
0 46.08 l
-151.20 0 l
0 -46.08 l
o
0.00 0.00 432.00 576.00 cl
/Font1 findfont 9 s
0 0 0 srgb
291.60 262.88 (Residuen) .5 0 t
59.04 73.44 401.76 516.96 cl
ep
%%Trailer
%%Pages: 1
%%EOF
