%!PS-Adobe-3.0 EPSF-3.0
%%DocumentNeededResources: font Helvetica
%%+ font Helvetica-Bold
%%+ font Helvetica-Oblique
%%+ font Helvetica-BoldOblique
%%+ font Symbol
%%Title: R Graphics Output
%%Creator: R Software
%%Pages: (atend)
%%BoundingBox: 0 0 432 576
%%EndComments
%%BeginProlog
/bp  { gs sRGB gs } def
% begin .ps.prolog
/gs  { gsave } bind def
/gr  { grestore } bind def
/ep  { showpage gr gr } bind def
/m   { moveto } bind def
/l  { rlineto } bind def
/np  { newpath } bind def
/cp  { closepath } bind def
/f   { fill } bind def
/o   { stroke } bind def
/c   { newpath 0 360 arc } bind def
/r   { 4 2 roll moveto 1 copy 3 -1 roll exch 0 exch rlineto 0 rlineto -1 mul 0 exch rlineto closepath } bind def
/p1  { stroke } bind def
/p2  { gsave bg fill grestore newpath } bind def
/p3  { gsave bg fill grestore stroke } bind def
/p6  { gsave bg eofill grestore newpath } bind def
/p7  { gsave bg eofill grestore stroke } bind def
/t   { 5 -2 roll moveto gsave rotate
       1 index stringwidth pop
       mul neg 0 rmoveto show grestore } bind def
/ta  { 4 -2 roll moveto gsave rotate show } bind def
/tb  { 2 -1 roll 0 rmoveto show } bind def
/cl  { grestore gsave newpath 3 index 3 index moveto 1 index
       4 -1 roll lineto  exch 1 index lineto lineto
       closepath clip newpath } bind def
/rgb { setrgbcolor } bind def
/s   { scalefont setfont } bind def
% end   .ps.prolog
/sRGB { [ /CIEBasedABC
          << /DecodeLMN
               [ { dup 0.03928 le
                        {12.92321 div}
                        {0.055 add 1.055 div 2.4 exp }
                     ifelse
                 } bind dup dup
               ]
             /MatrixLMN [0.412457 0.212673 0.019334
                         0.357576 0.715152 0.119192
                         0.180437 0.072175 0.950301]
             /WhitePoint [0.9505 1.0 1.0890]
           >>
         ] setcolorspace } bind def
/srgb { setcolor } bind def
%%IncludeResource: font Helvetica
/Helvetica findfont
dup length dict begin
  {1 index /FID ne {def} {pop pop} ifelse} forall
  /Encoding ISOLatin1Encoding def
  currentdict
  end
/Font1 exch definefont pop
%%IncludeResource: font Helvetica-Bold
/Helvetica-Bold findfont
dup length dict begin
  {1 index /FID ne {def} {pop pop} ifelse} forall
  /Encoding ISOLatin1Encoding def
  currentdict
  end
/Font2 exch definefont pop
%%IncludeResource: font Helvetica-Oblique
/Helvetica-Oblique findfont
dup length dict begin
  {1 index /FID ne {def} {pop pop} ifelse} forall
  /Encoding ISOLatin1Encoding def
  currentdict
  end
/Font3 exch definefont pop
%%IncludeResource: font Helvetica-BoldOblique
/Helvetica-BoldOblique findfont
dup length dict begin
  {1 index /FID ne {def} {pop pop} ifelse} forall
  /Encoding ISOLatin1Encoding def
  currentdict
  end
/Font4 exch definefont pop
%%IncludeResource: font Symbol
/Symbol findfont
dup length dict begin
  {1 index /FID ne {def} {pop pop} ifelse} forall
  currentdict
  end
/Font5 exch definefont pop
%%EndProlog
%%Page: 1 1
bp
0.00 0.00 432.00 576.00 cl
0.00 0.00 432.00 576.00 cl
0.00 0.00 432.00 576.00 cl
/Font1 findfont 12 s
0 0 0 srgb
48.00 508.72 (PCP-ETH) 0 0 t
48.00 494.89 (Blitzlicht-Photolyse) 0 0 t
/Font1 findfont 9 s
48.00 457.54 (File: V) 0 ta
-0.720 (er) tb
0.135 (ification_900V_toluene_1.dat) tb gr
48.00 334.87 (T) 0 ta
-1.080 (ue Apr  9 22:10:06 2019) tb gr
48.00 430.87 (Fitfunktion:  a + b * e) 0 ta
-0.270 (xp\(-c * t\)) tb gr
48.00 420.50 (t-Inter) 0 ta
0.270 (v) tb
-0.225 (all: 51.000 ... 525.000 ms) tb gr
48.00 410.14 (P) 0 ta
-0.360 (ar) tb
-0.090 (ameter \(Standardabw) tb
-0.090 (eichung\):) tb gr
48.00 399.77 (  a = 0.01132 \(0.00027\)) 0 0 t
48.00 389.40 (  b = 0.24935 \(0.00087\)) 0 0 t
48.00 379.03 (  c = 7.590e+00 \(4.579e-02\) s^-1) 0 0 t
48.00 368.66 (  tau = 1.317e-01 \(7.948e-04\) s) 0 0 t
216.00 345.60 388.80 518.40 cl
0 0 0 srgb
0.75 setlinewidth
[] 0 setdash
1 setlinecap
1 setlinejoin
10.00 setmiterlimit
np
222.40 511.27 m
0.15 0 l
0.14 0.25 l
0.15 0 l
0.14 -0.84 l
0.15 0.73 l
0.14 -0.49 l
0.15 0.35 l
0.14 0.25 l
0.15 -0.11 l
0.15 -0.62 l
0.14 0.24 l
0.15 0 l
0.14 0.49 l
0.15 0.24 l
0.14 -0.59 l
0.15 0.59 l
0.14 -0.84 l
0.15 0.49 l
0.15 -0.38 l
0.14 0.14 l
0.15 0.10 l
0.14 -0.48 l
0.15 0.24 l
0.14 -0.24 l
0.15 0.48 l
0.15 0.38 l
0.14 0 l
0.15 -0.48 l
0.14 0.35 l
0.15 0 l
0.14 0.13 l
0.15 -0.73 l
0.14 0.11 l
0.15 0.49 l
0.15 0.13 l
0.14 -0.62 l
0.15 0 l
0.14 -0.24 l
0.15 0.38 l
0.14 0.35 l
0.15 -0.35 l
0.14 0.10 l
0.15 0.25 l
0.15 -0.25 l
0.14 -0.35 l
0.15 0.60 l
0.14 0.35 l
0.15 -0.35 l
0.14 -0.35 l
0.15 -0.14 l
0.14 0 l
0.15 0.49 l
0.15 -0.11 l
0.14 0.11 l
0.15 0 l
0.14 0.13 l
0.15 -0.48 l
0.14 0.35 l
0.15 0.48 l
0.15 -0.59 l
0.14 0.24 l
0.15 0 l
0.14 -0.13 l
0.15 -0.25 l
0.14 0 l
0.15 -0.10 l
0.14 -0.25 l
0.15 0.49 l
0.15 -0.14 l
0.14 -0.48 l
0.15 -0.24 l
0.14 0.86 l
0.15 -0.49 l
0.14 0.95 l
0.15 -0.95 l
0.14 0.95 l
0.15 -0.84 l
0.15 -0.24 l
0.14 0.86 l
0.15 -0.13 l
0.14 -0.25 l
0.15 0 l
0.14 -0.24 l
0.15 0.38 l
0.14 0.24 l
0.15 -0.38 l
0.15 0 l
0.14 0 l
0.15 -0.24 l
0.14 -0.11 l
0.15 0.25 l
0.14 0 l
0.15 0.10 l
0.15 -0.24 l
0.14 0.49 l
0.15 0 l
0.14 -0.35 l
0.15 0.48 l
0.14 -0.48 l
236.96 438.53 lineto
0.14 2.89 l
0.15 2.30 l
0.15 0.97 l
0.14 1.81 l
0.15 1.45 l
0.14 0 l
0.15 1.59 l
0.14 0.46 l
0.15 0.97 l
0.14 1.34 l
0.15 0.60 l
0.15 0.96 l
0.14 0.87 l
0.15 0.83 l
0.14 1.94 l
0.15 -0.38 l
0.14 0.73 l
0.15 1.21 l
0.14 1.32 l
0.15 1.59 l
0.15 0 l
0.14 0.35 l
0.15 1.10 l
0.14 0.11 l
0.15 0.86 l
0.14 1.56 l
0.15 1.32 l
0.15 -0.11 l
0.14 0.73 l
0.15 0.35 l
0.14 1.45 l
0.15 0.62 l
0.14 0.35 l
0.15 0.73 l
0.14 1.21 l
0.15 0.49 l
0.15 0.48 l
0.14 0.84 l
0.15 0.72 l
0.14 0.14 l
0.15 1.07 l
0.14 0.60 l
0.15 0 l
0.14 1.34 l
0.15 0.60 l
0.15 0 l
0.14 1.83 l
0.15 -0.73 l
0.14 1.43 l
0.15 0.24 l
0.14 0.24 l
0.15 0.97 l
0.14 0.86 l
0.15 -0.24 l
0.15 0.83 l
0.14 0 l
0.15 0.62 l
0.14 0.25 l
0.15 0.72 l
0.14 0.59 l
0.15 0.84 l
0.15 0.24 l
0.14 0 l
0.15 0.86 l
0.14 0.25 l
0.15 0.48 l
0.14 0.35 l
0.15 0.13 l
0.14 1.32 l
0.15 -0.48 l
0.15 0.48 l
0.14 0.35 l
0.15 0 l
0.14 0.49 l
0.15 0.86 l
0.14 0.35 l
0.15 -0.24 l
0.14 0.97 l
0.15 -0.49 l
0.15 0.62 l
0.14 0.59 l
0.15 -0.10 l
0.14 -0.25 l
0.15 1.21 l
0.14 -0.37 l
0.15 0.62 l
0.14 0.10 l
0.15 0.49 l
0.15 -0.24 l
0.14 0.24 l
0.15 0.73 l
0.14 0 l
0.15 0.10 l
0.14 0.62 l
0.15 -0.37 l
0.15 0.37 l
0.14 0.25 l
0.15 0.24 l
0.14 0.83 l
251.52 498.59 lineto
0.14 0.35 l
0.15 -0.11 l
0.14 -0.13 l
0.15 0.48 l
0.15 0.73 l
0.14 0.97 l
0.15 -0.73 l
0.14 -0.48 l
0.15 0.38 l
0.14 -0.14 l
0.15 0.14 l
0.14 0.59 l
0.15 -0.11 l
0.15 0.73 l
0.14 0 l
0.15 -0.24 l
0.14 0.10 l
0.15 0 l
0.14 0.14 l
0.15 0.35 l
0.14 0.83 l
0.15 0 l
0.15 -1.07 l
0.14 0.35 l
0.15 0.37 l
0.14 0.11 l
0.15 0.24 l
0.14 0 l
0.15 0.24 l
0.14 -0.24 l
0.15 0.73 l
0.15 -0.11 l
0.14 0 l
0.15 -0.24 l
0.14 0.11 l
0.15 0.13 l
0.14 -0.13 l
0.15 0.48 l
0.15 -0.48 l
0.14 0.97 l
0.15 -0.35 l
0.14 0 l
0.15 0.10 l
0.14 0.14 l
0.15 0.48 l
0.14 0.11 l
0.15 -0.24 l
0.15 0.24 l
0.14 0 l
0.15 -0.35 l
0.14 0.24 l
0.15 -0.37 l
0.14 1.58 l
0.15 -0.37 l
0.14 -0.35 l
0.15 -0.14 l
0.15 0.14 l
0.14 -0.14 l
0.15 -0.35 l
0.14 0.73 l
0.15 0.73 l
0.14 -0.49 l
0.15 -0.24 l
0.14 -0.13 l
0.15 0.13 l
0.15 0.24 l
0.14 0.11 l
0.15 0.38 l
0.14 0 l
0.15 -0.49 l
0.14 -0.37 l
0.15 0.61 l
0.15 -0.48 l
0.14 0.11 l
0.15 0.97 l
0.14 0 l
0.15 -0.35 l
0.14 -0.62 l
0.15 0.97 l
0.14 -0.25 l
0.15 0 l
0.15 0.14 l
0.14 -0.14 l
0.15 0.49 l
0.14 -0.35 l
0.15 0 l
0.14 0.11 l
0.15 0 l
0.14 0 l
0.15 -0.25 l
0.15 0.14 l
0.14 0.59 l
0.15 -0.11 l
0.14 -0.62 l
0.15 0.62 l
0.14 -0.72 l
0.15 0.59 l
0.14 0 l
0.15 0.13 l
266.08 506.21 lineto
0.14 -0.24 l
0.15 0.24 l
0.14 -0.24 l
0.15 -0.24 l
0.14 0.59 l
0.15 0.35 l
0.15 -0.35 l
0.14 -0.24 l
0.15 0.37 l
0.14 -0.13 l
0.15 0.24 l
0.14 0.49 l
0.15 -0.25 l
0.14 -0.24 l
0.15 0.49 l
0.15 -0.25 l
0.14 -0.48 l
0.15 0 l
0.14 1.08 l
0.15 -0.35 l
0.14 -0.25 l
0.15 -0.35 l
0.14 0.22 l
0.15 -0.35 l
0.15 0.73 l
0.14 0.24 l
0.15 0.11 l
0.14 -0.25 l
0.15 -0.48 l
0.14 -0.22 l
0.15 0.35 l
0.14 0.25 l
0.15 0.10 l
0.15 -0.10 l
0.14 -0.49 l
0.15 0.11 l
0.14 -0.22 l
0.15 0.70 l
0.14 0.14 l
0.15 -0.62 l
0.15 0.24 l
0.14 -0.11 l
0.15 0.11 l
0.14 0.38 l
0.15 0.24 l
0.14 -0.24 l
0.15 -0.24 l
0.14 0.10 l
0.15 -0.10 l
0.15 -0.73 l
0.14 0.48 l
0.15 0.49 l
0.14 -0.14 l
0.15 0.25 l
0.14 -0.11 l
0.15 -0.24 l
0.14 0.48 l
0.15 -0.24 l
0.15 -0.24 l
0.14 -0.25 l
0.15 0.11 l
0.14 0.62 l
0.15 -0.13 l
0.14 0.13 l
0.15 0.11 l
0.14 -0.49 l
0.15 0.14 l
0.15 -0.14 l
0.14 0.62 l
0.15 -0.37 l
0.14 -0.35 l
0.15 0 l
0.14 0.24 l
0.15 -0.14 l
0.15 0.49 l
0.14 -0.35 l
0.15 0.11 l
0.14 0 l
0.15 0 l
0.14 0 l
0.15 0.37 l
0.14 0.11 l
0.15 -0.59 l
0.15 0.48 l
0.14 -0.48 l
0.15 0 l
0.14 0.48 l
0.15 0.25 l
0.14 -0.49 l
0.15 -0.24 l
0.14 0.11 l
0.15 0.13 l
0.15 0.11 l
0.14 0.24 l
0.15 0.49 l
0.14 -1.46 l
0.15 -0.11 l
0.14 0.11 l
0.15 0.86 l
280.63 507.40 lineto
0.15 0.24 l
0.15 0 l
0.14 -0.11 l
0.15 -0.38 l
0.14 0 l
0.15 0 l
0.14 0.62 l
0.15 0.25 l
0.15 0 l
0.14 -0.49 l
0.15 0.24 l
0.14 -0.24 l
0.15 0.24 l
0.14 0.25 l
0.15 0.10 l
0.14 -0.72 l
0.15 0 l
0.15 -0.49 l
0.14 0.73 l
0.15 0.48 l
0.14 -0.35 l
0.15 -0.13 l
0.14 -0.11 l
0.15 0.24 l
0.14 0 l
0.15 -0.13 l
0.15 0.13 l
0.14 0.73 l
0.15 -0.62 l
0.14 0 l
0.15 -0.35 l
0.14 0.35 l
0.15 0.38 l
0.14 0.35 l
0.15 -0.73 l
0.15 0.38 l
0.14 -0.38 l
0.15 0 l
0.14 0.14 l
0.15 -0.14 l
0.14 0.14 l
0.15 0.48 l
0.14 -0.24 l
0.15 -0.49 l
0.15 0.25 l
0.14 -0.14 l
0.15 0.24 l
0.14 -0.72 l
0.15 0.37 l
0.14 0.49 l
0.15 -0.62 l
0.15 0.38 l
0.14 -0.14 l
0.15 0.24 l
0.14 0.38 l
0.15 -0.48 l
0.14 0.10 l
0.15 -0.10 l
0.14 0.10 l
0.15 0.38 l
0.15 -0.86 l
0.14 0.62 l
0.15 -0.24 l
0.14 0.35 l
0.15 -0.25 l
0.14 0.49 l
0.15 -0.35 l
0.14 -0.62 l
0.15 0.62 l
0.15 0 l
0.14 -0.14 l
0.15 0.25 l
0.14 -0.60 l
0.15 0.35 l
0.14 -0.10 l
0.15 -0.14 l
0.14 0 l
0.15 0.14 l
0.15 0.48 l
0.14 0.48 l
0.15 -0.72 l
0.14 -0.14 l
0.15 -0.24 l
0.14 0 l
0.15 0.49 l
0.15 0.37 l
0.14 -0.62 l
0.15 0.14 l
0.14 -0.24 l
0.15 0.24 l
0.14 0.35 l
0.15 -0.35 l
0.14 0.72 l
0.15 -0.72 l
0.15 -0.38 l
0.14 -0.35 l
0.15 0.59 l
0.14 0.49 l
0.15 -0.59 l
295.19 508.74 lineto
0.15 -0.48 l
0.14 0.24 l
0.15 -0.13 l
0.15 -0.84 l
0.14 0.73 l
0.15 0.35 l
0.14 0.24 l
0.15 -0.11 l
0.14 -0.62 l
0.15 0.14 l
0.14 -0.38 l
0.15 0.86 l
0.15 -0.24 l
0.14 -0.38 l
0.15 0.25 l
0.14 0 l
0.15 0 l
0.14 -0.25 l
0.15 0 l
0.15 0.49 l
0.14 -0.35 l
0.15 0 l
0.14 -0.24 l
0.15 0.10 l
0.14 -0.10 l
0.15 0.24 l
0.14 0.35 l
0.15 -0.24 l
0.15 0 l
0.14 -0.49 l
0.15 1.10 l
0.14 -0.86 l
0.15 0.49 l
0.14 0.13 l
0.15 -0.48 l
0.14 0.35 l
0.15 -0.11 l
0.15 -0.38 l
0.14 0.62 l
0.15 0 l
0.14 0.11 l
0.15 -0.35 l
0.14 0.11 l
0.15 -0.24 l
0.14 -0.25 l
0.15 0.62 l
0.15 -0.48 l
0.14 0.35 l
0.15 -0.11 l
0.14 -0.24 l
0.15 0.11 l
0.14 0.61 l
0.15 -0.61 l
0.15 0.37 l
0.14 -0.13 l
0.15 -0.11 l
0.14 -0.62 l
0.15 0.62 l
0.14 0.35 l
0.15 -0.11 l
0.14 -0.48 l
0.15 0 l
0.15 0.11 l
0.14 0.48 l
0.15 -0.83 l
0.14 0.72 l
0.15 0.24 l
0.14 0.11 l
0.15 -0.59 l
0.14 0 l
0.15 -0.38 l
0.15 0.86 l
0.14 -0.72 l
0.15 0.48 l
0.14 -0.48 l
0.15 0.35 l
0.14 -0.35 l
0.15 0.24 l
0.14 0.48 l
0.15 -0.37 l
0.15 0.13 l
0.14 0.11 l
0.15 -0.73 l
0.14 0.38 l
0.15 0 l
0.14 0.48 l
0.15 0 l
0.15 0 l
0.14 0 l
0.15 -0.24 l
0.14 0 l
0.15 0.11 l
0.14 0 l
0.15 -0.24 l
0.14 0 l
0.15 0.24 l
0.15 -0.48 l
0.14 -0.25 l
0.15 1.11 l
309.75 509.33 lineto
0.15 -0.48 l
0.14 0.13 l
0.15 -1.10 l
0.14 0.86 l
0.15 0.24 l
0.15 0 l
0.14 -0.86 l
0.15 0.49 l
0.14 0.72 l
0.15 -0.48 l
0.14 -0.73 l
0.15 0.62 l
0.14 0 l
0.15 0.59 l
0.15 -0.24 l
0.14 -0.97 l
0.15 0.38 l
0.14 0.35 l
0.15 0 l
0.14 0.62 l
0.15 -0.97 l
0.15 -0.38 l
0.14 0.73 l
0.15 -0.35 l
0.14 0.35 l
0.15 -0.35 l
0.14 0.83 l
0.15 -0.24 l
0.14 0 l
0.15 -0.72 l
0.15 -0.11 l
0.14 0.83 l
0.15 0.38 l
0.14 -0.62 l
0.15 -0.35 l
0.14 0.35 l
0.15 -0.24 l
0.14 -0.11 l
0.15 0.73 l
0.15 -0.25 l
0.14 0.11 l
0.15 -0.11 l
0.14 0.25 l
0.15 -0.86 l
0.14 0.86 l
0.15 -0.14 l
0.14 -0.48 l
0.15 0.24 l
0.15 -0.35 l
0.14 0.35 l
0.15 0.13 l
0.14 0.35 l
0.15 -0.48 l
0.14 0 l
0.15 0.86 l
0.15 -0.86 l
0.14 0 l
0.15 -0.48 l
0.14 0.61 l
0.15 -0.13 l
0.14 0.13 l
0.15 0.11 l
0.14 -0.72 l
0.15 0.13 l
0.15 0.24 l
0.14 0.73 l
0.15 -0.73 l
0.14 0.35 l
0.15 0 l
0.14 -0.48 l
0.15 0.62 l
0.14 -0.73 l
0.15 0.59 l
0.15 0.14 l
0.14 -0.25 l
0.15 0.49 l
0.14 -0.97 l
0.15 0 l
0.14 0 l
0.15 -0.13 l
0.14 0.61 l
0.15 -0.13 l
0.15 0 l
0.14 0.38 l
0.15 -0.14 l
0.14 0.24 l
0.15 -0.35 l
0.14 -0.24 l
0.15 -0.13 l
0.14 0 l
0.15 0.13 l
0.15 0.11 l
0.14 0.38 l
0.15 0.24 l
0.14 -0.24 l
0.15 -0.49 l
0.14 0.35 l
0.15 -0.11 l
0.15 -0.13 l
324.31 509.47 lineto
0.15 -0.24 l
0.14 -0.25 l
0.15 -0.13 l
0.14 -0.48 l
0.15 -0.11 l
0.14 1.07 l
0.15 -0.48 l
0.15 0.48 l
0.14 -0.35 l
0.15 -0.86 l
0.14 1.11 l
0.15 -0.14 l
0.14 0 l
0.15 -0.24 l
0.14 -0.11 l
0.15 0.35 l
0.15 -0.11 l
0.14 0 l
0.15 0.60 l
0.14 0.13 l
0.15 -0.97 l
0.14 0.84 l
0.15 -0.84 l
0.14 0 l
0.15 -0.13 l
0.15 0.62 l
0.14 0 l
0.15 0.10 l
0.14 -0.48 l
0.15 -0.24 l
0.14 0.86 l
0.15 0 l
0.15 -0.49 l
0.14 0.35 l
0.15 0 l
0.14 -0.35 l
0.15 0.35 l
0.14 -0.35 l
0.15 0.49 l
0.14 -0.24 l
0.15 0.10 l
0.15 0 l
0.14 -0.24 l
0.15 0.38 l
0.14 -0.62 l
0.15 0.24 l
0.14 0 l
0.15 0.24 l
0.14 -0.35 l
0.15 -0.13 l
0.15 0.24 l
0.14 0.24 l
0.15 -0.35 l
0.14 0.35 l
0.15 -0.24 l
0.14 0.38 l
0.15 -0.38 l
0.14 0.14 l
0.15 -0.25 l
0.15 0.35 l
0.14 0.14 l
0.15 -0.38 l
0.14 -0.59 l
0.15 0.48 l
0.14 0 l
0.15 0.49 l
0.15 0.11 l
0.14 -0.73 l
0.15 0.38 l
0.14 -0.14 l
0.15 0.49 l
0.14 -0.25 l
0.15 -0.10 l
0.14 -0.38 l
0.15 0.62 l
0.15 0.24 l
0.14 -0.86 l
0.15 0.48 l
0.14 -0.48 l
0.15 0.38 l
0.14 0.35 l
0.15 -0.11 l
0.14 -0.49 l
0.15 0.25 l
0.15 -0.38 l
0.14 0.62 l
0.15 0 l
0.14 -0.24 l
0.15 -0.14 l
0.14 -0.35 l
0.15 0.73 l
0.14 0.35 l
0.15 -0.35 l
0.15 0 l
0.14 0.24 l
0.15 -0.73 l
0.14 0 l
0.15 -0.24 l
0.14 1.21 l
338.87 509.23 lineto
0.15 0.48 l
0.14 0.35 l
0.15 -0.73 l
0.14 -0.10 l
0.15 0 l
0.14 0.72 l
0.15 -0.24 l
0.14 -0.38 l
0.15 -0.48 l
0.15 0.62 l
0.14 -0.49 l
0.15 0.49 l
0.14 -0.24 l
0.15 0.48 l
0.14 0.24 l
0.15 -0.24 l
0.14 -0.13 l
0.15 -0.25 l
0.15 0.25 l
0.14 -0.11 l
0.15 0 l
0.14 0.24 l
0.15 -0.24 l
0.14 -0.38 l
0.15 0.24 l
0.14 0 l
0.15 0.62 l
0.15 -0.62 l
0.14 0 l
0.15 -0.35 l
0.14 0.35 l
0.15 -0.10 l
0.14 0 l
0.15 0.83 l
0.15 -0.24 l
0.14 -0.11 l
0.15 -0.13 l
0.14 -0.11 l
0.15 0.24 l
0.14 0 l
0.15 -0.13 l
0.14 -0.60 l
0.15 0.25 l
0.15 0.35 l
0.14 0.37 l
0.15 0.25 l
0.14 -0.87 l
0.15 0.14 l
0.14 -0.14 l
0.15 0.14 l
0.14 0.24 l
0.15 0 l
0.15 0.11 l
0.14 -0.49 l
0.15 0.14 l
0.14 0.24 l
0.15 -0.62 l
0.14 0.24 l
0.15 -0.10 l
0.14 0.59 l
0.15 0.38 l
0.15 -0.49 l
0.14 0.49 l
0.15 -0.73 l
0.14 0.35 l
0.15 0.38 l
0.14 -0.62 l
0.15 0.24 l
0.15 -0.59 l
0.14 0.24 l
0.15 0 l
0.14 0.35 l
0.15 0.24 l
0.14 -0.48 l
0.15 0.13 l
0.14 0.24 l
0.15 -0.48 l
0.15 -0.24 l
0.14 0.10 l
0.15 0.73 l
0.14 0.24 l
0.15 -0.59 l
0.14 -0.38 l
0.15 -0.10 l
0.14 0.10 l
0.15 0.73 l
0.15 -0.73 l
0.14 0.38 l
0.15 0.11 l
0.14 -0.35 l
0.15 0.59 l
0.14 -0.24 l
0.15 -0.24 l
0.14 0.62 l
0.15 -0.62 l
0.15 0.37 l
0.14 -0.48 l
0.15 0 l
0.14 -0.14 l
353.43 509.82 lineto
0.14 -0.24 l
0.15 -0.25 l
0.14 0.62 l
0.15 -0.37 l
0.15 0.13 l
0.14 0.73 l
0.15 -0.49 l
0.14 -0.13 l
0.15 0.38 l
0.14 -0.49 l
0.15 0.11 l
0.15 -0.59 l
0.14 0.48 l
0.15 0.59 l
0.14 -0.72 l
0.15 -0.35 l
0.14 0.10 l
0.15 0 l
0.14 0.62 l
0.15 0 l
0.15 -0.24 l
0.14 0 l
0.15 -0.24 l
0.14 0.48 l
0.15 -0.48 l
0.14 0.24 l
0.15 0.11 l
0.14 0.38 l
0.15 -0.97 l
0.15 0.97 l
0.14 0 l
0.15 -0.25 l
0.14 0.11 l
0.15 0 l
0.14 -0.24 l
0.15 0 l
0.14 0 l
0.15 -0.35 l
0.15 0.59 l
0.14 -0.48 l
0.15 0.97 l
0.14 0 l
0.15 -0.97 l
0.14 0 l
0.15 0.13 l
0.15 0 l
0.14 -0.24 l
0.15 0.48 l
0.14 -0.24 l
0.15 0.24 l
0.14 -0.24 l
0.15 -0.13 l
0.14 0.62 l
0.15 -0.14 l
0.15 -0.11 l
0.14 0 l
0.15 -0.97 l
0.14 0.97 l
0.15 0.11 l
0.14 0.14 l
0.15 -0.25 l
0.14 0 l
0.15 0 l
0.15 -0.13 l
0.14 0 l
0.15 0.48 l
0.14 -0.97 l
0.15 0.97 l
0.14 -0.48 l
0.15 0.13 l
0.14 0 l
0.15 -0.72 l
0.15 0.48 l
0.14 0.24 l
0.15 0.25 l
0.14 -0.14 l
0.15 -0.73 l
0.14 0.14 l
0.15 0.24 l
0.15 0.24 l
0.14 0.25 l
0.15 -0.14 l
0.14 -0.48 l
0.15 0.37 l
0.14 0 l
0.15 0.25 l
0.14 0 l
0.15 -0.14 l
0.15 0.14 l
0.14 -0.14 l
0.15 -0.24 l
0.14 -0.11 l
0.15 0.59 l
0.14 0.73 l
0.15 -0.83 l
0.14 0.10 l
0.15 -0.97 l
0.15 0.73 l
0.14 0.24 l
currentpoint o m
367.99 510.44 lineto
0.14 0 l
0.15 -0.49 l
0.14 0.25 l
0.15 -0.38 l
0.14 -0.35 l
0.15 0.73 l
0.15 -0.38 l
0.14 0 l
0.15 0.13 l
0.14 0.25 l
0.15 0.35 l
0.14 -0.73 l
0.15 0.13 l
0.15 0.60 l
0.14 -0.49 l
0.15 0 l
0.14 -0.59 l
0.15 0.35 l
0.14 0.38 l
0.15 0.10 l
0.14 -0.59 l
0.15 0.49 l
0.15 -0.25 l
0.14 0.35 l
0.15 0 l
0.14 -0.35 l
0.15 0.11 l
0.14 0.49 l
0.15 -0.11 l
0.14 -0.24 l
0.15 0 l
0.15 -0.49 l
0.14 0.73 l
0.15 0 l
0.14 0.11 l
0.15 -0.73 l
0.14 0.24 l
0.15 0 l
0.14 0 l
0.15 0 l
0.15 0.38 l
0.14 -0.38 l
0.15 -0.35 l
0.14 0.49 l
0.15 0 l
0.14 0.10 l
0.15 0.14 l
0.15 -0.14 l
0.14 -0.10 l
0.15 0.10 l
0.14 -0.35 l
0.15 0.25 l
0.14 0.10 l
0.15 -0.10 l
0.14 0 l
0.15 0.24 l
0.15 -0.62 l
0.14 0.13 l
0.15 -0.13 l
0.14 0.24 l
0.15 0.24 l
0.14 0.14 l
0.15 -0.49 l
0.14 0.25 l
0.15 0 l
0.15 -0.25 l
0.14 0.60 l
0.15 -0.35 l
0.14 -0.38 l
0.15 1.10 l
0.14 -0.48 l
0.15 -0.38 l
0.14 0.73 l
0.15 -0.73 l
0.15 -0.24 l
0.14 0.48 l
0.15 -0.72 l
0.14 0.62 l
0.15 0.35 l
0.14 -0.35 l
0.15 0.24 l
0.15 -0.97 l
0.14 0.35 l
0.15 0.62 l
0.14 -0.49 l
0.15 0.11 l
0.14 0.38 l
0.15 -0.24 l
0.14 0.59 l
0.15 -0.84 l
0.15 0.60 l
0.14 0 l
0.15 -0.25 l
0.14 0.38 l
0.15 -0.13 l
0.14 -0.97 l
0.15 0.62 l
0.14 -0.25 l
0.15 0 l
o
/bg { 1 1 1 srgb } def
222.40 511.27 0.43 c p3
222.55 511.27 0.43 c p3
222.69 511.52 0.43 c p3
222.84 511.52 0.43 c p3
222.98 510.68 0.43 c p3
223.13 511.41 0.43 c p3
223.27 510.92 0.43 c p3
223.42 511.27 0.43 c p3
223.56 511.52 0.43 c p3
223.71 511.41 0.43 c p3
223.86 510.79 0.43 c p3
224.00 511.03 0.43 c p3
224.15 511.03 0.43 c p3
224.29 511.52 0.43 c p3
224.44 511.76 0.43 c p3
224.58 511.17 0.43 c p3
224.73 511.76 0.43 c p3
224.87 510.92 0.43 c p3
225.02 511.41 0.43 c p3
225.17 511.03 0.43 c p3
225.31 511.17 0.43 c p3
225.46 511.27 0.43 c p3
225.60 510.79 0.43 c p3
225.75 511.03 0.43 c p3
225.89 510.79 0.43 c p3
226.04 511.27 0.43 c p3
226.19 511.65 0.43 c p3
226.33 511.65 0.43 c p3
226.48 511.17 0.43 c p3
226.62 511.52 0.43 c p3
226.77 511.52 0.43 c p3
226.91 511.65 0.43 c p3
227.06 510.92 0.43 c p3
227.20 511.03 0.43 c p3
227.35 511.52 0.43 c p3
227.50 511.65 0.43 c p3
227.64 511.03 0.43 c p3
227.79 511.03 0.43 c p3
227.93 510.79 0.43 c p3
228.08 511.17 0.43 c p3
228.22 511.52 0.43 c p3
228.37 511.17 0.43 c p3
228.51 511.27 0.43 c p3
228.66 511.52 0.43 c p3
228.81 511.27 0.43 c p3
228.95 510.92 0.43 c p3
229.10 511.52 0.43 c p3
229.24 511.87 0.43 c p3
229.39 511.52 0.43 c p3
229.53 511.17 0.43 c p3
229.68 511.03 0.43 c p3
229.82 511.03 0.43 c p3
229.97 511.52 0.43 c p3
230.12 511.41 0.43 c p3
230.26 511.52 0.43 c p3
230.41 511.52 0.43 c p3
230.55 511.65 0.43 c p3
230.70 511.17 0.43 c p3
230.84 511.52 0.43 c p3
230.99 512.00 0.43 c p3
231.14 511.41 0.43 c p3
231.28 511.65 0.43 c p3
231.43 511.65 0.43 c p3
231.57 511.52 0.43 c p3
231.72 511.27 0.43 c p3
231.86 511.27 0.43 c p3
232.01 511.17 0.43 c p3
232.15 510.92 0.43 c p3
232.30 511.41 0.43 c p3
232.45 511.27 0.43 c p3
232.59 510.79 0.43 c p3
232.74 510.55 0.43 c p3
232.88 511.41 0.43 c p3
233.03 510.92 0.43 c p3
233.17 511.87 0.43 c p3
233.32 510.92 0.43 c p3
233.46 511.87 0.43 c p3
233.61 511.03 0.43 c p3
233.76 510.79 0.43 c p3
233.90 511.65 0.43 c p3
234.05 511.52 0.43 c p3
234.19 511.27 0.43 c p3
234.34 511.27 0.43 c p3
234.48 511.03 0.43 c p3
234.63 511.41 0.43 c p3
234.77 511.65 0.43 c p3
234.92 511.27 0.43 c p3
235.07 511.27 0.43 c p3
235.21 511.27 0.43 c p3
235.36 511.03 0.43 c p3
235.50 510.92 0.43 c p3
235.65 511.17 0.43 c p3
235.79 511.17 0.43 c p3
235.94 511.27 0.43 c p3
236.09 511.03 0.43 c p3
236.23 511.52 0.43 c p3
236.38 511.52 0.43 c p3
236.52 511.17 0.43 c p3
236.67 511.65 0.43 c p3
236.81 511.17 0.43 c p3
236.96 438.53 0.43 c p3
237.10 441.42 0.43 c p3
237.25 443.72 0.43 c p3
237.40 444.69 0.43 c p3
237.54 446.50 0.43 c p3
237.69 447.95 0.43 c p3
237.83 447.95 0.43 c p3
237.98 449.54 0.43 c p3
238.12 450.00 0.43 c p3
238.27 450.97 0.43 c p3
238.41 452.31 0.43 c p3
238.56 452.91 0.43 c p3
238.71 453.87 0.43 c p3
238.85 454.74 0.43 c p3
239.00 455.57 0.43 c p3
239.14 457.51 0.43 c p3
239.29 457.13 0.43 c p3
239.43 457.86 0.43 c p3
239.58 459.07 0.43 c p3
239.72 460.39 0.43 c p3
239.87 461.98 0.43 c p3
240.02 461.98 0.43 c p3
240.16 462.33 0.43 c p3
240.31 463.43 0.43 c p3
240.45 463.54 0.43 c p3
240.60 464.40 0.43 c p3
240.74 465.96 0.43 c p3
240.89 467.28 0.43 c p3
241.04 467.17 0.43 c p3
241.18 467.90 0.43 c p3
241.33 468.25 0.43 c p3
241.47 469.70 0.43 c p3
241.62 470.32 0.43 c p3
241.76 470.67 0.43 c p3
241.91 471.40 0.43 c p3
242.05 472.61 0.43 c p3
242.20 473.10 0.43 c p3
242.35 473.58 0.43 c p3
242.49 474.42 0.43 c p3
242.64 475.14 0.43 c p3
242.78 475.28 0.43 c p3
242.93 476.35 0.43 c p3
243.07 476.95 0.43 c p3
243.22 476.95 0.43 c p3
243.36 478.29 0.43 c p3
243.51 478.89 0.43 c p3
243.66 478.89 0.43 c p3
243.80 480.72 0.43 c p3
243.95 479.99 0.43 c p3
244.09 481.42 0.43 c p3
244.24 481.66 0.43 c p3
244.38 481.90 0.43 c p3
244.53 482.87 0.43 c p3
244.67 483.73 0.43 c p3
244.82 483.49 0.43 c p3
244.97 484.32 0.43 c p3
245.11 484.32 0.43 c p3
245.26 484.94 0.43 c p3
245.40 485.19 0.43 c p3
245.55 485.91 0.43 c p3
245.69 486.50 0.43 c p3
245.84 487.34 0.43 c p3
245.99 487.58 0.43 c p3
246.13 487.58 0.43 c p3
246.28 488.44 0.43 c p3
246.42 488.69 0.43 c p3
246.57 489.17 0.43 c p3
246.71 489.52 0.43 c p3
246.86 489.65 0.43 c p3
247.00 490.97 0.43 c p3
247.15 490.49 0.43 c p3
247.30 490.97 0.43 c p3
247.44 491.32 0.43 c p3
247.59 491.32 0.43 c p3
247.73 491.81 0.43 c p3
247.88 492.67 0.43 c p3
248.02 493.02 0.43 c p3
248.17 492.78 0.43 c p3
248.31 493.75 0.43 c p3
248.46 493.26 0.43 c p3
248.61 493.88 0.43 c p3
248.75 494.47 0.43 c p3
248.90 494.37 0.43 c p3
249.04 494.12 0.43 c p3
249.19 495.33 0.43 c p3
249.33 494.96 0.43 c p3
249.48 495.58 0.43 c p3
249.62 495.68 0.43 c p3
249.77 496.17 0.43 c p3
249.92 495.93 0.43 c p3
250.06 496.17 0.43 c p3
250.21 496.90 0.43 c p3
250.35 496.90 0.43 c p3
250.50 497.00 0.43 c p3
250.64 497.62 0.43 c p3
250.79 497.25 0.43 c p3
250.94 497.62 0.43 c p3
251.08 497.87 0.43 c p3
251.23 498.11 0.43 c p3
251.37 498.94 0.43 c p3
251.52 498.59 0.43 c p3
251.66 498.94 0.43 c p3
251.81 498.83 0.43 c p3
251.95 498.70 0.43 c p3
252.10 499.18 0.43 c p3
252.25 499.91 0.43 c p3
252.39 500.88 0.43 c p3
252.54 500.15 0.43 c p3
252.68 499.67 0.43 c p3
252.83 500.05 0.43 c p3
252.97 499.91 0.43 c p3
253.12 500.05 0.43 c p3
253.26 500.64 0.43 c p3
253.41 500.53 0.43 c p3
253.56 501.26 0.43 c p3
253.70 501.26 0.43 c p3
253.85 501.02 0.43 c p3
253.99 501.12 0.43 c p3
254.14 501.12 0.43 c p3
254.28 501.26 0.43 c p3
254.43 501.61 0.43 c p3
254.57 502.44 0.43 c p3
254.72 502.44 0.43 c p3
254.87 501.37 0.43 c p3
255.01 501.72 0.43 c p3
255.16 502.09 0.43 c p3
255.30 502.20 0.43 c p3
255.45 502.44 0.43 c p3
255.59 502.44 0.43 c p3
255.74 502.68 0.43 c p3
255.88 502.44 0.43 c p3
256.03 503.17 0.43 c p3
256.18 503.06 0.43 c p3
256.32 503.06 0.43 c p3
256.47 502.82 0.43 c p3
256.61 502.93 0.43 c p3
256.76 503.06 0.43 c p3
256.90 502.93 0.43 c p3
257.05 503.41 0.43 c p3
257.20 502.93 0.43 c p3
257.34 503.90 0.43 c p3
257.49 503.55 0.43 c p3
257.63 503.55 0.43 c p3
257.78 503.65 0.43 c p3
257.92 503.79 0.43 c p3
258.07 504.27 0.43 c p3
258.21 504.38 0.43 c p3
258.36 504.14 0.43 c p3
258.51 504.38 0.43 c p3
258.65 504.38 0.43 c p3
258.80 504.03 0.43 c p3
258.94 504.27 0.43 c p3
259.09 503.90 0.43 c p3
259.23 505.48 0.43 c p3
259.38 505.11 0.43 c p3
259.52 504.76 0.43 c p3
259.67 504.62 0.43 c p3
259.82 504.76 0.43 c p3
259.96 504.62 0.43 c p3
260.11 504.27 0.43 c p3
260.25 505.00 0.43 c p3
260.40 505.73 0.43 c p3
260.54 505.24 0.43 c p3
260.69 505.00 0.43 c p3
260.83 504.87 0.43 c p3
260.98 505.00 0.43 c p3
261.13 505.24 0.43 c p3
261.27 505.35 0.43 c p3
261.42 505.73 0.43 c p3
261.56 505.73 0.43 c p3
261.71 505.24 0.43 c p3
261.85 504.87 0.43 c p3
262.00 505.48 0.43 c p3
262.15 505.00 0.43 c p3
262.29 505.11 0.43 c p3
262.44 506.08 0.43 c p3
262.58 506.08 0.43 c p3
262.73 505.73 0.43 c p3
262.87 505.11 0.43 c p3
263.02 506.08 0.43 c p3
263.16 505.83 0.43 c p3
263.31 505.83 0.43 c p3
263.46 505.97 0.43 c p3
263.60 505.83 0.43 c p3
263.75 506.32 0.43 c p3
263.89 505.97 0.43 c p3
264.04 505.97 0.43 c p3
264.18 506.08 0.43 c p3
264.33 506.08 0.43 c p3
264.47 506.08 0.43 c p3
264.62 505.83 0.43 c p3
264.77 505.97 0.43 c p3
264.91 506.56 0.43 c p3
265.06 506.45 0.43 c p3
265.20 505.83 0.43 c p3
265.35 506.45 0.43 c p3
265.49 505.73 0.43 c p3
265.64 506.32 0.43 c p3
265.78 506.32 0.43 c p3
265.93 506.45 0.43 c p3
266.08 506.21 0.43 c p3
266.22 505.97 0.43 c p3
266.37 506.21 0.43 c p3
266.51 505.97 0.43 c p3
266.66 505.73 0.43 c p3
266.80 506.32 0.43 c p3
266.95 506.67 0.43 c p3
267.10 506.32 0.43 c p3
267.24 506.08 0.43 c p3
267.39 506.45 0.43 c p3
267.53 506.32 0.43 c p3
267.68 506.56 0.43 c p3
267.82 507.05 0.43 c p3
267.97 506.80 0.43 c p3
268.11 506.56 0.43 c p3
268.26 507.05 0.43 c p3
268.41 506.80 0.43 c p3
268.55 506.32 0.43 c p3
268.70 506.32 0.43 c p3
268.84 507.40 0.43 c p3
268.99 507.05 0.43 c p3
269.13 506.80 0.43 c p3
269.28 506.45 0.43 c p3
269.42 506.67 0.43 c p3
269.57 506.32 0.43 c p3
269.72 507.05 0.43 c p3
269.86 507.29 0.43 c p3
270.01 507.40 0.43 c p3
270.15 507.15 0.43 c p3
270.30 506.67 0.43 c p3
270.44 506.45 0.43 c p3
270.59 506.80 0.43 c p3
270.73 507.05 0.43 c p3
270.88 507.15 0.43 c p3
271.03 507.05 0.43 c p3
271.17 506.56 0.43 c p3
271.32 506.67 0.43 c p3
271.46 506.45 0.43 c p3
271.61 507.15 0.43 c p3
271.75 507.29 0.43 c p3
271.90 506.67 0.43 c p3
272.05 506.91 0.43 c p3
272.19 506.80 0.43 c p3
272.34 506.91 0.43 c p3
272.48 507.29 0.43 c p3
272.63 507.53 0.43 c p3
272.77 507.29 0.43 c p3
272.92 507.05 0.43 c p3
273.06 507.15 0.43 c p3
273.21 507.05 0.43 c p3
273.36 506.32 0.43 c p3
273.50 506.80 0.43 c p3
273.65 507.29 0.43 c p3
273.79 507.15 0.43 c p3
273.94 507.40 0.43 c p3
274.08 507.29 0.43 c p3
274.23 507.05 0.43 c p3
274.37 507.53 0.43 c p3
274.52 507.29 0.43 c p3
274.67 507.05 0.43 c p3
274.81 506.80 0.43 c p3
274.96 506.91 0.43 c p3
275.10 507.53 0.43 c p3
275.25 507.40 0.43 c p3
275.39 507.53 0.43 c p3
275.54 507.64 0.43 c p3
275.68 507.15 0.43 c p3
275.83 507.29 0.43 c p3
275.98 507.15 0.43 c p3
276.12 507.77 0.43 c p3
276.27 507.40 0.43 c p3
276.41 507.05 0.43 c p3
276.56 507.05 0.43 c p3
276.70 507.29 0.43 c p3
276.85 507.15 0.43 c p3
277.00 507.64 0.43 c p3
277.14 507.29 0.43 c p3
277.29 507.40 0.43 c p3
277.43 507.40 0.43 c p3
277.58 507.40 0.43 c p3
277.72 507.40 0.43 c p3
277.87 507.77 0.43 c p3
278.01 507.88 0.43 c p3
278.16 507.29 0.43 c p3
278.31 507.77 0.43 c p3
278.45 507.29 0.43 c p3
278.60 507.29 0.43 c p3
278.74 507.77 0.43 c p3
278.89 508.02 0.43 c p3
279.03 507.53 0.43 c p3
279.18 507.29 0.43 c p3
279.32 507.40 0.43 c p3
279.47 507.53 0.43 c p3
279.62 507.64 0.43 c p3
279.76 507.88 0.43 c p3
279.91 508.37 0.43 c p3
280.05 506.91 0.43 c p3
280.20 506.80 0.43 c p3
280.34 506.91 0.43 c p3
280.49 507.77 0.43 c p3
280.63 507.40 0.43 c p3
280.78 507.64 0.43 c p3
280.93 507.64 0.43 c p3
281.07 507.53 0.43 c p3
281.22 507.15 0.43 c p3
281.36 507.15 0.43 c p3
281.51 507.15 0.43 c p3
281.65 507.77 0.43 c p3
281.80 508.02 0.43 c p3
281.95 508.02 0.43 c p3
282.09 507.53 0.43 c p3
282.24 507.77 0.43 c p3
282.38 507.53 0.43 c p3
282.53 507.77 0.43 c p3
282.67 508.02 0.43 c p3
282.82 508.12 0.43 c p3
282.96 507.40 0.43 c p3
283.11 507.40 0.43 c p3
283.26 506.91 0.43 c p3
283.40 507.64 0.43 c p3
283.55 508.12 0.43 c p3
283.69 507.77 0.43 c p3
283.84 507.64 0.43 c p3
283.98 507.53 0.43 c p3
284.13 507.77 0.43 c p3
284.27 507.77 0.43 c p3
284.42 507.64 0.43 c p3
284.57 507.77 0.43 c p3
284.71 508.50 0.43 c p3
284.86 507.88 0.43 c p3
285.00 507.88 0.43 c p3
285.15 507.53 0.43 c p3
285.29 507.88 0.43 c p3
285.44 508.26 0.43 c p3
285.58 508.61 0.43 c p3
285.73 507.88 0.43 c p3
285.88 508.26 0.43 c p3
286.02 507.88 0.43 c p3
286.17 507.88 0.43 c p3
286.31 508.02 0.43 c p3
286.46 507.88 0.43 c p3
286.60 508.02 0.43 c p3
286.75 508.50 0.43 c p3
286.89 508.26 0.43 c p3
287.04 507.77 0.43 c p3
287.19 508.02 0.43 c p3
287.33 507.88 0.43 c p3
287.48 508.12 0.43 c p3
287.62 507.40 0.43 c p3
287.77 507.77 0.43 c p3
287.91 508.26 0.43 c p3
288.06 507.64 0.43 c p3
288.21 508.02 0.43 c p3
288.35 507.88 0.43 c p3
288.50 508.12 0.43 c p3
288.64 508.50 0.43 c p3
288.79 508.02 0.43 c p3
288.93 508.12 0.43 c p3
289.08 508.02 0.43 c p3
289.22 508.12 0.43 c p3
289.37 508.50 0.43 c p3
289.52 507.64 0.43 c p3
289.66 508.26 0.43 c p3
289.81 508.02 0.43 c p3
289.95 508.37 0.43 c p3
290.10 508.12 0.43 c p3
290.24 508.61 0.43 c p3
290.39 508.26 0.43 c p3
290.53 507.64 0.43 c p3
290.68 508.26 0.43 c p3
290.83 508.26 0.43 c p3
290.97 508.12 0.43 c p3
291.12 508.37 0.43 c p3
291.26 507.77 0.43 c p3
291.41 508.12 0.43 c p3
291.55 508.02 0.43 c p3
291.70 507.88 0.43 c p3
291.84 507.88 0.43 c p3
291.99 508.02 0.43 c p3
292.14 508.50 0.43 c p3
292.28 508.98 0.43 c p3
292.43 508.26 0.43 c p3
292.57 508.12 0.43 c p3
292.72 507.88 0.43 c p3
292.86 507.88 0.43 c p3
293.01 508.37 0.43 c p3
293.16 508.74 0.43 c p3
293.30 508.12 0.43 c p3
293.45 508.26 0.43 c p3
293.59 508.02 0.43 c p3
293.74 508.26 0.43 c p3
293.88 508.61 0.43 c p3
294.03 508.26 0.43 c p3
294.17 508.98 0.43 c p3
294.32 508.26 0.43 c p3
294.47 507.88 0.43 c p3
294.61 507.53 0.43 c p3
294.76 508.12 0.43 c p3
294.90 508.61 0.43 c p3
295.05 508.02 0.43 c p3
295.19 508.74 0.43 c p3
295.34 508.26 0.43 c p3
295.48 508.50 0.43 c p3
295.63 508.37 0.43 c p3
295.78 507.53 0.43 c p3
295.92 508.26 0.43 c p3
296.07 508.61 0.43 c p3
296.21 508.85 0.43 c p3
296.36 508.74 0.43 c p3
296.50 508.12 0.43 c p3
296.65 508.26 0.43 c p3
296.79 507.88 0.43 c p3
296.94 508.74 0.43 c p3
297.09 508.50 0.43 c p3
297.23 508.12 0.43 c p3
297.38 508.37 0.43 c p3
297.52 508.37 0.43 c p3
297.67 508.37 0.43 c p3
297.81 508.12 0.43 c p3
297.96 508.12 0.43 c p3
298.11 508.61 0.43 c p3
298.25 508.26 0.43 c p3
298.40 508.26 0.43 c p3
298.54 508.02 0.43 c p3
298.69 508.12 0.43 c p3
298.83 508.02 0.43 c p3
298.98 508.26 0.43 c p3
299.12 508.61 0.43 c p3
299.27 508.37 0.43 c p3
299.42 508.37 0.43 c p3
299.56 507.88 0.43 c p3
299.71 508.98 0.43 c p3
299.85 508.12 0.43 c p3
300.00 508.61 0.43 c p3
300.14 508.74 0.43 c p3
300.29 508.26 0.43 c p3
300.43 508.61 0.43 c p3
300.58 508.50 0.43 c p3
300.73 508.12 0.43 c p3
300.87 508.74 0.43 c p3
301.02 508.74 0.43 c p3
301.16 508.85 0.43 c p3
301.31 508.50 0.43 c p3
301.45 508.61 0.43 c p3
301.60 508.37 0.43 c p3
301.74 508.12 0.43 c p3
301.89 508.74 0.43 c p3
302.04 508.26 0.43 c p3
302.18 508.61 0.43 c p3
302.33 508.50 0.43 c p3
302.47 508.26 0.43 c p3
302.62 508.37 0.43 c p3
302.76 508.98 0.43 c p3
302.91 508.37 0.43 c p3
303.06 508.74 0.43 c p3
303.20 508.61 0.43 c p3
303.35 508.50 0.43 c p3
303.49 507.88 0.43 c p3
303.64 508.50 0.43 c p3
303.78 508.85 0.43 c p3
303.93 508.74 0.43 c p3
304.07 508.26 0.43 c p3
304.22 508.26 0.43 c p3
304.37 508.37 0.43 c p3
304.51 508.85 0.43 c p3
304.66 508.02 0.43 c p3
304.80 508.74 0.43 c p3
304.95 508.98 0.43 c p3
305.09 509.09 0.43 c p3
305.24 508.50 0.43 c p3
305.38 508.50 0.43 c p3
305.53 508.12 0.43 c p3
305.68 508.98 0.43 c p3
305.82 508.26 0.43 c p3
305.97 508.74 0.43 c p3
306.11 508.26 0.43 c p3
306.26 508.61 0.43 c p3
306.40 508.26 0.43 c p3
306.55 508.50 0.43 c p3
306.69 508.98 0.43 c p3
306.84 508.61 0.43 c p3
306.99 508.74 0.43 c p3
307.13 508.85 0.43 c p3
307.28 508.12 0.43 c p3
307.42 508.50 0.43 c p3
307.57 508.50 0.43 c p3
307.71 508.98 0.43 c p3
307.86 508.98 0.43 c p3
308.01 508.98 0.43 c p3
308.15 508.98 0.43 c p3
308.30 508.74 0.43 c p3
308.44 508.74 0.43 c p3
308.59 508.85 0.43 c p3
308.73 508.85 0.43 c p3
308.88 508.61 0.43 c p3
309.02 508.61 0.43 c p3
309.17 508.85 0.43 c p3
309.32 508.37 0.43 c p3
309.46 508.12 0.43 c p3
309.61 509.23 0.43 c p3
309.75 509.33 0.43 c p3
309.90 508.85 0.43 c p3
310.04 508.98 0.43 c p3
310.19 507.88 0.43 c p3
310.33 508.74 0.43 c p3
310.48 508.98 0.43 c p3
310.63 508.98 0.43 c p3
310.77 508.12 0.43 c p3
310.92 508.61 0.43 c p3
311.06 509.33 0.43 c p3
311.21 508.85 0.43 c p3
311.35 508.12 0.43 c p3
311.50 508.74 0.43 c p3
311.64 508.74 0.43 c p3
311.79 509.33 0.43 c p3
311.94 509.09 0.43 c p3
312.08 508.12 0.43 c p3
312.23 508.50 0.43 c p3
312.37 508.85 0.43 c p3
312.52 508.85 0.43 c p3
312.66 509.47 0.43 c p3
312.81 508.50 0.43 c p3
312.96 508.12 0.43 c p3
313.10 508.85 0.43 c p3
313.25 508.50 0.43 c p3
313.39 508.85 0.43 c p3
313.54 508.50 0.43 c p3
313.68 509.33 0.43 c p3
313.83 509.09 0.43 c p3
313.97 509.09 0.43 c p3
314.12 508.37 0.43 c p3
314.27 508.26 0.43 c p3
314.41 509.09 0.43 c p3
314.56 509.47 0.43 c p3
314.70 508.85 0.43 c p3
314.85 508.50 0.43 c p3
314.99 508.85 0.43 c p3
315.14 508.61 0.43 c p3
315.28 508.50 0.43 c p3
315.43 509.23 0.43 c p3
315.58 508.98 0.43 c p3
315.72 509.09 0.43 c p3
315.87 508.98 0.43 c p3
316.01 509.23 0.43 c p3
316.16 508.37 0.43 c p3
316.30 509.23 0.43 c p3
316.45 509.09 0.43 c p3
316.59 508.61 0.43 c p3
316.74 508.85 0.43 c p3
316.89 508.50 0.43 c p3
317.03 508.85 0.43 c p3
317.18 508.98 0.43 c p3
317.32 509.33 0.43 c p3
317.47 508.85 0.43 c p3
317.61 508.85 0.43 c p3
317.76 509.71 0.43 c p3
317.91 508.85 0.43 c p3
318.05 508.85 0.43 c p3
318.20 508.37 0.43 c p3
318.34 508.98 0.43 c p3
318.49 508.85 0.43 c p3
318.63 508.98 0.43 c p3
318.78 509.09 0.43 c p3
318.92 508.37 0.43 c p3
319.07 508.50 0.43 c p3
319.22 508.74 0.43 c p3
319.36 509.47 0.43 c p3
319.51 508.74 0.43 c p3
319.65 509.09 0.43 c p3
319.80 509.09 0.43 c p3
319.94 508.61 0.43 c p3
320.09 509.23 0.43 c p3
320.23 508.50 0.43 c p3
320.38 509.09 0.43 c p3
320.53 509.23 0.43 c p3
320.67 508.98 0.43 c p3
320.82 509.47 0.43 c p3
320.96 508.50 0.43 c p3
321.11 508.50 0.43 c p3
321.25 508.50 0.43 c p3
321.40 508.37 0.43 c p3
321.54 508.98 0.43 c p3
321.69 508.85 0.43 c p3
321.84 508.85 0.43 c p3
321.98 509.23 0.43 c p3
322.13 509.09 0.43 c p3
322.27 509.33 0.43 c p3
322.42 508.98 0.43 c p3
322.56 508.74 0.43 c p3
322.71 508.61 0.43 c p3
322.85 508.61 0.43 c p3
323.00 508.74 0.43 c p3
323.15 508.85 0.43 c p3
323.29 509.23 0.43 c p3
323.44 509.47 0.43 c p3
323.58 509.23 0.43 c p3
323.73 508.74 0.43 c p3
323.87 509.09 0.43 c p3
324.02 508.98 0.43 c p3
324.17 508.85 0.43 c p3
324.31 509.47 0.43 c p3
324.46 509.23 0.43 c p3
324.60 508.98 0.43 c p3
324.75 508.85 0.43 c p3
324.89 508.37 0.43 c p3
325.04 508.26 0.43 c p3
325.18 509.33 0.43 c p3
325.33 508.85 0.43 c p3
325.48 509.33 0.43 c p3
325.62 508.98 0.43 c p3
325.77 508.12 0.43 c p3
325.91 509.23 0.43 c p3
326.06 509.09 0.43 c p3
326.20 509.09 0.43 c p3
326.35 508.85 0.43 c p3
326.49 508.74 0.43 c p3
326.64 509.09 0.43 c p3
326.79 508.98 0.43 c p3
326.93 508.98 0.43 c p3
327.08 509.58 0.43 c p3
327.22 509.71 0.43 c p3
327.37 508.74 0.43 c p3
327.51 509.58 0.43 c p3
327.66 508.74 0.43 c p3
327.80 508.74 0.43 c p3
327.95 508.61 0.43 c p3
328.10 509.23 0.43 c p3
328.24 509.23 0.43 c p3
328.39 509.33 0.43 c p3
328.53 508.85 0.43 c p3
328.68 508.61 0.43 c p3
328.82 509.47 0.43 c p3
328.97 509.47 0.43 c p3
329.12 508.98 0.43 c p3
329.26 509.33 0.43 c p3
329.41 509.33 0.43 c p3
329.55 508.98 0.43 c p3
329.70 509.33 0.43 c p3
329.84 508.98 0.43 c p3
329.99 509.47 0.43 c p3
330.13 509.23 0.43 c p3
330.28 509.33 0.43 c p3
330.43 509.33 0.43 c p3
330.57 509.09 0.43 c p3
330.72 509.47 0.43 c p3
330.86 508.85 0.43 c p3
331.01 509.09 0.43 c p3
331.15 509.09 0.43 c p3
331.30 509.33 0.43 c p3
331.44 508.98 0.43 c p3
331.59 508.85 0.43 c p3
331.74 509.09 0.43 c p3
331.88 509.33 0.43 c p3
332.03 508.98 0.43 c p3
332.17 509.33 0.43 c p3
332.32 509.09 0.43 c p3
332.46 509.47 0.43 c p3
332.61 509.09 0.43 c p3
332.75 509.23 0.43 c p3
332.90 508.98 0.43 c p3
333.05 509.33 0.43 c p3
333.19 509.47 0.43 c p3
333.34 509.09 0.43 c p3
333.48 508.50 0.43 c p3
333.63 508.98 0.43 c p3
333.77 508.98 0.43 c p3
333.92 509.47 0.43 c p3
334.07 509.58 0.43 c p3
334.21 508.85 0.43 c p3
334.36 509.23 0.43 c p3
334.50 509.09 0.43 c p3
334.65 509.58 0.43 c p3
334.79 509.33 0.43 c p3
334.94 509.23 0.43 c p3
335.08 508.85 0.43 c p3
335.23 509.47 0.43 c p3
335.38 509.71 0.43 c p3
335.52 508.85 0.43 c p3
335.67 509.33 0.43 c p3
335.81 508.85 0.43 c p3
335.96 509.23 0.43 c p3
336.10 509.58 0.43 c p3
336.25 509.47 0.43 c p3
336.39 508.98 0.43 c p3
336.54 509.23 0.43 c p3
336.69 508.85 0.43 c p3
336.83 509.47 0.43 c p3
336.98 509.47 0.43 c p3
337.12 509.23 0.43 c p3
337.27 509.09 0.43 c p3
337.41 508.74 0.43 c p3
337.56 509.47 0.43 c p3
337.70 509.82 0.43 c p3
337.85 509.47 0.43 c p3
338.00 509.47 0.43 c p3
338.14 509.71 0.43 c p3
338.29 508.98 0.43 c p3
338.43 508.98 0.43 c p3
338.58 508.74 0.43 c p3
338.72 509.95 0.43 c p3
338.87 509.23 0.43 c p3
339.02 509.71 0.43 c p3
339.16 510.06 0.43 c p3
339.31 509.33 0.43 c p3
339.45 509.23 0.43 c p3
339.60 509.23 0.43 c p3
339.74 509.95 0.43 c p3
339.89 509.71 0.43 c p3
340.03 509.33 0.43 c p3
340.18 508.85 0.43 c p3
340.33 509.47 0.43 c p3
340.47 508.98 0.43 c p3
340.62 509.47 0.43 c p3
340.76 509.23 0.43 c p3
340.91 509.71 0.43 c p3
341.05 509.95 0.43 c p3
341.20 509.71 0.43 c p3
341.34 509.58 0.43 c p3
341.49 509.33 0.43 c p3
341.64 509.58 0.43 c p3
341.78 509.47 0.43 c p3
341.93 509.47 0.43 c p3
342.07 509.71 0.43 c p3
342.22 509.47 0.43 c p3
342.36 509.09 0.43 c p3
342.51 509.33 0.43 c p3
342.65 509.33 0.43 c p3
342.80 509.95 0.43 c p3
342.95 509.33 0.43 c p3
343.09 509.33 0.43 c p3
343.24 508.98 0.43 c p3
343.38 509.33 0.43 c p3
343.53 509.23 0.43 c p3
343.67 509.23 0.43 c p3
343.82 510.06 0.43 c p3
343.97 509.82 0.43 c p3
344.11 509.71 0.43 c p3
344.26 509.58 0.43 c p3
344.40 509.47 0.43 c p3
344.55 509.71 0.43 c p3
344.69 509.71 0.43 c p3
344.84 509.58 0.43 c p3
344.98 508.98 0.43 c p3
345.13 509.23 0.43 c p3
345.28 509.58 0.43 c p3
345.42 509.95 0.43 c p3
345.57 510.20 0.43 c p3
345.71 509.33 0.43 c p3
345.86 509.47 0.43 c p3
346.00 509.33 0.43 c p3
346.15 509.47 0.43 c p3
346.29 509.71 0.43 c p3
346.44 509.71 0.43 c p3
346.59 509.82 0.43 c p3
346.73 509.33 0.43 c p3
346.88 509.47 0.43 c p3
347.02 509.71 0.43 c p3
347.17 509.09 0.43 c p3
347.31 509.33 0.43 c p3
347.46 509.23 0.43 c p3
347.60 509.82 0.43 c p3
347.75 510.20 0.43 c p3
347.90 509.71 0.43 c p3
348.04 510.20 0.43 c p3
348.19 509.47 0.43 c p3
348.33 509.82 0.43 c p3
348.48 510.20 0.43 c p3
348.62 509.58 0.43 c p3
348.77 509.82 0.43 c p3
348.92 509.23 0.43 c p3
349.06 509.47 0.43 c p3
349.21 509.47 0.43 c p3
349.35 509.82 0.43 c p3
349.50 510.06 0.43 c p3
349.64 509.58 0.43 c p3
349.79 509.71 0.43 c p3
349.93 509.95 0.43 c p3
350.08 509.47 0.43 c p3
350.23 509.23 0.43 c p3
350.37 509.33 0.43 c p3
350.52 510.06 0.43 c p3
350.66 510.30 0.43 c p3
350.81 509.71 0.43 c p3
350.95 509.33 0.43 c p3
351.10 509.23 0.43 c p3
351.24 509.33 0.43 c p3
351.39 510.06 0.43 c p3
351.54 509.33 0.43 c p3
351.68 509.71 0.43 c p3
351.83 509.82 0.43 c p3
351.97 509.47 0.43 c p3
352.12 510.06 0.43 c p3
352.26 509.82 0.43 c p3
352.41 509.58 0.43 c p3
352.55 510.20 0.43 c p3
352.70 509.58 0.43 c p3
352.85 509.95 0.43 c p3
352.99 509.47 0.43 c p3
353.14 509.47 0.43 c p3
353.28 509.33 0.43 c p3
353.43 509.82 0.43 c p3
353.57 509.58 0.43 c p3
353.72 509.33 0.43 c p3
353.86 509.95 0.43 c p3
354.01 509.58 0.43 c p3
354.16 509.71 0.43 c p3
354.30 510.44 0.43 c p3
354.45 509.95 0.43 c p3
354.59 509.82 0.43 c p3
354.74 510.20 0.43 c p3
354.88 509.71 0.43 c p3
355.03 509.82 0.43 c p3
355.18 509.23 0.43 c p3
355.32 509.71 0.43 c p3
355.47 510.30 0.43 c p3
355.61 509.58 0.43 c p3
355.76 509.23 0.43 c p3
355.90 509.33 0.43 c p3
356.05 509.33 0.43 c p3
356.19 509.95 0.43 c p3
356.34 509.95 0.43 c p3
356.49 509.71 0.43 c p3
356.63 509.71 0.43 c p3
356.78 509.47 0.43 c p3
356.92 509.95 0.43 c p3
357.07 509.47 0.43 c p3
357.21 509.71 0.43 c p3
357.36 509.82 0.43 c p3
357.50 510.20 0.43 c p3
357.65 509.23 0.43 c p3
357.80 510.20 0.43 c p3
357.94 510.20 0.43 c p3
358.09 509.95 0.43 c p3
358.23 510.06 0.43 c p3
358.38 510.06 0.43 c p3
358.52 509.82 0.43 c p3
358.67 509.82 0.43 c p3
358.81 509.82 0.43 c p3
358.96 509.47 0.43 c p3
359.11 510.06 0.43 c p3
359.25 509.58 0.43 c p3
359.40 510.55 0.43 c p3
359.54 510.55 0.43 c p3
359.69 509.58 0.43 c p3
359.83 509.58 0.43 c p3
359.98 509.71 0.43 c p3
360.13 509.71 0.43 c p3
360.27 509.47 0.43 c p3
360.42 509.95 0.43 c p3
360.56 509.71 0.43 c p3
360.71 509.95 0.43 c p3
360.85 509.71 0.43 c p3
361.00 509.58 0.43 c p3
361.14 510.20 0.43 c p3
361.29 510.06 0.43 c p3
361.44 509.95 0.43 c p3
361.58 509.95 0.43 c p3
361.73 508.98 0.43 c p3
361.87 509.95 0.43 c p3
362.02 510.06 0.43 c p3
362.16 510.20 0.43 c p3
362.31 509.95 0.43 c p3
362.45 509.95 0.43 c p3
362.60 509.95 0.43 c p3
362.75 509.82 0.43 c p3
362.89 509.82 0.43 c p3
363.04 510.30 0.43 c p3
363.18 509.33 0.43 c p3
363.33 510.30 0.43 c p3
363.47 509.82 0.43 c p3
363.62 509.95 0.43 c p3
363.76 509.95 0.43 c p3
363.91 509.23 0.43 c p3
364.06 509.71 0.43 c p3
364.20 509.95 0.43 c p3
364.35 510.20 0.43 c p3
364.49 510.06 0.43 c p3
364.64 509.33 0.43 c p3
364.78 509.47 0.43 c p3
364.93 509.71 0.43 c p3
365.08 509.95 0.43 c p3
365.22 510.20 0.43 c p3
365.37 510.06 0.43 c p3
365.51 509.58 0.43 c p3
365.66 509.95 0.43 c p3
365.80 509.95 0.43 c p3
365.95 510.20 0.43 c p3
366.09 510.20 0.43 c p3
366.24 510.06 0.43 c p3
366.39 510.20 0.43 c p3
366.53 510.06 0.43 c p3
366.68 509.82 0.43 c p3
366.82 509.71 0.43 c p3
366.97 510.30 0.43 c p3
367.11 511.03 0.43 c p3
367.26 510.20 0.43 c p3
367.40 510.30 0.43 c p3
367.55 509.33 0.43 c p3
367.70 510.06 0.43 c p3
367.84 510.30 0.43 c p3
367.99 510.44 0.43 c p3
368.13 510.44 0.43 c p3
368.28 509.95 0.43 c p3
368.42 510.20 0.43 c p3
368.57 509.82 0.43 c p3
368.71 509.47 0.43 c p3
368.86 510.20 0.43 c p3
369.01 509.82 0.43 c p3
369.15 509.82 0.43 c p3
369.30 509.95 0.43 c p3
369.44 510.20 0.43 c p3
369.59 510.55 0.43 c p3
369.73 509.82 0.43 c p3
369.88 509.95 0.43 c p3
370.03 510.55 0.43 c p3
370.17 510.06 0.43 c p3
370.32 510.06 0.43 c p3
370.46 509.47 0.43 c p3
370.61 509.82 0.43 c p3
370.75 510.20 0.43 c p3
370.90 510.30 0.43 c p3
371.04 509.71 0.43 c p3
371.19 510.20 0.43 c p3
371.34 509.95 0.43 c p3
371.48 510.30 0.43 c p3
371.63 510.30 0.43 c p3
371.77 509.95 0.43 c p3
371.92 510.06 0.43 c p3
372.06 510.55 0.43 c p3
372.21 510.44 0.43 c p3
372.35 510.20 0.43 c p3
372.50 510.20 0.43 c p3
372.65 509.71 0.43 c p3
372.79 510.44 0.43 c p3
372.94 510.44 0.43 c p3
373.08 510.55 0.43 c p3
373.23 509.82 0.43 c p3
373.37 510.06 0.43 c p3
373.52 510.06 0.43 c p3
373.66 510.06 0.43 c p3
373.81 510.06 0.43 c p3
373.96 510.44 0.43 c p3
374.10 510.06 0.43 c p3
374.25 509.71 0.43 c p3
374.39 510.20 0.43 c p3
374.54 510.20 0.43 c p3
374.68 510.30 0.43 c p3
374.83 510.44 0.43 c p3
374.98 510.30 0.43 c p3
375.12 510.20 0.43 c p3
375.27 510.30 0.43 c p3
375.41 509.95 0.43 c p3
375.56 510.20 0.43 c p3
375.70 510.30 0.43 c p3
375.85 510.20 0.43 c p3
375.99 510.20 0.43 c p3
376.14 510.44 0.43 c p3
376.29 509.82 0.43 c p3
376.43 509.95 0.43 c p3
376.58 509.82 0.43 c p3
376.72 510.06 0.43 c p3
376.87 510.30 0.43 c p3
377.01 510.44 0.43 c p3
377.16 509.95 0.43 c p3
377.30 510.20 0.43 c p3
377.45 510.20 0.43 c p3
377.60 509.95 0.43 c p3
377.74 510.55 0.43 c p3
377.89 510.20 0.43 c p3
378.03 509.82 0.43 c p3
378.18 510.92 0.43 c p3
378.32 510.44 0.43 c p3
378.47 510.06 0.43 c p3
378.61 510.79 0.43 c p3
378.76 510.06 0.43 c p3
378.91 509.82 0.43 c p3
379.05 510.30 0.43 c p3
379.20 509.58 0.43 c p3
379.34 510.20 0.43 c p3
379.49 510.55 0.43 c p3
379.63 510.20 0.43 c p3
379.78 510.44 0.43 c p3
379.93 509.47 0.43 c p3
380.07 509.82 0.43 c p3
380.22 510.44 0.43 c p3
380.36 509.95 0.43 c p3
380.51 510.06 0.43 c p3
380.65 510.44 0.43 c p3
380.80 510.20 0.43 c p3
380.94 510.79 0.43 c p3
381.09 509.95 0.43 c p3
381.24 510.55 0.43 c p3
381.38 510.55 0.43 c p3
381.53 510.30 0.43 c p3
381.67 510.68 0.43 c p3
381.82 510.55 0.43 c p3
381.96 509.58 0.43 c p3
382.11 510.20 0.43 c p3
382.25 509.95 0.43 c p3
382.40 509.95 0.43 c p3
0.00 0.00 432.00 576.00 cl
0 0 0 srgb
0.75 setlinewidth
[] 0 setdash
1 setlinecap
1 setlinejoin
10.00 setmiterlimit
np
236.96 345.60 m
145.59 0 l
o
np
236.96 345.60 m
0 -5.76 l
o
np
261.22 345.60 m
0 -5.76 l
o
np
285.49 345.60 m
0 -5.76 l
o
np
309.75 345.60 m
0 -5.76 l
o
np
334.02 345.60 m
0 -5.76 l
o
np
358.28 345.60 m
0 -5.76 l
o
np
382.55 345.60 m
0 -5.76 l
o
/Font1 findfont 10 s
236.96 329.47 (0) .5 0 t
261.22 329.47 (500) .5 0 t
309.75 329.47 (1500) .5 0 t
358.28 329.47 (2500) .5 0 t
np
216.00 352.00 m
0 165.41 l
o
np
216.00 352.00 m
-5.76 0 l
o
np
216.00 407.14 m
-5.76 0 l
o
np
216.00 462.27 m
-5.76 0 l
o
np
216.00 517.41 m
-5.76 0 l
o
209.09 348.41 (0.0) 1 0 t
209.09 403.55 (0.5) 1 0 t
209.09 458.68 (1.0) 1 0 t
209.09 513.82 (1.5) 1 0 t
np
216.00 345.60 m
172.80 0 l
0 172.80 l
-172.80 0 l
0 -172.80 l
o
0.00 0.00 432.00 576.00 cl
/Font1 findfont 10 s
0 0 0 srgb
302.40 313.34 (Zeit / ms \(total\)) .5 0 t
190.66 432.00 (U / V) .5 90 t
216.00 345.60 388.80 518.40 cl
0 0 0 srgb
0.38 setlinewidth
[ 1.12 1.88] 0 setdash
1 setlinecap
1 setlinejoin
10.00 setmiterlimit
np
223.42 345.60 m
0 172.80 l
o
np
235.07 345.60 m
0 172.80 l
o
np
239.43 345.60 m
0 172.80 l
o
np
262.44 345.60 m
0 172.80 l
o
86.40 57.60 388.80 288.00 cl
1 0 0 srgb
1.50 setlinewidth
[] 0 setdash
1 setlinecap
1 setlinejoin
10.00 setmiterlimit
np
97.60 279.47 m
1.41 -22.07 l
1.40 -19.68 l
1.41 -17.55 l
1.41 -15.65 l
1.41 -13.96 l
1.40 -12.45 l
1.41 -11.11 l
1.41 -9.90 l
1.40 -8.84 l
1.41 -7.87 l
1.41 -7.03 l
1.40 -6.27 l
1.41 -5.59 l
1.41 -4.98 l
1.41 -4.45 l
1.40 -3.96 l
1.41 -3.54 l
1.41 -3.15 l
1.40 -2.82 l
1.41 -2.51 l
1.41 -2.23 l
1.40 -2.00 l
1.41 -1.78 l
1.41 -1.59 l
1.41 -1.41 l
1.40 -1.27 l
1.41 -1.12 l
1.41 -1.01 l
1.40 -0.89 l
1.41 -0.80 l
1.41 -0.71 l
1.41 -0.64 l
1.40 -0.57 l
1.41 -0.50 l
1.41 -0.45 l
1.40 -0.41 l
1.41 -0.35 l
1.41 -0.32 l
1.40 -0.29 l
1.41 -0.25 l
1.41 -0.23 l
1.41 -0.20 l
1.40 -0.18 l
1.41 -0.16 l
1.41 -0.15 l
1.40 -0.13 l
1.41 -0.11 l
1.41 -0.10 l
1.40 -0.09 l
1.41 -0.08 l
1.41 -0.08 l
1.41 -0.06 l
1.40 -0.06 l
1.41 -0.05 l
1.41 -0.05 l
1.40 -0.04 l
1.41 -0.03 l
1.41 -0.03 l
1.41 -0.03 l
1.40 -0.03 l
1.41 -0.02 l
1.41 -0.02 l
1.40 -0.02 l
1.41 -0.02 l
1.41 -0.01 l
1.40 -0.02 l
1.41 -0.01 l
1.41 -0.01 l
1.41 -0.01 l
1.40 0 l
1.41 -0.01 l
1.41 -0.01 l
1.40 0 l
1.41 -0.01 l
1.41 0 l
1.40 -0.01 l
1.41 0 l
1.41 -0.01 l
1.41 0 l
1.40 0 l
1.41 0 l
1.41 -0.01 l
1.40 0 l
1.41 0 l
1.41 0 l
1.41 0 l
1.40 0 l
1.41 0 l
1.41 0 l
1.40 -0.01 l
1.41 0 l
1.41 0 l
1.40 0 l
1.41 0 l
1.41 0 l
1.41 0 l
1.40 0 l
1.41 0 l
1.41 0 l
238.30 75.40 lineto
1.41 0 l
1.41 0 l
1.40 0 l
1.41 0 l
1.41 0 l
1.41 0 l
1.40 0 l
1.41 0 l
1.41 0 l
1.40 0 l
1.41 0 l
1.41 0 l
1.40 0 l
1.41 0 l
1.41 0 l
1.41 0 l
1.40 0 l
1.41 0 l
1.41 0 l
1.40 0 l
1.41 0 l
1.41 0 l
1.41 0 l
1.40 0 l
1.41 0 l
1.41 0 l
1.40 0 l
1.41 0 l
1.41 0 l
1.40 0 l
1.41 0 l
1.41 0 l
1.41 0 l
1.40 0 l
1.41 0 l
1.41 0 l
1.40 0 l
1.41 0 l
1.41 0 l
1.40 0 l
1.41 0 l
1.41 0 l
1.41 0 l
1.40 0 l
1.41 0 l
1.41 0 l
1.40 0 l
1.41 0 l
1.41 0 l
1.41 0 l
1.40 0 l
1.41 0 l
1.41 0 l
1.40 0 l
1.41 0 l
1.41 0 l
1.40 0 l
1.41 0 l
1.41 0 l
1.41 0 l
1.40 0 l
1.41 0 l
1.41 0 l
1.40 0 l
1.41 0 l
1.41 0 l
1.40 0 l
1.41 0 l
1.41 0 l
1.41 0 l
1.40 0 l
1.41 0 l
1.41 0 l
1.40 0 l
1.41 0 l
1.41 0 l
1.41 0 l
1.40 0 l
1.41 0 l
1.41 0 l
1.40 0 l
1.41 0 l
1.41 0 l
1.40 0 l
1.41 0 l
1.41 0 l
1.41 0 l
1.40 0 l
1.41 0 l
1.41 0 l
1.40 0 l
1.41 0 l
1.41 0 l
1.40 0 l
1.41 0 l
1.41 0 l
1.41 0 l
1.40 0 l
1.41 0 l
o
0.00 0.00 432.00 576.00 cl
0 0 0 srgb
0.75 setlinewidth
[] 0 setdash
1 setlinecap
1 setlinejoin
10.00 setmiterlimit
np
97.60 57.60 m
280.00 0 l
o
np
97.60 57.60 m
0 -5.76 l
o
np
144.27 57.60 m
0 -5.76 l
o
np
190.93 57.60 m
0 -5.76 l
o
np
237.60 57.60 m
0 -5.76 l
o
np
284.27 57.60 m
0 -5.76 l
o
np
330.93 57.60 m
0 -5.76 l
o
np
377.60 57.60 m
0 -5.76 l
o
/Font1 findfont 10 s
97.60 41.47 (0) .5 0 t
144.27 41.47 (500) .5 0 t
190.93 41.47 (1000) .5 0 t
237.60 41.47 (1500) .5 0 t
284.27 41.47 (2000) .5 0 t
330.93 41.47 (2500) .5 0 t
377.60 41.47 (3000) .5 0 t
np
86.40 66.13 m
0 204.60 l
o
np
86.40 66.13 m
-5.76 0 l
o
np
86.40 107.05 m
-5.76 0 l
o
np
86.40 147.97 m
-5.76 0 l
o
np
86.40 188.89 m
-5.76 0 l
o
np
86.40 229.81 m
-5.76 0 l
o
np
86.40 270.73 m
-5.76 0 l
o
79.49 62.54 (0.00) 1 0 t
79.49 103.46 (0.05) 1 0 t
79.49 144.38 (0.10) 1 0 t
79.49 185.30 (0.15) 1 0 t
79.49 226.22 (0.20) 1 0 t
79.49 267.14 (0.25) 1 0 t
np
86.40 57.60 m
302.40 0 l
0 230.40 l
-302.40 0 l
0 -230.40 l
o
0.00 0.00 432.00 576.00 cl
/Font1 findfont 10 s
0 0 0 srgb
237.60 13.82 (Zeit / ms \(nach Puls\)) .5 0 t
49.54 172.80 (Absorbanz A) .5 90 t
86.40 57.60 388.80 288.00 cl
/bg { 1 1 1 srgb } def
0 0 0 srgb
0.75 setlinewidth
[] 0 setdash
1 setlinecap
1 setlinejoin
10.00 setmiterlimit
102.64 211.39 0.65 c p3
102.92 207.34 0.65 c p3
103.20 202.99 0.65 c p3
103.48 197.82 0.65 c p3
103.76 197.82 0.65 c p3
104.04 196.69 0.65 c p3
104.32 193.15 0.65 c p3
104.60 192.81 0.65 c p3
104.88 190.08 0.65 c p3
105.16 185.17 0.65 c p3
105.44 181.08 0.65 c p3
105.72 181.41 0.65 c p3
106.00 179.18 0.65 c p3
106.28 178.11 0.65 c p3
106.56 173.69 0.65 c p3
106.84 171.82 0.65 c p3
107.12 170.77 0.65 c p3
107.40 168.60 0.65 c p3
107.68 165.02 0.65 c p3
107.96 163.59 0.65 c p3
108.24 162.17 0.65 c p3
108.52 159.74 0.65 c p3
108.80 157.63 0.65 c p3
109.08 157.25 0.65 c p3
109.36 154.15 0.65 c p3
109.64 152.47 0.65 c p3
109.92 152.47 0.65 c p3
110.20 148.66 0.65 c p3
110.48 146.99 0.65 c p3
110.76 146.99 0.65 c p3
111.04 141.90 0.65 c p3
111.32 143.92 0.65 c p3
111.60 139.98 0.65 c p3
111.88 139.31 0.65 c p3
112.16 138.65 0.65 c p3
112.44 136.00 0.65 c p3
112.72 133.67 0.65 c p3
113.00 134.33 0.65 c p3
113.28 132.08 0.65 c p3
113.56 132.08 0.65 c p3
113.84 130.42 0.65 c p3
114.12 129.77 0.65 c p3
114.40 127.84 0.65 c p3
114.68 126.27 0.65 c p3
114.96 124.07 0.65 c p3
115.24 123.43 0.65 c p3
115.52 123.43 0.65 c p3
115.80 121.18 0.65 c p3
116.08 120.55 0.65 c p3
116.36 119.29 0.65 c p3
116.64 118.39 0.65 c p3
116.92 118.04 0.65 c p3
117.20 114.65 0.65 c p3
117.48 115.89 0.65 c p3
117.76 114.65 0.65 c p3
118.04 113.76 0.65 c p3
118.32 113.76 0.65 c p3
118.60 112.52 0.65 c p3
118.88 110.34 0.65 c p3
119.16 109.46 0.65 c p3
119.44 110.07 0.65 c p3
119.72 107.63 0.65 c p3
120.00 108.85 0.65 c p3
120.28 107.29 0.65 c p3
120.56 105.81 0.65 c p3
120.84 106.08 0.65 c p3
121.12 106.68 0.65 c p3
121.40 103.67 0.65 c p3
121.68 104.60 0.65 c p3
121.96 103.07 0.65 c p3
122.24 102.80 0.65 c p3
122.52 101.60 0.65 c p3
122.80 102.20 0.65 c p3
123.08 101.60 0.65 c p3
123.36 99.82 0.65 c p3
123.64 99.82 0.65 c p3
123.92 99.55 0.65 c p3
124.20 98.04 0.65 c p3
124.48 98.96 0.65 c p3
124.76 98.04 0.65 c p3
125.04 97.45 0.65 c p3
125.32 96.86 0.65 c p3
125.60 94.83 0.65 c p3
125.88 95.68 0.65 c p3
126.16 94.83 0.65 c p3
126.44 95.09 0.65 c p3
126.72 95.42 0.65 c p3
127.00 94.25 0.65 c p3
127.28 92.50 0.65 c p3
127.56 90.17 0.65 c p3
127.84 91.91 0.65 c p3
128.12 93.08 0.65 c p3
128.40 92.17 0.65 c p3
128.68 92.50 0.65 c p3
128.96 92.17 0.65 c p3
129.24 90.75 0.65 c p3
129.52 91.01 0.65 c p3
129.80 89.28 0.65 c p3
130.08 89.28 0.65 c p3
130.36 89.85 0.65 c p3
130.64 89.60 0.65 c p3
130.92 89.60 0.65 c p3
131.20 89.28 0.65 c p3
131.48 88.44 0.65 c p3
131.76 86.47 0.65 c p3
132.04 86.47 0.65 c p3
132.32 89.02 0.65 c p3
132.60 88.19 0.65 c p3
132.88 87.29 0.65 c p3
133.16 87.04 0.65 c p3
133.44 86.47 0.65 c p3
133.72 86.47 0.65 c p3
134.00 85.89 0.65 c p3
134.28 86.47 0.65 c p3
134.56 84.75 0.65 c p3
134.84 85.01 0.65 c p3
135.12 85.01 0.65 c p3
135.40 85.58 0.65 c p3
135.68 85.32 0.65 c p3
135.96 85.01 0.65 c p3
136.24 85.32 0.65 c p3
136.52 84.18 0.65 c p3
136.80 85.32 0.65 c p3
137.08 83.05 0.65 c p3
137.36 83.87 0.65 c p3
137.64 83.87 0.65 c p3
137.92 83.62 0.65 c p3
138.20 83.30 0.65 c p3
138.48 82.17 0.65 c p3
138.76 81.92 0.65 c p3
139.04 82.48 0.65 c p3
139.32 81.92 0.65 c p3
139.60 81.92 0.65 c p3
139.88 82.73 0.65 c p3
140.16 82.17 0.65 c p3
140.44 83.05 0.65 c p3
140.72 79.35 0.65 c p3
141.00 80.22 0.65 c p3
141.28 81.04 0.65 c p3
141.56 81.35 0.65 c p3
141.84 81.04 0.65 c p3
142.12 81.35 0.65 c p3
142.40 82.17 0.65 c p3
142.68 80.47 0.65 c p3
142.96 78.79 0.65 c p3
143.24 79.91 0.65 c p3
143.52 80.47 0.65 c p3
143.80 80.79 0.65 c p3
144.08 80.47 0.65 c p3
144.36 79.91 0.65 c p3
144.64 79.66 0.65 c p3
144.92 78.79 0.65 c p3
145.20 78.79 0.65 c p3
145.48 79.91 0.65 c p3
145.76 80.79 0.65 c p3
146.04 79.35 0.65 c p3
146.32 80.47 0.65 c p3
146.60 80.22 0.65 c p3
146.88 77.98 0.65 c p3
216.00 201.60 367.20 247.68 cl
0 0 0 srgb
0.75 setlinewidth
[] 0 setdash
1 setlinecap
1 setlinejoin
10.00 setmiterlimit
221.60 226.53 0.43 c p1
222.49 223.07 0.43 c p1
223.37 218.29 0.43 c p1
224.26 210.42 0.43 c p1
225.14 220.34 0.43 c p1
226.03 226.11 0.43 c p1
226.92 223.26 0.43 c p1
227.80 231.34 0.43 c p1
228.69 230.87 0.43 c p1
229.57 222.63 0.43 c p1
230.46 217.04 0.43 c p1
231.35 226.66 0.43 c p1
232.23 227.14 0.43 c p1
233.12 231.49 0.43 c p1
234.01 224.00 0.43 c p1
234.89 225.23 0.43 c p1
235.78 229.12 0.43 c p1
236.66 228.94 0.43 c p1
237.55 223.65 0.43 c p1
238.44 225.74 0.43 c p1
239.32 227.68 0.43 c p1
240.21 225.95 0.43 c p1
241.09 225.20 0.43 c p1
241.98 230.29 0.43 c p1
242.87 225.81 0.43 c p1
243.75 226.08 0.43 c p1
244.64 232.09 0.43 c p1
245.52 224.70 0.43 c p1
246.41 224.65 0.43 c p1
247.30 230.27 0.43 c p1
248.18 218.01 0.43 c p1
249.07 230.40 0.43 c p1
249.95 221.91 0.43 c p1
250.84 224.72 0.43 c p1
251.73 227.42 0.43 c p1
252.61 223.11 0.43 c p1
253.50 219.77 0.43 c p1
254.38 226.74 0.43 c p1
255.27 223.48 0.43 c p1
256.16 227.95 0.43 c p1
257.04 226.54 0.43 c p1
257.93 228.56 0.43 c p1
258.82 225.99 0.43 c p1
259.70 224.61 0.43 c p1
260.59 220.94 0.43 c p1
261.47 222.63 0.43 c p1
262.36 226.44 0.43 c p1
263.25 222.32 0.43 c p1
264.13 223.77 0.43 c p1
265.02 222.95 0.43 c p1
265.90 223.28 0.43 c p1
266.79 225.47 0.43 c p1
267.68 216.98 0.43 c p1
268.56 224.56 0.43 c p1
269.45 223.41 0.43 c p1
270.33 223.40 0.43 c p1
271.22 226.44 0.43 c p1
272.11 225.11 0.43 c p1
272.99 220.40 0.43 c p1
273.88 220.16 0.43 c p1
274.76 225.06 0.43 c p1
275.65 219.28 0.43 c p1
276.54 226.17 0.43 c p1
277.42 223.34 0.43 c p1
278.31 220.71 0.43 c p1
279.19 224.12 0.43 c p1
280.08 228.65 0.43 c p1
280.97 220.50 0.43 c p1
281.85 226.07 0.43 c p1
282.74 222.98 0.43 c p1
283.63 224.26 0.43 c p1
284.51 222.25 0.43 c p1
285.40 226.44 0.43 c p1
286.28 226.42 0.43 c p1
287.17 222.21 0.43 c p1
288.06 224.18 0.43 c p1
288.94 225.18 0.43 c p1
289.83 221.79 0.43 c p1
290.71 226.84 0.43 c p1
291.60 225.43 0.43 c p1
292.49 225.13 0.43 c p1
293.37 224.79 0.43 c p1
294.26 219.42 0.43 c p1
295.14 224.01 0.43 c p1
296.03 222.66 0.43 c p1
296.92 225.14 0.43 c p1
297.80 227.81 0.43 c p1
298.69 225.22 0.43 c p1
299.57 220.59 0.43 c p1
300.46 213.93 0.43 c p1
301.35 221.39 0.43 c p1
302.23 226.82 0.43 c p1
303.12 225.00 0.43 c p1
304.01 227.44 0.43 c p1
304.89 227.59 0.43 c p1
305.78 223.89 0.43 c p1
306.66 226.01 0.43 c p1
307.55 221.16 0.43 c p1
308.44 222.33 0.43 c p1
309.32 225.48 0.43 c p1
310.21 225.70 0.43 c p1
311.09 226.79 0.43 c p1
311.98 226.74 0.43 c p1
312.87 224.88 0.43 c p1
313.75 219.01 0.43 c p1
314.64 220.00 0.43 c p1
315.52 229.87 0.43 c p1
316.41 227.93 0.43 c p1
317.30 225.74 0.43 c p1
318.18 225.76 0.43 c p1
319.07 224.65 0.43 c p1
319.95 225.52 0.43 c p1
320.84 224.38 0.43 c p1
321.73 227.20 0.43 c p1
322.61 222.04 0.43 c p1
323.50 223.71 0.43 c p1
324.38 224.49 0.43 c p1
325.27 227.23 0.43 c p1
326.16 227.09 0.43 c p1
327.04 226.71 0.43 c p1
327.93 228.52 0.43 c p1
328.82 225.24 0.43 c p1
329.70 229.89 0.43 c p1
330.59 222.62 0.43 c p1
331.47 226.12 0.43 c p1
332.36 226.75 0.43 c p1
333.25 226.49 0.43 c p1
334.13 226.00 0.43 c p1
335.02 222.64 0.43 c p1
335.90 222.34 0.43 c p1
336.79 224.87 0.43 c p1
337.68 223.45 0.43 c p1
338.56 223.99 0.43 c p1
339.45 227.36 0.43 c p1
340.33 225.91 0.43 c p1
341.22 229.48 0.43 c p1
342.11 217.08 0.43 c p1
342.99 220.61 0.43 c p1
343.88 223.91 0.43 c p1
344.76 225.47 0.43 c p1
345.65 224.82 0.43 c p1
346.54 226.35 0.43 c p1
347.42 229.62 0.43 c p1
348.31 224.14 0.43 c p1
349.19 218.68 0.43 c p1
350.08 222.99 0.43 c p1
350.97 225.35 0.43 c p1
351.85 226.82 0.43 c p1
352.74 226.10 0.43 c p1
353.63 224.51 0.43 c p1
354.51 223.99 0.43 c p1
355.40 221.30 0.43 c p1
356.28 221.64 0.43 c p1
357.17 225.89 0.43 c p1
358.06 229.27 0.43 c p1
358.94 224.58 0.43 c p1
359.83 228.81 0.43 c p1
360.71 228.24 0.43 c p1
361.60 220.72 0.43 c p1
0.00 0.00 432.00 576.00 cl
0 0 0 srgb
0.75 setlinewidth
[] 0 setdash
1 setlinecap
1 setlinejoin
10.00 setmiterlimit
np
235.19 201.60 m
118.14 0 l
o
np
235.19 201.60 m
0 -5.76 l
o
np
264.72 201.60 m
0 -5.76 l
o
np
294.26 201.60 m
0 -5.76 l
o
np
323.79 201.60 m
0 -5.76 l
o
np
353.33 201.60 m
0 -5.76 l
o
/Font1 findfont 6 s
235.19 185.47 (100) .5 0 t
264.72 185.47 (200) .5 0 t
294.26 185.47 (300) .5 0 t
323.79 185.47 (400) .5 0 t
353.33 185.47 (500) .5 0 t
np
216.00 210.38 m
0 28.52 l
o
np
216.00 210.38 m
-5.76 0 l
o
np
216.00 224.64 m
-5.76 0 l
o
np
216.00 238.90 m
-5.76 0 l
o
209.09 208.22 (-0.005) 1 0 t
209.09 222.49 (0.000) 1 0 t
209.09 236.75 (0.005) 1 0 t
np
216.00 201.60 m
151.20 0 l
0 46.08 l
-151.20 0 l
0 -46.08 l
o
0.00 0.00 432.00 576.00 cl
/Font1 findfont 9 s
0 0 0 srgb
291.60 262.88 (Residuen) .5 0 t
59.04 73.44 401.76 516.96 cl
ep
%%Trailer
%%Pages: 1
%%EOF
