%!PS-Adobe-3.0 EPSF-3.0
%%DocumentNeededResources: font Helvetica
%%+ font Helvetica-Bold
%%+ font Helvetica-Oblique
%%+ font Helvetica-BoldOblique
%%+ font Symbol
%%Title: R Graphics Output
%%Creator: R Software
%%Pages: (atend)
%%BoundingBox: 0 0 432 576
%%EndComments
%%BeginProlog
/bp  { gs sRGB gs } def
% begin .ps.prolog
/gs  { gsave } bind def
/gr  { grestore } bind def
/ep  { showpage gr gr } bind def
/m   { moveto } bind def
/l  { rlineto } bind def
/np  { newpath } bind def
/cp  { closepath } bind def
/f   { fill } bind def
/o   { stroke } bind def
/c   { newpath 0 360 arc } bind def
/r   { 4 2 roll moveto 1 copy 3 -1 roll exch 0 exch rlineto 0 rlineto -1 mul 0 exch rlineto closepath } bind def
/p1  { stroke } bind def
/p2  { gsave bg fill grestore newpath } bind def
/p3  { gsave bg fill grestore stroke } bind def
/p6  { gsave bg eofill grestore newpath } bind def
/p7  { gsave bg eofill grestore stroke } bind def
/t   { 5 -2 roll moveto gsave rotate
       1 index stringwidth pop
       mul neg 0 rmoveto show grestore } bind def
/ta  { 4 -2 roll moveto gsave rotate show } bind def
/tb  { 2 -1 roll 0 rmoveto show } bind def
/cl  { grestore gsave newpath 3 index 3 index moveto 1 index
       4 -1 roll lineto  exch 1 index lineto lineto
       closepath clip newpath } bind def
/rgb { setrgbcolor } bind def
/s   { scalefont setfont } bind def
% end   .ps.prolog
/sRGB { [ /CIEBasedABC
          << /DecodeLMN
               [ { dup 0.03928 le
                        {12.92321 div}
                        {0.055 add 1.055 div 2.4 exp }
                     ifelse
                 } bind dup dup
               ]
             /MatrixLMN [0.412457 0.212673 0.019334
                         0.357576 0.715152 0.119192
                         0.180437 0.072175 0.950301]
             /WhitePoint [0.9505 1.0 1.0890]
           >>
         ] setcolorspace } bind def
/srgb { setcolor } bind def
%%IncludeResource: font Helvetica
/Helvetica findfont
dup length dict begin
  {1 index /FID ne {def} {pop pop} ifelse} forall
  /Encoding ISOLatin1Encoding def
  currentdict
  end
/Font1 exch definefont pop
%%IncludeResource: font Helvetica-Bold
/Helvetica-Bold findfont
dup length dict begin
  {1 index /FID ne {def} {pop pop} ifelse} forall
  /Encoding ISOLatin1Encoding def
  currentdict
  end
/Font2 exch definefont pop
%%IncludeResource: font Helvetica-Oblique
/Helvetica-Oblique findfont
dup length dict begin
  {1 index /FID ne {def} {pop pop} ifelse} forall
  /Encoding ISOLatin1Encoding def
  currentdict
  end
/Font3 exch definefont pop
%%IncludeResource: font Helvetica-BoldOblique
/Helvetica-BoldOblique findfont
dup length dict begin
  {1 index /FID ne {def} {pop pop} ifelse} forall
  /Encoding ISOLatin1Encoding def
  currentdict
  end
/Font4 exch definefont pop
%%IncludeResource: font Symbol
/Symbol findfont
dup length dict begin
  {1 index /FID ne {def} {pop pop} ifelse} forall
  currentdict
  end
/Font5 exch definefont pop
%%EndProlog
%%Page: 1 1
bp
0.00 0.00 432.00 576.00 cl
0.00 0.00 432.00 576.00 cl
0.00 0.00 432.00 576.00 cl
/Font1 findfont 12 s
0 0 0 srgb
48.00 508.72 (PCP-ETH) 0 0 t
48.00 494.89 (Blitzlicht-Photolyse) 0 0 t
/Font1 findfont 9 s
48.00 457.54 (File: V) 0 ta
-0.720 (er) tb
0.135 (ification_900V_toluene_3.dat) tb gr
48.00 334.87 (T) 0 ta
-1.080 (ue Apr  9 22:10:23 2019) tb gr
48.00 430.87 (Fitfunktion:  a + b * e) 0 ta
-0.270 (xp\(-c * t\)) tb gr
48.00 420.50 (t-Inter) 0 ta
0.270 (v) tb
-0.225 (all: 63.000 ... 717.000 ms) tb gr
48.00 410.14 (P) 0 ta
-0.360 (ar) tb
-0.090 (ameter \(Standardabw) tb
-0.090 (eichung\):) tb gr
48.00 399.77 (  a = 0.01425 \(0.00017\)) 0 0 t
48.00 389.40 (  b = 0.27295 \(0.00104\)) 0 0 t
48.00 379.03 (  c = 7.345e+00 \(3.611e-02\) s^-1) 0 0 t
48.00 368.66 (  tau = 1.361e-01 \(6.693e-04\) s) 0 0 t
216.00 345.60 388.80 518.40 cl
0 0 0 srgb
0.75 setlinewidth
[] 0 setdash
1 setlinecap
1 setlinejoin
10.00 setmiterlimit
np
222.40 511.16 m
0.15 0.11 l
0.14 -0.25 l
0.15 0.63 l
0.14 -0.14 l
0.15 -0.24 l
0.14 -0.11 l
0.15 0 l
0.14 0.11 l
0.15 0.24 l
0.15 0.14 l
0.14 0.11 l
0.15 -0.11 l
0.14 -0.25 l
0.15 -0.24 l
0.14 -0.24 l
0.15 0.59 l
0.14 0 l
0.15 -0.11 l
0.15 0.49 l
0.14 -0.49 l
0.15 0.49 l
0.14 -0.24 l
0.15 -0.25 l
0.14 -0.24 l
0.15 0 l
0.15 -0.14 l
0.14 0.25 l
0.15 0 l
0.14 -0.11 l
0.15 0.35 l
0.14 0 l
0.15 -0.24 l
0.14 0.49 l
0.15 -0.74 l
0.15 0.14 l
0.14 -0.24 l
0.15 0.35 l
0.14 0.38 l
0.15 0 l
0.14 0 l
0.15 -0.38 l
0.14 -0.73 l
0.15 0.86 l
0.15 -0.24 l
0.14 0.73 l
0.15 -0.38 l
0.14 -0.35 l
0.15 0.11 l
0.14 0 l
0.15 0.13 l
0.14 0.49 l
0.15 -0.73 l
0.15 0.24 l
0.14 -0.13 l
0.15 -0.11 l
0.14 0.73 l
0.15 -0.49 l
0.14 0.25 l
0.15 -0.14 l
0.15 0.14 l
0.14 -0.87 l
0.15 0.62 l
0.14 0.11 l
0.15 0.25 l
0.14 -0.36 l
0.15 0.11 l
0.14 0.25 l
0.15 -0.74 l
0.15 0.25 l
0.14 0.49 l
0.15 -0.25 l
0.14 -0.11 l
0.15 -0.38 l
0.14 0.38 l
0.15 0 l
0.14 -0.13 l
0.15 0 l
0.15 0.38 l
0.14 -0.25 l
0.15 -0.24 l
0.14 -0.38 l
0.15 0.38 l
0.14 0.11 l
0.15 0.38 l
0.14 0.11 l
0.15 0.13 l
0.15 -0.73 l
0.14 0.11 l
0.15 -0.11 l
0.14 -0.14 l
0.15 0.98 l
0.14 -0.60 l
0.15 0.36 l
0.15 -0.74 l
0.14 0.14 l
0.15 -0.38 l
0.14 0.62 l
0.15 0.25 l
0.14 0.24 l
236.96 434.56 lineto
0.14 2.18 l
0.15 3.05 l
0.15 0.13 l
0.14 1.82 l
0.15 -0.38 l
0.14 2.19 l
0.15 0.49 l
0.14 0.24 l
0.15 2.44 l
0.14 1.46 l
0.15 0 l
0.15 0.60 l
0.14 1.11 l
0.15 0.35 l
0.14 0.73 l
0.15 0.36 l
0.14 2.33 l
0.15 0.48 l
0.14 1.09 l
0.15 1.08 l
0.15 0.98 l
0.14 0.62 l
0.15 0.97 l
0.14 0.25 l
0.15 1.32 l
0.14 0.38 l
0.15 0.46 l
0.15 0.63 l
0.14 1.70 l
0.15 1.22 l
0.14 1.09 l
0.15 0.13 l
0.14 0.95 l
0.15 0.13 l
0.14 1.09 l
0.15 0.13 l
0.15 0.98 l
0.14 1.08 l
0.15 0.49 l
0.14 0.14 l
0.15 1.32 l
0.14 0.25 l
0.15 0.84 l
0.14 0.73 l
0.15 0.48 l
0.15 -0.24 l
0.14 1.46 l
0.15 0.25 l
0.14 1.46 l
0.15 0.49 l
0.14 0.24 l
0.15 0.35 l
0.14 0.25 l
0.15 0.73 l
0.15 -0.35 l
0.14 1.32 l
0.15 0.38 l
0.14 1.33 l
0.15 0.49 l
0.14 0.11 l
0.15 0.62 l
0.15 0.11 l
0.14 0 l
0.15 0.97 l
0.14 0.25 l
0.15 0.86 l
0.14 0.49 l
0.15 0.35 l
0.14 0.49 l
0.15 0 l
0.15 0.60 l
0.14 0.48 l
0.15 0.25 l
0.14 -0.11 l
0.15 0.49 l
0.14 0.59 l
0.15 0.73 l
0.14 0.49 l
0.15 0.14 l
0.15 -0.14 l
0.14 0.87 l
0.15 -0.38 l
0.14 0.97 l
0.15 0 l
0.14 -0.10 l
0.15 0.84 l
0.14 0.35 l
0.15 0.62 l
0.15 -0.13 l
0.14 0.13 l
0.15 0.84 l
0.14 0.38 l
0.15 -1.22 l
0.14 1.08 l
0.15 -0.35 l
0.15 0.84 l
0.14 0.62 l
0.15 0.11 l
0.14 0.63 l
251.52 496.56 lineto
0.14 -0.35 l
0.15 0.59 l
0.14 -0.10 l
0.15 0.24 l
0.15 -0.14 l
0.14 0.38 l
0.15 0.11 l
0.14 0.35 l
0.15 0.87 l
0.14 -0.13 l
0.15 0.37 l
0.14 -0.48 l
0.15 0.84 l
0.15 -0.98 l
0.14 0.25 l
0.15 0.73 l
0.14 0 l
0.15 1.59 l
0.14 -0.24 l
0.15 -0.87 l
0.14 0.63 l
0.15 -0.49 l
0.15 0 l
0.14 0.24 l
0.15 0.25 l
0.14 0.35 l
0.15 0 l
0.14 0 l
0.15 0.49 l
0.14 0.24 l
0.15 -0.60 l
0.15 0.84 l
0.14 -0.10 l
0.15 -0.38 l
0.14 0.24 l
0.15 0.49 l
0.14 0.24 l
0.15 -0.11 l
0.15 0.25 l
0.14 0 l
0.15 0 l
0.14 -0.73 l
0.15 0.84 l
0.14 0.84 l
0.15 -0.84 l
0.14 -0.60 l
0.15 0.11 l
0.15 1.08 l
0.14 0.38 l
0.15 -0.13 l
0.14 -0.11 l
0.15 0.35 l
0.14 -0.73 l
0.15 0.13 l
0.14 -0.13 l
0.15 0.62 l
0.15 -0.24 l
0.14 0.73 l
0.15 0.11 l
0.14 -0.25 l
0.15 -0.11 l
0.14 -0.37 l
0.15 0.62 l
0.14 -0.62 l
0.15 0 l
0.15 -0.11 l
0.14 0.35 l
0.15 0.24 l
0.14 0.87 l
0.15 0.35 l
0.14 -0.49 l
0.15 0 l
0.15 -0.59 l
0.14 0.35 l
0.15 0.24 l
0.14 -0.10 l
0.15 -0.38 l
0.14 0.48 l
0.15 0.14 l
0.14 -0.14 l
0.15 0.25 l
0.15 -0.11 l
0.14 -0.14 l
0.15 -0.10 l
0.14 -0.25 l
0.15 0.11 l
0.14 0.87 l
0.15 -0.49 l
0.14 0.73 l
0.15 -0.24 l
0.15 0.11 l
0.14 -0.74 l
0.15 0.98 l
0.14 -0.73 l
0.15 0.13 l
0.14 0.60 l
0.15 0 l
0.14 0 l
0.15 -0.24 l
266.08 504.71 lineto
0.14 -0.24 l
0.15 0.98 l
0.14 -0.87 l
0.15 0.49 l
0.14 0.48 l
0.15 0.49 l
0.15 -0.84 l
0.14 0.25 l
0.15 -0.87 l
0.14 0.49 l
0.15 0.13 l
0.14 -0.38 l
0.15 0.14 l
0.14 0.97 l
0.15 -0.73 l
0.15 0.35 l
0.14 0 l
0.15 0 l
0.14 -1.22 l
0.15 0.98 l
0.14 0 l
0.15 0.49 l
0.14 0.38 l
0.15 -0.14 l
0.15 -0.59 l
0.14 0.10 l
0.15 0.38 l
0.14 -0.48 l
0.15 0.24 l
0.14 0.73 l
0.15 -0.24 l
0.14 -0.25 l
0.15 0.11 l
0.15 -0.97 l
0.14 -0.11 l
0.15 0.59 l
0.14 0.63 l
0.15 0.24 l
0.14 -0.62 l
0.15 -0.25 l
0.15 0.25 l
0.14 -0.11 l
0.15 0.35 l
0.14 -0.49 l
0.15 0.98 l
0.14 -0.49 l
0.15 0.38 l
0.14 0 l
0.15 -0.87 l
0.15 0.14 l
0.14 0 l
0.15 -0.49 l
0.14 0.73 l
0.15 0.60 l
0.14 -0.49 l
0.15 0.49 l
0.14 -0.73 l
0.15 0 l
0.15 -0.11 l
0.14 0 l
0.15 0.24 l
0.14 0.35 l
0.15 -0.24 l
0.14 1.11 l
0.15 -1.22 l
0.14 0.49 l
0.15 -0.38 l
0.15 -0.84 l
0.14 0.98 l
0.15 -0.25 l
0.14 0.49 l
0.15 0 l
0.14 -0.24 l
0.15 0.24 l
0.15 0.24 l
0.14 -0.13 l
0.15 -0.11 l
0.14 -1.11 l
0.15 0.62 l
0.14 -0.13 l
0.15 0.62 l
0.14 0.11 l
0.15 0.24 l
0.15 0 l
0.14 -0.49 l
0.15 -0.24 l
0.14 -0.11 l
0.15 0.11 l
0.14 0.14 l
0.15 0.97 l
0.14 -0.13 l
0.15 -0.25 l
0.15 -0.24 l
0.14 -0.49 l
0.15 0.38 l
0.14 0.24 l
0.15 -0.62 l
0.14 0.73 l
0.15 -0.11 l
280.63 507.02 lineto
0.15 -0.11 l
0.15 0.11 l
0.14 -0.25 l
0.15 -0.11 l
0.14 0 l
0.15 0.11 l
0.14 -0.84 l
0.15 0.25 l
0.15 1.08 l
0.14 -0.35 l
0.15 0.24 l
0.14 -0.62 l
0.15 -0.60 l
0.14 0.25 l
0.15 -0.38 l
0.14 0.62 l
0.15 0.49 l
0.15 -0.25 l
0.14 0.60 l
0.15 -0.60 l
0.14 0.11 l
0.15 -0.11 l
0.14 0.36 l
0.15 -0.60 l
0.14 0.11 l
0.15 0.62 l
0.15 -0.38 l
0.14 0.14 l
0.15 0 l
0.14 0.35 l
0.15 -0.73 l
0.14 0.87 l
0.15 -1.12 l
0.14 0.38 l
0.15 -0.24 l
0.15 0.84 l
0.14 -0.24 l
0.15 0 l
0.14 -0.11 l
0.15 0 l
0.14 -0.63 l
0.15 0.49 l
0.14 0.38 l
0.15 -0.38 l
0.15 0.38 l
0.14 0.11 l
0.15 -0.84 l
0.14 0.24 l
0.15 0.25 l
0.14 0.49 l
0.15 -0.14 l
0.15 -0.60 l
0.14 -0.24 l
0.15 0 l
0.14 0.84 l
0.15 -0.35 l
0.14 0.24 l
0.15 -0.24 l
0.14 -0.25 l
0.15 0.25 l
0.15 -0.25 l
0.14 -0.48 l
0.15 0.24 l
0.14 0.60 l
0.15 0.38 l
0.14 -0.74 l
0.15 0.36 l
0.14 -0.36 l
0.15 0.49 l
0.15 0 l
0.14 0 l
0.15 0.35 l
0.14 -0.48 l
0.15 -0.60 l
0.14 1.33 l
0.15 -0.84 l
0.14 0.35 l
0.15 0.14 l
0.15 -0.14 l
0.14 -0.84 l
0.15 0.24 l
0.14 0.49 l
0.15 0 l
0.14 0.35 l
0.15 -0.10 l
0.15 0 l
0.14 -0.14 l
0.15 0.14 l
0.14 -0.63 l
0.15 0.84 l
0.14 -0.35 l
0.15 -0.24 l
0.14 0.38 l
0.15 -0.25 l
0.15 0.11 l
0.14 -0.11 l
0.15 0.11 l
0.14 -0.11 l
0.15 -0.13 l
295.19 506.66 lineto
0.15 0.60 l
0.14 -0.60 l
0.15 0.95 l
0.15 -0.46 l
0.14 0.35 l
0.15 -0.10 l
0.14 -0.49 l
0.15 0.59 l
0.14 0 l
0.15 -0.48 l
0.14 0.48 l
0.15 -0.24 l
0.15 -0.49 l
0.14 0.84 l
0.15 -0.46 l
0.14 0.11 l
0.15 0.14 l
0.14 -0.14 l
0.15 0.14 l
0.15 0 l
0.14 -0.49 l
0.15 0.24 l
0.14 0.25 l
0.15 0.35 l
0.14 -0.25 l
0.15 0.36 l
0.14 -0.25 l
0.15 -0.35 l
0.15 0.73 l
0.14 -0.38 l
0.15 0.14 l
0.14 -0.35 l
0.15 -0.14 l
0.14 0.35 l
0.15 -0.70 l
0.14 0.49 l
0.15 -0.25 l
0.15 0.71 l
0.14 -0.25 l
0.15 -0.70 l
0.14 0.59 l
0.15 -0.59 l
0.14 0.59 l
0.15 0.49 l
0.14 -0.49 l
0.15 -0.24 l
0.15 -0.35 l
0.14 0.24 l
0.15 0.35 l
0.14 0 l
0.15 0.11 l
0.14 -0.11 l
0.15 0 l
0.15 -0.35 l
0.14 0.60 l
0.15 0.11 l
0.14 -0.11 l
0.15 -0.14 l
0.14 0.25 l
0.15 -0.46 l
0.14 0.94 l
0.15 -0.59 l
0.15 0.35 l
0.14 -0.24 l
0.15 -0.84 l
0.14 1.08 l
0.15 -0.49 l
0.14 -0.21 l
0.15 0.46 l
0.14 0 l
0.15 -0.11 l
0.15 0 l
0.14 -0.14 l
0.15 -0.21 l
0.14 0.59 l
0.15 0 l
0.14 0.11 l
0.15 -0.35 l
0.14 -0.35 l
0.15 0.46 l
0.15 -0.36 l
0.14 0.25 l
0.15 0.24 l
0.14 -0.59 l
0.15 0 l
0.14 0.35 l
0.15 0 l
0.15 -0.35 l
0.14 0.35 l
0.15 0.97 l
0.14 -1.11 l
0.15 -0.70 l
0.14 -0.14 l
0.15 0.49 l
0.14 0.24 l
0.15 0.73 l
0.15 -0.13 l
0.14 -0.95 l
0.15 0.46 l
309.75 507.40 lineto
0.15 0.83 l
0.14 -0.13 l
0.15 -0.24 l
0.14 0.13 l
0.15 0.49 l
0.15 -0.25 l
0.14 -0.48 l
0.15 -0.35 l
0.14 0.10 l
0.15 0.36 l
0.14 0.37 l
0.15 0 l
0.14 -0.83 l
0.15 0.10 l
0.15 0.11 l
0.14 -0.11 l
0.15 0.36 l
0.14 0 l
0.15 0 l
0.14 -0.11 l
0.15 -0.14 l
0.15 0.38 l
0.14 0 l
0.15 0.11 l
0.14 -1.08 l
0.15 0.97 l
0.14 -0.13 l
0.15 -0.36 l
0.14 0.60 l
0.15 -0.11 l
0.15 0.35 l
0.14 -0.73 l
0.15 0.38 l
0.14 0.11 l
0.15 -0.49 l
0.14 0 l
0.15 0.73 l
0.14 -0.35 l
0.15 -0.59 l
0.15 0.10 l
0.14 -0.10 l
0.15 0.70 l
0.14 -0.11 l
0.15 0.11 l
0.14 -0.35 l
0.15 -0.14 l
0.14 0.38 l
0.15 -0.13 l
0.15 -0.25 l
0.14 0.62 l
0.15 0 l
0.14 -0.13 l
0.15 -0.24 l
0.14 0.48 l
0.15 -0.35 l
0.15 0.98 l
0.14 -0.49 l
0.15 -0.14 l
0.14 -0.48 l
0.15 -0.60 l
0.14 0.84 l
0.15 -0.35 l
0.14 0.59 l
0.15 0.14 l
0.15 -0.49 l
0.14 0 l
0.15 0.11 l
0.14 -0.35 l
0.15 0.48 l
0.14 -0.24 l
0.15 0.60 l
0.14 -0.49 l
0.15 0.13 l
0.15 -0.73 l
0.14 0.11 l
0.15 0.38 l
0.14 0.24 l
0.15 0.74 l
0.14 -1.11 l
0.15 0.37 l
0.14 -0.24 l
0.15 -0.13 l
0.15 0.13 l
0.14 0.49 l
0.15 -0.62 l
0.14 0.24 l
0.15 0.38 l
0.14 -0.73 l
0.15 0 l
0.14 0.24 l
0.15 -0.49 l
0.15 0.60 l
0.14 0 l
0.15 0.49 l
0.14 -0.25 l
0.15 0.14 l
0.14 -0.49 l
0.15 0.49 l
0.15 0 l
324.31 508.34 lineto
0.15 0 l
0.14 -0.59 l
0.15 0.24 l
0.14 0.98 l
0.15 -1.22 l
0.14 0.48 l
0.15 -0.48 l
0.15 0.48 l
0.14 0.11 l
0.15 -0.35 l
0.14 0.35 l
0.15 -0.11 l
0.14 0.25 l
0.15 0.11 l
0.14 -0.73 l
0.15 0.13 l
0.15 0.49 l
0.14 -0.38 l
0.15 0.73 l
0.14 -0.60 l
0.15 -0.37 l
0.14 0.24 l
0.15 0 l
0.14 0.49 l
0.15 0.24 l
0.15 0.14 l
0.14 -1.36 l
0.15 0.73 l
0.14 0.73 l
0.15 -0.97 l
0.14 0.49 l
0.15 -0.25 l
0.15 0.14 l
0.14 -0.25 l
0.15 -0.37 l
0.14 0.37 l
0.15 0.36 l
0.14 -1.33 l
0.15 1.46 l
0.14 -0.13 l
0.15 -0.49 l
0.15 0.97 l
0.14 -0.73 l
0.15 -0.48 l
0.14 1.59 l
0.15 -1.11 l
0.14 0.49 l
0.15 -0.35 l
0.14 -0.62 l
0.15 0.97 l
0.15 -0.11 l
0.14 -0.24 l
0.15 0.59 l
0.14 -1.46 l
0.15 0.98 l
0.14 0.62 l
0.15 -0.98 l
0.14 0.84 l
0.15 -0.24 l
0.15 -0.24 l
0.14 0 l
0.15 0.24 l
0.14 -0.35 l
0.15 -0.25 l
0.14 0.49 l
0.15 -0.62 l
0.15 -0.11 l
0.14 0.24 l
0.15 0.49 l
0.14 -0.13 l
0.15 -0.11 l
0.14 0.35 l
0.15 -0.49 l
0.14 -0.24 l
0.15 0 l
0.15 0.62 l
0.14 0 l
0.15 -0.24 l
0.14 0 l
0.15 -0.25 l
0.14 0.25 l
0.15 0.24 l
0.14 0.11 l
0.15 -0.60 l
0.15 0.25 l
0.14 0 l
0.15 -0.25 l
0.14 -0.13 l
0.15 0.87 l
0.14 0 l
0.15 0.24 l
0.14 -0.24 l
0.15 0 l
0.15 -0.87 l
0.14 0.24 l
0.15 -0.11 l
0.14 -0.24 l
0.15 0.98 l
0.14 -0.63 l
338.87 508.72 lineto
0.15 -0.13 l
0.14 0.13 l
0.15 0.25 l
0.14 -0.14 l
0.15 0.14 l
0.14 -0.38 l
0.15 0.24 l
0.14 -0.60 l
0.15 0.84 l
0.15 0.14 l
0.14 -0.87 l
0.15 0.63 l
0.14 -0.63 l
0.15 0.14 l
0.14 0 l
0.15 0.11 l
0.14 0.24 l
0.15 0 l
0.15 -0.35 l
0.14 0.11 l
0.15 0 l
0.14 0.24 l
0.15 0.38 l
0.14 0.11 l
0.15 -0.73 l
0.14 0.13 l
0.15 -0.49 l
0.15 0.84 l
0.14 -0.24 l
0.15 0.24 l
0.14 0.14 l
0.15 -0.24 l
0.14 -0.14 l
0.15 0.24 l
0.15 -0.59 l
0.14 0.24 l
0.15 -0.13 l
0.14 0.48 l
0.15 -0.48 l
0.14 0.24 l
0.15 -0.49 l
0.14 0.25 l
0.15 0.48 l
0.15 -0.24 l
0.14 0.24 l
0.15 -0.59 l
0.14 0.11 l
0.15 0.38 l
0.14 -0.25 l
0.15 0.98 l
0.14 -1.11 l
0.15 0.38 l
0.15 0.35 l
0.14 0.13 l
0.15 -0.62 l
0.14 -0.11 l
0.15 0.25 l
0.14 0.10 l
0.15 -0.35 l
0.14 -0.38 l
0.15 0.49 l
0.15 -0.24 l
0.14 0.38 l
0.15 0.73 l
0.14 -1.11 l
0.15 0 l
0.14 0.24 l
0.15 0.24 l
0.15 0.38 l
0.14 0.25 l
0.15 -0.49 l
0.14 0.11 l
0.15 0.38 l
0.14 -0.49 l
0.15 -0.14 l
0.14 0 l
0.15 -0.24 l
0.15 0.24 l
0.14 -0.59 l
0.15 0.11 l
0.14 0.13 l
0.15 0.73 l
0.14 -0.24 l
0.15 -0.38 l
0.14 0.73 l
0.15 -1.08 l
0.15 0.24 l
0.14 0.25 l
0.15 -0.25 l
0.14 0.60 l
0.15 -0.25 l
0.14 0 l
0.15 0.25 l
0.14 -0.60 l
0.15 0.49 l
0.15 0.24 l
0.14 -0.62 l
0.15 0.49 l
0.14 -0.49 l
353.43 508.83 lineto
0.14 0.24 l
0.15 0 l
0.14 0 l
0.15 0.25 l
0.15 -0.49 l
0.14 0.24 l
0.15 0.49 l
0.14 -0.49 l
0.15 0.74 l
0.14 -0.36 l
0.15 -0.13 l
0.15 -0.25 l
0.14 0 l
0.15 -0.10 l
0.14 0.24 l
0.15 -0.14 l
0.14 -0.10 l
0.15 0.73 l
0.14 -1.11 l
0.15 0.62 l
0.15 -0.38 l
0.14 0.38 l
0.15 0.24 l
0.14 -0.38 l
0.15 0.74 l
0.14 -0.74 l
0.15 0.25 l
0.14 -0.35 l
0.15 0.10 l
0.15 0.63 l
0.14 -0.14 l
0.15 -0.24 l
0.14 -0.25 l
0.15 0.14 l
0.14 -0.62 l
0.15 1.22 l
0.14 -0.11 l
0.15 -0.73 l
0.15 0.59 l
0.14 -0.35 l
0.15 0.49 l
0.14 -0.14 l
0.15 -0.24 l
0.14 0.13 l
0.15 -0.13 l
0.15 -0.11 l
0.14 -0.24 l
0.15 0.48 l
0.14 0.36 l
0.15 -0.36 l
0.14 0.25 l
0.15 -0.38 l
0.14 0.24 l
0.15 -0.11 l
0.15 0 l
0.14 0.11 l
0.15 -0.11 l
0.14 0 l
0.15 -0.38 l
0.14 0.14 l
0.15 0.11 l
0.14 -0.11 l
0.15 0.49 l
0.15 -0.38 l
0.14 -0.25 l
0.15 0.14 l
0.14 0.24 l
0.15 -0.62 l
0.14 0.62 l
0.15 0.49 l
0.14 -0.24 l
0.15 -0.25 l
0.15 0 l
0.14 0.11 l
0.15 -0.49 l
0.14 0.63 l
0.15 -0.49 l
0.14 0.24 l
0.15 0 l
0.15 -0.62 l
0.14 0 l
0.15 0.38 l
0.14 0.35 l
0.15 0.25 l
0.14 -0.49 l
0.15 0.13 l
0.14 -0.24 l
0.15 0.49 l
0.15 -0.49 l
0.14 0.98 l
0.15 -0.14 l
0.14 0.62 l
0.15 -0.97 l
0.14 -0.63 l
0.15 -0.10 l
0.14 0.35 l
0.15 -0.11 l
0.15 0.11 l
0.14 -0.60 l
currentpoint o m
367.99 509.56 lineto
0.14 -0.49 l
0.15 0.49 l
0.14 0 l
0.15 0.25 l
0.14 -0.49 l
0.15 0.49 l
0.15 0 l
0.14 0 l
0.15 -0.11 l
0.14 -0.49 l
0.15 0.49 l
0.14 0.11 l
0.15 -0.74 l
0.15 0.49 l
0.14 -0.35 l
0.15 0.49 l
0.14 -0.14 l
0.15 -0.11 l
0.14 0 l
0.15 0.11 l
0.14 -0.35 l
0.15 0.73 l
0.15 -0.24 l
0.14 0.24 l
0.15 -0.62 l
0.14 -0.11 l
0.15 -0.24 l
0.14 0.35 l
0.15 -0.11 l
0.14 0.24 l
0.15 0.25 l
0.15 -0.25 l
0.14 0.11 l
0.15 0.25 l
0.14 -0.25 l
0.15 0.49 l
0.14 0.24 l
0.15 -0.10 l
0.14 -0.38 l
0.15 -0.60 l
0.15 0 l
0.14 0.11 l
0.15 0.62 l
0.14 -0.62 l
0.15 0.24 l
0.14 -0.11 l
0.15 0 l
0.15 0.49 l
0.14 -0.24 l
0.15 0.24 l
0.14 0.25 l
0.15 -0.49 l
0.14 -0.25 l
0.15 -0.13 l
0.14 0 l
0.15 0.62 l
0.15 0 l
0.14 0.25 l
0.15 -0.14 l
0.14 -0.73 l
0.15 0.24 l
0.14 0.98 l
0.15 -0.60 l
0.14 -0.13 l
0.15 0.62 l
0.15 -0.98 l
0.14 0.49 l
0.15 -0.62 l
0.14 0.97 l
0.15 -0.24 l
0.14 -0.35 l
0.15 -0.14 l
0.14 0 l
0.15 0 l
0.15 0 l
0.14 0.14 l
0.15 -0.14 l
0.14 0 l
0.15 0.73 l
0.14 -0.84 l
0.15 0.36 l
0.15 -0.36 l
0.14 0.49 l
0.15 0.25 l
0.14 -0.25 l
0.15 0 l
0.14 -0.38 l
0.15 0.38 l
0.14 -0.87 l
0.15 0.74 l
0.15 -0.11 l
0.14 0.24 l
0.15 -0.24 l
0.14 0.24 l
0.15 -0.13 l
0.14 -0.11 l
0.15 0.24 l
0.14 -0.24 l
0.15 -0.14 l
o
/bg { 1 1 1 srgb } def
222.40 511.16 0.43 c p3
222.55 511.27 0.43 c p3
222.69 511.02 0.43 c p3
222.84 511.65 0.43 c p3
222.98 511.51 0.43 c p3
223.13 511.27 0.43 c p3
223.27 511.16 0.43 c p3
223.42 511.16 0.43 c p3
223.56 511.27 0.43 c p3
223.71 511.51 0.43 c p3
223.86 511.65 0.43 c p3
224.00 511.76 0.43 c p3
224.15 511.65 0.43 c p3
224.29 511.40 0.43 c p3
224.44 511.16 0.43 c p3
224.58 510.92 0.43 c p3
224.73 511.51 0.43 c p3
224.87 511.51 0.43 c p3
225.02 511.40 0.43 c p3
225.17 511.89 0.43 c p3
225.31 511.40 0.43 c p3
225.46 511.89 0.43 c p3
225.60 511.65 0.43 c p3
225.75 511.40 0.43 c p3
225.89 511.16 0.43 c p3
226.04 511.16 0.43 c p3
226.19 511.02 0.43 c p3
226.33 511.27 0.43 c p3
226.48 511.27 0.43 c p3
226.62 511.16 0.43 c p3
226.77 511.51 0.43 c p3
226.91 511.51 0.43 c p3
227.06 511.27 0.43 c p3
227.20 511.76 0.43 c p3
227.35 511.02 0.43 c p3
227.50 511.16 0.43 c p3
227.64 510.92 0.43 c p3
227.79 511.27 0.43 c p3
227.93 511.65 0.43 c p3
228.08 511.65 0.43 c p3
228.22 511.65 0.43 c p3
228.37 511.27 0.43 c p3
228.51 510.54 0.43 c p3
228.66 511.40 0.43 c p3
228.81 511.16 0.43 c p3
228.95 511.89 0.43 c p3
229.10 511.51 0.43 c p3
229.24 511.16 0.43 c p3
229.39 511.27 0.43 c p3
229.53 511.27 0.43 c p3
229.68 511.40 0.43 c p3
229.82 511.89 0.43 c p3
229.97 511.16 0.43 c p3
230.12 511.40 0.43 c p3
230.26 511.27 0.43 c p3
230.41 511.16 0.43 c p3
230.55 511.89 0.43 c p3
230.70 511.40 0.43 c p3
230.84 511.65 0.43 c p3
230.99 511.51 0.43 c p3
231.14 511.65 0.43 c p3
231.28 510.78 0.43 c p3
231.43 511.40 0.43 c p3
231.57 511.51 0.43 c p3
231.72 511.76 0.43 c p3
231.86 511.40 0.43 c p3
232.01 511.51 0.43 c p3
232.15 511.76 0.43 c p3
232.30 511.02 0.43 c p3
232.45 511.27 0.43 c p3
232.59 511.76 0.43 c p3
232.74 511.51 0.43 c p3
232.88 511.40 0.43 c p3
233.03 511.02 0.43 c p3
233.17 511.40 0.43 c p3
233.32 511.40 0.43 c p3
233.46 511.27 0.43 c p3
233.61 511.27 0.43 c p3
233.76 511.65 0.43 c p3
233.90 511.40 0.43 c p3
234.05 511.16 0.43 c p3
234.19 510.78 0.43 c p3
234.34 511.16 0.43 c p3
234.48 511.27 0.43 c p3
234.63 511.65 0.43 c p3
234.77 511.76 0.43 c p3
234.92 511.89 0.43 c p3
235.07 511.16 0.43 c p3
235.21 511.27 0.43 c p3
235.36 511.16 0.43 c p3
235.50 511.02 0.43 c p3
235.65 512.00 0.43 c p3
235.79 511.40 0.43 c p3
235.94 511.76 0.43 c p3
236.09 511.02 0.43 c p3
236.23 511.16 0.43 c p3
236.38 510.78 0.43 c p3
236.52 511.40 0.43 c p3
236.67 511.65 0.43 c p3
236.81 511.89 0.43 c p3
236.96 434.56 0.43 c p3
237.10 436.74 0.43 c p3
237.25 439.79 0.43 c p3
237.40 439.92 0.43 c p3
237.54 441.74 0.43 c p3
237.69 441.36 0.43 c p3
237.83 443.55 0.43 c p3
237.98 444.04 0.43 c p3
238.12 444.28 0.43 c p3
238.27 446.72 0.43 c p3
238.41 448.18 0.43 c p3
238.56 448.18 0.43 c p3
238.71 448.78 0.43 c p3
238.85 449.89 0.43 c p3
239.00 450.24 0.43 c p3
239.14 450.97 0.43 c p3
239.29 451.33 0.43 c p3
239.43 453.66 0.43 c p3
239.58 454.14 0.43 c p3
239.72 455.23 0.43 c p3
239.87 456.31 0.43 c p3
240.02 457.29 0.43 c p3
240.16 457.91 0.43 c p3
240.31 458.88 0.43 c p3
240.45 459.13 0.43 c p3
240.60 460.45 0.43 c p3
240.74 460.83 0.43 c p3
240.89 461.29 0.43 c p3
241.04 461.92 0.43 c p3
241.18 463.62 0.43 c p3
241.33 464.84 0.43 c p3
241.47 465.93 0.43 c p3
241.62 466.06 0.43 c p3
241.76 467.01 0.43 c p3
241.91 467.14 0.43 c p3
242.05 468.23 0.43 c p3
242.20 468.36 0.43 c p3
242.35 469.34 0.43 c p3
242.49 470.42 0.43 c p3
242.64 470.91 0.43 c p3
242.78 471.05 0.43 c p3
242.93 472.37 0.43 c p3
243.07 472.62 0.43 c p3
243.22 473.46 0.43 c p3
243.36 474.19 0.43 c p3
243.51 474.67 0.43 c p3
243.66 474.43 0.43 c p3
243.80 475.89 0.43 c p3
243.95 476.14 0.43 c p3
244.09 477.60 0.43 c p3
244.24 478.09 0.43 c p3
244.38 478.33 0.43 c p3
244.53 478.68 0.43 c p3
244.67 478.93 0.43 c p3
244.82 479.66 0.43 c p3
244.97 479.31 0.43 c p3
245.11 480.63 0.43 c p3
245.26 481.01 0.43 c p3
245.40 482.34 0.43 c p3
245.55 482.83 0.43 c p3
245.69 482.94 0.43 c p3
245.84 483.56 0.43 c p3
245.99 483.67 0.43 c p3
246.13 483.67 0.43 c p3
246.28 484.64 0.43 c p3
246.42 484.89 0.43 c p3
246.57 485.75 0.43 c p3
246.71 486.24 0.43 c p3
246.86 486.59 0.43 c p3
247.00 487.08 0.43 c p3
247.15 487.08 0.43 c p3
247.30 487.68 0.43 c p3
247.44 488.16 0.43 c p3
247.59 488.41 0.43 c p3
247.73 488.30 0.43 c p3
247.88 488.79 0.43 c p3
248.02 489.38 0.43 c p3
248.17 490.11 0.43 c p3
248.31 490.60 0.43 c p3
248.46 490.74 0.43 c p3
248.61 490.60 0.43 c p3
248.75 491.47 0.43 c p3
248.90 491.09 0.43 c p3
249.04 492.06 0.43 c p3
249.19 492.06 0.43 c p3
249.33 491.96 0.43 c p3
249.48 492.80 0.43 c p3
249.62 493.15 0.43 c p3
249.77 493.77 0.43 c p3
249.92 493.64 0.43 c p3
250.06 493.77 0.43 c p3
250.21 494.61 0.43 c p3
250.35 494.99 0.43 c p3
250.50 493.77 0.43 c p3
250.64 494.85 0.43 c p3
250.79 494.50 0.43 c p3
250.94 495.34 0.43 c p3
251.08 495.96 0.43 c p3
251.23 496.07 0.43 c p3
251.37 496.70 0.43 c p3
251.52 496.56 0.43 c p3
251.66 496.21 0.43 c p3
251.81 496.80 0.43 c p3
251.95 496.70 0.43 c p3
252.10 496.94 0.43 c p3
252.25 496.80 0.43 c p3
252.39 497.18 0.43 c p3
252.54 497.29 0.43 c p3
252.68 497.64 0.43 c p3
252.83 498.51 0.43 c p3
252.97 498.38 0.43 c p3
253.12 498.75 0.43 c p3
253.26 498.27 0.43 c p3
253.41 499.11 0.43 c p3
253.56 498.13 0.43 c p3
253.70 498.38 0.43 c p3
253.85 499.11 0.43 c p3
253.99 499.11 0.43 c p3
254.14 500.70 0.43 c p3
254.28 500.46 0.43 c p3
254.43 499.59 0.43 c p3
254.57 500.22 0.43 c p3
254.72 499.73 0.43 c p3
254.87 499.73 0.43 c p3
255.01 499.97 0.43 c p3
255.16 500.22 0.43 c p3
255.30 500.57 0.43 c p3
255.45 500.57 0.43 c p3
255.59 500.57 0.43 c p3
255.74 501.06 0.43 c p3
255.88 501.30 0.43 c p3
256.03 500.70 0.43 c p3
256.18 501.54 0.43 c p3
256.32 501.44 0.43 c p3
256.47 501.06 0.43 c p3
256.61 501.30 0.43 c p3
256.76 501.79 0.43 c p3
256.90 502.03 0.43 c p3
257.05 501.92 0.43 c p3
257.20 502.17 0.43 c p3
257.34 502.17 0.43 c p3
257.49 502.17 0.43 c p3
257.63 501.44 0.43 c p3
257.78 502.28 0.43 c p3
257.92 503.12 0.43 c p3
258.07 502.28 0.43 c p3
258.21 501.68 0.43 c p3
258.36 501.79 0.43 c p3
258.51 502.87 0.43 c p3
258.65 503.25 0.43 c p3
258.80 503.12 0.43 c p3
258.94 503.01 0.43 c p3
259.09 503.36 0.43 c p3
259.23 502.63 0.43 c p3
259.38 502.76 0.43 c p3
259.52 502.63 0.43 c p3
259.67 503.25 0.43 c p3
259.82 503.01 0.43 c p3
259.96 503.74 0.43 c p3
260.11 503.85 0.43 c p3
260.25 503.60 0.43 c p3
260.40 503.49 0.43 c p3
260.54 503.12 0.43 c p3
260.69 503.74 0.43 c p3
260.83 503.12 0.43 c p3
260.98 503.12 0.43 c p3
261.13 503.01 0.43 c p3
261.27 503.36 0.43 c p3
261.42 503.60 0.43 c p3
261.56 504.47 0.43 c p3
261.71 504.82 0.43 c p3
261.85 504.33 0.43 c p3
262.00 504.33 0.43 c p3
262.15 503.74 0.43 c p3
262.29 504.09 0.43 c p3
262.44 504.33 0.43 c p3
262.58 504.23 0.43 c p3
262.73 503.85 0.43 c p3
262.87 504.33 0.43 c p3
263.02 504.47 0.43 c p3
263.16 504.33 0.43 c p3
263.31 504.58 0.43 c p3
263.46 504.47 0.43 c p3
263.60 504.33 0.43 c p3
263.75 504.23 0.43 c p3
263.89 503.98 0.43 c p3
264.04 504.09 0.43 c p3
264.18 504.96 0.43 c p3
264.33 504.47 0.43 c p3
264.47 505.20 0.43 c p3
264.62 504.96 0.43 c p3
264.77 505.07 0.43 c p3
264.91 504.33 0.43 c p3
265.06 505.31 0.43 c p3
265.20 504.58 0.43 c p3
265.35 504.71 0.43 c p3
265.49 505.31 0.43 c p3
265.64 505.31 0.43 c p3
265.78 505.31 0.43 c p3
265.93 505.07 0.43 c p3
266.08 504.71 0.43 c p3
266.22 504.47 0.43 c p3
266.37 505.45 0.43 c p3
266.51 504.58 0.43 c p3
266.66 505.07 0.43 c p3
266.80 505.55 0.43 c p3
266.95 506.04 0.43 c p3
267.10 505.20 0.43 c p3
267.24 505.45 0.43 c p3
267.39 504.58 0.43 c p3
267.53 505.07 0.43 c p3
267.68 505.20 0.43 c p3
267.82 504.82 0.43 c p3
267.97 504.96 0.43 c p3
268.11 505.93 0.43 c p3
268.26 505.20 0.43 c p3
268.41 505.55 0.43 c p3
268.55 505.55 0.43 c p3
268.70 505.55 0.43 c p3
268.84 504.33 0.43 c p3
268.99 505.31 0.43 c p3
269.13 505.31 0.43 c p3
269.28 505.80 0.43 c p3
269.42 506.18 0.43 c p3
269.57 506.04 0.43 c p3
269.72 505.45 0.43 c p3
269.86 505.55 0.43 c p3
270.01 505.93 0.43 c p3
270.15 505.45 0.43 c p3
270.30 505.69 0.43 c p3
270.44 506.42 0.43 c p3
270.59 506.18 0.43 c p3
270.73 505.93 0.43 c p3
270.88 506.04 0.43 c p3
271.03 505.07 0.43 c p3
271.17 504.96 0.43 c p3
271.32 505.55 0.43 c p3
271.46 506.18 0.43 c p3
271.61 506.42 0.43 c p3
271.75 505.80 0.43 c p3
271.90 505.55 0.43 c p3
272.05 505.80 0.43 c p3
272.19 505.69 0.43 c p3
272.34 506.04 0.43 c p3
272.48 505.55 0.43 c p3
272.63 506.53 0.43 c p3
272.77 506.04 0.43 c p3
272.92 506.42 0.43 c p3
273.06 506.42 0.43 c p3
273.21 505.55 0.43 c p3
273.36 505.69 0.43 c p3
273.50 505.69 0.43 c p3
273.65 505.20 0.43 c p3
273.79 505.93 0.43 c p3
273.94 506.53 0.43 c p3
274.08 506.04 0.43 c p3
274.23 506.53 0.43 c p3
274.37 505.80 0.43 c p3
274.52 505.80 0.43 c p3
274.67 505.69 0.43 c p3
274.81 505.69 0.43 c p3
274.96 505.93 0.43 c p3
275.10 506.28 0.43 c p3
275.25 506.04 0.43 c p3
275.39 507.15 0.43 c p3
275.54 505.93 0.43 c p3
275.68 506.42 0.43 c p3
275.83 506.04 0.43 c p3
275.98 505.20 0.43 c p3
276.12 506.18 0.43 c p3
276.27 505.93 0.43 c p3
276.41 506.42 0.43 c p3
276.56 506.42 0.43 c p3
276.70 506.18 0.43 c p3
276.85 506.42 0.43 c p3
277.00 506.66 0.43 c p3
277.14 506.53 0.43 c p3
277.29 506.42 0.43 c p3
277.43 505.31 0.43 c p3
277.58 505.93 0.43 c p3
277.72 505.80 0.43 c p3
277.87 506.42 0.43 c p3
278.01 506.53 0.43 c p3
278.16 506.77 0.43 c p3
278.31 506.77 0.43 c p3
278.45 506.28 0.43 c p3
278.60 506.04 0.43 c p3
278.74 505.93 0.43 c p3
278.89 506.04 0.43 c p3
279.03 506.18 0.43 c p3
279.18 507.15 0.43 c p3
279.32 507.02 0.43 c p3
279.47 506.77 0.43 c p3
279.62 506.53 0.43 c p3
279.76 506.04 0.43 c p3
279.91 506.42 0.43 c p3
280.05 506.66 0.43 c p3
280.20 506.04 0.43 c p3
280.34 506.77 0.43 c p3
280.49 506.66 0.43 c p3
280.63 507.02 0.43 c p3
280.78 506.91 0.43 c p3
280.93 507.02 0.43 c p3
281.07 506.77 0.43 c p3
281.22 506.66 0.43 c p3
281.36 506.66 0.43 c p3
281.51 506.77 0.43 c p3
281.65 505.93 0.43 c p3
281.80 506.18 0.43 c p3
281.95 507.26 0.43 c p3
282.09 506.91 0.43 c p3
282.24 507.15 0.43 c p3
282.38 506.53 0.43 c p3
282.53 505.93 0.43 c p3
282.67 506.18 0.43 c p3
282.82 505.80 0.43 c p3
282.96 506.42 0.43 c p3
283.11 506.91 0.43 c p3
283.26 506.66 0.43 c p3
283.40 507.26 0.43 c p3
283.55 506.66 0.43 c p3
283.69 506.77 0.43 c p3
283.84 506.66 0.43 c p3
283.98 507.02 0.43 c p3
284.13 506.42 0.43 c p3
284.27 506.53 0.43 c p3
284.42 507.15 0.43 c p3
284.57 506.77 0.43 c p3
284.71 506.91 0.43 c p3
284.86 506.91 0.43 c p3
285.00 507.26 0.43 c p3
285.15 506.53 0.43 c p3
285.29 507.40 0.43 c p3
285.44 506.28 0.43 c p3
285.58 506.66 0.43 c p3
285.73 506.42 0.43 c p3
285.88 507.26 0.43 c p3
286.02 507.02 0.43 c p3
286.17 507.02 0.43 c p3
286.31 506.91 0.43 c p3
286.46 506.91 0.43 c p3
286.60 506.28 0.43 c p3
286.75 506.77 0.43 c p3
286.89 507.15 0.43 c p3
287.04 506.77 0.43 c p3
287.19 507.15 0.43 c p3
287.33 507.26 0.43 c p3
287.48 506.42 0.43 c p3
287.62 506.66 0.43 c p3
287.77 506.91 0.43 c p3
287.91 507.40 0.43 c p3
288.06 507.26 0.43 c p3
288.21 506.66 0.43 c p3
288.35 506.42 0.43 c p3
288.50 506.42 0.43 c p3
288.64 507.26 0.43 c p3
288.79 506.91 0.43 c p3
288.93 507.15 0.43 c p3
289.08 506.91 0.43 c p3
289.22 506.66 0.43 c p3
289.37 506.91 0.43 c p3
289.52 506.66 0.43 c p3
289.66 506.18 0.43 c p3
289.81 506.42 0.43 c p3
289.95 507.02 0.43 c p3
290.10 507.40 0.43 c p3
290.24 506.66 0.43 c p3
290.39 507.02 0.43 c p3
290.53 506.66 0.43 c p3
290.68 507.15 0.43 c p3
290.83 507.15 0.43 c p3
290.97 507.15 0.43 c p3
291.12 507.50 0.43 c p3
291.26 507.02 0.43 c p3
291.41 506.42 0.43 c p3
291.55 507.75 0.43 c p3
291.70 506.91 0.43 c p3
291.84 507.26 0.43 c p3
291.99 507.40 0.43 c p3
292.14 507.26 0.43 c p3
292.28 506.42 0.43 c p3
292.43 506.66 0.43 c p3
292.57 507.15 0.43 c p3
292.72 507.15 0.43 c p3
292.86 507.50 0.43 c p3
293.01 507.40 0.43 c p3
293.16 507.40 0.43 c p3
293.30 507.26 0.43 c p3
293.45 507.40 0.43 c p3
293.59 506.77 0.43 c p3
293.74 507.61 0.43 c p3
293.88 507.26 0.43 c p3
294.03 507.02 0.43 c p3
294.17 507.40 0.43 c p3
294.32 507.15 0.43 c p3
294.47 507.26 0.43 c p3
294.61 507.15 0.43 c p3
294.76 507.26 0.43 c p3
294.90 507.15 0.43 c p3
295.05 507.02 0.43 c p3
295.19 506.66 0.43 c p3
295.34 507.26 0.43 c p3
295.48 506.66 0.43 c p3
295.63 507.61 0.43 c p3
295.78 507.15 0.43 c p3
295.92 507.50 0.43 c p3
296.07 507.40 0.43 c p3
296.21 506.91 0.43 c p3
296.36 507.50 0.43 c p3
296.50 507.50 0.43 c p3
296.65 507.02 0.43 c p3
296.79 507.50 0.43 c p3
296.94 507.26 0.43 c p3
297.09 506.77 0.43 c p3
297.23 507.61 0.43 c p3
297.38 507.15 0.43 c p3
297.52 507.26 0.43 c p3
297.67 507.40 0.43 c p3
297.81 507.26 0.43 c p3
297.96 507.40 0.43 c p3
298.11 507.40 0.43 c p3
298.25 506.91 0.43 c p3
298.40 507.15 0.43 c p3
298.54 507.40 0.43 c p3
298.69 507.75 0.43 c p3
298.83 507.50 0.43 c p3
298.98 507.86 0.43 c p3
299.12 507.61 0.43 c p3
299.27 507.26 0.43 c p3
299.42 507.99 0.43 c p3
299.56 507.61 0.43 c p3
299.71 507.75 0.43 c p3
299.85 507.40 0.43 c p3
300.00 507.26 0.43 c p3
300.14 507.61 0.43 c p3
300.29 506.91 0.43 c p3
300.43 507.40 0.43 c p3
300.58 507.15 0.43 c p3
300.73 507.86 0.43 c p3
300.87 507.61 0.43 c p3
301.02 506.91 0.43 c p3
301.16 507.50 0.43 c p3
301.31 506.91 0.43 c p3
301.45 507.50 0.43 c p3
301.60 507.99 0.43 c p3
301.74 507.50 0.43 c p3
301.89 507.26 0.43 c p3
302.04 506.91 0.43 c p3
302.18 507.15 0.43 c p3
302.33 507.50 0.43 c p3
302.47 507.50 0.43 c p3
302.62 507.61 0.43 c p3
302.76 507.50 0.43 c p3
302.91 507.50 0.43 c p3
303.06 507.15 0.43 c p3
303.20 507.75 0.43 c p3
303.35 507.86 0.43 c p3
303.49 507.75 0.43 c p3
303.64 507.61 0.43 c p3
303.78 507.86 0.43 c p3
303.93 507.40 0.43 c p3
304.07 508.34 0.43 c p3
304.22 507.75 0.43 c p3
304.37 508.10 0.43 c p3
304.51 507.86 0.43 c p3
304.66 507.02 0.43 c p3
304.80 508.10 0.43 c p3
304.95 507.61 0.43 c p3
305.09 507.40 0.43 c p3
305.24 507.86 0.43 c p3
305.38 507.86 0.43 c p3
305.53 507.75 0.43 c p3
305.68 507.75 0.43 c p3
305.82 507.61 0.43 c p3
305.97 507.40 0.43 c p3
306.11 507.99 0.43 c p3
306.26 507.99 0.43 c p3
306.40 508.10 0.43 c p3
306.55 507.75 0.43 c p3
306.69 507.40 0.43 c p3
306.84 507.86 0.43 c p3
306.99 507.50 0.43 c p3
307.13 507.75 0.43 c p3
307.28 507.99 0.43 c p3
307.42 507.40 0.43 c p3
307.57 507.40 0.43 c p3
307.71 507.75 0.43 c p3
307.86 507.75 0.43 c p3
308.01 507.40 0.43 c p3
308.15 507.75 0.43 c p3
308.30 508.72 0.43 c p3
308.44 507.61 0.43 c p3
308.59 506.91 0.43 c p3
308.73 506.77 0.43 c p3
308.88 507.26 0.43 c p3
309.02 507.50 0.43 c p3
309.17 508.23 0.43 c p3
309.32 508.10 0.43 c p3
309.46 507.15 0.43 c p3
309.61 507.61 0.43 c p3
309.75 507.40 0.43 c p3
309.90 508.23 0.43 c p3
310.04 508.10 0.43 c p3
310.19 507.86 0.43 c p3
310.33 507.99 0.43 c p3
310.48 508.48 0.43 c p3
310.63 508.23 0.43 c p3
310.77 507.75 0.43 c p3
310.92 507.40 0.43 c p3
311.06 507.50 0.43 c p3
311.21 507.86 0.43 c p3
311.35 508.23 0.43 c p3
311.50 508.23 0.43 c p3
311.64 507.40 0.43 c p3
311.79 507.50 0.43 c p3
311.94 507.61 0.43 c p3
312.08 507.50 0.43 c p3
312.23 507.86 0.43 c p3
312.37 507.86 0.43 c p3
312.52 507.86 0.43 c p3
312.66 507.75 0.43 c p3
312.81 507.61 0.43 c p3
312.96 507.99 0.43 c p3
313.10 507.99 0.43 c p3
313.25 508.10 0.43 c p3
313.39 507.02 0.43 c p3
313.54 507.99 0.43 c p3
313.68 507.86 0.43 c p3
313.83 507.50 0.43 c p3
313.97 508.10 0.43 c p3
314.12 507.99 0.43 c p3
314.27 508.34 0.43 c p3
314.41 507.61 0.43 c p3
314.56 507.99 0.43 c p3
314.70 508.10 0.43 c p3
314.85 507.61 0.43 c p3
314.99 507.61 0.43 c p3
315.14 508.34 0.43 c p3
315.28 507.99 0.43 c p3
315.43 507.40 0.43 c p3
315.58 507.50 0.43 c p3
315.72 507.40 0.43 c p3
315.87 508.10 0.43 c p3
316.01 507.99 0.43 c p3
316.16 508.10 0.43 c p3
316.30 507.75 0.43 c p3
316.45 507.61 0.43 c p3
316.59 507.99 0.43 c p3
316.74 507.86 0.43 c p3
316.89 507.61 0.43 c p3
317.03 508.23 0.43 c p3
317.18 508.23 0.43 c p3
317.32 508.10 0.43 c p3
317.47 507.86 0.43 c p3
317.61 508.34 0.43 c p3
317.76 507.99 0.43 c p3
317.91 508.97 0.43 c p3
318.05 508.48 0.43 c p3
318.20 508.34 0.43 c p3
318.34 507.86 0.43 c p3
318.49 507.26 0.43 c p3
318.63 508.10 0.43 c p3
318.78 507.75 0.43 c p3
318.92 508.34 0.43 c p3
319.07 508.48 0.43 c p3
319.22 507.99 0.43 c p3
319.36 507.99 0.43 c p3
319.51 508.10 0.43 c p3
319.65 507.75 0.43 c p3
319.80 508.23 0.43 c p3
319.94 507.99 0.43 c p3
320.09 508.59 0.43 c p3
320.23 508.10 0.43 c p3
320.38 508.23 0.43 c p3
320.53 507.50 0.43 c p3
320.67 507.61 0.43 c p3
320.82 507.99 0.43 c p3
320.96 508.23 0.43 c p3
321.11 508.97 0.43 c p3
321.25 507.86 0.43 c p3
321.40 508.23 0.43 c p3
321.54 507.99 0.43 c p3
321.69 507.86 0.43 c p3
321.84 507.99 0.43 c p3
321.98 508.48 0.43 c p3
322.13 507.86 0.43 c p3
322.27 508.10 0.43 c p3
322.42 508.48 0.43 c p3
322.56 507.75 0.43 c p3
322.71 507.75 0.43 c p3
322.85 507.99 0.43 c p3
323.00 507.50 0.43 c p3
323.15 508.10 0.43 c p3
323.29 508.10 0.43 c p3
323.44 508.59 0.43 c p3
323.58 508.34 0.43 c p3
323.73 508.48 0.43 c p3
323.87 507.99 0.43 c p3
324.02 508.48 0.43 c p3
324.17 508.48 0.43 c p3
324.31 508.34 0.43 c p3
324.46 508.34 0.43 c p3
324.60 507.75 0.43 c p3
324.75 507.99 0.43 c p3
324.89 508.97 0.43 c p3
325.04 507.75 0.43 c p3
325.18 508.23 0.43 c p3
325.33 507.75 0.43 c p3
325.48 508.23 0.43 c p3
325.62 508.34 0.43 c p3
325.77 507.99 0.43 c p3
325.91 508.34 0.43 c p3
326.06 508.23 0.43 c p3
326.20 508.48 0.43 c p3
326.35 508.59 0.43 c p3
326.49 507.86 0.43 c p3
326.64 507.99 0.43 c p3
326.79 508.48 0.43 c p3
326.93 508.10 0.43 c p3
327.08 508.83 0.43 c p3
327.22 508.23 0.43 c p3
327.37 507.86 0.43 c p3
327.51 508.10 0.43 c p3
327.66 508.10 0.43 c p3
327.80 508.59 0.43 c p3
327.95 508.83 0.43 c p3
328.10 508.97 0.43 c p3
328.24 507.61 0.43 c p3
328.39 508.34 0.43 c p3
328.53 509.07 0.43 c p3
328.68 508.10 0.43 c p3
328.82 508.59 0.43 c p3
328.97 508.34 0.43 c p3
329.12 508.48 0.43 c p3
329.26 508.23 0.43 c p3
329.41 507.86 0.43 c p3
329.55 508.23 0.43 c p3
329.70 508.59 0.43 c p3
329.84 507.26 0.43 c p3
329.99 508.72 0.43 c p3
330.13 508.59 0.43 c p3
330.28 508.10 0.43 c p3
330.43 509.07 0.43 c p3
330.57 508.34 0.43 c p3
330.72 507.86 0.43 c p3
330.86 509.45 0.43 c p3
331.01 508.34 0.43 c p3
331.15 508.83 0.43 c p3
331.30 508.48 0.43 c p3
331.44 507.86 0.43 c p3
331.59 508.83 0.43 c p3
331.74 508.72 0.43 c p3
331.88 508.48 0.43 c p3
332.03 509.07 0.43 c p3
332.17 507.61 0.43 c p3
332.32 508.59 0.43 c p3
332.46 509.21 0.43 c p3
332.61 508.23 0.43 c p3
332.75 509.07 0.43 c p3
332.90 508.83 0.43 c p3
333.05 508.59 0.43 c p3
333.19 508.59 0.43 c p3
333.34 508.83 0.43 c p3
333.48 508.48 0.43 c p3
333.63 508.23 0.43 c p3
333.77 508.72 0.43 c p3
333.92 508.10 0.43 c p3
334.07 507.99 0.43 c p3
334.21 508.23 0.43 c p3
334.36 508.72 0.43 c p3
334.50 508.59 0.43 c p3
334.65 508.48 0.43 c p3
334.79 508.83 0.43 c p3
334.94 508.34 0.43 c p3
335.08 508.10 0.43 c p3
335.23 508.10 0.43 c p3
335.38 508.72 0.43 c p3
335.52 508.72 0.43 c p3
335.67 508.48 0.43 c p3
335.81 508.48 0.43 c p3
335.96 508.23 0.43 c p3
336.10 508.48 0.43 c p3
336.25 508.72 0.43 c p3
336.39 508.83 0.43 c p3
336.54 508.23 0.43 c p3
336.69 508.48 0.43 c p3
336.83 508.48 0.43 c p3
336.98 508.23 0.43 c p3
337.12 508.10 0.43 c p3
337.27 508.97 0.43 c p3
337.41 508.97 0.43 c p3
337.56 509.21 0.43 c p3
337.70 508.97 0.43 c p3
337.85 508.97 0.43 c p3
338.00 508.10 0.43 c p3
338.14 508.34 0.43 c p3
338.29 508.23 0.43 c p3
338.43 507.99 0.43 c p3
338.58 508.97 0.43 c p3
338.72 508.34 0.43 c p3
338.87 508.72 0.43 c p3
339.02 508.59 0.43 c p3
339.16 508.72 0.43 c p3
339.31 508.97 0.43 c p3
339.45 508.83 0.43 c p3
339.60 508.97 0.43 c p3
339.74 508.59 0.43 c p3
339.89 508.83 0.43 c p3
340.03 508.23 0.43 c p3
340.18 509.07 0.43 c p3
340.33 509.21 0.43 c p3
340.47 508.34 0.43 c p3
340.62 508.97 0.43 c p3
340.76 508.34 0.43 c p3
340.91 508.48 0.43 c p3
341.05 508.48 0.43 c p3
341.20 508.59 0.43 c p3
341.34 508.83 0.43 c p3
341.49 508.83 0.43 c p3
341.64 508.48 0.43 c p3
341.78 508.59 0.43 c p3
341.93 508.59 0.43 c p3
342.07 508.83 0.43 c p3
342.22 509.21 0.43 c p3
342.36 509.32 0.43 c p3
342.51 508.59 0.43 c p3
342.65 508.72 0.43 c p3
342.80 508.23 0.43 c p3
342.95 509.07 0.43 c p3
343.09 508.83 0.43 c p3
343.24 509.07 0.43 c p3
343.38 509.21 0.43 c p3
343.53 508.97 0.43 c p3
343.67 508.83 0.43 c p3
343.82 509.07 0.43 c p3
343.97 508.48 0.43 c p3
344.11 508.72 0.43 c p3
344.26 508.59 0.43 c p3
344.40 509.07 0.43 c p3
344.55 508.59 0.43 c p3
344.69 508.83 0.43 c p3
344.84 508.34 0.43 c p3
344.98 508.59 0.43 c p3
345.13 509.07 0.43 c p3
345.28 508.83 0.43 c p3
345.42 509.07 0.43 c p3
345.57 508.48 0.43 c p3
345.71 508.59 0.43 c p3
345.86 508.97 0.43 c p3
346.00 508.72 0.43 c p3
346.15 509.70 0.43 c p3
346.29 508.59 0.43 c p3
346.44 508.97 0.43 c p3
346.59 509.32 0.43 c p3
346.73 509.45 0.43 c p3
346.88 508.83 0.43 c p3
347.02 508.72 0.43 c p3
347.17 508.97 0.43 c p3
347.31 509.07 0.43 c p3
347.46 508.72 0.43 c p3
347.60 508.34 0.43 c p3
347.75 508.83 0.43 c p3
347.90 508.59 0.43 c p3
348.04 508.97 0.43 c p3
348.19 509.70 0.43 c p3
348.33 508.59 0.43 c p3
348.48 508.59 0.43 c p3
348.62 508.83 0.43 c p3
348.77 509.07 0.43 c p3
348.92 509.45 0.43 c p3
349.06 509.70 0.43 c p3
349.21 509.21 0.43 c p3
349.35 509.32 0.43 c p3
349.50 509.70 0.43 c p3
349.64 509.21 0.43 c p3
349.79 509.07 0.43 c p3
349.93 509.07 0.43 c p3
350.08 508.83 0.43 c p3
350.23 509.07 0.43 c p3
350.37 508.48 0.43 c p3
350.52 508.59 0.43 c p3
350.66 508.72 0.43 c p3
350.81 509.45 0.43 c p3
350.95 509.21 0.43 c p3
351.10 508.83 0.43 c p3
351.24 509.56 0.43 c p3
351.39 508.48 0.43 c p3
351.54 508.72 0.43 c p3
351.68 508.97 0.43 c p3
351.83 508.72 0.43 c p3
351.97 509.32 0.43 c p3
352.12 509.07 0.43 c p3
352.26 509.07 0.43 c p3
352.41 509.32 0.43 c p3
352.55 508.72 0.43 c p3
352.70 509.21 0.43 c p3
352.85 509.45 0.43 c p3
352.99 508.83 0.43 c p3
353.14 509.32 0.43 c p3
353.28 508.83 0.43 c p3
353.43 508.83 0.43 c p3
353.57 509.07 0.43 c p3
353.72 509.07 0.43 c p3
353.86 509.07 0.43 c p3
354.01 509.32 0.43 c p3
354.16 508.83 0.43 c p3
354.30 509.07 0.43 c p3
354.45 509.56 0.43 c p3
354.59 509.07 0.43 c p3
354.74 509.81 0.43 c p3
354.88 509.45 0.43 c p3
355.03 509.32 0.43 c p3
355.18 509.07 0.43 c p3
355.32 509.07 0.43 c p3
355.47 508.97 0.43 c p3
355.61 509.21 0.43 c p3
355.76 509.07 0.43 c p3
355.90 508.97 0.43 c p3
356.05 509.70 0.43 c p3
356.19 508.59 0.43 c p3
356.34 509.21 0.43 c p3
356.49 508.83 0.43 c p3
356.63 509.21 0.43 c p3
356.78 509.45 0.43 c p3
356.92 509.07 0.43 c p3
357.07 509.81 0.43 c p3
357.21 509.07 0.43 c p3
357.36 509.32 0.43 c p3
357.50 508.97 0.43 c p3
357.65 509.07 0.43 c p3
357.80 509.70 0.43 c p3
357.94 509.56 0.43 c p3
358.09 509.32 0.43 c p3
358.23 509.07 0.43 c p3
358.38 509.21 0.43 c p3
358.52 508.59 0.43 c p3
358.67 509.81 0.43 c p3
358.81 509.70 0.43 c p3
358.96 508.97 0.43 c p3
359.11 509.56 0.43 c p3
359.25 509.21 0.43 c p3
359.40 509.70 0.43 c p3
359.54 509.56 0.43 c p3
359.69 509.32 0.43 c p3
359.83 509.45 0.43 c p3
359.98 509.32 0.43 c p3
360.13 509.21 0.43 c p3
360.27 508.97 0.43 c p3
360.42 509.45 0.43 c p3
360.56 509.81 0.43 c p3
360.71 509.45 0.43 c p3
360.85 509.70 0.43 c p3
361.00 509.32 0.43 c p3
361.14 509.56 0.43 c p3
361.29 509.45 0.43 c p3
361.44 509.45 0.43 c p3
361.58 509.56 0.43 c p3
361.73 509.45 0.43 c p3
361.87 509.45 0.43 c p3
362.02 509.07 0.43 c p3
362.16 509.21 0.43 c p3
362.31 509.32 0.43 c p3
362.45 509.21 0.43 c p3
362.60 509.70 0.43 c p3
362.75 509.32 0.43 c p3
362.89 509.07 0.43 c p3
363.04 509.21 0.43 c p3
363.18 509.45 0.43 c p3
363.33 508.83 0.43 c p3
363.47 509.45 0.43 c p3
363.62 509.94 0.43 c p3
363.76 509.70 0.43 c p3
363.91 509.45 0.43 c p3
364.06 509.45 0.43 c p3
364.20 509.56 0.43 c p3
364.35 509.07 0.43 c p3
364.49 509.70 0.43 c p3
364.64 509.21 0.43 c p3
364.78 509.45 0.43 c p3
364.93 509.45 0.43 c p3
365.08 508.83 0.43 c p3
365.22 508.83 0.43 c p3
365.37 509.21 0.43 c p3
365.51 509.56 0.43 c p3
365.66 509.81 0.43 c p3
365.80 509.32 0.43 c p3
365.95 509.45 0.43 c p3
366.09 509.21 0.43 c p3
366.24 509.70 0.43 c p3
366.39 509.21 0.43 c p3
366.53 510.19 0.43 c p3
366.68 510.05 0.43 c p3
366.82 510.67 0.43 c p3
366.97 509.70 0.43 c p3
367.11 509.07 0.43 c p3
367.26 508.97 0.43 c p3
367.40 509.32 0.43 c p3
367.55 509.21 0.43 c p3
367.70 509.32 0.43 c p3
367.84 508.72 0.43 c p3
367.99 509.56 0.43 c p3
368.13 509.07 0.43 c p3
368.28 509.56 0.43 c p3
368.42 509.56 0.43 c p3
368.57 509.81 0.43 c p3
368.71 509.32 0.43 c p3
368.86 509.81 0.43 c p3
369.01 509.81 0.43 c p3
369.15 509.81 0.43 c p3
369.30 509.70 0.43 c p3
369.44 509.21 0.43 c p3
369.59 509.70 0.43 c p3
369.73 509.81 0.43 c p3
369.88 509.07 0.43 c p3
370.03 509.56 0.43 c p3
370.17 509.21 0.43 c p3
370.32 509.70 0.43 c p3
370.46 509.56 0.43 c p3
370.61 509.45 0.43 c p3
370.75 509.45 0.43 c p3
370.90 509.56 0.43 c p3
371.04 509.21 0.43 c p3
371.19 509.94 0.43 c p3
371.34 509.70 0.43 c p3
371.48 509.94 0.43 c p3
371.63 509.32 0.43 c p3
371.77 509.21 0.43 c p3
371.92 508.97 0.43 c p3
372.06 509.32 0.43 c p3
372.21 509.21 0.43 c p3
372.35 509.45 0.43 c p3
372.50 509.70 0.43 c p3
372.65 509.45 0.43 c p3
372.79 509.56 0.43 c p3
372.94 509.81 0.43 c p3
373.08 509.56 0.43 c p3
373.23 510.05 0.43 c p3
373.37 510.29 0.43 c p3
373.52 510.19 0.43 c p3
373.66 509.81 0.43 c p3
373.81 509.21 0.43 c p3
373.96 509.21 0.43 c p3
374.10 509.32 0.43 c p3
374.25 509.94 0.43 c p3
374.39 509.32 0.43 c p3
374.54 509.56 0.43 c p3
374.68 509.45 0.43 c p3
374.83 509.45 0.43 c p3
374.98 509.94 0.43 c p3
375.12 509.70 0.43 c p3
375.27 509.94 0.43 c p3
375.41 510.19 0.43 c p3
375.56 509.70 0.43 c p3
375.70 509.45 0.43 c p3
375.85 509.32 0.43 c p3
375.99 509.32 0.43 c p3
376.14 509.94 0.43 c p3
376.29 509.94 0.43 c p3
376.43 510.19 0.43 c p3
376.58 510.05 0.43 c p3
376.72 509.32 0.43 c p3
376.87 509.56 0.43 c p3
377.01 510.54 0.43 c p3
377.16 509.94 0.43 c p3
377.30 509.81 0.43 c p3
377.45 510.43 0.43 c p3
377.60 509.45 0.43 c p3
377.74 509.94 0.43 c p3
377.89 509.32 0.43 c p3
378.03 510.29 0.43 c p3
378.18 510.05 0.43 c p3
378.32 509.70 0.43 c p3
378.47 509.56 0.43 c p3
378.61 509.56 0.43 c p3
378.76 509.56 0.43 c p3
378.91 509.56 0.43 c p3
379.05 509.70 0.43 c p3
379.20 509.56 0.43 c p3
379.34 509.56 0.43 c p3
379.49 510.29 0.43 c p3
379.63 509.45 0.43 c p3
379.78 509.81 0.43 c p3
379.93 509.45 0.43 c p3
380.07 509.94 0.43 c p3
380.22 510.19 0.43 c p3
380.36 509.94 0.43 c p3
380.51 509.94 0.43 c p3
380.65 509.56 0.43 c p3
380.80 509.94 0.43 c p3
380.94 509.07 0.43 c p3
381.09 509.81 0.43 c p3
381.24 509.70 0.43 c p3
381.38 509.94 0.43 c p3
381.53 509.70 0.43 c p3
381.67 509.94 0.43 c p3
381.82 509.81 0.43 c p3
381.96 509.70 0.43 c p3
382.11 509.94 0.43 c p3
382.25 509.70 0.43 c p3
382.40 509.56 0.43 c p3
0.00 0.00 432.00 576.00 cl
0 0 0 srgb
0.75 setlinewidth
[] 0 setdash
1 setlinecap
1 setlinejoin
10.00 setmiterlimit
np
236.96 345.60 m
145.59 0 l
o
np
236.96 345.60 m
0 -5.76 l
o
np
261.22 345.60 m
0 -5.76 l
o
np
285.49 345.60 m
0 -5.76 l
o
np
309.75 345.60 m
0 -5.76 l
o
np
334.02 345.60 m
0 -5.76 l
o
np
358.28 345.60 m
0 -5.76 l
o
np
382.55 345.60 m
0 -5.76 l
o
/Font1 findfont 10 s
236.96 329.47 (0) .5 0 t
261.22 329.47 (500) .5 0 t
309.75 329.47 (1500) .5 0 t
358.28 329.47 (2500) .5 0 t
np
216.00 352.00 m
0 110.94 l
o
np
216.00 352.00 m
-5.76 0 l
o
np
216.00 407.47 m
-5.76 0 l
o
np
216.00 462.94 m
-5.76 0 l
o
209.09 348.41 (0.0) 1 0 t
209.09 403.88 (0.5) 1 0 t
209.09 459.35 (1.0) 1 0 t
np
216.00 345.60 m
172.80 0 l
0 172.80 l
-172.80 0 l
0 -172.80 l
o
0.00 0.00 432.00 576.00 cl
/Font1 findfont 10 s
0 0 0 srgb
302.40 313.34 (Zeit / ms \(total\)) .5 0 t
190.66 432.00 (U / V) .5 90 t
216.00 345.60 388.80 518.40 cl
0 0 0 srgb
0.38 setlinewidth
[ 1.12 1.88] 0 setdash
1 setlinecap
1 setlinejoin
10.00 setmiterlimit
np
223.86 345.60 m
0 172.80 l
o
np
234.63 345.60 m
0 172.80 l
o
np
240.02 345.60 m
0 172.80 l
o
np
271.75 345.60 m
0 172.80 l
o
86.40 57.60 388.80 288.00 cl
1 0 0 srgb
1.50 setlinewidth
[] 0 setdash
1 setlinecap
1 setlinejoin
10.00 setmiterlimit
np
97.60 279.47 m
1.41 -21.26 l
1.40 -19.02 l
1.41 -17.03 l
1.41 -15.25 l
1.41 -13.64 l
1.40 -12.22 l
1.41 -10.94 l
1.41 -9.79 l
1.40 -8.76 l
1.41 -7.85 l
1.41 -7.02 l
1.40 -6.29 l
1.41 -5.62 l
1.41 -5.04 l
1.41 -4.51 l
1.40 -4.04 l
1.41 -3.61 l
1.41 -3.24 l
1.40 -2.89 l
1.41 -2.59 l
1.41 -2.33 l
1.40 -2.07 l
1.41 -1.86 l
1.41 -1.67 l
1.41 -1.49 l
1.40 -1.33 l
1.41 -1.20 l
1.41 -1.06 l
1.40 -0.96 l
1.41 -0.86 l
1.41 -0.76 l
1.41 -0.69 l
1.40 -0.62 l
1.41 -0.55 l
1.41 -0.49 l
1.40 -0.44 l
1.41 -0.39 l
1.41 -0.36 l
1.40 -0.31 l
1.41 -0.29 l
1.41 -0.25 l
1.41 -0.23 l
1.40 -0.20 l
1.41 -0.18 l
1.41 -0.16 l
1.40 -0.15 l
1.41 -0.13 l
1.41 -0.12 l
1.40 -0.10 l
1.41 -0.09 l
1.41 -0.09 l
1.41 -0.07 l
1.40 -0.07 l
1.41 -0.06 l
1.41 -0.05 l
1.40 -0.05 l
1.41 -0.04 l
1.41 -0.04 l
1.41 -0.04 l
1.40 -0.03 l
1.41 -0.03 l
1.41 -0.02 l
1.40 -0.02 l
1.41 -0.02 l
1.41 -0.02 l
1.40 -0.02 l
1.41 -0.01 l
1.41 -0.01 l
1.41 -0.02 l
1.40 -0.01 l
1.41 0 l
1.41 -0.01 l
1.40 -0.01 l
1.41 -0.01 l
1.41 0 l
1.40 -0.01 l
1.41 0 l
1.41 -0.01 l
1.41 0 l
1.40 0 l
1.41 -0.01 l
1.41 0 l
1.40 0 l
1.41 0 l
1.41 -0.01 l
1.41 0 l
1.40 0 l
1.41 0 l
1.41 0 l
1.40 0 l
1.41 0 l
1.41 -0.01 l
1.40 0 l
1.41 0 l
1.41 0 l
1.41 0 l
1.40 0 l
1.41 0 l
1.41 0 l
238.30 76.72 lineto
1.41 0 l
1.41 0 l
1.40 0 l
1.41 0 l
1.41 0 l
1.41 0 l
1.40 0 l
1.41 0 l
1.41 0 l
1.40 0 l
1.41 0 l
1.41 0 l
1.40 0 l
1.41 0 l
1.41 0 l
1.41 0 l
1.40 0 l
1.41 0 l
1.41 0 l
1.40 0 l
1.41 0 l
1.41 0 l
1.41 0 l
1.40 0 l
1.41 0 l
1.41 0 l
1.40 0 l
1.41 0 l
1.41 0 l
1.40 0 l
1.41 0 l
1.41 0 l
1.41 0 l
1.40 0 l
1.41 0 l
1.41 0 l
1.40 0 l
1.41 0 l
1.41 0 l
1.40 0 l
1.41 0 l
1.41 0 l
1.41 0 l
1.40 0 l
1.41 0 l
1.41 0 l
1.40 0 l
1.41 0 l
1.41 0 l
1.41 0 l
1.40 0 l
1.41 0 l
1.41 0 l
1.40 0 l
1.41 0 l
1.41 0 l
1.40 0 l
1.41 0 l
1.41 0 l
1.41 0 l
1.40 0 l
1.41 0 l
1.41 0 l
1.40 0 l
1.41 0 l
1.41 0 l
1.40 0 l
1.41 0 l
1.41 0 l
1.41 0 l
1.40 0 l
1.41 0 l
1.41 0 l
1.40 0 l
1.41 0 l
1.41 0 l
1.41 0 l
1.40 0 l
1.41 0 l
1.41 0 l
1.40 0 l
1.41 0 l
1.41 0 l
1.40 0 l
1.41 0 l
1.41 0 l
1.41 0 l
1.40 0 l
1.41 0 l
1.41 0 l
1.40 0 l
1.41 0 l
1.41 0 l
1.40 0 l
1.41 0 l
1.41 0 l
1.41 0 l
1.40 0 l
1.41 0 l
o
0.00 0.00 432.00 576.00 cl
0 0 0 srgb
0.75 setlinewidth
[] 0 setdash
1 setlinecap
1 setlinejoin
10.00 setmiterlimit
np
97.60 57.60 m
280.00 0 l
o
np
97.60 57.60 m
0 -5.76 l
o
np
144.27 57.60 m
0 -5.76 l
o
np
190.93 57.60 m
0 -5.76 l
o
np
237.60 57.60 m
0 -5.76 l
o
np
284.27 57.60 m
0 -5.76 l
o
np
330.93 57.60 m
0 -5.76 l
o
np
377.60 57.60 m
0 -5.76 l
o
/Font1 findfont 10 s
97.60 41.47 (0) .5 0 t
144.27 41.47 (500) .5 0 t
190.93 41.47 (1000) .5 0 t
237.60 41.47 (1500) .5 0 t
284.27 41.47 (2000) .5 0 t
330.93 41.47 (2500) .5 0 t
377.60 41.47 (3000) .5 0 t
np
86.40 66.13 m
0 185.71 l
o
np
86.40 66.13 m
-5.76 0 l
o
np
86.40 103.27 m
-5.76 0 l
o
np
86.40 140.41 m
-5.76 0 l
o
np
86.40 177.56 m
-5.76 0 l
o
np
86.40 214.70 m
-5.76 0 l
o
np
86.40 251.84 m
-5.76 0 l
o
79.49 62.54 (0.00) 1 0 t
79.49 99.68 (0.05) 1 0 t
79.49 136.82 (0.10) 1 0 t
79.49 173.97 (0.15) 1 0 t
79.49 211.11 (0.20) 1 0 t
79.49 248.25 (0.25) 1 0 t
np
86.40 57.60 m
302.40 0 l
0 230.40 l
-302.40 0 l
0 -230.40 l
o
0.00 0.00 432.00 576.00 cl
/Font1 findfont 10 s
0 0 0 srgb
237.60 13.82 (Zeit / ms \(nach Puls\)) .5 0 t
49.54 172.80 (Absorbanz A) .5 90 t
86.40 57.60 388.80 288.00 cl
/bg { 1 1 1 srgb } def
0 0 0 srgb
0.75 setlinewidth
[] 0 setdash
1 setlinecap
1 setlinejoin
10.00 setmiterlimit
103.76 199.90 0.65 c p3
104.04 198.00 0.65 c p3
104.32 195.04 0.65 c p3
104.60 194.31 0.65 c p3
104.88 190.34 0.65 c p3
105.16 189.21 0.65 c p3
105.44 187.85 0.65 c p3
105.72 186.01 0.65 c p3
106.00 181.04 0.65 c p3
106.28 177.54 0.65 c p3
106.56 174.46 0.65 c p3
106.84 174.07 0.65 c p3
107.12 171.40 0.65 c p3
107.40 171.03 0.65 c p3
107.68 168.00 0.65 c p3
107.96 167.63 0.65 c p3
108.24 164.94 0.65 c p3
108.52 161.97 0.65 c p3
108.80 160.65 0.65 c p3
109.08 160.28 0.65 c p3
109.36 156.70 0.65 c p3
109.64 156.05 0.65 c p3
109.92 153.81 0.65 c p3
110.20 151.87 0.65 c p3
110.48 150.59 0.65 c p3
110.76 151.23 0.65 c p3
111.04 147.40 0.65 c p3
111.32 146.77 0.65 c p3
111.60 142.99 0.65 c p3
111.88 141.74 0.65 c p3
112.16 141.11 0.65 c p3
112.44 140.22 0.65 c p3
112.72 139.60 0.65 c p3
113.00 137.74 0.65 c p3
113.28 138.63 0.65 c p3
113.56 135.29 0.65 c p3
113.84 134.34 0.65 c p3
114.12 131.04 0.65 c p3
114.40 129.83 0.65 c p3
114.68 129.56 0.65 c p3
114.96 128.03 0.65 c p3
115.24 127.77 0.65 c p3
115.52 127.77 0.65 c p3
115.80 125.39 0.65 c p3
116.08 124.79 0.65 c p3
116.36 122.70 0.65 c p3
116.64 121.52 0.65 c p3
116.92 120.68 0.65 c p3
117.20 119.51 0.65 c p3
117.48 119.51 0.65 c p3
117.76 118.09 0.65 c p3
118.04 116.93 0.65 c p3
118.32 116.36 0.65 c p3
118.60 116.61 0.65 c p3
118.88 115.46 0.65 c p3
119.16 114.06 0.65 c p3
119.44 112.35 0.65 c p3
119.72 111.21 0.65 c p3
120.00 110.90 0.65 c p3
120.28 111.21 0.65 c p3
120.56 109.20 0.65 c p3
120.84 110.08 0.65 c p3
121.12 107.82 0.65 c p3
121.40 107.82 0.65 c p3
121.68 108.07 0.65 c p3
121.96 106.14 0.65 c p3
122.24 105.34 0.65 c p3
122.52 103.92 0.65 c p3
122.80 104.23 0.65 c p3
123.08 103.92 0.65 c p3
123.36 102.01 0.65 c p3
123.64 101.16 0.65 c p3
123.92 103.92 0.65 c p3
124.20 101.46 0.65 c p3
124.48 102.26 0.65 c p3
124.76 100.36 0.65 c p3
125.04 98.96 0.65 c p3
125.32 98.72 0.65 c p3
125.60 97.33 0.65 c p3
125.88 97.63 0.65 c p3
126.16 98.42 0.65 c p3
126.44 97.09 0.65 c p3
126.72 97.33 0.65 c p3
127.00 96.79 0.65 c p3
127.28 97.09 0.65 c p3
127.56 96.24 0.65 c p3
127.84 96.00 0.65 c p3
128.12 95.22 0.65 c p3
128.40 93.31 0.65 c p3
128.68 93.61 0.65 c p3
128.96 92.77 0.65 c p3
129.24 93.84 0.65 c p3
129.52 92.00 0.65 c p3
129.80 94.14 0.65 c p3
130.08 93.61 0.65 c p3
130.36 92.00 0.65 c p3
130.64 92.00 0.65 c p3
130.92 88.51 0.65 c p3
131.20 89.04 0.65 c p3
131.48 90.93 0.65 c p3
131.76 89.57 0.65 c p3
132.04 90.63 0.65 c p3
132.32 90.63 0.65 c p3
132.60 90.10 0.65 c p3
132.88 89.57 0.65 c p3
133.16 88.81 0.65 c p3
133.44 88.81 0.65 c p3
133.72 88.81 0.65 c p3
134.00 87.75 0.65 c p3
134.28 87.22 0.65 c p3
134.56 88.51 0.65 c p3
134.84 86.70 0.65 c p3
135.12 86.93 0.65 c p3
135.40 87.75 0.65 c p3
135.68 87.22 0.65 c p3
135.96 86.17 0.65 c p3
136.24 85.65 0.65 c p3
136.52 85.88 0.65 c p3
136.80 85.35 0.65 c p3
137.08 85.35 0.65 c p3
137.36 85.35 0.65 c p3
137.64 86.93 0.65 c p3
137.92 85.12 0.65 c p3
138.20 83.32 0.65 c p3
138.48 85.12 0.65 c p3
138.76 86.40 0.65 c p3
139.04 86.17 0.65 c p3
139.32 83.85 0.65 c p3
139.60 83.04 0.65 c p3
139.88 83.32 0.65 c p3
140.16 83.56 0.65 c p3
140.44 82.80 0.65 c p3
140.72 84.37 0.65 c p3
141.00 84.08 0.65 c p3
141.28 84.37 0.65 c p3
141.56 83.04 0.65 c p3
141.84 83.56 0.65 c p3
142.12 82.00 0.65 c p3
142.40 81.77 0.65 c p3
142.68 82.29 0.65 c p3
142.96 82.52 0.65 c p3
143.24 83.32 0.65 c p3
143.52 82.00 0.65 c p3
143.80 83.32 0.65 c p3
144.08 83.32 0.65 c p3
144.36 83.56 0.65 c p3
144.64 82.80 0.65 c p3
144.92 82.29 0.65 c p3
145.20 80.45 0.65 c p3
145.48 79.70 0.65 c p3
145.76 80.73 0.65 c p3
146.04 80.73 0.65 c p3
146.32 82.00 0.65 c p3
146.60 81.25 0.65 c p3
146.88 80.73 0.65 c p3
147.16 80.96 0.65 c p3
147.44 81.77 0.65 c p3
147.72 80.73 0.65 c p3
148.00 80.45 0.65 c p3
148.28 80.73 0.65 c p3
148.56 80.22 0.65 c p3
148.84 80.45 0.65 c p3
149.12 80.73 0.65 c p3
149.40 80.96 0.65 c p3
149.68 81.48 0.65 c p3
149.96 81.25 0.65 c p3
150.24 79.42 0.65 c p3
150.52 80.45 0.65 c p3
150.80 78.90 0.65 c p3
151.08 79.42 0.65 c p3
151.36 79.19 0.65 c p3
151.64 80.73 0.65 c p3
151.92 78.67 0.65 c p3
152.20 80.22 0.65 c p3
152.48 79.93 0.65 c p3
152.76 78.67 0.65 c p3
153.04 78.67 0.65 c p3
153.32 78.67 0.65 c p3
153.60 79.19 0.65 c p3
153.88 79.93 0.65 c p3
154.16 80.45 0.65 c p3
154.44 78.39 0.65 c p3
154.72 80.22 0.65 c p3
155.00 79.19 0.65 c p3
155.28 78.16 0.65 c p3
155.56 77.14 0.65 c p3
155.84 78.90 0.65 c p3
156.12 78.39 0.65 c p3
156.40 80.22 0.65 c p3
156.68 79.19 0.65 c p3
156.96 78.90 0.65 c p3
157.24 79.70 0.65 c p3
157.52 79.42 0.65 c p3
157.80 77.37 0.65 c p3
158.08 78.90 0.65 c p3
158.36 78.16 0.65 c p3
158.64 78.16 0.65 c p3
158.92 78.16 0.65 c p3
159.20 80.73 0.65 c p3
159.48 78.67 0.65 c p3
159.76 78.67 0.65 c p3
160.04 77.65 0.65 c p3
160.32 76.86 0.65 c p3
160.60 77.14 0.65 c p3
160.88 78.39 0.65 c p3
161.16 78.16 0.65 c p3
161.44 77.37 0.65 c p3
161.72 78.39 0.65 c p3
162.00 77.88 0.65 c p3
162.28 76.35 0.65 c p3
162.56 76.86 0.65 c p3
162.84 77.37 0.65 c p3
163.12 77.14 0.65 c p3
163.40 79.19 0.65 c p3
163.68 79.42 0.65 c p3
163.96 78.16 0.65 c p3
164.24 76.86 0.65 c p3
164.52 76.35 0.65 c p3
164.80 77.65 0.65 c p3
216.00 201.60 367.20 247.68 cl
0 0 0 srgb
0.75 setlinewidth
[] 0 setdash
1 setlinecap
1 setlinejoin
10.00 setmiterlimit
221.60 216.53 0.43 c p1
222.24 220.50 0.43 c p1
222.88 219.07 0.43 c p1
223.53 228.13 0.43 c p1
224.17 221.22 0.43 c p1
224.81 227.84 0.43 c p1
225.45 233.06 0.43 c p1
226.10 235.73 0.43 c p1
226.74 222.94 0.43 c p1
227.38 217.01 0.43 c p1
228.02 212.88 0.43 c p1
228.66 221.61 0.43 c p1
229.31 219.02 0.43 c p1
229.95 227.31 0.43 c p1
230.59 222.57 0.43 c p1
231.23 230.44 0.43 c p1
231.88 226.87 0.43 c p1
232.52 221.76 0.43 c p1
233.16 224.41 0.43 c p1
233.80 231.50 0.43 c p1
234.44 222.84 0.43 c p1
235.09 228.17 0.43 c p1
235.73 225.62 0.43 c p1
236.37 224.36 0.43 c p1
237.01 226.08 0.43 c p1
237.66 236.97 0.43 c p1
238.30 225.99 0.43 c p1
238.94 230.36 0.43 c p1
239.58 219.31 0.43 c p1
240.22 220.37 0.43 c p1
240.87 224.31 0.43 c p1
241.51 226.77 0.43 c p1
242.15 230.43 0.43 c p1
242.79 227.96 0.43 c p1
243.43 238.66 0.43 c p1
244.08 228.67 0.43 c p1
244.72 230.17 0.43 c p1
245.36 220.13 0.43 c p1
246.00 220.13 0.43 c p1
246.65 224.54 0.43 c p1
247.29 222.71 0.43 c p1
247.93 226.88 0.43 c p1
248.57 232.23 0.43 c p1
249.21 225.92 0.43 c p1
249.86 228.16 0.43 c p1
250.50 222.99 0.43 c p1
251.14 222.20 0.43 c p1
251.78 222.89 0.43 c p1
252.43 221.92 0.43 c p1
253.07 226.50 0.43 c p1
253.71 224.09 0.43 c p1
254.35 222.87 0.43 c p1
254.99 224.36 0.43 c p1
255.64 229.80 0.43 c p1
256.28 228.32 0.43 c p1
256.92 225.53 0.43 c p1
257.56 221.15 0.43 c p1
258.21 219.48 0.43 c p1
258.85 221.71 0.43 c p1
259.49 226.92 0.43 c p1
260.13 220.76 0.43 c p1
260.77 228.54 0.43 c p1
261.42 221.05 0.43 c p1
262.06 224.41 0.43 c p1
262.70 228.92 0.43 c p1
263.34 222.78 0.43 c p1
263.99 222.02 0.43 c p1
264.63 218.21 0.43 c p1
265.27 222.73 0.43 c p1
265.91 224.18 0.43 c p1
266.55 217.82 0.43 c p1
267.20 216.49 0.43 c p1
267.84 232.65 0.43 c p1
268.48 223.44 0.43 c p1
269.12 229.94 0.43 c p1
269.77 223.33 0.43 c p1
270.41 219.07 0.43 c p1
271.05 220.37 0.43 c p1
271.69 216.04 0.43 c p1
272.33 219.87 0.43 c p1
272.98 226.00 0.43 c p1
273.62 221.81 0.43 c p1
274.26 225.20 0.43 c p1
274.90 224.73 0.43 c p1
275.54 228.31 0.43 c p1
276.19 226.29 0.43 c p1
276.83 227.15 0.43 c p1
277.47 225.35 0.43 c p1
278.11 218.01 0.43 c p1
278.76 221.35 0.43 c p1
279.40 219.16 0.43 c p1
280.04 226.18 0.43 c p1
280.68 219.00 0.43 c p1
281.32 231.15 0.43 c p1
281.97 230.24 0.43 c p1
282.61 224.11 0.43 c p1
283.25 225.73 0.43 c p1
283.89 210.42 0.43 c p1
284.54 214.54 0.43 c p1
285.18 225.23 0.43 c p1
285.82 220.13 0.43 c p1
286.46 226.74 0.43 c p1
287.10 228.16 0.43 c p1
287.75 226.98 0.43 c p1
288.39 225.77 0.43 c p1
289.03 223.39 0.43 c p1
289.67 224.69 0.43 c p1
290.32 225.97 0.43 c p1
290.96 222.09 0.43 c p1
291.60 220.76 0.43 c p1
292.24 228.21 0.43 c p1
292.88 220.57 0.43 c p1
293.53 222.85 0.43 c p1
294.17 227.94 0.43 c p1
294.81 226.48 0.43 c p1
295.45 222.45 0.43 c p1
296.10 220.95 0.43 c p1
296.74 223.10 0.43 c p1
297.38 221.56 0.43 c p1
298.02 222.54 0.43 c p1
298.66 223.50 0.43 c p1
299.31 232.08 0.43 c p1
299.95 224.23 0.43 c p1
300.59 216.41 0.43 c p1
301.23 226.00 0.43 c p1
301.88 233.08 0.43 c p1
302.52 232.79 0.43 c p1
303.16 222.33 0.43 c p1
303.80 219.21 0.43 c p1
304.44 221.40 0.43 c p1
305.09 223.29 0.43 c p1
305.73 220.40 0.43 c p1
306.37 228.71 0.43 c p1
307.01 228.02 0.43 c p1
307.66 230.14 0.43 c p1
308.30 224.37 0.43 c p1
308.94 227.56 0.43 c p1
309.58 220.66 0.43 c p1
310.22 220.19 0.43 c p1
310.87 223.34 0.43 c p1
311.51 225.07 0.43 c p1
312.15 229.60 0.43 c p1
312.79 223.75 0.43 c p1
313.43 230.76 0.43 c p1
314.08 231.33 0.43 c p1
314.72 233.00 0.43 c p1
315.36 229.90 0.43 c p1
316.00 227.91 0.43 c p1
316.65 219.51 0.43 c p1
317.29 216.41 0.43 c p1
317.93 221.90 0.43 c p1
318.57 222.38 0.43 c p1
319.21 228.99 0.43 c p1
319.86 225.83 0.43 c p1
320.50 223.77 0.43 c p1
321.14 225.33 0.43 c p1
321.78 229.67 0.43 c p1
322.43 225.08 0.43 c p1
323.07 224.10 0.43 c p1
323.71 225.90 0.43 c p1
324.35 223.79 0.43 c p1
324.99 225.29 0.43 c p1
325.64 227.06 0.43 c p1
326.28 228.55 0.43 c p1
326.92 231.42 0.43 c p1
327.56 230.66 0.43 c p1
328.21 222.12 0.43 c p1
328.85 227.45 0.43 c p1
329.49 220.30 0.43 c p1
330.13 223.11 0.43 c p1
330.77 222.32 0.43 c p1
331.42 230.13 0.43 c p1
332.06 220.45 0.43 c p1
332.70 228.23 0.43 c p1
333.34 227.13 0.43 c p1
333.99 221.33 0.43 c p1
334.63 221.61 0.43 c p1
335.27 221.88 0.43 c p1
335.91 224.64 0.43 c p1
336.55 228.50 0.43 c p1
337.20 231.26 0.43 c p1
337.84 221.53 0.43 c p1
338.48 230.64 0.43 c p1
339.12 225.89 0.43 c p1
339.77 221.14 0.43 c p1
340.41 216.41 0.43 c p1
341.05 225.19 0.43 c p1
341.69 222.92 0.43 c p1
342.33 232.00 0.43 c p1
342.98 227.22 0.43 c p1
343.62 226.04 0.43 c p1
344.26 230.12 0.43 c p1
344.90 228.93 0.43 c p1
345.54 219.17 0.43 c p1
346.19 226.81 0.43 c p1
346.83 223.41 0.43 c p1
347.47 223.58 0.43 c p1
348.11 223.76 0.43 c p1
348.76 236.40 0.43 c p1
349.40 226.59 0.43 c p1
350.04 226.75 0.43 c p1
350.68 221.94 0.43 c p1
351.32 218.25 0.43 c p1
351.97 219.78 0.43 c p1
352.61 225.99 0.43 c p1
353.25 225.03 0.43 c p1
353.89 221.32 0.43 c p1
354.54 226.42 0.43 c p1
355.18 224.08 0.43 c p1
355.82 216.79 0.43 c p1
356.46 219.39 0.43 c p1
357.10 221.99 0.43 c p1
357.75 221.02 0.43 c p1
358.39 231.08 0.43 c p1
359.03 232.31 0.43 c p1
359.67 226.34 0.43 c p1
360.32 220.12 0.43 c p1
360.96 217.76 0.43 c p1
361.60 224.20 0.43 c p1
0.00 0.00 432.00 576.00 cl
0 0 0 srgb
0.75 setlinewidth
[] 0 setdash
1 setlinecap
1 setlinejoin
10.00 setmiterlimit
np
228.88 201.60 m
128.44 0 l
o
np
228.88 201.60 m
0 -5.76 l
o
np
250.29 201.60 m
0 -5.76 l
o
np
271.69 201.60 m
0 -5.76 l
o
np
293.10 201.60 m
0 -5.76 l
o
np
314.51 201.60 m
0 -5.76 l
o
np
335.91 201.60 m
0 -5.76 l
o
np
357.32 201.60 m
0 -5.76 l
o
/Font1 findfont 6 s
228.88 185.47 (100) .5 0 t
250.29 185.47 (200) .5 0 t
271.69 185.47 (300) .5 0 t
293.10 185.47 (400) .5 0 t
314.51 185.47 (500) .5 0 t
335.91 185.47 (600) .5 0 t
357.32 185.47 (700) .5 0 t
np
216.00 203.02 m
0 43.24 l
o
np
216.00 203.02 m
-5.76 0 l
o
np
216.00 210.23 m
-5.76 0 l
o
np
216.00 217.43 m
-5.76 0 l
o
np
216.00 224.64 m
-5.76 0 l
o
np
216.00 231.85 m
-5.76 0 l
o
np
216.00 239.05 m
-5.76 0 l
o
np
216.00 246.26 m
-5.76 0 l
o
209.09 200.87 (-0.006) 1 0 t
209.09 208.07 (-0.004) 1 0 t
209.09 215.28 (-0.002) 1 0 t
209.09 222.49 (0.000) 1 0 t
209.09 229.69 (0.002) 1 0 t
209.09 236.90 (0.004) 1 0 t
209.09 244.10 (0.006) 1 0 t
np
216.00 201.60 m
151.20 0 l
0 46.08 l
-151.20 0 l
0 -46.08 l
o
0.00 0.00 432.00 576.00 cl
/Font1 findfont 9 s
0 0 0 srgb
291.60 262.88 (Residuen) .5 0 t
59.04 73.44 401.76 516.96 cl
ep
%%Trailer
%%Pages: 1
%%EOF
