%!PS-Adobe-3.0 EPSF-3.0
%%DocumentNeededResources: font Helvetica
%%+ font Helvetica-Bold
%%+ font Helvetica-Oblique
%%+ font Helvetica-BoldOblique
%%+ font Symbol
%%Title: R Graphics Output
%%Creator: R Software
%%Pages: (atend)
%%BoundingBox: 0 0 432 576
%%EndComments
%%BeginProlog
/bp  { gs sRGB gs } def
% begin .ps.prolog
/gs  { gsave } bind def
/gr  { grestore } bind def
/ep  { showpage gr gr } bind def
/m   { moveto } bind def
/l  { rlineto } bind def
/np  { newpath } bind def
/cp  { closepath } bind def
/f   { fill } bind def
/o   { stroke } bind def
/c   { newpath 0 360 arc } bind def
/r   { 4 2 roll moveto 1 copy 3 -1 roll exch 0 exch rlineto 0 rlineto -1 mul 0 exch rlineto closepath } bind def
/p1  { stroke } bind def
/p2  { gsave bg fill grestore newpath } bind def
/p3  { gsave bg fill grestore stroke } bind def
/p6  { gsave bg eofill grestore newpath } bind def
/p7  { gsave bg eofill grestore stroke } bind def
/t   { 5 -2 roll moveto gsave rotate
       1 index stringwidth pop
       mul neg 0 rmoveto show grestore } bind def
/ta  { 4 -2 roll moveto gsave rotate show } bind def
/tb  { 2 -1 roll 0 rmoveto show } bind def
/cl  { grestore gsave newpath 3 index 3 index moveto 1 index
       4 -1 roll lineto  exch 1 index lineto lineto
       closepath clip newpath } bind def
/rgb { setrgbcolor } bind def
/s   { scalefont setfont } bind def
% end   .ps.prolog
/sRGB { [ /CIEBasedABC
          << /DecodeLMN
               [ { dup 0.03928 le
                        {12.92321 div}
                        {0.055 add 1.055 div 2.4 exp }
                     ifelse
                 } bind dup dup
               ]
             /MatrixLMN [0.412457 0.212673 0.019334
                         0.357576 0.715152 0.119192
                         0.180437 0.072175 0.950301]
             /WhitePoint [0.9505 1.0 1.0890]
           >>
         ] setcolorspace } bind def
/srgb { setcolor } bind def
%%IncludeResource: font Helvetica
/Helvetica findfont
dup length dict begin
  {1 index /FID ne {def} {pop pop} ifelse} forall
  /Encoding ISOLatin1Encoding def
  currentdict
  end
/Font1 exch definefont pop
%%IncludeResource: font Helvetica-Bold
/Helvetica-Bold findfont
dup length dict begin
  {1 index /FID ne {def} {pop pop} ifelse} forall
  /Encoding ISOLatin1Encoding def
  currentdict
  end
/Font2 exch definefont pop
%%IncludeResource: font Helvetica-Oblique
/Helvetica-Oblique findfont
dup length dict begin
  {1 index /FID ne {def} {pop pop} ifelse} forall
  /Encoding ISOLatin1Encoding def
  currentdict
  end
/Font3 exch definefont pop
%%IncludeResource: font Helvetica-BoldOblique
/Helvetica-BoldOblique findfont
dup length dict begin
  {1 index /FID ne {def} {pop pop} ifelse} forall
  /Encoding ISOLatin1Encoding def
  currentdict
  end
/Font4 exch definefont pop
%%IncludeResource: font Symbol
/Symbol findfont
dup length dict begin
  {1 index /FID ne {def} {pop pop} ifelse} forall
  currentdict
  end
/Font5 exch definefont pop
%%EndProlog
%%Page: 1 1
bp
0.00 0.00 432.00 576.00 cl
0.00 0.00 432.00 576.00 cl
0.00 0.00 432.00 576.00 cl
/Font1 findfont 12 s
0 0 0 srgb
48.00 508.72 (PCP-ETH) 0 0 t
48.00 494.89 (Blitzlicht-Photolyse) 0 0 t
/Font1 findfont 9 s
48.00 457.54 (File: V) 0 ta
-0.720 (er) tb
0.135 (ification_supercharged.dat) tb gr
48.00 334.87 (T) 0 ta
-1.080 (ue Apr  9 22:10:44 2019) tb gr
48.00 430.87 (Fitfunktion:  a + b * e) 0 ta
-0.270 (xp\(-c * t\)) tb gr
48.00 420.50 (t-Inter) 0 ta
0.270 (v) tb
-0.225 (all: 51.000 ... 789.000 ms) tb gr
48.00 410.14 (P) 0 ta
-0.360 (ar) tb
-0.090 (ameter \(Standardabw) tb
-0.090 (eichung\):) tb gr
48.00 399.77 (  a = 0.01657 \(0.00016\)) 0 0 t
48.00 389.40 (  b = 0.30307 \(0.00087\)) 0 0 t
48.00 379.03 (  c = 7.122e+00 \(2.805e-02\) s^-1) 0 0 t
48.00 368.66 (  tau = 1.404e-01 \(5.530e-04\) s) 0 0 t
216.00 345.60 388.80 518.40 cl
0 0 0 srgb
0.75 setlinewidth
[] 0 setdash
1 setlinecap
1 setlinejoin
10.00 setmiterlimit
np
222.40 511.65 m
0.15 -0.63 l
0.14 0.38 l
0.15 0.36 l
0.14 -0.25 l
0.15 -0.60 l
0.14 0.25 l
0.15 0.73 l
0.14 -0.24 l
0.15 0.11 l
0.15 -0.60 l
0.14 0 l
0.15 0.11 l
0.14 0 l
0.15 0.24 l
0.14 0.25 l
0.15 -0.25 l
0.14 -0.11 l
0.15 -0.24 l
0.15 0.35 l
0.14 -0.35 l
0.15 0.35 l
0.14 -0.24 l
0.15 0.13 l
0.14 0.36 l
0.15 -0.25 l
0.15 0.14 l
0.14 0.11 l
0.15 -0.85 l
0.14 0.74 l
0.15 -0.38 l
0.14 -0.36 l
0.15 0.74 l
0.14 0 l
0.15 0 l
0.15 0 l
0.14 -0.25 l
0.15 -0.13 l
0.14 0 l
0.15 0 l
0.14 0.62 l
0.15 0 l
0.14 -0.49 l
0.15 0 l
0.15 -0.49 l
0.14 0.36 l
0.15 0.38 l
0.14 0.35 l
0.15 -0.49 l
0.14 0.49 l
0.15 -0.84 l
0.14 -0.14 l
0.15 0.49 l
0.15 0 l
0.14 0.14 l
0.15 0 l
0.14 -0.25 l
0.15 -0.13 l
0.14 0.24 l
0.15 -0.11 l
0.15 -0.13 l
0.14 0.49 l
0.15 -0.11 l
0.14 0.11 l
0.15 -0.49 l
0.14 0 l
0.15 0.13 l
0.14 0.11 l
0.15 -0.35 l
0.15 0.60 l
0.14 -0.11 l
0.15 -0.49 l
0.14 0.24 l
0.15 -0.62 l
0.14 1.22 l
0.15 -0.49 l
0.14 -0.11 l
0.15 -0.13 l
0.15 -0.25 l
0.14 0.25 l
0.15 0.49 l
0.14 -0.11 l
0.15 -0.49 l
0.14 0.24 l
0.15 -0.13 l
0.14 -0.49 l
0.15 0.24 l
0.15 0.49 l
0.14 0.25 l
0.15 -0.60 l
0.14 -0.14 l
0.15 0.63 l
0.14 -0.25 l
0.15 0.36 l
0.15 0.13 l
0.14 -0.13 l
0.15 -0.60 l
0.14 0.49 l
0.15 -0.63 l
0.14 0.74 l
236.96 428.97 lineto
0.14 2.89 l
0.15 2.11 l
0.15 0.98 l
0.14 0.11 l
0.15 2.06 l
0.14 0.49 l
0.15 1.47 l
0.14 0.62 l
0.15 1.09 l
0.14 0.98 l
0.15 0.49 l
0.15 0.59 l
0.14 1.12 l
0.15 0.84 l
0.14 1.82 l
0.15 0.14 l
0.14 0.49 l
0.15 2.20 l
0.14 -0.25 l
0.15 0.98 l
0.15 1.20 l
0.14 0.13 l
0.15 2.45 l
0.14 -0.14 l
0.15 0.63 l
0.14 0.97 l
0.15 1.58 l
0.15 0.35 l
0.14 0.74 l
0.15 0.24 l
0.14 2.20 l
0.15 0.49 l
0.14 0.35 l
0.15 0.63 l
0.14 0.98 l
0.15 1.08 l
0.15 0.25 l
0.14 0.38 l
0.15 1.71 l
0.14 0.60 l
0.15 0 l
0.14 1.33 l
0.15 0.38 l
0.14 1.09 l
0.15 0.24 l
0.15 0.25 l
0.14 0.73 l
0.15 1.57 l
0.14 0 l
0.15 0 l
0.14 1.12 l
0.15 1.22 l
0.14 0.73 l
0.15 -0.73 l
0.15 1.09 l
0.14 0 l
0.15 1.71 l
0.14 0.11 l
0.15 0.49 l
0.14 -0.36 l
0.15 1.72 l
0.15 0.84 l
0.14 -0.60 l
0.15 1.22 l
0.14 -0.13 l
0.15 1.08 l
0.14 0.38 l
0.15 0.60 l
0.14 -0.11 l
0.15 1.23 l
0.15 0.35 l
0.14 0 l
0.15 0.38 l
0.14 -0.14 l
0.15 2.20 l
0.14 -0.73 l
0.15 0.49 l
0.14 -0.11 l
0.15 0.25 l
0.15 1.33 l
0.14 -0.14 l
0.15 0.14 l
0.14 0.49 l
0.15 0 l
0.14 0.84 l
0.15 0.13 l
0.14 0.11 l
0.15 1.12 l
0.15 0.24 l
0.14 -0.13 l
0.15 -0.25 l
0.14 0.38 l
0.15 1.44 l
0.14 -0.11 l
0.15 -0.35 l
0.15 -0.14 l
0.14 1.47 l
0.15 -0.14 l
0.14 0.14 l
251.52 493.09 lineto
0.14 0.87 l
0.15 0.73 l
0.14 -0.49 l
0.15 0.85 l
0.15 -0.25 l
0.14 0.49 l
0.15 -0.11 l
0.14 0.36 l
0.15 -0.11 l
0.14 0 l
0.15 1.22 l
0.14 -0.49 l
0.15 0.84 l
0.15 0 l
0.14 0 l
0.15 -0.35 l
0.14 0.60 l
0.15 -0.25 l
0.14 -0.11 l
0.15 0.74 l
0.14 0.35 l
0.15 0.49 l
0.15 -0.63 l
0.14 -0.59 l
0.15 1.57 l
0.14 -0.11 l
0.15 -0.38 l
0.14 -0.49 l
0.15 1.61 l
0.14 -0.98 l
0.15 0.73 l
0.15 -0.49 l
0.14 0.74 l
0.15 1.08 l
0.14 -0.10 l
0.15 -1.23 l
0.14 0.25 l
0.15 0.73 l
0.15 0 l
0.14 -0.13 l
0.15 -0.60 l
0.14 1.71 l
0.15 0.11 l
0.14 -0.25 l
0.15 -0.73 l
0.14 0.49 l
0.15 0.24 l
0.15 0.49 l
0.14 -0.60 l
0.15 0.36 l
0.14 0.38 l
0.15 -0.14 l
0.14 -0.11 l
0.15 0 l
0.14 0.49 l
0.15 0.49 l
0.15 -0.87 l
0.14 -0.60 l
0.15 1.23 l
0.14 0.35 l
0.15 -0.11 l
0.14 -0.38 l
0.15 0.14 l
0.14 0.11 l
0.15 0.13 l
0.15 -0.13 l
0.14 0.49 l
0.15 -0.11 l
0.14 0.24 l
0.15 -0.13 l
0.14 -0.85 l
0.15 0.11 l
0.15 0.63 l
0.14 0.46 l
0.15 -0.46 l
0.14 0.35 l
0.15 0.24 l
0.14 -0.48 l
0.15 -0.11 l
0.14 -0.25 l
0.15 1.44 l
0.15 -0.11 l
0.14 -0.62 l
0.15 0.13 l
0.14 -0.24 l
0.15 0.60 l
0.14 0.24 l
0.15 -0.95 l
0.14 0.22 l
0.15 0.62 l
0.15 0 l
0.14 -0.38 l
0.15 0.25 l
0.14 0.49 l
0.15 -0.36 l
0.14 -0.13 l
0.15 0.13 l
0.14 0.11 l
0.15 0.38 l
266.08 504.20 lineto
0.14 0.11 l
0.15 -0.98 l
0.14 0.63 l
0.15 -0.25 l
0.14 0.25 l
0.15 -0.14 l
0.15 0.98 l
0.14 0.24 l
0.15 -0.73 l
0.14 -0.49 l
0.15 0.49 l
0.14 0.38 l
0.15 -0.13 l
0.14 -0.25 l
0.15 -0.49 l
0.15 1.12 l
0.14 -0.49 l
0.15 -0.49 l
0.14 0.35 l
0.15 0.87 l
0.14 -0.62 l
0.15 -0.49 l
0.14 0.62 l
0.15 0.11 l
0.15 -0.24 l
0.14 0.13 l
0.15 0 l
0.14 0.11 l
0.15 0.24 l
0.14 -0.24 l
0.15 -0.24 l
0.14 -0.25 l
0.15 0.73 l
0.15 -0.10 l
0.14 0.24 l
0.15 -0.73 l
0.14 0 l
0.15 0.59 l
0.14 -0.10 l
0.15 -0.25 l
0.15 0 l
0.14 1.09 l
0.15 -1.09 l
0.14 0.35 l
0.15 -0.59 l
0.14 0.49 l
0.15 0.59 l
0.14 -0.10 l
0.15 -0.74 l
0.15 0.74 l
0.14 -0.25 l
0.15 0 l
0.14 -0.14 l
0.15 -0.10 l
0.14 0.24 l
0.15 0.11 l
0.14 -0.35 l
0.15 0 l
0.15 -0.49 l
0.14 1.46 l
0.15 -0.24 l
0.14 -0.73 l
0.15 0.35 l
0.14 -0.60 l
0.15 1.09 l
0.14 -0.35 l
0.15 -0.25 l
0.15 -0.24 l
0.14 0.24 l
0.15 0.60 l
0.14 -0.35 l
0.15 -0.25 l
0.14 -0.49 l
0.15 0.98 l
0.15 0 l
0.14 -0.14 l
0.15 -0.49 l
0.14 0 l
0.15 0.98 l
0.14 -0.24 l
0.15 -0.25 l
0.14 -0.10 l
0.15 -0.14 l
0.15 -0.11 l
0.14 0.11 l
0.15 -0.35 l
0.14 0.97 l
0.15 -0.24 l
0.14 -0.63 l
0.15 0.14 l
0.14 0.25 l
0.15 0.73 l
0.15 -0.38 l
0.14 -0.49 l
0.15 -0.11 l
0.14 0.98 l
0.15 -0.63 l
0.14 0 l
0.15 -0.24 l
280.63 505.53 lineto
0.15 1.23 l
0.15 -0.74 l
0.14 -0.73 l
0.15 -0.25 l
0.14 0.74 l
0.15 0.38 l
0.14 -0.14 l
0.15 -1.22 l
0.15 0.63 l
0.14 1.33 l
0.15 -1.23 l
0.14 -0.10 l
0.15 0 l
0.14 0.35 l
0.15 0.38 l
0.14 -0.63 l
0.15 -0.10 l
0.15 0 l
0.14 0.35 l
0.15 0.38 l
0.14 0 l
0.15 -0.25 l
0.14 -0.13 l
0.15 0.62 l
0.14 -0.62 l
0.15 -0.35 l
0.15 1.08 l
0.14 -0.84 l
0.15 0.11 l
0.14 -0.35 l
0.15 0 l
0.14 0.84 l
0.15 0 l
0.14 -0.36 l
0.15 0 l
0.15 0.25 l
0.14 -0.25 l
0.15 -0.24 l
0.14 0.49 l
0.15 0 l
0.14 0.24 l
0.15 -0.38 l
0.14 0.25 l
0.15 -0.60 l
0.15 -0.14 l
0.14 0.74 l
0.15 0.38 l
0.14 -0.49 l
0.15 0.35 l
0.14 -0.60 l
0.15 0 l
0.15 0.11 l
0.14 -0.11 l
0.15 0.49 l
0.14 -0.24 l
0.15 -0.25 l
0.14 0 l
0.15 0.36 l
0.14 0 l
0.15 -0.25 l
0.15 0.14 l
0.14 0.35 l
0.15 -0.24 l
0.14 0.13 l
0.15 -0.38 l
0.14 -0.11 l
0.15 0 l
0.14 0.25 l
0.15 -0.25 l
0.15 0 l
0.14 0.49 l
0.15 0 l
0.14 -0.13 l
0.15 0.13 l
0.14 0 l
0.15 -0.24 l
0.14 0.24 l
0.15 -0.24 l
0.15 0.11 l
0.14 0.24 l
0.15 0.14 l
0.14 -0.49 l
0.15 -0.25 l
0.14 0.60 l
0.15 -0.49 l
0.15 0.14 l
0.14 0.49 l
0.15 -0.49 l
0.14 0.35 l
0.15 -0.49 l
0.14 -0.24 l
0.15 0.24 l
0.14 0.25 l
0.15 0.13 l
0.15 -0.13 l
0.14 0.24 l
0.15 0.14 l
0.14 -0.49 l
0.15 0.11 l
295.19 506.65 lineto
0.15 0.24 l
0.14 -0.62 l
0.15 0.13 l
0.15 0 l
0.14 0.36 l
0.15 -0.60 l
0.14 0.49 l
0.15 0.49 l
0.14 -0.38 l
0.15 -0.11 l
0.14 -0.49 l
0.15 0.24 l
0.15 0.11 l
0.14 0 l
0.15 0.14 l
0.14 0.35 l
0.15 -1.33 l
0.14 0.73 l
0.15 0.25 l
0.15 0.11 l
0.14 -0.49 l
0.15 0.13 l
0.14 0.11 l
0.15 -0.24 l
0.14 -0.11 l
0.15 1.09 l
0.14 -1.09 l
0.15 0.60 l
0.15 0.13 l
0.14 0.11 l
0.15 -0.73 l
0.14 0.49 l
0.15 0 l
0.14 -0.11 l
0.15 -0.25 l
0.14 0.11 l
0.15 0.63 l
0.15 -0.87 l
0.14 0.38 l
0.15 0.49 l
0.14 -0.49 l
0.15 0.35 l
0.14 0 l
0.15 -0.35 l
0.14 -0.87 l
0.15 1.85 l
0.15 -0.98 l
0.14 0.24 l
0.15 -0.38 l
0.14 0 l
0.15 0.38 l
0.14 -0.24 l
0.15 -0.25 l
0.15 0.11 l
0.14 0.87 l
0.15 -0.98 l
0.14 0 l
0.15 0.49 l
0.14 0.25 l
0.15 -0.74 l
0.14 0.74 l
0.15 -0.25 l
0.15 -0.38 l
0.14 -0.11 l
0.15 0.11 l
0.14 0 l
0.15 0.14 l
0.14 0 l
0.15 0.35 l
0.14 -0.73 l
0.15 0.73 l
0.15 0.25 l
0.14 -0.25 l
0.15 0 l
0.14 -0.24 l
0.15 0.13 l
0.14 -0.49 l
0.15 0.11 l
0.14 0 l
0.15 0.38 l
0.15 -0.38 l
0.14 0.87 l
0.15 -0.38 l
0.14 -0.24 l
0.15 -0.11 l
0.14 0.24 l
0.15 0.25 l
0.15 0 l
0.14 -0.14 l
0.15 -0.49 l
0.14 0.49 l
0.15 0.14 l
0.14 -0.14 l
0.15 0.73 l
0.14 -1.08 l
0.15 0.11 l
0.15 0.87 l
0.14 -0.74 l
0.15 0.11 l
309.75 506.89 lineto
0.15 -0.13 l
0.14 -0.11 l
0.15 0.35 l
0.14 -0.24 l
0.15 -0.11 l
0.15 0 l
0.14 0.60 l
0.15 0.13 l
0.14 -0.24 l
0.15 -0.49 l
0.14 0.11 l
0.15 0.38 l
0.14 -0.49 l
0.15 0.11 l
0.15 0.24 l
0.14 0.25 l
0.15 -0.60 l
0.14 0.11 l
0.15 0.38 l
0.14 -0.14 l
0.15 0 l
0.15 0 l
0.14 -0.11 l
0.15 -0.24 l
0.14 0.11 l
0.15 0.13 l
0.14 0.49 l
0.15 0 l
0.14 -0.24 l
0.15 0 l
0.15 -0.25 l
0.14 0.11 l
0.15 0.38 l
0.14 0.49 l
0.15 -0.87 l
0.14 0 l
0.15 -0.24 l
0.14 0.24 l
0.15 0 l
0.15 0.14 l
0.14 0.11 l
0.15 -0.49 l
0.14 0.24 l
0.15 -0.24 l
0.14 0.73 l
0.15 -0.24 l
0.14 0.38 l
0.15 -0.25 l
0.15 -0.38 l
0.14 0 l
0.15 0.14 l
0.14 0.35 l
0.15 -0.11 l
0.14 0 l
0.15 -0.13 l
0.15 -0.11 l
0.14 -0.14 l
0.15 0.14 l
0.14 0.35 l
0.15 -0.11 l
0.14 -0.24 l
0.15 0.49 l
0.14 -0.49 l
0.15 0.24 l
0.15 0.11 l
0.14 0.14 l
0.15 -0.25 l
0.14 -0.24 l
0.15 0 l
0.14 0.24 l
0.15 -0.98 l
0.14 1.33 l
0.15 -0.48 l
0.15 0 l
0.14 -0.11 l
0.15 0.59 l
0.14 -0.59 l
0.15 0.24 l
0.14 -0.62 l
0.15 1.11 l
0.14 -0.14 l
0.15 -0.73 l
0.15 0.25 l
0.14 0.24 l
0.15 -0.24 l
0.14 -0.60 l
0.15 0.84 l
0.14 0.24 l
0.15 -0.48 l
0.14 0.38 l
0.15 -0.14 l
0.15 -0.11 l
0.14 0 l
0.15 0.60 l
0.14 -0.11 l
0.15 -0.38 l
0.14 0.24 l
0.15 -0.73 l
0.15 0.38 l
324.31 506.89 lineto
0.15 0.74 l
0.14 0.10 l
0.15 -0.48 l
0.14 -0.11 l
0.15 -0.14 l
0.14 0.63 l
0.15 -1.36 l
0.15 1.46 l
0.14 -0.59 l
0.15 0.24 l
0.14 -0.38 l
0.15 0.49 l
0.14 0.24 l
0.15 -0.73 l
0.14 0.63 l
0.15 0.10 l
0.15 -0.48 l
0.14 0 l
0.15 0.48 l
0.14 -0.24 l
0.15 0.38 l
0.14 -0.38 l
0.15 -0.11 l
0.14 0.11 l
0.15 0 l
0.15 0 l
0.14 0.38 l
0.15 -0.49 l
0.14 -0.24 l
0.15 0.11 l
0.14 0.84 l
0.15 -0.36 l
0.15 -0.73 l
0.14 0.87 l
0.15 0.35 l
0.14 -0.84 l
0.15 -0.24 l
0.14 0.24 l
0.15 0.49 l
0.14 -0.38 l
0.15 0.14 l
0.15 0.35 l
0.14 -1.22 l
0.15 0.87 l
0.14 0 l
0.15 0.10 l
0.14 -0.10 l
0.15 0.10 l
0.14 -0.48 l
0.15 0.24 l
0.15 -0.24 l
0.14 0.38 l
0.15 0.24 l
0.14 -0.73 l
0.15 0 l
0.14 0.59 l
0.15 -0.24 l
0.14 0.24 l
0.15 0 l
0.15 -0.48 l
0.14 0 l
0.15 0.24 l
0.14 0.49 l
0.15 -0.35 l
0.14 -0.63 l
0.15 0.63 l
0.15 0.46 l
0.14 0.13 l
0.15 -0.49 l
0.14 -0.10 l
0.15 -0.63 l
0.14 0.49 l
0.15 0.38 l
0.14 0 l
0.15 0.22 l
0.15 -0.36 l
0.14 0.14 l
0.15 -0.14 l
0.14 -0.73 l
0.15 0.49 l
0.14 0.14 l
0.15 0.24 l
0.14 -0.62 l
0.15 0.48 l
0.15 -0.24 l
0.14 0.49 l
0.15 -0.11 l
0.14 0.35 l
0.15 -0.35 l
0.14 -0.38 l
0.15 -0.11 l
0.14 0.11 l
0.15 0.73 l
0.15 0 l
0.14 -0.35 l
0.15 0 l
0.14 -0.62 l
0.15 0.62 l
0.14 -0.24 l
338.87 507.73 lineto
0.15 0.49 l
0.14 -0.59 l
0.15 0 l
0.14 -0.49 l
0.15 0.84 l
0.14 0.35 l
0.15 -0.24 l
0.14 -0.46 l
0.15 0.35 l
0.15 -0.35 l
0.14 0.10 l
0.15 0.14 l
0.14 0.35 l
0.15 0 l
0.14 -0.49 l
0.15 0.60 l
0.14 -0.35 l
0.15 -0.11 l
0.15 -0.14 l
0.14 0.85 l
0.15 -0.60 l
0.14 -0.60 l
0.15 0.71 l
0.14 -0.11 l
0.15 -0.25 l
0.14 -0.10 l
0.15 0.59 l
0.15 0.11 l
0.14 -0.84 l
0.15 0.24 l
0.14 0.49 l
0.15 0 l
0.14 -0.35 l
0.15 0.35 l
0.15 -0.13 l
0.14 -0.22 l
0.15 0.11 l
0.14 -0.25 l
0.15 0 l
0.14 -0.10 l
0.15 0.46 l
0.14 0.24 l
0.15 -0.35 l
0.15 -0.25 l
0.14 0.74 l
0.15 -0.60 l
0.14 0.35 l
0.15 -0.73 l
0.14 0.60 l
0.15 0.13 l
0.14 -0.49 l
0.15 0.74 l
0.15 -0.60 l
0.14 0 l
0.15 0.60 l
0.14 -0.49 l
0.15 0 l
0.14 -0.60 l
0.15 0.60 l
0.14 0.24 l
0.15 0 l
0.15 -0.13 l
0.14 -0.22 l
0.15 -0.14 l
0.14 0.25 l
0.15 0.11 l
0.14 0.73 l
0.15 -0.84 l
0.15 0.11 l
0.14 0.24 l
0.15 -0.35 l
0.14 0.24 l
0.15 0.49 l
0.14 -0.13 l
0.15 -0.49 l
0.14 0.13 l
0.15 -0.13 l
0.15 -0.60 l
0.14 0.73 l
0.15 0 l
0.14 0.25 l
0.15 -0.14 l
0.14 -0.35 l
0.15 -0.35 l
0.14 0.59 l
0.15 -0.49 l
0.15 0.85 l
0.14 -0.11 l
0.15 -0.84 l
0.14 0.24 l
0.15 0 l
0.14 0.60 l
0.15 0 l
0.14 -0.49 l
0.15 0.49 l
0.15 -0.25 l
0.14 0.11 l
0.15 -0.70 l
0.14 0.35 l
353.43 507.87 lineto
0.14 0.11 l
0.15 0.73 l
0.14 -0.84 l
0.15 -0.14 l
0.15 0.60 l
0.14 -0.24 l
0.15 -0.11 l
0.14 0.11 l
0.15 0.13 l
0.14 0 l
0.15 -0.49 l
0.15 0.60 l
0.14 0 l
0.15 -0.46 l
0.14 0.46 l
0.15 0.14 l
0.14 -0.14 l
0.15 -0.11 l
0.14 -0.13 l
0.15 0.49 l
0.15 -0.36 l
0.14 0.25 l
0.15 -0.25 l
0.14 -0.13 l
0.15 -0.36 l
0.14 0.60 l
0.15 0.25 l
0.14 0.38 l
0.15 -0.38 l
0.15 -0.60 l
0.14 0.35 l
0.15 -0.35 l
0.14 0.84 l
0.15 0 l
0.14 0 l
0.15 -0.84 l
0.14 0.49 l
0.15 -0.25 l
0.15 -0.13 l
0.14 0.24 l
0.15 0.14 l
0.14 -0.25 l
0.15 0.25 l
0.14 0.60 l
0.15 -0.74 l
0.15 0.25 l
0.14 -0.11 l
0.15 -0.14 l
0.14 0.25 l
0.15 -0.49 l
0.14 0.13 l
0.15 0 l
0.14 0.25 l
0.15 -0.14 l
0.15 0.14 l
0.14 0.11 l
0.15 -0.60 l
0.14 -0.11 l
0.15 0.84 l
0.14 0.11 l
0.15 0 l
0.14 -0.35 l
0.15 0.24 l
0.15 -0.84 l
0.14 0.60 l
0.15 -0.38 l
0.14 0.87 l
0.15 -0.74 l
0.14 0.49 l
0.15 -0.24 l
0.14 -0.38 l
0.15 0.49 l
0.15 -0.25 l
0.14 0.98 l
0.15 -0.60 l
0.14 -0.24 l
0.15 0 l
0.14 0.35 l
0.15 -0.11 l
0.15 -0.49 l
0.14 0.36 l
0.15 -0.11 l
0.14 0 l
0.15 -0.14 l
0.14 0.74 l
0.15 -0.98 l
0.14 0.49 l
0.15 0.13 l
0.15 0 l
0.14 -0.13 l
0.15 -0.11 l
0.14 0 l
0.15 0.11 l
0.14 0.13 l
0.15 0 l
0.14 -0.13 l
0.15 -0.25 l
0.15 0 l
0.14 0.14 l
currentpoint o m
367.99 508.33 lineto
0.14 0.38 l
0.15 -0.13 l
0.14 0.13 l
0.15 -0.24 l
0.14 0.11 l
0.15 -0.25 l
0.15 -0.11 l
0.14 0.98 l
0.15 -0.49 l
0.14 0 l
0.15 0 l
0.14 0.25 l
0.15 -0.25 l
0.15 0 l
0.14 0.11 l
0.15 -0.11 l
0.14 0 l
0.15 -0.13 l
0.14 0.49 l
0.15 -0.60 l
0.14 0.24 l
0.15 -0.13 l
0.15 -0.36 l
0.14 -0.13 l
0.15 0.62 l
0.14 0.11 l
0.15 -0.11 l
0.14 0 l
0.15 -0.49 l
0.14 0.85 l
0.15 -0.74 l
0.15 0.25 l
0.14 0.38 l
0.15 -0.63 l
0.14 0.63 l
0.15 -0.38 l
0.14 0 l
0.15 0.13 l
0.14 0 l
0.15 0 l
0.15 0 l
0.14 0 l
0.15 0.11 l
0.14 0 l
0.15 0.14 l
0.14 -0.38 l
0.15 0.38 l
0.15 0.11 l
0.14 -0.11 l
0.15 -0.25 l
0.14 0.11 l
0.15 0 l
0.14 -0.60 l
0.15 0.25 l
0.14 -0.14 l
0.15 0.25 l
0.15 0.13 l
0.14 0.74 l
0.15 -0.25 l
0.14 -0.24 l
0.15 -0.25 l
0.14 0.25 l
0.15 0 l
0.14 -0.38 l
0.15 0 l
0.15 0.13 l
0.14 0.11 l
0.15 0.14 l
0.14 0 l
0.15 -0.14 l
0.14 0.14 l
0.15 0 l
0.14 -0.25 l
0.15 0.11 l
0.15 -0.24 l
0.14 0.49 l
0.15 0.24 l
0.14 -0.98 l
0.15 0.14 l
0.14 0.24 l
0.15 0.11 l
0.15 0.25 l
0.14 -0.49 l
0.15 0.13 l
0.14 0 l
0.15 0.49 l
0.14 -0.13 l
0.15 -0.36 l
0.14 0.36 l
0.15 -0.49 l
0.15 -0.11 l
0.14 0.35 l
0.15 0.73 l
0.14 -0.73 l
0.15 -0.11 l
0.14 0 l
0.15 0 l
0.14 -0.38 l
0.15 0.25 l
o
/bg { 1 1 1 srgb } def
222.40 511.65 0.43 c p3
222.55 511.02 0.43 c p3
222.69 511.40 0.43 c p3
222.84 511.76 0.43 c p3
222.98 511.51 0.43 c p3
223.13 510.91 0.43 c p3
223.27 511.16 0.43 c p3
223.42 511.89 0.43 c p3
223.56 511.65 0.43 c p3
223.71 511.76 0.43 c p3
223.86 511.16 0.43 c p3
224.00 511.16 0.43 c p3
224.15 511.27 0.43 c p3
224.29 511.27 0.43 c p3
224.44 511.51 0.43 c p3
224.58 511.76 0.43 c p3
224.73 511.51 0.43 c p3
224.87 511.40 0.43 c p3
225.02 511.16 0.43 c p3
225.17 511.51 0.43 c p3
225.31 511.16 0.43 c p3
225.46 511.51 0.43 c p3
225.60 511.27 0.43 c p3
225.75 511.40 0.43 c p3
225.89 511.76 0.43 c p3
226.04 511.51 0.43 c p3
226.19 511.65 0.43 c p3
226.33 511.76 0.43 c p3
226.48 510.91 0.43 c p3
226.62 511.65 0.43 c p3
226.77 511.27 0.43 c p3
226.91 510.91 0.43 c p3
227.06 511.65 0.43 c p3
227.20 511.65 0.43 c p3
227.35 511.65 0.43 c p3
227.50 511.65 0.43 c p3
227.64 511.40 0.43 c p3
227.79 511.27 0.43 c p3
227.93 511.27 0.43 c p3
228.08 511.27 0.43 c p3
228.22 511.89 0.43 c p3
228.37 511.89 0.43 c p3
228.51 511.40 0.43 c p3
228.66 511.40 0.43 c p3
228.81 510.91 0.43 c p3
228.95 511.27 0.43 c p3
229.10 511.65 0.43 c p3
229.24 512.00 0.43 c p3
229.39 511.51 0.43 c p3
229.53 512.00 0.43 c p3
229.68 511.16 0.43 c p3
229.82 511.02 0.43 c p3
229.97 511.51 0.43 c p3
230.12 511.51 0.43 c p3
230.26 511.65 0.43 c p3
230.41 511.65 0.43 c p3
230.55 511.40 0.43 c p3
230.70 511.27 0.43 c p3
230.84 511.51 0.43 c p3
230.99 511.40 0.43 c p3
231.14 511.27 0.43 c p3
231.28 511.76 0.43 c p3
231.43 511.65 0.43 c p3
231.57 511.76 0.43 c p3
231.72 511.27 0.43 c p3
231.86 511.27 0.43 c p3
232.01 511.40 0.43 c p3
232.15 511.51 0.43 c p3
232.30 511.16 0.43 c p3
232.45 511.76 0.43 c p3
232.59 511.65 0.43 c p3
232.74 511.16 0.43 c p3
232.88 511.40 0.43 c p3
233.03 510.78 0.43 c p3
233.17 512.00 0.43 c p3
233.32 511.51 0.43 c p3
233.46 511.40 0.43 c p3
233.61 511.27 0.43 c p3
233.76 511.02 0.43 c p3
233.90 511.27 0.43 c p3
234.05 511.76 0.43 c p3
234.19 511.65 0.43 c p3
234.34 511.16 0.43 c p3
234.48 511.40 0.43 c p3
234.63 511.27 0.43 c p3
234.77 510.78 0.43 c p3
234.92 511.02 0.43 c p3
235.07 511.51 0.43 c p3
235.21 511.76 0.43 c p3
235.36 511.16 0.43 c p3
235.50 511.02 0.43 c p3
235.65 511.65 0.43 c p3
235.79 511.40 0.43 c p3
235.94 511.76 0.43 c p3
236.09 511.89 0.43 c p3
236.23 511.76 0.43 c p3
236.38 511.16 0.43 c p3
236.52 511.65 0.43 c p3
236.67 511.02 0.43 c p3
236.81 511.76 0.43 c p3
236.96 428.97 0.43 c p3
237.10 431.86 0.43 c p3
237.25 433.97 0.43 c p3
237.40 434.95 0.43 c p3
237.54 435.06 0.43 c p3
237.69 437.12 0.43 c p3
237.83 437.61 0.43 c p3
237.98 439.08 0.43 c p3
238.12 439.70 0.43 c p3
238.27 440.79 0.43 c p3
238.41 441.77 0.43 c p3
238.56 442.26 0.43 c p3
238.71 442.85 0.43 c p3
238.85 443.97 0.43 c p3
239.00 444.81 0.43 c p3
239.14 446.63 0.43 c p3
239.29 446.77 0.43 c p3
239.43 447.26 0.43 c p3
239.58 449.46 0.43 c p3
239.72 449.21 0.43 c p3
239.87 450.19 0.43 c p3
240.02 451.39 0.43 c p3
240.16 451.52 0.43 c p3
240.31 453.97 0.43 c p3
240.45 453.83 0.43 c p3
240.60 454.46 0.43 c p3
240.74 455.43 0.43 c p3
240.89 457.01 0.43 c p3
241.04 457.36 0.43 c p3
241.18 458.10 0.43 c p3
241.33 458.34 0.43 c p3
241.47 460.54 0.43 c p3
241.62 461.03 0.43 c p3
241.76 461.38 0.43 c p3
241.91 462.01 0.43 c p3
242.05 462.99 0.43 c p3
242.20 464.07 0.43 c p3
242.35 464.32 0.43 c p3
242.49 464.70 0.43 c p3
242.64 466.41 0.43 c p3
242.78 467.01 0.43 c p3
242.93 467.01 0.43 c p3
243.07 468.34 0.43 c p3
243.22 468.72 0.43 c p3
243.36 469.81 0.43 c p3
243.51 470.05 0.43 c p3
243.66 470.30 0.43 c p3
243.80 471.03 0.43 c p3
243.95 472.60 0.43 c p3
244.09 472.60 0.43 c p3
244.24 472.60 0.43 c p3
244.38 473.72 0.43 c p3
244.53 474.94 0.43 c p3
244.67 475.67 0.43 c p3
244.82 474.94 0.43 c p3
244.97 476.03 0.43 c p3
245.11 476.03 0.43 c p3
245.26 477.74 0.43 c p3
245.40 477.85 0.43 c p3
245.55 478.34 0.43 c p3
245.69 477.98 0.43 c p3
245.84 479.70 0.43 c p3
245.99 480.54 0.43 c p3
246.13 479.94 0.43 c p3
246.28 481.16 0.43 c p3
246.42 481.03 0.43 c p3
246.57 482.11 0.43 c p3
246.71 482.49 0.43 c p3
246.86 483.09 0.43 c p3
247.00 482.98 0.43 c p3
247.15 484.21 0.43 c p3
247.30 484.56 0.43 c p3
247.44 484.56 0.43 c p3
247.59 484.94 0.43 c p3
247.73 484.80 0.43 c p3
247.88 487.00 0.43 c p3
248.02 486.27 0.43 c p3
248.17 486.76 0.43 c p3
248.31 486.65 0.43 c p3
248.46 486.90 0.43 c p3
248.61 488.23 0.43 c p3
248.75 488.09 0.43 c p3
248.90 488.23 0.43 c p3
249.04 488.72 0.43 c p3
249.19 488.72 0.43 c p3
249.33 489.56 0.43 c p3
249.48 489.69 0.43 c p3
249.62 489.80 0.43 c p3
249.77 490.92 0.43 c p3
249.92 491.16 0.43 c p3
250.06 491.03 0.43 c p3
250.21 490.78 0.43 c p3
250.35 491.16 0.43 c p3
250.50 492.60 0.43 c p3
250.64 492.49 0.43 c p3
250.79 492.14 0.43 c p3
250.94 492.00 0.43 c p3
251.08 493.47 0.43 c p3
251.23 493.33 0.43 c p3
251.37 493.47 0.43 c p3
251.52 493.09 0.43 c p3
251.66 493.96 0.43 c p3
251.81 494.69 0.43 c p3
251.95 494.20 0.43 c p3
252.10 495.05 0.43 c p3
252.25 494.80 0.43 c p3
252.39 495.29 0.43 c p3
252.54 495.18 0.43 c p3
252.68 495.54 0.43 c p3
252.83 495.43 0.43 c p3
252.97 495.43 0.43 c p3
253.12 496.65 0.43 c p3
253.26 496.16 0.43 c p3
253.41 497.00 0.43 c p3
253.56 497.00 0.43 c p3
253.70 497.00 0.43 c p3
253.85 496.65 0.43 c p3
253.99 497.25 0.43 c p3
254.14 497.00 0.43 c p3
254.28 496.89 0.43 c p3
254.43 497.63 0.43 c p3
254.57 497.98 0.43 c p3
254.72 498.47 0.43 c p3
254.87 497.84 0.43 c p3
255.01 497.25 0.43 c p3
255.16 498.82 0.43 c p3
255.30 498.71 0.43 c p3
255.45 498.33 0.43 c p3
255.59 497.84 0.43 c p3
255.74 499.45 0.43 c p3
255.88 498.47 0.43 c p3
256.03 499.20 0.43 c p3
256.18 498.71 0.43 c p3
256.32 499.45 0.43 c p3
256.47 500.53 0.43 c p3
256.61 500.43 0.43 c p3
256.76 499.20 0.43 c p3
256.90 499.45 0.43 c p3
257.05 500.18 0.43 c p3
257.20 500.18 0.43 c p3
257.34 500.05 0.43 c p3
257.49 499.45 0.43 c p3
257.63 501.16 0.43 c p3
257.78 501.27 0.43 c p3
257.92 501.02 0.43 c p3
258.07 500.29 0.43 c p3
258.21 500.78 0.43 c p3
258.36 501.02 0.43 c p3
258.51 501.51 0.43 c p3
258.65 500.91 0.43 c p3
258.80 501.27 0.43 c p3
258.94 501.65 0.43 c p3
259.09 501.51 0.43 c p3
259.23 501.40 0.43 c p3
259.38 501.40 0.43 c p3
259.52 501.89 0.43 c p3
259.67 502.38 0.43 c p3
259.82 501.51 0.43 c p3
259.96 500.91 0.43 c p3
260.11 502.14 0.43 c p3
260.25 502.49 0.43 c p3
260.40 502.38 0.43 c p3
260.54 502.00 0.43 c p3
260.69 502.14 0.43 c p3
260.83 502.25 0.43 c p3
260.98 502.38 0.43 c p3
261.13 502.25 0.43 c p3
261.27 502.74 0.43 c p3
261.42 502.63 0.43 c p3
261.56 502.87 0.43 c p3
261.71 502.74 0.43 c p3
261.85 501.89 0.43 c p3
262.00 502.00 0.43 c p3
262.15 502.63 0.43 c p3
262.29 503.09 0.43 c p3
262.44 502.63 0.43 c p3
262.58 502.98 0.43 c p3
262.73 503.22 0.43 c p3
262.87 502.74 0.43 c p3
263.02 502.63 0.43 c p3
263.16 502.38 0.43 c p3
263.31 503.82 0.43 c p3
263.46 503.71 0.43 c p3
263.60 503.09 0.43 c p3
263.75 503.22 0.43 c p3
263.89 502.98 0.43 c p3
264.04 503.58 0.43 c p3
264.18 503.82 0.43 c p3
264.33 502.87 0.43 c p3
264.47 503.09 0.43 c p3
264.62 503.71 0.43 c p3
264.77 503.71 0.43 c p3
264.91 503.33 0.43 c p3
265.06 503.58 0.43 c p3
265.20 504.07 0.43 c p3
265.35 503.71 0.43 c p3
265.49 503.58 0.43 c p3
265.64 503.71 0.43 c p3
265.78 503.82 0.43 c p3
265.93 504.20 0.43 c p3
266.08 504.20 0.43 c p3
266.22 504.31 0.43 c p3
266.37 503.33 0.43 c p3
266.51 503.96 0.43 c p3
266.66 503.71 0.43 c p3
266.80 503.96 0.43 c p3
266.95 503.82 0.43 c p3
267.10 504.80 0.43 c p3
267.24 505.04 0.43 c p3
267.39 504.31 0.43 c p3
267.53 503.82 0.43 c p3
267.68 504.31 0.43 c p3
267.82 504.69 0.43 c p3
267.97 504.56 0.43 c p3
268.11 504.31 0.43 c p3
268.26 503.82 0.43 c p3
268.41 504.94 0.43 c p3
268.55 504.45 0.43 c p3
268.70 503.96 0.43 c p3
268.84 504.31 0.43 c p3
268.99 505.18 0.43 c p3
269.13 504.56 0.43 c p3
269.28 504.07 0.43 c p3
269.42 504.69 0.43 c p3
269.57 504.80 0.43 c p3
269.72 504.56 0.43 c p3
269.86 504.69 0.43 c p3
270.01 504.69 0.43 c p3
270.15 504.80 0.43 c p3
270.30 505.04 0.43 c p3
270.44 504.80 0.43 c p3
270.59 504.56 0.43 c p3
270.73 504.31 0.43 c p3
270.88 505.04 0.43 c p3
271.03 504.94 0.43 c p3
271.17 505.18 0.43 c p3
271.32 504.45 0.43 c p3
271.46 504.45 0.43 c p3
271.61 505.04 0.43 c p3
271.75 504.94 0.43 c p3
271.90 504.69 0.43 c p3
272.05 504.69 0.43 c p3
272.19 505.78 0.43 c p3
272.34 504.69 0.43 c p3
272.48 505.04 0.43 c p3
272.63 504.45 0.43 c p3
272.77 504.94 0.43 c p3
272.92 505.53 0.43 c p3
273.06 505.43 0.43 c p3
273.21 504.69 0.43 c p3
273.36 505.43 0.43 c p3
273.50 505.18 0.43 c p3
273.65 505.18 0.43 c p3
273.79 505.04 0.43 c p3
273.94 504.94 0.43 c p3
274.08 505.18 0.43 c p3
274.23 505.29 0.43 c p3
274.37 504.94 0.43 c p3
274.52 504.94 0.43 c p3
274.67 504.45 0.43 c p3
274.81 505.91 0.43 c p3
274.96 505.67 0.43 c p3
275.10 504.94 0.43 c p3
275.25 505.29 0.43 c p3
275.39 504.69 0.43 c p3
275.54 505.78 0.43 c p3
275.68 505.43 0.43 c p3
275.83 505.18 0.43 c p3
275.98 504.94 0.43 c p3
276.12 505.18 0.43 c p3
276.27 505.78 0.43 c p3
276.41 505.43 0.43 c p3
276.56 505.18 0.43 c p3
276.70 504.69 0.43 c p3
276.85 505.67 0.43 c p3
277.00 505.67 0.43 c p3
277.14 505.53 0.43 c p3
277.29 505.04 0.43 c p3
277.43 505.04 0.43 c p3
277.58 506.02 0.43 c p3
277.72 505.78 0.43 c p3
277.87 505.53 0.43 c p3
278.01 505.43 0.43 c p3
278.16 505.29 0.43 c p3
278.31 505.18 0.43 c p3
278.45 505.29 0.43 c p3
278.60 504.94 0.43 c p3
278.74 505.91 0.43 c p3
278.89 505.67 0.43 c p3
279.03 505.04 0.43 c p3
279.18 505.18 0.43 c p3
279.32 505.43 0.43 c p3
279.47 506.16 0.43 c p3
279.62 505.78 0.43 c p3
279.76 505.29 0.43 c p3
279.91 505.18 0.43 c p3
280.05 506.16 0.43 c p3
280.20 505.53 0.43 c p3
280.34 505.53 0.43 c p3
280.49 505.29 0.43 c p3
280.63 505.53 0.43 c p3
280.78 506.76 0.43 c p3
280.93 506.02 0.43 c p3
281.07 505.29 0.43 c p3
281.22 505.04 0.43 c p3
281.36 505.78 0.43 c p3
281.51 506.16 0.43 c p3
281.65 506.02 0.43 c p3
281.80 504.80 0.43 c p3
281.95 505.43 0.43 c p3
282.09 506.76 0.43 c p3
282.24 505.53 0.43 c p3
282.38 505.43 0.43 c p3
282.53 505.43 0.43 c p3
282.67 505.78 0.43 c p3
282.82 506.16 0.43 c p3
282.96 505.53 0.43 c p3
283.11 505.43 0.43 c p3
283.26 505.43 0.43 c p3
283.40 505.78 0.43 c p3
283.55 506.16 0.43 c p3
283.69 506.16 0.43 c p3
283.84 505.91 0.43 c p3
283.98 505.78 0.43 c p3
284.13 506.40 0.43 c p3
284.27 505.78 0.43 c p3
284.42 505.43 0.43 c p3
284.57 506.51 0.43 c p3
284.71 505.67 0.43 c p3
284.86 505.78 0.43 c p3
285.00 505.43 0.43 c p3
285.15 505.43 0.43 c p3
285.29 506.27 0.43 c p3
285.44 506.27 0.43 c p3
285.58 505.91 0.43 c p3
285.73 505.91 0.43 c p3
285.88 506.16 0.43 c p3
286.02 505.91 0.43 c p3
286.17 505.67 0.43 c p3
286.31 506.16 0.43 c p3
286.46 506.16 0.43 c p3
286.60 506.40 0.43 c p3
286.75 506.02 0.43 c p3
286.89 506.27 0.43 c p3
287.04 505.67 0.43 c p3
287.19 505.53 0.43 c p3
287.33 506.27 0.43 c p3
287.48 506.65 0.43 c p3
287.62 506.16 0.43 c p3
287.77 506.51 0.43 c p3
287.91 505.91 0.43 c p3
288.06 505.91 0.43 c p3
288.21 506.02 0.43 c p3
288.35 505.91 0.43 c p3
288.50 506.40 0.43 c p3
288.64 506.16 0.43 c p3
288.79 505.91 0.43 c p3
288.93 505.91 0.43 c p3
289.08 506.27 0.43 c p3
289.22 506.27 0.43 c p3
289.37 506.02 0.43 c p3
289.52 506.16 0.43 c p3
289.66 506.51 0.43 c p3
289.81 506.27 0.43 c p3
289.95 506.40 0.43 c p3
290.10 506.02 0.43 c p3
290.24 505.91 0.43 c p3
290.39 505.91 0.43 c p3
290.53 506.16 0.43 c p3
290.68 505.91 0.43 c p3
290.83 505.91 0.43 c p3
290.97 506.40 0.43 c p3
291.12 506.40 0.43 c p3
291.26 506.27 0.43 c p3
291.41 506.40 0.43 c p3
291.55 506.40 0.43 c p3
291.70 506.16 0.43 c p3
291.84 506.40 0.43 c p3
291.99 506.16 0.43 c p3
292.14 506.27 0.43 c p3
292.28 506.51 0.43 c p3
292.43 506.65 0.43 c p3
292.57 506.16 0.43 c p3
292.72 505.91 0.43 c p3
292.86 506.51 0.43 c p3
293.01 506.02 0.43 c p3
293.16 506.16 0.43 c p3
293.30 506.65 0.43 c p3
293.45 506.16 0.43 c p3
293.59 506.51 0.43 c p3
293.74 506.02 0.43 c p3
293.88 505.78 0.43 c p3
294.03 506.02 0.43 c p3
294.17 506.27 0.43 c p3
294.32 506.40 0.43 c p3
294.47 506.27 0.43 c p3
294.61 506.51 0.43 c p3
294.76 506.65 0.43 c p3
294.90 506.16 0.43 c p3
295.05 506.27 0.43 c p3
295.19 506.65 0.43 c p3
295.34 506.89 0.43 c p3
295.48 506.27 0.43 c p3
295.63 506.40 0.43 c p3
295.78 506.40 0.43 c p3
295.92 506.76 0.43 c p3
296.07 506.16 0.43 c p3
296.21 506.65 0.43 c p3
296.36 507.14 0.43 c p3
296.50 506.76 0.43 c p3
296.65 506.65 0.43 c p3
296.79 506.16 0.43 c p3
296.94 506.40 0.43 c p3
297.09 506.51 0.43 c p3
297.23 506.51 0.43 c p3
297.38 506.65 0.43 c p3
297.52 507.00 0.43 c p3
297.67 505.67 0.43 c p3
297.81 506.40 0.43 c p3
297.96 506.65 0.43 c p3
298.11 506.76 0.43 c p3
298.25 506.27 0.43 c p3
298.40 506.40 0.43 c p3
298.54 506.51 0.43 c p3
298.69 506.27 0.43 c p3
298.83 506.16 0.43 c p3
298.98 507.25 0.43 c p3
299.12 506.16 0.43 c p3
299.27 506.76 0.43 c p3
299.42 506.89 0.43 c p3
299.56 507.00 0.43 c p3
299.71 506.27 0.43 c p3
299.85 506.76 0.43 c p3
300.00 506.76 0.43 c p3
300.14 506.65 0.43 c p3
300.29 506.40 0.43 c p3
300.43 506.51 0.43 c p3
300.58 507.14 0.43 c p3
300.73 506.27 0.43 c p3
300.87 506.65 0.43 c p3
301.02 507.14 0.43 c p3
301.16 506.65 0.43 c p3
301.31 507.00 0.43 c p3
301.45 507.00 0.43 c p3
301.60 506.65 0.43 c p3
301.74 505.78 0.43 c p3
301.89 507.63 0.43 c p3
302.04 506.65 0.43 c p3
302.18 506.89 0.43 c p3
302.33 506.51 0.43 c p3
302.47 506.51 0.43 c p3
302.62 506.89 0.43 c p3
302.76 506.65 0.43 c p3
302.91 506.40 0.43 c p3
303.06 506.51 0.43 c p3
303.20 507.38 0.43 c p3
303.35 506.40 0.43 c p3
303.49 506.40 0.43 c p3
303.64 506.89 0.43 c p3
303.78 507.14 0.43 c p3
303.93 506.40 0.43 c p3
304.07 507.14 0.43 c p3
304.22 506.89 0.43 c p3
304.37 506.51 0.43 c p3
304.51 506.40 0.43 c p3
304.66 506.51 0.43 c p3
304.80 506.51 0.43 c p3
304.95 506.65 0.43 c p3
305.09 506.65 0.43 c p3
305.24 507.00 0.43 c p3
305.38 506.27 0.43 c p3
305.53 507.00 0.43 c p3
305.68 507.25 0.43 c p3
305.82 507.00 0.43 c p3
305.97 507.00 0.43 c p3
306.11 506.76 0.43 c p3
306.26 506.89 0.43 c p3
306.40 506.40 0.43 c p3
306.55 506.51 0.43 c p3
306.69 506.51 0.43 c p3
306.84 506.89 0.43 c p3
306.99 506.51 0.43 c p3
307.13 507.38 0.43 c p3
307.28 507.00 0.43 c p3
307.42 506.76 0.43 c p3
307.57 506.65 0.43 c p3
307.71 506.89 0.43 c p3
307.86 507.14 0.43 c p3
308.01 507.14 0.43 c p3
308.15 507.00 0.43 c p3
308.30 506.51 0.43 c p3
308.44 507.00 0.43 c p3
308.59 507.14 0.43 c p3
308.73 507.00 0.43 c p3
308.88 507.73 0.43 c p3
309.02 506.65 0.43 c p3
309.17 506.76 0.43 c p3
309.32 507.63 0.43 c p3
309.46 506.89 0.43 c p3
309.61 507.00 0.43 c p3
309.75 506.89 0.43 c p3
309.90 506.76 0.43 c p3
310.04 506.65 0.43 c p3
310.19 507.00 0.43 c p3
310.33 506.76 0.43 c p3
310.48 506.65 0.43 c p3
310.63 506.65 0.43 c p3
310.77 507.25 0.43 c p3
310.92 507.38 0.43 c p3
311.06 507.14 0.43 c p3
311.21 506.65 0.43 c p3
311.35 506.76 0.43 c p3
311.50 507.14 0.43 c p3
311.64 506.65 0.43 c p3
311.79 506.76 0.43 c p3
311.94 507.00 0.43 c p3
312.08 507.25 0.43 c p3
312.23 506.65 0.43 c p3
312.37 506.76 0.43 c p3
312.52 507.14 0.43 c p3
312.66 507.00 0.43 c p3
312.81 507.00 0.43 c p3
312.96 507.00 0.43 c p3
313.10 506.89 0.43 c p3
313.25 506.65 0.43 c p3
313.39 506.76 0.43 c p3
313.54 506.89 0.43 c p3
313.68 507.38 0.43 c p3
313.83 507.38 0.43 c p3
313.97 507.14 0.43 c p3
314.12 507.14 0.43 c p3
314.27 506.89 0.43 c p3
314.41 507.00 0.43 c p3
314.56 507.38 0.43 c p3
314.70 507.87 0.43 c p3
314.85 507.00 0.43 c p3
314.99 507.00 0.43 c p3
315.14 506.76 0.43 c p3
315.28 507.00 0.43 c p3
315.43 507.00 0.43 c p3
315.58 507.14 0.43 c p3
315.72 507.25 0.43 c p3
315.87 506.76 0.43 c p3
316.01 507.00 0.43 c p3
316.16 506.76 0.43 c p3
316.30 507.49 0.43 c p3
316.45 507.25 0.43 c p3
316.59 507.63 0.43 c p3
316.74 507.38 0.43 c p3
316.89 507.00 0.43 c p3
317.03 507.00 0.43 c p3
317.18 507.14 0.43 c p3
317.32 507.49 0.43 c p3
317.47 507.38 0.43 c p3
317.61 507.38 0.43 c p3
317.76 507.25 0.43 c p3
317.91 507.14 0.43 c p3
318.05 507.00 0.43 c p3
318.20 507.14 0.43 c p3
318.34 507.49 0.43 c p3
318.49 507.38 0.43 c p3
318.63 507.14 0.43 c p3
318.78 507.63 0.43 c p3
318.92 507.14 0.43 c p3
319.07 507.38 0.43 c p3
319.22 507.49 0.43 c p3
319.36 507.63 0.43 c p3
319.51 507.38 0.43 c p3
319.65 507.14 0.43 c p3
319.80 507.14 0.43 c p3
319.94 507.38 0.43 c p3
320.09 506.40 0.43 c p3
320.23 507.73 0.43 c p3
320.38 507.25 0.43 c p3
320.53 507.25 0.43 c p3
320.67 507.14 0.43 c p3
320.82 507.73 0.43 c p3
320.96 507.14 0.43 c p3
321.11 507.38 0.43 c p3
321.25 506.76 0.43 c p3
321.40 507.87 0.43 c p3
321.54 507.73 0.43 c p3
321.69 507.00 0.43 c p3
321.84 507.25 0.43 c p3
321.98 507.49 0.43 c p3
322.13 507.25 0.43 c p3
322.27 506.65 0.43 c p3
322.42 507.49 0.43 c p3
322.56 507.73 0.43 c p3
322.71 507.25 0.43 c p3
322.85 507.63 0.43 c p3
323.00 507.49 0.43 c p3
323.15 507.38 0.43 c p3
323.29 507.38 0.43 c p3
323.44 507.98 0.43 c p3
323.58 507.87 0.43 c p3
323.73 507.49 0.43 c p3
323.87 507.73 0.43 c p3
324.02 507.00 0.43 c p3
324.17 507.38 0.43 c p3
324.31 506.89 0.43 c p3
324.46 507.63 0.43 c p3
324.60 507.73 0.43 c p3
324.75 507.25 0.43 c p3
324.89 507.14 0.43 c p3
325.04 507.00 0.43 c p3
325.18 507.63 0.43 c p3
325.33 506.27 0.43 c p3
325.48 507.73 0.43 c p3
325.62 507.14 0.43 c p3
325.77 507.38 0.43 c p3
325.91 507.00 0.43 c p3
326.06 507.49 0.43 c p3
326.20 507.73 0.43 c p3
326.35 507.00 0.43 c p3
326.49 507.63 0.43 c p3
326.64 507.73 0.43 c p3
326.79 507.25 0.43 c p3
326.93 507.25 0.43 c p3
327.08 507.73 0.43 c p3
327.22 507.49 0.43 c p3
327.37 507.87 0.43 c p3
327.51 507.49 0.43 c p3
327.66 507.38 0.43 c p3
327.80 507.49 0.43 c p3
327.95 507.49 0.43 c p3
328.10 507.49 0.43 c p3
328.24 507.87 0.43 c p3
328.39 507.38 0.43 c p3
328.53 507.14 0.43 c p3
328.68 507.25 0.43 c p3
328.82 508.09 0.43 c p3
328.97 507.73 0.43 c p3
329.12 507.00 0.43 c p3
329.26 507.87 0.43 c p3
329.41 508.22 0.43 c p3
329.55 507.38 0.43 c p3
329.70 507.14 0.43 c p3
329.84 507.38 0.43 c p3
329.99 507.87 0.43 c p3
330.13 507.49 0.43 c p3
330.28 507.63 0.43 c p3
330.43 507.98 0.43 c p3
330.57 506.76 0.43 c p3
330.72 507.63 0.43 c p3
330.86 507.63 0.43 c p3
331.01 507.73 0.43 c p3
331.15 507.63 0.43 c p3
331.30 507.73 0.43 c p3
331.44 507.25 0.43 c p3
331.59 507.49 0.43 c p3
331.74 507.25 0.43 c p3
331.88 507.63 0.43 c p3
332.03 507.87 0.43 c p3
332.17 507.14 0.43 c p3
332.32 507.14 0.43 c p3
332.46 507.73 0.43 c p3
332.61 507.49 0.43 c p3
332.75 507.73 0.43 c p3
332.90 507.73 0.43 c p3
333.05 507.25 0.43 c p3
333.19 507.25 0.43 c p3
333.34 507.49 0.43 c p3
333.48 507.98 0.43 c p3
333.63 507.63 0.43 c p3
333.77 507.00 0.43 c p3
333.92 507.63 0.43 c p3
334.07 508.09 0.43 c p3
334.21 508.22 0.43 c p3
334.36 507.73 0.43 c p3
334.50 507.63 0.43 c p3
334.65 507.00 0.43 c p3
334.79 507.49 0.43 c p3
334.94 507.87 0.43 c p3
335.08 507.87 0.43 c p3
335.23 508.09 0.43 c p3
335.38 507.73 0.43 c p3
335.52 507.87 0.43 c p3
335.67 507.73 0.43 c p3
335.81 507.00 0.43 c p3
335.96 507.49 0.43 c p3
336.10 507.63 0.43 c p3
336.25 507.87 0.43 c p3
336.39 507.25 0.43 c p3
336.54 507.73 0.43 c p3
336.69 507.49 0.43 c p3
336.83 507.98 0.43 c p3
336.98 507.87 0.43 c p3
337.12 508.22 0.43 c p3
337.27 507.87 0.43 c p3
337.41 507.49 0.43 c p3
337.56 507.38 0.43 c p3
337.70 507.49 0.43 c p3
337.85 508.22 0.43 c p3
338.00 508.22 0.43 c p3
338.14 507.87 0.43 c p3
338.29 507.87 0.43 c p3
338.43 507.25 0.43 c p3
338.58 507.87 0.43 c p3
338.72 507.63 0.43 c p3
338.87 507.73 0.43 c p3
339.02 508.22 0.43 c p3
339.16 507.63 0.43 c p3
339.31 507.63 0.43 c p3
339.45 507.14 0.43 c p3
339.60 507.98 0.43 c p3
339.74 508.33 0.43 c p3
339.89 508.09 0.43 c p3
340.03 507.63 0.43 c p3
340.18 507.98 0.43 c p3
340.33 507.63 0.43 c p3
340.47 507.73 0.43 c p3
340.62 507.87 0.43 c p3
340.76 508.22 0.43 c p3
340.91 508.22 0.43 c p3
341.05 507.73 0.43 c p3
341.20 508.33 0.43 c p3
341.34 507.98 0.43 c p3
341.49 507.87 0.43 c p3
341.64 507.73 0.43 c p3
341.78 508.58 0.43 c p3
341.93 507.98 0.43 c p3
342.07 507.38 0.43 c p3
342.22 508.09 0.43 c p3
342.36 507.98 0.43 c p3
342.51 507.73 0.43 c p3
342.65 507.63 0.43 c p3
342.80 508.22 0.43 c p3
342.95 508.33 0.43 c p3
343.09 507.49 0.43 c p3
343.24 507.73 0.43 c p3
343.38 508.22 0.43 c p3
343.53 508.22 0.43 c p3
343.67 507.87 0.43 c p3
343.82 508.22 0.43 c p3
343.97 508.09 0.43 c p3
344.11 507.87 0.43 c p3
344.26 507.98 0.43 c p3
344.40 507.73 0.43 c p3
344.55 507.73 0.43 c p3
344.69 507.63 0.43 c p3
344.84 508.09 0.43 c p3
344.98 508.33 0.43 c p3
345.13 507.98 0.43 c p3
345.28 507.73 0.43 c p3
345.42 508.47 0.43 c p3
345.57 507.87 0.43 c p3
345.71 508.22 0.43 c p3
345.86 507.49 0.43 c p3
346.00 508.09 0.43 c p3
346.15 508.22 0.43 c p3
346.29 507.73 0.43 c p3
346.44 508.47 0.43 c p3
346.59 507.87 0.43 c p3
346.73 507.87 0.43 c p3
346.88 508.47 0.43 c p3
347.02 507.98 0.43 c p3
347.17 507.98 0.43 c p3
347.31 507.38 0.43 c p3
347.46 507.98 0.43 c p3
347.60 508.22 0.43 c p3
347.75 508.22 0.43 c p3
347.90 508.09 0.43 c p3
348.04 507.87 0.43 c p3
348.19 507.73 0.43 c p3
348.33 507.98 0.43 c p3
348.48 508.09 0.43 c p3
348.62 508.82 0.43 c p3
348.77 507.98 0.43 c p3
348.92 508.09 0.43 c p3
349.06 508.33 0.43 c p3
349.21 507.98 0.43 c p3
349.35 508.22 0.43 c p3
349.50 508.71 0.43 c p3
349.64 508.58 0.43 c p3
349.79 508.09 0.43 c p3
349.93 508.22 0.43 c p3
350.08 508.09 0.43 c p3
350.23 507.49 0.43 c p3
350.37 508.22 0.43 c p3
350.52 508.22 0.43 c p3
350.66 508.47 0.43 c p3
350.81 508.33 0.43 c p3
350.95 507.98 0.43 c p3
351.10 507.63 0.43 c p3
351.24 508.22 0.43 c p3
351.39 507.73 0.43 c p3
351.54 508.58 0.43 c p3
351.68 508.47 0.43 c p3
351.83 507.63 0.43 c p3
351.97 507.87 0.43 c p3
352.12 507.87 0.43 c p3
352.26 508.47 0.43 c p3
352.41 508.47 0.43 c p3
352.55 507.98 0.43 c p3
352.70 508.47 0.43 c p3
352.85 508.22 0.43 c p3
352.99 508.33 0.43 c p3
353.14 507.63 0.43 c p3
353.28 507.98 0.43 c p3
353.43 507.87 0.43 c p3
353.57 507.98 0.43 c p3
353.72 508.71 0.43 c p3
353.86 507.87 0.43 c p3
354.01 507.73 0.43 c p3
354.16 508.33 0.43 c p3
354.30 508.09 0.43 c p3
354.45 507.98 0.43 c p3
354.59 508.09 0.43 c p3
354.74 508.22 0.43 c p3
354.88 508.22 0.43 c p3
355.03 507.73 0.43 c p3
355.18 508.33 0.43 c p3
355.32 508.33 0.43 c p3
355.47 507.87 0.43 c p3
355.61 508.33 0.43 c p3
355.76 508.47 0.43 c p3
355.90 508.33 0.43 c p3
356.05 508.22 0.43 c p3
356.19 508.09 0.43 c p3
356.34 508.58 0.43 c p3
356.49 508.22 0.43 c p3
356.63 508.47 0.43 c p3
356.78 508.22 0.43 c p3
356.92 508.09 0.43 c p3
357.07 507.73 0.43 c p3
357.21 508.33 0.43 c p3
357.36 508.58 0.43 c p3
357.50 508.96 0.43 c p3
357.65 508.58 0.43 c p3
357.80 507.98 0.43 c p3
357.94 508.33 0.43 c p3
358.09 507.98 0.43 c p3
358.23 508.82 0.43 c p3
358.38 508.82 0.43 c p3
358.52 508.82 0.43 c p3
358.67 507.98 0.43 c p3
358.81 508.47 0.43 c p3
358.96 508.22 0.43 c p3
359.11 508.09 0.43 c p3
359.25 508.33 0.43 c p3
359.40 508.47 0.43 c p3
359.54 508.22 0.43 c p3
359.69 508.47 0.43 c p3
359.83 509.07 0.43 c p3
359.98 508.33 0.43 c p3
360.13 508.58 0.43 c p3
360.27 508.47 0.43 c p3
360.42 508.33 0.43 c p3
360.56 508.58 0.43 c p3
360.71 508.09 0.43 c p3
360.85 508.22 0.43 c p3
361.00 508.22 0.43 c p3
361.14 508.47 0.43 c p3
361.29 508.33 0.43 c p3
361.44 508.47 0.43 c p3
361.58 508.58 0.43 c p3
361.73 507.98 0.43 c p3
361.87 507.87 0.43 c p3
362.02 508.71 0.43 c p3
362.16 508.82 0.43 c p3
362.31 508.82 0.43 c p3
362.45 508.47 0.43 c p3
362.60 508.71 0.43 c p3
362.75 507.87 0.43 c p3
362.89 508.47 0.43 c p3
363.04 508.09 0.43 c p3
363.18 508.96 0.43 c p3
363.33 508.22 0.43 c p3
363.47 508.71 0.43 c p3
363.62 508.47 0.43 c p3
363.76 508.09 0.43 c p3
363.91 508.58 0.43 c p3
364.06 508.33 0.43 c p3
364.20 509.31 0.43 c p3
364.35 508.71 0.43 c p3
364.49 508.47 0.43 c p3
364.64 508.47 0.43 c p3
364.78 508.82 0.43 c p3
364.93 508.71 0.43 c p3
365.08 508.22 0.43 c p3
365.22 508.58 0.43 c p3
365.37 508.47 0.43 c p3
365.51 508.47 0.43 c p3
365.66 508.33 0.43 c p3
365.80 509.07 0.43 c p3
365.95 508.09 0.43 c p3
366.09 508.58 0.43 c p3
366.24 508.71 0.43 c p3
366.39 508.71 0.43 c p3
366.53 508.58 0.43 c p3
366.68 508.47 0.43 c p3
366.82 508.47 0.43 c p3
366.97 508.58 0.43 c p3
367.11 508.71 0.43 c p3
367.26 508.71 0.43 c p3
367.40 508.58 0.43 c p3
367.55 508.33 0.43 c p3
367.70 508.33 0.43 c p3
367.84 508.47 0.43 c p3
367.99 508.33 0.43 c p3
368.13 508.71 0.43 c p3
368.28 508.58 0.43 c p3
368.42 508.71 0.43 c p3
368.57 508.47 0.43 c p3
368.71 508.58 0.43 c p3
368.86 508.33 0.43 c p3
369.01 508.22 0.43 c p3
369.15 509.20 0.43 c p3
369.30 508.71 0.43 c p3
369.44 508.71 0.43 c p3
369.59 508.71 0.43 c p3
369.73 508.96 0.43 c p3
369.88 508.71 0.43 c p3
370.03 508.71 0.43 c p3
370.17 508.82 0.43 c p3
370.32 508.71 0.43 c p3
370.46 508.71 0.43 c p3
370.61 508.58 0.43 c p3
370.75 509.07 0.43 c p3
370.90 508.47 0.43 c p3
371.04 508.71 0.43 c p3
371.19 508.58 0.43 c p3
371.34 508.22 0.43 c p3
371.48 508.09 0.43 c p3
371.63 508.71 0.43 c p3
371.77 508.82 0.43 c p3
371.92 508.71 0.43 c p3
372.06 508.71 0.43 c p3
372.21 508.22 0.43 c p3
372.35 509.07 0.43 c p3
372.50 508.33 0.43 c p3
372.65 508.58 0.43 c p3
372.79 508.96 0.43 c p3
372.94 508.33 0.43 c p3
373.08 508.96 0.43 c p3
373.23 508.58 0.43 c p3
373.37 508.58 0.43 c p3
373.52 508.71 0.43 c p3
373.66 508.71 0.43 c p3
373.81 508.71 0.43 c p3
373.96 508.71 0.43 c p3
374.10 508.71 0.43 c p3
374.25 508.82 0.43 c p3
374.39 508.82 0.43 c p3
374.54 508.96 0.43 c p3
374.68 508.58 0.43 c p3
374.83 508.96 0.43 c p3
374.98 509.07 0.43 c p3
375.12 508.96 0.43 c p3
375.27 508.71 0.43 c p3
375.41 508.82 0.43 c p3
375.56 508.82 0.43 c p3
375.70 508.22 0.43 c p3
375.85 508.47 0.43 c p3
375.99 508.33 0.43 c p3
376.14 508.58 0.43 c p3
376.29 508.71 0.43 c p3
376.43 509.45 0.43 c p3
376.58 509.20 0.43 c p3
376.72 508.96 0.43 c p3
376.87 508.71 0.43 c p3
377.01 508.96 0.43 c p3
377.16 508.96 0.43 c p3
377.30 508.58 0.43 c p3
377.45 508.58 0.43 c p3
377.60 508.71 0.43 c p3
377.74 508.82 0.43 c p3
377.89 508.96 0.43 c p3
378.03 508.96 0.43 c p3
378.18 508.82 0.43 c p3
378.32 508.96 0.43 c p3
378.47 508.96 0.43 c p3
378.61 508.71 0.43 c p3
378.76 508.82 0.43 c p3
378.91 508.58 0.43 c p3
379.05 509.07 0.43 c p3
379.20 509.31 0.43 c p3
379.34 508.33 0.43 c p3
379.49 508.47 0.43 c p3
379.63 508.71 0.43 c p3
379.78 508.82 0.43 c p3
379.93 509.07 0.43 c p3
380.07 508.58 0.43 c p3
380.22 508.71 0.43 c p3
380.36 508.71 0.43 c p3
380.51 509.20 0.43 c p3
380.65 509.07 0.43 c p3
380.80 508.71 0.43 c p3
380.94 509.07 0.43 c p3
381.09 508.58 0.43 c p3
381.24 508.47 0.43 c p3
381.38 508.82 0.43 c p3
381.53 509.55 0.43 c p3
381.67 508.82 0.43 c p3
381.82 508.71 0.43 c p3
381.96 508.71 0.43 c p3
382.11 508.71 0.43 c p3
382.25 508.33 0.43 c p3
382.40 508.58 0.43 c p3
0.00 0.00 432.00 576.00 cl
0 0 0 srgb
0.75 setlinewidth
[] 0 setdash
1 setlinecap
1 setlinejoin
10.00 setmiterlimit
np
236.96 345.60 m
145.59 0 l
o
np
236.96 345.60 m
0 -5.76 l
o
np
261.22 345.60 m
0 -5.76 l
o
np
285.49 345.60 m
0 -5.76 l
o
np
309.75 345.60 m
0 -5.76 l
o
np
334.02 345.60 m
0 -5.76 l
o
np
358.28 345.60 m
0 -5.76 l
o
np
382.55 345.60 m
0 -5.76 l
o
/Font1 findfont 10 s
236.96 329.47 (0) .5 0 t
261.22 329.47 (500) .5 0 t
309.75 329.47 (1500) .5 0 t
358.28 329.47 (2500) .5 0 t
np
216.00 352.00 m
0 155.79 l
o
np
216.00 352.00 m
-5.76 0 l
o
np
216.00 374.26 m
-5.76 0 l
o
np
216.00 396.51 m
-5.76 0 l
o
np
216.00 418.77 m
-5.76 0 l
o
np
216.00 441.03 m
-5.76 0 l
o
np
216.00 463.28 m
-5.76 0 l
o
np
216.00 485.54 m
-5.76 0 l
o
np
216.00 507.79 m
-5.76 0 l
o
209.09 348.41 (0.0) 1 0 t
209.09 370.67 (0.2) 1 0 t
209.09 392.92 (0.4) 1 0 t
209.09 415.18 (0.6) 1 0 t
209.09 437.44 (0.8) 1 0 t
209.09 459.69 (1.0) 1 0 t
209.09 481.95 (1.2) 1 0 t
209.09 504.20 (1.4) 1 0 t
np
216.00 345.60 m
172.80 0 l
0 172.80 l
-172.80 0 l
0 -172.80 l
o
0.00 0.00 432.00 576.00 cl
/Font1 findfont 10 s
0 0 0 srgb
302.40 313.34 (Zeit / ms \(total\)) .5 0 t
190.66 432.00 (U / V) .5 90 t
216.00 345.60 388.80 518.40 cl
0 0 0 srgb
0.38 setlinewidth
[ 1.12 1.88] 0 setdash
1 setlinecap
1 setlinejoin
10.00 setmiterlimit
np
222.98 345.60 m
0 172.80 l
o
np
234.77 345.60 m
0 172.80 l
o
np
239.43 345.60 m
0 172.80 l
o
np
275.25 345.60 m
0 172.80 l
o
86.40 57.60 388.80 288.00 cl
1 0 0 srgb
1.50 setlinewidth
[] 0 setdash
1 setlinecap
1 setlinejoin
10.00 setmiterlimit
np
97.60 279.47 m
1.41 -20.60 l
1.40 -18.49 l
1.41 -16.62 l
1.41 -14.92 l
1.41 -13.40 l
1.40 -12.04 l
1.41 -10.81 l
1.41 -9.71 l
1.40 -8.73 l
1.41 -7.83 l
1.41 -7.04 l
1.40 -6.32 l
1.41 -5.68 l
1.41 -5.10 l
1.41 -4.58 l
1.40 -4.11 l
1.41 -3.70 l
1.41 -3.31 l
1.40 -2.99 l
1.41 -2.67 l
1.41 -2.41 l
1.40 -2.16 l
1.41 -1.94 l
1.41 -1.74 l
1.41 -1.57 l
1.40 -1.40 l
1.41 -1.27 l
1.41 -1.13 l
1.40 -1.02 l
1.41 -0.91 l
1.41 -0.83 l
1.41 -0.73 l
1.40 -0.67 l
1.41 -0.59 l
1.41 -0.54 l
1.40 -0.48 l
1.41 -0.43 l
1.41 -0.39 l
1.40 -0.35 l
1.41 -0.31 l
1.41 -0.28 l
1.41 -0.25 l
1.40 -0.23 l
1.41 -0.20 l
1.41 -0.18 l
1.40 -0.17 l
1.41 -0.15 l
1.41 -0.13 l
1.40 -0.12 l
1.41 -0.10 l
1.41 -0.10 l
1.41 -0.09 l
1.40 -0.07 l
1.41 -0.07 l
1.41 -0.07 l
1.40 -0.05 l
1.41 -0.05 l
1.41 -0.05 l
1.41 -0.04 l
1.40 -0.03 l
1.41 -0.04 l
1.41 -0.03 l
1.40 -0.02 l
1.41 -0.03 l
1.41 -0.02 l
1.40 -0.02 l
1.41 -0.01 l
1.41 -0.02 l
1.41 -0.01 l
1.40 -0.02 l
1.41 -0.01 l
1.41 -0.01 l
1.40 -0.01 l
1.41 0 l
1.41 -0.01 l
1.40 -0.01 l
1.41 0 l
1.41 -0.01 l
1.41 0 l
1.40 -0.01 l
1.41 0 l
1.41 -0.01 l
1.40 0 l
1.41 0 l
1.41 0 l
1.41 -0.01 l
1.40 0 l
1.41 0 l
1.41 0 l
1.40 0 l
1.41 -0.01 l
1.41 0 l
1.40 0 l
1.41 0 l
1.41 0 l
1.41 0 l
1.40 0 l
1.41 0 l
1.41 0 l
238.30 77.20 lineto
1.41 0 l
1.41 0 l
1.40 0 l
1.41 0 l
1.41 0 l
1.41 0 l
1.40 0 l
1.41 0 l
1.41 0 l
1.40 -0.01 l
1.41 0 l
1.41 0 l
1.40 0 l
1.41 0 l
1.41 0 l
1.41 0 l
1.40 0 l
1.41 0 l
1.41 0 l
1.40 0 l
1.41 0 l
1.41 0 l
1.41 0 l
1.40 0 l
1.41 0 l
1.41 0 l
1.40 0 l
1.41 0 l
1.41 0 l
1.40 0 l
1.41 0 l
1.41 0 l
1.41 0 l
1.40 0 l
1.41 0 l
1.41 0 l
1.40 0 l
1.41 0 l
1.41 0 l
1.40 0 l
1.41 0 l
1.41 0 l
1.41 0 l
1.40 0 l
1.41 0 l
1.41 0 l
1.40 0 l
1.41 0 l
1.41 0 l
1.41 0 l
1.40 0 l
1.41 0 l
1.41 0 l
1.40 0 l
1.41 0 l
1.41 0 l
1.40 0 l
1.41 0 l
1.41 0 l
1.41 0 l
1.40 0 l
1.41 0 l
1.41 0 l
1.40 0 l
1.41 0 l
1.41 0 l
1.40 0 l
1.41 0 l
1.41 0 l
1.41 0 l
1.40 0 l
1.41 0 l
1.41 0 l
1.40 0 l
1.41 0 l
1.41 0 l
1.41 0 l
1.40 0 l
1.41 0 l
1.41 0 l
1.40 0 l
1.41 0 l
1.41 0 l
1.40 0 l
1.41 0 l
1.41 0 l
1.41 0 l
1.40 0 l
1.41 0 l
1.41 0 l
1.40 0 l
1.41 0 l
1.41 0 l
1.40 0 l
1.41 0 l
1.41 0 l
1.41 0 l
1.40 0 l
1.41 0 l
o
0.00 0.00 432.00 576.00 cl
0 0 0 srgb
0.75 setlinewidth
[] 0 setdash
1 setlinecap
1 setlinejoin
10.00 setmiterlimit
np
97.60 57.60 m
280.00 0 l
o
np
97.60 57.60 m
0 -5.76 l
o
np
144.27 57.60 m
0 -5.76 l
o
np
190.93 57.60 m
0 -5.76 l
o
np
237.60 57.60 m
0 -5.76 l
o
np
284.27 57.60 m
0 -5.76 l
o
np
330.93 57.60 m
0 -5.76 l
o
np
377.60 57.60 m
0 -5.76 l
o
/Font1 findfont 10 s
97.60 41.47 (0) .5 0 t
144.27 41.47 (500) .5 0 t
190.93 41.47 (1000) .5 0 t
237.60 41.47 (1500) .5 0 t
284.27 41.47 (2000) .5 0 t
330.93 41.47 (2500) .5 0 t
377.60 41.47 (3000) .5 0 t
np
86.40 66.13 m
0 200.23 l
o
np
86.40 66.13 m
-5.76 0 l
o
np
86.40 99.50 m
-5.76 0 l
o
np
86.40 132.87 m
-5.76 0 l
o
np
86.40 166.24 m
-5.76 0 l
o
np
86.40 199.61 m
-5.76 0 l
o
np
86.40 232.99 m
-5.76 0 l
o
np
86.40 266.36 m
-5.76 0 l
o
79.49 62.54 (0.00) 1 0 t
79.49 95.91 (0.05) 1 0 t
79.49 129.28 (0.10) 1 0 t
79.49 162.65 (0.15) 1 0 t
79.49 196.02 (0.20) 1 0 t
79.49 229.40 (0.25) 1 0 t
79.49 262.77 (0.30) 1 0 t
np
86.40 57.60 m
302.40 0 l
0 230.40 l
-302.40 0 l
0 -230.40 l
o
0.00 0.00 432.00 576.00 cl
/Font1 findfont 10 s
0 0 0 srgb
237.60 13.82 (Zeit / ms \(nach Puls\)) .5 0 t
49.54 172.80 (Absorbanz A) .5 90 t
86.40 57.60 388.80 288.00 cl
/bg { 1 1 1 srgb } def
0 0 0 srgb
0.75 setlinewidth
[] 0 setdash
1 setlinecap
1 setlinejoin
10.00 setmiterlimit
102.64 215.42 0.65 c p3
102.92 208.80 0.65 c p3
103.20 209.53 0.65 c p3
103.48 206.63 0.65 c p3
103.76 203.12 0.65 c p3
104.04 202.72 0.65 c p3
104.32 195.69 0.65 c p3
104.60 196.07 0.65 c p3
104.88 194.30 0.65 c p3
105.16 191.55 0.65 c p3
105.44 187.16 0.65 c p3
105.72 186.19 0.65 c p3
106.00 184.18 0.65 c p3
106.28 183.51 0.65 c p3
106.56 177.58 0.65 c p3
106.84 176.27 0.65 c p3
107.12 175.34 0.65 c p3
107.40 173.68 0.65 c p3
107.68 171.12 0.65 c p3
107.96 168.29 0.65 c p3
108.24 167.66 0.65 c p3
108.52 166.68 0.65 c p3
108.80 162.31 0.65 c p3
109.08 160.80 0.65 c p3
109.36 160.80 0.65 c p3
109.64 157.47 0.65 c p3
109.92 156.52 0.65 c p3
110.20 153.83 0.65 c p3
110.48 153.23 0.65 c p3
110.76 152.63 0.65 c p3
111.04 150.84 0.65 c p3
111.32 147.03 0.65 c p3
111.60 147.03 0.65 c p3
111.88 147.03 0.65 c p3
112.16 144.36 0.65 c p3
112.44 141.47 0.65 c p3
112.72 139.74 0.65 c p3
113.00 141.47 0.65 c p3
113.28 138.92 0.65 c p3
113.56 138.92 0.65 c p3
113.84 134.94 0.65 c p3
114.12 134.69 0.65 c p3
114.40 133.57 0.65 c p3
114.68 134.38 0.65 c p3
114.96 130.47 0.65 c p3
115.24 128.56 0.65 c p3
115.52 129.91 0.65 c p3
115.80 127.16 0.65 c p3
116.08 127.46 0.65 c p3
116.36 125.03 0.65 c p3
116.64 124.19 0.65 c p3
116.92 122.86 0.65 c p3
117.20 123.10 0.65 c p3
117.48 120.41 0.65 c p3
117.76 119.64 0.65 c p3
118.04 119.64 0.65 c p3
118.32 118.80 0.65 c p3
118.60 119.10 0.65 c p3
118.88 114.34 0.65 c p3
119.16 115.92 0.65 c p3
119.44 114.86 0.65 c p3
119.72 115.10 0.65 c p3
120.00 114.57 0.65 c p3
120.28 111.72 0.65 c p3
120.56 112.01 0.65 c p3
120.84 111.72 0.65 c p3
121.12 110.69 0.65 c p3
121.40 110.69 0.65 c p3
121.68 108.91 0.65 c p3
121.96 108.62 0.65 c p3
122.24 108.39 0.65 c p3
122.52 106.06 0.65 c p3
122.80 105.55 0.65 c p3
123.08 105.83 0.65 c p3
123.36 106.34 0.65 c p3
123.64 105.55 0.65 c p3
123.92 102.56 0.65 c p3
124.20 102.79 0.65 c p3
124.48 103.52 0.65 c p3
124.76 103.80 0.65 c p3
125.04 100.78 0.65 c p3
125.32 101.05 0.65 c p3
125.60 100.78 0.65 c p3
125.88 101.56 0.65 c p3
126.16 99.78 0.65 c p3
126.44 98.28 0.65 c p3
126.72 99.28 0.65 c p3
127.00 97.57 0.65 c p3
127.28 98.06 0.65 c p3
127.56 97.07 0.65 c p3
127.84 97.29 0.65 c p3
128.12 96.58 0.65 c p3
128.40 96.80 0.65 c p3
128.68 96.80 0.65 c p3
128.96 94.34 0.65 c p3
129.24 95.32 0.65 c p3
129.52 93.63 0.65 c p3
129.80 93.63 0.65 c p3
130.08 93.63 0.65 c p3
130.36 94.34 0.65 c p3
130.64 93.14 0.65 c p3
130.92 93.63 0.65 c p3
131.20 93.85 0.65 c p3
131.48 92.38 0.65 c p3
131.76 91.68 0.65 c p3
132.04 90.71 0.65 c p3
132.32 91.95 0.65 c p3
132.60 93.14 0.65 c p3
132.88 90.01 0.65 c p3
133.16 90.23 0.65 c p3
133.44 90.98 0.65 c p3
133.72 91.95 0.65 c p3
134.00 88.78 0.65 c p3
134.28 90.71 0.65 c p3
134.56 89.26 0.65 c p3
134.84 90.23 0.65 c p3
135.12 88.78 0.65 c p3
135.40 86.65 0.65 c p3
135.68 86.87 0.65 c p3
135.96 89.26 0.65 c p3
136.24 88.78 0.65 c p3
136.52 87.34 0.65 c p3
136.80 87.34 0.65 c p3
137.08 87.61 0.65 c p3
137.36 88.78 0.65 c p3
137.64 85.44 0.65 c p3
137.92 85.23 0.65 c p3
138.20 85.70 0.65 c p3
138.48 87.13 0.65 c p3
138.76 86.18 0.65 c p3
139.04 85.70 0.65 c p3
139.32 84.75 0.65 c p3
139.60 85.91 0.65 c p3
139.88 85.23 0.65 c p3
140.16 84.49 0.65 c p3
140.44 84.75 0.65 c p3
140.72 84.96 0.65 c p3
141.00 84.96 0.65 c p3
141.28 84.01 0.65 c p3
141.56 83.07 0.65 c p3
141.84 84.75 0.65 c p3
142.12 85.91 0.65 c p3
142.40 83.54 0.65 c p3
142.68 82.86 0.65 c p3
142.96 83.07 0.65 c p3
143.24 83.80 0.65 c p3
143.52 83.54 0.65 c p3
143.80 83.33 0.65 c p3
144.08 83.07 0.65 c p3
144.36 83.33 0.65 c p3
144.64 82.39 0.65 c p3
144.92 82.60 0.65 c p3
145.20 82.13 0.65 c p3
145.48 82.39 0.65 c p3
145.76 84.01 0.65 c p3
146.04 83.80 0.65 c p3
146.32 82.60 0.65 c p3
146.60 81.71 0.65 c p3
146.88 82.60 0.65 c p3
147.16 81.92 0.65 c p3
147.44 81.45 0.65 c p3
147.72 82.39 0.65 c p3
148.00 82.60 0.65 c p3
148.28 83.07 0.65 c p3
148.56 80.31 0.65 c p3
148.84 80.52 0.65 c p3
149.12 81.71 0.65 c p3
149.40 81.45 0.65 c p3
149.68 81.92 0.65 c p3
149.96 80.78 0.65 c p3
150.24 80.31 0.65 c p3
150.52 82.13 0.65 c p3
150.80 81.71 0.65 c p3
151.08 80.52 0.65 c p3
151.36 80.52 0.65 c p3
151.64 81.24 0.65 c p3
151.92 80.78 0.65 c p3
152.20 79.84 0.65 c p3
152.48 80.52 0.65 c p3
152.76 80.78 0.65 c p3
153.04 80.52 0.65 c p3
153.32 80.31 0.65 c p3
153.60 79.58 0.65 c p3
153.88 79.58 0.65 c p3
154.16 79.38 0.65 c p3
154.44 81.24 0.65 c p3
154.72 80.05 0.65 c p3
155.00 80.52 0.65 c p3
155.28 80.05 0.65 c p3
155.56 80.31 0.65 c p3
155.84 78.45 0.65 c p3
156.12 77.98 0.65 c p3
156.40 79.38 0.65 c p3
156.68 80.31 0.65 c p3
156.96 79.38 0.65 c p3
157.24 78.65 0.65 c p3
157.52 78.91 0.65 c p3
157.80 79.38 0.65 c p3
158.08 80.31 0.65 c p3
158.36 78.19 0.65 c p3
158.64 79.12 0.65 c p3
158.92 80.05 0.65 c p3
159.20 79.38 0.65 c p3
159.48 77.73 0.65 c p3
159.76 78.91 0.65 c p3
160.04 79.84 0.65 c p3
160.32 78.65 0.65 c p3
160.60 78.45 0.65 c p3
160.88 78.91 0.65 c p3
161.16 78.65 0.65 c p3
161.44 78.65 0.65 c p3
161.72 78.45 0.65 c p3
162.00 77.98 0.65 c p3
162.28 78.45 0.65 c p3
162.56 78.91 0.65 c p3
162.84 79.38 0.65 c p3
163.12 77.98 0.65 c p3
163.40 78.19 0.65 c p3
163.68 77.73 0.65 c p3
163.96 79.12 0.65 c p3
164.24 79.12 0.65 c p3
164.52 77.98 0.65 c p3
164.80 78.19 0.65 c p3
165.08 78.65 0.65 c p3
165.36 78.65 0.65 c p3
165.64 76.60 0.65 c p3
165.92 78.65 0.65 c p3
166.20 77.98 0.65 c p3
166.48 79.12 0.65 c p3
166.76 78.19 0.65 c p3
167.04 77.06 0.65 c p3
167.32 77.26 0.65 c p3
167.60 78.65 0.65 c p3
167.88 77.26 0.65 c p3
168.16 77.73 0.65 c p3
168.44 77.73 0.65 c p3
168.72 77.98 0.65 c p3
169.00 78.19 0.65 c p3
169.28 77.73 0.65 c p3
169.56 77.52 0.65 c p3
169.84 78.19 0.65 c p3
170.12 78.19 0.65 c p3
170.40 79.12 0.65 c p3
170.68 76.34 0.65 c p3
170.96 76.80 0.65 c p3
171.24 78.19 0.65 c p3
171.52 77.52 0.65 c p3
216.00 201.60 367.20 247.68 cl
0 0 0 srgb
0.75 setlinewidth
[] 0 setdash
1 setlinecap
1 setlinejoin
10.00 setmiterlimit
221.60 227.04 0.43 c p1
222.17 210.42 0.43 c p1
222.74 226.45 0.43 c p1
223.31 225.94 0.43 c p1
223.88 222.46 0.43 c p1
224.45 232.66 0.43 c p1
225.01 212.85 0.43 c p1
225.58 226.06 0.43 c p1
226.15 229.34 0.43 c p1
226.72 228.00 0.43 c p1
227.29 219.12 0.43 c p1
227.86 225.29 0.43 c p1
228.43 226.59 0.43 c p1
229.00 233.69 0.43 c p1
229.57 216.97 0.43 c p1
230.14 220.80 0.43 c p1
230.71 226.07 0.43 c p1
231.27 227.94 0.43 c p1
231.84 225.51 0.43 c p1
232.41 221.73 0.43 c p1
232.98 227.59 0.43 c p1
233.55 231.71 0.43 c p1
234.12 220.46 0.43 c p1
234.69 221.84 0.43 c p1
235.26 229.82 0.43 c p1
235.83 222.69 0.43 c p1
236.40 226.09 0.43 c p1
236.97 221.54 0.43 c p1
237.53 226.17 0.43 c p1
238.10 230.65 0.43 c p1
238.67 229.64 0.43 c p1
239.24 219.43 0.43 c p1
239.81 226.16 0.43 c p1
240.38 232.74 0.43 c p1
240.95 227.24 0.43 c p1
241.52 220.57 0.43 c p1
242.09 219.02 0.43 c p1
242.66 232.79 0.43 c p1
243.23 227.27 0.43 c p1
243.80 233.06 0.43 c p1
244.36 220.93 0.43 c p1
244.93 225.36 0.43 c p1
245.50 225.75 0.43 c p1
246.07 234.70 0.43 c p1
246.64 222.38 0.43 c p1
247.21 218.94 0.43 c p1
247.78 229.98 0.43 c p1
248.35 222.51 0.43 c p1
248.92 228.65 0.43 c p1
249.49 222.44 0.43 c p1
250.06 223.22 0.43 c p1
250.62 221.77 0.43 c p1
251.19 227.23 0.43 c p1
251.76 219.46 0.43 c p1
252.33 220.20 0.43 c p1
252.90 224.31 0.43 c p1
253.47 224.62 0.43 c p1
254.04 229.89 0.43 c p1
254.61 212.40 0.43 c p1
255.18 223.25 0.43 c p1
255.75 222.23 0.43 c p1
256.32 226.90 0.43 c p1
256.88 228.08 0.43 c p1
257.45 218.80 0.43 c p1
258.02 223.49 0.43 c p1
258.59 225.51 0.43 c p1
259.16 224.11 0.43 c p1
259.73 227.29 0.43 c p1
260.30 222.43 0.43 c p1
260.87 224.20 0.43 c p1
261.44 226.16 0.43 c p1
262.01 218.63 0.43 c p1
262.58 219.21 0.43 c p1
263.14 223.28 0.43 c p1
263.71 228.30 0.43 c p1
264.28 227.43 0.43 c p1
264.85 216.69 0.43 c p1
265.42 220.27 0.43 c p1
265.99 226.05 0.43 c p1
266.56 229.77 0.43 c p1
267.13 218.65 0.43 c p1
267.70 222.26 0.43 c p1
268.27 223.32 0.43 c p1
268.84 229.08 0.43 c p1
269.40 223.31 0.43 c p1
269.97 218.79 0.43 c p1
270.54 225.37 0.43 c p1
271.11 219.77 0.43 c p1
271.68 224.03 0.43 c p1
272.25 221.58 0.43 c p1
272.82 224.51 0.43 c p1
273.39 223.22 0.43 c p1
273.96 226.07 0.43 c p1
274.53 227.89 0.43 c p1
275.10 218.66 0.43 c p1
275.67 224.80 0.43 c p1
276.23 218.95 0.43 c p1
276.80 220.63 0.43 c p1
277.37 222.27 0.43 c p1
277.94 227.05 0.43 c p1
278.51 223.26 0.43 c p1
279.08 226.99 0.43 c p1
279.65 229.47 0.43 c p1
280.22 224.39 0.43 c p1
280.79 222.69 0.43 c p1
281.36 219.76 0.43 c p1
281.93 226.69 0.43 c p1
282.49 233.38 0.43 c p1
283.06 220.69 0.43 c p1
283.63 222.95 0.43 c p1
284.20 227.59 0.43 c p1
284.77 233.18 0.43 c p1
285.34 220.20 0.43 c p1
285.91 230.04 0.43 c p1
286.48 224.72 0.43 c p1
287.05 230.18 0.43 c p1
287.62 224.82 0.43 c p1
288.19 216.38 0.43 c p1
288.75 218.40 0.43 c p1
289.32 230.19 0.43 c p1
289.89 229.06 0.43 c p1
290.46 223.62 0.43 c p1
291.03 224.60 0.43 c p1
291.60 226.75 0.43 c p1
292.17 232.95 0.43 c p1
292.74 218.88 0.43 c p1
293.31 218.84 0.43 c p1
293.88 221.85 0.43 c p1
294.45 229.13 0.43 c p1
295.01 225.70 0.43 c p1
295.58 224.39 0.43 c p1
296.15 220.95 0.43 c p1
296.72 226.94 0.43 c p1
297.29 224.64 0.43 c p1
297.86 222.10 0.43 c p1
298.43 224.02 0.43 c p1
299.00 225.70 0.43 c p1
299.57 226.41 0.43 c p1
300.14 222.87 0.43 c p1
300.71 219.32 0.43 c p1
301.27 227.52 0.43 c p1
301.84 233.37 0.43 c p1
302.41 223.40 0.43 c p1
302.98 220.97 0.43 c p1
303.55 222.53 0.43 c p1
304.12 226.42 0.43 c p1
304.69 225.83 0.43 c p1
305.26 225.47 0.43 c p1
305.83 224.86 0.43 c p1
306.40 226.58 0.43 c p1
306.97 222.90 0.43 c p1
307.53 224.37 0.43 c p1
308.10 222.78 0.43 c p1
308.67 224.45 0.43 c p1
309.24 232.23 0.43 c p1
309.81 231.77 0.43 c p1
310.38 226.85 0.43 c p1
310.95 223.34 0.43 c p1
311.52 227.77 0.43 c p1
312.09 225.17 0.43 c p1
312.66 223.51 0.43 c p1
313.23 228.14 0.43 c p1
313.80 229.50 0.43 c p1
314.36 232.02 0.43 c p1
314.93 220.04 0.43 c p1
315.50 221.36 0.43 c p1
316.07 227.11 0.43 c p1
316.64 226.32 0.43 c p1
317.21 228.79 0.43 c p1
317.78 224.01 0.43 c p1
318.35 222.27 0.43 c p1
318.92 230.78 0.43 c p1
319.49 229.25 0.43 c p1
320.06 224.22 0.43 c p1
320.62 224.54 0.43 c p1
321.19 228.12 0.43 c p1
321.76 226.33 0.43 c p1
322.33 222.45 0.43 c p1
322.90 225.77 0.43 c p1
323.47 227.22 0.43 c p1
324.04 226.34 0.43 c p1
324.61 225.69 0.43 c p1
325.18 222.72 0.43 c p1
325.75 222.98 0.43 c p1
326.32 222.32 0.43 c p1
326.88 230.94 0.43 c p1
327.45 225.84 0.43 c p1
328.02 228.17 0.43 c p1
328.59 226.32 0.43 c p1
329.16 227.72 0.43 c p1
329.73 219.61 0.43 c p1
330.30 217.76 0.43 c p1
330.87 224.22 0.43 c p1
331.44 228.61 0.43 c p1
332.01 224.64 0.43 c p1
332.58 221.61 0.43 c p1
333.14 222.97 0.43 c p1
333.71 225.25 0.43 c p1
334.28 229.62 0.43 c p1
334.85 220.32 0.43 c p1
335.42 224.66 0.43 c p1
335.99 229.02 0.43 c p1
336.56 226.18 0.43 c p1
337.13 218.96 0.43 c p1
337.70 224.44 0.43 c p1
338.27 228.78 0.43 c p1
338.84 223.62 0.43 c p1
339.40 222.85 0.43 c p1
339.97 225.09 0.43 c p1
340.54 224.09 0.43 c p1
341.11 224.24 0.43 c p1
341.68 223.46 0.43 c p1
342.25 221.53 0.43 c p1
342.82 223.74 0.43 c p1
343.39 225.96 0.43 c p1
343.96 228.18 0.43 c p1
344.53 222.07 0.43 c p1
345.10 223.12 0.43 c p1
345.67 221.17 0.43 c p1
346.23 227.53 0.43 c p1
346.80 227.65 0.43 c p1
347.37 222.69 0.43 c p1
347.94 223.73 0.43 c p1
348.51 225.92 0.43 c p1
349.08 226.03 0.43 c p1
349.65 216.93 0.43 c p1
350.22 226.25 0.43 c p1
350.79 223.35 0.43 c p1
351.36 228.53 0.43 c p1
351.93 224.47 0.43 c p1
352.49 219.51 0.43 c p1
353.06 220.52 0.43 c p1
353.63 226.84 0.43 c p1
354.20 220.71 0.43 c p1
354.77 222.87 0.43 c p1
355.34 222.96 0.43 c p1
355.91 224.19 0.43 c p1
356.48 225.20 0.43 c p1
357.05 223.21 0.43 c p1
357.62 222.37 0.43 c p1
358.19 225.44 0.43 c p1
358.75 225.52 0.43 c p1
359.32 229.76 0.43 c p1
359.89 217.39 0.43 c p1
360.46 219.53 0.43 c p1
361.03 225.81 0.43 c p1
361.60 222.89 0.43 c p1
0.00 0.00 432.00 576.00 cl
0 0 0 srgb
0.75 setlinewidth
[] 0 setdash
1 setlinecap
1 setlinejoin
10.00 setmiterlimit
np
249.30 201.60 m
113.82 0 l
o
np
249.30 201.60 m
0 -5.76 l
o
np
287.24 201.60 m
0 -5.76 l
o
np
325.18 201.60 m
0 -5.76 l
o
np
363.12 201.60 m
0 -5.76 l
o
/Font1 findfont 6 s
249.30 185.47 (200) .5 0 t
287.24 185.47 (400) .5 0 t
325.18 185.47 (600) .5 0 t
363.12 185.47 (800) .5 0 t
np
216.00 206.70 m
0 35.88 l
o
np
216.00 206.70 m
-5.76 0 l
o
np
216.00 212.68 m
-5.76 0 l
o
np
216.00 218.66 m
-5.76 0 l
o
np
216.00 224.64 m
-5.76 0 l
o
np
216.00 230.62 m
-5.76 0 l
o
np
216.00 236.60 m
-5.76 0 l
o
np
216.00 242.58 m
-5.76 0 l
o
209.09 204.54 (-0.006) 1 0 t
209.09 210.53 (-0.004) 1 0 t
209.09 216.51 (-0.002) 1 0 t
209.09 222.49 (0.000) 1 0 t
209.09 228.47 (0.002) 1 0 t
209.09 234.45 (0.004) 1 0 t
209.09 240.43 (0.006) 1 0 t
np
216.00 201.60 m
151.20 0 l
0 46.08 l
-151.20 0 l
0 -46.08 l
o
0.00 0.00 432.00 576.00 cl
/Font1 findfont 9 s
0 0 0 srgb
291.60 262.88 (Residuen) .5 0 t
59.04 73.44 401.76 516.96 cl
ep
%%Trailer
%%Pages: 1
%%EOF
