\BOOKMARK [1][-]{section.1}{Introduction}{}% 1
\BOOKMARK [2][-]{subsection.1.1}{Drop Weight Mehtod}{section.1}% 2
\BOOKMARK [3][-]{subsubsection.1.1.1}{Calibration}{subsection.1.1}% 3
\BOOKMARK [2][-]{subsection.1.2}{Bubble Pressure Method}{section.1}% 4
\BOOKMARK [3][-]{subsubsection.1.2.1}{Critical Micelle Concetration of Triton X-100}{subsection.1.2}% 5
\BOOKMARK [1][-]{section.2}{Experimental}{}% 6
\BOOKMARK [2][-]{subsection.2.1}{Apparatus}{section.2}% 7
\BOOKMARK [2][-]{subsection.2.2}{Procedure}{section.2}% 8
\BOOKMARK [3][-]{subsubsection.2.2.1}{Calibration}{subsection.2.2}% 9
\BOOKMARK [3][-]{subsubsection.2.2.2}{Surface Tension of a H2O/Isopropanol mixture}{subsection.2.2}% 10
\BOOKMARK [3][-]{subsubsection.2.2.3}{Bubble pressure method}{subsection.2.2}% 11
\BOOKMARK [3][-]{subsubsection.2.2.4}{Surface Tension of a H2O/Triton X-100 mixture}{subsection.2.2}% 12
\BOOKMARK [1][-]{section.3}{Results}{}% 13
\BOOKMARK [2][-]{subsection.3.1}{Calibration}{section.3}% 14
\BOOKMARK [2][-]{subsection.3.2}{Drop weight method}{section.3}% 15
\BOOKMARK [3][-]{subsubsection.3.2.1}{Density of the Liquid}{subsection.3.2}% 16
\BOOKMARK [3][-]{subsubsection.3.2.2}{Surface Tension}{subsection.3.2}% 17
\BOOKMARK [2][-]{subsection.3.3}{Bubble pressure method}{section.3}% 18
\BOOKMARK [3][-]{subsubsection.3.3.1}{Critical micelle concentration}{subsection.3.3}% 19
\BOOKMARK [1][-]{section.4}{Appendix}{}% 20
\BOOKMARK [2][-]{subsection.4.1}{Data}{section.4}% 21
\BOOKMARK [3][-]{subsubsection.4.1.1}{Raw Data}{subsection.4.1}% 22
\BOOKMARK [3][-]{subsubsection.4.1.2}{Derived Data}{subsection.4.1}% 23
\BOOKMARK [2][-]{subsection.4.2}{Error Propagation}{section.4}% 24
\BOOKMARK [2][-]{subsection.4.3}{Code}{section.4}% 25
