,,,,,,,,,,,
,Energy,Energy (opt),Angle,Img. Freq,,,,Delta E,Gibbs,Arrhenius (z-->e),Arrhenius (e-->z)
Glyoxal-z,-224.78013721,-224.80162238,0,0,,Glyoxal-z,-590216.65955869,-5.04193143488374,7.645688168634,1.50895368035576E+015,1.15369893009127E+016
Glyoxal-e,-224.73511773,-224.80354275,180,0,,Glyoxal-e,-590221.701490125,5.04193143488374,0.13079267398093,,
\delta E [Ha] (e-z),-0.0450194799999792,0.00192036999999345,,,,UZ [kJ/mol],-590202.82753202,,,13.8320266699884,18.8739581048721
\delta E [kJ/mol] (e-z),-118.198644739946,5.04193143498281,,,,,,,,,
UZ [Ha],-224.79635404,-224.79635404,85.81111,1,,,,,,,
UZ [kJ/mol],-590202.82753202,-590202.82753202,85.81111,1,,-224.78013721,-590160.250244855,56.4093138350872,,,
,,,,,,-224.73511773,-590042.051600115,179.649890009896,,,
Pcb_M,-1926.55990494,-5058183.03041997,,,,,,,,,
Pcb_P,-1926.55876214,-5058180.02999857,,,,,,,,,
\delta E [Ha] (M-P),-0.00114280000002509,,,,,,,,,,
\delta E [kJ/mol] (M-P),-3.00042140006587,3.35517827619923,,,,,,,,,
,,,,,,,,,,,
,,,Angle 6,expected angle 6,,,,Angle 1,Angle 4,,
Pcb_ZZZssa Group J,-1926.55856974,-1926.55856974,151.47346,69.513235,,Pcb_EZZass Group J,-1926.56549824,-172.17995,147.21641,,
E [Ha],-1926.55856974,-1926.55856974,,,,,,,,,
E [kJ/mol],-5058179.52485237,-5058179.52485237,,,,,,,,,
,,,,,,,,,,,
Pcb_M Group J,-1926.56924112,-1926.56924112,-12.44699,,,,,,,,
E [Ha],-1926.56924112,-1926.56924112,,,,,,,,,
E [kJ/mol],-5058207.54256056,-5058207.54256056,,,,,,,,,
,,,,,,,,,,,
\delta E [Ha] (m-zzzssa),-0.0106713800000762,,,,,,,,,,
\delta E [kJ/mol] (e-z),-28.0177081902,,,,,,,,,,
,,,,,,,,,,,
,Energy [Ha],Energy [kJ/mol],,,Energy [Ha],E [kJ/mol],Angle 6,,,,
Pcb_ZZZsss,-1926.56924112,-5058207.54256056,,ZZZsss2ZZZssa,-1926.54721017,-5058149.70030134,69.50992,,,,
Pcb_ZZZssa,-1926.55856974,-5058179.52485237,,\de;ta,,,,,,,
Pcb_EZZssa,-1926.559905,-5058183.0305775,,,,,,,,,
Pcb_EZZass,-1926.56549824,-5058197.71562912,,,,,,,,,
Pcb_EZZsss,-1926.5497097,-5058156.26281735,,,,,,,,,
Pcb_ZZZsas,-1926.5331,-5058112.65405,,,,,,,,,
Pcb_EZZsas,-1926.54307491,-5058138.84317621,,,,,,,,,
