Dye_0_1_V1_900V_20.dat
Dye_0_1_V1_900V_25.2.dat
Dye_0_1_V1_900V_25.dat
Dye_0_1_V1_900V_30.dat
Dye_0_1_V1_900V_35.dat
Dye_0_1_V1_900V_40.dat
Dye_0_1_V1_900V_45.dat
Dye_0_1_V1_900V.dat
Dye_0_1_V2_900V_20.dat
Dye_0_1_V2_900V_25.2.dat
Dye_0_1_V2_900V_25.dat
Dye_0_1_V2_900V_30.dat
Dye_0_1_V2_900V_35.dat
Dye_0_1_V2_900V_40.dat
Dye_0_1_V2_900V_45.dat
Dye_0_1_V2_900V.dat
Dye_0_1_V3_900V_20.dat
Dye_0_1_V3_900V_25.2.dat
Dye_0_1_V3_900V_25.dat
Dye_0_1_V3_900V_30.dat
Dye_0_1_V3_900V_35.dat
Dye_0_1_V3_900V_40.dat
Dye_0_1_V3_900V_45.dat
Dye_0_1_V3_900V.dat
Dye_1_1_V1_900V.dat
Dye_1_1_V2_900V.dat
Dye_1_1_V3_900V.dat
Dye_1_2_V1_900V.dat
Dye_1_2_V2_900V.dat
Dye_1_2_V3_900V.dat
Dye_1_3_V1_900V.dat
Dye_1_3_V2_900V.dat
Dye_1_3_V3_900V.dat
Dye_1_4_V1_900V.dat
Dye_1_4_V2_900V.dat
Dye_1_4_V3_900V.dat
