43598.6913049884 74.6
43598.6913239699 74.5
43598.6913438773 74.7
43598.6913645949 74.5
43598.6913809144 74.6
43598.6913998958 74.5
43598.6914191088 75
43598.6914392477 74.4
43598.6914604282 74.5
43598.6914816088 78.5
43598.691506956 110
43598.6915281366 123.5
43598.6915520949 127.3
43598.6915728125 128.5
43598.6915942245 128.6
43598.6916155208 128.5
43598.6916361227 128.5
43598.6916586921 128.5
43598.6916755903 128.9
43598.6916985069 128.6
43598.6917196875 128.5
43598.6917402894 128.5
