43598.6938068981 70.3
43598.6938271528 70
43598.6938427778 70
43598.6938603704 70.1
43598.6938805093 70.2
43598.6938961343 70.2
43598.6939144213 70.5
43598.6939327083 70
43598.6939513426 70
43598.6939744907 85.1
43598.6939985648 106.2
43598.6940214815 121.9
43598.6940427778 123.5
43598.6940636111 122.8
43598.6940843287 123
43598.6941053935 122.8
43598.6941261111 122.8
43598.694146713 123
43598.6941673148 123
43598.6941881481 123
43598.6942089815 122.9
43598.6942295833 122.8
43598.6942508796 122.9
43598.6942715972 123.2
43598.6942923148 122.9
43598.6943129167 123
43598.6943330556 123
43598.6943543519 122.9
43598.6943755324 122.6
43598.69439625 122.6
43598.6944170833 122.4
43598.6944375694 122.5
43598.6944578241 122.4
