43598.6887436458 89.2
43598.6887603125 89.2
43598.6887787153 89.2
43598.6888041782 89.6
43598.6888187616 89.2
43598.6888391319 89.3
43598.6888591551 89.2
43598.688882419 89.4
43598.6888993171 90.5
43598.6889224653 89.3
43598.6889389005 89.4
43598.688957419 89.3
43598.6889770949 89.5
43598.688978831 78.7
43598.6890023264 89.6
43598.6890258218 89.3
43598.6890420255 89.3
43598.6890617014 89.4
43598.6890839236 107.1
43598.6891134375 137.9
43598.6891367014 140.9
43598.6891595023 142.6
43598.6891845023 143.3
43598.6892076505 143.9
43598.6892311458 144.3
43598.6892557986 144.5
43598.6892791782 144.5
43598.6893026736 144.5
43598.6893246644 144.5
43598.6893497801 144.6
43598.689373044 144.5
43598.6893965394 144.5
43598.6894202662 144.6
43598.6894438773 144.5
43598.6894672569 144.7
43598.6894906366 144.6
