43599.576669537 59.4
43599.5766871296 59.3
43599.576704375 59.4
43599.5767219676 59.3
43599.5767394444 59.5
43599.576757037 59.4
43599.5767741667 59.4
43599.576791875 59.5
43599.5768093518 59.3
43599.5768270602 59.4
43599.576844537 59.3
43599.5768622454 59.4
43599.5768815741 78
43599.5768980093 92.5
43599.5769176852 97
43599.576935162 101.4
43599.5769521759 103.1
43599.5769705787 104.1
43599.5769845833 104.1
43599.5770022917 104
43599.5770194213 104
43599.577036088 104
43599.5770531019 104
43599.5770698843 104.1
43599.5770866667 104
43599.5771033333 104
43599.577120463 104.2
43599.5771374769 104.1
43599.5771542593 104.2
43599.5771710417 104.1
