43599.578786088 58.4
43599.5788046065 58.3
43599.5788220833 58.4
43599.5788396759 58.3
43599.578857037 58.5
43599.5788719676 58.5
43599.5788903704 58.3
43599.5789092361 58.5
43599.5789259028 58.3
43599.5789630556 79.8
43599.5789827315 99.8
43599.5789997454 102.2
43599.5790166435 102.9
43599.5790330787 102.9
43599.5790499769 102.8
43599.579066412 102.9
43599.5790833102 102.9
43599.5790999769 102.9
43599.579116875 102.9
43599.5791334259 102.9
43599.5791502083 102.8
43599.5791666435 102.9
43599.5791835417 102.9
43599.5792002083 102.8
43599.5792169907 103.1
43599.5792336574 102.9
43599.5792500926 102.8
43599.5792671065 102.8
