43598.6791030324 185.5
43598.6791324306 185.6
43598.6791436574 185.4
43598.6791723611 185.5
43598.679201412 185.7
43598.6792128704 185.9
43598.67922375 185.7
43598.6792522222 185.4
43598.6792791898 185.5
43598.6793083565 185.7
43598.6793199306 185.9
43598.6793308102 186
43598.6793407639 185.7
43598.6793663426 193.9
43598.6793854398 210.8
43598.6794048843 224.9
43598.6794055787 166.4
43598.6794235185 235.2
43598.6794419213 239.6
43598.6794600926 242
43598.679460787 182.4
43598.6794780324 241.9
43598.6794959722 242.2
43598.6795140278 242.6
43598.6795147222 183.6
43598.6795320833 242.7
43598.6795502546 242.7
43598.6795684259 242.7
43598.6795865972 242.6
43598.6795872917 182.8
43598.679604537 242.6
43598.6796225926 242.7
43598.6796406482 242.6
43598.6796587037 242.9
43598.6796595139 183.7
43598.679676875 242.7
43598.6796775694 183.6
43598.6796948148 242.9
43598.6797128704 242.6
