name     ma.l      cs.l   ma.u      cs.u
1.11 185.7154 0.4877736 242.05 0.3611972
2.22 185.4889 0.09193718 242.185 0.2367682
3.33 185.6538 0.08295826 242.375 0.2987516
0.02 111.9375 0.3588044 167.22 0.5786093
0.10 74.58889 0.09586975 128.44 0.2122092
0.15 70.14444 0.09457706 122.8136 0.1020705
0.20 68.76667 0.1409283 120.0933 0.2478649
0.40 64.27 0.03414117 113.05 0.1173129
0.50 89.40588 0.1131359 144.2733 0.228074
0.60 61.04167 0.07027903 107.0615 0.2783135
0.80 60.45455 0.03266151 105.3538 0.3108912
0.90 59.38333 0.03224623 104.00 0.1097845
0.95 58.38889 0.05043749 102.8412 0.06561595
1.00 58.96364 0.05729208 103.2786 0.06637212