k, sig

3.7295531         , 0.1021284
 3.68862432          , 0.09216709
 4.0158865         , 0.1027066
0.709050519           , 0.002156128
 0.712954594           , 0.002023682
 0.683415473           , 0.002288803
 0.864806562           , 0.002770761
 0.86942161          , 0.00188587
 0.833929632           , 0.003165798
 1.138757935           , 0.004856022
 1.145050731           , 0.005250508
 1.175741778           , 0.006083401
 1.187740039           , 0.009701143
 1.19650832          , 0.01041315
 1.180691207           , 0.009426664
